{
    "dcr_id": "1515521906872",
    "lang": "en",
    "type_name": "intra-intra/news-nouv",
    "approvalsadvisor": "jason.ramey@agr.gc.ca",
    "approvalsdirector": "jason.ramey@agr.gc.ca",
    "submitername": "Justine Walker",
    "submiteremail": "justine.walker2@canada.ca",
    "submiterphoneNumber": "613-773-0443",
    "issued": "2018-01-11",
    "translateReqNumber": "null"
}