{
    "dcr_id": "1518796724758",
    "lang": "en",
    "type_name": "intra-intra/news-nouv",
    "approvalsadvisor": "ricky.lee@canada.ca",
    "approvalsdirector": "lynden.hillier@agr.gc.ca",
    "submitername": "Jennifer McLaurin",
    "submiteremail": "jennifer.mclaurin@agr.gc.ca",
    "submiterphoneNumber": "613-773-0214",
    "issued": "2018-02-21",
    "translateReqNumber": "null"
}