{
    "dcr_id": "1519153100138",
    "lang": "en",
    "type_name": "intra-intra/news-nouv",
    "approvalsadvisor": "ricky.lee@canada.ca",
    "approvalsdirector": "pierre.corriveau@agr.gc.ca",
    "submitername": "Mercedes Jorge",
    "submiteremail": "mercedes.jorge@agr.gc.ca",
    "submiterphoneNumber": "613-773-3508",
    "issued": "2018-02-22",
    "translateReqNumber": "null"
}