{
    "dcr_id": "1521222869888",
    "lang": "en",
    "type_name": "intra-intra/news-nouv",
    "approvalsadvisor": "gail.hewitt@agr.gc.ca",
    "approvalsdirector": "vincent.beaulieu@agr.gc.ca",
    "submitername": "Emily Smyth",
    "submiteremail": "emily.smyth@canada.ca",
    "submiterphoneNumber": "613-773-0628",
    "issued": "2018-03-20",
    "translateReqNumber": "null"
}