{
    "dcr_id": "1523910614315",
    "lang": "en",
    "type_name": "intra-intra/news-nouv",
    "approvalsadvisor": "Janet.dowell@agr.gc.ca",
    "approvalsdirector": "Pierre.corriveau@agr.gc.ca",
    "submitername": "Apolline Mukandanga",
    "submiteremail": "Apolline.mukandanga@agr.gc.ca",
    "submiterphoneNumber": "613-773-2208",
    "issued": "2018-04-19",
    "translateReqNumber": "null"
}