{
    "dcr_id": "1524070672044",
    "lang": "en",
    "type_name": "intra-intra/news-nouv",
    "approvalsadvisor": "stela.susic@canada.ca",
    "approvalsdirector": "shelley.monlezun@canada.ca",
    "submitername": "Allison Meek",
    "submiteremail": "allison.meek@canada.ca",
    "submiterphoneNumber": "613-773-1345",
    "issued": "2018-04-18",
    "translateReqNumber": "null"
}