{
    "dcr_id": "1524568441417",
    "lang": "en",
    "type_name": "intra-intra/news-nouv",
    "approvalsadvisor": "ricky.lee@agr.gc.ca",
    "approvalsdirector": "scott.aughey@agr.gc.ca",
    "submitername": "Patricia Gagné",
    "submiteremail": "patricia.gagne@canada.ca",
    "submiterphoneNumber": "613-773-0337",
    "issued": "2018-04-26",
    "translateReqNumber": "null"
}