{
    "dcr_id": "1527254458410",
    "lang": "en",
    "type_name": "intra-intra/news-nouv",
    "approvalsadvisor": "natalie.ekholm@canada.ca",
    "approvalsdirector": "pierre.corriveau@agr.gc.ca",
    "submitername": "Lesley Gervais",
    "submiteremail": "lesley.gervais@agr.gc.ca",
    "submiterphoneNumber": "613-773-3489",
    "issued": "2018-05-31",
    "translateReqNumber": "n/a"
}