{
    "dcr_id": "1527610233700",
    "lang": "en",
    "type_name": "intra-intra/news-nouv",
    "approvalsadvisor": "stela.Susic@canada.ca",
    "approvalsdirector": "karim.bechane@canada.ca",
    "submitername": "Matthew Choma",
    "submiteremail": "matthew.choma@canada.ca",
    "submiterphoneNumber": "613-773-3604",
    "issued": "2018-05-31",
    "translateReqNumber": "n/a"
}