{
    "dcr_id": "1527616469593",
    "lang": "en",
    "type_name": "intra-intra/news-nouv",
    "approvalsadvisor": "natalie.ekholm@canada.ca",
    "approvalsdirector": "natalie.ekholm@canada.ca",
    "submitername": "Amanda Benwell",
    "submiteremail": "amanda.benwell@canada.ca",
    "submiterphoneNumber": "613-759-1626",
    "issued": "2018-05-30",
    "translateReqNumber": "n/a"
}