{
    "dcr_id": "1530647156811",
    "lang": "en",
    "type_name": "intra-intra/news-nouv",
    "approvalsadvisor": "ricky.lee@canada.ca",
    "approvalsdirector": "Pierre.corriveau@agr.gc.ca",
    "submitername": "Sami Reaz",
    "submiteremail": "sami.reaz@agr.gc.ca",
    "submiterphoneNumber": "613-773-3130",
    "issued": "2018-07-05",
    "translateReqNumber": "Not applicable"
}