{
    "dcr_id": "1536070088989",
    "lang": "en",
    "type_name": "intra-intra/news-nouv",
    "approvalsadvisor": "Ricky.lee@canada.ca",
    "approvalsdirector": "Scott.aughey@canada.ca",
    "submitername": "Kellie McNicoll",
    "submiteremail": "kellie.mcnicoll@agr.gc.ca",
    "submiterphoneNumber": "613-773-3487",
    "issued": "2018-09-06",
    "translateReqNumber": "180827"
}