{
    "dcr_id": "1541714663771",
    "lang": "en",
    "type_name": "intra-intra/news-nouv",
    "approvalsadvisor": "david.tuck@canada.ca",
    "approvalsdirector": "tonya.temple@canada.ca",
    "submitername": "justine walker",
    "submiteremail": "justine.walker2@canada.ca",
    "submiterphoneNumber": "613-773-0443",
    "issued": "2018-11-14",
    "translateReqNumber": "181031-21"
}