{
    "dcr_id": "1542120383595",
    "lang": "en",
    "type_name": "intra-intra/news-nouv",
    "approvalsadvisor": "stela.susic@canada.ca",
    "approvalsdirector": "ling.lee@canada.ca",
    "submitername": "Katherine Clubine",
    "submiteremail": "katherine.clubine@canada.ca",
    "submiterphoneNumber": "613-773-0869",
    "issued": "2018-11-15",
    "translateReqNumber": "181108-60"
}