{
    "dcr_id": "1542905774765",
    "lang": "en",
    "type_name": "intra-intra/news-nouv",
    "approvalsadvisor": "David.tuck@canada.ca",
    "approvalsdirector": "david.david.tuck@canada.ca",
    "submitername": "kathryn hunt",
    "submiteremail": "kathryn.hunt@canada.ca",
    "submiterphoneNumber": "613-773-2262",
    "issued": "2018-11-22",
    "translateReqNumber": "n/a"
}