{
    "dcr_id": "1546964016618",
    "lang": "en",
    "type_name": "intra-intra/news-nouv",
    "approvalsadvisor": "David.Tuck@canada.ca",
    "approvalsdirector": "paul.spooner@canada.ca",
    "submitername": "Matt Lefebvre",
    "submiteremail": "matthew.lefebvre@canada.ca",
    "submiterphoneNumber": "137-773-2363",
    "issued": "2019-01-09",
    "translateReqNumber": "181221-44"
}