{
    "dcr_id": "1549384466494",
    "lang": "en",
    "type_name": "intra-intra/news-nouv",
    "approvalsadvisor": "joy.moskovic@canada.ca",
    "approvalsdirector": "carla.stcroix@canada.ca",
    "submitername": "Bruce Radburn",
    "submiteremail": "bruce.radburn@canada.ca",
    "submiterphoneNumber": "613-773-2572",
    "issued": "2019-02-06",
    "translateReqNumber": "AAFC-190130-21 "
}