{
    "dcr_id": "1554220749440",
    "lang": "en",
    "type_name": "intra-intra/news-nouv",
    "approvalsadvisor": "nina.hamad@canada.ca",
    "approvalsdirector": "ron.gerold@canada.ca",
    "submitername": "Leanne Lalonde",
    "submiteremail": "leanne.lalonde@canada.ca",
    "submiterphoneNumber": "613-773-2019",
    "issued": "2019-04-04",
    "translateReqNumber": "AAFC-190401-49"
}