{
    "dcr_id": "1555356139108",
    "lang": "en",
    "type_name": "intra-intra/news-nouv",
    "approvalsadvisor": "irina.andritoiu@canada.ca",
    "approvalsdirector": "Elizabeth.foster@canada.ca",
    "submitername": "Debbie Lockrey-Wessel",
    "submiteremail": "debbie.lockrey-wessel@canada.ca",
    "submiterphoneNumber": "519-819-2907",
    "issued": "2019-04-15",
    "translateReqNumber": "190219"
}