{
    "dcr_id": "1556576756498",
    "lang": "en",
    "type_name": "intra-intra/news-nouv",
    "approvalsadvisor": "irina.andritoiu@canada.ca",
    "approvalsdirector": "jane.taylor@canada.ca",
    "submitername": "Lydia Lipic",
    "submiteremail": "lydia.lipic@canada.ca",
    "submiterphoneNumber": "204-926-9623",
    "issued": "2019-05-02",
    "translateReqNumber": "190424-60"
}