{
    "dcr_id": "1558444404012",
    "lang": "en",
    "type_name": "intra-intra/news-nouv",
    "approvalsadvisor": "joy.moskovic@canada.ca",
    "approvalsdirector": "brian.mccarthy@canada.ca",
    "submitername": "Yi Liang",
    "submiteremail": "yi.liang@canada.ca",
    "submiterphoneNumber": "613-773-1777",
    "issued": "2019-05-23",
    "translateReqNumber": "AAFC-190515-18"
}