{
    "dcr_id": "1559592615544",
    "lang": "en",
    "type_name": "intra-intra/news-nouv",
    "approvalsadvisor": "andrea.cameron@canada.ca",
    "approvalsdirector": "jill.hull2@canada.ca",
    "submitername": "Ashley Daniels",
    "submiteremail": "ashley.daniels@canada.ca",
    "submiterphoneNumber": "204-259-4039",
    "issued": "2019-06-03",
    "translateReqNumber": "AAFC-190530-47"
}