{
    "dcr_id": "1567518069577",
    "lang": "en",
    "type_name": "intra-intra/news-nouv",
    "approvalsadvisor": "justine.walker2@canada.ca",
    "approvalsdirector": "daniel.champoux@canada.ca",
    "submitername": "Alina Cipcigan",
    "submiteremail": "alina.cipcigan@canada.ca",
    "submiterphoneNumber": "613-773-1973",
    "issued": "2019-09-05",
    "translateReqNumber": "AAFC-190829-19"
}