{
    "dcr_id": "1568144660906",
    "lang": "en",
    "type_name": "intra-intra/news-nouv",
    "approvalsadvisor": "Kathryn.hunt@canada.ca",
    "approvalsdirector": "kathryn.hunt@canada.ca",
    "submitername": "kathryn hunt",
    "submiteremail": "kathryn.hunt@canada.ca",
    "submiterphoneNumber": "613-773-2262",
    "issued": "2019-09-12",
    "translateReqNumber": "n/a"
}