{
    "dcr_id": "1569344081545",
    "lang": "en",
    "type_name": "intra-intra/news-nouv",
    "approvalsadvisor": "Natalie.Ekholm@canada.ca",
    "approvalsdirector": "daryl.nearing@canada.ca",
    "submitername": "Lesleigh Smith",
    "submiteremail": "lesleigh.smith@canada.ca",
    "submiterphoneNumber": "613-773-2885",
    "issued": "2019-09-26",
    "translateReqNumber": "AAFC-190919-34"
}