{
    "dcr_id": "1570209308029",
    "lang": "en",
    "type_name": "intra-intra/news-nouv",
    "approvalsadvisor": "stela.susic@canada.ca",
    "approvalsdirector": "jacint.boucher@canada.ca",
    "submitername": "Marlo Khoury",
    "submiteremail": "marlo.khoury@canada.ca",
    "submiterphoneNumber": "613-773-1638",
    "issued": "2019-10-07",
    "translateReqNumber": "AAFC-190930-19"
}