{
    "dcr_id": "1571156108926",
    "lang": "en",
    "type_name": "intra-intra/news-nouv",
    "approvalsadvisor": "stela.susic@canada.ca",
    "approvalsdirector": "jacint.boucher@canada.ca",
    "submitername": "stela susic",
    "submiteremail": "stela.susic@canada.ca",
    "submiterphoneNumber": "613-773-3519",
    "issued": "2019-10-17",
    "translateReqNumber": "001"
}