{
    "dcr_id": "1572619355349",
    "lang": "en",
    "type_name": "intra-intra/news-nouv",
    "approvalsadvisor": "natalie.ekholm@canada.ca",
    "approvalsdirector": "natalie.ekholm@canada.ca",
    "submitername": "Natalie Ekholm",
    "submiteremail": "natalie.ekholm@canada.ca",
    "submiterphoneNumber": "613-773-2746",
    "issued": "2019-11-01",
    "translateReqNumber": "N/A"
}