{
    "dcr_id": "1572618921876",
    "lang": "en",
    "type_name": "intra-intra/news-nouv",
    "approvalsadvisor": "nina.hamad@canada.ca",
    "approvalsdirector": "christine.walker@canada.ca",
    "submitername": "Amy Lin",
    "submiteremail": "amy.lin@canada.ca",
    "submiterphoneNumber": "613-773-2785",
    "issued": "2019-11-07",
    "translateReqNumber": "AAFC-191030-25"
}