{
    "dcr_id": "1573134760105",
    "lang": "en",
    "type_name": "intra-intra/news-nouv",
    "approvalsadvisor": "stela.susic@canada.ca",
    "approvalsdirector": "christine.walker2@canada.ca",
    "submitername": "Justine Walker",
    "submiteremail": "justine.walker2@canada.ca",
    "submiterphoneNumber": "613-773-0443",
    "issued": "2019-11-07",
    "translateReqNumber": "191106-25"
}