{
    "dcr_id": "1574096923275",
    "lang": "en",
    "type_name": "intra-intra/news-nouv",
    "approvalsadvisor": "shelly.donaldson2@canada.ca",
    "approvalsdirector": "donald.boucher@canada.ca",
    "submitername": "Caitlyn Banks",
    "submiteremail": "caitlyn.banks@canada.ca",
    "submiterphoneNumber": "613-773-2407",
    "issued": "2019-11-21",
    "translateReqNumber": "AAFC-191118-8"
}