{
    "dcr_id": "1574800219105",
    "lang": "en",
    "type_name": "intra-intra/news-nouv",
    "approvalsadvisor": "justine.walker2@canada.ca",
    "approvalsdirector": "michel.lessard@canada.ca",
    "submitername": "Regina Palamar",
    "submiteremail": "regina.palamar@canada.ca",
    "submiterphoneNumber": "613-773-0357",
    "issued": "2019-11-28",
    "translateReqNumber": "AAFC-191125-16"
}