{
    "dcr_id": "1574788128452",
    "lang": "en",
    "type_name": "intra-intra/news-nouv",
    "approvalsadvisor": "natalie.ekholm@canada.ca",
    "approvalsdirector": "daniel.champoux@canada.ca",
    "submitername": "Jonathan Vermeire",
    "submiteremail": "jonathan.vermeire2@canada.ca",
    "submiterphoneNumber": "613-773-3402",
    "issued": "2019-11-26",
    "translateReqNumber": "191118-27"
}