{
    "dcr_id": "1576689662607",
    "lang": "en",
    "type_name": "intra-intra/news-nouv",
    "approvalsadvisor": "julie.plamondon@canada.ca",
    "approvalsdirector": "nina.hamad@canada.ca",
    "submitername": "Amy Lin",
    "submiteremail": "amy.lin@canada.ca",
    "submiterphoneNumber": "613-773-2785",
    "issued": "2019-12-19",
    "translateReqNumber": "na"
}