{
    "dcr_id": "1580844584063",
    "lang": "en",
    "type_name": "intra-intra/news-nouv",
    "approvalsadvisor": "Natalie.Ekholm@canada.ca",
    "approvalsdirector": "Frederic.Seppey@canada.ca",
    "submitername": "Erin Scullion",
    "submiteremail": "erin.scullion@canada.ca",
    "submiterphoneNumber": "613-773-1562",
    "issued": "2020-02-06",
    "translateReqNumber": "AAFC-200204-22"
}