{
    "dcr_id": "1580908772005",
    "lang": "en",
    "type_name": "intra-intra/news-nouv",
    "approvalsadvisor": "natalie.ekholm@canada.ca",
    "approvalsdirector": "nathalie.leblanc@canada.ca",
    "submitername": "Nat Ekholm/Emily DiPaolo",
    "submiteremail": "natalie.ekholm@canada.ca",
    "submiterphoneNumber": "613-773-2746",
    "issued": "2020-02-06",
    "translateReqNumber": "200204-4"
}