{
    "dcr_id": "1581346817379",
    "lang": "en",
    "type_name": "intra-intra/news-nouv",
    "approvalsadvisor": "Shelly.Donaldson@canada.ca",
    "approvalsdirector": "frederic.seppey@canada.ca",
    "submitername": "Erin Scullion",
    "submiteremail": "erin.scullion@canada.ca",
    "submiterphoneNumber": "613-773-1562",
    "issued": "2020-02-13",
    "translateReqNumber": "AAFC-200207-12"
}