{
    "dcr_id": "1582050328420",
    "lang": "en",
    "type_name": "intra-intra/news-nouv",
    "approvalsadvisor": "natalie.Ekholm@canada.ca",
    "approvalsdirector": "frederic.seppey@canada.ca",
    "submitername": "Erin Scullion",
    "submiteremail": "erin.scullion@canada.ca",
    "submiterphoneNumber": "613-773-1562",
    "issued": "2020-02-20",
    "translateReqNumber": "AAFC-200218-15"
}