{
    "dcr_id": "1583935515682",
    "lang": "en",
    "type_name": "intra-intra/news-nouv",
    "approvalsadvisor": "stela.susic@canada.ca",
    "approvalsdirector": "jacint.boucher@canada.ca",
    "submitername": "Carey Born",
    "submiteremail": "carey.born@canada.ca",
    "submiterphoneNumber": "613-773-0107",
    "issued": "2020-03-16",
    "translateReqNumber": "AAFC-200303-42"
}