{
    "dcr_id": "1583519614215",
    "lang": "en",
    "type_name": "intra-intra/news-nouv",
    "approvalsadvisor": "nina.hamad@canada.ca",
    "approvalsdirector": "alec.nicholls@canada.ca",
    "submitername": "Cindy Le",
    "submiteremail": "cindy.le2@canada.ca",
    "submiterphoneNumber": "613-773-2325",
    "issued": "2020-03-06",
    "translateReqNumber": "See Nina for number "
}