{
    "dcr_id": "1587377552917",
    "lang": "en",
    "type_name": "intra-intra/news-nouv",
    "approvalsadvisor": "justine.walker2@canada.ca",
    "approvalsdirector": "jacint.boucher@canada.ca",
    "submitername": "Carey Born",
    "submiteremail": "carey.born@canada.ca",
    "submiterphoneNumber": "613-897-6073",
    "issued": "2020-04-23",
    "translateReqNumber": "AAFC-200407-2"
}