{
    "dcr_id": "1170421393729",
    "title": {
        "en": "Central Experimental Farm National Historic Site Management Plan (4 of 20)",
        "fr": "Plan directeur du lieu historique national de la Ferme exp\u00e9rimentale centrale (4 de 20)"
    },
    "modified": "2019-09-17",
    "issued": "2009-01-22",
    "templatetype": "content page 1 column",
    "page_type": "0",
    "node_id": "1365611371966",
    "dc_date_created": "2009-01-22",
    "managing_branch": "PAB",
    "parent_node_id": "",
    "short_title": "",
    "exturl": "",
    "teamsite_location": {
        "en": "/default/main/AAFC-AAC/Internet-Internet/Common-Commun/WORKAREA/Common-Commun/templatedata/comm-comm/gene-gene/data/02/cef_plan03_1170421393729_en",
        "fr": "/default/main/AAFC-AAC/Internet-Internet/Common-Commun/WORKAREA/Common-Commun/templatedata/comm-comm/gene-gene/data/02/cef_plan03_1170421393729_fr"
    },
    "type_name": "comm-comm/gene-gene",
    "has_dcr_id": true,
    "label": {
        "en": "Central Experimental Farm National Historic Site Management Plan (4 of 20)",
        "fr": "Plan directeur du lieu historique national de la Ferme exp\u00e9rimentale centrale (4 de 20)"
    },
    "breadcrumb": {
        "en": "Central Experimental Farm National Historic Site Management Plan (4 of 20)",
        "fr": "Plan directeur du lieu historique national de la Ferme exp\u00e9rimentale centrale (4 de 20)"
    },
    "layout_name": "content page 1 column",
    "lang": "en",
    "refaire": false,
    "meta": {
        "viewport": {
            "en": "width=device-width,initial-scale=1",
            "fr": "width=device-width, initial-scale=1"
        },
        "issued": {
            "en": "2009-01-22",
            "fr": "2009-01-22"
        },
        "modified": {
            "en": "2019-09-17",
            "fr": "2019-09-17"
        },
        "format": {
            "en": "text/html",
            "fr": "text/html"
        },
        "title": {
            "en": "Central Experimental Farm National Historic Site Management Plan (4 of 20)",
            "fr": "Plan directeur du lieu historique national de la Ferme exp\u00e9rimentale centrale (4 de 20)"
        },
        "subject": {
            "en": "history",
            "fr": "histoire"
        },
        "dcterms:subject": {
            "en": "agricultural technology;buildings",
            "fr": "agriculture;b\u00e2timent"
        },
        "description": {
            "en": "It stated that the main lines of research were to be: testing of stock breeds; examining scientific and economic questions related to the dairy industry; testing the merits of cereals field crops grasses forage plants fruits vegetables plants and trees; analyzing and testing fertilizers and animal feed; studying plant diseases and treatments; testing agricultural seeds; and conducting any experiments and researches bearing upon the agricultural industry of Canada which may be approved by the Minister of Agriculture.",
            "fr": "Cette loi d\u00e9finit en ces termes les principaux domaines de la recherche : faire des essais sur les races d'animaux d'\u00e9levage; \u00e9tudier les questions scientifiques et \u00e9conomiques reli\u00e9es \u00e0 l'industrie laiti\u00e8re; analyser la valeur des c\u00e9r\u00e9ales des grandes cultures des gramin\u00e9es des plantes fourrag\u00e8res des fruits des l\u00e9gumes des plantes et des arbres; faire des essais et des analyses sur les engrais et les provendes; \u00e9tudier les maladies des v\u00e9g\u00e9taux et les traitements appropri\u00e9s; analyser des semences agricoles et \u00ab faire avec l'accord du ministre toutes autres exp\u00e9riences portant sur"
        },
        "language": {
            "en": "eng",
            "fr": "fra"
        },
        "keywords": {
            "en": "Canadian farmers;number of buildings;Parliament Hill;Table of Contents;central research station",
            "fr": "Note de bas de page;travaux de recherche;r\u00e9f\u00e9rence de la note de bas de page;exp\u00e9rimentale centrale;William Saunders"
        },
        "audience": {
            "en": "gcaudience",
            "fr": "gcaudience"
        },
        "type": {
            "en": "still image",
            "fr": "document g\u00e9ospatial"
        },
        "creator": {
            "en": "Central Experimental Farm Integrated Services;Agriculture and Agri-Food Canada;Government of Canada ",
            "fr": "Services int\u00e9gr\u00e9s de la Ferme exp\u00e9rimentale centrale;Agriculture et Agroalimentaire Canada;Gouvernement du Canada"
        },
        "spatial": {
            "en": "gcregions",
            "fr": "gcregions"
        },
        "service": {
            "en": "AAFC-AAC",
            "fr": "AAFC-AAC"
        },
        "accessRights": {
            "en": "2",
            "fr": "2"
        },
        "legalName": {
            "en": "agriculture_and_agri_food_canada",
            "fr": "agriculture_et_agroalimentaire_canada"
        },
        "areaServed": {
            "en": "Canada",
            "fr": "Canada"
        }
    },
    "h1": {
        "en": "Central Experimental Farm National Historic Site Management Plan (4 of 20)",
        "fr": "Plan directeur du lieu historique national de la Ferme exp\u00e9rimentale centrale (4 de 20)"
    },
    "js": {
        "en": "",
        "fr": ""
    },
    "body": {
        "en": "\r\n    <nav>\n<h2 class=\"hidden\">Previous-next document navigation - top</h2>\n<p class=\"text-right\"><a href=\"/eng/?id=1170420541894\" title=\"Introduction\">Previous</a> | <a href=\"/eng/?id=1170695386778\">Table of Contents</a> | <a href=\"/eng/?id=1170425145846\" title=\"II.2 Recent history\">Next</a></p>\n</nav>\n\n\n\n<h2>Background</h2>\n\n\n<h3>II.1 Historical Overview of the Central Experimental Farm</h3>\n<p id=\"content1\">The <abbr title=\"Central Experimental Farm\">CEF</abbr> was established in 1886 as the central research station of the newly formed Experimental Farms Branch of the federal Department of Agriculture. More than 100 years later, the site's fields, laboratories, offices, barns, outbuildings, greenhouses, gardens, scientific collections, and research records continue to bear witness to political, economic, agricultural, and scientific forces that created, molded and sustained the farm. <sup id=\"fn1-rf\"><a class=\"fn-lnk\" href=\"#fn1\"><span class=\"wb-inv\">Footnote </span>1</a></sup></p>\n\n<h4>Phase I, 1886-1936</h4>\n\n<div class=\"row\"> \n<div class=\"col-md-4 pull-left mrgn-bttm-md\">\n<figure>\n<img src=\"https://www.agr.gc.ca/resources/prod/img/cef-fec/plan/images/fields-champs_1890.gif\" class=\"img-responsive\" alt=\"Description of this image follows\">\n<br>\n<figcaption><i>View of <abbr title=\"Central Experimental Farm\">CEF</abbr> Looking South towards Director's Residence, 1890</i></figcaption>\n</figure>\n</div></div>\n\n<p>The evolution of the <abbr title=\"Central Experimental Farm\">CEF</abbr> landscape between 1886 to the 1930s can be roughly divided into three eras. From 1886 to 1889, the Experimental Farms Branch acquired the property, laid out the site, improved that land, erected several buildings, and planted the Arboretum and forest belts and established the Vascular Plant Herbarium collection. The overall plan of the site and formal plantings represented both general English landscape concepts and specific ideas about appropriate farmstead arrangements and ornamentation. Between 1890 and 1911 the site developed into a formal and complete research institution guided by 19<sup>th</sup>-century ideas about the role of agricultural research in rural improvement. Towards the end of this period the model farm landscape became less prominent, as urban landscaping forms, such as tree-lined driveways and formal garden beds, appeared in key parts of the site. Between 1912 and 1936 a number of original buildings were demolished, including the Director's Residence, which had served as the focal point of the picturesque landscape, and the original office building that anchored administrative activities in physical proximity to the fields.</p>\n<br>\n\n<div class=\"row\"> \n<div class=\"col-md-4 pull-left mrgn-bttm-md\">\n<figure><img src=\"https://www.agr.gc.ca/resources/prod/img/cef-fec/plan/images/saunders.gif\" class=\"img-responsive\" alt=\"Description of this image follows\">\n<br>\n<figcaption><i>Sir Charles Saunders, <abbr title=\"circa\">c.</abbr> 1911<br>[Source: <abbr title=\"Agriculture and Agri-Food Canada\">AAFC</abbr> Web site]</i>\n</figcaption>\n</figure>\n</div></div>\n\n<p>The accomplishments of Sir William Saunders, the first director of the research branch, were supported by a series of Ministers of Agriculture, the most important of whom was Sir John Carling. Over a nine-year period, Carling and Saunders lobbied for the farm's creation, oversaw its establishment, and guided it through the critical years of its infancy. Carling and Saunders shared philosophical positions regarding the value of scientific research to agricultural improvement and the importance of \"intellectual farming\" to the prosperity of individual farmers. They espoused a philosophy of agriculture that linked rural and agricultural progress with the development of intellectual organizations such as agricultural colleges, practical research programs, and effective agricultural societies.</p>\n\n\n<p id=\"content2\">Carling and Saunders also believed that the government had an important role to play in providing institutional support for improvement projects, since many solutions were beyond the grasp of individuals. In 1886 Parliament appointed Saunders to study and report on the ways in which agricultural experimentation might usefully be applied to the problems of settling and cultivating the Canadian northwest. In Saunders' view, the</p>\n\n<blockquote>\n<p>\"agricultural experimental farms, properly conducted, will soon become bureaus of information for all who are concerned with agriculture or horticulture, which the farmer and fruit grower will be encouraged to visit, and inspect the work going on, and where it is hoped they will feel free to report regarding such difficulties as they may experience in the course of their work, and seek information from the officers in charge.\" <sup id=\"fn2-rf\"><a class=\"fn-lnk\" href=\"#fn2\"><span class=\"wb-inv\">Footnote </span>2</a></sup></p>\n</blockquote>\n\n<p id=\"content3-4\">Carling incorporated Saunders's recommendations concerning the location, administration, and general goals of the experimental stations into the 1886 Act Respecting Experimental Stations, which remains in force today with some amendments. It stated that the main lines of research were to be: testing of stock breeds; examining scientific and economic questions related to the dairy industry; testing the merits of cereals, field crops, grasses, forage plants, fruits, vegetables, plants and trees; analyzing and testing fertilizers and animal feed; studying plant diseases and treatments; testing agricultural seeds; and conducting \"any experiments and researches bearing upon the agricultural industry of Canada, which may be approved by the Minister of Agriculture.\"<sup id=\"fn3-rf\"><a class=\"fn-lnk\" href=\"#fn3\"><span class=\"wb-inv\">Footnote </span>3</a></sup> By using the name \"experimental farm\" to describe the institution, Carling and Saunders hoped to gain support from people who were skeptical of the benefits of \"scientific agriculture\" but who were ready to admit that testing and experimentation on a working farm could prove useful to Canadian farmers. The central research station in Ottawa would be staffed by a horticulturalist, a forester, an entomologist, a botanist, a chemist and a veterinarian. <sup id=\"fn4-rf\"><a class=\"fn-lnk\" href=\"#fn4\"><span class=\"wb-inv\">Footnote </span>4</a></sup></p>\n<p id=\"content5\">In 1886 the federal government purchased the property that became the <abbr title=\"Central Experimental Farm\">CEF</abbr> by acquiring fifteen properties covering 465 acres (188 hectares). The properties' close proximity to Parliament Hill encouraged Saunders and others to overlook some problems with the land. According to the Department of Agriculture annual report of 1886, an \"eminent landscape architect\" created a site plan for the farm's general layout, but no plan has survived. <sup id=\"fn5-rf\"><a class=\"fn-lnk\" href=\"#fn5\"><span class=\"wb-inv\">Footnote </span>5</a></sup> Saunders reported that the farm was divided into three general areas: the main farm complex, experimental fields, and the Arboretum. It was designed to ensure that experimentation would follow actual farm practices and to demonstrate up-to-date agricultural techniques.</p>\n\n\n<p>For a picture of the Site plan of the <abbr title=\"Central Experimental Farm\">CEF</abbr> in 1897, please e-mail <a href=\"mailto:cef-fec@agr.gc.ca\" title=\"Email: Central Experimental Farm\">cef-fec@agr.gc.ca</a> </p>\n<p>The main complex, comprising residences, office, and farm structures, served as the centre of operations. The pastoral landscape of the central area, loosely based on English garden landscape tradition associated with public parks and grand country estates, featured curvilinear road patterns, small gardens adjacent to residential structures, and a great lawn. The experimental role of the farm was never very far from view, however, since field crop and flower test plots were interspersed among the residences and farm buildings. The core area also served in a model farm role, whereby buildings and other facilities could be used to demonstrate the value of good farm building design and agricultural techniques to farmers.</p>\n\n\n<p>Research work at the <abbr title=\"Central Experimental Farm\">CEF</abbr> began in a modest manner with only three divisions - entomology and botany, chemistry, and horticulture - staffed by amateur scientists. Among early research projects, the highest recognition was given to experiments on the hybridization of grains. The work began in 1887 at the <abbr title=\"Central Experimental Farm\">CEF</abbr> in the seed-testing greenhouses and in 1911 moved into the cereal building, still located beside the botanic gardens. Widespread distribution of marquis wheat began in 1909, garnet wheat in 1925, and renown wheat in 1926. The first variety alone made a remarkable impact on prairie agriculture and helped establish Canada's position as one of the world's leading exporters of wheat. In 1889 cattle were introduced through the acquisition of bulls and cows from Canadian and American herds. Sheep, swine and poultry were soon added. This reflected the farm's original intent to promote mixed farming and recognized that such a geographically diverse country required different farming practices.</p>\n\n<div class=\"row\"> \n<div class=\"col-md-4 pull-left mrgn-bttm-md\">\n<figure>\n<img src=\"https://www.agr.gc.ca/resources/prod/img/cef-fec/plan/images/scene_arboretum_1900.gif\" class=\"img-responsive\" alt=\"Description of this image follows\">\n<br>\n<figcaption><i>Scene from the Arboretum, <abbr title=\"circa\">c.</abbr> 1900</i></figcaption>\n</figure>\n</div></div>\n<p>The farm's proximity and its beautification ideals fostered a close relationship between the institution and city residents. For urban dwellers, the <abbr title=\"Central Experimental Farm\">CEF</abbr> offered a glimpse of an idyllic rural life and a \"fresh air experience\", which urban reformers thought so important for the improvement of society. Feeling the need to create an attractive capital city, the federal government established the Ottawa Improvement Commission (OIC) in 1899. In its ongoing efforts to remove the overt trappings of the lumber industry and draw attention to the natural beauty of Ottawa's setting, the OIC incorporated the <abbr title=\"Central Experimental Farm\">CEF</abbr> into its planning design. By the early 20<sup>th</sup> century, Ottawa had expanded westward into Nepean Township and a \"street railway\" was extended into the <abbr title=\"Central Experimental Farm\">CEF</abbr> grounds.</p>\n\n<div class=\"row\"> \n<div class=\"col-md-4 pull-left mrgn-bttm-md\">\n\t\n<figure><img src=\"https://www.agr.gc.ca/resources/prod/img/cef-fec/plan/images/tour_1921.gif\" class=\"img-responsive\" alt=\"Description of this image follows\">\n<br>\n<figcaption><i>Tour of <abbr title=\"Central Experimental Farm\">CEF</abbr> Facilities, 1921</i></figcaption>\n</figure>\n</div></div>\n\n<p id=\"content6\">The retirement of Saunders in 1911 and the appointment of J.H. Grisdale as director marked a shift in focus at the farm and coincided with the reorganization of the Experimental Farms Service. Emphasis remained on the practical application of agricultural science, but the reorganization broadened the scope of research and organized areas into clearly defined divisions. As a result of these administrative and functional changes, the layout changed as the site was divided into research divisions, and the number of buildings on the farm increased dramatically from thirty-four to ninety-five between 1912 and the 1920s. After thirty-five years of exposure to the research results of the experimental farm, farmers were beginning to believe that \"the most practical man is not necessarily the one with the most manure on his boots.\" <sup id=\"fn6-rf\"><a class=\"fn-lnk\" href=\"#fn6\"><span class=\"wb-inv\">Footnote </span>6</a></sup> In 1926 alone nearly 250,000 inquiries were made to farm staff by Canadian farmers.</p>\n\n\n<p>Even during this early phase, when the <abbr title=\"Central Experimental Farm\">CEF</abbr> was physically part of a rural area, its identity was intrinsically bound with the capital. From the outset, Saunders wanted to create connections between the <abbr title=\"Central Experimental Farm\">CEF</abbr> and Parliament Hill.</p>\n\n  <h4>Phase II, 1936-1986</h4>\n<p>By the mid-1930s, the <abbr title=\"Central Experimental Farm\">CEF</abbr> was positioned well within the city limits. Staff housing was no longer required and two of the four staff residences were removed. A walled sunken garden was created on the site of the Horticulturalist's house, as a memorial to the <abbr title=\"Central Experimental Farm\">CEF</abbr>'s eminent horticulturalist, W.T. Macoun. The garden is designed in the formal style of the period and many of the plantings date from the early days of the farm. Through the research work and scholarly publications of Isabella Preston, an ornamental horticulturalist who joined the <abbr title=\"Central Experimental Farm\">CEF</abbr> in 1920, the <abbr title=\"Central Experimental Farm\">CEF</abbr> continued to influence trends in public and private breeding programmes up into the 1960s. Most of the collections dating from this period have been dispersed, and Friends of the Farm are currently trying to locate and reintroduce some of these plant materials.</p>\n\n\n<p>For a picture of the <abbr title=\"Central Experimental Farm\">CEF</abbr> map in 1946, please e-mail <a href=\"mailto:cef-fec@agr.gc.ca\" title=\"Email: Central Experimental Farm\">cef-fec@agr.gc.ca</a> </p>\n<p>In 1936, the Federal District Commission incorporated the farm in its proposed plan for a scenic driveway system. The plan was implemented by the mid-1940s. The driveway system, like the new administration building, modified the character of the <abbr title=\"Central Experimental Farm\">CEF</abbr> and brought it up to date, at the same time permitting it to continue to play its many roles. One consequence of the road-widening inherent in the driveway system was the removal of much of the forest belt along the north and west sides of the property, as well as the dismantling of the main entry gates. The loss of these trees was compounded by the loss to disease of many of the <abbr title=\"Central Experimental Farm\">CEF</abbr>'s mature elms.</p>\n\n<div class=\"row\"> \n<div class=\"col-md-4 pull-left mrgn-bttm-md\">\n<figure><img src=\"https://www.agr.gc.ca/resources/prod/img/cef-fec/plan/images/info_kiosk.gif\" class=\"img-responsive\" alt=\"Description of this image follows\">\n<br>\n<figcaption><i>Portable Information Kiosk at the <abbr title=\"Central Experimental Farm\">CEF</abbr>, 1938</i></figcaption>\n</figure>\n</div></div>\n\n<p>In 1937 another reorganization of the research divisions consolidated the work of the experimental farms system into larger services and resulted in the centralization of research into fewer, larger structures. This move was heralded by the opening of the Saunders Building in 1936 to house the bureaucracy needed to coordinate the work of the research services. The position of the <abbr title=\"Central Experimental Farm\">CEF</abbr> as the coordinating branch for the department's research program was abolished in 1958 when a new policy of decentralization gave individual stations more responsibility for research coordination. Tobacco research ceased at the farm in 1958; forestry research was discontinued in 1960; and the animal research program was moved to a separate facility within Ottawa's greenbelt. These changes led to the demolition of several buildings and to the building of modern structures. They also increased the division between parkland and research areas on the farm.</p>\n<div class=\"clearfix\"></div>\n\n<div class=\"row\"> \n<div class=\"col-md-4 pull-left mrgn-bttm-md\">\n<figure><img src=\"https://www.agr.gc.ca/resources/prod/img/cef-fec/plan/images/macoun.gif\" class=\"img-responsive\" alt=\"Description of this image follows\">\n<br>\n<figcaption><i>Macoun Memorial Garden</i></figcaption>\n</figure>\n</div></div>\n\n<p>In the 1960s the farm was clearly divided into two areas - an office building complex along an axis formed by the Neatby Building, the Observatory Campus and the Sir John Carling Building, and a research station complex. The 1960s also witnessed the demise of the <abbr title=\"Central Experimental Farm\">CEF</abbr>'s original entrance, which was re-established to the traffic circle, and the removal of the last of the forest belt along Carling Avenue. In keeping with the <abbr title=\"National Capital Commission\">NCC</abbr>'s growing emphasis on parkland, a CPR track which cut across the corner of the Arboretum was removed and relaid underground, opening up more green space along Dow's Lake. In the 1970s, when the model farm function was eliminated, a number of buildings no longer required for research purposes were removed from the site. Notably, throughout this modern period the framework of landscape continued to hold, and it, in part, dictated the placement of new buildings.</p>\n\n\n\n<nav>\n<h2 class=\"hidden\">Previous-next document navigation - bottom</h2>\n<p class=\"text-right\"><a href=\"/eng/?id=1170420541894\" title=\"Introduction\">Previous</a> | <a href=\"/eng/?id=1170695386778\">Table of Contents</a> | <a href=\"/eng/?id=1170425145846\" title=\"II.2 - Recent History\">Next</a></p>\n</nav>\n\n<aside class=\"wb-fnote\" role=\"note\">\n    <h2 id=\"fn\">Footnotes</h2>\n    <dl>\n        <dt>Footnote 1</dt>\n        <dd id=\"fn1\">\n\n\t<p>This summary of the history of the <abbr title=\"Central Experimental Farm\">CEF</abbr> is based on research papers by Julie Harris, Contentworks <abbr title=\"Incorporated\">Inc.</abbr> as an independent scholar, consultant and historian with Parks Canada. See: J. Harris and J. Mueller, \"Making Science Beautiful: The Central Experimental Farm, 1886-1939,\" Ontario History, Vol. 89, No. 2 (June 1997). </p>\n\t        <p class=\"fn-rtn\"><a href=\"#fn1-rf\"><span class=\"wb-inv\">Return to footnote </span>1<span class=\"wb-inv\"> referrer</span></a></p>\n        </dd>\n        <dt>Footnote 2</dt>\n<dd id=\"fn2\">\n\t<p>William Saunders, The Experimental Farms of the Dominion of Canada (Ottawa: Department of Agriculture 1887), <abbr title=\"page\">p.</abbr> 10. </p>\n\t<p class=\"fn-rtn\"><a href=\"#fn2-rf\"><span class=\"wb-inv\">Return to footnote </span>2<span class=\"wb-inv\"> referrer</span></a></p>\t</dd>\n\t\t\n\t<dt>Footnote 3</dt>\n\t<dd id=\"fn3\">\n\t<p>Department of Agriculture, \"Experimental Farms Service: Their Purpose, Policy and Work\" (1939), in National Archives of Canada, RG 17, <abbr title=\"volume\">vol.</abbr> 2812, file 170.1. </p>\n\t<p class=\"fn-rtn\"><a href=\"#fn3-rf\"><span class=\"wb-inv\">Return to footnote </span>3<span class=\"wb-inv\"> referrer</span></a></p>\n\t</dd>\n\t\t\n\t<dt>Footnote 4</dt>\n\t<dd id=\"fn4\">\n\t<p>[William] Saunders, Agricultural Colleges and Experimental Farm Stations With Suggestions Relating to Experimental Agriculture in Canada (Ottawa: Department of Agriculture 1886), 98. </p>\n\t<p class=\"fn-rtn\"><a href=\"#fn4-rf\"><span class=\"wb-inv\">Return to footnote </span>4<span class=\"wb-inv\"> referrer</span></a></p>\n\t</dd>\n\t\t\n\t<dt>Footnote 5</dt>\n\t<dd id=\"fn5\">\n\t<p>The earliest known plan of the <abbr title=\"Central Experimental Farm\">CEF</abbr> dates from 1887. It illustrates the layout of roads and buildings, but it is not drawn in a style that would be expected from landscape professionals of the period. It may have been drafted by Saunders, based on now-lost sketches by the most likely designers of the <abbr title=\"Central Experimental Farm\">CEF</abbr> site, Miller and Yates. </p>\n\t<p class=\"fn-rtn\"><a href=\"#fn5-rf\"><span class=\"wb-inv\">Return to footnote </span>5<span class=\"wb-inv\"> referrer</span></a></p>\n\t</dd>\n\t\t\n\t<dt>Footnote 6</dt>\n\t<dd id=\"fn6\">\n\t<p>\"Practical Science,\" Farmer's Advocate and Home Magazine 61 (1 April 1926), <abbr title=\"page\">p.</abbr> 1475. </p>\n\t<p class=\"fn-rtn\"><a href=\"#fn6-rf\"><span class=\"wb-inv\">Return to footnote </span>6<span class=\"wb-inv\"> referrer</span></a></p>\n\t</dd>\n\t</dl>\n</aside>\n\r\n    ",
        "fr": "\r\n    <nav>\n  <h2 class=\"hidden\">Navigation dans le document : page pr\u00e9c\u00e9dente - page suivant haut</h2>\n\n<p class=\"text-right\">\n<a title=\"Introduction\" href=\"/fra/?id=1170420541894\">Pr\u00e9c\u00e9dente</a>\u00a0|\u00a0<a href=\"/fra/?id=1170695386778\">Table des mati\u00e8res</a>\u00a0|\u00a0<a title=\"II.2 Histoire r\u00e9cente\" href=\"/fra/?id=1170425145846\">Suivante</a></p>\n</nav>\n\n\n<h2>Contexte</h2>\n\n\n<h3>Aper\u00e7u historique de la Ferme exp\u00e9rimentale centrale</h3>\n<p id=\"content1\">La Ferme exp\u00e9rimentale centrale (FEC) a \u00e9t\u00e9 cr\u00e9\u00e9e en 1886, \u00e0 titre de station centrale de recherches de la Direction des fermes exp\u00e9rimentales nouvellement form\u00e9e au sein du minist\u00e8re f\u00e9d\u00e9ral de l'Agriculture. Plus de cent ans plus tard, les terrains, les laboratoires, les bureaux, les \u00e9tables, les d\u00e9pendances, les serres, les jardins, les collections scientifiques et les dossiers de recherche continuent de t\u00e9moigner des forces politiques, \u00e9conomiques, agricoles et scientifiques qui ont cr\u00e9\u00e9, model\u00e9 et maintenu la Ferme <sup id=\"fn1-rf\"><a class=\"fn-lnk\" href=\"#fn1\"><span class=\"wb-inv\">Note de bas de page </span>1</a></sup>.</p>\n\n<h4>Phase I, 1886-1936</h4>\n\n<div class=\"row\"> \n<div class=\"col-md-4 pull-left mrgn-bttm-md\">\n<figure>\n<img alt=\"La description de cette image suit\" class=\"img-responsive\" src=\"https://www.agr.gc.ca/resources/prod/img/cef-fec/plan/images/fields-champs_1890.gif\"><br>\n<figcaption><i>Vue de la <abbr title=\"Ferme exp\u00e9rimentale centrale\">FEC</abbr> en direction sud, vers la r\u00e9sidence du directeur (1890)</i></figcaption>\n</figure>\n</div></div>\n\n\n<p>L'\u00e9volution du paysage de la <abbr title=\"Ferme exp\u00e9rimentale centrale\">FEC</abbr>, de 1886 jusqu'aux ann\u00e9es 1930, se divise essentiellement en trois p\u00e9riodes distinctes. De 1886 \u00e0 1889, la Direction des fermes exp\u00e9rimentales a fait l'acquisition des terrains, puis a proc\u00e9d\u00e9 au trac\u00e9 des emplacements, \u00e0 l'am\u00e9lioration du terrain, \u00e0 l'\u00e9rection de plusieurs b\u00e2timents, \u00e0 la plantation de l'Arboretum et des ceintures foresti\u00e8res, ainsi qu'\u00e0 l'\u00e9tablissement de l'Herbier des plantes vasculaires. Le plan g\u00e9n\u00e9ral du site et les plantations respectaient non seulement les concepts g\u00e9n\u00e9raux de l'am\u00e9nagement paysager britannique, mais aussi les notions g\u00e9n\u00e9rales concernant l'am\u00e9nagement et l'ornementation des b\u00e2timents de ferme. Puis, de 1890 \u00e0 1911, le site s'est transform\u00e9 en \u00e9tablissement de recherche officiel et complet, guid\u00e9 par les principes du XIX<sup>e</sup> si\u00e8cle quant \u00e0 l'importance de la recherche agricole pour l'am\u00e9lioration du milieu rural. Vers la fin de cette p\u00e9riode, le paysage de ferme mod\u00e8le est devenu moins apparent, avec l'apparition d'\u00e9l\u00e9ments du paysage urbain comme les all\u00e9es bord\u00e9es d'arbres et les massifs am\u00e9nag\u00e9s \u00e0 des endroits cl\u00e9s du site. De 1912 \u00e0 1936, quelques uns des b\u00e2timents d'origine ont \u00e9t\u00e9 d\u00e9molis, dont la r\u00e9sidence du directeur qui avait \u00e9t\u00e9 l'\u00e9l\u00e9ment central de ce paysage pittoresque, ainsi que l'immeuble \u00e0 bureaux qui avait jusque l\u00e0 assur\u00e9 une proximit\u00e9 physique entre le centre des activit\u00e9s administratives et les champs.</p>\n\n<p>Les r\u00e9alisations de Sir William Saunders, le premier directeur de la Direction g\u00e9n\u00e9rale de la recherche, b\u00e9n\u00e9ficiaient de l'appui d'un groupe de ministres de l'Agriculture dont le plus important \u00e9tait Sir-John-Carling. Pendant neuf ans, Carling et Saunders ont fait pression en faveur de la cr\u00e9ation de la Ferme, puis en ont supervis\u00e9 l'am\u00e9nagement et la r\u00e9alisation durant les premi\u00e8res ann\u00e9es critiques. Toux deux partageaient une philosophie commune quant \u00e0 la valeur de la recherche scientifique pour l'am\u00e9lioration agricole et \u00e0 l'importance de l'agriculture \u00ab\u00a0intellectuelle\u00a0\u00bb pour la prosp\u00e9rit\u00e9 de chaque agriculteur. Leur philosophie liait le progr\u00e8s de l'agriculture et du milieu rural au d\u00e9veloppement d'organismes intellectuels comme les coll\u00e8ges agricoles, les programmes de recherche pratique et des soci\u00e9t\u00e9s agricoles efficaces.</p>\n\n<div class=\"row\"> \n<div class=\"col-md-4 pull-left mrgn-bttm-md\">\n<figure>\n<img class=\"img-responsive\" alt=\"La description de cette image suit\" src=\"https://www.agr.gc.ca/resources/prod/img/cef-fec/plan/images/saunders.gif\"><br>\n<figcaption><i>Sir Charles Saunders (v.\u00a01911)<br>\n[Source\u00a0: Site Web d'<abbr title=\"Agriculture et Agroalimentaire Canada\">AAC</abbr>]</i></figcaption>\n</figure>\n</div></div>\n\n<p id=\"content2\">Carling et Saunders estimaient en outre que l'administration publique avait un r\u00f4le important \u00e0 jouer, en apportant le soutien n\u00e9cessaire \u00e0 l'avancement des projets car bon nombre exigeaient des solutions qui d\u00e9passaient les capacit\u00e9s des particuliers. En 1886, le Parlement chargeait William Saunders d'\u00e9tudier comment la recherche agricole pourrait s'appliquer \u00e0 la recherche de solutions aux probl\u00e8mes de colonisation et de culture dans le nord-ouest du Canada, et de faire rapport \u00e0 ce sujet. William Saunders estimait que des fermes exp\u00e9rimentales agricoles bien g\u00e9r\u00e9es deviendraient bient\u00f4t des centres d'information pour tous ceux qui s'int\u00e9ressaient \u00e0 l'agriculture ou \u00e0 l'horticulture, des lieux que les agriculteurs et les fruiticulteurs voudraient visiter afin d'examiner les travaux qui y \u00e9taient men\u00e9s et o\u00f9 ils se sentiraient \u00e0 l'aise d'exposer les probl\u00e8mes qu'ils \u00e9prouvaient dans le cadre de leurs activit\u00e9s afin d'obtenir des informations des agents responsables <sup id=\"fn2-rf\"><a class=\"fn-lnk\" href=\"#fn2\"><span class=\"wb-inv\">Note de bas de page </span>2</a></sup>.</p>\n\n\n<p id=\"content3-4\">Sir John Carling a tenu compte des recommandations de William Saunders au sujet de l'emplacement, de l'administration et des objectifs g\u00e9n\u00e9raux des stations exp\u00e9rimentales, au moment de l'\u00e9laboration de la Loi sur les stations agronomiques de 1886 qui demeure en vigueur, malgr\u00e9 quelques modifications. Cette loi d\u00e9finit en ces termes les principaux domaines de la recherche\u00a0: faire des essais sur les races d'animaux d'\u00e9levage; \u00e9tudier les questions scientifiques et \u00e9conomiques reli\u00e9es \u00e0 l'industrie laiti\u00e8re; analyser la valeur des c\u00e9r\u00e9ales, des grandes cultures, des gramin\u00e9es, des plantes fourrag\u00e8res, des fruits, des l\u00e9gumes, des plantes et des arbres; faire des essais et des analyses sur les engrais et les provendes; \u00e9tudier les maladies des v\u00e9g\u00e9taux et les traitements appropri\u00e9s; analyser des semences agricoles et \u00ab\u00a0faire, avec l'accord du ministre, toutes autres exp\u00e9riences portant sur l'agricuture canadienne\u00a0\u00bb <sup id=\"fn3-rf\"><a class=\"fn-lnk\" href=\"#fn3\"><span class=\"wb-inv\">Note de bas de page </span>3</a></sup>. En utilisant l'expression \u00ab\u00a0ferme exp\u00e9rimentale\u00a0\u00bb pour d\u00e9crire l'institution, Carling et Saunders esp\u00e9raient se rallier ceux qui doutaient des m\u00e9rites de l'agriculture \u00ab\u00a0scientifique\u00a0\u00bb mais qui \u00e9taient pr\u00eats \u00e0 admettre que la conduite d'essais et d'exp\u00e9riences sur une ferme de travail pourrait \u00eatre utile aux agriculteurs canadiens. Un horticulteur, un expert forestier, un entomologiste, un botaniste, un chimiste et un v\u00e9t\u00e9rinaire seraient affect\u00e9s \u00e0 la station centrale de recherche \u00e0 Ottawa <sup id=\"fn4-rf\"><a class=\"fn-lnk\" href=\"#fn4\"><span class=\"wb-inv\">Note de bas de page </span>4</a></sup>.</p>\n\n<p id=\"content5\">En 1886, le gouvernement f\u00e9d\u00e9ral faisait l'acquisition d'un emplacement regroupant quinze propri\u00e9t\u00e9s d'une superficie de 465 acres (188 hectares), qui est devenue la Ferme exp\u00e9rimentale centrale. La proximit\u00e9 de cet emplacement avec la Colline du Parlement a incit\u00e9 William Saunders et les autres \u00e0 fermer les yeux sur certains probl\u00e8mes li\u00e9s au terrain. Selon le rapport annuel de 1886 du minist\u00e8re de l'Agriculture, un \u00ab\u00a0\u00e9minent architecte paysager\u00a0\u00bb avait dessin\u00e9 un plan de situation g\u00e9n\u00e9ral pour la Ferme, mais aucun plan n'a \u00e9t\u00e9 retenu <sup id=\"fn5-rf\"><a class=\"fn-lnk\" href=\"#fn5\"><span class=\"wb-inv\">Note de bas de page </span>5</a></sup>. William Saunders proposait que la Ferme soit divis\u00e9e en trois zones g\u00e9n\u00e9rales, soit le complexe principal, les champs exp\u00e9rimentaux et l'Arboretum. Ce plan devait assurer que les exp\u00e9riences soient men\u00e9es selon les pratiques agricoles utilis\u00e9es \u00e0 l'\u00e9poque et faire la d\u00e9monstration des techniques agricoles les plus r\u00e9centes.</p>\n\n<p>Si vous d\u00e9sirez d\u2019obtenir une version \u00e9lectronique du plan de situation de la <abbr title=\"Ferme exp\u00e9rimentale centrale\">FEC</abbr> de l\u2019ann\u00e9e 1897, veuillez nous envoyer un courriel \u00e0 : <a title=\"Courriel : Ferme exp\u00e9rimentale centrale\" href=\"mailto:cef-fec@agr.gc.ca\">cef-fec@agr.gc.ca</a>\n</p>\n\n<p>Le complexe principal, qui regroupait les r\u00e9sidences, les bureaux et les structures agricoles, servait de centre des op\u00e9rations. Le paysage bucolique de l'aire centrale, librement inspir\u00e9 de la tradition des jardins anglais auxquels se greffaient des parcs publics et de vastes domaines, se distinguait par ses routes curvilignes, ses petits jardins attenant aux structures r\u00e9sidentielles et ses magnifiques pelouses. Cependant, la vocation exp\u00e9rimentale de la Ferme demeurait toujours bien pr\u00e9sente, les champs de grandes cultures et les parcelles d'essai de fleurs venant agr\u00e9menter les r\u00e9sidences et les b\u00e2timents de ferme. La zone centrale servait \u00e9galement de ferme mod\u00e8le, o\u00f9 les b\u00e2timents et autres installations servaient \u00e0 faire la d\u00e9monstration de la valeur d'une bonne conception des b\u00e2timents et des bonnes techniques agricoles.</p>\n\n<p>Les travaux de recherche men\u00e9s \u00e0 la <abbr title=\"Ferme exp\u00e9rimentale centrale\">FEC</abbr> ont connu des d\u00e9buts modestes, la Ferme ne comptant \u00e0 l'\u00e9poque que trois secteurs (entomologie et botanique, chimie et horticulture) o\u00f9 travaillaient des scientifiques amateurs. Les premiers projets de recherche qui ont retenu le plus l'attention sont ceux qui ont port\u00e9 sur l'hybridation des c\u00e9r\u00e9rales. Ces travaux ont d\u00e9but\u00e9 en 1887 dans les serres d'analyse des semences de la <abbr title=\"Ferme exp\u00e9rimentale centrale\">FEC</abbr>, puis ils ont \u00e9t\u00e9 transf\u00e9r\u00e9s en 1911 dans le b\u00e2timent des c\u00e9r\u00e9ales qui se trouve toujours \u00e0 c\u00f4t\u00e9 des jardins botaniques. La distribution \u00e0 grande \u00e9chelle du bl\u00e9 Marquis a commenc\u00e9 en 1909 et a \u00e9t\u00e9 suivie, en 1925, de la mise au point du bl\u00e9 Garnet, puis du bl\u00e9 Renown, en 1926. \u00c0 elle seule, la premi\u00e8re vari\u00e9t\u00e9 a eu une incidence marqu\u00e9e sur l'agriculture dans les Prairies et a contribu\u00e9 \u00e0 faire du Canada un des premiers exportateurs de bl\u00e9 au monde. En 1889, des bovins ont \u00e9t\u00e9 introduits sur la Ferme, \u00e0 la suite de l'acquisition de taureaux et de vaches de troupeaux canadiens et am\u00e9ricains auxquels se sont ajout\u00e9s, par la suite, des moutons, des porcs et des volailles. Ce mod\u00e8le \u00e9tait fid\u00e8le \u00e0 l'objectif initial de la Ferme, soit de promouvoir une agriculture mixte, et il reconnaissait qu'un pays aussi diversifi\u00e9 que le n\u00f4tre sur le plan g\u00e9ographique avait besoin de diff\u00e9rentes pratiques agricoles.</p>\n\n<div class=\"row\"> \n<div class=\"col-md-4 pull-left mrgn-bttm-md\">\n<figure>\n<img alt=\"La description de cette image suit\" src=\"https://www.agr.gc.ca/resources/prod/img/cef-fec/plan/images/scene_arboretum_1900.gif\" class=\"img-responsive\"><br>\n<figcaption><i>Sc\u00e8ne de l'Arboretum (v.\u00a01911)</i></figcaption>\n</figure>\n</div></div>\n\n<p>La proximit\u00e9 de la Ferme avec la ville et ses id\u00e9aux d'embellissement ont favoris\u00e9 l'\u00e9tablissement d'un lien \u00e9troit entre l'institution et les r\u00e9sidants de la ville. Pour les citadins, la <abbr title=\"Ferme exp\u00e9rimentale centrale\">FEC</abbr> \u00e9tait un mod\u00e8le de vie rurale idyllique et une \u00ab\u00a0bouff\u00e9e d'air frais\u00a0\u00bb, deux aspects que les artisans de la r\u00e9forme urbaine jugeaient essentiels pour l'am\u00e9lioration de la soci\u00e9t\u00e9. D\u00e9sireux de faire de la capitale nationale une ville attrayante, le gouvernement f\u00e9d\u00e9ral a mis sur pied, en 1899, la Commission d'am\u00e9lioration d'Ottawa. Redoublant d'efforts pour supprimer les signes manifestes de la pr\u00e9sence de l'industrie du bois d'\u0153uvre et mettre en valeur la beaut\u00e9 naturelle d'Ottawa, la Commission a d\u00e9cid\u00e9 d'int\u00e9grer la <abbr title=\"Ferme exp\u00e9rimentale centrale\">FEC</abbr> dans son plan d'am\u00e9nagement. Au d\u00e9but du XX<sup>e</sup> si\u00e8cle, la ville d'Ottawa a connu une expansion vers l'ouest dans le canton de Nepean, et le tramway a \u00e9t\u00e9 prolong\u00e9 jusqu'\u00e0 la <abbr title=\"Ferme exp\u00e9rimentale centrale\">FEC</abbr>.</p>\n\n<div class=\"row\"> \n<div class=\"col-md-4 pull-left mrgn-bttm-md\">\n<figure>\n<img alt=\"La description de cette image suit\" class=\"img-responsive\" src=\"https://www.agr.gc.ca/resources/prod/img/cef-fec/plan/images/tour_1921.gif\"><br>\n<figcaption><i>Visite des installations de la <abbr title=\"Ferme exp\u00e9rimentale centrale\">FEC</abbr> (1921)</i></figcaption>\n</figure>\n</div></div>\n\n\n<p id=\"content6\">La retraite de William Saunders, en 1911, et la nomination de J.H.\u00a0Grisdale au poste de directeur, ont marqu\u00e9 un tournant dans l'orientation de la Ferme, co\u00efncidant avec la restructuration du Service des fermes exp\u00e9rimentales. Bien que l'application pratique des sciences agricoles demeurait la vocation premi\u00e8re de la Ferme, sa restructuration a eu pour effet d'\u00e9tendre la port\u00e9e de la recherche et de la r\u00e9partir en des secteurs plus d\u00e9finis. \u00c0 la suite de ces changements administratifs et fonctionnels, l'am\u00e9nagement a \u00e9t\u00e9 modifi\u00e9 et le nombre de b\u00e2timents sur la Ferme a augment\u00e9 consid\u00e9rablement, passant de 34 en 1912 \u00e0 95 durant les ann\u00e9es 1920. Expos\u00e9s depuis plus de 35 ans aux r\u00e9sultats des recherches men\u00e9es par la Ferme exp\u00e9rimentale, les agriculteurs commen\u00e7aient \u00e0 croire que les hommes les plus pratiques n'\u00e9taient pas n\u00e9cessairement ceux qui avaient le plus de \u00ab\u00a0fumier\u00a0\u00bb sur leurs bottes <sup id=\"fn6-rf\"><a class=\"fn-lnk\" href=\"#fn6\"><span class=\"wb-inv\">Note de bas de page </span>6</a></sup> et, en 1926 seulement, le personnel de la Ferme a re\u00e7u pr\u00e8s de 250\u00a0000 demandes provenant d'agriculteurs canadiens.</p>\n\n\n<p>M\u00eame \u00e0 ses d\u00e9buts, lorsque la Ferme exp\u00e9rimentale centrale \u00e9tait situ\u00e9e au c\u0153ur d'une r\u00e9gion rurale, son identit\u00e9 \u00e9tait intrins\u00e8quement li\u00e9e \u00e0 la capitale nationale car, d\u00e8s le d\u00e9part, William Saunders avait voulu cr\u00e9er des liens entre la <abbr title=\"Ferme exp\u00e9rimentale centrale\">FEC</abbr> et la Colline du Parlement.</p>\n\n\n<h4>Phase II, 1936-1986</h4>\n<p>Au milieu des ann\u00e9es 1930, la <abbr title=\"Ferme exp\u00e9rimentale centrale\">FEC</abbr> \u00e9tait bien implant\u00e9e \u00e0 l'int\u00e9rieur de la ville. Durant cette p\u00e9riode, deux des quatre r\u00e9sidences du personnel ont \u00e9t\u00e9 supprim\u00e9es, car elles n'\u00e9taient plus jug\u00e9es n\u00e9cessaires. Un jardin clos en contrebas a \u00e9t\u00e9 am\u00e9nag\u00e9 pr\u00e8s de la r\u00e9sidence de l'horticulteur, \u00e0 la m\u00e9moire de l'\u00e9minent horticulteur de la <abbr title=\"Ferme exp\u00e9rimentale centrale\">FEC</abbr>, W.T.\u00a0Macoun. Ce jardin respectait le style officiel de l'\u00e9poque et bon nombre des v\u00e9g\u00e9taux qu'on y trouve aujourd'hui datent des d\u00e9buts de la Ferme. Gr\u00e2ce aux travaux de recherche et aux publications savantes d'Isabella Preston, sp\u00e9cialiste en horticulture ornementale arriv\u00e9e \u00e0 la <abbr title=\"Ferme exp\u00e9rimentale centrale\">FEC</abbr> en 1920, la Ferme a continu\u00e9 d'influencer les programmes de s\u00e9lection v\u00e9g\u00e9tale publics et priv\u00e9s jusque durant les ann\u00e9es 1960. Cependant, la plupart des collections qui datent de cette \u00e9poque ont \u00e9t\u00e9 dispers\u00e9es, et les Amis de la Feme tentent actuellement de localiser et de r\u00e9introduire certains de ces v\u00e9g\u00e9taux.</p>\n\n<p>Si vous d\u00e9sirez d\u2019obtenir une version \u00e9lectronique de la carte de la <abbr title=\"Ferme exp\u00e9rimentale centrale\">FEC</abbr> en 1946, veuillez nous envoyer un courriel \u00e0 : <a title=\"Courriel : Ferme exp\u00e9rimentale centrale\" href=\"mailto:cef-fec@agr.gc.ca\">cef-fec@agr.gc.ca</a>\n</p>\n\n<p>En 1936, la Commission du district f\u00e9d\u00e9ral int\u00e9grait la Ferme \u00e0 son plan qui pr\u00e9voyait l'am\u00e9nagement d'un r\u00e9seau de promenades pittoresques dont la mise en oeuvre a \u00e9t\u00e9 compl\u00e9t\u00e9e vers le milieu des ann\u00e9es 1940. Ce r\u00e9seau ainsi que le nouvel \u00e9difice administratif ont modifi\u00e9 le caract\u00e8re de la <abbr title=\"Ferme exp\u00e9rimentale centrale\">FEC</abbr> en le mettant \u00ab\u00a0au go\u00fbt du jour\u00a0\u00bb, tout en pr\u00e9servant ses nombreux r\u00f4les. Or, l'am\u00e9nagement de ce r\u00e9seau de promenades a n\u00e9cessit\u00e9 l'\u00e9largissement de certaines routes et donc la suppression de la majeure partie de la ceinture foresti\u00e8re qui bordait alors les limites nord et ouest de la propri\u00e9t\u00e9 ainsi que la destruction des grilles de l'entr\u00e9e principale. \u00c0 la Ferme, durant la m\u00eame p\u00e9riode, une maladie a emport\u00e9 un grand nombre d'ormes \u00e0 maturit\u00e9.</p>\n\n<div class=\"row\"> \n<div class=\"col-md-4 pull-left mrgn-bttm-md\">\n<figure>\n<img alt=\"La description de cette image suit\" class=\"img-responsive\" src=\"https://www.agr.gc.ca/resources/prod/img/cef-fec/plan/images/info_kiosk.gif\"><br>\n<figcaption><i>Kiosque d'information mobile \u00e0 la <abbr title=\"Ferme exp\u00e9rimentale centrale\">FEC</abbr> (1938)</i></figcaption>\n</figure>\n</div></div>\n\n<p>En 1937, une autre restructuration des secteurs de recherche est venue consolider les travaux du r\u00e9seau des fermes exp\u00e9rimentales en des services \u00e9largis qui ont contribu\u00e9 \u00e0 la centralisation de la recherche entre des structures moins nombreuses et plus larges. L'ann\u00e9e pr\u00e9c\u00e9dente, l'inauguration de l'\u00e9difice Saunders, devant abriter les services administratifs n\u00e9cessaires \u00e0 la coordination des travaux des services de recherche, avait ouvert la voie \u00e0 ce changement. Le r\u00f4le de la <abbr title=\"Ferme exp\u00e9rimentale centrale\">FEC</abbr>, en tant que coordonnateur de l'ensemble du programme de recherche du Minist\u00e8re, a \u00e9t\u00e9 aboli en 1958, alors qu'une nouvelle politique de d\u00e9centralisation conf\u00e9rait \u00e0 chaque station plus de responsabilit\u00e9s en mati\u00e8re de coordination de la recherche. En 1958, la Ferme a mis un terme \u00e0 ses travaux de recherche sur le tabac, et les recherches en foresterie ont pris fin deux ans plus tard, soit en 1960. Quant au programme de recherches zootechniques, il a \u00e9t\u00e9 transf\u00e9r\u00e9 dans une installation distincte situ\u00e9e \u00e0 l'int\u00e9rieur de la Ceinture de verdure entourant Ottawa. Toutes ces modifications ont entra\u00een\u00e9 la d\u00e9molition de plusieurs b\u00e2timents qui ont c\u00e9d\u00e9 la place \u00e0 des structures modernes; elles ont aussi eu pour effet d'accentuer la distinction entre les aires de parc et les aires de recherche sur la Ferme.</p>\n\n<div class=\"row\"> \n<div class=\"col-md-4 pull-left mrgn-bttm-md\">\n<figure>\n<img alt=\"La description de cette image suit\" class=\"img-responsive\" src=\"https://www.agr.gc.ca/resources/prod/img/cef-fec/plan/images/macoun.gif\"><br>\n<figcaption><i>Jardin comm\u00e9moratif Macoun</i></figcaption>\n</figure>\n</div></div>\n\n<p>Durant les ann\u00e9es 1960, la Ferme \u00e9tait clairement divis\u00e9e en deux aires distinctes, la premi\u00e8re form\u00e9e par le complexe d'immeubles \u00e0 bureaux am\u00e9nag\u00e9s selon un axe et regroupant l'\u00e9difice Neatby, le campus de l'Observatoire et l'\u00e9difice Sir-John-Carling, et l'autre qui regroupait le complexe de recherche. C'est \u00e9galement durant cette p\u00e9riode qu'on a observ\u00e9 la disparition de l'entr\u00e9e initiale de la <abbr title=\"Ferme exp\u00e9rimentale centrale\">FEC</abbr>, qui a \u00e9t\u00e9 r\u00e9am\u00e9nag\u00e9e au rond point, et l'\u00e9limination de ce qui restait de la ceinture foresti\u00e8re le long de l'avenue Carling. De plus, conform\u00e9ment \u00e0 l'importance qu'accordait alors la Commission de la capitale nationale (CCN) \u00e0 l'am\u00e9nagement de parcs, la voie ferr\u00e9e du Canadien Pacifique, qui traversait une extr\u00e9mit\u00e9 de l'Arboretum, a \u00e9t\u00e9 \u00e9limin\u00e9e et r\u00e9am\u00e9nag\u00e9e sous terre, ce qui a permis de d\u00e9gager plus d'espaces verts le long du lac Dow. Durant les ann\u00e9es 1970, la vocation de ferme mod\u00e8le s'est vue \u00e9limin\u00e9e et un certain nombre de b\u00e2timents qui n'\u00e9taient plus n\u00e9cessaires pour la recherche ont \u00e9t\u00e9 d\u00e9truits. Malgr\u00e9 les bouleversements de cette p\u00e9riode \u00ab\u00a0moderne\u00a0\u00bb, le cadre du paysage de la Ferme a \u00e9t\u00e9 pr\u00e9serv\u00e9 et a dict\u00e9, en partie, l'\u00e9rection des nouveaux b\u00e2timents.</p>\n\n\t\t\t\n<nav>\n  <h2 class=\"hidden\">Navigation dans le document : page pr\u00e9c\u00e9dente - page suivant haut</h2>\n\n<p class=\"text-right\">\n<a title=\"Introduction\" href=\"/fra/?id=1170420541894\">Pr\u00e9c\u00e9dente</a>\u00a0|\u00a0<a href=\"/fra/?id=1170695386778\">Table des mati\u00e8res</a>\u00a0|\u00a0<a title=\"II.2 Histoire r\u00e9cente\" href=\"/fra/?id=1170425145846\">Suivante</a></p>\n</nav>\n\n<aside class=\"wb-fnote\" role=\"note\">\n<h2 id=\"fn\">Note de bas de page </h2>\n    <dl>\n        <dt>Note de bas de page 1</dt>\n        <dd id=\"fn1\">   \n\n\t<p>Ce r\u00e9sum\u00e9 historique de la <abbr title=\"Ferme exp\u00e9rimentale centrale\">FEC</abbr> est bas\u00e9 sur des documents de recherche r\u00e9dig\u00e9s par Julie Harris, <span lang=\"en-ca\">Contentworks Inc</span>., en qualit\u00e9 de consultante et historienne ind\u00e9pendante pour Parcs Canada. Voir\u00a0: J.\u00a0Harris et J.\u00a0Mueller, \u00ab\u00a0<span lang=\"en-ca\">Making Science Beautiful: The Central Experimental Farm</span>, 1886-1939\u00a0\u00bb, <span lang=\"en-ca\">Ontario History</span>, vol.\u00a089, no\u00a02 (juin\u00a01997). </p>\n\t<p class=\"fn-rtn\"><a href=\"#fn1-rf\"><span class=\"wb-inv\">Retour de la note de bas de page </span>1</a>\n\t\t\t</p>\n\t\t</dd>\n\n\t<dt>Note de bas de page 2</dt>\n\t\t<dd id=\"fn2\">\n\n\t<p>William Saunders, <span lang=\"en-ca\">The Experimental Farms of the Dominion of Canada</span> (Ottawa \u00a0: Minist\u00e8re de l'Agriculture, 1887), p.\u00a010. </p>\n\t<p class=\"fn-rtn\"><a href=\"#fn2-rf\"><span class=\"wb-inv\">Retour de la note de bas de page </span>2</a>\n\t\t\t</p>\n\t\t</dd>\n        \n\t\t<dt>Note de bas de page 3</dt>\n<dd id=\"fn3\">\n\n\t<p>Minist\u00e8re de l'Agriculture, \u00ab\u00a0<span lang=\"en-ca\">Experimental Farms Service: Their Purpose, Policy and Work</span>\u00a0\u00bb (1939), dans Archives nationales du Canada, RG\u00a017, vol.\u00a02812, dossier\u00a0170.1. </p>\n\t<p class=\"fn-rtn\"><a href=\"#fn3-rf\"><span class=\"wb-inv\"> Retour de la note de bas de page </span>3</a>\n\t\t\t</p>\n\t\t</dd>\n<dt>Note de bas de page 4</dt>\n<dd id=\"fn4\">\n\n\t<p>William Saunders, <span lang=\"en-ca\">Agricultural Colleges and Experimental Farm Stations With Suggestions Relating to Experimental Agriculture in Canada</span> (Ottawa\u00a0: Minist\u00e8re de l'Agriculture 1886),\u00a098. </p>\n\t<p class=\"fn-rtn\"><a href=\"#fn4-rf\"><span class=\"wb-inv\"> Retour de la note de bas de page </span>4</a>\n\t\t\t</p>\n\t\t</dd>\n\t\t\n\t<dt>Note de bas de page 5</dt>\n\t<dd id=\"fn5\">\n\t<p>Le premier plan connu de la <abbr title=\"Ferme exp\u00e9rimentale centrale\">FEC</abbr> date de 1887. Il illustre l'am\u00e9nagement des routes et des b\u00e2timents de l'\u00e9poque, mais n'est pas pr\u00e9sent\u00e9 dans un style qui rappelle celui utilis\u00e9 par les professionnels de l'am\u00e9nagement paysager de l'\u00e9poque. Il est possible qu'il ait \u00e9t\u00e9 dessin\u00e9 par William Saunders, \u00e0 partir de croquis aujourd'hui disparus, faits par ceux qui ont sans doute con\u00e7u l'am\u00e9nagement de la <abbr title=\"Ferme exp\u00e9rimentale centrale\">FEC</abbr>, soit Miller et Yates. </p>\n\t<p class=\"fn-rtn\"><a href=\"#fn5-rf\"><span class=\"wb-inv\"> Retour de la note de bas de page </span>5</a>\n\t\t\t</p>\n\t\t</dd>\n\t\t\n\t<dt>Note de bas de page 6</dt>\n\t<dd id=\"fn6\">\n\t<p><span lang=\"en-ca\">Practical Science</span>\u00a0\u00bb, <span lang=\"en-ca\">Farmer's Advocate and Home Magazine</span>, no\u00a061 (1<sup>er</sup>\u00a0avril\u00a01926), p.\u00a01475. </p>\n\t<p class=\"fn-rtn\"><a href=\"#fn6-rf\"><span class=\"wb-inv\"> Retour de la note de bas de page </span>6</a>\n\t\t\t</p>\n\t\t</dd>\n   </dl>\n</aside>\n\r\n    "
    }
}