{
    "dcr_id": "1170425145846",
    "title": {
        "en": "Central Experimental Farm National Historic Site Management Plan (5 of 20)",
        "fr": "Plan directeur du lieu historique national de la Ferme exp\u00e9rimentale centrale (5 de 20)"
    },
    "modified": "2019-09-17",
    "issued": "2009-01-22",
    "templatetype": "content page 1 column",
    "page_type": "0",
    "node_id": "1365611371966",
    "dc_date_created": "2009-01-22",
    "managing_branch": "PAB",
    "parent_node_id": "",
    "short_title": "",
    "exturl": "",
    "teamsite_location": {
        "en": "/default/main/AAFC-AAC/Internet-Internet/Common-Commun/WORKAREA/Common-Commun/templatedata/comm-comm/gene-gene/data/02/cef_plan04_1170425145846_en",
        "fr": "/default/main/AAFC-AAC/Internet-Internet/Common-Commun/WORKAREA/Common-Commun/templatedata/comm-comm/gene-gene/data/02/cef_plan04_1170425145846_fr"
    },
    "type_name": "comm-comm/gene-gene",
    "has_dcr_id": true,
    "label": {
        "en": "Central Experimental Farm National Historic Site Management Plan (5 of 20)",
        "fr": "Plan directeur du lieu historique national de la Ferme exp\u00e9rimentale centrale (5 de 20)"
    },
    "breadcrumb": {
        "en": "Central Experimental Farm National Historic Site Management Plan (5 of 20)",
        "fr": "Plan directeur du lieu historique national de la Ferme exp\u00e9rimentale centrale (5 de 20)"
    },
    "layout_name": "content page 1 column",
    "lang": "en",
    "refaire": false,
    "meta": {
        "viewport": {
            "en": "width=device-width,initial-scale=1",
            "fr": "width=device-width, initial-scale=1"
        },
        "issued": {
            "en": "2009-01-22",
            "fr": "2009-01-22"
        },
        "modified": {
            "en": "2019-09-17",
            "fr": "2019-09-17"
        },
        "format": {
            "en": "text/html",
            "fr": "text/html"
        },
        "title": {
            "en": "Central Experimental Farm National Historic Site Management Plan (5 of 20)",
            "fr": "Plan directeur du lieu historique national de la Ferme exp\u00e9rimentale centrale (5 de 20)"
        },
        "subject": {
            "en": "land management",
            "fr": "gestion des terres"
        },
        "dcterms:subject": {
            "en": "agriculture",
            "fr": "m\u00e9dicament;agriculture;politique"
        },
        "description": {
            "en": "the board pointed out five key features of the site in its reasons for designation: its distinctiveness as a cultural landscape the fact that the more than 400-hectare farm in the heart of the nation's capital reflects the 19th century philosophy of agriculture and carefully integrates an administrative core and a range of other buildings with arboretum, ornamental gardens, display beds and experimental fields in a picturesque composition the fact that since its establishment in 1886, the central experimental farm has made significant scientific contributions to agriculture in canada by uniting scientific experimentation with practical",
            "fr": "champs du creco (2000) \u00e9nonc\u00e9 d'int\u00e9grit\u00e9 comm\u00e9morative \u00e0 la suite de cette d\u00e9signation, un \u00e9nonc\u00e9 d'int\u00e9grit\u00e9 comm\u00e9morative (eic) pour la ferme exp\u00e9rimentale centrale a \u00e9t\u00e9 pr\u00e9par\u00e9 par un comit\u00e9 form\u00e9 de membres d'aac, de parcs canada, de la ccn, du programme de conservation du patrimoine de tpsgc, du mus\u00e9e national des sciences et de la technologie, de la municipalit\u00e9 r\u00e9gionale d'ottawa carleton, du conseil consultatif de la ferme exp\u00e9rimentale centrale, des amis de la ferme exp\u00e9rimentale centrale et d'h\u00e9ritage ottawa."
        },
        "language": {
            "en": "eng",
            "fr": "fra"
        },
        "keywords": {
            "en": " parks canada; main dairy barn; central experimental farm; friends of the farm;the fact",
            "fr": " jardins d'ornement; \u00e9nonc\u00e9 d'int\u00e9grit\u00e9 comm\u00e9morative; protocoles d'entente; conseil consultatif de la ferme exp\u00e9rimentale centrale;vue de la location"
        },
        "audience": {
            "en": "general public",
            "fr": "grand public"
        },
        "type": {
            "en": "report",
            "fr": "rapport"
        },
        "creator": {
            "en": "Central Experimental Farm Integrated Services;Agriculture and Agri-Food Canada;Government of Canada",
            "fr": "Services int\u00e9gr\u00e9s de la Ferme exp\u00e9rimentale centrale;Agriculture et Agroalimentaire Canada;Gouvernement du Canada"
        },
        "spatial": {
            "en": "gcregions",
            "fr": "gcregions"
        },
        "service": {
            "en": "AAFC-AAC",
            "fr": "AAFC-AAC"
        },
        "accessRights": {
            "en": "2",
            "fr": "2"
        },
        "legalName": {
            "en": "agriculture_and_agri_food_canada",
            "fr": "agriculture_et_agroalimentaire_canada"
        },
        "areaServed": {
            "en": "Canada",
            "fr": "Canada"
        }
    },
    "h1": {
        "en": "Central Experimental Farm National Historic Site Management Plan (5 of 20)",
        "fr": "Plan directeur du lieu historique national de la Ferme exp\u00e9rimentale centrale (5 de 20)"
    },
    "js": {
        "en": "",
        "fr": ""
    },
    "body": {
        "en": "\r\n    <nav>\n<h2 class=\"hidden\">Previous-next document navigation - top</h2>\n<p class=\"text-right\"><a href=\"/eng/?id=1170421393729\" title=\"II.1 Historical overview of the Farm\">Previous</a> | <a href=\"/eng/?id=1170695386778\">Table of Contents</a> | <a href=\"/eng/?id=1170427298237\" title=\"II.3 Previous planning studies\">Next</a></p>\n</nav><section>\n<h2>II.2 - Recent History</h2>\n<p>The recent history of the Farm begins in 1986, at the time of the site's 100<sup>th</sup> anniversary. This event, marked by a Historic Sites and Monuments Board plaque commemorating its role as the research headquarters of a network of experimental stations, created new interest and new expectations. New communities of interest emerged, notably the Friends of the Farm, and a historic self-consciousness became apparent. There was also reconsideration by <abbr title=\"Agriculture and Agri-Food Canada\">AAFC</abbr> of its role on the Farm, and a restructuring of both research programming and headquarters programming on the Farm.</p>\n<figure class=\"mrgn-bttm-lg\"><img alt=\"Description of this image follows\" src=\"https://www.agr.gc.ca/resources/prod/img/cef-fec/plan/images/site_plan_1997.gif\"><br><figcaption>David Bouse Drawing of the <abbr title=\"Central Experimental Farm\">CEF</abbr> Core Area,1997 </figcaption></figure>\n<p>The increased awareness of the Farm's history is reflected in the series of bird's-eye views of the core area prepared by David Bouse of Parks Canada for <abbr title=\"Agriculture and Agri-Food Canada\">AAFC</abbr> in the 1980s. These views documented the patterns of evolution and continuity in the Farm landscape, and served as a basis for Centennial posters and publicity. In the year of the Centennial, the book <em>One Hundred Harvests: Research Branch Agriculture Canada 1886-1986</em> was published by <abbr title=\"Agriculture and Agri-Food Canada\">AAFC</abbr>. In 1996, <em>Ottawa's Farm</em>, written by Helen Smith, explored the relationship between the <abbr title=\"Central Experimental Farm\">CEF</abbr> and the City.</p>\n</section><section>\n<h2>Central Experimental Farm's Designation as a National Historic Site</h2>\n<p>With the designation of the Farm as a National Historic Site in 1998, the historical and cultural significance of the site was confirmed and reinforced. The Board pointed out five key features of the site in its reasons for designation:</p>\n<ul>\n<li>Its distinctiveness as a cultural landscape</li>\n<li>The fact that the more than 400-hectare farm in the heart of the Nation's Capital reflects the 19<sup>th</sup> century philosophy of agriculture and carefully integrates an administrative core and a range of other buildings with Arboretum, Ornamental Gardens, display beds and experimental fields in a picturesque composition</li>\n<li>The fact that since its establishment in 1886, the Central Experimental Farm has made significant scientific contributions to agriculture in Canada by uniting scientific experimentation with practical verification, as exemplified by the development of the hardy strains of wheat that were so influential in expanding Western Canadian agriculture</li>\n<li>The fact that it is a rare example of a farm within a city</li>\n<li>The fact that it has become a symbol of the central role agriculture has played in shaping the country.</li>\n</ul>\n<figure><img alt=\"Description of this image follows\" src=\"https://www.agr.gc.ca/resources/prod/img/cef-fec/plan/images/fields-champs_2000.gif\"><br><figcaption><abbr title=\"Eastern Cereal and Oilseed Research Centre\">ECORC</abbr> Fields, 2000 </figcaption></figure></section><section>\n<h2>Commemorative Integrity Statement</h2>\n<p>As a follow-up to the designation, a Commemorative Integrity Statement for the Central Experimental Farm was prepared by a committee whose members were drawn from <abbr title=\"Agriculture and Agri-Food Canada\">AAFC</abbr>, Parks Canada, the <abbr title=\"National Capital Commission\">NCC</abbr>, the Heritage Conservation Program of PWGSC, NMST, RMOC, <abbr title=\"Central Experimental Farm Advisory Council\">CEFAC</abbr>, Friends of the <abbr title=\"Central Experimental Farm\">CEF</abbr> and Heritage Ottawa. This Statement indicated the key heritage components of the Farm and provided criteria for assessing their ongoing integrity. The statement identifies the site's Level 1 and Level 2 cultural resources, describes their value and establishes objectives for their preservation. The CIS provides a foundation for management and planning initiatives by presenting indicators that focus on historic values and cultural resources of national significance.</p>\n<figure><img alt=\"Description of this image follows\" src=\"https://www.agr.gc.ca/resources/prod/img/cef-fec/plan/images/fletcher_barn-grange.gif\"><br><figcaption>Fletcher Barn </figcaption></figure>\n\n</section><section>\n<h2>Canada Agriculture Museum</h2>\n<p>A national museum presence was first established at the Farm in 1983 when the Dairy Barn was converted into a museum by the National Museum of Science and Technology (now the Canada Science and Technology Museum Corporation). The original museum consisted of two exhibits in the Main Barn and a meeting room used for public lectures. Its mandate was to collect agricultural implements. In 1996, the Museum entered into an agreement with the <abbr title=\"Agriculture and Agri-Food Canada\">AAFC</abbr>, leasing six buildings (five barns and a former residence) and taking over the showcase herd. One of the barns and the residence were subsequently destroyed in an August 1996 fire. A new barn was later built, and the present lease includes six barns, one administrative building, fenced areas in the vicinity of the barns, grazing lands and a parking lot. In 1983, the Canada Agriculture Museum (as part of the National Museum of Science and Technology) was established on the Farm, in the Main Dairy Barn. The building was partially transformed to provide a controlled central core, and the Museum began to provide active presentation and interpretation of Canadian agricultural history. The Museum's function expanded with the transfer of showcase herds from <abbr title=\"Agriculture and Agri-Food Canada\">AAFC</abbr> to the Museum in 1995. Today it is best known for its special events, family programming and live animal displays.</p>\n<figure><img alt=\"Description of this image follows\" src=\"https://www.agr.gc.ca/resources/prod/img/cef-fec/plan/images/ornamental.gif\"><br><figcaption>Ornamental Gardens </figcaption></figure></section><section>\n<h2>Private Initiatives</h2>\n<p>Various non-profit groups have used the Farm for research, education, and recreational purposes. Arrangements with <abbr title=\"Agriculture and Agri-Food Canada\">AAFC</abbr> have often been informal in terms of lease agreements or other land use approvals. The Fletcher Wildlife Garden is one such enterprise. It is a long-term project of the Ottawa Field-Naturalists' Club with support from the Friends of the Farm and the Ottawa Chapter of Landscape Ontario. The goal of the project is to encourage restoration of natural habitats in urban and rural settings and to provide information on natural resource history and conservation. It occupies land east of Prince of Wales and south of the Arboretum.</p>\n<figure class=\"mrgn-bttm-lg\"><img alt=\"Description of this image follows\" src=\"https://www.agr.gc.ca/resources/prod/img/cef-fec/plan/images/museum-musee_3.gif\"><br><figcaption>Main Dairy Barn, 2004 [Source: <a lang=\"en-ca\">Contentworks</a>] </figcaption></figure>\n<p>In recent years there have been more formal private-sector proposals for land lease or transfer, partly in response to questions about <abbr title=\"Agriculture and Agri-Food Canada\">AAFC</abbr>'s long-term interests. Farmland west of Merivale has been sold for private commercial and residential development. The Ottawa Botanical Garden Society was established in 1999 to create a proposal for a large botanical garden in the area of the Arboretum, and all the lands east of Prince of Wales Drive. <em>Ottawa's Botanic Garden: A Vision</em> was forwarded to <abbr title=\"Agriculture and Agri-Food Canada\">AAFC</abbr> in June 2000, followed by <em>A Heritage Management Strategy</em> in May 2001. The proposal for a Botanic Garden has focused public interest and debate on long-term visions for the Farm. The shape of the proposal has continued to evolve in response to these discussions, and to date there have been no commitments by <abbr title=\"Agriculture and Agri-Food Canada\">AAFC</abbr> on either this proposal in particular or the future of these eastern lands in general.</p>\n</section><section>\n<h2>Central Experimental Farm Advisory Council</h2>\n<p>Partly in response to the more complex communities of interest on the Farm, a Central Experimental Farm Advisory Council (CEFAC) was established in 1998 to engage the public more fully in the future management of the <abbr title=\"Central Experimental Farm\">CEF</abbr> site. <abbr title=\"Central Experimental Farm Advisory Council\">CEFAC</abbr> serves as an important means of obtaining public input and providing advice and recommendations to assist <abbr title=\"Agriculture and Agri-Food Canada\">AAFC</abbr> in its stewardship role. The role of the Advisory Council is to: monitor the management and operations/maintenance of the <abbr title=\"Central Experimental Farm\">CEF</abbr>; provide advice on the development and implementation of strategic plans; provide advice and make recommendations on matters referred to them by <abbr title=\"Agriculture and Agri-Food Canada\">AAFC</abbr> management or stakeholders; recommend ways of improving client and stakeholder satisfaction; and provide assistance to <abbr title=\"Agriculture and Agri-Food Canada\">AAFC</abbr> with on-going communications with the public.</p>\n</section><section>\n<h2>Leases, Licences to occupy and Memorandums of Understanding</h2>\n<p>Since the mid-1990s, leases, licences to occupy and memorandums of understanding have continued to expand. The Ottawa Civic Hospital was given permission to erect and use a helicopter landing pad adjacent to Carling Avenue in 1992. Various buildings have been leased to agricultural agencies for use as office space, including Building 26 to the Canadian 4-H Council in 1998, parts of Building 60 to the Canadian Agricultural Products Act Review Tribunal in 1998 and to the Canadian Agricultural Food Research Council in 2000, Building 54 to the Canadian Centre for Swine Improvement and the Canadian Association of Fairs and Exhibitions in 2002, and Building 55 to the Canadian Dairy Commission in 2002. The Friends of the Farm were given permission to use Building 72 at the Arboretum for office and workshop space. Besides the benefits to the tenants, these arrangements have been an important means of sustaining recognized heritage buildings. There are also issues, however, about how each individual lease arrangement fits into larger patterns of site management.</p>\n<p>Adjacent federal custodians have developed their own responses to changing realities on the Farm. Natural Resources Canada, responsible for the Dominion Observatory and its surrounding campus, reduced its presence on site and leased the Observatory to outside agencies, including for a time Heritage Canada. It is now interested in a more public and educational role for its campus. Parks Canada and the National Capital Commission developed their own shoreline parcels on Dow's Lake, and integrated the Central Experimental Farm landscape into Winterlude festivities and other recreational activities. They have their own policy and planning priorities. The Department of National Defence has maintained its presence at the northeast corner of the <abbr title=\"Central Experimental Farm\">CEF</abbr> since the Second World War. HMCS Carleton now functions as a naval reserve unit in the building adjacent to Dow's Lake. The property is the last remaining land from the British Ordnance reserve of the mid-1800s.</p>\n</section><nav>\n<h2 class=\"hidden\">Previous-next document navigation - bottom</h2>\n<p class=\"text-right\"><a href=\"/eng/?id=1170421393729\" title=\"II.1 Historical overview of the Farm\">Previous</a> | <a href=\"/eng/?id=1170695386778\">Table of Contents</a> | <a href=\"/eng/?id=1170427298237\" title=\"II.3 Previous planning studies\">Next</a></p>\n</nav>\n\r\n    ",
        "fr": "\r\n    \n<nav>\n  <h2 class=\"hidden\">Navigation dans le document : page pr\u00e9c\u00e9dente - page suivant haut</h2>\n  <p class=\"text-right\"><a title=\"Contexte\" href=\"/fra/?id=1170421393729\">Pr\u00e9c\u00e9dente</a>\u00a0|\u00a0<a href=\"/fra/?id=1170695386778\">Table des mati\u00e8res</a>\u00a0|\u00a0<a title=\"II.3 \u00c9tudes de planification pr\u00e9c\u00e9dentes\" href=\"/fra/?id=1170427298237\">Suivante</a></p>\n</nav>\n<section>\n  <h2>II.2 - Histoire r\u00e9cente</h2>\n  <p>L'\u00e8re moderne de la Ferme d\u00e9bute en 1986, ann\u00e9e de son centenaire. Cette ann\u00e9e est marqu\u00e9e par l'\u00e9rection d'une plaque comm\u00e9morative de la Commission des lieux et monuments historiques du Canada, qui vise \u00e0 souligner le r\u00f4le de la Ferme comme centre dirigeant d'un r\u00e9seau de stations exp\u00e9rimentales, et qui a raviv\u00e9 l'int\u00e9r\u00eat pour cette institution et cr\u00e9\u00e9 de nouvelles attentes. De nouveaux groupes d'int\u00e9r\u00eat ont vu le jour, notamment les Amis de la Ferme exp\u00e9rimentale centrale, et on observe un int\u00e9r\u00eat plus grand pour l'histoire de ce lieu. Au m\u00eame moment, <abbr title=\"Agriculture et Agroalimentaire Canada\">AAC</abbr> red\u00e9finit son r\u00f4le sur la Ferme et proc\u00e9de \u00e0 une restructuration de son programme de recherche et des activit\u00e9s de l'administration centrale sur la Ferme.</p>\n  <figure class=\"mrgn-bttm-lg\">\n    <img alt=\"La description de cette image suit\" src=\"https://www.agr.gc.ca/resources/prod/img/cef-fec/plan/images/site_plan_1997.gif\">\n    <br>\n    <figcaption>Dessin de la zone centrale de la <abbr title=\"Ferme exp\u00e9rimentale centrale\">FEC</abbr>, par David Bouse (1997)</figcaption>\n  </figure>\n  <p>Cet int\u00e9r\u00eat plus grand pour l'histoire de la Ferme se manifeste dans la s\u00e9rie de vues a\u00e9riennes de la zone centrale, r\u00e9alis\u00e9es par David Bouse de Parcs Canada pour le compte d'<abbr title=\"Agriculture et Agroalimentaire Canada\">AAC</abbr> durant les ann\u00e9es 1980; elles documentent l'\u00e9volution et la continuit\u00e9 du paysage de la Ferme et servent de base aux affiches et \u00e0 la publicit\u00e9 marquant le Centenaire. L'ann\u00e9e du Centenaire, Agriculture Canada publie le livre <em>Cent moissons\u00a0: Direction g\u00e9n\u00e9rale de la recherche, Agriculture Canada, 1886-1986</em>. En 1996, le livre <em><span lang=\"en-ca\">Ottawa's Farm</span></em>, \u00e9crit par Helen Smith, examine le rapport entre la <abbr title=\"Ferme exp\u00e9rimentale centrale\">FEC</abbr> et la Ville.</p>\n</section>\n<section>\n  <h2>D\u00e9signation de la Ferme exp\u00e9rimentale centrale en tant que lieu historique national</h2>\n  <p>En 1998, la d\u00e9signation de la Ferme comme lieu historique national vient confirmer et renforcer la valeur historique et culturelle du site. Cette d\u00e9signation, par la Commission des lieux et monuments historiques, est justifi\u00e9e par les cinq caract\u00e9ristiques suivantes de la Ferme\u00a0:</p>\n  <ul>\n    <li>son caract\u00e8re distinct en tant que paysage culturel;</li>\n    <li>cette ferme d'une superficie de plus de 400 hectares, am\u00e9nag\u00e9e au c\u0153ur de la capitale nationale, rev\u00e8le la philosophie de l'agriculture du XIX<sup>e</sup> si\u00e8cle et int\u00e8gre avec soin un noyau administratif et toute une gamme d'autres \u00e9difices dans un cadre pittoresque incluant l'Arboretum, des jardins d'ornement, des plates bandes d'exposition et des champs exp\u00e9rimentaux;</li>\n    <li>depuis sa cr\u00e9ation, en 1886, la <abbr title=\"Ferme exp\u00e9rimentale centrale\">FEC</abbr> a largement contribu\u00e9 au progr\u00e8s scientifique de l'agriculture au Canada, en alliant l'exp\u00e9rimentation scientifique \u00e0 la v\u00e9rification pratique, comme en font foi les diverses lign\u00e9es rustiques de bl\u00e9 qui ont \u00e9t\u00e9 mises au point et qui ont jou\u00e9 un r\u00f4le d\u00e9terminant dans l'expansion de l'agriculture dans l'Ouest canadien;</li>\n    <li>la Ferme offre un rare exemple d'une ferme am\u00e9nag\u00e9e \u00e0 l'int\u00e9rieur d'une ville;</li>\n    <li>la Ferme est devenue un symbole du r\u00f4le crucial que l'agriculture a jou\u00e9 dans l'\u00e9dification de notre pays.</li>\n  </ul>\n  <figure>\n    <img alt=\"La description de cette image suit\" src=\"https://www.agr.gc.ca/resources/prod/img/cef-fec/plan/images/fields-champs_2000.gif\">\n    <br>\n    <figcaption>Champs du <abbr title=\"Centre de recherches de l'Est sur les c\u00e9r\u00e9ales et les ol\u00e9agineux\">CRECO</abbr> (2000)</figcaption>\n  </figure>\n\n</section>\n<section>\n  <h2>\u00c9nonc\u00e9 d'int\u00e9grit\u00e9 comm\u00e9morative</h2>\n  <p>\u00c0 la suite de cette d\u00e9signation, un \u00e9nonc\u00e9 d'int\u00e9grit\u00e9 comm\u00e9morative (EIC) pour la Ferme exp\u00e9rimentale centrale a \u00e9t\u00e9 pr\u00e9par\u00e9 par un comit\u00e9 form\u00e9 de membres d'<abbr title=\"Agriculture et Agroalimentaire Canada\">AAC</abbr>, de Parcs Canada, de la <abbr title=\"Commission de la capitale nationale\">CCN</abbr>, du Programme de conservation du patrimoine de TPSGC, du Mus\u00e9e national des sciences et de la technologie, de la Municipalit\u00e9 r\u00e9gionale d'Ottawa Carleton, du Conseil consultatif de la Ferme exp\u00e9rimentale centrale, des Amis de la Ferme exp\u00e9rimentale centrale et d'H\u00e9ritage Ottawa. Cet \u00e9nonc\u00e9 expose les principales composantes patrimoniales de la Ferme et d\u00e9finit les crit\u00e8res devant servir \u00e0 en \u00e9valuer l'int\u00e9grit\u00e9 continue. Il d\u00e9finit \u00e9galement les ressources culturelles des niveaux 1 et 2 de la Ferme, en pr\u00e9cise la valeur et d\u00e9finit les objectifs \u00e0 atteindre pour assurer la pr\u00e9servation de ces ressources. L'EIC jette les bases des initiatives de gestion et de planification, en d\u00e9finissant des indicateurs ax\u00e9s sur les valeurs historiques et les ressources culturelles d'importance nationale.</p>\n  <figure>\n    <img alt=\"La description de cette image suit\" src=\"https://www.agr.gc.ca/resources/prod/img/cef-fec/plan/images/fletcher_barn-grange.gif\">\n    <br>\n    <figcaption>\u00c9table Fletcher</figcaption>\n  </figure>\n</section>\n<section>\n  <h2>Mus\u00e9e de l'agriculture du Canada</h2>\n  <p>Le premier mus\u00e9e national sur la Ferme est \u00e9tabli en 1983, lorsque le Mus\u00e9e national des sciences et de la technologie (MNST) - devenu aujourd'hui la Soci\u00e9t\u00e9 du Mus\u00e9e des sciences et de la technologie du Canada (SMSTC) - transforme l'\u00e9table des bovins laitiers en mus\u00e9e. \u00c0 l'origine, le Mus\u00e9e pr\u00e9sente deux expositions dans l'\u00e9table principale; il compte \u00e9galement une salle de r\u00e9union utilis\u00e9e pour les conf\u00e9rences publiques et a pour mandat de dresser une collection d'instruments aratoires. En 1996, le Mus\u00e9e conclut une entente avec <abbr title=\"Agriculture et Agroalimentaire Canada\">AAC</abbr> en vue de la location de six b\u00e2timents (cinq \u00e9tables et une ancienne r\u00e9sidence) et de la prise en charge du troupeau d'exposition. En ao\u00fbt 1996, un incendie ravage une des \u00e9tables et la r\u00e9sidence. Une nouvelle \u00e9table est construite; le bail actuel porte sur six \u00e9tables, un \u00e9difice administratif, ainsi que des aires cl\u00f4tur\u00e9es \u00e0 proximit\u00e9 des \u00e9tables, des p\u00e2turages et une aire de stationnement. Le Mus\u00e9e de l'agriculture du Canada est donc \u00e9tabli sur la Ferme en 1983, dans l'\u00e9table principale des bovins laitiers. Le b\u00e2timent a d\u00e9j\u00e0 subi quelques transformations en vue de l'am\u00e9nagement d'une aire centrale contr\u00f4l\u00e9e et le Mus\u00e9e commence \u00e0 pr\u00e9senter des expositions et \u00e0 offrir des services d'interpr\u00e9tation de l'histoire de l'agriculture au Canada. En 1995, les fonctions du Mus\u00e9e sont \u00e9largies \u00e0 la suite du transfert des troupeaux d'exposition, d'<abbr title=\"Agriculture et Agroalimentaire Canada\">AAC</abbr> au Mus\u00e9e. Aujourd'hui, le Mus\u00e9e est surtout r\u00e9put\u00e9 pour ses activit\u00e9s sp\u00e9ciales, sa programmation \u00e0 vocation familiale et ses expositions d'animaux vivants.</p>\n  <figure>\n    <img alt=\"La description de cette image suit\" src=\"https://www.agr.gc.ca/resources/prod/img/cef-fec/plan/images/ornamental.gif\">\n    <br>\n    <figcaption>Jardins d'ornement</figcaption>\n  </figure>\n</section>\n<section>\n  <h2>Initiatives priv\u00e9es</h2>\n  <p>Divers groupes sans but lucratif utilisent la Ferme pour y mener des activit\u00e9s de recherche, d'\u00e9ducation et de loisirs. Cependant, les accords conclus \u00e0 cette fin avec <abbr title=\"Agriculture et Agroalimentaire Canada\">AAC</abbr>, en vue de la location ou d'autres utilisations du terrain, n'ont souvent aucun caract\u00e8re officiel, comme l'illustre tr\u00e8s bien le Jardin \u00e9cologique Fletcher. Ce projet \u00e0 long terme, r\u00e9alis\u00e9 par l'<span lang=\"en-ca\">Ottawa Field-Naturalists' Club</span> avec l'appui des Amis de la Ferme exp\u00e9rimentale centrale et de la division d'Ottawa de l'organisme Landscape Ontario, vise \u00e0 favoriser la restauration des habitats naturels en milieux urbains et ruraux et \u00e0 recueillir des donn\u00e9es sur l'histoire et la conservation des ressources naturelles. Ce jardin occupe une parcelle situ\u00e9e \u00e0 l'est de la promenade <span lang=\"en-ca\">Prince of Wales</span> et au sud de l'Arboretum.</p>\n  <figure class=\"mrgn-bttm-lg\">\n    <img alt=\"La description de cette image suit\" src=\"https://www.agr.gc.ca/resources/prod/img/cef-fec/plan/images/museum-musee_3.gif\">\n    <br>\n    <figcaption>\u00c9table principale des bovins laitiers (2004) [Source\u00a0: <span lang=\"en-ca\">Contentworks</span>]</figcaption>\n  </figure>\n  <p>Au cours des derni\u00e8res ann\u00e9es, des propositions \u00e0 caract\u00e8re plus officiel ont \u00e9t\u00e9 pr\u00e9sent\u00e9es par le secteur priv\u00e9, en vue de la location ou de la cession de terrains, en partie en r\u00e9ponse aux questions soulev\u00e9es quant \u00e0 l'int\u00e9r\u00eat \u00e0 long terme d'<abbr title=\"Agriculture et Agroalimentaire Canada\">AAC</abbr>. Ainsi, les terres agricoles situ\u00e9es \u00e0 l'ouest du chemin Merivale ont \u00e9t\u00e9 vendues et ont c\u00e9d\u00e9 la place \u00e0 des complexes commerciaux et r\u00e9sidentiels priv\u00e9s. En 1999, on fonde la Soci\u00e9t\u00e9 du jardin botanique d'Ottawa dans le but d'\u00e9laborer un vaste jardin botanique dans l'aire occup\u00e9e par l'Arboretum et toutes les terres situ\u00e9es \u00e0 l'est de la promenade <span lang=\"en-ca\">Prince of Wales</span>. Le document intitul\u00e9 <em>Jardin botanique d'Ottawa\u00a0: Vision</em> est pr\u00e9sent\u00e9 \u00e0 <abbr title=\"Agriculture et Agroalimentaire Canada\">AAC</abbr> en juin 2000 et est suivi, en mai 2001, du document <em><span lang=\"en-ca\">A Heritage Management Strategy</span></em>. Le projet de jardin botanique \u00e9veille l'int\u00e9r\u00eat du public et alimente les d\u00e9bats au sujet des visions \u00e0 long terme pour la Ferme. Le projet pr\u00e9sent\u00e9 continue d'\u00e9voluer au fil des discussions mais, \u00e0 ce jour, <abbr title=\"Agriculture et Agroalimentaire Canada\">AAC</abbr> n'a pris aucune d\u00e9cision, que ce soit au sujet de ce projet particulier ou de l'avenir en g\u00e9n\u00e9ral des parcelles situ\u00e9es dans la portion est.</p>\n  <br>\n  <br>\n</section>\n<section>\n  <h2>Conseil consultatif de la Ferme exp\u00e9rimentale centrale</h2>\n  <p>Un conseil consultatif de la Ferme exp\u00e9rimentale centrale (CCFEC) est mis sur pied en 1998, en r\u00e9ponse notamment \u00e0 la pr\u00e9sence de groupements d'int\u00e9r\u00eat plus complexes et pour permettre au public de participer plus activement \u00e0 la gestion future de la Ferme. Le <abbr title=\"Conseil consultatif de la Ferme exp\u00e9rimentale centrale\">CCFEC</abbr> est une tribune importante qui favorise la participation du public et qui formule des conseils et des recommandations pour aider <abbr title=\"Agriculture et Agroalimentaire Canada\">AAC</abbr> dans son r\u00f4le d'intendance de la Ferme. Le Conseil consultatif a pour r\u00f4les de surveiller la gestion, l'exploitation et l'entretien de la <abbr title=\"Ferme exp\u00e9rimentale centrale\">FEC</abbr>; de donner des avis sur l'\u00e9laboration et la mise en \u0153uvre de plans strat\u00e9giques; de prodiguer des conseils et formuler des recommandations sur les questions qui lui sont soumises par les gestionnaires d'<abbr title=\"Agriculture et Agroalimentaire Canada\">AAC</abbr> ou d'autres parties int\u00e9ress\u00e9es; de recommander des moyens d'accro\u00eetre la satisfaction des clients et des intervenants et de fournir une aide \u00e0 <abbr title=\"Agriculture et Agroalimentaire Canada\">AAC</abbr> dans ses communications courantes avec le public.</p>\n</section>\n<section>\n  <h2>Permis de location et d'occupation, et protocoles d'entente</h2>\n  <p>Depuis le milieu des ann\u00e9es 1990, le nombre de contrats de location, de permis d'occupation et de protocoles d'entente ne cesse d'augmenter. En 1992, par exemple, l'H\u00f4pital Civic d'Ottawa obtient l'autorisation d'am\u00e9nager et d'utiliser une aire d'atterrissage pour h\u00e9licopt\u00e8res attenant \u00e0 l'avenue Carling. Divers b\u00e2timents sont \u00e9galement lou\u00e9s \u00e0 des organismes agricoles comme locaux \u00e0 bureaux, entre autres le b\u00e2timent 26 qui est lou\u00e9 au Conseil des 4-H du Canada en 1998, certaines sections du b\u00e2timent 60 lou\u00e9es \u00e0 la Commission de r\u00e9vision de la <em>Loi sur les produits agricoles au Canada</em> en 1998 et au Conseil de recherches agro-alimentaires du Canada en 2000; le b\u00e2timent 54 occup\u00e9, en 2002, par le Centre canadien pour l'am\u00e9lioration des porcs et l'Association canadienne des foires et expositions et le b\u00e2timent 55 lou\u00e9 \u00e0 la Commission canadienne du lait, en 2002. Pour leur part, les Amis de la Ferme exp\u00e9rimentale centrale obtiennent l'autorisation d'utiliser le b\u00e2timent 72 de l'Arboretum afin d'y am\u00e9nager des bureaux et des ateliers. Outre les avantages qu'elles procurent aux locataires, ces ententes contribuent largement \u00e0 la pr\u00e9servation des \u00e9difices du patrimoine reconnus. Cependant, ce type de gestion n'est pas sans cr\u00e9er de probl\u00e8mes, notamment quant \u00e0 la mani\u00e8re d'int\u00e9grer chaque contrat de location dans un cadre d'am\u00e9nagement du site plus global.</p>\n  <p>Les autres autorit\u00e9s f\u00e9d\u00e9rales responsables des installations adjacentes s'adaptent elles aussi \u00e0 l'\u00e9volution des r\u00e9alit\u00e9s de la Ferme. Ainsi, Ressources naturelles Canada, qui est responsable de l'Observatoire f\u00e9d\u00e9ral et du campus qui l'entoure, a r\u00e9duit sa pr\u00e9sence sur le site et lou\u00e9 l'Observatoire \u00e0 des organismes de l'ext\u00e9rieur, entre autres \u00e0 H\u00e9ritage Canada, et le Minist\u00e8re aimerait aujourd'hui donner au campus une vocation plus publique et davantage ax\u00e9e sur l'\u00e9ducation. Parcs Canada et la Commission de la capitale nationale ont am\u00e9nag\u00e9 leurs propres parcelles en bordure du lac Dow et int\u00e9gr\u00e9 le paysage de la Ferme exp\u00e9rimentale centrale aux festivit\u00e9s du Bal de Neige et autres activit\u00e9s r\u00e9cr\u00e9atives, et chacun a d\u00e9fini ses propres priorit\u00e9s en mati\u00e8re de politiques et de planification. Pour sa part, le minist\u00e8re de la D\u00e9fense nationale maintient une pr\u00e9sence dans la portion nord est de la <abbr title=\"Ferme exp\u00e9rimentale centrale\">FEC</abbr> depuis la Deuxi\u00e8me Guerre mondiale, et le Navire canadien de Sa Majest\u00e9 Carleton sert aujourd'hui d'unit\u00e9 de la R\u00e9serve navale dans l'\u00e9difice adjacent au lac Dow. Cette propri\u00e9t\u00e9 est le dernier vestige de la r\u00e9serve de l'artillerie britannique datant du milieu des ann\u00e9es 1800.</p>\n</section>\n<nav>\n  <h2 class=\"hidden\">Navigation dans le document : page pr\u00e9c\u00e9dente - page suivant bas</h2>\n  <p class=\"text-right\"><a title=\"Contexte\" href=\"/fra/?id=1170421393729\">Pr\u00e9c\u00e9dente</a>\u00a0|\u00a0<a href=\"/fra/?id=1170695386778\">Table des mati\u00e8res</a>\u00a0|\u00a0<a title=\"II.3 \u00c9tudes de planification pr\u00e9c\u00e9dentes\" href=\"/fra/?id=1170427298237\">Suivante</a></p>\n</nav>\n\n\r\n    "
    }
}