{
    "dcr_id": "1170085161178",
    "title": {
        "en": "Terms of Reference",
        "fr": "Mandat"
    },
    "modified": "2019-09-17",
    "issued": "2009-01-23",
    "templatetype": "content page 1 column",
    "page_type": "0",
    "node_id": "1365610535731",
    "dc_date_created": "2009-01-23",
    "managing_branch": "PAB",
    "parent_node_id": "",
    "short_title": "",
    "exturl": "",
    "teamsite_location": {
        "en": "/default/main/AAFC-AAC/Internet-Internet/Common-Commun/WORKAREA/Common-Commun/templatedata/comm-comm/gene-gene/data/01/cef_terms-termes_1170085161178_en",
        "fr": "/default/main/AAFC-AAC/Internet-Internet/Common-Commun/WORKAREA/Common-Commun/templatedata/comm-comm/gene-gene/data/01/cef_terms-termes_1170085161178_fr"
    },
    "type_name": "comm-comm/gene-gene",
    "has_dcr_id": true,
    "label": {
        "en": "Terms of Reference",
        "fr": "Mandat"
    },
    "breadcrumb": {
        "en": "Terms of Reference",
        "fr": "Mandat"
    },
    "layout_name": "content page 1 column",
    "lang": "en",
    "refaire": false,
    "meta": {
        "viewport": {
            "en": "width=device-width,initial-scale=1",
            "fr": "width=device-width, initial-scale=1"
        },
        "issued": {
            "en": "2009-01-23",
            "fr": "2009-01-23"
        },
        "modified": {
            "en": "2019-09-17",
            "fr": "2019-09-17"
        },
        "format": {
            "en": "text/html",
            "fr": "text/html"
        },
        "title": {
            "en": "Terms of Reference",
            "fr": "Mandat"
        },
        "subject": {
            "en": "land management",
            "fr": "gestion des terres"
        },
        "dcterms:subject": {
            "en": "agriculture",
            "fr": "engrais;ressources p\u00e9dagogiques;m\u00e9dicament"
        },
        "description": {
            "en": "specifically, the advisory council will: monitor the management and operations/maintenance of the cef national historic site according to the objectives for the designated place as contained in the commemorative integrity statement; provide advise in the development and implementation of management plans and other strategic planning matters; provide advice and make recommendations on matters referred to them by either aafc management or stakeholders including land-use proposals for non-mission lands, revenue generation initiatives, introduction of/or changes to fees, major changes to operations, initiatives to increase efficiency, partnerships, sponsorships; recommend ways of",
            "fr": "composition du conseil consultatif la composition du conseil se limitera \u00e0 onze (11) membres et comprendra une repr\u00e9sentation de chacun des groupes suivants : les amis de la ferme exp\u00e9rimentale centrale; jardin \u00e9cologique fletcher; f\u00e9d\u00e9ration des associations de citoyens; conseil des organismes de mise en valeur du patrimoine \u00e0 ottawa; conseil canadien des 4-h; conseil de recherches agro-alimentaires du canada; association des architectes paysagistes du canada; institut canadien des urbanistes; jardin botanique de montr\u00e9al; fondation h\u00e9ritage canada."
        },
        "language": {
            "en": "eng",
            "fr": "fra"
        },
        "keywords": {
            "en": " full council; council meetings; council members; terms of reference;advisory council",
            "fr": " site historique; mission d'aac; membre du ccfec; membres du conseil;conseil consultatif"
        },
        "audience": {
            "en": "general public",
            "fr": "grand public"
        },
        "type": {
            "en": "fact sheet",
            "fr": "fiche de renseignements"
        },
        "creator": {
            "en": "Central Experimental Farm Integrated Services;Agriculture and Agri-Food Canada;Government of Canada",
            "fr": "Services int\u00e9gr\u00e9s de la Ferme exp\u00e9rimentale centrale;Agriculture et Agroalimentaire Canada;Gouvernement du Canada"
        },
        "spatial": {
            "en": "gcregions",
            "fr": "gcregions"
        },
        "service": {
            "en": "AAFC-AAC",
            "fr": "AAFC-AAC"
        },
        "accessRights": {
            "en": "2",
            "fr": "2"
        },
        "legalName": {
            "en": "agriculture_and_agri_food_canada",
            "fr": "agriculture_et_agroalimentaire_canada"
        },
        "areaServed": {
            "en": "Canada",
            "fr": "Canada"
        }
    },
    "h1": {
        "en": "Terms of Reference",
        "fr": "Mandat"
    },
    "js": {
        "en": "",
        "fr": ""
    },
    "body": {
        "en": "\r\n    \n<p><a href=\"?id=1169814977713\">Central Experimental Farm Advisory Council</a></p>\n\n<nav>\n<ul>\n    <li><a href=\"#a1\">Roles and Responsibilities</a></li>\n    <li><a href=\"#a2\">Advisory Council Membership</a></li>\n    <li><a href=\"#a3\">Conduct of Council Meetings</a></li>\n    <li><a href=\"#a4\">Election of the Chair</a></li>\n</ul>\n</nav>\n\n<h2>Background</h2>\n\n<p>The Central Experimental Farm (CEF) was designated a National Historic Site on February\u00a04, 1998 in a joint announcement by Parks Canada and Agriculture and Agri-Food Canada (AAFC). This designation is symbolic of agriculture's important contribution to Canada's social and economic development and the remarkable role that the CEF continues to play in agri-food research.</p>\n\n<p>Over its 112 year history, and particularly in recent years, the scope and type of activity taking place on the CEF has changed significantly. These changes, combined with the additional management responsibility associated with the national historic site designation, led the Department to launch an extensive public consultations process on February\u00a011, 1998.</p>\n\n<p>Engaging both the local and national public on their perceptions of the site, public access, and possible future uses of non-mission lands, the consultations were designed to assist the Department in the development of a management framework to guide future decision-making. The public input was constructive and there was strong support for:</p>\n\n<ul>\n<li>AAFC's announcement that all CEF lands would remain in public ownership;</li>\n<li>restrictions to public access in order to ensure the continued operation of the Eastern Cereal and Oilseed Research Centre;</li>\n<li>that the Department's consolidated headquarters would remain on site;</li>\n<li>that AAFC would continue to preserve, and find suitable tenants for, all federally-designated heritage buildings;</li>\n<li>and that the Agricultural Museum would continue to operate and expand its mandate.</li>\n</ul>\n<p>The public also recognized the increased complexity of the management environment in which AAFC operates as steward for the CEF. The management challenges are many as the site remains a functional research facility of national significance; offers valuable greenspace in an urban environment; and, is important to a broad range of stakeholders with specific interests and concerns. Consultation participants identified the need to formulate a set of planning and management principles to guide future decision-making, and noted that these decisions should be shared in a manner that allowed a broad range of interests to participate.</p>\n\n<p>Having re-affirmed its commitment to act as steward for the CEF, AAFC is seeking to engage the public more fully in the future management of the CEF site. In order to do so, the Department has made the decision to establish an Advisory Council.</p>\n\n\n<h3 id=\"a1\">Roles and Responsibilities</h3>\n<p>The CEF Advisory Council will serve as an important means of obtaining public input and will provide advice and recommendations in order to assist AAFC in its stewardship role.</p>\n\n<p>Specifically, the Advisory Council will:</p>\n\n<ul>\n<li>monitor the management and operations/maintenance of the CEF National Historic Site according to the objectives for the designated place as contained in the Commemorative Integrity Statement;</li>\n<li>provide advice in the development and implementation of Management Plans and other strategic planning matters;</li>\n<li>provide advice and make recommendations on matters referred to them by either AAFC management or stakeholders including land-use proposals for non-mission lands, revenue generation initiatives, introduction of/or changes to fees, major changes to operations, initiatives to increase efficiency, partnerships, sponsorships;</li>\n<li>recommend ways of improving client and stakeholder satisfaction; and,</li>\n<li>provide assistance to AAFC in on-going communications with the public, as required.</li>\n</ul>\n<p>Advisory Council members are expected to actively solicit the views and opinions of their sector and organization's membership so that they may provide informed advice and recommendations to AAFC.</p>\n\n<p>AAFC and Agriculture Museum management will keep the Council informed of other significant issues which could impact on the Council's deliberations.</p>\n\n\n<h3>Relationship with Agriculture and Agri-Food Canada</h3>\n<p>The Advisory Council will advise the Deputy Minister, through the Assistant Deputy Minster, Corporate Services Branch, on matters outlined under the Roles and Responsibilities.</p>\n\n\n\n\n<h3 id=\"a2\">Advisory Council Membership</h3>\n<p>The size of the Council will be restricted to a maximum of eleven (11) members and will include representation from each of the following:</p>\n\n<ol>\n<li>Friends of the Central Experimental Farm;</li>\n<li>Fletcher Wildlife Garden;</li>\n<li>Federation of Citizens Associations;</li>\n<li>Council of Heritage Organizations in Ottawa;</li>\n<li>Canadian 4-H Council;</li>\n<li>University of Guelph, Kemptville Campus;</li>\n<li>Canadian Society of Landscape Architects;</li>\n<li>Canadian Institute of Planners;</li>\n<li>Heritage Canada Foundation;</li>\n</ol>\n<p>A representative from both Agriculture and Agri-Food Canada (AAFC) and the National Museum of Science and Technology Corporation (NMST) will be present at all Council meetings in an advisory capacity. In addition, an AAFC official will attend all meetings as an Executive Secretary to the Advisory Council. Other departmental employees will attend by invitation of the Council.</p>\n\n<p>In order to assist in carrying out its mandate, the Advisory Council may invite a representative from the National Capital Commission, City of Ottawa, or other organizations to address a specific issue being considered at a Council meeting. Such invitations are issue specific, and should not be used to extend Council membership on an on-going basis.</p>\n\n\n<h3>Chairperson</h3>\n<p>The Chair position will be held by a member other than a representative of AAFC.</p>\n\n<p>The Chair's term of office shall be for two years from the date of appointment irrespective of the time remaining in the individual's term of office as a representative of a member organization.</p>\n\n<p>Central Experimental Farm Advisory Council (CEFAC) members may recommend the extension of the chairperson's term by up to one year over and above the two-year term.</p>\n\n<p>The Council will elect a Chairperson as soon as the members deem it practical to do so.</p>\n\n<p>The Chairperson will establish the Agenda for each meeting following communication with Council members and AAFC.</p>\n\n\n<h3>Alternates</h3>\n<p>Because conflicting responsibilities and commitments can restrict the availability of members for meetings, any CEFAC member wishing to do so can identify an alternate to represent their organizations/constituents at meetings for which the CEFAC member is not available.</p>\n\n<p>When attending a meeting on behalf of the regular member, the alternate will carry the same authority and responsibilities as the absent CEFAC member.</p>\n\n\n\n\n<h3>Term of Appointment</h3>\n<ul>\n<li>The term of office for a CEFAC member will be at the pleasure of the member organization they represent.</li>\n<li>When a member organization wishes to change their representative, it is the member's responsibility to advise the CEFAC chair of their intention.</li>\n<li>If CEFAC wants to add/remove/replace a group(s) represented on CEFAC a recommendation from the full council for the change has to be proposed to the Minister of AAFC.</li>\n<li>Any proposal to add/remove/replace an organization on CEFAC can be initiated by any member by submitting it as an agenda item at a CEFAC meeting.</li>\n<li>If a member misses 3 meetings they will be contacted by the CEFAC secretary to determine if they still want to serve on the council. If the member no longer wishes to serve on the council the organization they represent will be approached and asked to appoint a replacement.</li>\n</ul>\n\n<h3>Conflict of Interest</h3>\n<p>Council members shall perform their duties and arrange their private affairs in such a manner that public confidence in the integrity, objectivity, and impartiality of the Council is conserved.</p>\n\n<p>Council members shall not solicit or accept transfers of economic benefit on a direct personal basis in the process of fulfilling their duties on the Council.</p>\n\n\n\n\n<h3>Frequency of Meetings</h3>\n<p>The Council will hold two (2) general meetings a year, but may meet on other occasions at the call of the Chair to discuss matters of an extraordinary nature. General meetings shall be open to members of the public.</p>\n\n\n<h3>Administrative and Other Arrangements</h3>\n<p>AAFC will provide administrative support for the Advisory Council</p>\n\n<p>Minutes shall be kept of all Council meetings.</p>\n\n<p>Membership on the Council is voluntary and not subject to payment of per diem allowances. Out of pocket expenses will be paid if claimed.</p>\n\n<p>The cost associated with meetings shall be borne by the Department.</p>\n\n<p>The Council may develop and implement various operating procedures beyond those set out in these Terms of Reference. Establishment of such procedures shall be through a formal motion at a council meeting. Procedures that may conflict with other procedures or items in the Terms of Reference will require the agreement of AAFC before implementation.</p>\n\n\n<h3 id=\"a3\">Conduct of Council Meetings</h3>\n<ul>\n<li>Council meetings will be open to the public.</li>\n<li>A maximum of 30 minutes at the beginning of every meeting will be set aside for any questions and responses, issues or presentations that non-members may want to raise: \n<ul>\n<li>A maximum of 5 minutes per person and/or group will be allowed;</li>\n<li>After the 30 minute question period all non-members will be observers for the balance of the meeting.</li>\n</ul>\n</li>\n<li>For the purpose of decision making, a quorum is 50% +\u00a01 of the total council members: \n<ul>\n<li>Six (6) is a quorum for a full council (11 members);</li>\n<li>If a council position(s) is vacant (for example an individual(s) has resigned from the council) the quorum would be re-calculated based on the filled council positions;</li>\n<li>If a council member(s) is absent the quorum does not change\u00a0- it is calculated based on the filled council positions regardless of attendance.</li>\n</ul>\n</li>\n<li>A press release will be sent out two weeks prior to each meeting announcing the date, time and location of the meeting.</li>\n<li>Formal motions at council meetings will be required for: \n<ul>\n<li>decisions involving funding issues;</li>\n<li>decisions that might be challenged at a later date;</li>\n<li>recommendations to AAFC;</li>\n<li>establishment and implementation of operating procedures beyond those set out in these Terms of Reference</li>\n</ul>\n</li>\n</ul>\n\n<h3 id=\"a4\">Election of the Chair</h3>\n\n<ol>\n<li>At the Fall meeting of the Committee, a Chair in their first year of office will announce the call for nominations for the Incoming Chair - Elect. The deadline for nomination will be the last weekday of the month of January in the next calendar year.<br><br></li>\n<li>The nomination will involve the proposal of a candidate's name supported by a seconder, a curriculum vitae, a letter indicating the willingness of the individual to stand together with an indication of their suitability for the position and a letter of support from the organization they represent on council. The proposer and seconder will come from the membership of the committee.<br><br></li>\n<li>At the beginning of February the nomination papers for each candidate will be circulated to all members of the committee together with details for an electronic ballot.<br><br></li>\n<li>The ballot will be completed by the last working day in February and the results announced at the end of the first week in March.<br><br>\n<ul class=\"list-unstyled mrgn-lft-lg\">\n<li>4a. In the event of a tie, a new ballot will be held involving the candidates involved in the tie. The details of the new ballot will be announced at the same time as the results of the first. The new ballot to be completed by the end of March and the results will be announced by the end of the first week of April.<br><br></li>\n</ul>\n</li>\n<li>At the spring meeting, the Chair will introduce the Incoming Chair\u00a0- Elect.<br><br></li>\n<li>At that point, the appointment of the Past-Chair will end.<br><br></li>\n<li>At the beginning of the spring meeting marking the end of the second year of the Chair's tenure (or third year if the Chair has been requested to extend their term of office by Council), the Chair will hand over to the Incoming Chair\u00a0- Elect and become the Past-Chair. The tenure of the position of Past-Chair will be for one year.<br><br></li>\n<li>The Past-Chair will act as the Chair of the Nominations Committee for the election of the Incoming Chair.</li>\n</ol>\n\n\n\r\n    ",
        "fr": "\r\n    \n<p><a href=\"?id=1169814977713\">Conseil consultatif de la Ferme exp\u00e9rimentale central</a></p>\n\n<nav>\n<ul>\n     <li><a href=\"#a1\">R\u00f4les et responsabilit\u00e9s</a></li>\n     <li><a href=\"#a2\">Composition du Conseil consultatif</a></li>\n     <li><a href=\"#a3\">Tenue de s\u00e9ances en conseil</a></li>\n     <li><a href=\"#a4\">\u00c9lection du pr\u00e9sident du Conseil</a></li>\n</ul>\n</nav>\n\n  <h2>Rappel historique</h2>\n\n  <p>La Ferme exp\u00e9rimentale centrale (FEC) a \u00e9t\u00e9 d\u00e9sign\u00e9e site historique national le 4\u00a0f\u00e9vrier 1998 lors d'une annonce conjointe faite par Parcs Canada et Agriculture et Agroalimentaire Canada (AAC). Cette d\u00e9signation se veut un symbole de l'importante contribution de l'agriculture au d\u00e9veloppement social et \u00e9conomique du Canada et du r\u00f4le remarquable que la FEC continue de jouer dans le domaine de la recherche agroalimentaire.</p>\n\n  <p>Au cours de ses 112 ann\u00e9es d'histoire, et plus particuli\u00e8rement ces derni\u00e8res ann\u00e9es, on a assist\u00e9 \u00e0 une \u00e9volution consid\u00e9rable de la port\u00e9e et du type des activit\u00e9s men\u00e9es \u00e0 la FEC. Ces changements et les responsabilit\u00e9s de gestion suppl\u00e9mentaires d\u00e9coulant de cette d\u00e9signation comme site historique national ont amen\u00e9 le Minist\u00e8re \u00e0 lancer un vaste processus de consultations publiques le 11\u00a0f\u00e9vrier 1998.</p>\n\n  <p>Ces consultations men\u00e9es aupr\u00e8s de la population locale et nationale visaient \u00e0 d\u00e9terminer les perceptions du public quant \u00e0 la nature du site, \u00e0 son accessibilit\u00e9 au public et aux utilisations futures possibles des terres non essentielles \u00e0 la mission d'AAC. Elles \u00e9taient con\u00e7ues pour aider le Minist\u00e8re \u00e0 d\u00e9finir un cadre de gestion pour guider ses d\u00e9cisions futures. Les commentaires du public ont \u00e9t\u00e9 constructifs, et un net appui s'est d\u00e9gag\u00e9 en faveur des \u00e9l\u00e9ments suivants\u00a0:</p>\n\n  <ul>\n    <li>annonce par AAC que toutes les terres de la FEC demeureraient de propri\u00e9t\u00e9 publique;</li>\n    <li>restrictions \u00e0 l'acc\u00e8s du public de fa\u00e7on \u00e0 permettre le fonctionnement continu du Centre de recherches de l'Est sur les c\u00e9r\u00e9ales et les ol\u00e9agineux;</li>\n    <li>maintien du si\u00e8ge consolid\u00e9 du Minist\u00e8re sur le site;</li>\n    <li>engagement d'AAC \u00e0 continuer de pr\u00e9server tous les b\u00e2timents f\u00e9d\u00e9raux patrimoniaux d\u00e9sign\u00e9s et de chercher \u00e0 trouver des locataires acceptables pour les occuper;</li>\n    <li>maintien et \u00e9largissement du mandat du Mus\u00e9e de l'agriculture.</li>\n  </ul>\n  \n  <p>Le public a \u00e9galement reconnu la complexit\u00e9 accrue des conditions de gestion avec lesquelles AAC doit composer en qualit\u00e9 d'intendant de la FEC. Les d\u00e9fis de la gestion sont nombreux, compte tenu du fait que le site demeure une installation de recherche fonctionnelle de port\u00e9e nationale, offre de pr\u00e9cieux espaces verts dans un environnement urbain, et rev\u00eat une importance pour une vaste brochette d'intervenants ayant chacun leurs int\u00e9r\u00eats et pr\u00e9occupations propres. Les participants aux consultations ont cern\u00e9 le besoin de formuler un ensemble de principes de planification et de gestion en vue de guider les d\u00e9cisions futures, et soulign\u00e9 que ces d\u00e9cisions devraient \u00eatre partag\u00e9es, de mani\u00e8re \u00e0 permettre la repr\u00e9sentation d'un large spectre d'int\u00e9r\u00eats.</p>\n\n  <p>Ayant r\u00e9it\u00e9r\u00e9 son engagement \u00e0 agir \u00e0 titre d'intendant de la FEC, AAC cherche \u00e0 faire participer le public de plus pr\u00e8s \u00e0 la gestion future du site. \u00c0 cette fin, le Minist\u00e8re a pris la d\u00e9cision d'\u00e9tablir un conseil consultatif.</p>\n\n  \n    <h3 id=\"a1\">R\u00f4les et responsabilit\u00e9s</h3>\n    <p>Le Conseil consultatif de la FEC constituera un important m\u00e9canisme pour conna\u00eetre le point de vue du public et fournira des conseils et des recommandations \u00e0 AAC pour l'aider \u00e0 jouer son r\u00f4le d'intendant.</p>\n\n    <p>De fa\u00e7on plus pr\u00e9cise, le Conseil consultatif exercera les fonctions suivantes\u00a0:</p>\n\n    <ul>\n      <li>surveiller la gestion et l'exploitation/entretien du site historique de la FEC, conform\u00e9ment aux objectifs figurant dans l'\u00e9nonc\u00e9 d'int\u00e9grit\u00e9 comm\u00e9morative;</li>\n      <li>donner des avis sur l'\u00e9laboration et la mise en \u0153uvre de plans de gestion et sur d'autres questions de planification strat\u00e9gique;</li>\n      <li>prodiguer des conseils et formuler des recommandations sur des questions qui lui sont soumises par la direction d'AAC ou les intervenants, notamment des propositions sur l'utilisation des terres non essentielles \u00e0 la mission d'AAC, des initiatives productrices de recettes, l'introduction et/ou la modification de droits, les modifications mineures des op\u00e9rations, les initiatives visant \u00e0 accro\u00eetre l'efficience de la FEC, les partenariats et les parrainages;</li>\n      <li>recommander des moyens d'am\u00e9liorer la satisfaction des clients et des intervenants;</li>\n      <li>fournir une aide \u00e0 AAC dans ses communications courantes avec le public, selon les besoins.</li>\n    </ul>\n    <p>On s'attend \u00e0 ce que les membres du Conseil consultatif sollicitent activement les points de vue et opinions des membres de leur secteur et de leur organisation afin d'\u00eatre en mesure de fournir \u00e0 AAC des recommandations et des avis \u00e9clair\u00e9s.</p>\n\n    <p>La direction d'AAC et du Mus\u00e9e de l'agriculture tiendra le Conseil inform\u00e9 de toute autre question importante susceptible d'avoir une incidence sur ses d\u00e9lib\u00e9rations.</p>\n\n  \n\n  \n    <h3>Rapport avec Agriculture et Agroalimentaire Canada</h3>\n    <p>Le Conseil consultatif conseillera le sous-ministre, par l'entremise du sous-ministre adjoint, Direction g\u00e9n\u00e9rale des services int\u00e9gr\u00e9s, sur les questions d\u00e9finies \u00e0 la rubrique \u00ab\u00a0R\u00f4les et responsabilit\u00e9s\u00a0\u00bb.</p>\n\n  \n  \n    <h3 id=\"a2\">Composition du Conseil consultatif</h3>\n    <p>La composition du Conseil se limitera \u00e0 onze (11) membres et comprendra une repr\u00e9sentation de chacun des groupes suivants\u00a0:</p>\n\n    <ol>\n      <li>Les amis de la Ferme exp\u00e9rimentale centrale;</li>\n      <li>Jardin \u00e9cologique Fletcher;</li>\n      <li>F\u00e9d\u00e9ration des associations de citoyens;</li>\n      <li>Conseil des organismes de mise en valeur du patrimoine \u00e0 Ottawa;</li>\n      <li>Conseil canadien des 4-H;</li>\n      <li>Universit\u00e9 de Guelph, Campus de Kemptville;</li>\n      <li>Association des architectes paysagistes du Canada;</li>\n      <li>Institut canadien des urbanistes;</li>\n      <li>Fondation H\u00e9ritage Canada.</li>\n    </ol>\n    <p>Un repr\u00e9sentant d'Agriculture et Agroalimentaire Canada (AAC) et un autre de la Soci\u00e9t\u00e9 du Mus\u00e9e national des sciences et de la technologie (MNST) seront pr\u00e9sents \u00e0 chacune des r\u00e9unions du Conseil \u00e0 titre de conseillers. En outre, un fonctionnaire d'AAC assistera \u00e0 toutes les r\u00e9unions \u00e0 titre de secr\u00e9taire de direction du Conseil consultatif. D'autres employ\u00e9s du Minist\u00e8re pourront assister \u00e0 certaines r\u00e9unions sur invitation du Conseil.</p>\n\n    <p>S'il a besoin d'aide pour s'acquitter de son mandat, le Conseil consultatif peut demander \u00e0 un repr\u00e9sentant de la Commission de la capitale nationale, de la Ville d'Ottawa ou d'autres organisations de s'occuper d'une question particuli\u00e8re abord\u00e9e \u00e0 l'une de ses r\u00e9unions. De telles invitations se limitent \u00e0 l'\u00e9tude d'un dossier et ne devraient pas servir \u00e0 \u00e9largir de fa\u00e7on permanente la composition du Conseil.</p>\n\n  \n  \n    <h3>Pr\u00e9sident</h3>\n    <p>Le poste de pr\u00e9sident sera occup\u00e9 par un membre autre qu'un repr\u00e9sentant d'AAC.</p>\n\n    <p>Le mandat du pr\u00e9sident sera d'une dur\u00e9e de deux ans \u00e0 partir de la date de la nomination, sans \u00e9gard \u00e0 la dur\u00e9e restante de son mandat comme repr\u00e9sentant d'une organisation membre.</p>\n\n    <p>Les membres du Conseil consultatif de la Ferme exp\u00e9rimentale centrale (CCFEC) pourront recommander que le mandat du pr\u00e9sident soit prolong\u00e9 d'au plus un an apr\u00e8s la p\u00e9riode initiale de deux ans.</p>\n\n    <p>Le Conseil \u00e9lira un pr\u00e9sident d\u00e8s que les membres jugeront qu'il est pratique de le faire.</p>\n\n    <p>Le pr\u00e9sident \u00e9tablira l'ordre du jour de chaque r\u00e9union apr\u00e8s avoir communiqu\u00e9 avec les membres du Conseil et AAC.</p>\n\n  \n\n  \n    <h3>Rempla\u00e7ants</h3>\n    <p>Puisque les membres du CCFEC ne sont toujours disponibles pour assister aux r\u00e9unions en raison de leurs autres engagements et responsabilit\u00e9s, il leur est toujours possible de d\u00e9signer un rempla\u00e7ant pour repr\u00e9senter, au besoin, leur organisation ou leurs mandants aux r\u00e9unions de Conseil qu'ils devront manquer.</p>\n\n    <p>La personne d\u00e9sign\u00e9e d\u00e9tiendrait les m\u00eames attributions que le membre absent qu'elle remplacerait \u00e0 la r\u00e9union du CCFEC.</p>\n\n  \n  \n    <h3>Dur\u00e9e du mandat</h3>\n    <ul>\n      <li>La dur\u00e9e du mandat d'un membre du CCFEC sera \u00e9tablie \u00e0 la discr\u00e9tion de l'organisation qu'il repr\u00e9sente.</li>\n      <li>Lorsqu'une organisation membre souhaite changer de repr\u00e9sentant, il appartient au membre d\u00e9sign\u00e9 d'en faire part au pr\u00e9sident du CCFEC.</li>\n      <li>Si le CCFEC d\u00e9sire ajouter, enlever ou remplacer un groupe repr\u00e9sent\u00e9 dans ses rangs, une recommandation en ce sens du conseil pl\u00e9nier doit \u00eatre propos\u00e9e au ministre de l'Agriculture et de l'Agroalimentaire du Canada.</li>\n      <li>Toute proposition en vue d'ajouter, d'enlever ou de remplacer une organisation au sein du CCFEC doit \u00eatre pr\u00e9sent\u00e9e par un membre sous la forme d'un point \u00e0 l'ordre du jour d'une r\u00e9union du CCFEC.</li>\n      <li>Si un membre ne se pr\u00e9sente pas \u00e0 trois (3) r\u00e9unions, le secr\u00e9taire du CCFEC communiquera avec lui pour lui demander s'il veut continuer de si\u00e9ger au Conseil. Si le membre ne d\u00e9sire plus faire partie du Conseil, l'organisation qu'il repr\u00e9sente sera invit\u00e9e \u00e0 lui trouver un rempla\u00e7ant.</li>\n    </ul>\n  \n\n  \n    <h3>Conflit d'int\u00e9r\u00eat</h3>\n    <p>Les membres du Conseil doivent exercer leurs fonctions et organiser leurs affaires priv\u00e9es de fa\u00e7on \u00e0 pr\u00e9server la confiance du public dans l'int\u00e9grit\u00e9, l'objectivit\u00e9 et l'impartialit\u00e9 du Conseil.</p>\n\n    <p>Les membres du Conseil ne doivent pas, dans l'exercice de leurs fonctions au sein de celui-ci, solliciter ou accepter des avantages \u00e9conomiques personnels directs.</p>\n\n  \n  \n    <h3>Fr\u00e9quence des r\u00e9unions</h3>\n    <p>Le Conseil tiendra deux (2) r\u00e9unions g\u00e9n\u00e9rales par an et pourrait se r\u00e9unir \u00e0 d'autres occasions \u00e0 la demande du pr\u00e9sident afin de discuter des questions importantes. Les r\u00e9unions g\u00e9n\u00e9rales doivent \u00eatre ouvertes au public.</p>\n\n  \n  \n    <h3>Arrangements administratifs et autres</h3>\n    <p>AAC fournira un soutien administratif au Conseil consultatif.</p>\n\n    <p>Un proc\u00e8s-verbal de toutes les r\u00e9unions sera r\u00e9dig\u00e9.</p>\n\n    <p>La participation au Conseil est volontaire et ne donne pas lieu au versement d'indemnit\u00e9s journali\u00e8res. Les menues d\u00e9penses seront rembours\u00e9es sur r\u00e9clamation.</p>\n\n    <p>Les co\u00fbts li\u00e9s \u00e0 la tenue des r\u00e9unions seront assum\u00e9s par le Minist\u00e8re.</p>\n\n    <p>Le Conseil peut \u00e9laborer et mettre en \u0153uvre diverses proc\u00e9dures de fonctionnement en plus de celles \u00e9tablies dans ce mandat. L'\u00e9tablissement de telles proc\u00e9dures doit se faire \u00e0 l'aide d'une motion formelle au cours d'une r\u00e9union du Conseil. Les proc\u00e9dures qui peuvent entrer en conflit avec d'autres proc\u00e9dures ou \u00e9l\u00e9ments du mandat n\u00e9cessiteront l'accord d'AAC avant leur mise en \u0153uvre.</p>\n\n  \n  \n    <h3 id=\"a3\">Tenue de s\u00e9ances en conseil</h3>\n    <ul>\n      <li>Des s\u00e9ances en conseil seront ouvertes au public.</li>\n    </ul>\n    <ul>\n      <li>Un maximum de trente minutes au d\u00e9but de la s\u00e9ance sera allou\u00e9 aux questions et aux r\u00e9ponses, et aux questions et pr\u00e9sentations dont le public d\u00e9sire discuter.\n        <ul>\n          <li>Un maximum de cinq minutes par personne ou par groupe sera accord\u00e9.</li>\n          <li>Apr\u00e8s une p\u00e9riode de questions de trente minutes, le public devra s'en tenir \u00e0 \u00e9couter le d\u00e9roulement de la s\u00e9ance.</li>\n        </ul>\n      </li>\n    </ul>\n    <ul>\n      <li>En ce qui a trait \u00e0 la prise de d\u00e9cisions, le quorum s'\u00e9tablit \u00e0 cinquante pour cent plus un du nombre total de membres en conseil.\n        <ul>\n          <li>Six membres constituent le quorum d'un conseil complet (onze membres).</li>\n          <li>Si un poste en conseil est vacant (par exemple, si quelqu'un ne fait plus partie du conseil) le quorum sera recalcul\u00e9 selon les postes combl\u00e9s en conseil.</li>\n          <li>Si un ou plusieurs membres sont absents, le quorum ne change pas; il est calcul\u00e9 selon les postes en conseil combl\u00e9s sans tenir compte des pr\u00e9sences.</li>\n        </ul>\n      </li>\n    </ul>\n    <ul>\n      <li>Un communiqu\u00e9 de presse sera publi\u00e9 deux semaines avant chaque s\u00e9ance pour annoncer la date, l'heure et le lieu de cette derni\u00e8re.</li>\n    </ul>\n    <ul>\n      <li>Des motions formelles aux s\u00e9ances en conseils seront obligatoires pour\u00a0:\n        <ul>\n          <li>les d\u00e9cisions rattach\u00e9es au financement;</li>\n          <li>les d\u00e9cisions pouvant \u00eatre mises \u00e0 l'\u00e9preuve \u00e0 une date ult\u00e9rieure;</li>\n          <li>les recommandations \u00e0 AAC.</li>\n          <li>l'\u00e9tablissement et la mise en oeuvre de proc\u00e9dures de fonctionnement en plus de celles \u00e9tablies dans ce mandat.</li>\n        </ul>\n      </li>\n    </ul>\n\n<h3 id=\"a4\">\u00c9lection du pr\u00e9sident du Conseil</h3>\n\n<ol><li>\u00c0 la r\u00e9union d'automne du comit\u00e9, une personne qui en est \u00e0 sa premi\u00e8re ann\u00e9e de pr\u00e9sidence annoncera l'appel de candidatures \u00e0 la pr\u00e9sidence \u00e9lue entrante. La date limite de mise en candidature sera le dernier jour ouvrable du mois de janvier de l'ann\u00e9e civile suivante.<br><br></li><li>Pour \u00eatre recevable, la candidature propos\u00e9e doit \u00eatre appuy\u00e9e par une deuxi\u00e8me personne et accompagn\u00e9e d'un curriculum vitae, d'une lettre indiquant que la personne est dispos\u00e9e \u00e0 pr\u00e9senter sa candidature et apte \u00e0 occuper le poste, ainsi que d'une lettre de soutien de l'organisation qu'elle repr\u00e9sente au Conseil. La personne qui propose la motion et celle qui l'appuie doivent \u00eatre membres du comit\u00e9.<br><br></li><li>Au d\u00e9but de f\u00e9vrier, tous les dossiers de mise en candidature ainsi que les d\u00e9tails de la proc\u00e9dure de vote \u00e9lectronique seront communiqu\u00e9s \u00e0 chaque membre du comit\u00e9.<br><br></li><li>Le vote se tiendra avant le dernier jour ouvrable de f\u00e9vrier et les r\u00e9sultats seront annonc\u00e9s \u00e0 la fin de la premi\u00e8re semaine de mars.<br><br><ul class=\"list-unstyled mrgn-lft-lg\"><li>4a. En cas d'\u00e9galit\u00e9 des voix, il y aura un nouveau tour de scrutin entre les candidatures \u00e0 \u00e9galit\u00e9. Les modalit\u00e9s du nouveau scrutin seront annonc\u00e9es en m\u00eame temps que les r\u00e9sultats du premier vote. Le deuxi\u00e8me scrutin se tiendra avant la fin mars et les r\u00e9sultats seront annonc\u00e9s avant la fin de la premi\u00e8re semaine d'avril.<br><br></li></ul></li><li>\u00c0 la r\u00e9union du printemps, la pr\u00e9sidence pr\u00e9sentera la pr\u00e9sidence \u00e9lue entrante.<br><br></li><li>C'est \u00e0 ce moment-l\u00e0 que se terminera le mandat de l'ancienne pr\u00e9sidence.<br><br></li><li>Au d\u00e9but de la r\u00e9union du printemps marquant la fin de la deuxi\u00e8me ann\u00e9e du mandat de la pr\u00e9sidence (ou troisi\u00e8me ann\u00e9e si le Conseil a demand\u00e9 \u00e0 la pr\u00e9sidence de prolonger son mandat), la pr\u00e9sidence c\u00e9dera sa place \u00e0 la pr\u00e9sidence \u00e9lue entrante et deviendra l'ancienne pr\u00e9sidence. Le mandat du poste d'ancienne pr\u00e9sidence sera d'un an.<br><br></li><li>L'ancienne pr\u00e9sidence assumera la pr\u00e9sidence du Comit\u00e9 des candidatures \u00e0 l'\u00e9lection de la pr\u00e9sidence entrante.</li></ol>\n\r\n    "
    }
}