{
    "dcr_id": "1203473702150",
    "title": {
        "en": "Guidelines for submitting proposals  - Appendix A - Evaluation Criteria ",
        "fr": "Lignes directrices pour la pr\u00e9sentation de propositions - Annexe A  - Crit\u00e8res d'\u00e9valuation"
    },
    "modified": "2021-02-22",
    "issued": "2009-02-24",
    "templatetype": "content page 1 column",
    "page_type": "0",
    "node_id": "1366840550824",
    "dc_date_created": "2009-02-24",
    "managing_branch": "PAB",
    "parent_node_id": "",
    "short_title": "",
    "exturl": "",
    "teamsite_location": {
        "en": "/default/main/AAFC-AAC/Internet-Internet/Common-Commun/WORKAREA/Common-Commun/templatedata/comm-comm/gene-gene/data/02/variety_request_append_a_1203473702150_en",
        "fr": "/default/main/AAFC-AAC/Internet-Internet/Common-Commun/WORKAREA/Common-Commun/templatedata/comm-comm/gene-gene/data/02/variety_request_append_a_1203473702150_fr"
    },
    "type_name": "comm-comm/gene-gene",
    "has_dcr_id": true,
    "label": {
        "en": "Guidelines for submitting proposals  - Appendix A - Evaluation Criteria ",
        "fr": "Lignes directrices pour la pr\u00e9sentation de propositions - Annexe A  - Crit\u00e8res d'\u00e9valuation"
    },
    "breadcrumb": {
        "en": "Guidelines for submitting proposals  - Appendix A - Evaluation Criteria ",
        "fr": "Lignes directrices pour la pr\u00e9sentation de propositions - Annexe A  - Crit\u00e8res d'\u00e9valuation"
    },
    "layout_name": "content page 1 column",
    "lang": "en",
    "refaire": false,
    "meta": {
        "viewport": {
            "en": "width=device-width,initial-scale=1",
            "fr": "width=device-width, initial-scale=1"
        },
        "issued": {
            "en": "2009-02-24",
            "fr": "2009-02-24"
        },
        "modified": {
            "en": "2021-02-22",
            "fr": "2021-02-22"
        },
        "format": {
            "en": "text/html",
            "fr": "text/html"
        },
        "title": {
            "en": "Guidelines for submitting proposals  - Appendix A - Evaluation Criteria ",
            "fr": "Lignes directrices pour la pr\u00e9sentation de propositions - Annexe A  - Crit\u00e8res d'\u00e9valuation"
        },
        "subject": {
            "en": "seed certification;research;plant breeding;guidelines",
            "fr": "recherche"
        },
        "dcterms:subject": {
            "en": "research",
            "fr": "recherche"
        },
        "description": {
            "en": "variety protection (pbr, pvp) \u2002 (4) financial offer (20%) payment of variety registration fees \u2002 (4) payment of variety protection fees (pbr) \u2002 (4) up-front fee \u2002 (4) royalty rate (percentage rate based on gross price) \u2002 (4) guaranteed, minimum annual royalty payment \u2002 (4) production strategy (25%) projected area of planting (acres by class) \u2002 (5) production schedule \u2002 (5) projected",
            "fr": "pov) \u2002 (4) offre financi\u00e8re (20 %) paiement des frais d'enregistrement des vari\u00e9t\u00e9s \u2002 (4) paiement des frais de protection des vari\u00e9t\u00e9s (pov) \u2002 (4) frais initiaux \u2002 (4) taux de redevance (pourcentage fond\u00e9 sur le prix brut) \u2002 (4) paiement garanti des redevances annuelles minimales \u2002 4) strat\u00e9gie de production (25 %) surface de plantation pr\u00e9vue (acres par classe) \u2002 (5) calendrier de production \u2002(5) volume pr\u00e9vu"
        },
        "language": {
            "en": "eng",
            "fr": "fra"
        },
        "keywords": {
            "en": " history of research support; seed volumes; sales area;required",
            "fr": " territoire de vente; protection des obtentions v\u00e9g\u00e9tales; fa\u00e7on g\u00e9n\u00e9rale; m\u00e9thode de distribution;demand\u00e9"
        },
        "audience": {
            "en": "scientists;business",
            "fr": "scientifiques;entreprises"
        },
        "type": {
            "en": "report",
            "fr": "mat\u00e9riel publicitaire"
        },
        "creator": {
            "en": "Research Branch;Agriculture and Agri-Food Canada;Government of Canada",
            "fr": "Direction g\u00e9n\u00e9rale de la recherche; Agriculture et Agroalimentaire Canada;Gouvernement du Canada"
        },
        "spatial": {
            "en": "gcregions",
            "fr": "gcregions"
        },
        "service": {
            "en": "AAFC-AAC",
            "fr": "AAFC-AAC"
        },
        "accessRights": {
            "en": "2",
            "fr": "2"
        },
        "legalName": {
            "en": "agriculture_and_agri_food_canada",
            "fr": "agriculture_et_agroalimentaire_canada"
        },
        "areaServed": {
            "en": "Canada",
            "fr": "Canada"
        }
    },
    "h1": {
        "en": "Guidelines for submitting proposals - Appendix A - Evaluation Criteria",
        "fr": "Lignes directrices pour la pr\u00e9sentation de propositions - Annexe A - Crit\u00e8res d'\u00e9valuation"
    },
    "js": {
        "en": "",
        "fr": ""
    },
    "body": {
        "en": "\r\n     <nav>\n<h2 class=\"hidden\">Previous-next document navigation - top</h2>\n<p class=\"text-right\"><a href=\"?id=1203473140846\" title=\"7. Investment\">Previous</a> | <a href=\"?id=1203473548544\">Table of Contents</a> | <a href=\"?id=1203473840530\" title=\"Appendix B - Annual Request for Proposal - Proposal Submission Form\">Next</a></p>\n</nav>\n\n<p>Agriculture and Agri-Food Canada (AAFC) is seeking the proposal that provides the overall best commercial value to Canada and will be   evaluated for the following: </p>\n\n<h2>Company Profile (10%)</h2>\n<ul>\n<li>experience in marketing the same crop type</li>\n<li>well established pedigreed seed grower network (i.e. list of seed growers)</li>\n<li>specimen agreement between proponent and grower</li>\n<li>disposal of unused seed stocks</li>\n</ul>\n \n<h2>Marketing and Production Strategy (35%)</h2>\n<ul>\n<li>market promotion and advertising plans</li>\n<li>fit within product portfolio, competitive product lines</li>\n<li>plans for variety protection (PBR, PVP)</li>\n<li>projected sales area</li>\n<li>creativity of marketing plan</li>\n<li>winter nursery</li>\n<li>seed increase and method of distribution</li>\n<li>projected area of planting (acres by class)</li>\n<li>seed production schedule</li>\n<li>projected seed volumes (to be offered for sale)</li>\n<li>protection against unlicensed sales and distribution</li>\n</ul>\n\n<h2>Financial Offer (35%)</h2>\n<ul>\n<li>up-front fee</li>\n<li>royalty rate (calculated as a percentage against the sale of pedigreed seed or on a per tonne basis)</li>\n</ul>\n\n<h2>Investment (20%)</h2>\n<ul>\n<li><p>Total investment/year including cash and in-kind to AAFC in the last two (2) years.</p>\n\n<p>This may include: </p>\n<ul>\n<li>Support for replicated performance trials (at proponents expense)</li>\n<li>payment of entry fees for Provincial Variety Trials</li>\n<li>proponents investment in demonstration sites</li>\n<li>other innovative ways that increase the return to AAFC, reduce risk to AAFC</li>\n\n<li>any research and development support to AAFC</li>\n</ul></li></ul>\n\n<nav>\n  <h2 class=\"hidden\">Previous-next document navigation - bottom</h2>\n<p class=\"text-right\"><a href=\"?id=1203473140846\" title=\"7. Investment\">Previous</a> | <a href=\"?id=1203473548544\">Table of Contents</a> | <a href=\"?id=1203473840530\" title=\"Appendix B - Annual Request for Proposal - Proposal Submission Form\">Next</a></p>\n</nav>\n\r\n    ",
        "fr": "\r\n       <nav>\n<h2 class=\"hidden\">Navigation dans le document : page pr\u00e9c\u00e9dente - page suivant haut</h2>\n<p class=\"text-right\"><a title=\"7. Investissement\" href=\"?id=1203473140846\">Pr\u00e9c\u00e9dente</a>\u00a0|\u00a0<a href=\"?id=1203473548544\">Table des mati\u00e8res</a>\u00a0|\u00a0<a title=\"Annexe B - Demande annuelle de propositions pour les vari\u00e9t\u00e9s - Formulaire de soumission de propositions\" href=\"?id=1203473840530\">Suivante</a></p>\n</nav>\n\n<p><strong>Agriculture et Agroalimentaire Canada (AAC)</strong> est \u00e0 la recherche de la   proposition dans laquelle, de fa\u00e7on g\u00e9n\u00e9rale, on offre la meilleure   valeur marchande au Canada. Les propositions seront \u00e9valu\u00e9es selon les   crit\u00e8res qui suivent. </p>\n\n<h2>Profil d\u2019entreprise (10\u00a0%) </h2>\n<ul>\n<li>Exp\u00e9rience de la commercialisation du m\u00eame type de culture</li>\n<li>R\u00e9seau bien \u00e9tabli de producteurs de semences contr\u00f4l\u00e9es (c.-\u00e0-d. liste de producteurs de semences)</li>\n<li>Entente sur les sp\u00e9cimens entre le promoteur et le producteur</li>\n<li>\u00c9limination de stocks de semences non utilis\u00e9s</li>\n</ul>\n\n<h2>Strat\u00e9gie de production et de commercialisation (35\u00a0%)</h2>\n<ul>\n<li>Promotion commerciale et plans de publicit\u00e9</li>\n<li>Respect du portefeuille de produits et des gammes de produits de la concurrence</li>\n<li>Plans de protection des vari\u00e9t\u00e9s (protection des obtentions v\u00e9g\u00e9tales)</li>\n<li>Secteur pr\u00e9vu pour la vente</li>\n<li>Cr\u00e9ativit\u00e9 du plan de commercialisation</li>\n<li>P\u00e9pini\u00e8res d\u2019hiver</li>\n<li>Multiplication des semences et m\u00e9thode de distribution</li>\n<li>Surface de plantation pr\u00e9vue (acres par classe)</li>\n<li>Calendrier de production de semences</li>\n<li>Volumes de semences pr\u00e9vus (propos\u00e9s \u00e0 la vente)</li>\n<li>Protection contre la vente et la distribution sans licence</li>\n</ul>\n\n<h2>Offre financi\u00e8re (35\u00a0%)</h2>\n<ul>\n<li>Droits initiaux</li>\n<li>Taux de redevance (pourcentage fond\u00e9 sur le prix brut ou par tonne)</li>\n</ul>\n\n<h2>Investissement (20\u00a0%)</h2>\n<ul>\n<li><p>Investissement total par ann\u00e9e, y compris en esp\u00e8ces et en nature, aupr\u00e8s d\u2019AAC au cours des deux (2) derni\u00e8res ann\u00e9es. </p>\n<p>Cela peut comprendre\u00a0: </p>\n<ul>\n<li>Soutien des essais de performance r\u00e9p\u00e9t\u00e9s (aux frais des proposants)</li>\n<li>Paiement des frais d\u2019enregistrement pour les essais provinciaux de vari\u00e9t\u00e9s</li>\n<li>Investissement des proposants dans les sites de d\u00e9monstration</li>\n<li>Autres m\u00e9thodes novatrices qui accroissent les b\u00e9n\u00e9fices et r\u00e9duisent les risques pour AAC</li>\n<li>Tout soutien en mati\u00e8re de recherche et de d\u00e9veloppement \u00e0 AAC</li>\n</ul>\n</li></ul>\n\n<nav>\n  <h2 class=\"hidden\">Navigation dans le document : page pr\u00e9c\u00e9dente - page suivant bas</h2>\n<p class=\"text-right\"><a title=\"7. Investissement\" href=\"?id=1203473140846\">Pr\u00e9c\u00e9dente</a>\u00a0|\u00a0<a href=\"display-afficher.do?id=1203473548544\">Table des mati\u00e8res</a>\u00a0|\u00a0<a title=\"Annexe B - Demande annuelle de propositions pour les vari\u00e9t\u00e9s - Formulaire de soumission de propositions\" href=\"?id=1203473840530\">Suivante</a></p>\n</nav>\n\r\n    "
    }
}