{
    "dcr_id": "1217595502029",
    "title": {
        "en": "Adapting dryland cropping systems for drought conditions",
        "fr": "Adaptation des syst\u00e8mes d'aridoculture aux conditions de s\u00e9cheresse"
    },
    "modified": "2020-01-23",
    "issued": "2009-03-25",
    "templatetype": "content page 1 column",
    "page_type": "0",
    "node_id": "1354137773754",
    "dc_date_created": "2009-03-25",
    "managing_branch": "PAB",
    "parent_node_id": "",
    "short_title": "",
    "exturl": "",
    "teamsite_location": {
        "en": "/default/main/AAFC-AAC/Internet-Internet/Common-Commun/WORKAREA/Common-Commun/templatedata/comm-comm/gene-gene/data/08/adapting_dryland_1217595502029_en",
        "fr": "/default/main/AAFC-AAC/Internet-Internet/Common-Commun/WORKAREA/Common-Commun/templatedata/comm-comm/gene-gene/data/08/adapting_dryland_1217595502029_fr"
    },
    "type_name": "comm-comm/gene-gene",
    "has_dcr_id": true,
    "label": {
        "en": "Adapting dryland cropping systems for drought conditions",
        "fr": "Adaptation des syst\u00e8mes d'aridoculture aux conditions de s\u00e9cheresse"
    },
    "breadcrumb": {
        "en": "Adapting dryland cropping systems for drought conditions",
        "fr": "Adaptation des syst\u00e8mes d'aridoculture aux conditions de s\u00e9cheresse"
    },
    "layout_name": "content page 1 column",
    "lang": "en",
    "refaire": false,
    "meta": {
        "viewport": {
            "en": "width=device-width,initial-scale=1",
            "fr": "width=device-width, initial-scale=1"
        },
        "issued": {
            "en": "2009-03-25",
            "fr": "2009-03-25"
        },
        "modified": {
            "en": "2020-01-23",
            "fr": "2020-01-23"
        },
        "format": {
            "en": "text/html",
            "fr": "text/html"
        },
        "title": {
            "en": "Adapting dryland cropping systems for drought conditions",
            "fr": "Adaptation des syst\u00e8mes d'aridoculture aux conditions de s\u00e9cheresse"
        },
        "subject": {
            "en": "beneficial management;groundwater;soil management;agronomy;cropping systems;drought",
            "fr": "pratiques de gestion b\u00e9n\u00e9fiques;eau souterraine;gestion des sols;agronomie;syst\u00e8mes de culture;s\u00e9cheresse"
        },
        "dcterms:subject": {
            "en": "agriculture",
            "fr": "m\u00e9dicament;engrais;finances"
        },
        "description": {
            "en": "following is a list of management options to adapt or\n            lessen the impact of drought in advance: select crop types\n            and varieties that are more drought tolerant select crop\n            types that have lower crop input costs and produce more\n            residue for erosion protection, such as cereal grains reduce\n            the rate of fertilizer application at seeding time, with the\n            option to add supplemental fertilizer after crop\n            establishment if moisture conditions improve increase the\n            percentage of cropland in conservation fallow in the brown\n            or dark brown soil zones, but target fields that have lower\n            levels of soil moisture",
            "fr": "lorsque l'humidit\u00e9 du sol et les r\u00e9sidus de culture sont\n            insuffisants, entreprendre une gestion du champ faisant\n            intervenir la jach\u00e8re chimique, mais tout en se laissant la\n            possibilit\u00e9 d'\u00e9tablir une certaine couverture v\u00e9g\u00e9tale si\n            les conditions d'humidit\u00e9 s'am\u00e9liorent, en proc\u00e9dant comme\n            suit : planter tardivement des c\u00e9r\u00e9ales \u00e0 un taux de semis\n            r\u00e9duit; planter des bandes tampons annuelles \u00e9troites\n            orient\u00e9es \u00e0 angle droit par rapport \u00e0 la direction des vents\n            dominants, afin de limiter l'\u00e9rosion \u00e9olienne et\n            d'emprisonner la neige."
        },
        "language": {
            "en": "eng",
            "fr": "fra"
        },
        "keywords": {
            "en": "moisture conditions;soil moisture;erosion protection;annual adaptation;crop planting",
            "fr": "plantes nuisibles;pratiques additionnelles;ensemencement des cultures;adaptation annuelle;long terme"
        },
        "audience": {
            "en": "rural community;business",
            "fr": "communaut\u00e9 rurale;entreprises"
        },
        "type": {
            "en": "educational material",
            "fr": "mat\u00e9riel didactique"
        },
        "creator": {
            "en": "Prairie Farm Rehabilitation Administration;Agriculture and Agri-Food Canada;Government of Canada",
            "fr": " Administration du r\u00e9tablissement agricole des Prairies;Agriculture et Agroalimentaire Canada;Gouvernement du Canada"
        },
        "spatial": {
            "en": "gcregions",
            "fr": "gcregions"
        },
        "service": {
            "en": "AAFC-AAC",
            "fr": "AAFC-AAC"
        },
        "accessRights": {
            "en": "2",
            "fr": "2"
        },
        "legalName": {
            "en": "agriculture_and_agri_food_canada",
            "fr": "agriculture_et_agroalimentaire_canada"
        },
        "areaServed": {
            "en": "Canada",
            "fr": "Canada"
        }
    },
    "h1": {
        "en": "Adapting dryland cropping systems for drought conditions",
        "fr": "Adaptation des syst\u00e8mes d'aridoculture aux conditions de s\u00e9cheresse"
    },
    "js": {
        "en": "",
        "fr": ""
    },
    "body": {
        "en": "\r\n    <p>Drought has and continues to be a dominant crop production constraint across the Canadian prairies. The frequency and severity of drought varies between soil zones and even local areas within soil zones. With mounting evidence for climate change and increased climate variability, the risk of drought will likely also increase and the pattern of drought sensitive areas may become more irregular.</p>\n\n<div class=\"pull-right mrgn-lft-md\"><figure class=\"mrgn-bttm-0\"><img src=\"https://www.agr.gc.ca/resources/prod/img/pfra-arap/img/direct_seed3.jpg\" alt=\"Description of this image follows\"><figcaption>\n<p class=\"mrgn-tp-sm\"><i>No Till Seeding</i></p>\n</figcaption></figure>\n\n<figure class=\"mrgn-bttm-0\"><img src=\"https://www.agr.gc.ca/resources/prod/img/pfra-arap/img/wideblade.jpg\" alt=\"Description of this image follows\"><figcaption>\n<p class=\"mrgn-tp-sm\"><i>Conservation Fallow with <br>Wide Blade Cultivator</i></p>\n</figcaption></figure></div>\n\n<p>Slight to moderate drought occurs regularly in the drier regions of the prairies. Farmers have made significant adaptations to drought through on-going practices which conserve moisture and protect soil from wind erosion. These include drought tolerant crop varieties, no till seeding, conservation fallow, crop residue management, and the seeding of erosion sensitive land to perennial forages.</p>\n\n<p>No till seeding involves placing seed and fertilizer with minimal soil disturbance. Conservation fallow is the use of specialized equipment that conserves crop residue such as wide blade cultivators or rodweeders, or using herbicides instead of tillage to control weeds (that is chemical fallow). Good crop residue management includes leaving taller stubble to trap snow and efficiently chopping/spreading straw and chaff to reduce evaporation losses.</p>\n\n<p>While these practices help to mitigate economic risk, reduced crop yield associated with moderate drought still persists on a regular basis. Under severe drought there is a risk of crop failure and serious wind erosion even when implementing these beneficial management practices (BMPs). Severe drought results not only in short term income loss, but increases the risk of future income losses as a result of soil degradation.Therefore, there is a need to consider additional practices that can help reduce the impact of moderate to severe drought events.</p>\n<p>These additional practices can be grouped into three categories:</p>\n<ul>\n<li>Annual adaptation in spring before crop planting</li>\n<li>Annual adaptation in summer after crop planting</li>\n<li>Long-term planning and adaptation.</li>\n</ul>\n\n<h2>Annual adaptation in spring before crop planting</h2>\n<p>Annual adaptation before crop planting hinges on first making an accurate assessment of drought risk based on current and forecasted soil moisture conditions. Early spring soil moisture can be assessed using regionally based soil moisture maps and precipitation data since the previous crop harvest. A more accurate assessment can often be made by local precipitation data, knowledge of soil moisture removal by the previous crop, and probing for depth of moist soil. Producers are aware that these local factors can vary from field to field, and within fields by slope position and soil texture differences. Farmers are managing larger areas of cropland, which may increasingly limit their ability to conduct detailed on-site assessments for every field. However, other tools based on satellite imagery are being developed to assess soil moisture, and may assist producers in the future.</p>\n<p>The other half of the soil moisture question is dependent on upcoming growing season precipitation, temperature, and wind speeds. While long-term (that is 1-3 month) weather forecasting has improved there is still a large degree of uncertainty and local variability often related to sporadic summer thunderstorms. Therefore, there is always a significant element of risk, and part of the management decision is based on how much risk a producer is willing to accept.</p>\n\n<p>Following is a list of management options to adapt or lessen the impact of drought in advance:</p>\n<ul>\n<li>Select crop types and varieties that are more drought tolerant</li>\n<li>Select crop types that have lower crop input costs and produce more residue for erosion protection, such as cereal grains</li>\n<li>Reduce the rate of fertilizer application at seeding time, with the option to add supplemental fertilizer after crop establishment if moisture conditions improve</li>\n<li>Increase the percentage of cropland in conservation fallow in the brown or dark brown soil zones, but target fields that have lower levels of soil moisture and adequate crop residue cover for erosion protection</li>\n</ul>\n<p>Decisions on implementing these options are often difficult, due to the uncertainty of upcoming growing season precipitation, and a host of additional factors. These include crop prices, crop input costs, available labour and equipment, cash flow resources, previous cropping histories, and outbreaks of weeds, insects, and diseases. Nevertheless, many producers in semi arid regions (that is, brown and dark brown soils) consider these options to a varying degree in most years.</p>\n<p>Under a severe drought period that extends for more than one year there are some additional practices that should be considered starting in the second year. The worst case scenario is where a moderate to severe drought is followed by dry fall, winter and early spring conditions. In this situation the risk of severe wind erosion becomes much greater even when applying the above BMPs, because there may be little crop residue production from the previous crop, and little soil moisture available to establish a subsequent crop. Under these conditions a producer could consider the following additional options.</p>\n<ul>\n<li>If soil moisture is at least adequate to initiate establishment, plant a cereal crop at a reduced seeding rate with minimal fertilizer to establish some vegetative cover.</li>\n<li>If soil moisture and crop residue levels are inadequate, begin managing fields using chemical fallow, but leave the option open to establish some vegetative cover if moisture conditions improve by, \n<ul>\n<li>Seeding a delayed cereal crop at a reduced seeding rate.</li>\n<li>Planting narrow annual crop barriers or strips at right angles to the prevailing wind to control wind erosion and trap snow. Strips can include cereals, flax, sunflower, or corn. Weeds in between the strips can be controlled using conservation tillage implements such as wide blades, low crown sweeps, or rodweeders.</li>\n</ul>\n</li>\n</ul>\n\n<h2>Annual adaptation in summer after crop planting</h2>\n<p>Adaptation to drought after crop planting depends on the stage of crop growth and development when the drought hits. Management options can be grouped into two categories: crop utilization and fallow management. These options can apply to most crop management scenarios, and adaptations made in advance for severe drought will be well prepared for further adaptation if necessary.</p>\n\n<h2>Crop utilization</h2>\n<p>Depending on when a crop is seeded and subsequent growing conditions it could be harvested for grain, cut for feed, grazed, left standing with or without a herbicide burnoff, or incorporated as green manure The latter option would normally only be advised if sudden ample precipitation part way through the growing season resulted in heavy growth that could not be harvested.</p>\n<div class=\"pull-right mrgn-lft-md\"><figure class=\"mrgn-bttm-0\"><img src=\"https://www.agr.gc.ca/resources/prod/img/pfra-arap/img/resman2.jpg\" alt=\"Description of this image follows\"><figcaption>\n<p class=\"mrgn-tp-sm\"><i>Baled Straw with alternate Taller Stubble</i></p>\n</figcaption></figure></div>\n\n<p>A number of factors are considered in deciding how to utilize a crop. It is recognized that the impact of drought on pasture and forage production will create a demand for livestock feed using annual crop green feed and even straw residues. This may exacerbate an already high erosion risk by leaving even less crop residue on the soil surface. If possible, livestock producers should plan for carryover feed supplies to lessen the demand for annual crop greenfeed or residues during severe drought. If the crop is short and requires cutting close to the ground for adequate retrieval it is recommended to leave un-harvested strips for erosion protection and snow trapping.</p>\n\n<h2>Fallow management</h2>\n<p>The primary concern of fallow management during a drought is maintaining sufficient crop residue cover for erosion protection. Fortunately, drier weather should result in a slower rate of residue weathering and decomposition, which is normally driven by high moisture and humidity. One may also be able to reduce the number of herbicide applications as weed growth may be less. However, sometimes drought stressed weeds do not absorb herbicide well enough to cause dieback, so allowing some weeds to set seed may be a small price to pay to maintain enough vegetative and residue cover to prevent serious soil erosion.</p>\n<p>If moisture conditions improve later in summer, fallow fields with very low residue cover could be seeded to a cover crop or annual barrier strips, as previously described. These can be seeded as late as 4 to 6 weeks prior to fall freeze-up, as long as enough time is permitted for establishment of adequate surface cover alternatively, later weed control operations can be avoided to allow late season growth of weeds and volunteer crop plants, especially if these plants are primarily annuals and a killing frost is able to terminate their growth before they set viable seed.</p>\n\n<h2>Long-term planning and adaptation</h2>\n<div class=\"pull-right mrgn-lft-md\"><figure class=\"mrgn-bttm-0\"><img src=\"https://www.agr.gc.ca/resources/prod/img/pfra-arap/img/shelterbelt.jpg\" alt=\"Description of this image follows\"><figcaption>\n<p class=\"mrgn-tp-sm\"><i>Field Shelterbelts</i></p>\n</figcaption></figure></div>\n\n<p>For annual cropping systems, there are two additional practices that require long term planning but provide long term benefits for snow trapping and wind erosion control. These are field shelterbelts and narrower fields oriented at right angles to the prevailing wind direction. These practices have become more difficult for larger farms with wider equipment to implement, due to increased inefficiencies associated with field fragmentation. Nevertheless, these may be viable options for some farms.</p>\n<p>Another long term adaptation option is to convert annual cropland to drought tolerant perennial forage. This practice has been widely recommended for marginal soils and landscapes. It also could be considered as a drought strategy, due to the ability of drought tolerant forage species to survive, persist, and provide much better vegetative cover for erosion protection than annual crops through severe drought periods. This adaptation often requires a change in farming system that involves increased livestock, particularly cow-calf beef production. Within this system it is important to plan for significant carryover reserves of feed or pastures, since yields of forages are also severely impacted by drought.</p>\n<p>While the decision to convert annual cropland to perennial forage may be triggered by increasing drought, the timing of this conversion should be delayed until moisture conditions have improved. Forage seeds, being very small, require shallow seed placement and frequent rain showers for several weeks to ensure good germination and establishment. Therefore, significant resolve and long term commitment is required to seed forages during a wet cycle, when the temptation to reap the reward of a successful annual crop in the short term is large.</p>\n\r\n    ",
        "fr": "\r\n    <p>La s\u00e9cheresse constitue encore et toujours l'un des principaux facteurs limitant la production agricole dans les Prairies. La fr\u00e9quence et la gravit\u00e9 des s\u00e9cheresses varient d'une zone p\u00e9dologique \u00e0 l'autre, et m\u00eame d'une r\u00e9gion locale \u00e0 l'autre \u00e0 l'int\u00e9rieur d'une m\u00eame zone p\u00e9dologique. \u00c9tant donn\u00e9 les preuves de plus en plus nombreuses \u00e0 l'appui du changement climatique et de la variabilit\u00e9 accrue du climat, il est probable que les risques de s\u00e9cheresse augmenteront, et il pourra y avoir une plus grande variation dans la r\u00e9partition des r\u00e9gions sujettes aux s\u00e9cheresses.</p>\n<div class=\"pull-right mrgn-lft-md\">\n<figure class=\"mrgn-bttm-0\">\n<img src=\"https://www.agr.gc.ca/resources/prod/img/pfra-arap/img/direct_seed3.jpg\" alt=\"La description de cette image suit\">\n<figcaption>\n<p class=\"mrgn-tp-sm\"><i>Culture sans travail du sol</i></p>\n</figcaption>\n</figure>\n<figure class=\"mrgn-bttm-0\">\n<img src=\"https://www.agr.gc.ca/resources/prod/img/pfra-arap/img/wideblade.jpg\" alt=\"La description de cette image suit\">\n<figcaption>\n<p class=\"mrgn-tp-sm\"><i>Jach\u00e8re de conservation et<br>\ncultivateur \u00e0 larges lames</i></p>\n</figcaption>\n</figure>\n</div>\n<p>Dans les r\u00e9gions plus s\u00e8ches des Prairies, il se produit r\u00e9guli\u00e8rement des s\u00e9cheresses dont la gravit\u00e9 va de faible \u00e0 mod\u00e9r\u00e9e. Les agriculteurs ont pris des mesures importantes pour s'adapter aux s\u00e9cheresses, en ayant recours \u00e0 des pratiques permanentes visant \u00e0 conserver l'humidit\u00e9 et \u00e0 prot\u00e9ger le sol contre l'\u00e9rosion \u00e9olienne. Au nombre de ces pratiques, on compte la production de vari\u00e9t\u00e9s de cultures r\u00e9sistantes \u00e0 la s\u00e9cheresse, la culture sans travail du sol, la jach\u00e8re de conservation, la gestion des r\u00e9sidus de culture et la culture fourrag\u00e8re vivace dans les sols sujets \u00e0 l'\u00e9rosion.</p>\n<p>La culture sans travail du sol consiste \u00e0 ensemencer et \u00e0 utiliser les engrais en veillant \u00e0 perturber le sol le moins possible. La jach\u00e8re de conservation fait intervenir l'utilisation d'\u00e9quipement sp\u00e9cialis\u00e9 qui conserve les r\u00e9sidus de culture, tels des cultivateurs \u00e0 larges lames ou des extirpateurs \u00e0 tringles, ou encore le recours \u00e0 des herbicides au lieu du travail du sol pour \u00e9liminer les plantes nuisibles (c'est-\u00e0-dire, la jach\u00e8re chimique). Une bonne gestion des r\u00e9sidus de culture consiste notamment \u00e0 laisser sur place des chaumes longs pour pi\u00e9ger la neige, ainsi qu'\u00e0 hacher et \u00e0 r\u00e9pandre efficacement la paille et les paillettes afin de r\u00e9duire les pertes par \u00e9vaporation.</p>\n<p>Bien que ces pratiques aident \u00e0 att\u00e9nuer les risques \u00e9conomiques, il arrive encore r\u00e9guli\u00e8rement que le rendement des cultures soit r\u00e9duit en raison de s\u00e9cheresses mod\u00e9r\u00e9es. Dans les cas de s\u00e9cheresses graves, il subsiste un risque de mauvaise r\u00e9colte et d'\u00e9rosion \u00e9olienne importante m\u00eame lorsque ces pratiques de gestion b\u00e9n\u00e9fiques (PGB) ont \u00e9t\u00e9 mise en oeuvre. Les s\u00e9cheresses graves ne se traduisent pas seulement par des pertes de revenus \u00e0 court terme; en effet, en raison de la d\u00e9gradation du sol, elles augmentent \u00e9galement les risques de pertes de revenus futures. Par cons\u00e9quent, il est n\u00e9cessaire d'envisager le recours \u00e0 des pratiques additionnelles pouvant aider \u00e0 att\u00e9nuer les r\u00e9percussions des s\u00e9cheresses mod\u00e9r\u00e9es et graves.</p>\n<p>On peut regrouper ces pratiques additionnelles sous trois cat\u00e9gories\u00a0:</p>\n<ul>\n<li>une adaptation annuelle le printemps, avant l'ensemencement des cultures;</li>\n<li>une adaptation annuelle l'\u00e9t\u00e9, apr\u00e8s l'ensemencement des cultures;</li>\n<li>une planification et une adaptation \u00e0 long terme.</li>\n</ul>\n<h2>Adaptation annuelle le printemps, avant l'ensemencement des cultures</h2>\n<p>L'adaptation annuelle le printemps avant l'ensemencement des cultures n\u00e9cessite avant tout de proc\u00e9der \u00e0 une \u00e9valuation pr\u00e9cise des risques de s\u00e9cheresse en se fondant sur les conditions d'humidit\u00e9 du sol actuelles et pr\u00e9vues. On peut \u00e9valuer l'humidit\u00e9 du sol au d\u00e9but du printemps en consultant des cartes r\u00e9gionales d'humidit\u00e9 des sols et les donn\u00e9es sur les pr\u00e9cipitations depuis la derni\u00e8re r\u00e9colte. Souvent, une \u00e9valuation plus exacte peut \u00eatre effectu\u00e9e \u00e0 partir des donn\u00e9es sur les pr\u00e9cipitations locales et de la connaissance de l'humidit\u00e9 \u00e9limin\u00e9e par la culture pr\u00e9c\u00e9dente, ainsi qu'en d\u00e9terminant la profondeur du sol humide au moyen d'un sondage. Les producteurs savent que ces facteurs locaux peuvent varier d'un champ \u00e0 l'autre, ainsi qu'\u00e0 l'int\u00e9rieur d'un m\u00eame champ selon l'inclinaison du terrain et les diff\u00e9rences dans la texture du sol. Les agriculteurs g\u00e8rent des superficies de terres cultiv\u00e9es plus vastes, ce qui peut faire en sorte de limiter de plus en plus leur capacit\u00e9 d'effectuer des \u00e9valuations d\u00e9taill\u00e9es sur place pour chaque champ. Cependant, d'autres outils d'\u00e9valuation de l'humidit\u00e9 des sols ax\u00e9s sur l'imagerie par satellite sont en cours d'\u00e9laboration et pourraient aider les producteurs \u00e0 l'avenir.</p>\n<p>L'autre pan de la question de l'humidit\u00e9 des sols est li\u00e9 aux pr\u00e9cipitations, \u00e0 la temp\u00e9rature et \u00e0 la vitesse des vents durant la prochaine saison de croissance. Bien que les pr\u00e9visions m\u00e9t\u00e9orologiques \u00e0 long terme (c'est-\u00e0-dire les pr\u00e9visions couvrant une p\u00e9riode allant d'un \u00e0 trois mois) se soient am\u00e9lior\u00e9es, il existe encore beaucoup d'incertitudes et de variabilit\u00e9 locale d\u00e9coulant souvent d'orages estivaux sporadiques. En cons\u00e9quence, il subsiste un \u00e9l\u00e9ment de risque consid\u00e9rable, et les d\u00e9cisions de gestion sont en partie fond\u00e9es sur l'importance du risque que le producteur accepte de prendre.</p>\n<p>Voici une liste d'options en mati\u00e8re de gestion visant \u00e0 s'adapter \u00e0 l'avance aux cons\u00e9quences des s\u00e9cheresses ou \u00e0 att\u00e9nuer celles-ci\u00a0:</p>\n<ul>\n<li>Choisir des types et des vari\u00e9t\u00e9s de cultures qui r\u00e9sistent mieux \u00e0 la s\u00e9cheresse.</li>\n<li>Choisir des types de cultures dont le co\u00fbt des intrants est peu \u00e9lev\u00e9 et qui produisent plus de r\u00e9sidus aux fins de la protection contre l'\u00e9rosion, telles que les grains c\u00e9r\u00e9aliers.</li>\n<li>R\u00e9duire le taux d'utilisation d'engrais au moment de l'ensemencement, tout en ayant la possibilit\u00e9 d'ajouter de l'engrais apr\u00e8s l'\u00e9tablissement de la culture si les conditions d'humidit\u00e9 s'am\u00e9liorent.</li>\n<li>Accro\u00eetre le pourcentage de terres cultivables mises en jach\u00e8re de conservation dans les zones de sol brun et de sol brun fonc\u00e9, mais en ciblant les champs dont le niveau d'humidit\u00e9 du sol est moins \u00e9lev\u00e9 et qui disposent d'une couverture de r\u00e9sidus de culture ad\u00e9quate aux fins de la protection contre l'\u00e9rosion.</li>\n</ul>\n<p>Il est souvent difficile de prendre la d\u00e9cision de mettre en oeuvre ces options, en raison des incertitudes concernant les pr\u00e9cipitations durant la saison de croissance \u00e0 venir ainsi que d'une foule d'autres facteurs. Au nombre de ceux-ci, on compte notamment les prix des cultures, les prix des intrants de culture, la disponibilit\u00e9 de la main-d'oeuvre et de l'\u00e9quipement, les liquidit\u00e9s, les pr\u00e9c\u00e9dents culturaux, les infestations de plantes nuisibles et d'insectes et les \u00e9pid\u00e9mies. N\u00e9anmoins, la plupart des ann\u00e9es, de nombreux producteurs des r\u00e9gions semi-arides (o\u00f9 se trouvent les zones de sol brun et de sol brun fonc\u00e9) envisagent de recourir \u00e0 ces options \u00e0 des degr\u00e9s divers.</p>\n<p>Dans les cas o\u00f9 une s\u00e9cheresse grave s'\u00e9tend sur une p\u00e9riode de plus d'un an, il existe certaines pratiques additionnelles qui devraient \u00eatre envisag\u00e9es \u00e0 compter du d\u00e9but de la deuxi\u00e8me ann\u00e9e. Le pire sc\u00e9nario survient lorsqu'une s\u00e9cheresse mod\u00e9r\u00e9e ou grave est suivie d'un automne, d'un hiver et d'un d\u00e9but de printemps secs. Dans une telle situation, le risque d'\u00e9rosion \u00e9olienne importante s'accro\u00eet de beaucoup, m\u00eame lorsqu'on a recours aux PGB susmentionn\u00e9es, car il se peut que la production de r\u00e9sidus par la culture pr\u00e9c\u00e9dente soit modeste et qu'il y ait peu d'humidit\u00e9 disponible pour l'\u00e9tablissement de la culture suivante. Dans ces conditions, un producteur doit prendre en consid\u00e9ration les options additionnelles suivantes.</p>\n<ul>\n<li>Lorsque l'humidit\u00e9 du sol est suffisante au moins pour amorcer l'\u00e9tablissement d'une culture, planter des c\u00e9r\u00e9ales \u00e0 un taux de semis r\u00e9duit et en minimisant l'utilisation d'engrais, afin d'\u00e9tablir une certaine couverture v\u00e9g\u00e9tale.</li>\n<li>Lorsque l'humidit\u00e9 du sol et les r\u00e9sidus de culture sont insuffisants, entreprendre une gestion du champ faisant intervenir la jach\u00e8re chimique, mais tout en se laissant la possibilit\u00e9 d'\u00e9tablir une certaine couverture v\u00e9g\u00e9tale si les conditions d'humidit\u00e9 s'am\u00e9liorent, en proc\u00e9dant comme suit\u00a0:\n<ul>\n<li>planter tardivement des c\u00e9r\u00e9ales \u00e0 un taux de semis r\u00e9duit;</li>\n<li>planter des bandes tampons annuelles \u00e9troites orient\u00e9es \u00e0 angle droit par rapport \u00e0 la direction des vents dominants, afin de limiter l'\u00e9rosion \u00e9olienne et d'emprisonner la neige. Les bandes peuvent \u00eatre constitu\u00e9es de c\u00e9r\u00e9ales, de lin, de tournesols ou de ma\u00efs. On peut limiter la croissance des plantes nuisibles entre les bandes au moyen d'outils utilis\u00e9s pour le travail de conservation du sol, tels que des cultivateurs \u00e0 larges lames, des socs pour le travail du sol juste sous la surface ou des extirpateurs \u00e0 tringles.</li>\n</ul>\n</li>\n</ul>\n<h2>Adaptation annuelle l'\u00e9t\u00e9, apr\u00e8s l'ensemencement des cultures</h2>\n<p>L'adaptation \u00e0 la s\u00e9cheresse apr\u00e8s l'ensemencement est fonction du niveau de croissance et de d\u00e9veloppement des cultures lorsque la s\u00e9cheresse survient. On peut regrouper les options de gestion sous deux cat\u00e9gories\u00a0: l'utilisation des produits r\u00e9colt\u00e9s et la gestion de la mise en jach\u00e8re. Ces options peuvent s'appliquer \u00e0 la plupart des sc\u00e9narios de gestion des cultures, et les mesures d'adaptations aux s\u00e9cheresses prises \u00e0 l'avance faciliteront la prise de mesures additionnelles, au besoin.</p>\n<h2>Utilisation des produits r\u00e9colt\u00e9s</h2>\n<p>Selon le moment de l'ensemencement et les conditions subs\u00e9quentes de croissance, la culture peut produire des c\u00e9r\u00e9ales, \u00eatre r\u00e9colt\u00e9e aux fins d'alimentation des animaux, servir de p\u00e2turage, \u00eatre laiss\u00e9e sur place avec ou sans l'utilisation d'un herbicide total, ou \u00eatre utilis\u00e9e comme engrais vert. Habituellement, cette derni\u00e8re option est recommand\u00e9e uniquement lorsque des pr\u00e9cipitations soudaines et abondantes surviennent au milieu de la saison et entra\u00eenent une croissance telle que la culture ne peut \u00eatre enti\u00e8rement r\u00e9colt\u00e9e.</p>\n<div class=\"pull-right mrgn-lft-md\">\n<figure class=\"mrgn-bttm-0\">\n<img src=\"https://www.agr.gc.ca/resources/prod/img/pfra-arap/img/resman2.jpg\" alt=\"La description de cette image suit\">\n<figcaption>\n<p class=\"mrgn-tp-sm\"><i>Paille mise en balles et<br>\nchaumes longs alternants</i></p>\n</figcaption>\n</figure>\n</div>\n<p>Un certain nombre de facteurs entrent en ligne de compte lorsqu'on doit d\u00e9cider de l'utilisation d'une culture. On sait que les r\u00e9percussions d'une s\u00e9cheresse sur les p\u00e2turages et la production de fourrage cr\u00e9ent une demande pour du fourrage vert provenant de cultures annuelles et m\u00eame pour des r\u00e9sidus de paille. Or, le fait de laisser encore moins de r\u00e9sidus de culture \u00e0 la surface du sol peut aggraver un risque d'\u00e9rosion d\u00e9j\u00e0 \u00e9lev\u00e9. Dans la mesure du possible, les producteurs de b\u00e9tail devraient pr\u00e9voir des r\u00e9serves interannuelles de stocks fourragers afin de r\u00e9duire la demande \u00e0 l'\u00e9gard du fourrage vert ou des r\u00e9sidus de cultures annuelles durant les s\u00e9cheresses graves. Lorsque les v\u00e9g\u00e9taux sont courts et doivent \u00eatre coup\u00e9s pr\u00e8s du sol pour une r\u00e9cup\u00e9ration ad\u00e9quate, il est recommand\u00e9 de laisser des bandes non r\u00e9colt\u00e9es aux fins de protection contre l'\u00e9rosion et de pi\u00e9geage de la neige.</p>\n<h2>Gestion de la mise en jach\u00e8re</h2>\n<p>Durant une s\u00e9cheresse, la gestion de la mise en jach\u00e8re doit principalement viser \u00e0 maintenir une couverture de r\u00e9sidus de culture suffisante aux fins de la protection contre l'\u00e9rosion. Heureusement, des conditions climatiques s\u00e8ches devraient se traduire par un ralentissement de la m\u00e9t\u00e9orisation et de la d\u00e9composition des r\u00e9sidus, celles-ci \u00e9tant habituellement favoris\u00e9es par une humidit\u00e9 \u00e9lev\u00e9e. On peut \u00e9galement \u00eatre en mesure de r\u00e9duire le nombre d'applications d'herbicide dans la mesure o\u00f9 la croissance des plantes nuisibles est r\u00e9duite. Par ailleurs, il arrive parfois que les s\u00e9cheresses compromettent l'absorption des herbicides par les plantes nuisibles, emp\u00eachant ainsi leur \u00e9limination compl\u00e8te; or, le fait de permettre \u00e0 certaines plantes nuisibles de grener peut \u00eatre un faible prix \u00e0 payer pour maintenir une couverture v\u00e9g\u00e9tale et de r\u00e9sidus suffisante en vue de pr\u00e9venir une \u00e9rosion importante du sol.</p>\n<p>Si les conditions d'humidit\u00e9 s'am\u00e9liorent plus tard durant l'\u00e9t\u00e9, les champs en jach\u00e8re ayant une couverture v\u00e9g\u00e9tale tr\u00e8s faible peuvent \u00eatre ensemenc\u00e9s en vue d'\u00e9tablir une culture-abris ou des bandes tampons annuelles, tel qu'il a \u00e9t\u00e9 d\u00e9crit pr\u00e9c\u00e9demment. Ces cultures peuvent \u00eatre sem\u00e9es tard dans la saison (m\u00eame de quatre \u00e0 six semaines avant le gel automnal), pourvu qu'il y ait suffisamment de temps pour l'\u00e9tablissement d'une couverture de surface ad\u00e9quate. Par ailleurs, on peut abandonner les activit\u00e9s subs\u00e9quentes de lutte contre les plantes nuisibles pour permettre \u00e0 celles-ci et aux v\u00e9g\u00e9taux de culture spontan\u00e9e de cro\u00eetre \u00e0 la fin de la saison, surtout s'il s'agit principalement de v\u00e9g\u00e9taux annuels et qu'un gel peut mettre fin \u00e0 leur croissance avant qu'ils produisent des graines viables.</p>\n<h2>Planification et adaptation \u00e0 long terme</h2>\n<div class=\"pull-right mrgn-lft-md\">\n<figure class=\"mrgn-bttm-0\">\n<img src=\"https://www.agr.gc.ca/resources/prod/img/pfra-arap/img/shelterbelt.jpg\" alt=\"La description de cette image suit\">\n<figcaption>\n<p class=\"mrgn-tp-sm\"><i>Brise-vent de champs</i></p>\n</figcaption>\n</figure>\n</div>\n<p>En ce qui concerne les syst\u00e8mes de culture annuels, il existe deux pratiques additionnelles qui n\u00e9cessitent une planification \u00e0 long terme, mais qui produisent des avantages durables relativement au pi\u00e9geage de la neige et \u00e0 la lutte contre l'\u00e9rosion \u00e9olienne. Il s'agit des brisevent de champs et des cultures en bandes orient\u00e9s \u00e0 angle droit par rapport \u00e0 la direction des vents dominants. Ces pratiques sont devenues plus difficiles \u00e0 mettre en oeuvre pour les grandes exploitations agricoles utilisant de l'\u00e9quipement imposant, car le fractionnement des champs entra\u00eene une baisse d'efficacit\u00e9. Ces options peuvent n\u00e9anmoins constituer des solutions viables pour certaines exploitations.</p>\n<p>Une autre possibilit\u00e9 d'adaptation \u00e0 long terme consiste \u00e0 convertir les cultures annuelles en cultures fourrag\u00e8res vivaces r\u00e9sistantes aux s\u00e9cheresses. Cette pratique a \u00e9t\u00e9 largement recommand\u00e9e pour les terres et les paysages marginaux. On peut \u00e9galement la voir comme une strat\u00e9gie contre la s\u00e9cheresse, \u00e9tant donn\u00e9 la capacit\u00e9 qu'ont les esp\u00e8ces fourrag\u00e8res r\u00e9sistantes de survivre, de persister et de fournir une bien meilleure couverture v\u00e9g\u00e9tale aux fins de protection contre l'\u00e9rosion que les cultures annuelles durant les p\u00e9riodes de s\u00e9cheresse grave. Cette adaptation n\u00e9cessite souvent de modifier le syst\u00e8me d'exploitation en faisant intervenir une production de b\u00e9tail accrue, notamment de veaux de boucherie. Dans le cadre de ce syst\u00e8me, il importe de pr\u00e9voir des r\u00e9serves interannuelles de stocks fourragers ou des p\u00e2turages suffisants, \u00e9tant donn\u00e9 que les s\u00e9cheresses ont des r\u00e9percussions importantes sur le rendement des cultures fourrag\u00e8res \u00e9galement.</p>\n<p>La d\u00e9cision de convertir une culture annuelle en une culture fourrag\u00e8re vivace peut \u00eatre induite par une s\u00e9cheresse croissante, mais il convient de retarder le moment de cette conversion jusqu'\u00e0 ce qu'il y ait am\u00e9lioration des conditions d'humidit\u00e9. Les graines fourrag\u00e8res, tr\u00e8s petites, n\u00e9cessitent un ensemencement peu profond ainsi que des pluies fr\u00e9quentes durant plusieurs semaines pour conna\u00eetre une bonne germination et un d\u00e9but d'\u00e9tablissement. Il faut donc \u00eatre fermement r\u00e9solu et poss\u00e9der une vision \u00e0 long terme pour proc\u00e9der \u00e0 l'ensemencement de fourrages durant un cycle de p\u00e9riodes pluvieuses, car il est tr\u00e8s tentant dans de telles conditions de vouloir profiter rapidement d'une culture annuelle promise \u00e0 une bonne croissance.</p>\n\r\n    "
    }
}