{
    "dcr_id": "1257284835455",
    "title": {
        "en": "Catalogue of Type Specimens in the Vascular Plant Herbarium (DAO) - (&#160;G&#160;)",
        "fr": "Catalogue des sp\u00e9cimens types de l'Herbier de plantes vasculaires (DAO) - (&#160;G&#160;)"
    },
    "modified": "2018-05-11",
    "issued": "2009-11-06",
    "templatetype": "content page 1 column",
    "page_type": "0",
    "node_id": "1366750879243",
    "dc_date_created": "2009-11-06",
    "managing_branch": "PAB",
    "parent_node_id": "",
    "short_title": "",
    "exturl": "",
    "teamsite_location": {
        "en": "/default/main/AAFC-AAC/Internet-Internet/Group-Ensemble/sci_Ottawa/WORKAREA/sci_Ottawa/templatedata/comm-comm/gene-gene/data/11/sci_ecorc_dao_g_1257284835455_en",
        "fr": "/default/main/AAFC-AAC/Internet-Internet/Group-Ensemble/sci_Ottawa/WORKAREA/sci_Ottawa/templatedata/comm-comm/gene-gene/data/11/sci_ecorc_dao_g_1257284835455_fr"
    },
    "type_name": "comm-comm/gene-gene",
    "has_dcr_id": true,
    "label": {
        "en": "Catalogue of Type Specimens in the Vascular Plant Herbarium (DAO) - (&#160;G&#160;)",
        "fr": "Catalogue des sp\u00e9cimens types de l'Herbier de plantes vasculaires (DAO) - (&#160;G&#160;)"
    },
    "breadcrumb": {
        "en": "Catalogue of Type Specimens in the Vascular Plant Herbarium (DAO) - (&#160;G&#160;)",
        "fr": "Catalogue des sp\u00e9cimens types de l'Herbier de plantes vasculaires (DAO) - (&#160;G&#160;)"
    },
    "layout_name": "content page 1 column",
    "lang": "en",
    "refaire": false,
    "meta": {
        "viewport": {
            "en": "width=device-width,initial-scale=1",
            "fr": "width=device-width, initial-scale=1"
        },
        "issued": {
            "en": "2009-11-06",
            "fr": "2009-11-06"
        },
        "modified": {
            "en": "2018-05-11",
            "fr": "2018-05-11"
        },
        "format": {
            "en": "text/html",
            "fr": "text/html"
        },
        "title": {
            "en": "Catalogue of Type Specimens in the Vascular Plant Herbarium (DAO) - (&#160;G&#160;)",
            "fr": "Catalogue des sp\u00e9cimens types de l'Herbier de plantes vasculaires (DAO) - (&#160;G&#160;)"
        },
        "subject": {
            "en": "plant production;plant physiology;plant ecology;plant cultivation and harvesting;plant breeding;plant biochemistry;herbs",
            "fr": "\u00e9cologie v\u00e9g\u00e9tale;production v\u00e9g\u00e9tale;plantes-g\u00e9n\u00e9tique;plantes-culture et r\u00e9colte;physiologie v\u00e9g\u00e9tale;herbes;biochimie v\u00e9g\u00e9tale"
        },
        "dcterms:subject": {
            "en": "agricultural economics;scientific research",
            "fr": "recherche scientifique;\u00e9conomie agricole"
        },
        "description": {
            "en": null,
            "fr": null
        },
        "language": {
            "en": "eng",
            "fr": "fra"
        },
        "keywords": {
            "en": null,
            "fr": null
        },
        "audience": {
            "en": "students;scientists;educators",
            "fr": "\u00e9tudiants;scientifiques;\u00e9ducateurs"
        },
        "type": {
            "en": "fact sheet",
            "fr": "liste de r\u00e9f\u00e9rence"
        },
        "creator": {
            "en": "Eastern Cereal and Oilseed Research Centre;Agriculture and Agri-Food Canada;Government of Canada",
            "fr": "Centre de recherches de l'Est sur les c\u00e9r\u00e9ales et les ol\u00e9agineux;Agriculture et Agroalimentaire Canada;Gouvernement du Canada"
        },
        "spatial": {
            "en": "gcregions",
            "fr": "gcregions"
        },
        "service": {
            "en": "AAFC-AAC",
            "fr": "AAFC-AAC"
        },
        "accessRights": {
            "en": "2",
            "fr": "2"
        },
        "legalName": {
            "en": "agriculture_and_agri_food_canada",
            "fr": "agriculture_et_agroalimentaire_canada"
        },
        "areaServed": {
            "en": "Canada",
            "fr": "Canada"
        }
    },
    "h1": {
        "en": "Catalogue of Type Specimens in the Vascular Plant Herbarium (DAO) - (\u00a0G\u00a0)",
        "fr": "Catalogue des sp\u00e9cimens types de l'Herbier de plantes vasculaires (DAO) - (\u00a0G\u00a0)"
    },
    "js": {
        "en": "",
        "fr": ""
    },
    "body": {
        "en": "\r\n    <div class=\"mrgn-bttm-lg mrgn-tp-lg brdr-bttm\"></div>\n<nav>\n<h2 class=\"hidden\">Alphabetical Navigation</h2>\n<ul class=\"btn-toolbar list-inline\" role=\"toolbar\">\n<li style=\"padding-left:3px;padding-right:3px;\"><a class=\"btn btn-primary btn-xs\" href=\"/eng/?id=1257268535283\">A</a></li> \n<li style=\"padding-left:3px;padding-right:3px;\"><a class=\"btn btn-primary btn-xs\" href=\"/eng/?id=1257275495783\">B</a></li> \n<li style=\"padding-left:3px;padding-right:3px;\"><a class=\"btn btn-primary btn-xs\" href=\"/eng/?id=1257276509689\">C</a></li> \n<li style=\"padding-left:3px;padding-right:3px;\"><a class=\"btn btn-primary btn-xs\" href=\"/eng/?id=1257278175205\">D</a></li> \n<li style=\"padding-left:3px;padding-right:3px;\"><a class=\"btn btn-primary btn-xs\" href=\"/eng/?id=1257278660564\">E</a></li> \n<li style=\"padding-left:3px;padding-right:3px;\"><a class=\"btn btn-primary btn-xs\" href=\"/eng/?id=1257284373455\">F</a></li> \n<li style=\"padding-left:3px;padding-right:3px;\"><a class=\"btn btn-xs disabled\">G</a></li> \n<li style=\"padding-left:3px;padding-right:3px;\"><a class=\"btn btn-primary btn-xs\" href=\"/eng/?id=1257285188017\">H</a></li> \n<li style=\"padding-left:3px;padding-right:3px;\"><a class=\"btn btn-primary btn-xs\" href=\"/eng/?id=1257355626160\">I</a></li> \n<li style=\"padding-left:3px;padding-right:3px;\"><a class=\"btn btn-primary btn-xs\" href=\"/eng/?id=1257344087331\">J</a></li> \n<li style=\"padding-left:3px;padding-right:3px;\"><a class=\"btn btn-primary btn-xs\" href=\"/eng/?id=1257345100081\">K-L</a></li> \n<li style=\"padding-left:3px;padding-right:3px;\"><a class=\"btn btn-primary btn-xs\" href=\"/eng/?id=1257345508050\">M</a></li> \n<li style=\"padding-left:3px;padding-right:3px;\"><a class=\"btn btn-primary btn-xs\" href=\"/eng/?id=1257345930097\">N</a></li> \n<li style=\"padding-left:3px;padding-right:3px;\"><a class=\"btn btn-primary btn-xs\" href=\"/eng/?id=1257347364972\">O</a></li> \n<li style=\"padding-left:3px;padding-right:3px;\"><a class=\"btn btn-primary btn-xs\" href=\"/eng/?id=1257347892550\">P</a></li> \n<li style=\"padding-left:3px;padding-right:3px;\"><a class=\"btn btn-primary btn-xs\" href=\"/eng/?id=1257352514003\">Q-R</a></li> \n<li style=\"padding-left:3px;padding-right:3px;\"><a class=\"btn btn-primary btn-xs\" href=\"/eng/?id=1257353855753\">S</a></li> \n<li style=\"padding-left:3px;padding-right:3px;\"><a class=\"btn btn-primary btn-xs\" href=\"/eng/?id=1257354296722\">T</a></li> \n<li style=\"padding-left:3px;padding-right:3px;\"><a class=\"btn btn-primary btn-xs\" href=\"/eng/?id=1257354660472\">U-V</a></li> \n<li style=\"padding-left:3px;padding-right:3px;\"><a class=\"btn btn-primary btn-xs\" href=\"/eng/?id=1257355220410\">W-Z</a></li>\n</ul>\n</nav>\n<div class=\"mrgn-bttm-lg mrgn-tp-lg brdr-bttm\"></div>\n<p><span lang=\"la\"><em>Gagea pomeranica</em></span> R. Ruthe, Verhandl. d. bot. V. d. Prov. Brandenburg 1892: 15-18. 1893<br><span>Germany</span>: Pomerania, Gumlin und Neverow bei Swinem\u00fcnde, <em>R. Ruthe</em>, Apr. 1893 and 94, <span>Topotype</span></p>\n<p><span lang=\"la\"><em>Gagea spathacea</em></span> Salisb. var. <span lang=\"la\"><em>transcarpatica</em></span> Domin, Fl. Cechoslovenica ex. 221<br><span>Czechoslovakia</span>: Rossia Subcarpatica, ad Fornos, <em>A. Margittai</em>, 3 May 1931, <span>Isotype</span></p>\n<p lang=\"fr\"><span lang=\"la\"><em>Gagea stenopetala</em></span> (Fr.) Reich. var. <span lang=\"la\"><em>arvensis</em></span> F. Schultz, Herb. normale. cent. 6: 566<br><span>France</span>: Bas-Rhin, Wissembourg, <em>F. Schultz</em>, 15 avril 1858, <span>Isotype</span></p>\n<p><span lang=\"la\"><em>Gaillardia aristata</em></span> Pursh f. <span lang=\"la\"><em>monochroma</em></span> Boivin, Nat. can. 87: 33. 1960<br><span>Canada</span>: Saskatchewan, Waldheim, <em>R.C. Russell S5121A</em>, 1951, <span>Holotype</span></p>\n<p><span lang=\"la\"><em>Galactia fasciculata</em></span> A.M. Vail, Bull. Torrey Bot. Cl. 22; 505. 1895<br><abbr title=\"United States of America\">U.S.A.</abbr>: Florida, Hillsborough Co., Tampa, <em>G.V. Nash 2480</em>, 24 Aug. 1895, <span>Isotype</span></p>\n<p><span lang=\"la\"><em>Galactia floridana</em></span> T. &amp; G., Fl. N. Am. 1: 288. 1840<br>U.S.A.: Florida, Hillsborough Co., Tampa, <em>G.V. Nash 2474</em>, 24 Aug. 1895, <span>Topotype</span></p>\n<p><span lang=\"la\"><em>Galega patula</em></span> Steven, Bull. Soc. Imp. des Nat. Mosc. 29: 140-141. 1856<br>U.S.S.R.: Tauria, Tofschanbazar, <em>A. Callier</em> (D\u00f6rfler Herb. Norm. 4235) July 1900, <span>Topotype</span></p>\n<p><span lang=\"la\"><em>Galeopsis reuteri</em></span> Rchb. fil., Ic. fl. Germ. 17. 1858<br>ITALY: Alpes Maritimae, Tenda, <em>Bicknell &amp; Pollini</em> (Fl. Ital. Ex. 2344), 20 Aug. 1914, <span>Topotype</span></p>\n<p><span lang=\"la\"><em>Galium angustifolium</em></span> Nutt. ssp. <span lang=\"la\"><em>nudicaule</em></span> Dempster &amp; Stebbins, Madrono 21: 94. 1971<br>U.S.A.: California, Los Angeles Co., Cloudburst Summit, Chilao Recreation Area, <em>Dempster &amp; Stebbins 4236</em>, 16 June 1966, <span>Isotype</span></p>\n<p><span lang=\"la\"><em>Galium asperrimum</em></span> Gray, Mem. Acad. Art. &amp; Sc. N.S. 4: 60-61. 1849<br>U.S.A.: New Mexico, Santa Fe Canyon, 9 miles east of Santa Fe,<em> A.A. &amp; E.G. Heller 3802</em>, 2 July 1897, <span>Topotype</span></p>\n<p><span lang=\"la\"><em>Galium catalinense</em></span> Gray, Syn. Fl. N. Am. ed. 2, 1 pt. 2, suppl.: 445. 1886<br>U.S.A.: California, Los Angeles Co., Santa Catalina Island,<em> F.R. Fosberg S4418</em>, 27 Mar. 1931, <span>Topotype</span></p>\n<p><span lang=\"la\"><em>Galium coronatum</em></span> Sibth. &amp; Sm. ssp. <span lang=\"la\"><em>persicum</em></span> (DC.) Ehrendorfer var. <em>pilosum</em> Ehrendorfer, Publication unknown<br><span>Iran</span>: Montes Elburs centr., <em>K.H. &amp; F. Rechinger 287</em>, 21 May 1937, <span>Isotype</span></p>\n<p><span lang=\"la\"><em>Galium crespianum</em></span> Rodriguez, Anales Soc. Esp. Hist. Nat. 7: 55. 1879<br><span>Europe</span>: Insula Mallorca, <em>Bianor</em> (D\u00f6rfler Herb. Norm. 5466), July 1912, <span>Topotype</span></p>\n<p><span lang=\"la\"><em>Galium ellipticum</em></span> Willd., Enum. hort. Berol., Suppl. p. 8. 1813<br>CORSICA: prope, Bastia, <em>M.F. Spencer</em>, (D\u00f6rfler, Herb. Norm. 5463), May 1914, <span>Topotype</span></p>\n<p><span lang=\"la\"><em>Galium fendleri</em></span> Gray, Pl. Fendl. 60<br>U.S.A.: New Mexico, Santa Fe Co., 9 miles east of Santa Fe,<em> A.A. &amp; E.G. Heller 3817</em>, 7 July 1897, <span>Topotype</span></p>\n<p><span lang=\"la\"><em>Galium gilanicum</em></span> Stapf., Denkschr. Acad. Wien 1: 53. 1885<br><span>Iran</span>: Guilan Province, Lahijan, <em>N. Lindsay 951</em>, May-July 1936, <span>Topotype</span></p>\n<p><span lang=\"la\"><em>Galium glabrescens</em></span> (Ehrend.) Demp. &amp; Ehrend. ssp. <em>harticum</em> Demp. &amp; Ehrend., Brittonia 17: 333. 1965<br>U.S.A.: Oregon, Lake Co., Hart Mountain, <em>Dempster &amp; Hardham 1727</em>, 22 June 1961, <span>Paratype</span></p>\n<p><span lang=\"la\"><em>Galium glabrescens</em></span> (Ehrand.) Demp. &amp; Ehrand. ssp. <span lang=\"la\"><em>modocense</em></span> Demp. &amp; Ehrand., Brittonia 17: 333. 1965<br>U.S.A.: California, Modoc Co., Cedar Pass on road to Cedarville,<em> Dempster &amp; Hardham 1694</em>, 18 June 1961, <span>Paratype</span></p>\n<p><span lang=\"la\"><em>Galium grayanum</em></span> Ehrend., Contrib. Dudley Herb. 5: 15. 1956<br>U.S.A.: California, Butte-Plumas Co., summit above Jonesville,<em> F. Ehrendorfer 5937</em>, 22 July 1959, <span>Topotype</span></p>\n<p><span lang=\"la\"><em>Galium grayanum</em></span> Ehrend. ssp. <span lang=\"la\"><em>glabrescens</em></span> Ehrend., Contrib. Dudley Herb. 5: 15. 1956<br>U.S.A.: California, Siskiyou Co., [1/2] mile SSE of Castle Lake,<em> Ehrendorfer et al. 5963</em>, 26 Sept. 1959, <span>Topotype</span></p>\n<p><span lang=\"la\"><em>Galium hardhamae</em></span> Demp., Madrono 16: 167-168. 1962<br>U.S.A.: California, San Luis Obispo Co., headwaters of Chris Flood Creek, <em>C.B. Hardham 6145</em>, 17 June 1960, <span>Paratype</span></p>\n<p><span lang=\"la\"><em>Galium hypotrichium</em></span> Gray ssp. <span lang=\"la\"><em>ebbettsense</em></span> Demp. &amp; Ehrend., Brittonia 17: 318. 1965<br>U.S.A.: California, Alpine Co., Sierra Nevada, ca. 0.5 mile southeast of Ebbetts Pass, <em>F. Ehrendorfer 5920</em>, 5 July 1959, <span>Isotype</span></p>\n<p><span lang=\"la\"><em>Galium martirense</em></span> Demp. &amp; Steb., Madrono 18: 110-113. 1965<br><span>Mexico</span>: Baja California, Oaks Pasture, 15 miles by crooked road northeast of Meling Ranch, <em>Dempster &amp; Cory 3987</em>, 3 June 1964, <span>Isotype</span></p>\n<p><span lang=\"la\"><em>Galium nuttallii</em></span> Gray var. <span lang=\"la\"><em>ovalifolium</em></span> Demp., Brittonia 10: 183. 1958<br>U.S.A.: California, Humboldt Co., Blue Slide on Van Dugen River,<em> J.P. Tracy 6816</em>, 10 Aug. 1924, <span>Isotype</span></p>\n<p><span lang=\"la\"><em>Galium pumilum</em></span> Murr. ssp. <span lang=\"la\"><em>islandicum</em></span> Stern, Publication unknown<br><span>Iceland</span>: Westmann Is., S Heimaey, <em>H.G. Vevers</em>, 29 June 1939, <span>Topotype</span></p>\n<p><span lang=\"la\"><em>Galium pumilum</em></span> Murr. ssp. <span lang=\"la\"><em>oelandicum</em></span> Sterner &amp; Hyl., Publication unknown<br><span>Sweden</span>: \u00d6land, Paroecia, Kastl\u00f6sa, <em>R. Sterner</em>, 25 June 1928, <span>Topotype</span></p>\n<p><span lang=\"la\"><em>Galium scabriusculum</em></span> (Ehrend.) Demp. &amp; Ehrend. ssp.<em> protoscabriusculum</em> Demp. &amp; Ehrend., Brittonia 17: 312-313. 1965<br>U.S.A.: Utah, Carbon Co., Castle Gate, <em>Ehrendorfer &amp; Stutz 5954</em>, 4 Aug. 1959, <span>Isotype</span></p>\n<p><span lang=\"la\"><em>Galium serpenticum</em></span> Demp., Brittonia 11: 120. 1959<br>U.S.A.: Oregon, Baker Co., Burnt Creek, <em>Dempster &amp; Hardham 1754</em>, 25 June 1961, <span>Topotype</span></p>\n<p><span lang=\"la\"><em>$$$Galium serpenticum</em></span> Demp. ssp. <span lang=\"la\"><em>scotticum</em></span> Demp. &amp; Ehrend., Brittonia 17: 326. 1965<br>U.S.A.: California, Siskiyou Co., on road southwest of Callahan,<em> Dempster &amp; Hardham 1877</em>, 3 July 1961, <span>Isotype</span></p>\n<p><span lang=\"la\"><em>Galium serpenticum</em></span> Demp. ssp. <span lang=\"la\"><em>warnerense</em></span> Demp. &amp; Ehrend., Brittonia 17: 325. 1965<br>U.S.A.: Oregon, Lake Co., Albert Rim east of Lake Albert,<em> Dempster &amp; Hardham 1758</em>, 27 June 1961, <span>Paratype</span></p>\n<p><span lang=\"la\"><em>Galium serpenticum</em></span> Demp. ssp. <span lang=\"la\"><em>wenatchicum</em></span> Demp. &amp; Ehrend., Brittonia 17: 323. 1965<br>U.S.A.: Washington, Kittitas Co., Wenatchee Mountains, Blewett Pass, <em>Ehrendorfer &amp; Kruckeberg 5961</em>, 16 Sept. 1959, <span>Topotype</span></p>\n<p><span lang=\"la\"><em>Galium wirtgeni</em></span> F. Schultz, Arch. Fl. 201<br><span>Europe</span>: pr. Deidesheim, <em>C.H. Schultz Dip</em>, ? <span>Type - Publication not Available</span></p>\n<p><span lang=\"la\"><em>Gardenia mannii</em></span> St. John &amp; Kuykendall, Brittonia 6: 444-449. 1948<br><span>Hawaiian Islands</span>: Oahu, Waianae Uka, Ditch trail along south fork of Kaukonahua Stream, <em>R. Kuykendall 134</em>, 9 Dec. 1945, <span>Paratype</span></p>\n<p><span lang=\"la\"><em>Gaultheria conzattii</em></span> Camp var. <span lang=\"la\"><em>mijorum</em></span> Camp, Bull. Torrey Bot. Club 66: 17. 1939<br><span>Mexico</span>: Oaxaca, Zempoaltepetl, <em>W.H. Camp 2659</em>, 19-27 Feb. 1937, <span>Isotype</span></p>\n<p><span lang=\"la\"><em>Gaultheria fendleri</em></span> Rusby, Descr. S. Am. Pl. 74. 1920<br><span>Columbia</span>: Top of San Lorenzo Ridge, <em>H.H. Smith 1719</em>, 1898-1899, <span>Isotype</span></p>\n<p><span lang=\"la\"><em>Gaura calcicola</em></span> Raven &amp; Gregory<br>U.S.A.: Texas, Uvalde County, 16.0 miles north of Uvalde, <em>Mosquin &amp; Mosquin 5620</em>, 19 May 1964, <span>Paratype</span>; McCulloch County, 4.5 miles southeast of Brady on road to Voca and Fredonia, <em>Munz &amp; Gregory 23430</em>, 24 May 1958, <span>Paratype</span></p>\n<p><span lang=\"la\"><em>Gaura calcicola</em></span> Raven &amp; Gregory, Mem. Torrey Bot. Club 23(1): 40- 42. 1972<br>U.S.A.: Texas, Jeff Davis Co., 3 mi. N of Ft. Davis, <em>Munz &amp; Gregory 23383</em>, 20 May 1958, <span>Paratype</span></p>\n<p><span lang=\"la\"><em>Gaylussacia dumosa</em></span> Torr. &amp; Gray var. <span lang=\"la\"><em>bigeloviana</em></span> Fern., Rhod. 13: 99. 1911<br><span>Canada</span>: Newfoundland, Whitbourne, <strong>Robinson &amp; Schrenk 201</strong>, 16 Aug. 1894, <span>Paratype</span></p>\n<p><span lang=\"la\"><em>Gayophytum diffusum</em></span> Torrey &amp; Gray ssp. <span lang=\"la\"><em>parviflorum</em></span> Lewis &amp; Szweykowski<br><span>Canada</span>: British <span>Columbia</span>, 29 miles southwest of Chilako Forks on road to Anahim Lake, <em>Calder et al. 18334</em>, 4 July 1956, <span>Paratype</span></p>\n<p><span lang=\"la\"><em>Gayophytum diffusum</em></span> T. &amp; G. ssp. <span lang=\"la\"><em>parviflorum</em></span> Lewis &amp; Szweykowski, Brittonia 16: 387. 1964<br><span>Canada</span>: British <span>Columbia</span>, Three miles SW of Marysville, <em>Taylor &amp; Ferguson 2624</em>, 10 July 1958, <span>Paratype</span></p>\n<p><span lang=\"la\"><em>Gelonium aequorium</em></span> Hce. var. <span lang=\"la\"><em>hainanense</em></span> Hemsl., Publication unknown<br><span>China</span>: Hainan, <em>H.Y. Liang 65218</em>, 24 Feb. 1934, ? <span>Type Collection Material</span></p>\n<p><span lang=\"la\"><em>Genista corsica</em></span> DC., Flore Fran\u00e7aise Suppl. 548. 1815<br><span>France</span>: Corsica, Bastia, <em>M.F. Spencer</em>, 20 Feb. 1913, <span>Topotype</span></p>\n<p><span lang=\"la\"><em>Genista ovata</em></span> Waldst. &amp; Kit., Descr. et ic. pl. rar. Hung. 1: 86. 1802<br><span>Romania</span>: Banatus, <em>Borza et al.</em> (Fl. Rom. Ex. 2871), 22 July 1941, <span>Topotype</span></p>\n<p><span lang=\"la\"><em>Genista saharae</em></span> Coss. &amp; Dur., Bull. Soc. Bot. Fr. 2: 247. 1855<br><span>Algeria</span>: pr\u00e8s de Mra\u00efer, entre Biskra &amp; Touggourt, <em>P. Simonneau</em> (Exsicc. B. de Retz II 4343), 2 mars 1960, <span>Topotype</span></p>\n<p><span lang=\"la\"><em>Gentiana affinis</em></span> Griseb. var. <span lang=\"la\"><em>major</em></span> Nels. &amp; Macbr., Bot. Gaz. 55: 376-377. 1913<br>U.S.A.: Nevada, Elko Co., Mountain City, <em>Nelson &amp; Macbride 2178</em>, 9 Aug. 1912, <span>Isotype</span></p>\n<p><span lang=\"la\"><em>Gentiana austriaca</em></span> A. &amp; I. Kerner, Fl. Ex. Aust.-Hung. no. 648. 1882 [in sched.]<br><span>Austria</span>: prope Perchtoldsdorf, <em>Woloszczak</em>, <span>Isotype</span></p>\n<p><span lang=\"la\"><em>Gentiana austromontana</em></span> Pringle &amp; Sharp, Rhod. 66: 402. 1964<br>U.S.A.: North Carolina, Roan Mtn., <em>Pringle et al. 29372</em>, 12 Sept. 1961, <span>Isotype</span></p>\n<p><span lang=\"la\"><em>Gentiana campestris</em></span> L. var. <span lang=\"la\"><em>pusilla</em></span> O. Kuntze, Publication unknown<br><span>Europe</span>: Germany, <em>C. Reimann</em>, Sept. 1864, ? <span>Type Collection Material</span></p>\n<p><span lang=\"la\"><em>Gentiana douglasiana</em></span> Bong. f. <span lang=\"la\"><em>maculata</em></span> Boivin, Nat. can. 94: 634. 1967<br>U.S.A.: Alaska, Kenai Peninsula, 7 mi. WSW of Portage,<em> J.A. Calder 5969</em>, 16 July 1951, <span>Holotype</span></p>\n<p><span lang=\"la\"><em>Gentiana elegans</em></span> Nelson, Bull. Torrey Bot. Cl. 25: 276. 1898<br>U.S.A.: Wyoming, Albany Co., Medicine Bow Mts., <em>A. &amp; R.A. Nelson 968</em>, 22 Aug. 1933, <span>Topotype</span></p>\n<p><span lang=\"la\"><em>Gentiana formosana</em></span> Hayata Journ. Col. Sci. Tokyo 22: 242. 1906<br><span>Taiwan</span>: Mt. Morrison, <em>T.S. Liu</em>, 23 Aug. 1949, <span>Topotype</span></p>\n<p><span lang=\"la\"><em>Gentiana gaspensis</em></span> Victorin, Conrib. Lab. Bot. Univ. Montreal 20: 10. 1932<br><span>Canada</span>: Quebec, Bonaventure Co., Bonaventure, mouth of Bonaventure River, <em>Marie-Victorin et al. 4008</em>, 24 Aug. 1940, <span>Topotype</span></p>\n<p><span lang=\"la\"><em>Gentiana norica</em></span> A. &amp; J. Kerner in Kern. Sched. Fl. Austro.-Hung. 6: 56. 1893<br><span>Hungary</span>: Stiria superior, in pratis humidis ad lacum Grundlsee,<em> A. Kerner</em> (Fl. Ex. Aust.-Hung. 2190), <span>Isotype</span></p>\n<p><span lang=\"la\"><em>Gentiana pilosa</em></span> Wettstein, \u00d6sterr. botan. Zeitschr. 42: 42-43. 1892<br><span>Austria</span>: Carthinia, a \"Raibl\" versus jugum \"Predil\" <em>M. v. Statzer</em>, Oct. 1894 (D\u00f6rfler Herb. Norm. 3749), <span>Topotype</span></p>\n<p><span lang=\"la\"><em>Gentiana praecox</em></span> Kerner f. <span lang=\"la\"><em>serotina</em></span> Krist, Gent. esl. Sb. Pr. Kl. Brno. 1934<br><span>Europe</span>: Slovakia Centr., ad ostium rivuli Kamenisty in fl. Bela,<em> L. Filipi</em> (Fl. ex Reip. Bohemicae Slovenicae 877), 31 July 1933, ? <span>Isotype</span></p>\n<p><span lang=\"la\"><em>Gentiana rusbyi</em></span> E.L. Greene ex Kusnez., Etud. Monog. Sous-genie Eugentiana 54. 1894<br>U.S.A.: New Mexico, Mogollen Mts., <em>H.H. Rusby 263</em>, Sept. 1881, <span>Isotype</span></p>\n<p><span lang=\"la\"><em>Gentiana rhaetica</em></span> A. &amp; J. Kerner, Fl. Ex. Aust.-Hung. no 649. 1882 [in sched.]<br><span>Austria</span>: Tirolia centralis, in valle Gschnitz, <em>A. Kerner</em>, <span>Isotype</span></p>\n<p><span lang=\"la\"><em>Gentiana sturmiana</em></span> A. &amp; J. Kerner, Fl. Ex. Aust.-Hung. no 647. 1882 [in sched.]<br><span>Austria</span>: prope urbem Mautern ad Danubium, <em>J. Kerner</em>, <span>Isotype</span></p>\n<p><span lang=\"la\"><em>Gentiana tenella</em></span> Rottb. var. <span lang=\"la\"><em>occidentalis</em></span> Rousseau &amp; Raymond, Nat. can. 79: 77. 1952<br><span>Canada</span>: Quebec, Poste de Puvungnituk, <em>J. Rousseau 200</em>, 16 juillet 1948, <span>Isotype</span></p>\n<p><span lang=\"la\"><em>Gentiana triflora</em></span> Pallas var. <span lang=\"la\"><em>japonica</em></span> Hara f. <em>montana</em> Toyokuni &amp; Tanaka, Publication unknown<br><span>Japan</span>: Prov. Ishikari, Mt. Yupari, <em>H. Toyokuni</em>, 4 Aug. 1960, <span>Topotype</span></p>\n<p><span lang=\"la\"><em>Gentiana victorinii</em></span> Fern., Rhod. 25: 87-88. 1923<br><span>Canada</span>: Quebec, Quebec Co., Cap rouge, St. Lawrence River,<em> Gillett &amp; van Rens 9700</em>, 23 Aug. 1955, <span>Topotype</span></p>\n<p><span lang=\"la\"><em>Gentiana yuparensis</em></span> Takeda, Notes Bot. Gard. Edin. 8: 234. 1915<br><span>Japan</span>: Ishikari Province, Hokkaido, on Mt. Yupari, <em>H. Toyokuni</em>, 19 Aug. 1957, <span>Topotype</span></p>\n<p><span lang=\"la\"><em>Gentianella detonsa</em></span> G. Don. ssp. <span lang=\"la\"><em>yukonensis</em></span> Gillett, Ann. Mo. Bot. Gard. 44: 215. 1957<br>U.S.A.: Alaska, Richardson Highway, 4 miles south of Delta Junction, <em>Cody &amp; Webster 5587</em>, 28 June 1951, <span>Holotype</span></p>\n<p><span lang=\"la\"><em>Gentianella propinqua</em></span> (Richards.) Gillett f. <span lang=\"la\"><em>acyanea</em></span> Gillett, Ann. Mo. Bot. Gard. 44: 240. 1957<br><span>Canada</span>: British <span>Columbia</span>, 9 mi. NE of Skeena Crossing, <em>Calder et al. 15201A</em>, 30 Aug. 1954, <span>Holotype</span></p>\n<p><span lang=\"la\"><em>Gentianella yuparensis</em></span> Satake f. <span lang=\"la\"><em>gigantea</em></span> Toyokuni, Publication unknown<br><span>Japan</span>: prov. Ishikari, Hokkaido, Mt. Yupari, <em>H. Toyokuni</em>, 31 Aug. 1958, <span>Topotype</span></p>\n<p><span lang=\"la\"><em>Gentrya racemosa</em></span> Breedlove &amp; Heckard, Brittonia 22: 21-22. 1970<br><span>Mexico</span>: Sinaloa, Sierra Surutato, 3 miles N of Los Ornosalong road to Ocurahui, <em>D.E. Breedlove 19200</em>, 7 Mar. 1971, <span>Topotype</span></p>\n<p><span lang=\"la\"><em>Geranium atropurpureum</em></span> Heller, Bull. Torrey Bot. Cl. 25: 195-196. 1898<br>U.S.A.: New Mexico, Santa Fe Creek, <em>A.A. &amp; E.G. Heller 3723</em>, 17 June 1897, <span>Isotype</span></p>\n<p><span lang=\"la\"><em>Geranium carolinianum</em></span> L.f. <span lang=\"la\"><em>albiflorum</em></span> Boivin, Nat. can. 93: 1060. 1966<br><span>Canada</span>: Ontario, Hastings Co., Point Anne, E of Belleville,<em> W.G. Dore 20292</em>, 15 June 1963, <span>Holotype</span></p>\n<p><span lang=\"la\"><em>Geranium monanthum</em></span> Small, Fl. N. Amer. 25: 21. 1907<br><span>Mexico</span>: Oaxaca, Zempoatepec, <em>W.H. Camp 2624</em>, 19-27 Feb. 1937, <span>Topotype</span></p>\n<p><span lang=\"la\"><em>Geranium pratense</em></span> L. var. <span lang=\"la\"><em>erianthum</em></span> (DC.) Boivin f. <em>leucanthum</em> Boivin, Phytologia 23(1): 136. 1972<br>U.S.A.: Alaska, Cold Bay, <em>W.B. Schofield 2489</em>, 28 July 1952, <span>Holotype</span></p>\n<p><span lang=\"la\"><em>Geranium purpureum</em></span> Vill. var. <span lang=\"la\"><em>forsteri</em></span> Wilmott, Journ. Bot. 59: 95. 1921<br><span>England</span>: between Bognor and Littlehampton, <em>A.J. Wilmott 919</em>, 23 June 1919, <span>Isotype</span></p>\n<p><span lang=\"la\"><em>Geranium sphaerospermum</em></span> Fernald, Rhod. 37: 298. 1935<br>U.S.A.: South Dakota, Deadwood, <em>W.P. Carr 67</em>, 19 July 1913, <span>Paratype</span></p>\n<p><span lang=\"la\"><em>Geranium toquimensis</em></span> Holmgren &amp; Holmgren<br>U.S.A.: Nevada, Nye County, Toquima Range, Pine Creek, Middle Fork, <em>A.H. Holmgren 7077</em>, 4 Aug. 1947, <span>Paratype</span>; head of Middle Fork, <em>Holmgren &amp; Reveal 1523</em>, 4 Aug. 1964, <span>Paratype</span></p>\n<p><span lang=\"la\"><em>Geranium toquimense</em></span> Holmgren &amp; Holmgren, Brittonia 26(3): 311- 313. 1974<br>U.S.A.: Nevada, Nye Co., Toquima Range, head of the north brand of South Fork Pine Creek, <em>Holmgren &amp; Reveal 1518</em>, 3 Aug. 1964, <span>Isotype</span></p>\n<p><span lang=\"la\"><em>Gesneria onacaensis</em></span> Rusby, Descriptions of Three Hundred New Species of South American Plants, 123-124. 1920<br><span>Columbia</span>: Santa Marta, <em>H.H. Smith 1386</em> (1898-1901), ? <span>Isotype</span></p>\n<p lang=\"fr\"><span lang=\"la\"><em>Geum \u00d7catlingii</em></span> Bernard &amp; Gauthier, Nat. can. 113: 321. 1986<br><span>Canada</span>: Quebec, Sillery, <em>J.-P. Bernard B82-68</em>, 20 juillet 1982, <span>Isotype</span></p>\n<p><span lang=\"la\"><em>Geum kerneri</em></span> Blocki ex Bolle in Fedde Repert, Beih. 72: 77. 1933<br><span>Poland</span>: Galizien, <em>Blocki</em>, 1910, <span>Type Collection Material</span></p>\n<p lang=\"fr\"><span lang=\"la\"><em>Geum \u00d7macneillii</em></span> Bernard &amp; Gauthier, Nat. can. 113: 321. 1986<br><span>Canada</span>: Quebec, Sillery, <em>J.-P. Bernard B82-73C</em>, 21 juillet 1982, <span>Isotype</span></p>\n<p><span lang=\"la\"><em>Geum perincisum</em></span> Rydb. var. <span lang=\"la\"><em>intermedium</em></span> Boivin, Phytologia 15: 355. 1967<br><span>Canada</span>: Saskatchewan, Cypress Hills, <em>A.J. Breitung 4249</em>, 2 July 1947, <span>Holotype</span></p>\n<p><span lang=\"la\"><em>Geum \u00d7pervale</em></span> Boivin, Phytologia 15: 355. 1967<br><span>Canada</span>: Saskatchewan Cypress Hills, <em>A.J. Breitung 5507</em>, 9 July 1947, <span>Holotype</span></p>\n<p><span lang=\"la\"><em>Geum pyrenaicum</em></span> Willd., Sp. Pl. 2: 1115. 1800<br><span>Switzerland</span>: Hautes-Pyr\u00e9n\u00e9es, paturages de Gavarnie, <em>H. Bord\u00e8re</em>, 2 June 1889, <span>Topotype</span></p>\n<p><span lang=\"la\"><em>Geum schofieldii</em></span> Calder &amp; Taylor<br><span>Canada</span>: British <span>Columbia</span>, Graham Island, Masset Inlet, head of McClinton Bay, <em>Calder et al. 21574</em>, 18 June 1957, <span>Paratype</span>; Mt. de la Touche, Fairfax Inlet, Tasu Sound, west coast of Moresby Island, <em>Calder &amp; Taylor 23519</em>, 16-17 Aug. 1957, <span>Paratype</span></p>\n<p><span lang=\"la\"><em>Geum schofieldii</em></span> Calder &amp; Savile, Can. J. Bot. 43: 1394. 1965<br><span>Canada</span>: British <span>Columbia</span>, Queen Charlotte Islands, Moresby Island, <em>Calder &amp; Taylor 36144</em>, 21 July 1964, <span>Holotype</span></p>\n<p><span lang=\"la\"><em>Geum speciosum</em></span> Alboff, Bull. Herb. Bois. 1: 224. 1893<br>U.S.S.R.: Abchazia, distr. Gudauty, <em>A. Kolakovsky</em> (Fl. ex. URSS 3214), 20 July 1935, <span>Topotype</span></p>\n<p><span lang=\"la\"><em>Gilia capitata</em></span> Sims ssp. <span lang=\"la\"><em>pacifica</em></span> Grant, Aliso 2; 305-306. 1950<br>U.S.A.: California, Humboldt Bay near Buckspot, <em>J.P. Tracy 2188</em>, 11 June 1905, <span>Paratype</span></p>\n<p><span lang=\"la\"><em>Gilia chamissonis</em></span> Greene, Erythea 3: 105. 1895<br>U.S.A.: California, San Francisco, Laurel Hill Cemetery,<em> L.S. Rose 48123</em>, 31 May 1948, <span>Topotype</span></p>\n<p><span lang=\"la\"><em>Gilia malior</em></span> Day &amp; Grant, Aliso 4: 484. 1964<br>U.S.A.: California, San Luis Obispo Co., Carissa Plains 2 miles south of Simmler, <em>B. Hardham 3154</em>, 28 Apr. 1958, <span>Paratype</span></p>\n<p><span lang=\"la\"><em>Gilia nyensis</em></span> Reveal<br>U.S.A.: Nevada, Nye County, south face of Ranier Mesa, <em>Reveal &amp; Holmgren 1775</em>, 14 Aug. 1968, <span>Paratype</span></p>\n<p><span lang=\"la\"><em>Gilia nyensis</em></span> Reveal, Bull. Torrey Bot. Club 96: 480-483. 1969<br>U.S.A.: Nevada, Nye Co., Nevada Test Site, 0.5 mi. W of Buckboard Mesa (Tippipah Spring) Road to Cat Canyon, Timber Mountain, <em>Reveal &amp; Beatley 1048</em>, 29 May 1968, <span>Isotype</span></p>\n<p><span lang=\"la\"><em>Gilia splendens</em></span> Douglas ex Paxton ssp. <span lang=\"la\"><em>australis</em></span> Mason &amp; Grant, Madrono 9: 213. 1948<br>U.S.A.: California, Riverside Co., Temecula Valley, <em>H.L. Mason 3195</em>, 2 May 1926, <span>Isotype</span></p>\n<p><span lang=\"la\"><em>Gilia tenuiflora</em></span> Bentham ssp. <span lang=\"la\"><em>interior</em></span> Mason &amp; Grant, Madrono 9: 217. 1948<br>U.S.A.: California, Kern Co., <em>H.L. Mason 8244</em>, 30 Mar. 1935, <span>Topotype</span></p>\n<p><span lang=\"la\"><em>Gilibertia amplifolia</em></span> I.M. Johnston, Contr. Gray Herb. 70: 81. 1924<br><span>Columbia</span>: Santa Marta, <em>H.H. Smith 1778</em> 1898-1901, ? <span>Isotype</span></p>\n<p><span lang=\"la\"><em>Glaux maritima</em></span> L. var. <span lang=\"la\"><em>angustifolia</em></span> Boivin, Bull. Soc. Roy. Bot. Belg. 88: 9. 1955<br>U.S.A.: Wyoming, Hanna, <em>C.L. Porter 3257</em>, 12 July 1943, <span>Holotype</span></p>\n<p><span lang=\"la\"><em>Glaux maritima</em></span> L. ssp. <span lang=\"la\"><em>obtusifolia</em></span> (Fern.) Boivin var.<em> macrophylla</em> Boivin, Bull. Soc. Roy. Bot. Belg. 88: 10. 1945<br>U.S.A.: Alaska, Eagle River near Juneau, <em>J.P. Anderson 6356, 28 June 1940</em>, <span>Holotype</span></p>\n<p><span lang=\"la\"><em>Glaux maritima</em></span> L. var. <span lang=\"la\"><em>rosea</em></span> Freyn, Publication unknown<br><span>Europe</span>: Nertschinsk, in nassen Steppen, <em>J. Freyn</em>, 1889, ? <span>Type Collection Material</span></p>\n<p><span lang=\"la\"><em>Gleichenia Kiushiana</em></span> Makino, Bot. Mag. Tokyo 18: 139. 1904<br><span>Japan</span>: Kyushu, Pref. Nagasaki, <em>Y. Kaneko</em>, <span>Topotype</span>, <span>Type Collection Material</span>?</p>\n<p><span lang=\"la\"><em>Glottidium floridanum</em></span> DC. var. <span lang=\"la\"><em>atro-rubrum</em></span> Nash, Bull. Torrey Bot. Cl. 23: 101. 1896<br>U.S.A.: Florida, Hillsborough Co., Tampa, <em>G.V. Nash 2415</em>, 20 Aug. 1895, <span>Isotype</span></p>\n<p><span lang=\"la\"><em>Glyceria fernaldii</em></span> (Hitchc.) St. John (G.<span lang=\"la\"><em>pallida</em> var. <em>fernaldii</em></span> Hitchc.)<br>U.S.A.: Maine, Piscataquis County, Foxcroft, <em>M.L. Fernald 147</em>, 31 Aug. 1896 - near, <span>Topotype</span></p>\n<p><span lang=\"la\"><em>Glyceria fluitans</em></span> (L.) R.Br. var. <span lang=\"la\"><em>islandica</em></span> L\u00f6ve, Bot. Not. 1951: 237. 1951<br><span>Iceland</span>: Arnessysla, S\u00f6loholt, <em>A. &amp; D. L\u00f6ve A075</em>, 14 Sept. 1949, <span>Isotype</span></p>\n<p><span lang=\"la\"><em>Glyceria \u00d7gatineauensis</em></span> Bowden<br><span>Canada</span>: Quebec, Gatineau Park Road, 3.5 miles north of Eardley, <em>W.M. Bowden 1-58-1</em>, 20 June 1959, <span>Paratype</span> + <span>Hortotype</span>; Gatineau Park Road, 3.5 miles north of Eardley, <em>W.M. Bowden 1-59-2</em>, 20 June 1959, <span>Paratype</span> + <span>Hortotype</span></p>\n<p><span lang=\"la\"><em>Glyceria \u00d7gatineauensis</em></span> Bowden, Can. J. Bot. 38: 126-127. 1960<br><span>Canada</span>: Quebec, 3.3 miles N of Eardley, <em>Bowden &amp; Dore 125-55</em>, 29 June 1955, <span>Holotype</span></p>\n<p><span lang=\"la\"><em>Glyceria otisii</em></span> A.S. Hitchcock, Amer. J. Bot. 21: 128-129. 1934<br>U.S.A.: Washington, Jefferson Co., Hoh R., <em>C.L. Hitchcock 19891</em>, 25 June 1953, <span>Topotype</span></p>\n<p><span lang=\"la\"><em>Glyceria \u00d7ottawensis</em></span> Bowden<br><span>Canada</span>: Ontario, Collection plots, originally from Mer Bleu Peat Bog, <em>Dore &amp; Jenkins 15206</em>, 7 July 1954, <span>Hortotype</span></p>\n<p><span lang=\"la\"><em>Glyceria ottawensis</em></span> Bowden, Can. J. Bot. 38: 127. 1955<br><span>Canada</span>: Ontario, Carleton Co., Mer Bleue, <em>Dore &amp; Jenkins 15206</em>, 7 July 1954, <span>Holotype</span> (PLUS <span>Isotype</span>, and <span>Hortotype</span>S)</p>\n<p><span lang=\"la\"><em>Glycine hainanensis</em></span> Merr. &amp; Chun, Lingnan Sc. Journ. 16: 194-196. 1937<br><span>China</span>: Hainan, <em>H.Y. Liang 65132</em>, 22 Feb. 1934, <span>Paratype</span></p>\n<p><span lang=\"la\"><em>Glycyrrhiza glabra</em></span> L. var. <span lang=\"la\"><em>pubescens</em></span> D. Litwinow, Sched. Herb. Fl. U.R.S.S. 2870a<br>U.S.S.R.: Turcomania, Farab ad fl. Amu-darja, <em>N. Androsov</em>, 17 May 1904, <span>Isotype</span></p>\n<p><span lang=\"la\"><em>Gnaphalium madagascariense</em></span> Poir., Encyc. Meth. Bot. Suppl. 2: 804. 1811<br><span>Madagascar</span>: Fort Dauphin, <em>M.R. Decary 9175</em>, 1 Oct. 1931, <span>Topotype</span></p>\n<p><span lang=\"la\"><em>Gnaphalium saxicola</em></span> Fassett, Rhod. 33: 75. 1931<br>U.S.A.: Wisconsin, Adams Co., Coldwater Canyon, Wisconsin Dells,<em> N.C. Fassett 20407</em>, 17 July 1937, <span>Topotype</span></p>\n<p><span lang=\"la\"><em>Godetia cylindrica</em></span> Hitchcock var. <span lang=\"la\"><em>tracyi</em></span> Jeps., Fl. Cal. 2: 584. 1936<br>U.S.A.: California, Mendocino Co. near Hopland, <em>J.P. Tracy 9904</em>, 8 May 1932, <span>Paratype</span></p>\n<p><span lang=\"la\"><em>Godetia quadrivulnera</em></span> Spach var. <span lang=\"la\"><em>davyi</em></span> Jepson, Univ. Cal. Pub. Bot. 2: 341. 1907<br>U.S.A.: California, Marin Co., Point Reyes Peninsula, <em>L.S. Rose 56134</em>, 30 July 1956, <span>Topotype</span></p>\n<p><span lang=\"la\"><em>Gomphrena caespitosa</em></span> Torr., Bot. Mex. Bound. 181. 1859<br>U.S.A.: New Mexico, <em>C. Wright 1752</em>, 1851-2, <span>Type Collection Material</span></p>\n<p><span lang=\"la\"><em>Goniphlebium pringlei</em></span> Maxon, Proc. U.S. Nat. Mus. 27: 953.t.48. 1904<br><span>Mexico</span>: Vera Cruz, near Jalapa, <em>C.G. Pringle 11855</em>, 30 Nov. 1903, <span>Isotype</span></p>\n<p><span lang=\"la\"><em>Gonolobus sororius</em></span> Gray ex S. Watson, Proc. Am. Acad. 22: 437. 1887<br><span>Mexico</span>: Oaxaca, Tomellin Canyon, <em>C.G. Pringle 4800</em>, 31 July 1894, ? <span>Type - Publication not Available</span></p>\n<p><span lang=\"la\"><em>Gonospermum fruticosum</em></span> Less., DC. Prodr. 6: 84. 1837<br><span>Canary Islands</span>: Tenerife, <em>E. Asplund 1150</em>, 7/5, 1933, <span>Topotype</span></p>\n<p><span lang=\"la\"><em>Gonospermum revolutum</em></span> Sch. Bip. in Webb &amp; Berth, Phyt. Canar. 2: 292 t88<br><span>Canary Islands</span>: Nivaria Taganana, <em>E.R. Sventenius 85</em>, 3 May 1957, <span>Topotype</span></p>\n<p><span lang=\"la\"><em>Gonzalagunia acutifolia</em></span> Rusby, Descriptions of Three Hundred New Species of South American Plants, pp. 131-132. 1920<br><span>Columbia</span>: Santa Marta, <em>H.H. Smith 99</em>, (1898-1901), ? <span>Isotype</span></p>\n<p><span lang=\"la\"><em>Goodyera oblongifolia</em></span> Raf. var. <span lang=\"la\"><em>reticulata</em></span> Boivin, Can. Field- Nat. 65: 20. 1951<br><span>Canada</span>: British <span>Columbia</span>, Victoria, <em>F. Fyles</em>, 20 Aug. 1914, <span>Holotype</span></p>\n<p><span lang=\"la\"><em>Gorodkovia jacutica</em></span> Botsch. &amp; Karav., Not. Syst. Herb. Inst. Bot. Acad. Sci. URSS 19: 109. 1959<br>U.S.S.R.: Jakutia, distr. Ojnjakonsk, <em>B. Jurtzev</em>, 22 June 1958, <span>Topotype</span></p>\n<p><span lang=\"la\"><em>Gouldia macrocarpa</em></span> Hillebrand, Fl. Hawaiian Islands 170. 1888<br><span>Hawaiian Islands</span>: Kauai, west of Kokee Stream, <em>Degener &amp; Cadenheads 27228</em>, 19 Nov. 1960, <span>Topotype</span></p>\n<p><span lang=\"la\"><em>Gouldia \u00d7St.-Johnii</em></span> Fosberg, Bull. Bishop Mus., Honolulu, No. 7: 62. 1937<br><span>Hawaiian Islands</span>: Oahu, Wiliwelinui Ridge, <em>Degener et al. 19695</em>, 27 June 1949, <span>Topotype</span></p>\n<p><span lang=\"la\"><em>Gouldia terminalis</em></span> Hillebrand f. <span lang=\"la\"><em>eukaala</em></span> Fosberg, Publication unknown<br><span>Hawaiian Islands</span>: Oahu, Molsuleia, Dillingham Ranch, <em>O. Degener 20621</em>, 30 Apr. 1950, <span>Topotype</span></p>\n<p><span lang=\"la\"><em>Gouldia terminalis</em></span> Hillebrand var. <span lang=\"la\"><em>macrothyrsa</em></span> Fosberg, Publication unknown<br><span>Hawaiian Islands</span>: Oahu, Central Makaleha Valley ridge, <em>Degener et al. 20756</em>, 19 Aug. 1950, <span>Topotype</span></p>\n<p><span lang=\"la\"><em>Gouldia terminalis</em></span> Hillebrand var. <span lang=\"la\"><em>purpurea</em></span> Fosberg, Publication unknown<br><span>Hawaiian Islands</span>: Kohala Ulakahi Valley, <em>O. Degener et al. 20045</em>, 27 Aug. 1949, <span>Topotype</span></p>\n<p><span lang=\"la\"><em>Grammitis oahuensis</em></span> Copel., Philip. J. Sci. 80: 158. 1952<br><span>Hawaiian Islands</span>: Oahu Island, Kipapa Gulch, <em>T.M.C. Taylor 6267</em>, Nov. 1960, <span>Topotype</span></p>\n<p><span lang=\"la\"><em>Grindelia perennis</em></span> Nels. f. <span lang=\"la\"><em>pseridopinnatifida</em></span> D. L\u00f6ve &amp; Bernard, Sv. Bot. Tidskr. 53: 431. 1959<br><span>Canada</span>: Manitoba, Otterburne, <em>J.P. Bernard 58/263</em>, <span>Isotype</span></p>\n<p><span lang=\"la\"><em>Grossularia echinella</em></span> Coville, J. Agric. Research 28: 71-72. 1924<br>U.S.A.: Florida, Jefferson Co., Lake Miccosukee, <em>R.K. Godfrey 56238</em>, 11 Mar. 1958, <span>Topotype</span></p>\n<p><span lang=\"la\"><em>Grypsocarpa hebeclada</em></span> Blake, Contr. Gray Herb. 52: 35. 1917<br><span>Mexico</span>: Hidalgo, near Tula, <em>C.G. Pringle 13863</em>, 20 May 1906, <span>Isotype</span></p>\n<p><span lang=\"la\"><em>Guaicum sloanei</em></span> Shutt. ex Gray Pl. Wright 1: 29. 1850-52<br>U.S.A.: Florida, Key West, <em>F. Rugel 68, 69</em>, 1842-1849, <span>Type Collection Material</span></p>\n<p><span lang=\"la\"><em>Guarea smithii</em></span> C.DC. Annuaire Conserv. Jard. Bot. Gen\u00e8ve 10: 150. 1907<br><span>Columbia</span>: Santa Marta, <em>H.H. Smith 1550</em>, 1898-1901, ? <span>Isotype</span></p>\n<p><span lang=\"la\"><em>Guarea trichilioides</em></span> L. var. <span lang=\"la\"><em>colombiana</em></span> C.DC., Annuaire Conserv. Jard. Bot. Gen\u00e8ve 10: 138. 1907<br><span>Columbia</span>: Santa Marta, <em>H.H. Smith 421</em>, 1898-1901, ? <span>Isotype</span></p>\n<p><span lang=\"la\"><em>Guettarda roupalaefolia</em></span> Rusby, Descriptions of Three Hundred New Species of South American Plants, pp. 135-136. 1920<br><span>Columbia</span>: Santa Marta, <em>H.H. Smith 441</em> (1898-1901), ? <span>Isotype</span></p>\n<p><span lang=\"la\"><em>Gymnocarpium appalachianum</em></span> Pryer &amp; Windham, Syst. Bot. 18: 161. 1993<br>U.S.A.: North Carolina, Ashe Co., near summit of Bluff Mt., <strong>Bozeman et al. 10678</strong>, 9 July 1967, <span>Paratype</span></p>\n<p><span lang=\"la\"><em>Gymnocarpium jessoense</em></span> (Koidz.) Koidz. ssp.<span lang=\"la\"><em>parvulum</em> Servela</span><br><span>Canada</span>: Yukon, Haggert Creek near Keno Hill north of Mayo, <em>C. Broadfoot 18</em>, June or July of 1958 or 1959, <span>Paratype</span></p>\n<p><span lang=\"la\"><em>Gymnocarpium jessoense</em></span> (Koidz.) Koidz. ssp. <span lang=\"la\"><em>parvulum</em></span> Sarvela, Ann. Bot. Fennici 15: 103-104. 1978<br><span>Canada</span>: Dist. of Mackenzie, Nahanni National Park, below Virginia Falls, <em>T. Ahti 31910</em>, 8 July 1977, <span>Isotype</span></p>\n<p><span lang=\"la\"><em>Gymnopogon floridanus</em></span> Swallen, North Amer. Flora 17: 607. 1939<br>U.S.A.: Florida, Clay Co., Penny Farms, <em>J.R. Swallen 5596</em> (Amer. Gr. Nat. Herb. 1247), 15 Nov. 1938, <span>Isotype</span></p>\n<p><span lang=\"la\"><em>Gypsophila benscensio</em></span> Rigo, Publication unknown<br><span>Europe</span>: Verone, <em>G. Rigo</em>, Sept. 1911, ? <span>Type Collection Material</span></p>\n<p><span lang=\"la\"><em>Gypsophila \u00d7castellana</em></span> Pau, Bol. Soc. Arag. 15: 167. 1916<br><span>Spain</span>: Madrid, <em>J. Beltroin</em>, Aug. 1912, <span>Topotype</span></p>\n<p><span lang=\"la\"><em>Gypsophila mucronifolia</em></span> Rech.f., Fedde, Repert. 48: 40. 1940<br><span>Iran</span>: Semnan, ad Sorkeh, <em>K.H. &amp; F. Rechinger 1793</em>, 15 Apr. 1948, <span>Topotype</span></p>\n<p><span lang=\"la\"><em>Gypsophila pseudomelampoda</em></span> Gauda &amp; Rech.f., Fedde, Repert. 48: 39-40. 1940<br><span>Iran</span>: Kazvin, prope Keredj, <em>K.H. &amp; F. Rechinger 6793</em>, 31 Aug. 1948, <span>Topotype</span></p>\n<p><span lang=\"la\"><em>Gypsophila subaphylla</em></span> Rech.f., Bot. Jahrbucher (Engler) 75: 355-356. 1951<br><span>Iran</span>: Luristan, Bisheh, 50 km a Khorramabad orientem versus,<em> K.H. &amp; F. Rechinger 5770</em>, 14-16 July 1948, <span>Isotype</span></p>\n<p><span lang=\"la\"><em>Gypsophila xanthochlora</em></span> Rech.f., Bot. Jahrbucher (Engler) 75: 355. 1951<br><span>Iran</span>: Shahrud-Bustan, montim Shahvar ad Nekarman,<em> K.H. &amp; F. Rechinger 5836</em>, 20-26 July 1948, <span>Isotype</span></p>\n<p><a href=\"/eng/?id=1256738602692\">Back to Catalogue</a></p>\n\r\n    ",
        "fr": "\r\n      <div class=\"mrgn-bttm-lg mrgn-tp-lg brdr-bttm\"></div>\n<nav>\n<h2 class=\"hidden\">Navigation alphab\u00e9tique</h2>\n\n<ul class=\"btn-toolbar list-inline\" role=\"toolbar\">\n<li><a class=\"btn btn-primary btn-xs\" href=\"?id=1257268535283\">A</a></li> \n<li><a class=\"btn btn-primary btn-xs\" href=\"?id=1257275495783\">B</a></li> \n<li><a class=\"btn btn-primary btn-xs\" href=\"?id=1257276509689\">C</a></li> \n<li><a class=\"btn btn-primary btn-xs\" href=\"?id=1257278175205\">D</a></li> \n<li><a class=\"btn btn-primary btn-xs\" href=\"?id=1257278660564\">E</a></li> \n<li><a class=\"btn btn-primary btn-xs\" href=\"?id=1257284373455\">F</a></li> \n<li><a class=\"btn btn-xs disabled\">G</a></li> \n<li><a class=\"btn btn-primary btn-xs\" href=\"?id=1257285188017\">H</a></li> \n<li><a class=\"btn btn-primary btn-xs\" href=\"?id=1257355626160\">I</a></li> \n<li><a class=\"btn btn-primary btn-xs\" href=\"?id=1257344087331\">J</a></li> \n<li><a class=\"btn btn-primary btn-xs\" href=\"?id=1257345100081\">K-L</a></li> \n<li><a class=\"btn btn-primary btn-xs\" href=\"?id=1257345508050\">M</a></li> \n<li><a class=\"btn btn-primary btn-xs\" href=\"?id=1257345930097\">N</a></li> \n<li><a class=\"btn btn-primary btn-xs\" href=\"?id=1257347364972\">O</a></li> \n<li><a class=\"btn btn-primary btn-xs\" href=\"?id=1257347892550\">P</a></li> \n<li><a class=\"btn btn-primary btn-xs\" href=\"?id=1257352514003\">Q-R</a></li> \n<li><a class=\"btn btn-primary btn-xs\" href=\"?id=1257353855753\">S</a></li> \n<li><a class=\"btn btn-primary btn-xs\" href=\"?id=1257354296722\">T</a></li> \n<li><a class=\"btn btn-primary btn-xs\" href=\"?id=1257354660472\">U-V</a></li> \n<li><a class=\"btn btn-primary btn-xs\" href=\"?id=1257355220410\">W-Z</a></li>\n</ul>\n</nav>\n\n<div class=\"mrgn-bttm-lg mrgn-tp-lg brdr-bttm\"></div>\n<p lang=\"en\"><i>Gagea pomeranica</i> R. Ruthe, Verhandl. d. bot. V. d. Prov. Brandenburg 1892: 15-18. 1893<br>Germany: Pomerania, Gumlin und Neverow bei Swinem\u00fcnde, <i>R. Ruthe</i>, Apr. 1893 and 94, Topotype</p>\n<p lang=\"en\"><i>Gagea spathacea</i> Salisb. var. <i>transcarpatica</i> Domin, Fl. Cechoslovenica ex. 221<br>Czechoslovakia: Rossia Subcarpatica, ad Fornos, <i>A. Margittai</i>, 3 May 1931, Isotype</p>\n<p><i>Gagea stenopetala</i> (Fr.) Reich. var. <i>arvensis</i> F. Schultz, Herb. normale. cent. 6: 566<br>France: Bas-Rhin, Wissembourg, <i>F. Schultz</i>, 15 avril 1858, Isotype</p>\n<p lang=\"en\"><i>Gaillardia aristata</i> Pursh f. <i>monochroma</i> Boivin, Nat. can. 87: 33. 1960<br>Canada: Saskatchewan, Waldheim, <i>R.C. Russell S5121A</i>, 1951, Holotype</p>\n<p lang=\"en\"><i>Galactia fasciculata</i> A.M. Vail, Bull. Torrey Bot. Cl. 22; 505. 1895<br>U.S.A.: Florida, Hillsborough Co., Tampa, <i>G.V. Nash 2480</i>, 24 Aug. 1895, Isotype</p>\n<p lang=\"en\"><i>Galactia floridana</i> T. &amp; G., Fl. N. Am. 1: 288. 1840<br>U.S.A.: Florida, Hillsborough Co., Tampa, <i>G.V. Nash 2474</i>, 24 Aug. 1895, Topotype</p>\n<p lang=\"en\"><i>Galega patula</i> Steven, Bull. Soc. Imp. des Nat. Mosc. 29: 140-141. 1856<br>U.S.S.R.: Tauria, Tofschanbazar, <i>A. Callier</i> (D\u00f6rfler Herb. Norm. 4235) July 1900, Topotype</p>\n<p lang=\"en\"><i>Galeopsis reuteri</i> Rchb. fil., Ic. fl. Germ. 17. 1858<br>ITALY: Alpes Maritimae, Tenda, <i>Bicknell &amp; Pollini</i> (Fl. Ital. Ex. 2344), 20 Aug. 1914, Topotype</p>\n<p lang=\"en\"><i>Galium angustifolium</i> Nutt. ssp. <i>nudicaule</i> Dempster &amp; Stebbins, Madrono 21: 94. 1971<br>U.S.A.: California, Los Angeles Co., Cloudburst Summit, Chilao Recreation Area, <i>Dempster &amp; Stebbins 4236</i>, 16 June 1966, Isotype</p>\n<p lang=\"en\"><i>Galium asperrimum</i> Gray, Mem. Acad. Art. &amp; Sc. N.S. 4: 60-61. 1849<br>U.S.A.: New Mexico, Santa Fe Canyon, 9 miles east of Santa Fe,<i> A.A. &amp; E.G. Heller 3802</i>, 2 July 1897, Topotype</p>\n<p lang=\"en\"><i>Galium catalinense</i> Gray, Syn. Fl. N. Am. ed. 2, 1 pt. 2, suppl.: 445. 1886<br>U.S.A.: California, Los Angeles Co., Santa Catalina Island,<i> F.R. Fosberg S4418</i>, 27 Mar. 1931, Topotype</p>\n<p lang=\"en\"><i>Galium coronatum</i> Sibth. &amp; Sm. ssp. <i>persicum</i> (DC.) Ehrendorfer var. <i>pilosum</i> Ehrendorfer, Publication unknown<br>Iran: Montes Elburs centr., <i>K.H. &amp; F. Rechinger 287</i>, 21 May 1937, Isotype</p>\n<p lang=\"en\"><i>Galium crespianum</i> Rodriguez, Anales Soc. Esp. Hist. Nat. 7: 55. 1879<br>Europe: Insula Mallorca, <i>Bianor</i> (D\u00f6rfler Herb. Norm. 5466), July 1912, Topotype</p>\n<p lang=\"en\"><i>Galium ellipticum</i> Willd., Enum. hort. Berol., Suppl. p. 8. 1813<br>CORSICA: prope, Bastia, <i>M.F. Spencer</i>, (D\u00f6rfler, Herb. Norm. 5463), May 1914, Topotype</p>\n<p lang=\"en\"><i>Galium fendleri</i> Gray, Pl. Fendl. 60<br>U.S.A.: New Mexico, Santa Fe Co., 9 miles east of Santa Fe,<i> A.A. &amp; E.G. Heller 3817</i>, 7 July 1897, Topotype</p>\n<p lang=\"en\"><i>Galium gilanicum</i> Stapf., Denkschr. Acad. Wien 1: 53. 1885<br>Iran: Guilan Province, Lahijan, <i>N. Lindsay 951</i>, May-July 1936, Topotype</p>\n<p lang=\"en\"><i>Galium glabrescens</i> (Ehrend.) Demp. &amp; Ehrend. ssp. <i>harticum</i> Demp. &amp; Ehrend., Brittonia 17: 333. 1965<br>U.S.A.: Oregon, Lake Co., Hart Mountain, <i>Dempster &amp; Hardham 1727</i>, 22 June 1961, Paratype</p>\n<p lang=\"en\"><i>Galium glabrescens</i> (Ehrand.) Demp. &amp; Ehrand. ssp. <i>modocense</i> Demp. &amp; Ehrand., Brittonia 17: 333. 1965<br>U.S.A.: California, Modoc Co., Cedar Pass on road to Cedarville,<i> Dempster &amp; Hardham 1694</i>, 18 June 1961, Paratype</p>\n<p lang=\"en\"><i>Galium grayanum</i> Ehrend., Contrib. Dudley Herb. 5: 15. 1956<br>U.S.A.: California, Butte-Plumas Co., summit above Jonesville,<i> F. Ehrendorfer 5937</i>, 22 July 1959, Topotype</p>\n<p lang=\"en\"><i>Galium grayanum</i> Ehrend. ssp. <i>glabrescens</i> Ehrend., Contrib. Dudley Herb. 5: 15. 1956<br>U.S.A.: California, Siskiyou Co., [1/2] mile SSE of Castle Lake,<i> Ehrendorfer et al. 5963</i>, 26 Sept. 1959, Topotype</p>\n<p lang=\"en\"><i>Galium hardhamae</i> Demp., Madrono 16: 167-168. 1962<br>U.S.A.: California, San Luis Obispo Co., headwaters of Chris Flood Creek, <i>C.B. Hardham 6145</i>, 17 June 1960, Paratype</p>\n<p lang=\"en\"><i>Galium hypotrichium</i> Gray ssp. <i>ebbettsense</i> Demp. &amp; Ehrend., Brittonia 17: 318. 1965<br>U.S.A.: California, Alpine Co., Sierra Nevada, ca. 0.5 mile southeast of Ebbetts Pass, <i>F. Ehrendorfer 5920</i>, 5 July 1959, Isotype</p>\n<p lang=\"en\"><i>Galium martirense</i> Demp. &amp; Steb., Madrono 18: 110-113. 1965<br>Mexico: Baja California, Oaks Pasture, 15 miles by crooked road northeast of Meling Ranch, <i>Dempster &amp; Cory 3987</i>, 3 June 1964, Isotype</p>\n<p lang=\"en\"><i>Galium nuttallii</i> Gray var. <i>ovalifolium</i> Demp., Brittonia 10: 183. 1958<br>U.S.A.: California, Humboldt Co., Blue Slide on Van Dugen River,<i> J.P. Tracy 6816</i>, 10 Aug. 1924, Isotype</p>\n<p lang=\"en\"><i>Galium pumilum</i> Murr. ssp. <i>islandicum</i> Stern, Publication unknown<br>Iceland: Westmann Is., S Heimaey, <i>H.G. Vevers</i>, 29 June 1939, Topotype</p>\n<p lang=\"en\"><i>Galium pumilum</i> Murr. ssp. <i>oelandicum</i> Sterner &amp; Hyl., Publication unknown<br>Sweden: \u00d6land, Paroecia, Kastl\u00f6sa, <i>R. Sterner</i>, 25 June 1928, Topotype</p>\n<p lang=\"en\"><i>Galium scabriusculum</i> (Ehrend.) Demp. &amp; Ehrend. ssp.<i> protoscabriusculum</i> Demp. &amp; Ehrend., Brittonia 17: 312-313. 1965<br>U.S.A.: Utah, Carbon Co., Castle Gate, <i>Ehrendorfer &amp; Stutz 5954</i>, 4 Aug. 1959, Isotype</p>\n<p lang=\"en\"><i>Galium serpenticum</i> Demp., Brittonia 11: 120. 1959<br>U.S.A.: Oregon, Baker Co., Burnt Creek, <i>Dempster &amp; Hardham 1754</i>, 25 June 1961, Topotype</p>\n<p lang=\"en\"><i>$$$Galium serpenticum</i> Demp. ssp. <i>scotticum</i> Demp. &amp; Ehrend., Brittonia 17: 326. 1965<br>U.S.A.: California, Siskiyou Co., on road southwest of Callahan,<i> Dempster &amp; Hardham 1877</i>, 3 July 1961, Isotype</p>\n<p lang=\"en\"><i>Galium serpenticum</i> Demp. ssp. <i>warnerense</i> Demp. &amp; Ehrend., Brittonia 17: 325. 1965<br>U.S.A.: Oregon, Lake Co., Albert Rim east of Lake Albert,<i> Dempster &amp; Hardham 1758</i>, 27 June 1961, Paratype</p>\n<p lang=\"en\"><i>Galium serpenticum</i> Demp. ssp. <i>wenatchicum</i> Demp. &amp; Ehrend., Brittonia 17: 323. 1965<br>U.S.A.: Washington, Kittitas Co., Wenatchee Mountains, Blewett Pass, <i>Ehrendorfer &amp; Kruckeberg 5961</i>, 16 Sept. 1959, Topotype</p>\n<p lang=\"en\"><i>Galium wirtgeni</i> F. Schultz, Arch. Fl. 201<br>Europe: pr. Deidesheim, <i>C.H. Schultz Dip</i>, ? Type - Publication not Available</p>\n<p lang=\"en\"><i>Gardenia mannii</i> St. John &amp; Kuykendall, Brittonia 6: 444-449. 1948<br>Hawaiian Islands: Oahu, Waianae Uka, Ditch trail along south fork of Kaukonahua Stream, <i>R. Kuykendall 134</i>, 9 Dec. 1945, Paratype</p>\n<p lang=\"en\"><i>Gaultheria conzattii</i> Camp var. <i>mijorum</i> Camp, Bull. Torrey Bot. Club 66: 17. 1939<br>Mexico: Oaxaca, Zempoaltepetl, <i>W.H. Camp 2659</i>, 19-27 Feb. 1937, Isotype</p>\n<p lang=\"en\"><i>Gaultheria fendleri</i> Rusby, Descr. S. Am. Pl. 74. 1920<br>Columbia: Top of San Lorenzo Ridge, <i>H.H. Smith 1719</i>, 1898-1899, Isotype</p>\n<p lang=\"en\"><i>Gaura calcicola</i> Raven &amp; Gregory<br>U.S.A.: Texas, Uvalde County, 16.0 miles north of Uvalde, <i>Mosquin &amp; Mosquin 5620</i>, 19 May 1964, Paratype; McCulloch County, 4.5 miles southeast of Brady on road to Voca and Fredonia, <i>Munz &amp; Gregory 23430</i>, 24 May 1958, Paratype</p>\n<p lang=\"en\"><i>Gaura calcicola</i> Raven &amp; Gregory, Mem. Torrey Bot. Club 23(1): 40- 42. 1972<br>U.S.A.: Texas, Jeff Davis Co., 3 mi. N of Ft. Davis, <i>Munz &amp; Gregory 23383</i>, 20 May 1958, Paratype</p>\n<p lang=\"en\"><i>Gaylussacia dumosa</i> Torr. &amp; Gray var. <i>bigeloviana</i> Fern., Rhod. 13: 99. 1911<br>Canada: Newfoundland, Whitbourne, <strong>Robinson &amp; Schrenk 201</strong>, 16 Aug. 1894, Paratype</p>\n<p lang=\"en\"><i>Gayophytum diffusum</i> Torrey &amp; Gray ssp. <i>parviflorum</i> Lewis &amp; Szweykowski<br>Canada: British Columbia, 29 miles southwest of Chilako Forks on road to Anahim Lake, <i>Calder et al. 18334</i>, 4 July 1956, Paratype</p>\n<p lang=\"en\"><i>Gayophytum diffusum</i> T. &amp; G. ssp. <i>parviflorum</i> Lewis &amp; Szweykowski, Brittonia 16: 387. 1964<br>Canada: British Columbia, Three miles SW of Marysville, <i>Taylor &amp; Ferguson 2624</i>, 10 July 1958, Paratype</p>\n<p lang=\"en\"><i>Gelonium aequorium</i> Hce. var. <i>hainanense</i> Hemsl., Publication unknown<br>China: Hainan, <i>H.Y. Liang 65218</i>, 24 Feb. 1934, ? Type Collection Material</p>\n<p lang=\"en\"><i>Genista corsica</i> DC., Flore Fran\u00e7aise Suppl. 548. 1815<br>France: Corsica, Bastia, <i>M.F. Spencer</i>, 20 Feb. 1913, Topotype</p>\n<p lang=\"en\"><i>Genista ovata</i> Waldst. &amp; Kit., Descr. et ic. pl. rar. Hung. 1: 86. 1802<br>Romania: Banatus, <i>Borza et al.</i> (Fl. Rom. Ex. 2871), 22 July 1941, Topotype</p>\n<p lang=\"en\"><i>Genista saharae</i> Coss. &amp; Dur., Bull. Soc. Bot. Fr. 2: 247. 1855<br>Algeria: pr\u00e8s de Mra\u00efer, entre Biskra &amp; Touggourt, <i>P. Simonneau</i> (Exsicc. B. de Retz II 4343), 2 mars 1960, Topotype</p>\n<p lang=\"en\"><i>Gentiana affinis</i> Griseb. var. <i>major</i> Nels. &amp; Macbr., Bot. Gaz. 55: 376-377. 1913<br>U.S.A.: Nevada, Elko Co., Mountain City, <i>Nelson &amp; Macbride 2178</i>, 9 Aug. 1912, Isotype</p>\n<p lang=\"en\"><i>Gentiana austriaca</i> A. &amp; I. Kerner, Fl. Ex. Aust.-Hung. no. 648. 1882 [in sched.]<br>Austria: prope Perchtoldsdorf, <i>Woloszczak</i>, Isotype</p>\n<p lang=\"en\"><i>Gentiana austromontana</i> Pringle &amp; Sharp, Rhod. 66: 402. 1964<br>U.S.A.: North Carolina, Roan Mtn., <i>Pringle et al. 29372</i>, 12 Sept. 1961, Isotype</p>\n<p lang=\"en\"><i>Gentiana campestris</i> L. var. <i>pusilla</i> O. Kuntze, Publication unknown<br>Europe: Germany, <i>C. Reimann</i>, Sept. 1864, ? Type Collection Material</p>\n<p lang=\"en\"><i>Gentiana douglasiana</i> Bong. f. <i>maculata</i> Boivin, Nat. can. 94: 634. 1967<br>U.S.A.: Alaska, Kenai Peninsula, 7 mi. WSW of Portage,<i> J.A. Calder 5969</i>, 16 July 1951, Holotype</p>\n<p lang=\"en\"><i>Gentiana elegans</i> Nelson, Bull. Torrey Bot. Cl. 25: 276. 1898<br>U.S.A.: Wyoming, Albany Co., Medicine Bow Mts., <i>A. &amp; R.A. Nelson 968</i>, 22 Aug. 1933, Topotype</p>\n<p lang=\"en\"><i>Gentiana formosana</i> Hayata Journ. Col. Sci. Tokyo 22: 242. 1906<br>Taiwan: Mt. Morrison, <i>T.S. Liu</i>, 23 Aug. 1949, Topotype</p>\n<p lang=\"en\"><i>Gentiana gaspensis</i> Victorin, Conrib. Lab. Bot. Univ. Montreal 20: 10. 1932<br>Canada: Quebec, Bonaventure Co., Bonaventure, mouth of Bonaventure River, <i>Marie-Victorin et al. 4008</i>, 24 Aug. 1940, Topotype</p>\n<p lang=\"en\"><i>Gentiana norica</i> A. &amp; J. Kerner in Kern. Sched. Fl. Austro.-Hung. 6: 56. 1893<br>Hungary: Stiria superior, in pratis humidis ad lacum Grundlsee,<i> A. Kerner</i> (Fl. Ex. Aust.-Hung. 2190), Isotype</p>\n<p lang=\"en\"><i>Gentiana pilosa</i> Wettstein, \u00d6sterr. botan. Zeitschr. 42: 42-43. 1892<br>Austria: Carthinia, a \"Raibl\" versus jugum \"Predil\" <i>M. v. Statzer</i>, Oct. 1894 (D\u00f6rfler Herb. Norm. 3749), Topotype</p>\n<p lang=\"en\"><i>Gentiana praecox</i> Kerner f. <i>serotina</i> Krist, Gent. esl. Sb. Pr. Kl. Brno. 1934<br>Europe: Slovakia Centr., ad ostium rivuli Kamenisty in fl. Bela,<i> L. Filipi</i> (Fl. ex Reip. Bohemicae Slovenicae 877), 31 July 1933, ? Isotype</p>\n<p lang=\"en\"><i>Gentiana rusbyi</i> E.L. Greene ex Kusnez., Etud. Monog. Sous-genie Eugentiana 54. 1894<br>U.S.A.: New Mexico, Mogollen Mts., <i>H.H. Rusby 263</i>, Sept. 1881, Isotype</p>\n<p lang=\"en\"><i>Gentiana rhaetica</i> A. &amp; J. Kerner, Fl. Ex. Aust.-Hung. no 649. 1882 [in sched.]<br>Austria: Tirolia centralis, in valle Gschnitz, <i>A. Kerner</i>, Isotype</p>\n<p lang=\"en\"><i>Gentiana sturmiana</i> A. &amp; J. Kerner, Fl. Ex. Aust.-Hung. no 647. 1882 [in sched.]<br>Austria: prope urbem Mautern ad Danubium, <i>J. Kerner</i>, Isotype</p>\n<p lang=\"en\"><i>Gentiana tenella</i> Rottb. var. <i>occidentalis</i> Rousseau &amp; Raymond, Nat. can. 79: 77. 1952<br>Canada: Quebec, Poste de Puvungnituk, <i>J. Rousseau 200</i>, 16 juillet 1948, Isotype</p>\n<p lang=\"en\"><i>Gentiana triflora</i> Pallas var. <i>japonica</i> Hara f. <i>montana</i> Toyokuni &amp; Tanaka, Publication unknown<br>Japan: Prov. Ishikari, Mt. Yupari, <i>H. Toyokuni</i>, 4 Aug. 1960, Topotype</p>\n<p lang=\"en\"><i>Gentiana victorinii</i> Fern., Rhod. 25: 87-88. 1923<br>Canada: Quebec, Quebec Co., Cap rouge, St. Lawrence River,<i> Gillett &amp; van Rens 9700</i>, 23 Aug. 1955, Topotype</p>\n<p lang=\"en\"><i>Gentiana yuparensis</i> Takeda, Notes Bot. Gard. Edin. 8: 234. 1915<br>Japan: Ishikari Province, Hokkaido, on Mt. Yupari, <i>H. Toyokuni</i>, 19 Aug. 1957, Topotype</p>\n<p lang=\"en\"><i>Gentianella detonsa</i> G. Don. ssp. <i>yukonensis</i> Gillett, Ann. Mo. Bot. Gard. 44: 215. 1957<br>U.S.A.: Alaska, Richardson Highway, 4 miles south of Delta Junction, <i>Cody &amp; Webster 5587</i>, 28 June 1951, Holotype</p>\n<p lang=\"en\"><i>Gentianella propinqua</i> (Richards.) Gillett f. <i>acyanea</i> Gillett, Ann. Mo. Bot. Gard. 44: 240. 1957<br>Canada: British Columbia, 9 mi. NE of Skeena Crossing, <i>Calder et al. 15201A</i>, 30 Aug. 1954, Holotype</p>\n<p lang=\"en\"><i>Gentianella yuparensis</i> Satake f. <i>gigantea</i> Toyokuni, Publication unknown<br>Japan: prov. Ishikari, Hokkaido, Mt. Yupari, <i>H. Toyokuni</i>, 31 Aug. 1958, Topotype</p>\n<p lang=\"en\"><i>Gentrya racemosa</i> Breedlove &amp; Heckard, Brittonia 22: 21-22. 1970<br>Mexico: Sinaloa, Sierra Surutato, 3 miles N of Los Ornosalong road to Ocurahui, <i>D.E. Breedlove 19200</i>, 7 Mar. 1971, Topotype</p>\n<p lang=\"en\"><i>Geranium atropurpureum</i> Heller, Bull. Torrey Bot. Cl. 25: 195-196. 1898<br>U.S.A.: New Mexico, Santa Fe Creek, <i>A.A. &amp; E.G. Heller 3723</i>, 17 June 1897, Isotype</p>\n<p lang=\"en\"><i>Geranium carolinianum</i> L.f. <i>albiflorum</i> Boivin, Nat. can. 93: 1060. 1966<br>Canada: Ontario, Hastings Co., Point Anne, E of Belleville,<i> W.G. Dore 20292</i>, 15 June 1963, Holotype</p>\n<p lang=\"en\"><i>Geranium monanthum</i> Small, Fl. N. Amer. 25: 21. 1907<br>Mexico: Oaxaca, Zempoatepec, <i>W.H. Camp 2624</i>, 19-27 Feb. 1937, Topotype</p>\n<p lang=\"en\"><i>Geranium pratense</i> L. var. <i>erianthum</i> (DC.) Boivin f. <i>leucanthum</i> Boivin, Phytologia 23(1): 136. 1972<br>U.S.A.: Alaska, Cold Bay, <i>W.B. Schofield 2489</i>, 28 July 1952, Holotype</p>\n<p lang=\"en\"><i>Geranium purpureum</i> Vill. var. <i>forsteri</i> Wilmott, Journ. Bot. 59: 95. 1921<br>England: between Bognor and Littlehampton, <i>A.J. Wilmott 919</i>, 23 June 1919, Isotype</p>\n<p lang=\"en\"><i>Geranium sphaerospermum</i> Fernald, Rhod. 37: 298. 1935<br>U.S.A.: South Dakota, Deadwood, <i>W.P. Carr 67</i>, 19 July 1913, Paratype</p>\n<p lang=\"en\"><i>Geranium toquimensis</i> Holmgren &amp; Holmgren<br>U.S.A.: Nevada, Nye County, Toquima Range, Pine Creek, Middle Fork, <i>A.H. Holmgren 7077</i>, 4 Aug. 1947, Paratype; head of Middle Fork, <i>Holmgren &amp; Reveal 1523</i>, 4 Aug. 1964, Paratype</p>\n<p lang=\"en\"><i>Geranium toquimense</i> Holmgren &amp; Holmgren, Brittonia 26(3): 311- 313. 1974<br>U.S.A.: Nevada, Nye Co., Toquima Range, head of the north brand of South Fork Pine Creek, <i>Holmgren &amp; Reveal 1518</i>, 3 Aug. 1964, Isotype</p>\n<p lang=\"en\"><i>Gesneria onacaensis</i> Rusby, Descriptions of Three Hundred New Species of South American Plants, 123-124. 1920<br>Columbia: Santa Marta, <i>H.H. Smith 1386</i> (1898-1901), ? Isotype</p>\n<p><i>Geum \u00d7catlingii</i> Bernard &amp; Gauthier, Nat. can. 113: 321. 1986<br>Canada: Quebec, Sillery, <i>J.-P. Bernard B82-68</i>, 20 juillet 1982, Isotype</p>\n<p lang=\"en\"><i>Geum kerneri</i> Blocki ex Bolle in Fedde Repert, Beih. 72: 77. 1933<br>Poland: Galizien, <i>Blocki</i>, 1910, Type Collection Material</p>\n<p><i>Geum \u00d7macneillii</i> Bernard &amp; Gauthier, Nat. can. 113: 321. 1986<br>Canada: Quebec, Sillery, <i>J.-P. Bernard B82-73C</i>, 21 juillet 1982, Isotype</p>\n<p lang=\"en\"><i>Geum perincisum</i> Rydb. var. <i>intermedium</i> Boivin, Phytologia 15: 355. 1967<br>Canada: Saskatchewan, Cypress Hills, <i>A.J. Breitung 4249</i>, 2 July 1947, Holotype</p>\n<p lang=\"en\"><i>Geum \u00d7pervale</i> Boivin, Phytologia 15: 355. 1967<br>Canada: Saskatchewan Cypress Hills, <i>A.J. Breitung 5507</i>, 9 July 1947, Holotype</p>\n<p lang=\"en\"><i>Geum pyrenaicum</i> Willd., Sp. Pl. 2: 1115. 1800<br>Switzerland: Hautes-Pyr\u00e9n\u00e9es, paturages de Gavarnie, <i>H. Bord\u00e8re</i>, 2 June 1889, Topotype</p>\n<p lang=\"en\"><i>Geum schofieldii</i> Calder &amp; Taylor<br>Canada: British Columbia, Graham Island, Masset Inlet, head of McClinton Bay, <i>Calder et al. 21574</i>, 18 June 1957, Paratype; Mt. de la Touche, Fairfax Inlet, Tasu Sound, west coast of Moresby Island, <i>Calder &amp; Taylor 23519</i>, 16-17 Aug. 1957, Paratype</p>\n<p lang=\"en\"><i>Geum schofieldii</i> Calder &amp; Savile, Can. J. Bot. 43: 1394. 1965<br>Canada: British Columbia, Queen Charlotte Islands, Moresby Island, <i>Calder &amp; Taylor 36144</i>, 21 July 1964, Holotype</p>\n<p lang=\"en\"><i>Geum speciosum</i> Alboff, Bull. Herb. Bois. 1: 224. 1893<br>U.S.S.R.: Abchazia, distr. Gudauty, <i>A. Kolakovsky</i> (Fl. ex. URSS 3214), 20 July 1935, Topotype</p>\n<p lang=\"en\"><i>Gilia capitata</i> Sims ssp. <i>pacifica</i> Grant, Aliso 2; 305-306. 1950<br>U.S.A.: California, Humboldt Bay near Buckspot, <i>J.P. Tracy 2188</i>, 11 June 1905, Paratype</p>\n<p lang=\"en\"><i>Gilia chamissonis</i> Greene, Erythea 3: 105. 1895<br>U.S.A.: California, San Francisco, Laurel Hill Cemetery,<i> L.S. Rose 48123</i>, 31 May 1948, Topotype</p>\n<p lang=\"en\"><i>Gilia malior</i> Day &amp; Grant, Aliso 4: 484. 1964<br>U.S.A.: California, San Luis Obispo Co., Carissa Plains 2 miles south of Simmler, <i>B. Hardham 3154</i>, 28 Apr. 1958, Paratype</p>\n<p lang=\"en\"><i>Gilia nyensis</i> Reveal<br>U.S.A.: Nevada, Nye County, south face of Ranier Mesa, <i>Reveal &amp; Holmgren 1775</i>, 14 Aug. 1968, Paratype</p>\n<p lang=\"en\"><i>Gilia nyensis</i> Reveal, Bull. Torrey Bot. Club 96: 480-483. 1969<br>U.S.A.: Nevada, Nye Co., Nevada Test Site, 0.5 mi. W of Buckboard Mesa (Tippipah Spring) Road to Cat Canyon, Timber Mountain, <i>Reveal &amp; Beatley 1048</i>, 29 May 1968, Isotype</p>\n<p lang=\"en\"><i>Gilia splendens</i> Douglas ex Paxton ssp. <i>australis</i> Mason &amp; Grant, Madrono 9: 213. 1948<br>U.S.A.: California, Riverside Co., Temecula Valley, <i>H.L. Mason 3195</i>, 2 May 1926, Isotype</p>\n<p lang=\"en\"><i>Gilia tenuiflora</i> Bentham ssp. <i>interior</i> Mason &amp; Grant, Madrono 9: 217. 1948<br>U.S.A.: California, Kern Co., <i>H.L. Mason 8244</i>, 30 Mar. 1935, Topotype</p>\n<p lang=\"en\"><i>Gilibertia amplifolia</i> I.M. Johnston, Contr. Gray Herb. 70: 81. 1924<br>Columbia: Santa Marta, <i>H.H. Smith 1778</i> 1898-1901, ? Isotype</p>\n<p lang=\"en\"><i>Glaux maritima</i> L. var. <i>angustifolia</i> Boivin, Bull. Soc. Roy. Bot. Belg. 88: 9. 1955<br>U.S.A.: Wyoming, Hanna, <i>C.L. Porter 3257</i>, 12 July 1943, Holotype</p>\n<p lang=\"en\"><i>Glaux maritima</i> L. ssp. <i>obtusifolia</i> (Fern.) Boivin var.<i> macrophylla</i> Boivin, Bull. Soc. Roy. Bot. Belg. 88: 10. 1945<br>U.S.A.: Alaska, Eagle River near Juneau, <i>J.P. Anderson 6356, 28 June 1940</i>, Holotype</p>\n<p lang=\"en\"><i>Glaux maritima</i> L. var. <i>rosea</i> Freyn, Publication unknown<br>Europe: Nertschinsk, in nassen Steppen, <i>J. Freyn</i>, 1889, ? Type Collection Material</p>\n<p lang=\"en\"><i>Gleichenia Kiushiana</i> Makino, Bot. Mag. Tokyo 18: 139. 1904<br>Japan: Kyushu, Pref. Nagasaki, <i>Y. Kaneko</i>, Topotype, Type Collection Material?</p>\n<p lang=\"en\"><i>Glottidium floridanum</i> DC. var. <i>atro-rubrum</i> Nash, Bull. Torrey Bot. Cl. 23: 101. 1896<br>U.S.A.: Florida, Hillsborough Co., Tampa, <i>G.V. Nash 2415</i>, 20 Aug. 1895, Isotype</p>\n<p lang=\"en\"><i>Glyceria fernaldii</i> (Hitchc.) St. John (G.<i>pallida</i> var. <i>fernaldii</i> Hitchc.)<br>U.S.A.: Maine, Piscataquis County, Foxcroft, <i>M.L. Fernald 147</i>, 31 Aug. 1896 - near, Topotype</p>\n<p lang=\"en\"><i>Glyceria fluitans</i> (L.) R.Br. var. <i>islandica</i> L\u00f6ve, Bot. Not. 1951: 237. 1951<br>Iceland: Arnessysla, S\u00f6loholt, <i>A. &amp; D. L\u00f6ve A075</i>, 14 Sept. 1949, Isotype</p>\n<p lang=\"en\"><i>Glyceria \u00d7gatineauensis</i> Bowden<br>Canada: Quebec, Gatineau Park Road, 3.5 miles north of Eardley, <i>W.M. Bowden 1-58-1</i>, 20 June 1959, Paratype + Hortotype; Gatineau Park Road, 3.5 miles north of Eardley, <i>W.M. Bowden 1-59-2</i>, 20 June 1959, Paratype + Hortotype</p>\n<p lang=\"en\"><i>Glyceria \u00d7gatineauensis</i> Bowden, Can. J. Bot. 38: 126-127. 1960<br>Canada: Quebec, 3.3 miles N of Eardley, <i>Bowden &amp; Dore 125-55</i>, 29 June 1955, Holotype</p>\n<p lang=\"en\"><i>Glyceria otisii</i> A.S. Hitchcock, Amer. J. Bot. 21: 128-129. 1934<br>U.S.A.: Washington, Jefferson Co., Hoh R., <i>C.L. Hitchcock 19891</i>, 25 June 1953, Topotype</p>\n<p lang=\"en\"><i>Glyceria \u00d7ottawensis</i> Bowden<br>Canada: Ontario, Collection plots, originally from Mer Bleu Peat Bog, <i>Dore &amp; Jenkins 15206</i>, 7 July 1954, Hortotype</p>\n<p lang=\"en\"><i>Glyceria ottawensis</i> Bowden, Can. J. Bot. 38: 127. 1955<br>Canada: Ontario, Carleton Co., Mer Bleue, <i>Dore &amp; Jenkins 15206</i>, 7 July 1954, Holotype (PLUS Isotype, and Hortotype S)</p>\n<p lang=\"en\"><i>Glycine hainanensis</i> Merr. &amp; Chun, Lingnan Sc. Journ. 16: 194-196. 1937<br>China: Hainan, <i>H.Y. Liang 65132</i>, 22 Feb. 1934, Paratype</p>\n<p lang=\"en\"><i>Glycyrrhiza glabra</i> L. var. <i>pubescens</i> D. Litwinow, Sched. Herb. Fl. U.R.S.S. 2870a<br>U.S.S.R.: Turcomania, Farab ad fl. Amu-darja, <i>N. Androsov</i>, 17 May 1904, Isotype</p>\n<p lang=\"en\"><i>Gnaphalium madagascariense</i> Poir., Encyc. Meth. Bot. Suppl. 2: 804. 1811<br>Madagascar: Fort Dauphin, <i>M.R. Decary 9175</i>, 1 Oct. 1931, Topotype</p>\n<p lang=\"en\"><i>Gnaphalium saxicola</i> Fassett, Rhod. 33: 75. 1931<br>U.S.A.: Wisconsin, Adams Co., Coldwater Canyon, Wisconsin Dells,<i> N.C. Fassett 20407</i>, 17 July 1937, Topotype</p>\n<p lang=\"en\"><i>Godetia cylindrica</i> Hitchcock var. <i>tracyi</i> Jeps., Fl. Cal. 2: 584. 1936<br>U.S.A.: California, Mendocino Co. near Hopland, <i>J.P. Tracy 9904</i>, 8 May 1932, Paratype</p>\n<p lang=\"en\"><i>Godetia quadrivulnera</i> Spach var. <i>davyi</i> Jepson, Univ. Cal. Pub. Bot. 2: 341. 1907<br>U.S.A.: California, Marin Co., Point Reyes Peninsula, <i>L.S. Rose 56134</i>, 30 July 1956, Topotype</p>\n<p lang=\"en\"><i>Gomphrena caespitosa</i> Torr., Bot. Mex. Bound. 181. 1859<br>U.S.A.: New Mexico, <i>C. Wright 1752</i>, 1851-2, Type Collection Material</p>\n<p lang=\"en\"><i>Goniphlebium pringlei</i> Maxon, Proc. U.S. Nat. Mus. 27: 953.t.48. 1904<br>Mexico: Vera Cruz, near Jalapa, <i>C.G. Pringle 11855</i>, 30 Nov. 1903, Isotype</p>\n<p lang=\"en\"><i>Gonolobus sororius</i> Gray ex S. Watson, Proc. Am. Acad. 22: 437. 1887<br>Mexico: Oaxaca, Tomellin Canyon, <i>C.G. Pringle 4800</i>, 31 July 1894, ? Type - Publication not Available</p>\n<p lang=\"en\"><i>Gonospermum fruticosum</i> Less., DC. Prodr. 6: 84. 1837<br>Canary Islands: Tenerife, <i>E. Asplund 1150</i>, 7/5, 1933, Topotype</p>\n<p lang=\"en\"><i>Gonospermum revolutum</i> Sch. Bip. in Webb &amp; Berth, Phyt. Canar. 2: 292 t88<br>Canary Islands: Nivaria Taganana, <i>E.R. Sventenius 85</i>, 3 May 1957, Topotype</p>\n<p lang=\"en\"><i>Gonzalagunia acutifolia</i> Rusby, Descriptions of Three Hundred New Species of South American Plants, pp. 131-132. 1920<br>Columbia: Santa Marta, <i>H.H. Smith 99</i>, (1898-1901), ? Isotype</p>\n<p lang=\"en\"><i>Goodyera oblongifolia</i> Raf. var. <i>reticulata</i> Boivin, Can. Field- Nat. 65: 20. 1951<br>Canada: British Columbia, Victoria, <i>F. Fyles</i>, 20 Aug. 1914, Holotype</p>\n<p lang=\"en\"><i>Gorodkovia jacutica</i> Botsch. &amp; Karav., Not. Syst. Herb. Inst. Bot. Acad. Sci. URSS 19: 109. 1959<br>U.S.S.R.: Jakutia, distr. Ojnjakonsk, <i>B. Jurtzev</i>, 22 June 1958, Topotype</p>\n<p lang=\"en\"><i>Gouldia macrocarpa</i> Hillebrand, Fl. Hawaiian Islands 170. 1888<br>Hawaiian Islands: Kauai, west of Kokee Stream, <i>Degener &amp; Cadenheads 27228</i>, 19 Nov. 1960, Topotype</p>\n<p lang=\"en\"><i>Gouldia \u00d7St.-Johnii</i> Fosberg, Bull. Bishop Mus., Honolulu, No. 7: 62. 1937<br>Hawaiian Islands: Oahu, Wiliwelinui Ridge, <i>Degener et al. 19695</i>, 27 June 1949, Topotype</p>\n<p lang=\"en\"><i>Gouldia terminalis</i> Hillebrand f. <i>eukaala</i> Fosberg, Publication unknown<br>Hawaiian Islands: Oahu, Molsuleia, Dillingham Ranch, <i>O. Degener 20621</i>, 30 Apr. 1950, Topotype</p>\n<p lang=\"en\"><i>Gouldia terminalis</i> Hillebrand var. <i>macrothyrsa</i> Fosberg, Publication unknown<br>Hawaiian Islands: Oahu, Central Makaleha Valley ridge, <i>Degener et al. 20756</i>, 19 Aug. 1950, Topotype</p>\n<p lang=\"en\"><i>Gouldia terminalis</i> Hillebrand var. <i>purpurea</i> Fosberg, Publication unknown<br>Hawaiian Islands: Kohala Ulakahi Valley, <i>O. Degener et al. 20045</i>, 27 Aug. 1949, Topotype</p>\n<p lang=\"en\"><i>Grammitis oahuensis</i> Copel., Philip. J. Sci. 80: 158. 1952<br>Hawaiian Islands: Oahu Island, Kipapa Gulch, <i>T.M.C. Taylor 6267</i>, Nov. 1960, Topotype</p>\n<p lang=\"en\"><i>Grindelia perennis</i> Nels. f. <i>pseridopinnatifida</i> D. L\u00f6ve &amp; Bernard, Sv. Bot. Tidskr. 53: 431. 1959<br>Canada: Manitoba, Otterburne, <i>J.P. Bernard 58/263</i>, Isotype</p>\n<p lang=\"en\"><i>Grossularia echinella</i> Coville, J. Agric. Research 28: 71-72. 1924<br>U.S.A.: Florida, Jefferson Co., Lake Miccosukee, <i>R.K. Godfrey 56238</i>, 11 Mar. 1958, Topotype</p>\n<p lang=\"en\"><i>Grypsocarpa hebeclada</i> Blake, Contr. Gray Herb. 52: 35. 1917<br>Mexico: Hidalgo, near Tula, <i>C.G. Pringle 13863</i>, 20 May 1906, Isotype</p>\n<p lang=\"en\"><i>Guaicum sloanei</i> Shutt. ex Gray Pl. Wright 1: 29. 1850-52<br>U.S.A.: Florida, Key West, <i>F. Rugel 68, 69</i>, 1842-1849, Type Collection Material</p>\n<p lang=\"en\"><i>Guarea smithii</i> C.DC. Annuaire Conserv. Jard. Bot. Gen\u00e8ve 10: 150. 1907<br>Columbia: Santa Marta, <i>H.H. Smith 1550</i>, 1898-1901, ? Isotype</p>\n<p lang=\"en\"><i>Guarea trichilioides</i> L. var. <i>colombiana</i> C.DC., Annuaire Conserv. Jard. Bot. Gen\u00e8ve 10: 138. 1907<br>Columbia: Santa Marta, <i>H.H. Smith 421</i>, 1898-1901, ? Isotype</p>\n<p lang=\"en\"><i>Guettarda roupalaefolia</i> Rusby, Descriptions of Three Hundred New Species of South American Plants, pp. 135-136. 1920<br>Columbia: Santa Marta, <i>H.H. Smith 441</i> (1898-1901), ? Isotype</p>\n<p lang=\"en\"><i>Gymnocarpium appalachianum</i> Pryer &amp; Windham, Syst. Bot. 18: 161. 1993<br>U.S.A.: North Carolina, Ashe Co., near summit of Bluff Mt., <strong>Bozeman et al. 10678</strong>, 9 July 1967, Paratype</p>\n<p lang=\"en\"><i>Gymnocarpium jessoense</i> (Koidz.) Koidz. ssp.<i>parvulum</i> Servela<br>Canada: Yukon, Haggert Creek near Keno Hill north of Mayo, <i>C. Broadfoot 18</i>, June or July of 1958 or 1959, Paratype</p>\n<p lang=\"en\"><i>Gymnocarpium jessoense</i> (Koidz.) Koidz. ssp. <i>parvulum</i> Sarvela, Ann. Bot. Fennici 15: 103-104. 1978<br>Canada: Dist. of Mackenzie, Nahanni National Park, below Virginia Falls, <i>T. Ahti 31910</i>, 8 July 1977, Isotype</p>\n<p lang=\"en\"><i>Gymnopogon floridanus</i> Swallen, North Amer. Flora 17: 607. 1939<br>U.S.A.: Florida, Clay Co., Penny Farms, <i>J.R. Swallen 5596</i> (Amer. Gr. Nat. Herb. 1247), 15 Nov. 1938, Isotype</p>\n<p lang=\"en\"><i>Gypsophila benscensio</i> Rigo, Publication unknown<br>Europe: Verone, <i>G. Rigo</i>, Sept. 1911, ? Type Collection Material</p>\n<p lang=\"en\"><i>Gypsophila \u00d7castellana</i> Pau, Bol. Soc. Arag. 15: 167. 1916<br>Spain: Madrid, <i>J. Beltroin</i>, Aug. 1912, Topotype</p>\n<p lang=\"en\"><i>Gypsophila mucronifolia</i> Rech.f., Fedde, Repert. 48: 40. 1940<br>Iran: Semnan, ad Sorkeh, <i>K.H. &amp; F. Rechinger 1793</i>, 15 Apr. 1948, Topotype</p>\n<p lang=\"en\"><i>Gypsophila pseudomelampoda</i> Gauda &amp; Rech.f., Fedde, Repert. 48: 39-40. 1940<br>Iran: Kazvin, prope Keredj, <i>K.H. &amp; F. Rechinger 6793</i>, 31 Aug. 1948, Topotype</p>\n<p lang=\"en\"><i>Gypsophila subaphylla</i> Rech.f., Bot. Jahrbucher (Engler) 75: 355-356. 1951<br>Iran: Luristan, Bisheh, 50 km a Khorramabad orientem versus,<i> K.H. &amp; F. Rechinger 5770</i>, 14-16 July 1948, Isotype</p>\n<p lang=\"en\"><i>Gypsophila xanthochlora</i> Rech.f., Bot. Jahrbucher (Engler) 75: 355. 1951<br>Iran: Shahrud-Bustan, montim Shahvar ad Nekarman,<i> K.H. &amp; F. Rechinger 5836</i>, 20-26 July 1948, Isotype</p>\n\n<p><a href=\"?id=1256738602692\">Retour au Catalogue</a></p>\n\r\n    "
    }
}