{
    "dcr_id": "1371576110525",
    "title": {
        "en": "Well monitoring",
        "fr": "Surveillance du puits"
    },
    "modified": "2020-01-24",
    "issued": "2014-07-18",
    "templatetype": "content page 1 column",
    "page_type": "0",
    "node_id": "1354137773764",
    "dc_date_created": "2014-07-18",
    "managing_branch": "PAB",
    "parent_node_id": "",
    "short_title": "",
    "exturl": "",
    "teamsite_location": {
        "en": "/default/main/AAFC-AAC/Internet-Internet/Common-Commun/WORKAREA/Common-Commun/templatedata/comm-comm/gene-gene/data/06/water-eau_well_monitor_1371576110525_en",
        "fr": "/default/main/AAFC-AAC/Internet-Internet/Common-Commun/WORKAREA/Common-Commun/templatedata/comm-comm/gene-gene/data/06/water-eau_well_monitor_1371576110525_fr"
    },
    "type_name": "comm-comm/gene-gene",
    "has_dcr_id": true,
    "label": {
        "en": "Well monitoring",
        "fr": "Surveillance du puits"
    },
    "breadcrumb": {
        "en": "Well monitoring",
        "fr": "Surveillance du puits"
    },
    "layout_name": "content page 1 column",
    "lang": "en",
    "refaire": false,
    "meta": {
        "viewport": {
            "en": "width=device-width,initial-scale=1",
            "fr": "width=device-width, initial-scale=1"
        },
        "issued": {
            "en": "2014-07-18",
            "fr": "2014-07-18"
        },
        "modified": {
            "en": "2020-01-24",
            "fr": "2020-01-24"
        },
        "format": {
            "en": "text/html",
            "fr": "text/html"
        },
        "title": {
            "en": "Well monitoring",
            "fr": "Surveillance du puits"
        },
        "subject": {
            "en": "beneficial management;water resources",
            "fr": "pratiques de gestion b\u00e9n\u00e9fiques;eau ressource"
        },
        "dcterms:subject": {
            "en": "water quality;water management",
            "fr": "gestion de l'eau;qualit\u00e9 de l'eau"
        },
        "description": {
            "en": "effects check operation of pressure tank and water treatment system record the date and time of the inspection and any observations B. Monitoring date and time note any changes to static water level pumping water level pumping rate collect and record operational data (hours of pumping discharge rates) note any changes in in-take pump voltage and amperage readings conduct a well pumping test to measure the specific capacity of the well test water for bacteria at least two to four times a year test any water quality parameters of concern such as nitrate chlorine sodium iron and manganese",
            "fr": "Avant de mener un essai de pompage les \u00e9l\u00e9ments suivants devraient \u00eatre surveill\u00e9s : le rabattement maximum disponible le ou les taux de d\u00e9bit et la meilleure fa\u00e7on de proc\u00e9der aux mesures la meilleure m\u00e9thode permettant de mesurer avec pr\u00e9cision les niveaux d'eau et les intervalles de temps la dur\u00e9e appropri\u00e9e de l'essai de pompage d\u00e9connecter la pompe du r\u00e9servoir de stockage sous pression et les syst\u00e8mes de traitement s'assurer que l'eau est d\u00e9vers\u00e9e \u00e0 une distance s\u00e9curitaire pour \u00e9viter la remise en circulation les effets potentiels d'interf\u00e9rence tels que les plans d'eau"
        },
        "language": {
            "en": "eng",
            "fr": "fra"
        },
        "keywords": {
            "en": "discharge rate;well yield;pumping water level;water levels;water level",
            "fr": "niveau naturel;niveaux d'eau;niveau de pompage;d\u00e9bit de pompage;taux de d\u00e9bit"
        },
        "audience": {
            "en": "gcaudience",
            "fr": "gcaudience"
        },
        "type": {
            "en": "fact sheet",
            "fr": "fiche de renseignements"
        },
        "creator": {
            "en": "Agriculture and Agri-Food Canada;Government of Canada",
            "fr": "Agriculture et Agroalimentaire Canada;Gouvernement du Canada"
        },
        "spatial": {
            "en": "gcregions",
            "fr": "gcregions"
        },
        "service": {
            "en": "AAFC-AAC",
            "fr": "AAFC-AAC"
        },
        "accessRights": {
            "en": "2",
            "fr": "2"
        },
        "legalName": {
            "en": "agriculture_and_agri_food_canada",
            "fr": "agriculture_et_agroalimentaire_canada"
        },
        "areaServed": {
            "en": "Canada",
            "fr": "Canada"
        }
    },
    "h1": {
        "en": "Well monitoring",
        "fr": "Surveillance du puits"
    },
    "js": {
        "en": "",
        "fr": ""
    },
    "body": {
        "en": "\r\n    <p>Regular well monitoring is essential for assessing the operation and condition of your well.</p>\n\n<p>As monitoring data is collected over time, informed decisions can be made on scheduling preventative maintenance and repairing or replacing any deficiencies.</p>\n\n<p><b>On this page:</b></p>\n\n<nav>\n<ul>\n<li><a href=\"#a1\">Water level monitoring</a></li>\n<li><a href=\"#a2\">Well performance monitoring</a></li>\n<li><a href=\"#a3\">Water quality monitoring</a></li>\n<li><a href=\"#a4\">Monitoring checklist</a></li>\n</ul>\n</nav>\n\n \n<h2 id=\"a1\">Water level monitoring</h2>\n\n<p>One of the key elements of well monitoring is to record water level measurements on a regular basis. Both non-pumping and pumping water levels should be taken at least a monthly basis. Changes in the non-pumping level or \"static\" water level may signal possible aquifer depletion, while changes in the pumping level may indicate a possible decline in well performance as a result of screen plugging. </p>\n\n<p>Selection of an appropriate measuring method will usually depend on the well's accessibility, the depth to water and the measurement frequency.  To ensure consistency and comparability of water level measurements a measuring point, such as the top of the well casing, must be established and marked on the well and all future measurements must be taken from this point.</p>\n\n<p>Most wells are not easily accessible for water level monitoring, therefore, <a href=\"/eng/?id=1371564950593\">\"user-friendly\" well designs</a> are recommended that include an access tube for water level monitoring.</p>\n\n<p>When recording water level measurements the following information should be included:</p>\n\n<ol>\n<li>Date and time of measurement.</li>\n<li>Time of day; measurement should be taken approximately the same time every day.</li>\n<li>Record the depth of water below a consistent measuring point.</li>\n<li>Identify measuring point and its elevation (distance from ground level).</li>\n<li>Identify any nearby influences, such as nearby pumping wells or cascading water in well.</li>\n</ol>\n\n \n<h3>Water level measurement</h3>\n\n<p>The following procedures and devices can be used to measure non-pumping and pumping water levels in a well.</p>\n\n \n<h4>Non-pumping (or static) water level</h4>\n\n<p>The best time to measure the static (non-pumping) water level is the when the pump has been resting for quite some time; for instance, early in the morning prior to any water use.</p>\n\n<ol>\n<li>Ensure that the pump is shut off until the measurement is completed.</li>\n<li>If the pump has been running, wait at least 15\u00a0to 30\u00a0minutes to allow the water level to recover before taking a measurement; however, in a low permeable aquifer the recovery time may take several hours.</li>\n<li>After taking an initial measurement, wait another 15\u00a0to 30\u00a0minutes and measure again to ensure that the water level is stable and is actually the static water level.</li>\n</ol>\n \n<h4>Pumping water level</h4>\n\n<p>The pumping water level is recorded while the well is operating.  For comparison purposes, the pumping water level measurements should be taken for pumping periods of the same duration.  For example, the pumping water level and the discharge rate can be measured after the pump has been operating for 30\u00a0minutes.</p>\n\n<p>Any future measurements should then be taken after 30\u00a0minutes pumping.  If the discharge rates are the same but the pumping water level has decreased than plugging of the well intake may have occurred.</p>\n \n<h4>Electric sounder</h4>\n\n<div class=\"row\">\n<div class=\"pull-right col-md-4\"><figure><img src=\"https://www.agr.gc.ca/resources/prod/img/water-eau/wells_grndwtr_photo9a.jpg\" class=\"img-responsive\" alt=\"well sounder with sensor lowered into well.\"><figcaption><i>Electronic well sounder with sensor in well</i></figcaption></figure>\n</div>\n\n<div class=\"mrgn-lft-md mrgn-rght-md\">\n<p>The electric sounder is one of the simplest methods for measuring water levels in a well.  An electrical sounder consists of two parallel insulated wires with a weight attached to the end.  When the wires contact the water the current travels through the water completing the circuit.  This contact causes an ammeter, buzzer or light to signal that the circuit has been completed.</p>\n\n<p>The current is supplied by batteries usually housed in the tape reel assembly of the sounder.  Commercial units are usually marked with regular intervals so that the depth of water from the top of the casing can be easily determined.</p>\n\n<p>The electric sounder can sometimes be affected by leaks in the pump column.  As the sounder is lowered into the well the water leaking from the pump column may cause a premature signal.  User-friendly well design can include the installation of an access tube that will keep leaking water from coming in contact with the sounder tape and help to ensure that the tape does not become entangled down the hole.</p>\n</div>\n</div>\n \n<h4>Sonar water level meters</h4>\n\n<div class=\"row\">\n<div class=\"pull-right col-md-4\"><figure><img src=\"https://www.agr.gc.ca/resources/prod/img/water-eau/wells_grndwtr_photo10a.jpg\" alt=\"Sonar water level meter being held over a well\"><br><figcaption><i>Sonar water level meter</i> </figcaption></figure>\n</div>\n\n<div class=\"mrgn-lft-md mrgn-rght-md\">\n<p>A sonar water level meter uses sound waves to measure water levels and doesn't require the installation of a down-hole probe. Generally, the only requirement is an access port at least 15 mm in diameter in the well cap.</p>\n\n<p>This type of meter is easy to use and provides a direct readout on the display unit of the device. Simply insert the measuring duct through the well cap, push the power-on switch and the measurement is completed in a few seconds.</p>\n</div>\n</div>\n \n<h4>Electronic pressure transducers</h4>\n\n<div class=\"row\">\n<div class=\"pull-right col-md-4\"><figure><img src=\"https://www.agr.gc.ca/resources/prod/img/water-eau/wells_grndwtr_photo11b.jpg\" alt=\"Small pressure transducer\"><br><figcaption><i>Electronic pressure transducer</i> </figcaption></figure>\n</div>\n\n<div class=\"mrgn-lft-md mrgn-rght-md\">\n<p>Electronic pressure transducers with data logging capabilities can be installed in a well to record and store water level data.  This data can then be periodically downloaded and displayed on a computer to observe the data and potential water level trends.</p>\n\n<p>These devices measure water levels as pressure readings, such as, the height of water above the device.  Therefore, at the time of installation, the depth of the device relative to ground level or top of well casing should be measured.  However, these devices may not compensate for barometric changes, and therefore, the recorded water levels must be corrected by obtaining local barometric data from a local weather station or by installing a pressure transducer that measures and records changes in atmospheric pressure.</p>\n</div>\n</div>\n \n<h2 id=\"a2\">Well performance monitoring</h2>\n\n<p>Well performance monitoring is performed to evaluate the well efficiency and to assist in identifying any potential problems.  The well, pump and aquifer systems are interrelated, and therefore, it is often difficult to determine the source of the problem when well yield starts to decline.</p>\n\n<p>Deterioration in well yield could be the result of an inefficient pump, plugging of the well intake area, or reduced production from the aquifer.  To assist in identifying the onset or cause of yield problems, well performance tests can be conducted periodically to determine if there are any changes in well yield, drawdown (which is the difference between the initial non-pumping water level and the pumping water level at a specified time interval) or overall production of the well over the long-term.  The results from these tests are then compared to the baseline data recorded when the well was first installed.  If this baseline data is not available, periodic testing should commence immediately to accumulate data for future comparison.</p>\n\n \n<h3>Well performance tests</h3>\n\n<p>Pump tests will only provide reliable data if carried out systematically, and accurately recording time, discharge rate and drawdown measurements. The length of a pump test will generally depend on the type of test performed, the type of aquifer, the resources available and any site limitations.  </p>\n\n<p>Prior to conducting a pumping test the following should be carried out or determined:</p>\n\n<ul>\n<li>Maximum drawdown available</li>\n<li>The discharge rate(s) and best way to measure</li>\n<li>Best method to accurately measure water levels and time intervals </li>\n<li>Suitable length of pump test </li>\n<li>Disconnect pump from pressure storage tank and treatment systems</li>\n<li>Ensure water is discharged a safe distance to prevent re-circulation</li>\n<li>Potential interference effects, such as near by surface water bodies, aquifer boundaries, and other pumping wells</li>\n</ul>\n<p>The main well performance tests are the step-drawdown test and specific capacity test.</p>\n\n \n<h4>Step drawdown test</h4>\n\n<p>A step drawdown test is often used to assess the performance of a well.  In this test, the well is pumped at successively higher pumping rates, and the total drawdown at each rate is recorded.  Usually, three to five pumping steps are performed.  The time interval for each step is the same and the discharge rate at each step must remain constant.  A valve set-up is necessary to vary the discharge rate and an appropriate method to measure the discharge would be required, such as a flow meter or calibrated pail.  </p>\n\n<p>From these test results, the well efficiency, drawdown and specific capacity can be determined at a given pumping rate.</p>\n\n<p>Since this test involves pumping the well at various discharge rates it may not always be possible for an individual well owner to perform, therefore, the specific capacity test would generally be more practical. </p>\n \n<h4>Specific capacity test</h4>\n\n<p>Specific Capacity is an assessment of the productivity of the well, and is defined as the well yield per unit drawdown (Imperial gallons per minute/foot (Igpm/ft) of drawdown). This translates into the amount of water level drop in a well at a designated pumping rate, over a specific time interval.  </p>\n\n<p>A general specific capacity measurement can be calculated using the maximum and minimum (non-pumping and pumping) water levels collected over a designated time interval.  For future comparison purposes, these water levels should be collected over similar time intervals, with the same pumping rate.</p>\n\n<p>A more accurate measurement of specific capacity can be made by conducting a pump test to determine any changes in the well's capacity. These tests should be conducted at least twice a year.  When conducted in different seasons, they may also indicate if there are any seasonal fluctuations in the specific capacity of the well.</p>\n\n<p>Pump tests to measure the specific capacity and overall well performance should also be conducted prior to any anticipated groundwater development or exploration activity in your area.  This includes new commercial developments, irrigation well development, and drilling activity by the petroleum industry.</p>\n\n<p>To calculate the Specific Capacity of your water well follow these steps:</p>\n\n<ol>\n<li>Allow the water level in your well to recover to its highest point.  The best way to do this is to shut off the pump at night and perform the test early in the morning.</li>\n<li>In the morning, measure the water level in the well to ensure that it has stabilized and is not rising in the casing.</li>\n<li>Start the pump.</li>\n<li>Record the water level at five minute intervals.</li>\n<li>Measure the pumping rate (rate of discharge) at the beginning and near the end of the test.</li>\n<li>Run the test for a designated amount of time (30 minutes or one hour).</li>\n</ol>\n\n \n<h5>Specific capacity calculation</h5>\n\n<p>Record:</p>\n\n<ol>\n<li>Pumping Rate.</li>\n<li>Static (non-pumping) water level at start of test (SWL).</li>\n<li>Pumping Water level at end of test (PWL).</li>\n<li>Note time duration of test.</li>\n</ol>\n\n<div class=\"row\">\n<div class=\"col-md-2\">\n<p>Calculation: </p>\n</div>\n\n<div class=\"col-md-10\">\n<p>Pumping rate in (Imperial gallons per minute) \u00f7 (PWL - SWL (feet))</p>\n</div>\n</div>\n\n<p>See example below:</p>\n\n<figure class=\"mrgn-lft-0\">\n<img src=\"https://www.agr.gc.ca/resources/prod/img/water-eau/wells_grndwtr_fig4-eng.jpg\" alt=\"Description of this image follows.\">\n<details>\n<summary>Description of the image above</summary>\n<p>Figure illustrates the calculation of Specific Capacity. Specific Capacity is the well yield divided by the drawdown.  The difference between the Measuring Point above the well surface and the Static Water Level is shown as 15 feet.  Drawdown is the difference between the pumping water level and the static water level.  The measured static water level is shown as 25 feet. The pumping  rate was measured as 50 imperial gallons per minute.  Therefore the Specific Capacity is 50/(25-15)=5 imperial gallons per minute/foot.</p>\n</details>\n</figure>\n \n<h2 id=\"a3\">Water quality monitoring</h2>\n\n<p>Regular monitoring should be conducted to ensure a safe and healthy water well supply.  Groundwater contains natural chemical constituents that are derived from the soil and rock materials that the water passes through.  Although not generally harmful to human health, these chemical constituents can sometimes consist of potentially harmful parameters like arsenic, selenium, boron or radon that may present health problems depending on the concentration present.</p>\n\n<p>Besides natural chemical constituents, groundwater can become contaminated from nearby agricultural or human activities such as improper storage of wastes or agricultural chemicals, animal manure storage, poorly maintained septic systems, leaking underground storage tanks and accidental spills.</p>\n\n<p>Understanding and identifying any potential problems early is essential to safe-guarding a groundwater supply. A well owner should have a water quality analysis performed when the well is initially constructed and then test the water at least once a year for any microbiological contamination and any water quality parameters of concern identified in the original analysis.</p>\n\n<p>Additional water quality monitoring should be considered if there is a change in land use activity nearby, flooding of the well or an accidental spill the vicinity of the well. Also, a change in colour, taste and odour of the water may also indicate a change in water chemistry or bacteriological quality.</p>\n \n<h2 id=\"a4\">Monitoring checklist</h2>\n\n<p>To facilitate a systematic monitoring approach, a well monitoring and maintenance checklist can be developed.  There are many items that can be included on a checklist as outlined below, and a well owner can adapt these to their particular situation and adjust the monitoring intervals accordingly.  Examples of items that can be included on a monitoring/maintenance checklist are as follows:</p>\n\n<ol class=\"lst-upr-alph\">\n <li>General Physical Inspection \n  <ul>\n   <li>ensure the well cap is secure and the well vents are unobstructed and screened to prevent pests/insects from entering the well</li>\n   <li>ensure the well seal around the casing is in place and water-tight</li>\n   <li>note any changes in turbidity, taste, odour and colour of the water</li>\n   <li>ensure the ground is not settling around the casing allowing surface water to pond </li>\n   <li>inspect the outside and inside condition of the well casing</li>\n   <li>check for additional pumping wells in the area that may cause interference effects</li>\n   <li>check operation of pressure tank and water treatment system</li>\n   <li>record the date and time of the inspection and any observations</li>\n  </ul>\n </li>\n <li>Monitoring \n  <ul>\n   <li>date and time, note any changes to static water level, pumping water level, pumping rate</li>\n   <li>collect and record operational data (hours of pumping, discharge rates)</li>\n   <li>note any changes in in-take pump voltage and amperage readings</li>\n   <li>conduct a well pumping test to measure the specific capacity of the well </li>\n   <li>test water for bacteria at least two to four times a year</li>\n   <li>test any water quality parameters of concern, such as nitrate, chlorine, sodium, iron, and manganese</li>\n   <li>test for other chemicals if you have concerns with fuel spills, etc.</li>\n   <li>ensure backflow prevention devices are in place and functioning</li>\n  </ul>\n </li>\n <li>Protection from Contamination \n  <ul>\n   <li>maintain at least a three-metre grassed buffer around the well</li>\n   <li>ensure potential contamination sources are located down gradient of the well</li>\n   <li>avoid chemical applications (pesticides, fertilizers) around the well</li>\n   <li>locate and plug any nearby abandoned wells or test holes </li>\n  </ul>\n </li>\n</ol>\n\n<p>Once a scheduled monitoring program has been in place for awhile, sufficient data should be available to establish a suitable repair or replacement interval for components in the well and distribution system and to develop a preventative maintenance treatment schedule.</p>\n \n\r\n    ",
        "fr": "\r\n    <p>Une surveillance r\u00e9guli\u00e8re du puits est essentielle pour \u00e9valuer le fonctionnement et la condition de votre puits.</p>\n\n<p>Au fur et \u00e0 mesure que les donn\u00e9es sont recueillies, des d\u00e9cisions \u00e9clair\u00e9es peuvent \u00eatre prises sur la planification de l'entretien pr\u00e9ventif et la r\u00e9paration ou le remplacement de tout \u00e9l\u00e9ment d\u00e9fectueux.</p>\n\n<p><b>Sur cette page\u00a0:</b></p>\n\n<nav>\n<ul>\n<li><a href=\"#a1\">Surveillance du niveau de l'eau</a></li>\n<li><a href=\"#a2\">Surveillance du rendement du puits</a></li>\n<li><a href=\"#a3\">Surveillance de la qualit\u00e9 de l'eau</a></li>\n<li><a href=\"#a4\">Liste de v\u00e9rification de la surveillance</a></li>\n</ul>\n</nav>\n\n<section>\n<h2 id=\"a1\">Surveillance du niveau de l'eau</h2>\n\n<p>L'enregistrement r\u00e9gulier des mesures du niveau de l'eau est l'un des principaux \u00e9l\u00e9ments de la surveillance du puits. Le niveau naturel et le niveau de pompage devraient \u00eatre mesur\u00e9s au moins une fois par mois. Des changements dans le niveau naturel peuvent r\u00e9v\u00e9ler un appauvrissement possible de l'aquif\u00e8re, tandis que des changements dans le niveau de pompage peuvent indiquer une diminution du rendement du puits en raison d'une obturation du filtre.</p>\n\n<p>En r\u00e8gle g\u00e9n\u00e9rale, on choisira une m\u00e9thode de mesure appropri\u00e9e en fonction de l'accessibilit\u00e9 du puits, de la profondeur entre le haut du puits et l'eau ainsi que la fr\u00e9quence de mesure. Pour assurer l'uniformit\u00e9 et la comparabilit\u00e9 des mesures du niveau d'eau, un point de mesure, tel que le haut du tubage du puits, doit \u00eatre \u00e9tabli et marqu\u00e9 sur le puits, et toutes les mesures qui suivront devront \u00eatre prises \u00e0 partir de ce point.</p>\n\n<p>L'acc\u00e8s \u00e0 la plupart des puits n'est pas simple, ce qui complique la surveillance du niveau de l'eau; ainsi, il est recommand\u00e9 d'inclure dans les <a href=\"/fra/?id=1371564950593\">conceptions \u00ab\u00a0conviviales\u00a0\u00bb des puits</a> un tube d'acc\u00e8s pour pouvoir surveiller le niveau de l'eau.</p>\n\n<p>Les renseignements suivants li\u00e9s \u00e0 l'enregistrement des mesures du niveau de l'eau devraient \u00eatre inclus\u00a0:</p>\n\n<ol>\n<li>la date et l'heure de la mesure;</li>\n<li>l'heure du jour (la mesure devrait \u00eatre r\u00e9alis\u00e9e approximativement \u00e0 la m\u00eame heure chaque jour);</li>\n<li>le relev\u00e9 de la profondeur de l'eau en dessous d'un point de mesure coh\u00e9rent;</li>\n<li>le point de mesure et son \u00e9l\u00e9vation (distance \u00e0 partir du niveau du sol);</li>\n<li>toute influence \u00e0 proximit\u00e9, telle que les puits de pompage environnants ou l'eau qui tombe en cascade dans le puits.</li>\n</ol>\n\n\n\n<section>\n<h3>Mesure du niveau de l'eau</h3>\n\n<p>Les proc\u00e9dures et les dispositifs suivants peuvent \u00eatre utilis\u00e9s pour mesurer le niveau naturel et le niveau de pompage d'un puits.</p>\n\n<section>\n<h4>Niveau naturel (sans pompage)</h4>\n\n<p>Le meilleur moment pour mesurer le niveau naturel (sans pompage) est lorsque la pompe est rest\u00e9e inactive pendant un certain temps; par exemple, t\u00f4t le matin, avant toute utilisation de l'eau.</p>\n\n<ol>\n<li>S'assurer que la pompe est ferm\u00e9e jusqu'\u00e0 ce que la mesure soit termin\u00e9e.</li>\n<li>Si la pompe a fonctionn\u00e9, attendre 15\u00a0minutes \u00e0 30\u00a0minutes, au moins, pour permettre au niveau de l'eau de se r\u00e9tablir avant de prendre une mesure. Toutefois, s'il s'agit d'un aquif\u00e8re peu perm\u00e9able, le temps de r\u00e9tablissement peut prendre plusieurs heures.</li>\n<li>Apr\u00e8s avoir pris une mesure initiale, attendre encore 15\u00a0minutes \u00e0 30\u00a0minutes pour refaire une mesure afin de s'assurer que le niveau de l'eau est stable et qu'il s'agit bien du niveau naturel.</li>\n</ol>\n</section>\n\n<section>\n<h4>Niveau de pompage</h4>\n\n<p>Le niveau de pompage est enregistr\u00e9 pendant que le puits fonctionne. Aux fins de comparaison, les mesures du niveau de pompage devraient \u00eatre prises pendant des p\u00e9riodes de pompage de m\u00eame dur\u00e9e. Par exemple, le niveau de pompage et le taux de d\u00e9bit peuvent \u00eatre mesur\u00e9s si la pompe a fonctionn\u00e9 pendant 30\u00a0minutes.</p>\n\n<p>Toute mesure effectu\u00e9e par la suite devrait \u00eatre prise apr\u00e8s un pompage de 30\u00a0minutes. Si les taux de d\u00e9bit sont les m\u00eames, mais que le niveau de pompage a diminu\u00e9, une obturation de l'alimentation du puits peut alors s'\u00eatre produite.</p>\n</section>\n\n<section>\n<h4>Sondeur \u00e9lectrique</h4>\n\n<div class=\"row\">\n<div class=\"pull-right col-md-4\"><figure><img src=\"https://www.agr.gc.ca/resources/prod/img/water-eau/wells_grndwtr_photo9a.jpg\" class=\"img-responsive\" alt=\"Sondeur avec un capteur est introduit dans un puits.\"><figcaption><i>Sondeur \u00e9lectronique avec un capteur dans le puits.</i></figcaption></figure>\n</div>\n\n<div class=\"mrgn-lft-md mrgn-rght-md\">\n<p>Le sondeur \u00e9lectrique est l'une des m\u00e9thodes les plus simples pour mesurer les niveaux d'eau dans un puits. Un sondeur \u00e9lectrique est compos\u00e9 de deux fils recouverts parall\u00e8les avec un poids attach\u00e9 \u00e0 l'extr\u00e9mit\u00e9. Lorsque les fils entrent en contact avec l'eau, le courant traverse l'eau en suivant le circuit. Ce contact est signal\u00e9 par un amp\u00e8rem\u00e8tre, un avertisseur ou une lumi\u00e8re et indique que le circuit est accompli.</p>\n\n<p>Le courant est fourni par des batteries habituellement plac\u00e9es dans le dispositif de la bobine du sondeur. Les puits commerciaux sont g\u00e9n\u00e9ralement marqu\u00e9s \u00e0 intervalles r\u00e9guliers afin qu'on puisse facilement d\u00e9terminer la profondeur de l'eau \u00e0 partir du haut du tubage.</p>\n\n<p>Le sondeur \u00e9lectrique peut parfois \u00eatre alt\u00e9r\u00e9 par des fuites dans la colonne de la pompe. Lorsque l'on descend le sondeur dans le puits, l'eau suintant de la colonne de la pompe peut d\u00e9clencher un signal pr\u00e9matur\u00e9. Une conception conviviale du puits peut inclure l'installation d'un tube d'acc\u00e8s qui permettra d'\u00e9viter que la fuite d'eau n'entre en contact avec la bande du sondeur et qui aidera \u00e0 s'assurer que la bande ne s'enchev\u00eatre pas au fond du trou.</p>\n</div>\n</div>\n</section>\n\n<section>\n<h4>Indicateurs de niveau d'eau de type sonar</h4>\n\n<div class=\"row\">\n<div class=\"pull-right col-md-4\"><figure><img src=\"https://www.agr.gc.ca/resources/prod/img/water-eau/wells_grndwtr_photo10a.jpg\" alt=\"Un indicateur de niveau d'eau de type sonar tenu au-dessus du puits\"><br><figcaption><i>Indicateurs de niveau d'eau de type sonar</i> </figcaption></figure>\n</div>\n\n<div class=\"mrgn-lft-md mrgn-rght-md\">\n<p>Un indicateur de niveau d'eau de type sonar utilise les ondes pour mesurer les niveaux d'eau et ne n\u00e9cessite pas l'installation d'une sonde de fond de trou. En g\u00e9n\u00e9ral, la seule exigence impose d'avoir un orifice d'acc\u00e8s d'au moins 15\u00a0millim\u00e8tres (mm) de diam\u00e8tre dans le couvercle du puits.</p>\n\n<p>Ce type d'indicateur est facile \u00e0 utiliser et fournit un affichage direct sur l'unit\u00e9 d'affichage du dispositif. Ins\u00e9rez simplement le conduit de mesure \u00e0 travers le couvercle du puits et appuyez sur l'interrupteur de mise sous tension pour effectuer la mesure en quelques secondes.</p>\n</div>\n</div>\n</section>\n\n<section>\n<h4>Capteurs de pression \u00e9lectronique</h4>\n\n<div class=\"row\">\n<div class=\"pull-right col-md-4\"><figure><img src=\"https://www.agr.gc.ca/resources/prod/img/water-eau/wells_grndwtr_photo11b.jpg\" alt=\"Un capteur de pression \u00e9lectronique\"><br><figcaption><i>Capteur de pression \u00e9lectronique</i> </figcaption></figure>\n</div>\n\n<div class=\"mrgn-lft-md mrgn-rght-md\">\n<p>Les capteurs de pression \u00e9lectronique dot\u00e9s de capacit\u00e9s d'enregistrement de donn\u00e9es peuvent \u00eatre install\u00e9s dans un puits pour enregistrer et stocker les donn\u00e9es sur le niveau d'eau. Ces donn\u00e9es peuvent ensuite \u00eatre t\u00e9l\u00e9charg\u00e9es et affich\u00e9es p\u00e9riodiquement sur un \u00e9cran d'ordinateur pour \u00e9tudier les donn\u00e9es ainsi que les tendances potentielles du niveau d'eau. </p>\n\n<p>Ces dispositifs mesurent les niveaux d'eau sous forme d'affichage de la pression, comme la hauteur de l'eau au-dessus du dispositif. Ainsi, au moment de l'installation, la profondeur du dispositif relative au niveau du sol ou \u00e0 la partie sup\u00e9rieure du tubage du puits devrait \u00eatre mesur\u00e9e. Toutefois, ces dispositifs peuvent ne pas compenser les changements barom\u00e9triques et, par cons\u00e9quent, les niveaux d'eau enregistr\u00e9s doivent \u00eatre corrig\u00e9s en se procurant les donn\u00e9es barom\u00e9triques locales provenant d'une station m\u00e9t\u00e9orologique locale ou en installant un capteur de pression qui mesure et enregistre les changements de pression atmosph\u00e9rique.</p>\n</div>\n</div>\n</section>\n</section>\n</section>\n\n\n\n<section>\n<h2 id=\"a2\">Surveillance du rendement du puits</h2>\n\n<p>La surveillance du rendement du puits est effectu\u00e9e pour \u00e9valuer l'efficacit\u00e9 du puits et pour aider \u00e0 d\u00e9terminer tout probl\u00e8me potentiel. Les syst\u00e8mes du puits, de la pompe et de l'aquif\u00e8re sont reli\u00e9s entre eux; par cons\u00e9quent, il est souvent difficile de d\u00e9terminer la source du probl\u00e8me lorsque le rendement du puits commence \u00e0 diminuer.</p>\n\n<p>La diminution du rendement du puits pourrait \u00eatre le r\u00e9sultat d'une pompe inefficace, d'une obturation de l'aire d'alimentation du puits ou d'une r\u00e9duction de la production provenant de l'aquif\u00e8re. Pour aider \u00e0 d\u00e9terminer l'apparition ou la cause des probl\u00e8mes de rendement, des essais connexes peuvent \u00eatre men\u00e9s p\u00e9riodiquement pour d\u00e9terminer s'il y a eu des changements dans le rendement du puits, dans le rabattement (qui correspond \u00e0 la diff\u00e9rence entre le niveau naturel initial et le niveau de pompage \u00e0 un intervalle de temps pr\u00e9cis) ou dans la production globale du puits \u00e0 long terme. Les r\u00e9sultats de ces essais sont ensuite compar\u00e9s aux donn\u00e9es de r\u00e9f\u00e9rence enregistr\u00e9es lorsque le puits a \u00e9t\u00e9 install\u00e9 pour la premi\u00e8re fois. Si ces donn\u00e9es de r\u00e9f\u00e9rence ne sont pas disponibles, des essais p\u00e9riodiques devraient commencer imm\u00e9diatement pour rassembler des donn\u00e9es aux fins de comparaison future.</p>\n\n<section>\n<h3>Essais relatifs au rendement du puits</h3>\n\n<p>Les essais de pompe fourniront des donn\u00e9es fiables uniquement s'ils sont effectu\u00e9s de mani\u00e8re syst\u00e9matique et s'ils enregistrent pr\u00e9cis\u00e9ment les mesures li\u00e9es au temps, au taux de d\u00e9bit et au rabattement. La dur\u00e9e d'un essai de pompe d\u00e9pendra g\u00e9n\u00e9ralement du type d'essai effectu\u00e9, du type d'aquif\u00e8re, des ressources disponibles et de toute limitation li\u00e9e au site.</p>\n\n<p>Avant de mener un essai de pompage, les \u00e9l\u00e9ments suivants devraient \u00eatre surveill\u00e9s\u00a0:</p>\n\n<ul>\n<li>le rabattement maximum disponible</li>\n<li>le ou les taux de d\u00e9bit et la meilleure fa\u00e7on de proc\u00e9der aux mesures</li>\n<li>la meilleure m\u00e9thode permettant de mesurer avec pr\u00e9cision les niveaux d'eau et les intervalles de temps </li>\n<li>la dur\u00e9e appropri\u00e9e de l'essai de pompage</li>\n<li>d\u00e9connecter la pompe du r\u00e9servoir de stockage sous pression et les syst\u00e8mes de traitement</li>\n<li>s'assurer que l'eau est d\u00e9vers\u00e9e \u00e0 une distance s\u00e9curitaire pour \u00e9viter la remise en circulation</li>\n<li>les effets potentiels d'interf\u00e9rence, tels que les plans d'eau de surface \u00e0 proximit\u00e9, les limites de l'aquif\u00e8re et d'autres puits de pompage</li>\n</ul>\n\n<p>Les principaux essais de rendement du puits sont l'essai de pompage par paliers encha\u00een\u00e9s et un essai de d\u00e9bit sp\u00e9cifique.</p>\n\n<section>\n<h4>Essai de pompage par paliers</h4>\n\n<p>Ce type d'essai est souvent utilis\u00e9 pour \u00e9valuer le rendement d'un puits. Dans ce cas, le puits est pomp\u00e9 \u00e0 des d\u00e9bits de pompage de plus en plus \u00e9lev\u00e9s, et le rabattement total \u00e0 chaque taux est enregistr\u00e9. Habituellement, trois \u00e0 cinq paliers de pompage sont effectu\u00e9s. L'intervalle de temps pour chaque palier est le m\u00eame, et le taux de d\u00e9bit \u00e0 chaque palier doit rester constant. L'installation d'une valve est n\u00e9cessaire pour faire varier le taux de d\u00e9bit, et une m\u00e9thode appropri\u00e9e permettant de mesurer le d\u00e9bit serait n\u00e9cessaire, telle qu'un d\u00e9bitm\u00e8tre ou un seau \u00e9talonn\u00e9.</p>\n\n<p>\u00c0 partir des r\u00e9sultats de ces essais, l'efficacit\u00e9 du puits, le rabattement et le d\u00e9bit sp\u00e9cifique peuvent \u00eatre d\u00e9termin\u00e9s \u00e0 un d\u00e9bit de pompage donn\u00e9.</p>\n\n<p>Puisque cet essai implique le pompage du puits \u00e0 divers taux de d\u00e9bit, il se peut que cela ne soit pas toujours possible pour un propri\u00e9taire de puits individuel; ainsi, l'essai sur le d\u00e9bit sp\u00e9cifique serait plus pratique d'une mani\u00e8re g\u00e9n\u00e9rale.</p>\n</section>\n\n<section>\n<h4>Essai de d\u00e9bit sp\u00e9cifique</h4>\n\n<p>Le d\u00e9bit sp\u00e9cifique est une \u00e9valuation du rendement du puits et est d\u00e9fini comme le rendement du puits par rabattement unitaire (gallons imp\u00e9riaux par minute/pied [gipm/pi.] de rabattement). Cela se traduit par le volume li\u00e9 \u00e0 la diminution du niveau d'eau dans un puits \u00e0 un d\u00e9bit de pompage d\u00e9termin\u00e9, pendant un intervalle de temps pr\u00e9cis.</p>\n\n<p>Une mesure g\u00e9n\u00e9rale du d\u00e9bit sp\u00e9cifique peut \u00eatre calcul\u00e9e \u00e0 l'aide des niveaux d'eau maximums et minimums (naturel et de pompage) recueillis pendant un intervalle de temps d\u00e9sign\u00e9. Aux fins de comparaisons futures, ces niveaux d'eau devraient \u00eatre recueillis pendant des intervalles de temps semblables avec le m\u00eame d\u00e9bit de pompage.</p>\n\n<p>On peut mesurer plus pr\u00e9cis\u00e9ment le d\u00e9bit sp\u00e9cifique en r\u00e9alisant un essai de pompe pour d\u00e9terminer tout changement dans la capacit\u00e9 du puits. Ces essais devraient \u00eatre men\u00e9s au moins deux fois par ann\u00e9e. Lorsqu'ils sont men\u00e9s \u00e0 des saisons diff\u00e9rentes, ils peuvent \u00e9galement r\u00e9v\u00e9ler si des fluctuations saisonni\u00e8res ont eu lieu dans le d\u00e9bit sp\u00e9cifique du puits.</p>\n\n<p>Les essais de pompe visant \u00e0 mesurer le d\u00e9bit sp\u00e9cifique et le rendement global du puits devraient \u00e9galement \u00eatre men\u00e9s avant toute activit\u00e9 pr\u00e9vue de d\u00e9veloppement ou d'exploration de l'eau souterraine dans votre zone. Cela inclut de nouveaux d\u00e9veloppements commerciaux, le d\u00e9veloppement de puits d'irrigation et une activit\u00e9 de forage par l'industrie p\u00e9troli\u00e8re.</p>\n\n<p>Pour calculer le d\u00e9bit sp\u00e9cifique de votre puits d'eau, suivez ces \u00e9tapes\u00a0:</p>\n\n<ol>\n<li>Laisser le niveau d'eau de votre puits retrouver son point le plus haut. La meilleure fa\u00e7on d'y parvenir est de fermer la pompe le soir et d'effectuer l'analyse t\u00f4t le matin.</li>\n<li>Le matin, mesurer le niveau d'eau dans le puits pour vous assurer qu'il s'est stabilis\u00e9 et qu'il ne s'\u00e9l\u00e8ve pas dans le tubage.</li>\n<li>D\u00e9marrer la pompe.</li>\n<li>Noter le niveau d'eau \u00e0 des intervalles de cinq minutes.</li>\n<li>Mesurer le d\u00e9bit de pompage (taux de d\u00e9bit) au d\u00e9but et vers la fin de l'essai.</li>\n<li>Effectuer l'essai pendant une dur\u00e9e d\u00e9termin\u00e9e (30\u00a0minutes ou une heure).</li>\n</ol>\n\n<section>\n<h5>Calcul du d\u00e9bit sp\u00e9cifique</h5>\n\n<p>Compte rendu\u00a0:</p>\n\n<ol>\n<li>D\u00e9bit de pompage.</li>\n<li>Niveau naturel (sans pompage) au d\u00e9but de l'essai.</li>\n<li>Niveau de pompage \u00e0 la fin de l'essai.</li>\n<li>Dur\u00e9e de l'essai.</li>\n</ol>\n\n<div class=\"row\">\n<div class=\"col-md-2\">\n<p>Calcul\u00a0:</p>\n</div>\n\n<div class=\"col-md-10\">\n<p>D\u00e9bit de pompage en (gallons imp\u00e9riaux par minute) \u00f7 Niveau de pompage\u00a0- Niveau naturel (en pied)</p>\n</div>\n</div>\n\n<p>Voir l'exemple ci-dessous\u00a0:</p>\n\n<figure class=\"mrgn-lft-0\">\n<img src=\"https://www.agr.gc.ca/resources/prod/img/water-eau/wells_grndwtr_fig4-fra.jpg\" alt=\"La description de cette image suit.\">\n<details>\n<summary>Description de l'image ci-dessus.</summary>\n<p>Figure portant sur le calcul de la capacit\u00e9 sp\u00e9cifique. Cette derni\u00e8re \u00e9quivaut au rendement du puits divis\u00e9 par le soutirage. On \u00e9tablit \u00e0 15 pi la diff\u00e9rence entre le point de mesure, au-dessus de la surface du puits, et le niveau de l'eau en \u00e9tat d'\u00e9quilibre. Le soutirage \u00e9quivaut \u00e0 la diff\u00e9rence entre le niveau de pompage de l'eau et le niveau de l'eau en \u00e9tat d'\u00e9quilibre, dont la mesure est \u00e9tablie \u00e0 25\u00a0pieds. Le d\u00e9bit de pompage mesur\u00e9 est de 50\u00a0gallons imp\u00e9riaux par minute, de sorte que la capacit\u00e9 sp\u00e9cifique se chiffre \u00e0 50\u00f7(25-15)=5 gallons imp\u00e9riaux par minute par pied.</p>\n</details>\n</figure>\n\n</section>\n</section>\n</section>\n</section>\n\n\n\n<section>\n<h2 id=\"a3\">Surveillance de la qualit\u00e9 de l'eau</h2>\n\n<p>\tUne surveillance r\u00e9guli\u00e8re devrait \u00eatre men\u00e9e pour veiller \u00e0 ce que la r\u00e9serve du puits d'eau soit s\u00e9curitaire et saine. L'eau souterraine contient des constituants chimiques naturels qui sont d\u00e9riv\u00e9s des mati\u00e8res du sol et des roches \u00e0 travers lesquelles l'eau passe. Bien qu'ils ne soient g\u00e9n\u00e9ralement pas dangereux pour la sant\u00e9 humaine, ces constituants chimiques peuvent parfois \u00eatre compos\u00e9s de param\u00e8tres potentiellement nocifs comme l'arsenic, le s\u00e9l\u00e9nium, le bore ou le radon, qui peuvent causer des probl\u00e8mes pour la sant\u00e9 selon la concentration pr\u00e9sente.</p>\n\n<p>En dehors des constituants chimiques naturels, l'eau souterraine peut \u00eatre contamin\u00e9e par les activit\u00e9s agricoles et humaines effectu\u00e9es \u00e0 proximit\u00e9, telles que le stockage inappropri\u00e9 des d\u00e9chets ou des produits chimiques agricoles, l'entreposage du fumier animal, les syst\u00e8mes septiques mal entretenus, les r\u00e9servoirs de stockage souterrains qui fuient et les d\u00e9versements accidentels.</p>\n\n<p>Il est essentiel de comprendre et de d\u00e9terminer le plus t\u00f4t possible les probl\u00e8mes potentiels pour pr\u00e9server une r\u00e9serve d'eau souterraine. Un propri\u00e9taire de puits devrait analyser la qualit\u00e9 de l'eau lorsque le puits est construit, puis au moins une fois par ann\u00e9e afin de d\u00e9celer toute contamination microbiologique et tout param\u00e8tre pr\u00e9occupant concernant la qualit\u00e9 de l'eau d\u00e9termin\u00e9 dans l'analyse originale.</p>\n\n<p>Une surveillance suppl\u00e9mentaire de la qualit\u00e9 de l'eau devrait \u00eatre envisag\u00e9e si un changement dans l'activit\u00e9 d'utilisation des terres \u00e0 proximit\u00e9 s'est produit et en cas d'inondation du puits ou d'un d\u00e9versement accidentel dans les environs du puits. De m\u00eame, un changement dans la couleur, le go\u00fbt ou l'odeur de l'eau peut \u00e9galement indiquer une modification dans les propri\u00e9t\u00e9s chimiques ou la qualit\u00e9 bact\u00e9riologique de l'eau.</p>\n</section>\n\n<section>\n<h2 id=\"a4\">Liste de v\u00e9rification de la surveillance</h2>\n\n<p>Pour faciliter une approche syst\u00e9matique relative \u00e0 la surveillance, une liste de v\u00e9rification concernant la surveillance et l'entretien du puits peut \u00eatre \u00e9labor\u00e9e. De nombreux points peuvent figurer sur une liste de v\u00e9rification comme cela est indiqu\u00e9 ci-dessous, et un propri\u00e9taire de puits peut les adapter \u00e0 son cas particulier et ajuster les intervalles de surveillance en cons\u00e9quence. Voici quelques exemples de points pouvant figurer sur une liste de v\u00e9rification concernant la surveillance et l'entretien\u00a0:</p>\n\n<ol class=\"lst-upr-alph\">\n <li>Inspection physique g\u00e9n\u00e9rale \n  <ul>\n   <li>S'assurer que le couvercle du puits est s\u00e9curis\u00e9 et que les \u00e9vents ne sont pas obtur\u00e9s et qu'ils sont dot\u00e9s d'un filtre pour emp\u00eacher les organismes nuisibles et les insectes d'entrer dans le puits.</li>\n   <li>S'assurer que le dispositif d'\u00e9tanch\u00e9it\u00e9 du puits autour du tubage est en place et \u00e9tanche \u00e0 l'eau.</li>\n   <li>Noter tout changement dans la turbidit\u00e9, le go\u00fbt, l'odeur et la couleur de l'eau.</li>\n   <li>Veiller \u00e0 ce que le sol ne s'affaisse pas autour du tubage pour \u00e9viter que l'eau de surface ne s'accumule.</li>\n   <li>Inspecter la condition ext\u00e9rieure et int\u00e9rieure du tubage du puits.</li>\n   <li>V\u00e9rifier si d'autres puits de pompage pouvant causer des effets d'interf\u00e9rence sont pr\u00e9sents dans la zone.</li>\n   <li>V\u00e9rifier le fonctionnement du r\u00e9servoir sous pression et du syst\u00e8me de traitement de l'eau.</li>\n   <li>Consigner la date et l'heure de l'inspection et toute observation.</li>\n  </ul>\n </li>\n <li>Surveillance \n  <ul>\n   <li>Noter la date et l'heure, tout changement dans le niveau naturel, le niveau et le d\u00e9bit de pompage.</li>\n   <li>Recueillir et enregistrer des donn\u00e9es op\u00e9rationnelles (heures de pompage, taux de d\u00e9bit).</li>\n   <li>Noter tout changement dans la tension de la pompe d'alimentation et dans les lectures de l'intensit\u00e9.</li>\n   <li>Effectuer un essai de pompage du puits pour en mesurer le d\u00e9bit sp\u00e9cifique.</li>\n   <li>Tester l'eau pour d\u00e9celer des bact\u00e9ries au moins deux \u00e0 quatre fois par ann\u00e9e.</li>\n   <li>Analyser tout param\u00e8tre pr\u00e9occupant concernant la qualit\u00e9 de l'eau, comme le nitrate, le chlorure, le sodium, le fer et le mangan\u00e8se.</li>\n   <li>R\u00e9aliser un essai pour d\u00e9celer d'autres produits chimiques si vous avez des inqui\u00e9tudes au sujet de d\u00e9versements de carburant, etc.</li>\n   <li>Veiller \u00e0 ce que les dispositifs de pr\u00e9vention du refoulement soient en place et qu'ils fonctionnent.</li>\n  </ul>\n </li>\n <li>Protection contre la contamination \n  <ul>\n   <li>Maintenir une zone tampon gazonn\u00e9e de trois m autour du puits.</li>\n   <li>S'assurer que les sources potentielles de contamination sont situ\u00e9es en contrebas du puits.</li>\n   <li>\u00c9viter d'appliquer des produits chimiques (pesticides, engrais) autour du puits.</li>\n   <li>Localiser et obturer tout puits abandonn\u00e9 ou forage d'essai situ\u00e9s \u00e0 proximit\u00e9.</li>\n  </ul>\n </li>\n</ol>\n\n<p>Lorsqu'un programme de surveillance pr\u00e9vue est en place depuis un certain temps, des donn\u00e9es suffisantes devraient \u00eatre disponibles pour \u00e9tablir un intervalle de r\u00e9paration ou de remplacement convenable pour les composants dans le puits et le syst\u00e8me de distribution, et pour \u00e9laborer un calendrier de traitement d'entretien pr\u00e9ventif.</p>\n</section>\n\r\n    "
    }
}