{
    "dcr_id": "1373914681418",
    "title": {
        "en": "Saint-Hyacinthe Research and Development Centre's Industrial Program: Credit Application",
        "fr": "Programme industriel du Centre de recherche et de d\u00e9veloppement \u00e0 Saint-Hyacinthe : Demande de cr\u00e9dit"
    },
    "modified": "2020-07-15",
    "issued": "2020-07-15",
    "templatetype": "content page 1 column",
    "page_type": "0",
    "node_id": "1594232085807",
    "dc_date_created": "2020-07-15",
    "managing_branch": "PAB",
    "parent_node_id": "",
    "short_title": "",
    "exturl": "",
    "teamsite_location": {
        "en": "/default/main/AAFC-AAC/Internet-Internet/Group-Ensemble/ProgServ-ProgServ/WORKAREA/ProgServ-ProgServ/templatedata/comm-comm/gene-gene/data/07/st-hy_ip-pi_credit-app_1373914681418_en",
        "fr": "/default/main/AAFC-AAC/Internet-Internet/Group-Ensemble/ProgServ-ProgServ/WORKAREA/ProgServ-ProgServ/templatedata/comm-comm/gene-gene/data/07/st-hy_ip-pi_credit-app_1373914681418_fr"
    },
    "type_name": "comm-comm/gene-gene",
    "has_dcr_id": true,
    "label": {
        "en": "Saint-Hyacinthe Research and Development Centre's Industrial Program: Credit Application",
        "fr": "Programme industriel du Centre de recherche et de d\u00e9veloppement \u00e0 Saint-Hyacinthe : Demande de cr\u00e9dit"
    },
    "breadcrumb": {
        "en": "Saint-Hyacinthe Research and Development Centre's Industrial Program: Credit Application",
        "fr": "Programme industriel du Centre de recherche et de d\u00e9veloppement \u00e0 Saint-Hyacinthe : Demande de cr\u00e9dit"
    },
    "layout_name": "content page 1 column",
    "lang": "en",
    "refaire": false,
    "meta": {
        "viewport": {
            "en": "width=device-width,initial-scale=1",
            "fr": "width=device-width, initial-scale=1"
        },
        "issued": {
            "en": "2020-07-15",
            "fr": "2020-07-15"
        },
        "modified": {
            "en": "2020-07-15",
            "fr": "2020-07-15"
        },
        "format": {
            "en": "text/html",
            "fr": "text/html"
        },
        "title": {
            "en": "Saint-Hyacinthe Research and Development Centre's Industrial Program: Credit Application",
            "fr": "Programme industriel du Centre de recherche et de d\u00e9veloppement \u00e0 Saint-Hyacinthe : Demande de cr\u00e9dit"
        },
        "subject": {
            "en": "rural communities;architectural heritage;soil assessement",
            "fr": "bl\u00e9;syst\u00e8mes de culture;communaut\u00e9 isol\u00e9e"
        },
        "dcterms:subject": {
            "en": "architectural heritage;architecture;statistics",
            "fr": "m\u00e9dicament;recherche;communaut\u00e9 isol\u00e9e"
        },
        "description": {
            "en": "IP-PI Agriculture and Agri-Food Canada Saint-Hyacinthe Research and Development Centre's Industrial Program credit-app-dem Saint-Hyacinthe Research and Development Centre's Industrial Program: Credit Application. If you purchase goods or services on credit from other government departments. Bank. (If a proprietorship or partnership, please provide financial institution information for each of the owner(s) partners). Financial Institution name.",
            "fr": "IP-PI Programme industriel du Centre de recherche et de d\u00e9veloppement d'Agriculture et Agroalimentaire Canada \u00e0 Saint-Hyacinthe Demande de cr\u00e9dit. \u00c9tranger. Genre d'industrie. Si vous achetez des biens ou des services \u00e0 cr\u00e9dit aupr\u00e8s d'autres minist\u00e8res f\u00e9d\u00e9raux. Num\u00e9ro de t\u00e9l\u00e9phone."
        },
        "language": {
            "en": "eng",
            "fr": "fra"
        },
        "keywords": {
            "en": "Charity;Casavant",
            "fr": "Imposition;boulevard Casavant"
        },
        "audience": {
            "en": "gcaudience",
            "fr": "gcaudience"
        },
        "type": {
            "en": "media release",
            "fr": "politique"
        },
        "creator": {
            "en": "Agriculture and Agri-Food Canada;Government of Canada",
            "fr": "Agriculture et Agroalimentaire Canada;Gouvernement du Canada"
        },
        "spatial": {
            "en": "gcregions",
            "fr": "gcregions"
        },
        "service": {
            "en": "AAFC-AAC",
            "fr": "AAFC-AAC"
        },
        "accessRights": {
            "en": "2",
            "fr": "2"
        },
        "legalName": {
            "en": "agriculture_and_agri_food_canada",
            "fr": "agriculture_et_agroalimentaire_canada"
        },
        "areaServed": {
            "en": "Canada",
            "fr": "Canada"
        }
    },
    "h1": {
        "en": "Saint-Hyacinthe Research and Development Centre's Industrial Program: Credit Application",
        "fr": "Programme industriel du Centre de recherche et de d\u00e9veloppement \u00e0 Saint-Hyacinthe : Demande de cr\u00e9dit"
    },
    "js": {
        "en": "",
        "fr": ""
    },
    "mode_html": "no_editor_full",
    "body": {
        "en": "\r\n    <div>\n<p>You can use either the Web version or the <a href=\"https://www.agr.gc.ca/resources/prod/doc/rdc/A5119-2016-E.pdf\">PDF version (890\u00a0KB)</a> of the form.</p>\n\n \n\n<p>Please complete, print and send the form by mail.</p>\n</div>\n\n<p>Please mail to:</p>\n\n<p>Saint-Hyacinthe Research and Development Centre<br>\nAgriculture and Agri-Food Canada<br>\n3600 Casavant Boulevard West<br>\nSaint-Hyacinthe, Quebec<br>\nJ2S 8E3</p>\n\n<form id=\"print\" action=\"\">\n<p><strong>Protected once completed</strong></p>\n\n<p><strong>(When the Credit Application form AAFC / AAC5119 is completed, form AAFC/ AAC5132 Customer Application is not required)</strong></p>\n\n<h2>For Contract Coordinator Use Only</h2>\n\n<p><label for=\"mainArea\">Centre</label><br>\n\n<select id=\"mainArea\">\n<option value=\"Lethbridge Research and Development Centre\" selected>Lethbridge Research and Development Centre</option>\n  <option value=\"Lacombe Research and Development Centre\">Lacombe Research and Development Centre</option>\n   <option value=\"Saskatoon Research and Development Centre\">Saskatoon Research and Development Centre</option>\n   <option value=\"Swift Current Research and Development Centre\">Swift Current Research and Development Centre</option>\n <option value=\"Brandon Research and Development Centre\">Brandon Research and Development Centre</option>\n   <option value=\"Morden Research and Development Centre\">Morden Research and Development Centre</option>\n    <option value=\"Harrow Research and Development Centre\">Harrow Research and Development Centre</option>\n    <option value=\"London Research and Development Centre\">London Research and Development Centre</option>\n    <option value=\"Ottawa Research and Development Centre\">Ottawa Research and Development Centre</option>\n    <option value=\"Guelph Research and Development Centre\">Guelph Research and Development Centre</option>\n    <option value=\"Saint-Hyacinthe Research and Development Centre\">Saint-Hyacinthe Research and Development Centre</option>\n    <option value=\"Saint-Jean-sur-Richelieu Research and Development Centre\">Saint-Jean-sur-Richelieu Research and Development Centre</option>\n   <option value=\"Sherbrooke Research and Development Centre\">Sherbrooke Research and Development Centre</option>\n    <option value=\"Quebec Research and Development Centre\">Quebec Research and Development Centre</option>   \n    <option value=\"Summerland Research and Development Centre\">Summerland Research and Development Centre</option>\n    <option value=\"Agassiz  Research and Development Centre\">Agassiz Research and Development Centre</option> \n    <option value=\"Charlottetown Research and Development Centre\">Charlottetown Research and Development Centre</option>\n    <option value=\"St. John's Research and Development Centre\">St. John's Research and Development Centre</option>\n    <option value=\"Fredericton Research and Development Centre\">Fredericton Research and Development Centre</option>\n    <option value=\"Kentville Research and Development Centre\">Kentville Research and Development Centre</option>\n    <option value=\"Partnerships and Planning Directorate\">Partnerships and Planning Directorate</option>\n</select></p>\n\n<p><label for=\"mainTitle\">Title</label><br>\n<input id=\"mainTitle\" maxlength=\"40\" size=\"40\"></p>\n\n<p><label for=\"mainLast\">Contact family name</label><br>\n<input id=\"mainLast\" maxlength=\"40\" size=\"40\"></p>\n\n<p><label for=\"mainFirst\">Contact given name</label><br>\n<input id=\"mainFirst\" maxlength=\"40\" size=\"40\"></p>\n\n<p><label for=\"mainPhone\">Telephone number</label><br>\n<input id=\"mainPhone\" maxlength=\"12\" size=\"12\"></p>\n\n<p><label for=\"mainExt\">Extension</label><br>\n<input id=\"mainExt\" maxlength=\"6\" size=\"6\"></p>\n\n<fieldset>\n<legend>Type of application</legend>\n<input type=\"radio\" name=\"mainType\" value=\"First credit application\" title=\"First credit application\"> First credit application<br>\n<input type=\"radio\" name=\"mainType\" value=\"Increase credit limit\" title=\"Increase credit limit\"> Increase credit limit<br>\n<input type=\"radio\" name=\"mainType\" value=\"Reinstatement of credit\" title=\"Reinstatement of credit\"> Reinstatement of credit<br>\n<input type=\"radio\" name=\"mainType\" value=\"Other (please specify)\" title=\"Other (please specify)\"> <label for=\"mainOther\">Other (please specify)</label>\u00a0<input id=\"mainOther\" maxlength=\"40\" size=\"12\">\n</fieldset>\n\n<p><label for=\"mainCustNumb\">Provide Customer Number if applicable</label><br>\n<input id=\"mainCustNumb\" maxlength=\"12\" size=\"12\"></p>\n\n<p><label for=\"mainGoods\">Type of goods or services provided by Agriculture and Agri-Food Canada (AAFC)</label><br>\n<input id=\"mainGoods\" maxlength=\"12\" size=\"12\"></p>\n\n<p><label for=\"mainCred\">Credit limit requested</label><br>\n$<input id=\"mainCred\" maxlength=\"12\" size=\"12\"></p>\n\n<h2>Part A - Corporate/Individual Information</h2>\n\n<p><label for=\"partaName\">Legal name and operating as name:</label><br>\n<input id=\"partaName\" maxlength=\"40\" size=\"40\"></p>\n\n<h3>Head office address</h3>\n\n<p><label for=\"headAddr\">Address</label><br>\n<input id=\"headAddr\" maxlength=\"40\" size=\"40\"></p>\n\n<p><label for=\"headMunic\">Municipality (City, Town, etc.)</label><br>\n<input id=\"headMunic\" maxlength=\"20\" size=\"20\"></p>\n\n<p><label for=\"headPsc\">Province/State/Country</label><br>\n<input id=\"headPsc\" maxlength=\"20\" size=\"20\"></p>\n\n<p><label for=\"headPost\">Postal/ZIP code</label><br>\n<input id=\"headPost\" maxlength=\"6\" size=\"6\"></p>\n\n<p><label for=\"heatTel\">Telephone number</label><br>\n<input id=\"heatTel\" maxlength=\"12\" size=\"12\"></p>\n\n<p><label for=\"heatExt\">Extension</label><br>\n<input id=\"heatExt\" maxlength=\"6\" size=\"6\"></p>\n\n<p><label for=\"headFax\">Fax number</label><br>\n<input id=\"headFax\" maxlength=\"12\" size=\"12\"></p>\n\n<p><label for=\"hedWeb\">Web site</label><br>\n<input id=\"hedWeb\" maxlength=\"40\" size=\"40\"></p>\n\n<p><label for=\"headEmail\">E-mail address</label><br>\n<input id=\"headEmail\" maxlength=\"40\" size=\"40\"></p>\n\n<p><label for=\"headLast\">Family name of President or Director</label><br>\n<input id=\"headLast\" maxlength=\"40\" size=\"40\"></p>\n\n<p><label for=\"headFirst\">Given name of President or Director</label><br>\n<input id=\"headFirst\" maxlength=\"40\" size=\"40\"></p>\n\n<p><label for=\"headAcc\">Accounts payable contact family name/Given name/Title</label><br>\n<input id=\"headAcc\" maxlength=\"40\" size=\"40\"></p>\n\n<h3>Billing / Delivery address (if different from above)</h3>\n\n<p><label for=\"billAddr\">Address</label><br>\n<input id=\"billAddr\" maxlength=\"40\" size=\"40\"></p>\n\n<p><label for=\"billMunici\">Municipality (City, Town, etc.)</label><br>\n<input id=\"billMunici\" maxlength=\"20\" size=\"20\"></p>\n\n<p><label for=\"billProv\">Province/State/Country</label><br>\n<input id=\"billProv\" maxlength=\"20\" size=\"20\"></p>\n\n<p><label for=\"billPost\">Postal/ZIP code</label><br>\n<input id=\"billPost\" maxlength=\"6\" size=\"6\"></p>\n\n<p><label for=\"billTell\">Telephone number</label><br>\n<input id=\"billTell\" maxlength=\"12\" size=\"12\"></p>\n\n<p><label for=\"billExt\">Extension</label><br>\n<input id=\"billExt\" maxlength=\"6\" size=\"6\"></p>\n\n<p><label for=\"billFax\">Fax number</label><br>\n<input id=\"billFax\" maxlength=\"12\" size=\"12\"></p>\n\n<fieldset>\n<legend>Form of business organization</legend>\n<input type=\"checkbox\" name=\"bisCorp\" value=\"\" title=\"Business Corporation (Provincial)\">\u00a0Business Corporation (Provincial)<br>\n<input type=\"checkbox\" name=\"bisPart\" value=\"\" title=\"Partnership\">\u00a0Partnership<br>\n<input type=\"checkbox\" name=\"bisCoop\" value=\"\" title=\"Cooperative\">\u00a0Cooperative<br>\n<input type=\"checkbox\" name=\"bisChar\" value=\"\" title=\"Charity/Trust (attach details of funding)\">\u00a0Charity/Trust (attach details of funding)<br>\n<input type=\"checkbox\" name=\"bisFed\" value=\"\" title=\"Business Corporation (Federal)\">\u00a0Business Corporation (Federal)<br>\n<input type=\"checkbox\" name=\"bisLim\" value=\"\" title=\"Limited partnership\">\u00a0Limited partnership<br>\n<input type=\"checkbox\" name=\"bisSole\" value=\"\" title=\"Sole proprietorship\">\u00a0Sole proprietorship<br>\n<input type=\"checkbox\" name=\"bisReg\" value=\"\" title=\"Registration number\">\u00a0<label for=\"bisReg\">Registration number</label>\u00a0<input id=\"bisReg\" maxlength=\"20\" size=\"20\"><br>\n<input type=\"checkbox\" name=\"bisMem\" value=\"\" title=\"Business number\">\u00a0<label for=\"bisMem\">Business number</label>\u00a0<input id=\"bisMem\" maxlength=\"20\" size=\"20\"><br>\n<input type=\"checkbox\" name=\"bisOth\" value=\"\" title=\"Other (please specify)\">\u00a0<label for=\"bisOth\">Other (please specify)</label>\u00a0<input id=\"bisOth\" maxlength=\"20\" size=\"20\">\n</fieldset>\n<br>\n\n<p>Taxability: Indicate exemption numbers when applicable</p>\n<ul>\n\t<li><label for=\"govTax\">Goods and Services Tax (GST) / Harmonized Sales Tax (HST)</label>\u00a0<input id=\"govTax\" maxlength=\"10\" size=\"10\"></li>\n    <li><label for=\"provTax\">Provincial Sales Tax (PST)</label>\u00a0<input id=\"provTax\" maxlength=\"10\" size=\"10\"></li>\n</ul>\n\n<p><label for=\"numEmp\">Number of employees</label><br><input id=\"numEmp\" maxlength=\"10\" size=\"10\"></p>\n\n<fieldset>\n<legend>Ownership</legend>\n<input type=\"radio\" name=\"billType\" value=\"Canadian\" title=\"Canadian\">Canadian<br>\n<input type=\"radio\" name=\"billType\" value=\"Foreign\" title=\"Foreign\">Foreign\n</fieldset>\n\n<p><label for=\"typeIndus\">Type of industry</label><br>\n<input id=\"typeIndus\" maxlength=\"40\" size=\"40\"></p>\n\n<h3>If you purchase goods or services on credit from other government departments</h3>\n\n<p>(Please provide information on your credit status)</p>\n\n<fieldset>\n<p><label for=\"purchName\">Name of department</label><br>\n<input id=\"purchName\" maxlength=\"40\" size=\"40\"></p>\n\n<p><label for=\"purchAdd\">Address</label><br>\n<input id=\"purchAdd\" maxlength=\"40\" size=\"40\"></p>\n\n<p><label for=\"purchMuni\">Municipality (City, Town, etc.)</label><br>\n<input id=\"purchMuni\" maxlength=\"25\" size=\"25\"></p>\n\n<p><label for=\"purchProv\">Province/State/Country</label><br>\n<input id=\"purchProv\" maxlength=\"25\" size=\"25\"></p>\n\n<p><label for=\"purchPost\">Postal/ZIP code</label><br>\n<input id=\"purchPost\" maxlength=\"6\" size=\"6\"></p>\n\n<p><label for=\"purchTel\">Telephone number</label><br>\n<input id=\"purchTel\" maxlength=\"12\" size=\"12\"></p>\n\n<p><label for=\"purchExt\">Extension</label><br>\n<input id=\"purchExt\" maxlength=\"8\" size=\"8\"></p>\n\n<p><label for=\"purchFax\">Fax number</label><br>\n<input id=\"purchFax\" maxlength=\"12\" size=\"12\"></p>\n\n<p><label for=\"purchAcc\">Account number</label><br>\n<input id=\"purchAcc\" maxlength=\"20\" size=\"20\"></p>\n\n<p><label for=\"purchCred\">Credit Limit</label><br>\n$ <input id=\"purchCred\" maxlength=\"20\" size=\"20\"></p>\n\n<p><label for=\"purchCon\">Contact</label><br>\n<input id=\"purchCon\" maxlength=\"40\" size=\"40\"></p>\n</fieldset>\n\n<fieldset>\n<p><label for=\"purchName2\">Name of department</label><br>\n<input id=\"purchName2\" maxlength=\"40\" size=\"40\"></p>\n\n<p><label for=\"purchAdd2\">Address</label><br>\n<input id=\"purchAdd2\" maxlength=\"40\" size=\"40\"></p>\n\n<p><label for=\"purchMuni2\">Municipality (City, Town, etc.)</label><br>\n<input id=\"purchMuni2\" maxlength=\"25\" size=\"25\"></p>\n\n<p><label for=\"purchProv2\">Province/State/Country</label><br>\n<input id=\"purchProv2\" maxlength=\"25\" size=\"25\"></p>\n\n<p><label for=\"purchPost2\">Postal/ZIP code</label><br>\n<input id=\"purchPost2\" maxlength=\"6\" size=\"6\"></p>\n\n<p><label for=\"purchTel2\">Telephone number</label><br>\n<input id=\"purchTel2\" maxlength=\"12\" size=\"12\"></p>\n\n<p><label for=\"purchExt2\">Extension</label><br>\n<input id=\"purchExt2\" maxlength=\"8\" size=\"8\"></p>\n\n<p><label for=\"purchFax2\">Fax number</label><br>\n<input id=\"purchFax2\" maxlength=\"12\" size=\"12\"></p>\n\n<p><label for=\"purchAcc2\">Account number</label><br>\n<input id=\"purchAcc2\" maxlength=\"20\" size=\"20\"></p>\n\n<p><label for=\"purchCred2\">Credit Limit</label><br>\n$ <input id=\"purchCred2\" maxlength=\"20\" size=\"20\"></p>\n\n<p><label for=\"purchCon2\">Contact</label><br>\n<input id=\"purchCon2\" maxlength=\"40\" size=\"40\"></p>\n</fieldset>\n\n<fieldset>\n<p><label for=\"purchName3\">Name of department</label><br>\n<input id=\"purchName3\" maxlength=\"40\" size=\"40\"></p>\n\n<p><label for=\"purchAdd3\">Address</label><br>\n<input id=\"purchAdd3\" maxlength=\"40\" size=\"40\"></p>\n\n<p><label for=\"purchMuni3\">Municipality (City, Town, etc.)</label><br>\n<input id=\"purchMuni3\" maxlength=\"25\" size=\"25\"></p>\n\n<p><label for=\"purchProv3\">Province/State/Country</label><br>\n<input id=\"purchProv3\" maxlength=\"25\" size=\"25\"></p>\n\n<p><label for=\"purchPost3\">Postal/ZIP code</label><br>\n<input id=\"purchPost3\" maxlength=\"6\" size=\"6\"></p>\n\n<p><label for=\"purchTel3\">Telephone number</label><br>\n<input id=\"purchTel3\" maxlength=\"12\" size=\"12\"></p>\n\n<p><label for=\"purchExt3\">Extension</label><br>\n<input id=\"purchExt3\" maxlength=\"8\" size=\"8\"></p>\n\n<p><label for=\"purchFax3\">Fax number</label><br>\n<input id=\"purchFax3\" maxlength=\"12\" size=\"12\"></p>\n\n<p><label for=\"purchAcc3\">Account number</label><br>\n<input id=\"purchAcc3\" maxlength=\"20\" size=\"20\"></p>\n\n<p><label for=\"purchCred3\">Credit Limit</label><br>\n$ <input id=\"purchCred3\" maxlength=\"20\" size=\"20\"></p>\n\n<p><label for=\"purchCon3\">Contact</label><br>\n<input id=\"purchCon3\" maxlength=\"40\" size=\"40\"></p>\n</fieldset>\n\n<fieldset>\n<p><label for=\"purchName4\">Name of department</label><br>\n<input id=\"purchName4\" maxlength=\"40\" size=\"40\"></p>\n\n<p><label for=\"purchAdd4\">Address</label><br>\n<input id=\"purchAdd4\" maxlength=\"40\" size=\"40\"></p>\n\n<p><label for=\"purchMuni4\">Municipality (City, Town, etc.)</label><br>\n<input id=\"purchMuni4\" maxlength=\"25\" size=\"25\"></p>\n\n<p><label for=\"purchProv4\">Province/State/Country</label><br>\n<input id=\"purchProv4\" maxlength=\"25\" size=\"25\"></p>\n\n<p><label for=\"purchPost4\">Postal/ZIP code</label><br>\n<input id=\"purchPost4\" maxlength=\"6\" size=\"6\"></p>\n\n<p><label for=\"purchTel4\">Telephone number</label><br>\n<input id=\"purchTel4\" maxlength=\"12\" size=\"12\"></p>\n\n<p><label for=\"purchExt4\">Extension</label><br>\n<input id=\"purchExt4\" maxlength=\"8\" size=\"8\"></p>\n\n<p><label for=\"purchFax4\">Fax number</label><br>\n<input id=\"purchFax4\" maxlength=\"12\" size=\"12\"></p>\n\n<p><label for=\"purchAcc4\">Account number</label><br>\n<input id=\"purchAcc4\" maxlength=\"20\" size=\"20\"></p>\n\n<p><label for=\"purchCred4\">Credit Limit</label><br>\n$ <input id=\"purchCred4\" maxlength=\"20\" size=\"20\"></p>\n\n<p><label for=\"purchCon4\">Contact</label><br>\n<input id=\"purchCon4\" maxlength=\"40\" size=\"40\"></p>\n</fieldset>\n\n<h3>Part B - Additional Information for Credit Assessment</h3>\n\n<p><label for=\"infoBusi\">In business since</label><br>\n<input id=\"infoBusi\" maxlength=\"40\" size=\"40\"></p>\n\n<p><label for=\"infoYear\">Yearly sales</label><br>\n$ <input id=\"infoYear\" maxlength=\"30\" size=\"30\"></p>\n\n<p><label for=\"infoCon\">Contract amount</label><br>\n$ <input id=\"infoCon\" maxlength=\"20\" size=\"20\"></p>\n\n<p><label for=\"infoPay\">Terms of payment</label><br>\n<input id=\"infoPay\" maxlength=\"40\" size=\"40\"></p>\n\n<p><label for=\"infoFin\">Company Financial Institution name</label><br>\n<input id=\"infoFin\" maxlength=\"40\" size=\"40\"></p>\n\n<p><label for=\"infoTran\">Transit number</label><br>\n<input id=\"infoTran\" maxlength=\"20\" size=\"20\"></p>\n\n<p><label for=\"infoAcc\">Account number(s)</label><br>\n<input id=\"infoAcc\" maxlength=\"30\" size=\"30\"></p>\n\n<p><label for=\"infoAdd\">Address</label><br>\n<input id=\"infoAdd\" maxlength=\"40\" size=\"40\"></p>\n\n<p><label for=\"infoMuni\">Municipality (City, Town, etc.)</label><br>\n<input id=\"infoMuni\" maxlength=\"40\" size=\"40\"></p>\n\n<p><label for=\"infoProv\">Province/State/Country</label><br>\n<input id=\"infoProv\" maxlength=\"40\" size=\"40\"></p>\n\n<p><label for=\"infoZip\">Postal/ZIP code</label><br>\n<input id=\"infoZip\" maxlength=\"6\" size=\"6\"></p>\n\n<p><label for=\"infoTele\">Telephone number</label><br>\n<input id=\"infoTele\" maxlength=\"12\" size=\"12\"></p>\n\n<p><label for=\"infoExt\">Extension</label><br>\n<input id=\"infoExt\" maxlength=\"10\" size=\"10\"></p>\n\n<p><label for=\"infoFax\">Fax number</label><br>\n<input id=\"infoFax\" maxlength=\"12\" size=\"12\"></p>\n\n<p><label for=\"infoConFam\">Financial institution contact family name</label><br>\n<input id=\"infoConFam\" maxlength=\"40\" size=\"40\"></p>\n\n<p><label for=\"infoConGiv\">Financial institution contact given name</label><br>\n<input id=\"infoConGiv\" maxlength=\"40\" size=\"40\"></p>\n\n<p><label for=\"infoTitle\">Title</label><br>\n<input id=\"infoTitle\" maxlength=\"40\" size=\"40\"></p>\n\n<h3>Principal Owners</h3>\n\n<p>(Use separate sheet if required)</p>\n\n<fieldset>\n<p><label for=\"prinFam\">Contact family name</label><br>\n<input id=\"prinFam\" maxlength=\"40\" size=\"40\"></p>\n\n<p><label for=\"prinGiv\">Contact given name</label><br>\n<input id=\"prinGiv\" maxlength=\"40\" size=\"40\"></p>\n\n<p><label for=\"prinBirth\">Date of birth (YYYY-MM-DD)</label><br>\n<input id=\"prinBirth\" maxlength=\"10\" size=\"10\"></p>\n\n<p><label for=\"prinProf\">Profit share (%)</label><br>\n<input id=\"prinProf\" maxlength=\"10\" size=\"10\"></p>\n\n<p><label for=\"prinPos\">Position title</label><br>\n<input id=\"prinPos\" maxlength=\"40\" size=\"40\"></p>\n\n<p><label for=\"prinTel\">Telephone number</label>\n<br><input id=\"prinTel\" maxlength=\"12\" size=\"12\"></p>\n\n<p><label for=\"prinExt\">Extension</label><br>\n<input id=\"prinExt\" maxlength=\"10\" size=\"10\"></p>\n\n<p><label for=\"prinAdd\">Address</label><br>\n<input id=\"prinAdd\" maxlength=\"40\" size=\"40\"></p>\n\n<p><label for=\"prinMuni\">Municipality (City, Town, etc.)</label><br>\n<input id=\"prinMuni\" maxlength=\"40\" size=\"40\"></p>\n\n<p><label for=\"prinProv\">Province/State/Country</label><br>\n<input id=\"prinProv\" maxlength=\"40\" size=\"40\"></p>\n\n<p><label for=\"prinPost\">Postal/ZIP code</label><br>\n<input id=\"prinPost\" maxlength=\"40\" size=\"6\"></p>\n\n<p><label for=\"prinTele\">Telephone number</label><br>\n<input id=\"prinTele\" maxlength=\"12\" size=\"12\"></p>\n\n<p><label for=\"prinExte\">Extension</label><br>\n<input id=\"prinExte\" maxlength=\"10\" size=\"10\"></p>\n\n<p><label for=\"prinFax\">Fax number</label><br>\n<input id=\"prinFax\" maxlength=\"12\" size=\"12\"></p>\n</fieldset>\n\n<fieldset>\n<p><label for=\"prinFam2\">Contact family name</label><br>\n<input id=\"prinFam2\" maxlength=\"40\" size=\"40\"></p>\n\n<p><label for=\"prinGiv2\">Contact given name</label><br>\n<input id=\"prinGiv2\" maxlength=\"40\" size=\"40\"></p>\n\n<p><label for=\"prinBirth2\">Date of birth (YYYY-MM-DD)</label><br>\n<input id=\"prinBirth2\" maxlength=\"10\" size=\"10\"></p>\n\n<p><label for=\"prinProf2\">Profit share (%)</label><br>\n<input id=\"prinProf2\" maxlength=\"10\" size=\"10\"></p>\n\n<p><label for=\"prinPos2\">Position title</label><br>\n<input id=\"prinPos2\" maxlength=\"40\" size=\"40\"></p>\n<p><label for=\"prinTel2\">Telephone number</label><br>\n<input id=\"prinTel2\" maxlength=\"12\" size=\"12\"></p>\n\n<p><label for=\"prinExt2\">Extension</label><br>\n<input id=\"prinExt2\" maxlength=\"10\" size=\"10\"></p>\n\n<p><label for=\"prinAdd2\">Address</label><br>\n<input id=\"prinAdd2\" maxlength=\"40\" size=\"40\"></p>\n\n<p><label for=\"prinMuni2\">Municipality (City, Town, etc.)</label><br>\n<input id=\"prinMuni2\" maxlength=\"40\" size=\"40\"></p>\n\n<p><label for=\"prinProv2\">Province/State/Country</label><br>\n<input id=\"prinProv2\" maxlength=\"40\" size=\"40\"></p>\n\n<p><label for=\"prinPost2\">Postal/ZIP code</label><br>\n<input id=\"prinPost2\" maxlength=\"40\" size=\"6\"></p>\n\n<p><label for=\"prinTele2\">Telephone number</label><br>\n<input id=\"prinTele2\" maxlength=\"12\" size=\"12\"></p>\n\n<p><label for=\"prinExte2\">Extension</label><br>\n<input id=\"prinExte2\" maxlength=\"10\" size=\"10\"></p>\n\n<p><label for=\"prinFax2\">Fax number</label><br>\n<input id=\"prinFax2\" maxlength=\"12\" size=\"12\"></p>\n</fieldset>\n\n<fieldset>\n<p><label for=\"prinFam3\">Contact family name</label><br>\n<input id=\"prinFam3\" maxlength=\"40\" size=\"40\"></p>\n\n<p><label for=\"prinGiv3\">Contact given name</label><br>\n<input id=\"prinGiv3\" maxlength=\"40\" size=\"40\"></p>\n\n<p><label for=\"prinBirth3\">Date of birth (YYYY-MM-DD)</label><br>\n<input id=\"prinBirth3\" maxlength=\"10\" size=\"10\"></p>\n\n<p><label for=\"prinProf3\">Profit share (%)</label><br>\n<input id=\"prinProf3\" maxlength=\"10\" size=\"10\"></p>\n\n<p><label for=\"prinPos3\">Position title</label><br>\n<input id=\"prinPos3\" maxlength=\"40\" size=\"40\"></p>\n\n<p><label for=\"prinTel3\">Telephone number</label><br>\n<input id=\"prinTel3\" maxlength=\"12\" size=\"12\"></p>\n\n<p><label for=\"prinExt3\">Extension</label><br>\n<input id=\"prinExt3\" maxlength=\"10\" size=\"10\"></p>\n\n<p><label for=\"prinAdd3\">Address</label><br>\n<input id=\"prinAdd3\" maxlength=\"40\" size=\"40\"></p>\n\n<p><label for=\"prinMuni3\">Municipality (City, Town, etc.)</label><br>\n<input id=\"prinMuni3\" maxlength=\"40\" size=\"40\"></p>\n\n<p><label for=\"prinProv3\">Province/State/Country</label><br>\n<input id=\"prinProv3\" maxlength=\"40\" size=\"40\"></p>\n\n<p><label for=\"prinPost3\">Postal/ZIP code</label><br>\n<input id=\"prinPost3\" maxlength=\"40\" size=\"6\"></p>\n\n<p><label for=\"prinTele3\">Telephone number</label><br>\n<input id=\"prinTele3\" maxlength=\"12\" size=\"12\"></p>\n\n<p><label for=\"prinExte3\">Extension</label><br>\n<input id=\"prinExte3\" maxlength=\"10\" size=\"10\"></p>\n\n<p><label for=\"prinFax3\">Fax number</label><br>\n<input id=\"prinFax3\" maxlength=\"12\" size=\"12\"></p>\n</fieldset>\n\n<fieldset>\n<p><label for=\"prinFam4\">Contact family name</label><br>\n<input id=\"prinFam4\" maxlength=\"40\" size=\"40\"></p>\n\n<p><label for=\"prinGiv4\">Contact given name</label><br>\n<input id=\"prinGiv4\" maxlength=\"40\" size=\"40\"></p>\n\n<p><label for=\"prinBirth4\">Date of birth (YYYY-MM-DD)</label><br>\n<input id=\"prinBirth4\" maxlength=\"10\" size=\"10\"></p>\n\n<p><label for=\"prinProf4\">Profit share (%)</label><br>\n<input id=\"prinProf4\" maxlength=\"10\" size=\"10\"></p>\n\n<p><label for=\"prinPos4\">Position title</label><br>\n<input id=\"prinPos4\" maxlength=\"40\" size=\"40\"></p>\n\n<p><label for=\"prinTel4\">Telephone number</label><br>\n<input id=\"prinTel4\" maxlength=\"12\" size=\"12\"></p>\n\n<p><label for=\"prinExt4\">Extension</label><br>\n<input id=\"prinExt4\" maxlength=\"10\" size=\"10\"></p>\n\n<p><label for=\"prinAdd4\">Address</label><br>\n<input id=\"prinAdd4\" maxlength=\"40\" size=\"40\"></p>\n\n<p><label for=\"prinMuni4\">Municipality (City, Town, etc.)</label><br>\n<input id=\"prinMuni4\" maxlength=\"40\" size=\"40\"></p>\n\n<p><label for=\"prinProv4\">Province/State/Country</label><br>\n<input id=\"prinProv4\" maxlength=\"40\" size=\"40\"></p>\n\n<p><label for=\"prinPost4\">Postal/ZIP code</label><br>\n<input id=\"prinPost4\" maxlength=\"40\" size=\"6\"></p>\n\n<p><label for=\"prinTele4\">Telephone number</label><br>\n<input id=\"prinTele4\" maxlength=\"12\" size=\"12\"></p>\n\n<p><label for=\"prinExte4\">Extension</label><br>\n<input id=\"prinExte4\" maxlength=\"10\" size=\"10\"></p>\n\n<p><label for=\"prinFax4\">Fax number</label><br>\n<input id=\"prinFax4\" maxlength=\"12\" size=\"12\"></p>\n</fieldset>\n\n<fieldset>\n<p><label for=\"prinFam5\">Contact family name</label><br>\n<input id=\"prinFam5\" maxlength=\"40\" size=\"40\"></p>\n\n<p><label for=\"prinGiv5\">Contact given name</label><br>\n<input id=\"prinGiv5\" maxlength=\"40\" size=\"40\"></p>\n\n<p><label for=\"prinBirth5\">Date of birth (YYYY-MM-DD)</label><br>\n<input id=\"prinBirth5\" maxlength=\"10\" size=\"10\"></p>\n\n<p><label for=\"prinProf5\">Profit share (%)</label><br>\n<input id=\"prinProf5\" maxlength=\"10\" size=\"10\"></p>\n\n<p><label for=\"prinPos5\">Position title</label><br>\n<input id=\"prinPos5\" maxlength=\"40\" size=\"40\"></p>\n\n<p><label for=\"prinTel5\">Telephone number</label><br>\n<input id=\"prinTel5\" maxlength=\"12\" size=\"12\"></p>\n\n<p><label for=\"prinExt5\">Extension</label><br>\n<input id=\"prinExt5\" maxlength=\"10\" size=\"10\"></p>\n\n<p><label for=\"prinAdd5\">Address</label><br>\n<input id=\"prinAdd5\" maxlength=\"40\" size=\"40\"></p>\n\n<p><label for=\"prinMuni5\">Municipality (City, Town, etc.)</label><br>\n<input id=\"prinMuni5\" maxlength=\"40\" size=\"40\"></p>\n\n<p><label for=\"prinProv5\">Province/State/Country</label><br>\n<input id=\"prinProv5\" maxlength=\"40\" size=\"40\"></p>\n\n<p><label for=\"prinPost5\">Postal/ZIP code</label><br>\n<input id=\"prinPost5\" maxlength=\"6\" size=\"6\"></p>\n\n<p><label for=\"prinTele5\">Telephone number</label><br>\n<input id=\"prinTele5\" maxlength=\"12\" size=\"12\"></p>\n\n<p><label for=\"prinExte5\">Extension</label><br>\n<input id=\"prinExte5\" maxlength=\"10\" size=\"10\"></p>\n\n<p><label for=\"prinFax5\">Fax number</label><br>\n<input id=\"prinFax5\" maxlength=\"12\" size=\"12\"></p>\n</fieldset>\n\n<h3>Bank</h3>\n\n<p>(If a proprietorship or partnership, please provide financial institution information for each of the owner(s) partners)</p>\n\n<fieldset>\n<p><label for=\"bankFin\">Financial Institution name</label><br>\n<input id=\"bankFin\" maxlength=\"40\" size=\"40\"></p>\n\n<p><label for=\"bankTra\">Transit number</label><br>\n<input id=\"bankTra\" maxlength=\"20\" size=\"20\"></p>\n\n<p><label for=\"bankAcc\">Account number(s)</label><br>\n<input id=\"bankAcc\" maxlength=\"20\" size=\"20\"></p>\n\n<p><label for=\"bankMan\">Account manager</label><br>\n<input id=\"bankMan\" maxlength=\"40\" size=\"40\"></p>\n\n<p><label for=\"bankTel\">Telephone number</label><br>\n<input id=\"bankTel\" maxlength=\"12\" size=\"12\"></p>\n\n<p><label for=\"bankExt\">Extension</label><br>\n<input id=\"bankExt\" maxlength=\"10\" size=\"10\"></p>\n\n<p><label for=\"bankFax\">Fax number</label><br>\n<input id=\"bankFax\" maxlength=\"12\" size=\"12\"></p>\n</fieldset>\n\n<fieldset>\n<p><label for=\"bankFin2\">Financial Institution name</label><br>\n<input id=\"bankFin2\" maxlength=\"40\" size=\"40\"></p>\n\n<p><label for=\"bankTra2\">Transit number</label><br>\n<input id=\"bankTra2\" maxlength=\"20\" size=\"20\"></p>\n\n<p><label for=\"bankAcc2\">Account number(s)</label><br>\n<input id=\"bankAcc2\" maxlength=\"20\" size=\"20\"></p>\n\n<p><label for=\"bankMan2\">Account manager</label><br>\n<input id=\"bankMan2\" maxlength=\"40\" size=\"40\"></p>\n\n<p><label for=\"bankTel2\">Telephone number</label><br>\n<input id=\"bankTel2\" maxlength=\"12\" size=\"12\"></p>\n<p><label for=\"bankExt2\">Extension</label><br>\n<input id=\"bankExt2\" maxlength=\"10\" size=\"10\"></p>\n\n<p><label for=\"bankFax2\">Fax number</label><br>\n<input id=\"bankFax2\" maxlength=\"12\" size=\"12\"></p>\n</fieldset>\n\n<fieldset>\n<p><label for=\"bankFin3\">Financial Institution name</label><br>\n<input id=\"bankFin3\" maxlength=\"40\" size=\"40\"></p>\n\n<p><label for=\"bankTra3\">Transit number</label><br>\n<input id=\"bankTra3\" maxlength=\"20\" size=\"20\"></p>\n\n<p><label for=\"bankAcc3\">Account number(s)</label><br>\n<input id=\"bankAcc3\" maxlength=\"20\" size=\"20\"></p>\n\n<p><label for=\"bankMan3\">Account manager</label><br>\n<input id=\"bankMan3\" maxlength=\"40\" size=\"40\"></p>\n\n<p><label for=\"bankTel3\">Telephone number</label><br>\n<input id=\"bankTel3\" maxlength=\"12\" size=\"12\"></p>\n\n<p><label for=\"bankExt3\">Extension</label><br>\n<input id=\"bankExt3\" maxlength=\"10\" size=\"10\"></p>\n\n<p><label for=\"bankFax3\">Fax number</label><br>\n<input id=\"bankFax3\" maxlength=\"12\" size=\"12\"></p>\n</fieldset>\n\n<fieldset>\n<p><label for=\"bankFin4\">Financial Institution name</label><br>\n<input id=\"bankFin4\" maxlength=\"40\" size=\"40\"></p>\n\n<p><label for=\"bankTra4\">Transit number</label><br>\n<input id=\"bankTra4\" maxlength=\"20\" size=\"20\"></p>\n\n<p><label for=\"bankAcc4\">Account number(s)</label><br>\n<input id=\"bankAcc4\" maxlength=\"20\" size=\"20\"></p>\n\n<p><label for=\"bankMan4\">Account manager</label><br>\n<input id=\"bankMan4\" maxlength=\"40\" size=\"40\"></p>\n\n<p><label for=\"bankTel4\">Telephone number</label><br>\n<input id=\"bankTel4\" maxlength=\"12\" size=\"12\"></p>\n\n<p><label for=\"bankExt4\">Extension</label><br>\n<input id=\"bankExt4\" maxlength=\"10\" size=\"10\"></p>\n\n<p><label for=\"bankFax4\">Fax number</label><br>\n<input id=\"bankFax4\" maxlength=\"12\" size=\"12\"></p>\n</fieldset>\n\n<fieldset>\n<p><label for=\"bankFin5\">Financial Institution name</label><br>\n<input id=\"bankFin5\" maxlength=\"40\" size=\"40\"></p>\n\n<p><label for=\"bankTra5\">Transit number</label><br>\n<input id=\"bankTra5\" maxlength=\"20\" size=\"20\"></p>\n\n<p><label for=\"bankAcc5\">Account number(s)</label><br>\n<input id=\"bankAcc5\" maxlength=\"20\" size=\"20\"></p>\n\n<p><label for=\"bankMan5\">Account manager</label><br>\n<input id=\"bankMan5\" maxlength=\"40\" size=\"40\"></p>\n\n<p><label for=\"bankTel5\">Telephone number</label><br>\n<input id=\"bankTel5\" maxlength=\"12\" size=\"12\"></p>\n\n<p><label for=\"bankExt5\">Extension</label><br>\n<input id=\"bankExt5\" maxlength=\"10\" size=\"10\"></p>\n\n<p><label for=\"bankFax5\">Fax number</label><br>\n<input id=\"bankFax5\" maxlength=\"12\" size=\"12\"></p>\n</fieldset>\n\n<h3>Main Suppliers</h3>\n\n<p>Please list your main suppliers (At least two who extend credit terms to your company)</p>\n\n<fieldset>\n<p><label for=\"supName\">Supplier's name</label><br>\n<input id=\"supName\" maxlength=\"40\" size=\"40\"></p>\n\n<p><label for=\"subBusi\">Type of business</label><br>\n<input id=\"subBusi\" maxlength=\"40\" size=\"40\"></p>\n\n<p><label for=\"supAcc\">Contact - Accounts receivable</label><br>\n<input id=\"supAcc\" maxlength=\"40\" size=\"40\"></p>\n\n<p><label for=\"supTel\">Telephone number</label><br>\n<input id=\"supTel\" maxlength=\"12\" size=\"12\"></p>\n\n<p><label for=\"supExt\">Extension</label><br>\n<input id=\"supExt\" maxlength=\"10\" size=\"10\"></p>\n\n<p><label for=\"supSin\">Since (number of years)</label><br>\n<input id=\"supSin\" maxlength=\"10\" size=\"10\"></p>\n\n<p><label for=\"supAnn\">Annual purchases</label><br>\n$ <input id=\"supAnn\" maxlength=\"25\" size=\"25\"></p>\n</fieldset>\n\n<fieldset>\n<p><label for=\"supName2\">Supplier's name</label><br>\n<input id=\"supName2\" maxlength=\"40\" size=\"40\"></p>\n\n<p><label for=\"subBusi2\">Type of business</label><br>\n<input id=\"subBusi2\" maxlength=\"40\" size=\"40\"></p>\n\n<p><label for=\"supAcc2\">Contact - Accounts receivable</label><br>\n<input id=\"supAcc2\" maxlength=\"40\" size=\"40\"></p>\n\n<p><label for=\"supTel2\">Telephone number</label><br>\n<input id=\"supTel2\" maxlength=\"12\" size=\"12\"></p>\n\n<p><label for=\"supExt2\">Extension</label><br>\n<input id=\"supExt2\" maxlength=\"10\" size=\"10\"></p>\n\n<p><label for=\"supSin2\">Since (number of years)</label><br>\n<input id=\"supSin2\" maxlength=\"10\" size=\"10\"></p>\n\n<p><label for=\"supAnn2\">Annual purchases</label><br>\n$ <input id=\"supAnn2\" maxlength=\"25\" size=\"25\"></p>\n</fieldset>\n\n<fieldset>\n<p><label for=\"supName3\">Supplier's name</label><br>\n<input id=\"supName3\" maxlength=\"40\" size=\"40\"></p>\n\n<p><label for=\"subBusi3\">Type of business</label><br>\n<input id=\"subBusi3\" maxlength=\"40\" size=\"40\"></p>\n\n<p><label for=\"supAcc3\">Contact - Accounts receivable</label><br>\n<input id=\"supAcc3\" maxlength=\"40\" size=\"40\"></p>\n\n<p><label for=\"supTel3\">Telephone number</label><br>\n<input id=\"supTel3\" maxlength=\"12\" size=\"12\"></p>\n\n<p><label for=\"supExt3\">Extension</label><br>\n<input id=\"supExt3\" maxlength=\"10\" size=\"10\"></p>\n\n<p><label for=\"supSin3\">Since (number of years)</label><br>\n<input id=\"supSin3\" maxlength=\"10\" size=\"10\"></p>\n\n<p><label for=\"supAnn3\">Annual purchases</label><br>\n$ <input id=\"supAnn3\" maxlength=\"25\" size=\"25\"></p>\n</fieldset>\n\n<fieldset>\n<p><label for=\"supName4\">Supplier's name</label><br>\n<input id=\"supName4\" maxlength=\"40\" size=\"40\"></p>\n\n<p><label for=\"subBusi4\">Type of business</label><br>\n<input id=\"subBusi4\" maxlength=\"40\" size=\"40\"></p>\n\n<p><label for=\"supAcc4\">Contact - Accounts receivable</label><br>\n<input id=\"supAcc4\" maxlength=\"40\" size=\"40\"></p>\n\n<p><label for=\"supTel4\">Telephone number</label><br>\n<input id=\"supTel4\" maxlength=\"12\" size=\"12\"></p>\n\n<p><label for=\"supExt4\">Extension</label><br>\n<input id=\"supExt4\" maxlength=\"10\" size=\"10\"></p>\n\n<p><label for=\"supSin4\">Since (number of years)</label><br>\n<input id=\"supSin4\" maxlength=\"10\" size=\"10\"></p>\n\n<p><label for=\"supAnn4\">Annual purchases</label><br>\n$ <input id=\"supAnn4\" maxlength=\"25\" size=\"25\"></p>\n</fieldset>\n\n<fieldset>\n<p><label for=\"supName5\">Supplier's name</label><br>\n<input id=\"supName5\" maxlength=\"40\" size=\"40\"></p>\n\n<p><label for=\"subBusi5\">Type of business</label><br>\n<input id=\"subBusi5\" maxlength=\"40\" size=\"40\"></p>\n\n<p><label for=\"supAcc5\">Contact - Accounts receivable</label><br>\n<input id=\"supAcc5\" maxlength=\"40\" size=\"40\"></p>\n\n<p><label for=\"supTel5\">Telephone number</label><br>\n<input id=\"supTel5\" maxlength=\"12\" size=\"12\"></p>\n\n<p><label for=\"supExt5\">Extension</label><br>\n<input id=\"supExt5\" maxlength=\"10\" size=\"10\"></p>\n\n<p><label for=\"supSin5\">Since (number of years)</label><br>\n<input id=\"supSin5\" maxlength=\"10\" size=\"10\"></p>\n\n<p><label for=\"supAnn5\">Annual purchases</label><br>\n$ <input id=\"supAnn5\" maxlength=\"25\" size=\"25\"></p>\n</fieldset>\n\n<h2>Part C - Authorization and Privacy Notice</h2>\n\n<p><strong>Authorization and Privacy Notice by the individual(s) recognized as the signing authority(s) at the client's financial institution</strong></p>\n\n<p>I certify that the above information is correct and hereby apply for credit privileges from Her Majesty the Queen in right of Canada as represented by the Minister of Agriculture and Agri-Food, hereinafter referred to as \"Her Majesty\". The application referred to in Part\u04ecA and if applicable, the owner of a proprietorship or partners in a partnership referred to in Part\u04ecB, by the authorized signature(s) below, consents to the receipt and exchange of credit information by Her Majesty with any credit reporting agency, credit bureau, financial institution or any person or corporation with whom the client has or proposes to have financial dealings. I have read the credit conditions on the back of this application and, if credit is granted to the applicant, the applicant agrees to abide by those conditions.</p>\n\n<p>The information you provide on this document is collected by Agriculture and Agri-Food Canada (AAFC) under the authority of the Financial Administration Act (FAA), the Income Tax Act (ITA) and the Farm Income Protection Act (FIPA) for the purpose of supporting the collection of monies owing to the institution/ Receiver General for Canada. The information will be used to evaluate the financial viability of the individual or the company, to obtain financial information from credit agencies / financial institutions / suppliers. The information may be shared with collection agencies for debt recovery purposes. The personal information will be protected under the provisions of the Privacy Act and is described in Personal Information Bank PSU\u04ec932 entitled \"Accounts Receivable\". You have a right to access your personal information and request changes to incorrect information should you wish to avail yourself of this right, please contact the <abbr title=\"Access to Information and Privacy\">ATIP</abbr> Coordinator at 613-773-1386.</p>\n\n<p>The conditions governing credit privileges provided by the Minister are:\n\"Minister\" means the Minister of Agriculture and Agri-Food or anyone authorized to act on the Minister's behalf. \"Customer\" means an organization or an individual that has an account with Agriculture and Agri-Food Canada.</p>\n<ol>\n\t<li>The customer shall pay Her Majesty for the amount of all goods or services received subject to terms of payment in effect on the date of the provision of the goods and services and as stated on an invoice or other written document specifically applicable to such provision which shall be provided by the Minister. Discounts will not be granted for prompt payment. Customer will be charged interest on any overdue amounts in accordance with agreements or as permitted by legislation/regulation.</li>\n    <li>An administrative fee will be applied to any account whose cheque or other payment instrument is not honoured by the financial institution on which it is drawn, for reasons of Non Sufficient Funds (\"NSF\") or otherwise.</li>\n    <li>Based on the results of the credit evaluation and when contractual agreement permits, a security deposit may be requested from the customer by the Minister whenever the customer's future ability to discharge a debt in accordance with the payment terms is uncertain; or the customer has a history of late payment accounts.</li>\n    <li>Credit privileges may be withdrawn or the terms of payment may be revised if it is discovered that the customer has made a material false declaration or is otherwise in breach of imposed terms and conditions; or, the customer's credit limit has been reached and a reassessment of the account does not support increasing the credit limit; the Minister obtains evidence that the customer's financial viability is doubtful and/or there is no reasonable expectation of receiving payment for services requested or any other reason deemed appropriate by the Minister. When credit privileges are withdrawn, the customer shall pay in advance for any required goods and services.</li>\n    <li>If as a result of false information, a customer obtained credit which would not have otherwise been given, full payment by the customer shall be made immediately, regardless of any decisions regarding possible prosecution of the customer.</li>\n    <li>Upon receipt of a request from departmental officials, the customer shall provide a copy of the company's financial statements or any other documents requested.</li>\n    <li>The customer shall notify the Minister of any change of address or ownership within five working days from the date of those changes.</li>\n    <li>Any information that is provided in this application, or in contacts with departmental officials relating to the granting of credit under this application, may be used by the Government of Canada or its agents, consistent with accepted commercial practices, and pertinent federal and provincial statutes and policy directives, to collect accounts. The collection of overdue amounts may involve the use of Private Collection Agencies and the provision to them of information provided by the customer.</li>\n    <li>For the collection of an overdue account, be advised that if you are eligible for a payment from Agriculture and Agri-Food Canada, Canada Revenue Agency or any other department or Agency of the Crown, we may take action to have such payment held and applied against your outstanding debt and that information provided by the customer may be provided to another government department.</li>\n</ol>\n\n<fieldset>\n<p><label for=\"authName\">Name</label><br>\n<input id=\"authName\" maxlength=\"40\" size=\"40\"></p>\n\n<p><label for=\"authTitle\">Title</label><br>\n<input id=\"authTitle\" maxlength=\"40\" size=\"40\"></p>\n\n<p>Signature:</p>\n<br>\n\n<p><label for=\"authDate\">Date (YYYY-MM-DD)</label><br>\n<input id=\"authDate\" maxlength=\"10\" size=\"10\"></p>\n</fieldset>\n\n<fieldset>\n<p><label for=\"authName2\">Name</label><br>\n<input id=\"authName2\" maxlength=\"40\" size=\"40\"></p>\n\n<p><label for=\"authTitle2\">Title</label><br>\n<input id=\"authTitle2\" maxlength=\"40\" size=\"40\"></p>\n\n<p>Signature:</p>\n<br>\n\n<p><label for=\"authDate2\">Date (YYYY-MM-DD)</label><br>\n<input id=\"authDate2\" maxlength=\"10\" size=\"10\"></p>\n</fieldset>\n\n<h3>Finance Unit</h3>\n\n<p>Please forward the completed Credit Application to the Finance unit:</p>\n\n<p><label for=\"finName\">Name of the Local Finance officer</label><br>\n<input id=\"finName\" maxlength=\"40\" size=\"40\"></p>\n\n<p><label for=\"finAdd\">Address</label><br>\n<input id=\"finAdd\" maxlength=\"40\" size=\"40\"></p>\n\n<p><label for=\"finMin\">Municipality (City, Town, etc.)</label><br>\n<input id=\"finMin\" maxlength=\"40\" size=\"40\"></p>\n\n<p><label for=\"finProv\">Province/State/Country</label><br>\n<input id=\"finProv\" maxlength=\"40\" size=\"40\"></p>\n\n<p><label for=\"finPost\">Postal/ZIP code</label><br>\n<input id=\"finPost\" maxlength=\"6\" size=\"6\"></p>\n\n<p><label for=\"finTel\">Telephone number</label><br>\n<input id=\"finTel\" maxlength=\"12\" size=\"12\"></p>\n\n<p><label for=\"finExt\">Extension</label><br>\n<input id=\"finExt\" maxlength=\"10\" size=\"10\"></p>\n\n<p><label for=\"finFax\">Fax number</label><br>\n<input id=\"finFax\" maxlength=\"12\" size=\"12\"></p>\n\n<h4>For Finance Unit Use Only</h4>\n\n<p><abbr title=\"Agriculture and Agri-Food Canada\">AAFC</abbr> Local Finance officer signature:</p>\n\n<p>Date:</p>\n\n<p><strong>Finance unit to forward the completed Credit Application to Revenue Management section:</strong></p>\n\n<p>Telephone number: 1-800-282-6249</p>\n\n<p>Fax number: 1-613-773-0660</p>\n\n<h3>For Revenue Management Section Use Only</h3>\n\n<p>Customer number:</p>\n\n<p>Signature:</p>\n\n<p>Date:</p>\n<ul>\n\t<li>Approved $</li>\n    <li>Approved with condition(s) $</li>\n    <li>Decline</li>\n</ul>\n\n<p>Recommended by:</p>\n\n<p>Date:</p>\n\n<p>Approved or declined by:</p>\n\n\n<p>Date:</p>\n<p><strong>Please make sure that the Authorization section Part C is signed.</strong></p>\n\n<p class=\"text-center\"><input type=\"button\" value=\"Print\" onclick=\"window.print();return false;\"></p>\n</form>\n<hr>\n\r\n    ",
        "fr": "\r\n    <div>\n<p>Vous pouvez utiliser ce formulaire Web ou la <a href=\"https://www.agr.gc.ca/resources/prod/doc/rdc/A5119-2016-F.pdf\">version PDF (1\u00a0180\u00a0Ko)</a> du formulaire.</p>\n\n\n<p>Veuillez remplir le formulaire, l'imprimer et l'envoyer par la poste.</p>\n</div>\n<p>Centre de recherche et de d\u00e9veloppement de Saint-Hyacinthe<br>\nAgriculture et Agroalimentaire Canada<br>\n3600, boulevard Casavant Ouest<br>\nSaint-Hyacinthe (Qu\u00e9bec)<br>\nJ2S 8E3</p>\n<form id=\"print\" action=\"\">\n<p><strong>Prot\u00e9g\u00e9 une fois rempli</strong></p>\n<p><strong>(Lorsque le formulaire AAFC / AC5119 Demande de cr\u00e9dit est compl\u00e9t\u00e9, le formulaire AAFC / <abbr title=\"Agriculture et Agroalimentaire Canada\">AAC</abbr>5132 Demande de cr\u00e9ation d'un compte client n'est pas requis)</strong></p>\n<h2>R\u00e9serv\u00e9 \u00e0 l'usage du charg\u00e9 de contrat</h2>\n<p><label for=\"mainArea\">Centre</label><br>\n<select id=\"mainArea\">\n<option value=\"Centre de recherche et de d\u00e9veloppement de Lethbridge\" selected>Centre de recherche et de d\u00e9veloppement de Lethbridge</option>\n    <option value=\"Centre de recherche et de d\u00e9veloppement de Lacombe\">Centre de recherche et de d\u00e9veloppement de Lacombe</option>\n    <option value=\"Centre de recherche et de d\u00e9veloppement de Saskatoon\">Centre de recherche et de d\u00e9veloppement de Saskatoon</option>\n    <option value=\"Centre de recherche et de d\u00e9veloppement de Swift Current\">Centre de recherche et de d\u00e9veloppement de Swift Current</option>\n    <option value=\"Centre de recherche et de d\u00e9veloppement de Brandon\">Centre de recherche et de d\u00e9veloppement de Brandon</option>\n\n    <option value=\"Centre de recherche et de d\u00e9veloppement de Morden\">Centre de recherche et de d\u00e9veloppement de Morden</option>\n    <option value=\"Centre de recherche et de d\u00e9veloppement de Harrow\">Centre de recherche et de d\u00e9veloppement de Harrow</option>\n    <option value=\"Centre de recherche et de d\u00e9veloppement de London\">Centre de recherche et de d\u00e9veloppement de London</option>\n    <option value=\"Centre de recherche et de d\u00e9veloppement d'Ottawa\">Centre de recherche et de d\u00e9veloppement d'Ottawa</option>\n    <option value=\"Centre de recherche et de d\u00e9veloppement de Guelph\">Centre de recherche et de d\u00e9veloppement de Guelph</option>\n    <option value=\"Centre de recherche et de d\u00e9veloppement de Saint Hyacinthe\">Centre de recherche et de d\u00e9veloppement de Saint Hyacinthe</option>\n    <option value=\"Centre de recherche et de d\u00e9veloppement de Saint Jean sur Richelieu\">Centre de recherche et de d\u00e9veloppement de Saint Jean sur Richelieu</option>\n    <option value=\"Centre de recherche et de d\u00e9veloppement de Sherbrooke\">Centre de recherche et de d\u00e9veloppement de Sherbrooke</option>\n    <option value=\"Centre de recherche et de d\u00e9veloppement de Qu\u00e9bec\">Centre de recherche et de d\u00e9veloppement de Qu\u00e9bec</option>\n    <option value=\"Centre de recherche et de d\u00e9veloppement de Summerland\">Centre de recherche et de d\u00e9veloppement de Summerland</option>\n    <option value=\"Centre de recherche et de d\u00e9veloppement d'Agassiz\">Centre de recherche et de d\u00e9veloppement d'Agassiz</option>\n  \n  <option value=\"Centre de recherche et de d\u00e9veloppement de Charlottetown\">Centre de recherche et de d\u00e9veloppement de Charlottetown</option>\n  <option value=\"Centre de recherche et de d\u00e9veloppement de St. John's\">Centre de recherche et de d\u00e9veloppement de St. John's</option>\n  <option value=\"Centre de recherche et de d\u00e9veloppement de Fredericton\">Centre de recherche et de d\u00e9veloppement de Fredericton</option>  \n  <option value=\"Centre de recherche et de d\u00e9veloppement de Kentville\">Centre de recherche et de d\u00e9veloppement de Kentville</option>\n<option value=\"Direction des partenariats et de la planification\">Direction des partenariats et de la planification</option>\t\n</select></p>\n<p><label for=\"mainTitle\">Titre</label><br><input id=\"mainTitle\" maxlength=\"40\" size=\"40\"></p>\n<p><label for=\"mainLast\">Nom de famille de la personne-ressource</label><br><input id=\"mainLast\" maxlength=\"40\" size=\"40\"></p>\n<p><label for=\"mainFirst\">Pr\u00e9nom de la personne-ressource</label><br><input id=\"mainFirst\" maxlength=\"40\" size=\"40\"></p>\n<p><label for=\"mainPhone\">Num\u00e9ro de t\u00e9l\u00e9phone</label><br><input id=\"mainPhone\" maxlength=\"12\" size=\"12\"></p>\n<p><label for=\"mainExt\">Poste</label><br><input id=\"mainExt\" maxlength=\"6\" size=\"6\"></p>\n<fieldset>\n<legend>Genre de demande</legend>\n<input type=\"radio\" name=\"mainType\" value=\"First credit application\" title=\"Premi\u00e8re demande d'un compte client\"> Premi\u00e8re demande d'un compte client<br>\n<input type=\"radio\" name=\"mainType\" value=\"Increase credit limit\" title=\"Augmenter la limite de cr\u00e9dit\"> Augmenter la limite de cr\u00e9dit<br>\n<input type=\"radio\" name=\"mainType\" value=\"Reinstatement of credit\" title=\"R\u00e9tablir le cr\u00e9dit\"> R\u00e9tablir le cr\u00e9dit<br>\n<input type=\"radio\" name=\"mainType\" value=\"Other (please specify)\" title=\"Autre (veuillez pr\u00e9ciser)\"> <label for=\"mainOther\">Autre (veuillez pr\u00e9ciser)</label>\n<input id=\"mainOther\" maxlength=\"40\" size=\"12\">\n</fieldset>\n<p><label for=\"mainCustNumb\">Indiquez le num\u00e9ro du client s'il y a lieu</label><br><input id=\"mainCustNumb\" maxlength=\"12\" size=\"12\"></p>\n<p><label for=\"mainGoods\">Genre de biens et services pr\u00e9vu par Agriculture et Agroalimentaire Canada (AAC)</label><br><input id=\"mainGoods\" maxlength=\"12\" size=\"12\"></p>\n<p><label for=\"mainCred\">Limite de cr\u00e9dit demand\u00e9e</label><br><input id=\"mainCred\" maxlength=\"12\" size=\"12\"> $</p>\n<h2>Partie A - Renseignements sur l'entreprise/l'individu</h2>\n<p><label for=\"partaName\">Appellation l\u00e9gale et nom sociale sous laquelle l'entreprise est exploit\u00e9e</label><br><input id=\"partaName\" maxlength=\"40\" size=\"40\"></p>\n<h3>Adresse du si\u00e8ge social</h3>\n<p><label for=\"headAddr\">Adresse</label><br><input id=\"headAddr\" maxlength=\"40\" size=\"40\"></p>\n<p><label for=\"headMunic\">Municipalit\u00e9 (ville, village, etc.)</label><br><input id=\"headMunic\" maxlength=\"20\" size=\"20\"></p>\n<p><label for=\"headPsc\">Province/\u00c9tat/Pays</label><br><input id=\"headPsc\" maxlength=\"20\" size=\"20\"></p>\n<p><label for=\"headPost\">Code postal/ZIP</label><br><input id=\"headPost\" maxlength=\"6\" size=\"6\"></p>\n<p><label for=\"heatTel\">Num\u00e9ro de t\u00e9l\u00e9phone</label><br><input id=\"heatTel\" maxlength=\"12\" size=\"12\"></p>\n<p><label for=\"heatExt\">Poste</label><br><input id=\"heatExt\" maxlength=\"6\" size=\"6\"></p>\n<p><label for=\"headFax\">Num\u00e9ro de t\u00e9l\u00e9copieur</label><br><input id=\"headFax\" maxlength=\"12\" size=\"12\"></p>\n<p><label for=\"hedWeb\">Site Web</label><br><input id=\"hedWeb\" maxlength=\"40\" size=\"40\"></p>\n<p><label for=\"headEmail\">Adresse de courriel</label><br><input id=\"headEmail\" maxlength=\"40\" size=\"40\"></p>\n<p><label for=\"headLast\">Nom de famille du pr\u00e9sident ou du directeur</label><br><input id=\"headLast\" maxlength=\"40\" size=\"40\"></p>\n<p><label for=\"headFirst\">Pr\u00e9nom du pr\u00e9sident ou du directeur</label><br><input id=\"headFirst\" maxlength=\"40\" size=\"40\"></p>\n<p><label for=\"headAcc\">Nom de famille, pr\u00e9nom et titre de la personne-ressource/Comptes payables</label><br><input id=\"headAcc\" maxlength=\"40\" size=\"40\"></p>\n<h3>Adresse de facturation ou d'exp\u00e9dition (si elle diff\u00e8re de celle ci-dessus)</h3>\n<p><label for=\"billAddr\">Adresse</label><br><input id=\"billAddr\" maxlength=\"40\" size=\"40\"></p>\n<p><label for=\"billMunici\">Municipalit\u00e9 (ville, village, etc.)</label><br><input id=\"billMunici\" maxlength=\"20\" size=\"20\"></p>\n<p><label for=\"billProv\">Province/\u00c9tat/Pays</label><br><input id=\"billProv\" maxlength=\"20\" size=\"20\"></p>\n<p><label for=\"billPost\">Code postal/ZIP</label><br><input id=\"billPost\" maxlength=\"6\" size=\"6\"></p>\n<p><label for=\"billTell\">Num\u00e9ro de t\u00e9l\u00e9phone</label><br><input id=\"billTell\" maxlength=\"12\" size=\"12\"></p>\n<p><label for=\"billExt\">Poste</label><br><input id=\"billExt\" maxlength=\"6\" size=\"6\"></p>\n<p><label for=\"billFax\">Num\u00e9ro de t\u00e9l\u00e9copieur</label><br><input id=\"billFax\" maxlength=\"12\" size=\"12\"></p>\n<fieldset>\n<legend>Genre d'entreprise</legend>\n<input type=\"checkbox\" name=\"bisCorp\" value=\"\" title=\"Soci\u00e9t\u00e9 par actions (provincial)\">\u00a0Soci\u00e9t\u00e9 par actions (provincial)<br>\n<input type=\"checkbox\" name=\"bisPart\" value=\"\" title=\"Soci\u00e9t\u00e9 par actions (f\u00e9d\u00e9ral)\">\u00a0Soci\u00e9t\u00e9 par actions (f\u00e9d\u00e9ral)<br>\n<input type=\"checkbox\" name=\"bisCoop\" value=\"\" title=\"Soci\u00e9t\u00e9 de personnes\">\u00a0Soci\u00e9t\u00e9 de personnes<br>\n<input type=\"checkbox\" name=\"bisChar\" value=\"\" title=\"Coop\u00e9rative\">\u00a0Coop\u00e9rative<br>\n<input type=\"checkbox\" name=\"bisFed\" value=\"\" title=\"Soci\u00e9t\u00e9 en commandite\">\u00a0Soci\u00e9t\u00e9 en commandite<br>\n<input type=\"checkbox\" name=\"bisLim\" value=\"\" title=\"Entreprise individuelle\">\u00a0Entreprise individuelle<br>\n<input type=\"checkbox\" name=\"bisSole\" value=\"\" title=\"Organisme de charit\u00e9 ou Fiducie (annexez les d\u00e9tails sur le financement)\">\u00a0Organisme de charit\u00e9 ou Fiducie (annexez les d\u00e9tails sur le financement)<br>\n<input type=\"checkbox\" name=\"bisReg\" value=\"\" title=\"Num\u00e9ro d'enregistrement\">\u00a0<label for=\"bisReg\">Num\u00e9ro d'enregistrement</label>\u00a0<input id=\"bisReg\" maxlength=\"20\" size=\"20\"><br>\n<input type=\"checkbox\" name=\"bisMem\" value=\"\" title=\"Num\u00e9ro d'entreprise\">\u00a0<label for=\"bisMem\">Num\u00e9ro d'entreprise</label>\u00a0<input id=\"bisMem\" maxlength=\"20\" size=\"20\"><br>\n<input type=\"checkbox\" name=\"bisOth\" value=\"\" title=\"Autre (veuillez pr\u00e9ciser)\">\u00a0<label for=\"bisOth\">Autre (veuillez pr\u00e9ciser)</label>\u00a0<input id=\"bisOth\" maxlength=\"20\" size=\"20\">\n</fieldset>\n<p>Imposition : Indiquez les num\u00e9ros d'exemption s'il y a lieu</p>\n<ul>\n\t<li><label for=\"govTax\">Taxe sur les produits et services (TPS) - taxe de vente harmonis\u00e9e (TVH)\u00a0</label><input id=\"govTax\" maxlength=\"10\" size=\"10\"></li>\n    <li><label for=\"provTax\">Taxe de vente provinciale (TVP)\u00a0</label><input id=\"provTax\" maxlength=\"10\" size=\"10\"></li>\n</ul>\n<p><label for=\"numEmp\">Nombre d'employ\u00e9s</label><br><input id=\"numEmp\" maxlength=\"10\" size=\"10\"></p>\n<fieldset>\n<legend>R\u00e9gime de propri\u00e9t\u00e9</legend>\n<input type=\"radio\" name=\"billType\" value=\"Canadien\" title=\"Canadien\">Canadien<br>\n<input type=\"radio\" name=\"billType\" value=\"\u00c9tranger\" title=\"\u00c9tranger\">\u00c9tranger\n</fieldset>\n<p><label for=\"typeIndus\">Genre d'industrie</label><br><input id=\"typeIndus\" maxlength=\"40\" size=\"40\"></p>\n<h3>Si vous achetez des biens ou des services \u00e0 cr\u00e9dit aupr\u00e8s d'autres minist\u00e8res f\u00e9d\u00e9raux</h3>\n<p>(Veuillez indiquer les renseignements sur votre situation de cr\u00e9dit.)</p>\n<fieldset>\n<p><label for=\"purchName\">Nom du minist\u00e8re</label><br><input id=\"purchName\" maxlength=\"40\" size=\"40\"></p>\n<p><label for=\"purchAdd\">Adresse</label><br><input id=\"purchAdd\" maxlength=\"40\" size=\"40\"></p>\n<p><label for=\"purchMuni\">Municipalit\u00e9 (ville, village, etc.)</label><br><input id=\"purchMuni\" maxlength=\"25\" size=\"25\"></p>\n<p><label for=\"purchProv\">Province/\u00c9tat/Pays</label><br><input id=\"purchProv\" maxlength=\"25\" size=\"25\"></p>\n<p><label for=\"purchPost\">Code postal/ZIP</label><br><input id=\"purchPost\" maxlength=\"6\" size=\"6\"></p>\n<p><label for=\"purchTel\">Num\u00e9ro de t\u00e9l\u00e9phone</label><br><input id=\"purchTel\" maxlength=\"12\" size=\"12\"></p>\n<p><label for=\"purchExt\">Poste</label><br><input id=\"purchExt\" maxlength=\"8\" size=\"8\"></p>\n<p><label for=\"purchFax\">Num\u00e9ro de t\u00e9l\u00e9copieur</label><br><input id=\"purchFax\" maxlength=\"12\" size=\"12\"></p>\n<p><label for=\"purchAcc\">Num\u00e9ro de compte</label><br><input id=\"purchAcc\" maxlength=\"20\" size=\"20\"></p>\n<p><label for=\"purchCred\">Limite de cr\u00e9dit</label><br><input id=\"purchCred\" maxlength=\"20\" size=\"20\"> $</p>\n<p><label for=\"purchCon\">Personne-ressource</label><br><input id=\"purchCon\" maxlength=\"40\" size=\"40\"></p>\n</fieldset>\n<fieldset>\n<p><label for=\"purchName2\">Nom du minist\u00e8re</label><br><input id=\"purchName2\" maxlength=\"40\" size=\"40\"></p>\n<p><label for=\"purchAdd2\">Adresse</label><br><input id=\"purchAdd2\" maxlength=\"40\" size=\"40\"></p>\n<p><label for=\"purchMuni2\">Municipalit\u00e9 (ville, village, etc.)</label><br><input id=\"purchMuni2\" maxlength=\"25\" size=\"25\"></p>\n<p><label for=\"purchProv2\">Province/\u00c9tat/Pays</label><br><input id=\"purchProv2\" maxlength=\"25\" size=\"25\"></p>\n<p><label for=\"purchPost2\">Code postal/ZIP</label><br><input id=\"purchPost2\" maxlength=\"6\" size=\"6\"></p>\n<p><label for=\"purchTel2\">Num\u00e9ro de t\u00e9l\u00e9phone</label><br><input id=\"purchTel2\" maxlength=\"12\" size=\"12\"></p>\n<p><label for=\"purchExt2\">Poste</label><br><input id=\"purchExt2\" maxlength=\"8\" size=\"8\"></p>\n<p><label for=\"purchFax2\">Num\u00e9ro de t\u00e9l\u00e9copieur</label><br><input id=\"purchFax2\" maxlength=\"12\" size=\"12\"></p>\n<p><label for=\"purchAcc2\">Num\u00e9ro de compte</label><br><input id=\"purchAcc2\" maxlength=\"20\" size=\"20\"></p>\n<p><label for=\"purchCred2\">Limite de cr\u00e9dit</label><br><input id=\"purchCred2\" maxlength=\"20\" size=\"20\"> $</p>\n<p><label for=\"purchCon2\">Personne-ressource</label><br><input id=\"purchCon2\" maxlength=\"40\" size=\"40\"></p>\n</fieldset>\n<fieldset>\n<p><label for=\"purchName3\">Nom du minist\u00e8re</label><br><input id=\"purchName3\" maxlength=\"40\" size=\"40\"></p>\n<p><label for=\"purchAdd3\">Adresse</label><br><input id=\"purchAdd3\" maxlength=\"40\" size=\"40\"></p>\n<p><label for=\"purchMuni3\">Municipalit\u00e9 (ville, village, etc.)</label><br><input id=\"purchMuni3\" maxlength=\"25\" size=\"25\"></p>\n<p><label for=\"purchProv3\">Province/\u00c9tat/Pays</label><br><input id=\"purchProv3\" maxlength=\"25\" size=\"25\"></p>\n<p><label for=\"purchPost3\">Code postal/ZIP</label><br><input id=\"purchPost3\" maxlength=\"6\" size=\"6\"></p>\n<p><label for=\"purchTel3\">Num\u00e9ro de t\u00e9l\u00e9phone</label><br><input id=\"purchTel3\" maxlength=\"12\" size=\"12\"></p>\n<p><label for=\"purchExt3\">Poste</label><br><input id=\"purchExt3\" maxlength=\"8\" size=\"8\"></p>\n<p><label for=\"purchFax3\">Num\u00e9ro de t\u00e9l\u00e9copieur</label><br><input id=\"purchFax3\" maxlength=\"12\" size=\"12\"></p>\n<p><label for=\"purchAcc3\">Num\u00e9ro de compte</label><br><input id=\"purchAcc3\" maxlength=\"20\" size=\"20\"></p>\n<p><label for=\"purchCred3\">Limite de cr\u00e9dit</label><br><input id=\"purchCred3\" maxlength=\"20\" size=\"20\"> $</p>\n<p><label for=\"purchCon3\">Personne-ressource</label><br><input id=\"purchCon3\" maxlength=\"40\" size=\"40\"></p>\n</fieldset>\n<fieldset>\n<p><label for=\"purchName4\">Nom du minist\u00e8re</label><br><input id=\"purchName4\" maxlength=\"40\" size=\"40\"></p>\n<p><label for=\"purchAdd4\">Adresse</label><br><input id=\"purchAdd4\" maxlength=\"40\" size=\"40\"></p>\n<p><label for=\"purchMuni4\">Municipalit\u00e9 (ville, village, etc.)</label><br><input id=\"purchMuni4\" maxlength=\"25\" size=\"25\"></p>\n<p><label for=\"purchProv4\">Province/\u00c9tat/Pays</label><br><input id=\"purchProv4\" maxlength=\"25\" size=\"25\"></p>\n<p><label for=\"purchPost4\">Code postal/ZIP</label><br><input id=\"purchPost4\" maxlength=\"6\" size=\"6\"></p>\n<p><label for=\"purchTel4\">Num\u00e9ro de t\u00e9l\u00e9phone</label><br><input id=\"purchTel4\" maxlength=\"12\" size=\"12\"></p>\n<p><label for=\"purchExt4\">Poste</label><br><input id=\"purchExt4\" maxlength=\"8\" size=\"8\"></p>\n<p><label for=\"purchFax4\">Num\u00e9ro de t\u00e9l\u00e9copieur</label><br><input id=\"purchFax4\" maxlength=\"12\" size=\"12\"></p>\n<p><label for=\"purchAcc4\">Num\u00e9ro de compte</label><br><input id=\"purchAcc4\" maxlength=\"20\" size=\"20\"></p>\n<p><label for=\"purchCred4\">Limite de cr\u00e9dit</label><br><input id=\"purchCred4\" maxlength=\"20\" size=\"20\"> $</p>\n<p><label for=\"purchCon4\">Personne-ressource</label><br><input id=\"purchCon4\" maxlength=\"40\" size=\"40\"></p>\n</fieldset>\n<h3>Partie B - Information additionnelle pour demande de cr\u00e9dit</h3>\n<p><label for=\"infoBusi\">En affaires depuis</label><br><input id=\"infoBusi\" maxlength=\"40\" size=\"40\"></p>\n<p><label for=\"infoYear\">Ventes annuelles</label><br><input id=\"infoYear\" maxlength=\"30\" size=\"30\"> $</p>\n<p><label for=\"infoCon\">Montant du contrat</label><br><input id=\"infoCon\" maxlength=\"20\" size=\"20\"> $</p>\n<p><label for=\"infoPay\">Modalit\u00e9s de paiement</label><br><input id=\"infoPay\" maxlength=\"40\" size=\"40\"></p>\n<p><label for=\"infoFin\">Nom de l'\u00e9tablissement financier de l'entreprise</label><br><input id=\"infoFin\" maxlength=\"40\" size=\"40\"></p>\n<p><label for=\"infoTran\">Num\u00e9ro de succursale</label><br><input id=\"infoTran\" maxlength=\"20\" size=\"20\"></p>\n<p><label for=\"infoAcc\">Num\u00e9ro de compte(s)</label><br><input id=\"infoAcc\" maxlength=\"30\" size=\"30\"></p>\n<p><label for=\"infoAdd\">Adresse</label><br><input id=\"infoAdd\" maxlength=\"40\" size=\"40\"></p>\n<p><label for=\"infoMuni\">Municipalit\u00e9 (ville, village, etc.)</label><br><input id=\"infoMuni\" maxlength=\"40\" size=\"40\"></p>\n<p><label for=\"infoProv\">Province/\u00c9tat/Pays</label><br><input id=\"infoProv\" maxlength=\"40\" size=\"40\"></p>\n<p><label for=\"infoZip\">Code postal/ZIP</label><br><input id=\"infoZip\" maxlength=\"6\" size=\"6\"></p>\n<p><label for=\"infoTele\">Num\u00e9ro de t\u00e9l\u00e9phone</label><br><input id=\"infoTele\" maxlength=\"12\" size=\"12\"></p>\n<p><label for=\"infoExt\">Poste</label><br><input id=\"infoExt\" maxlength=\"10\" size=\"10\"></p>\n<p><label for=\"infoFax\">Num\u00e9ro de t\u00e9l\u00e9copieur</label><br><input id=\"infoFax\" maxlength=\"12\" size=\"12\"></p>\n<p><label for=\"infoConFam\">Nom de famille de la personne-ressource \u00e0 l'\u00e9tablissement financier</label><br><input id=\"infoConFam\" maxlength=\"40\" size=\"40\"></p>\n<p><label for=\"infoConGiv\">Pr\u00e9nom de la personne-ressource \u00e0 l'\u00e9tablissement financier</label><br><input id=\"infoConGiv\" maxlength=\"40\" size=\"40\"></p>\n<p><label for=\"infoTitle\">Titre</label><br><input id=\"infoTitle\" maxlength=\"40\" size=\"40\"></p>\n<h3>Propri\u00e9taires principaux</h3>\n<p>(Utilisez une feuille s\u00e9par\u00e9e au besoin.)</p>\n<fieldset>\n<p><label for=\"prinFam\">Nom de famille de la personne-ressource</label><br><input id=\"prinFam\" maxlength=\"40\" size=\"40\"></p>\n<p><label for=\"prinGiv\">Pr\u00e9nom de la personne-ressource</label><br><input id=\"prinGiv\" maxlength=\"40\" size=\"40\"></p>\n<p><label for=\"prinBirth\">Date de naissance (AAAA-MM-JJ)</label><br><input id=\"prinBirth\" maxlength=\"10\" size=\"10\"></p>\n<p><label for=\"prinProf\">Part des b\u00e9n\u00e9fices (%)</label><br><input id=\"prinProf\" maxlength=\"10\" size=\"10\"></p>\n<p><label for=\"prinPos\">Titre</label><br><input id=\"prinPos\" maxlength=\"40\" size=\"40\"></p>\n<p><label for=\"prinTel\">Num\u00e9ro de t\u00e9l\u00e9phone</label><br><input id=\"prinTel\" maxlength=\"12\" size=\"12\"></p>\n<p><label for=\"prinExt\">Poste</label><br><input id=\"prinExt\" maxlength=\"10\" size=\"10\"></p>\n<p><label for=\"prinAdd\">Adresse</label><br><input id=\"prinAdd\" maxlength=\"40\" size=\"40\"></p>\n<p><label for=\"prinMuni\">Municipalit\u00e9 (ville, village, etc.)</label><br><input id=\"prinMuni\" maxlength=\"40\" size=\"40\"></p>\n<p><label for=\"prinProv\">Province/\u00c9tat/Pays</label><br><input id=\"prinProv\" maxlength=\"40\" size=\"40\"></p>\n<p><label for=\"prinPost\">Code postal/ZIP</label><br><input id=\"prinPost\" maxlength=\"40\" size=\"6\"></p>\n<p><label for=\"prinTele\">Num\u00e9ro de t\u00e9l\u00e9phone</label><br><input id=\"prinTele\" maxlength=\"12\" size=\"12\"></p>\n<p><label for=\"prinExte\">Poste</label><br><input id=\"prinExte\" maxlength=\"10\" size=\"10\"></p>\n<p><label for=\"prinFax\">Num\u00e9ro de t\u00e9l\u00e9copieur</label><br><input id=\"prinFax\" maxlength=\"12\" size=\"12\"></p>\n</fieldset>\n<fieldset>\n<p><label for=\"prinFam2\">Nom de famille de la personne-ressource</label><br><input id=\"prinFam2\" maxlength=\"40\" size=\"40\"></p>\n<p><label for=\"prinGiv2\">Pr\u00e9nom de la personne-ressource</label><br><input id=\"prinGiv2\" maxlength=\"40\" size=\"40\"></p>\n<p><label for=\"prinBirth2\">Date de naissance (AAAA-MM-JJ)</label><br><input id=\"prinBirth2\" maxlength=\"10\" size=\"10\"></p>\n<p><label for=\"prinProf2\">Part des b\u00e9n\u00e9fices (%)</label><br><input id=\"prinProf2\" maxlength=\"10\" size=\"10\"></p>\n<p><label for=\"prinPos2\">Titre</label><br><input id=\"prinPos2\" maxlength=\"40\" size=\"40\"></p>\n<p><label for=\"prinTel2\">Num\u00e9ro de t\u00e9l\u00e9phone</label><br><input id=\"prinTel2\" maxlength=\"12\" size=\"12\"></p>\n<p><label for=\"prinExt2\">Poste</label><br><input id=\"prinExt2\" maxlength=\"10\" size=\"10\"></p>\n<p><label for=\"prinAdd2\">Adresse</label><br><input id=\"prinAdd2\" maxlength=\"40\" size=\"40\"></p>\n<p><label for=\"prinMuni2\">Municipalit\u00e9 (ville, village, etc.)</label><br><input id=\"prinMuni2\" maxlength=\"40\" size=\"40\"></p>\n<p><label for=\"prinProv2\">Province/\u00c9tat/Pays</label><br><input id=\"prinProv2\" maxlength=\"40\" size=\"40\"></p>\n<p><label for=\"prinPost2\">Code postal/ZIP</label><br><input id=\"prinPost2\" maxlength=\"40\" size=\"6\"></p>\n<p><label for=\"prinTele2\">Num\u00e9ro de t\u00e9l\u00e9phone</label><br><input id=\"prinTele2\" maxlength=\"12\" size=\"12\"></p>\n<p><label for=\"prinExte2\">Poste</label><br><input id=\"prinExte2\" maxlength=\"10\" size=\"10\"></p>\n<p><label for=\"prinFax2\">Num\u00e9ro de t\u00e9l\u00e9copieur</label><br><input id=\"prinFax2\" maxlength=\"12\" size=\"12\"></p>\n</fieldset>\n<fieldset>\n<p><label for=\"prinFam3\">Nom de famille de la personne-ressource</label><br><input id=\"prinFam3\" maxlength=\"40\" size=\"40\"></p>\n<p><label for=\"prinGiv3\">Pr\u00e9nom de la personne-ressource</label><br><input id=\"prinGiv3\" maxlength=\"40\" size=\"40\"></p>\n<p><label for=\"prinBirth3\">Date de naissance (AAAA-MM-JJ)</label><br><input id=\"prinBirth3\" maxlength=\"10\" size=\"10\"></p>\n<p><label for=\"prinProf3\">Part des b\u00e9n\u00e9fices (%)</label><br><input id=\"prinProf3\" maxlength=\"10\" size=\"10\"></p>\n<p><label for=\"prinPos3\">Titre</label><br><input id=\"prinPos3\" maxlength=\"40\" size=\"40\"></p>\n<p><label for=\"prinTel3\">Num\u00e9ro de t\u00e9l\u00e9phone</label><br><input id=\"prinTel3\" maxlength=\"12\" size=\"12\"></p>\n<p><label for=\"prinExt3\">Poste</label><br><input id=\"prinExt3\" maxlength=\"10\" size=\"10\"></p>\n<p><label for=\"prinAdd3\">Adresse</label><br><input id=\"prinAdd3\" maxlength=\"40\" size=\"40\"></p>\n<p><label for=\"prinMuni3\">Municipalit\u00e9 (ville, village, etc.)</label><br><input id=\"prinMuni3\" maxlength=\"40\" size=\"40\"></p>\n<p><label for=\"prinProv3\">Province/\u00c9tat/Pays</label><br><input id=\"prinProv3\" maxlength=\"40\" size=\"40\"></p>\n<p><label for=\"prinPost3\">Code postal/ZIP</label><br><input id=\"prinPost3\" maxlength=\"40\" size=\"6\"></p>\n<p><label for=\"prinTele3\">Num\u00e9ro de t\u00e9l\u00e9phone</label><br><input id=\"prinTele3\" maxlength=\"12\" size=\"12\"></p>\n<p><label for=\"prinExte3\">Poste</label><br><input id=\"prinExte3\" maxlength=\"10\" size=\"10\"></p>\n<p><label for=\"prinFax3\">Num\u00e9ro de t\u00e9l\u00e9copieur</label><br><input id=\"prinFax3\" maxlength=\"12\" size=\"12\"></p>\n</fieldset>\n<fieldset>\n<p><label for=\"prinFam4\">Nom de famille de la personne-ressource</label><br><input id=\"prinFam4\" maxlength=\"40\" size=\"40\"></p>\n<p><label for=\"prinGiv4\">Pr\u00e9nom de la personne-ressource</label><br><input id=\"prinGiv4\" maxlength=\"40\" size=\"40\"></p>\n<p><label for=\"prinBirth4\">Date de naissance (AAAA-MM-JJ)</label><br><input id=\"prinBirth4\" maxlength=\"10\" size=\"10\"></p>\n<p><label for=\"prinProf4\">Part des b\u00e9n\u00e9fices (%)</label><br><input id=\"prinProf4\" maxlength=\"10\" size=\"10\"></p>\n<p><label for=\"prinPos4\">Titre</label><br><input id=\"prinPos4\" maxlength=\"40\" size=\"40\"></p>\n<p><label for=\"prinTel4\">Num\u00e9ro de t\u00e9l\u00e9phone</label><br><input id=\"prinTel4\" maxlength=\"12\" size=\"12\"></p>\n<p><label for=\"prinExt4\">Poste</label><br><input id=\"prinExt4\" maxlength=\"10\" size=\"10\"></p>\n<p><label for=\"prinAdd4\">Adresse</label><br><input id=\"prinAdd4\" maxlength=\"40\" size=\"40\"></p>\n<p><label for=\"prinMuni4\">Municipalit\u00e9 (ville, village, etc.)</label><br><input id=\"prinMuni4\" maxlength=\"40\" size=\"40\"></p>\n<p><label for=\"prinProv4\">Province/\u00c9tat/Pays</label><br><input id=\"prinProv4\" maxlength=\"40\" size=\"40\"></p>\n<p><label for=\"prinPost4\">Code postal/ZIP</label><br><input id=\"prinPost4\" maxlength=\"40\" size=\"6\"></p>\n<p><label for=\"prinTele4\">Num\u00e9ro de t\u00e9l\u00e9phone</label><br><input id=\"prinTele4\" maxlength=\"12\" size=\"12\"></p>\n<p><label for=\"prinExte4\">Poste</label><br><input id=\"prinExte4\" maxlength=\"10\" size=\"10\"></p>\n<p><label for=\"prinFax4\">Num\u00e9ro de t\u00e9l\u00e9copieur</label><br><input id=\"prinFax4\" maxlength=\"12\" size=\"12\"></p>\n</fieldset>\n<fieldset>\n<p><label for=\"prinFam5\">Nom de famille de la personne-ressource</label><br><input id=\"prinFam5\" maxlength=\"40\" size=\"40\"></p>\n<p><label for=\"prinGiv5\">Pr\u00e9nom de la personne-ressource</label><br><input id=\"prinGiv5\" maxlength=\"40\" size=\"40\"></p>\n<p><label for=\"prinBirth5\">Date de naissance (AAAA-MM-JJ)</label><br><input id=\"prinBirth5\" maxlength=\"10\" size=\"10\"></p>\n<p><label for=\"prinProf5\">Part des b\u00e9n\u00e9fices (%)</label><br><input id=\"prinProf5\" maxlength=\"10\" size=\"10\"></p>\n<p><label for=\"prinPos5\">Titre</label><br><input id=\"prinPos5\" maxlength=\"40\" size=\"40\"></p>\n<p><label for=\"prinTel5\">Num\u00e9ro de t\u00e9l\u00e9phone</label><br><input id=\"prinTel5\" maxlength=\"12\" size=\"12\"></p>\n<p><label for=\"prinExt5\">Poste</label><br><input id=\"prinExt5\" maxlength=\"10\" size=\"10\"></p>\n<p><label for=\"prinAdd5\">Adresse</label><br><input id=\"prinAdd5\" maxlength=\"40\" size=\"40\"></p>\n<p><label for=\"prinMuni5\">Municipalit\u00e9 (ville, village, etc.)</label><br><input id=\"prinMuni5\" maxlength=\"40\" size=\"40\"></p>\n<p><label for=\"prinProv5\">Province/\u00c9tat/Pays</label><br><input id=\"prinProv5\" maxlength=\"40\" size=\"40\"></p>\n<p><label for=\"prinPost5\">Code postal/ZIP</label><br><input id=\"prinPost5\" maxlength=\"6\" size=\"6\"></p>\n<p><label for=\"prinTele5\">Num\u00e9ro de t\u00e9l\u00e9phone</label><br><input id=\"prinTele5\" maxlength=\"12\" size=\"12\"></p>\n<p><label for=\"prinExte5\">Poste</label><br><input id=\"prinExte5\" maxlength=\"10\" size=\"10\"></p>\n<p><label for=\"prinFax5\">Num\u00e9ro de t\u00e9l\u00e9copieur</label><br><input id=\"prinFax5\" maxlength=\"12\" size=\"12\"></p>\n</fieldset>\n<h3>\u00c9tablissement bancaire</h3>\n<p>(S'il s'agit d'une entreprise individuelle ou d'une soci\u00e9t\u00e9 \u00e0 responsabilit\u00e9, veuillez indiquer les renseignements de l'\u00e9tablissement financier de chaque propri\u00e9taire-partenaire.)</p>\n<fieldset>\n<p><label for=\"bankFin\">Nom de l'\u00e9tablissement financier</label><br><input id=\"bankFin\" maxlength=\"40\" size=\"40\"></p>\n<p><label for=\"bankTra\">Num\u00e9ro de succursale</label><br><input id=\"bankTra\" maxlength=\"20\" size=\"20\"></p>\n<p><label for=\"bankAcc\">Num\u00e9ro de compte(s)</label><br><input id=\"bankAcc\" maxlength=\"20\" size=\"20\"></p>\n<p><label for=\"bankMan\">Charg\u00e9 de compte</label><br><input id=\"bankMan\" maxlength=\"40\" size=\"40\"></p>\n<p><label for=\"bankTel\">Num\u00e9ro de t\u00e9l\u00e9phone</label><br><input id=\"bankTel\" maxlength=\"12\" size=\"12\"></p>\n<p><label for=\"bankExt\">Poste</label><br><input id=\"bankExt\" maxlength=\"10\" size=\"10\"></p>\n<p><label for=\"bankFax\">Num\u00e9ro de t\u00e9l\u00e9copieur</label><br><input id=\"bankFax\" maxlength=\"12\" size=\"12\"></p>\n</fieldset>\n<fieldset>\n<p><label for=\"bankFin2\">Nom de l'\u00e9tablissement financier</label><br><input id=\"bankFin2\" maxlength=\"40\" size=\"40\"></p>\n<p><label for=\"bankTra2\">Num\u00e9ro de succursale</label><br><input id=\"bankTra2\" maxlength=\"20\" size=\"20\"></p>\n<p><label for=\"bankAcc2\">Num\u00e9ro de compte(s)</label><br><input id=\"bankAcc2\" maxlength=\"20\" size=\"20\"></p>\n<p><label for=\"bankMan2\">Charg\u00e9 de compte</label><br><input id=\"bankMan2\" maxlength=\"40\" size=\"40\"></p>\n<p><label for=\"bankTel2\">Num\u00e9ro de t\u00e9l\u00e9phone</label><br><input id=\"bankTel2\" maxlength=\"12\" size=\"12\"></p>\n<p><label for=\"bankExt2\">Poste</label><br><input id=\"bankExt2\" maxlength=\"10\" size=\"10\"></p>\n<p><label for=\"bankFax2\">Num\u00e9ro de t\u00e9l\u00e9copieur</label><br><input id=\"bankFax2\" maxlength=\"12\" size=\"12\"></p>\n</fieldset>\n<fieldset>\n<p><label for=\"bankFin3\">Nom de l'\u00e9tablissement financier</label><br><input id=\"bankFin3\" maxlength=\"40\" size=\"40\"></p>\n<p><label for=\"bankTra3\">Num\u00e9ro de succursale</label><br><input id=\"bankTra3\" maxlength=\"20\" size=\"20\"></p>\n<p><label for=\"bankAcc3\">Num\u00e9ro de compte(s)</label><br><input id=\"bankAcc3\" maxlength=\"20\" size=\"20\"></p>\n<p><label for=\"bankMan3\">Charg\u00e9 de compte</label><br><input id=\"bankMan3\" maxlength=\"40\" size=\"40\"></p>\n<p><label for=\"bankTel3\">Num\u00e9ro de t\u00e9l\u00e9phone</label><br><input id=\"bankTel3\" maxlength=\"12\" size=\"12\"></p>\n<p><label for=\"bankExt3\">Poste</label><br><input id=\"bankExt3\" maxlength=\"10\" size=\"10\"></p>\n<p><label for=\"bankFax3\">Num\u00e9ro de t\u00e9l\u00e9copieur</label><br><input id=\"bankFax3\" maxlength=\"12\" size=\"12\"></p>\n</fieldset>\n<fieldset>\n<p><label for=\"bankFin4\">Nom de l'\u00e9tablissement financier</label><br><input id=\"bankFin4\" maxlength=\"40\" size=\"40\"></p>\n<p><label for=\"bankTra4\">Num\u00e9ro de succursale</label><br><input id=\"bankTra4\" maxlength=\"20\" size=\"20\"></p>\n<p><label for=\"bankAcc4\">Num\u00e9ro de compte(s)</label><br><input id=\"bankAcc4\" maxlength=\"20\" size=\"20\"></p>\n<p><label for=\"bankMan4\">Charg\u00e9 de compte</label><br><input id=\"bankMan4\" maxlength=\"40\" size=\"40\"></p>\n<p><label for=\"bankTel4\">Num\u00e9ro de t\u00e9l\u00e9phone</label><br><input id=\"bankTel4\" maxlength=\"12\" size=\"12\"></p>\n<p><label for=\"bankExt4\">Poste</label><br><input id=\"bankExt4\" maxlength=\"10\" size=\"10\"></p>\n<p><label for=\"bankFax4\">Num\u00e9ro de t\u00e9l\u00e9copieur</label><br><input id=\"bankFax4\" maxlength=\"12\" size=\"12\"></p>\n</fieldset>\n<fieldset>\n<p><label for=\"bankFin5\">Nom de l'\u00e9tablissement financier</label><br><input id=\"bankFin5\" maxlength=\"40\" size=\"40\"></p>\n<p><label for=\"bankTra5\">Num\u00e9ro de succursale</label><br><input id=\"bankTra5\" maxlength=\"20\" size=\"20\"></p>\n<p><label for=\"bankAcc5\">Num\u00e9ro de compte(s)</label><br><input id=\"bankAcc5\" maxlength=\"20\" size=\"20\"></p>\n<p><label for=\"bankMan5\">Charg\u00e9 de compte</label><br><input id=\"bankMan5\" maxlength=\"40\" size=\"40\"></p>\n<p><label for=\"bankTel5\">Num\u00e9ro de t\u00e9l\u00e9phone</label><br><input id=\"bankTel5\" maxlength=\"12\" size=\"12\"></p>\n<p><label for=\"bankExt5\">Poste</label><br><input id=\"bankExt5\" maxlength=\"10\" size=\"10\"></p>\n<p><label for=\"bankFax5\">Num\u00e9ro de t\u00e9l\u00e9copieur</label><br><input id=\"bankFax5\" maxlength=\"12\" size=\"12\"></p>\n</fieldset>\n<h3>Principaux fournisseurs</h3>\n<p>Veuillez indiquer vos principaux fournisseurs (dont au moins deux qui accordent un cr\u00e9dit \u00e0 votre entreprise).</p>\n<fieldset>\n<p><label for=\"supName\">Nom du fournisseur</label><br><input id=\"supName\" maxlength=\"40\" size=\"40\"></p>\n<p><label for=\"subBusi\">Genre d'entreprise</label><br><input id=\"subBusi\" maxlength=\"40\" size=\"40\"></p>\n<p><label for=\"supAcc\">Personne-ressource - Comptes d\u00e9biteurs</label><br><input id=\"supAcc\" maxlength=\"40\" size=\"40\"></p>\n<p><label for=\"supTel\">Num\u00e9ro de t\u00e9l\u00e9phone</label><br><input id=\"supTel\" maxlength=\"12\" size=\"12\"></p>\n<p><label for=\"supExt\">Poste</label><br><input id=\"supExt\" maxlength=\"10\" size=\"10\"></p>\n<p><label for=\"supSin\">Depuis (nombre d'ann\u00e9es)</label><br><input id=\"supSin\" maxlength=\"10\" size=\"10\"></p>\n<p><label for=\"supAnn\">Achats annuels</label><br><input id=\"supAnn\" maxlength=\"25\" size=\"25\"> $</p>\n</fieldset>\n<fieldset>\n<p><label for=\"supName2\">Nom du fournisseur</label><br><input id=\"supName2\" maxlength=\"40\" size=\"40\"></p>\n<p><label for=\"subBusi2\">Genre d'entreprise</label><br><input id=\"subBusi2\" maxlength=\"40\" size=\"40\"></p>\n<p><label for=\"supAcc2\">Personne-ressource - Comptes d\u00e9biteurs</label><br><input id=\"supAcc2\" maxlength=\"40\" size=\"40\"></p>\n<p><label for=\"supTel2\">Num\u00e9ro de t\u00e9l\u00e9phone</label><br><input id=\"supTel2\" maxlength=\"12\" size=\"12\"></p>\n<p><label for=\"supExt2\">Poste</label><br><input id=\"supExt2\" maxlength=\"10\" size=\"10\"></p>\n<p><label for=\"supSin2\">Depuis (nombre d'ann\u00e9es)</label><br><input id=\"supSin2\" maxlength=\"10\" size=\"10\"></p>\n<p><label for=\"supAnn2\">Achats annuels</label><br><input id=\"supAnn2\" maxlength=\"25\" size=\"25\"> $</p>\n</fieldset>\n<fieldset>\n<p><label for=\"supName3\">Nom du fournisseur</label><br><input id=\"supName3\" maxlength=\"40\" size=\"40\"></p>\n<p><label for=\"subBusi3\">Genre d'entreprise</label><br><input id=\"subBusi3\" maxlength=\"40\" size=\"40\"></p>\n<p><label for=\"supAcc3\">Personne-ressource - Comptes d\u00e9biteurs</label><br><input id=\"supAcc3\" maxlength=\"40\" size=\"40\"></p>\n<p><label for=\"supTel3\">Num\u00e9ro de t\u00e9l\u00e9phone</label><br><input id=\"supTel3\" maxlength=\"12\" size=\"12\"></p>\n<p><label for=\"supExt3\">Poste</label><br><input id=\"supExt3\" maxlength=\"10\" size=\"10\"></p>\n<p><label for=\"supSin3\">Depuis (nombre d'ann\u00e9es)</label><br><input id=\"supSin3\" maxlength=\"10\" size=\"10\"></p>\n<p><label for=\"supAnn3\">Achats annuels</label><br><input id=\"supAnn3\" maxlength=\"25\" size=\"25\"> $</p>\n</fieldset>\n<fieldset>\n<p><label for=\"supName4\">Nom du fournisseur</label><br><input id=\"supName4\" maxlength=\"40\" size=\"40\"></p>\n<p><label for=\"subBusi4\">Genre d'entreprise</label><br><input id=\"subBusi4\" maxlength=\"40\" size=\"40\"></p>\n<p><label for=\"supAcc4\">Personne-ressource - Comptes d\u00e9biteurs</label><br><input id=\"supAcc4\" maxlength=\"40\" size=\"40\"></p>\n<p><label for=\"supTel4\">Num\u00e9ro de t\u00e9l\u00e9phone</label><br><input id=\"supTel4\" maxlength=\"12\" size=\"12\"></p>\n<p><label for=\"supExt4\">Poste</label><br><input id=\"supExt4\" maxlength=\"10\" size=\"10\"></p>\n<p><label for=\"supSin4\">Depuis (nombre d'ann\u00e9es)</label><br><input id=\"supSin4\" maxlength=\"10\" size=\"10\"></p>\n<p><label for=\"supAnn4\">Achats annuels</label><br><input id=\"supAnn4\" maxlength=\"25\" size=\"25\"> $</p>\n</fieldset>\n<fieldset>\n<p><label for=\"supName5\">Nom du fournisseur</label><br><input id=\"supName5\" maxlength=\"40\" size=\"40\"></p>\n<p><label for=\"subBusi5\">Genre d'entreprise</label><br><input id=\"subBusi5\" maxlength=\"40\" size=\"40\"></p>\n<p><label for=\"supAcc5\">Personne-ressource - Comptes d\u00e9biteurs</label><br><input id=\"supAcc5\" maxlength=\"40\" size=\"40\"></p>\n<p><label for=\"supTel5\">Num\u00e9ro de t\u00e9l\u00e9phone</label><br><input id=\"supTel5\" maxlength=\"12\" size=\"12\"></p>\n<p><label for=\"supExt5\">Poste</label><br><input id=\"supExt5\" maxlength=\"10\" size=\"10\"></p>\n<p><label for=\"supSin5\">Depuis (nombre d'ann\u00e9es)</label><br><input id=\"supSin5\" maxlength=\"10\" size=\"10\"></p>\n<p><label for=\"supAnn5\">Achats annuels</label><br><input id=\"supAnn5\" maxlength=\"25\" size=\"25\"> $</p>\n</fieldset>\n\n<h2>Partie C - Autorisation</h2>\n\n<p><strong>Autorisation (par la ou les personnes reconnues comme signataires autoris\u00e9s de l'institution financi\u00e8re du client)</strong></p>\n\n<p>J'atteste que les renseignements susmentionn\u00e9s sont corrects et je demande par la pr\u00e9sente des privil\u00e8ges de cr\u00e9dit \u00e0 Sa Majest\u00e9 la Reine en chef du Canada qui est repr\u00e9sent\u00e9e par le ministre de l'Agriculture et de l'Agroalimentaire, ci-apr\u00e8s d\u00e9sign\u00e9 comme \u00ab Sa Majest\u00e9 \u00bb. Dans le cadre de la demande dont il est question \u00e0 la Partie A et, s'il y a lieu, le propri\u00e9taire d'une entreprise individuelle ou les partenaires d'une soci\u00e9t\u00e9 de personnes mentionn\u00e9e \u00e0 la Partie B, suivant les signataires autoris\u00e9s ci-dessous, consentent \u00e0 la r\u00e9ception et \u00e0 l'\u00e9change de renseignements sur le cr\u00e9dit par Sa Majest\u00e9 aupr\u00e8s de toute agence d'\u00e9valuation de cr\u00e9dit, bureau de cr\u00e9dit, \u00e9tablissement financier ou toute personne ou soci\u00e9t\u00e9 avec lesquels le client effectue ou se propose d'effectuer des transactions financi\u00e8res. Le demandeur reconna\u00eet avoir pris connaissance des modalit\u00e9s de cr\u00e9dit qui figurent au verso de la pr\u00e9sente demande, et dans la mesure o\u00f9 le cr\u00e9dit est accord\u00e9 au demandeur, ce dernier accepte de se conformer \u00e0 ces modalit\u00e9s.</p>\n\n<p>Les renseignements que vous fournissez dans ce document sont recueillis par Agriculture et Agroalimentaire Canada (AAC) en vertu de la <i>Loi sur la gestion des finances publiques</i> (LGFP), de la <i>Loi de l'imp\u00f4t sur le revenu</i> (LIR) et de la Loi sur la protection du revenu agricole (LPRA) dans le but d'appuyer le recouvrement des dettes envers l'institution et le receveur g\u00e9n\u00e9ral du Canada. Les renseignements serviront \u00e0 \u00e9valuer la viabilit\u00e9 financi\u00e8re de l'individu ou de la soci\u00e9t\u00e9, afin d'obtenir des donn\u00e9es financi\u00e8res des agences d'\u00e9valuation du cr\u00e9dit, d'\u00e9tablissements financiers ou de fournisseurs. Les renseignements peuvent \u00eatre transmis aux agences de recouvrement aux fins de recouvrement des dettes. Les renseignements personnels seront prot\u00e9g\u00e9s en vertu des dispositions de la <i>Loi sur la protection des renseignements personnels</i> et sont indiqu\u00e9s dans le Fichier de renseignements personnels PSU\u00a0932, intitul\u00e9 \u00ab\u00a0Comptes d\u00e9biteurs\u00a0\u00bb. Vous avez le droit d'acc\u00e9der \u00e0 vos donn\u00e9es personnelles et de demander des modifications concernant les donn\u00e9es inexactes. Si vous voulez vous pr\u00e9valoir de ce droit, veuillez communiquer avec le coordonnateur de l'Acc\u00e8s \u00e0 l'information et de la protection des renseignements personnels (AIPRP), au num\u00e9ro suivant\u00a0: 613-773-1386.</p>\n\n<p>Les conditions r\u00e9gissant les privil\u00e8ges de cr\u00e9dit accord\u00e9s par le ministre sont les suivantes\u00a0: \u00ab\u00a0Ministre\u00a0\u00bb d\u00e9signe le ministre de l'Agriculture et de l'Agroalimentaire ou toute personne autoris\u00e9e \u00e0 agir en son nom. \u00ab\u00a0Client\u00a0\u00bb d\u00e9signe une organisation ou un individu qui a un compte avec Agriculture et Agroalimentaire Canada.</p>\n<ol>\n\t<li>Le client accepte de verser \u00e0 Sa Majest\u00e9 le montant d\u00fb pour tous les biens ou services obtenus, qui sont vis\u00e9s par les modalit\u00e9s de paiement en vigueur \u00e0 la date de la prestation des biens et services \u00e9nonc\u00e9es sur une facture ou un autre document \u00e9crit s'appliquant sp\u00e9cifiquement \u00e0 cette prestation aupr\u00e8s du ministre. Une r\u00e9duction n'est pas accord\u00e9e en cas de paiement rapide. Des frais d'int\u00e9r\u00eat seront imput\u00e9s aux clients sur tout compte en souffrance, en conformit\u00e9 avec les accords conclus ou dans la mesure permise par la loi ou le r\u00e8glement.</li>\n    <li>Des frais administratifs seront imput\u00e9s \u00e0 tout compte dont le ch\u00e8que ou autre effet de paiement est refus\u00e9 par l'\u00e9tablissement financier sur lequel il est tir\u00e9 du fait qu'il est sans provision ou pour une autre raison.</li>\n    <li>Selon les r\u00e9sultats de l'\u00e9valuation de cr\u00e9dit et lorsque l'entente contractuelle le permet, le ministre peut demander un d\u00e9p\u00f4t de garantie au client lorsque la capacit\u00e9 future du client d'acquitter une dette en conformit\u00e9 avec les modalit\u00e9s de paiement est incertaine ou lorsque le client a des ant\u00e9c\u00e9dents de paiement tardif visant ses comptes.</li>\n    <li>Les privil\u00e8ges de cr\u00e9dit peuvent \u00eatre retir\u00e9s ou les modalit\u00e9s de paiement modifi\u00e9es s'il appert que le client a fait une fausse d\u00e9claration ou qu'il est autrement en contravention des conditions et modalit\u00e9s impos\u00e9es ou si la limite de cr\u00e9dit du client est atteinte et que la r\u00e9\u00e9valuation du compte ne soutient pas l'augmentation de la limite de cr\u00e9dit; le ministre obtient des preuves selon lesquelles la viabilit\u00e9 financi\u00e8re du client est compromise ou qu'il ne peut s'attendre raisonnablement \u00e0 toucher de paiement pour les services demand\u00e9s ou toute autre raison jug\u00e9e appropri\u00e9e par le ministre. Lorsque les privil\u00e8ges de cr\u00e9dit sont retir\u00e9s, le client doit payer \u00e0 l'avance les biens et services demand\u00e9s.</li>\n    <li>Si \u00e0 la suite d'un renseignement falsifi\u00e9, un client obtient un cr\u00e9dit qui autrement ne lui aurait pas \u00e9t\u00e9 accord\u00e9, ce dernier doit acquitter int\u00e9gralement les sommes dues, quelque soit sa d\u00e9cision concernant une poursuite \u00e9ventuelle.</li>\n    <li>Sur r\u00e9ception d'une demande des repr\u00e9sentants du Minist\u00e8re, le client doit fournir un exemplaire des \u00e9tats financiers de son entreprise ou de tout autre document demand\u00e9.</li>\n    <li>Le client doit informer le ministre de tout changement d'adresse ou de r\u00e9gime de propri\u00e9t\u00e9 de l'entreprise dans les cinq jours ouvrable qui suivent la date du changement.</li>\n    <li>Les renseignements indiqu\u00e9s sur la pr\u00e9sente demande ou obtenus lors de communications avec les repr\u00e9sentants du Minist\u00e8re touchant l'octroi d'un cr\u00e9dit aux termes de la pr\u00e9sente demande peuvent \u00eatre utilis\u00e9s par le gouvernement du Canada ou ses mandataires, en conformit\u00e9 avec les pratiques commerciales \u00e9tablies et les lois et directives pertinentes des gouvernements f\u00e9d\u00e9ral et provinciaux, en vue de recouvrer les sommes dues sur les comptes. La perception des montants en souffrance peut comporter le recours aux agences de recouvrement priv\u00e9es ainsi que la communication des renseignements fournis par le client \u00e0 ces agences.</li>\n    <li>En ce qui a trait \u00e0 la collecte visant un compte en souffrance, il convient de souligner que si le demandeur est admissible \u00e0 un paiement d'Agriculture et Agroalimentaire Canada, de l'Agence du revenu du Canada ou de tout autre minist\u00e8re ou soci\u00e9t\u00e9 d'\u00c9tat, nous entendons prendre des mesures afin de retenir ces paiements et de les appliquer au paiement des dettes existantes, et les renseignements communiqu\u00e9s par le client peuvent \u00eatre fournis \u00e0 un autre minist\u00e8re.</li>\n</ol>\n<fieldset>\n<p><label for=\"authName\">Nom</label><br><input id=\"authName\" maxlength=\"40\" size=\"40\"></p>\n<p><label for=\"authTitle\">Titre</label><br><input id=\"authTitle\" maxlength=\"40\" size=\"40\"></p>\n<p>Signature :</p>\n<br>\n<p><label for=\"authDate\">Date (AAAA-MM-JJ)</label><br><input id=\"authDate\" maxlength=\"10\" size=\"10\"></p>\n</fieldset>\n<fieldset>\n<p><label for=\"authName2\">Nom</label><br><input id=\"authName2\" maxlength=\"40\" size=\"40\"></p>\n<p><label for=\"authTitle2\">Titre</label><br><input id=\"authTitle2\" maxlength=\"40\" size=\"40\"></p>\n<p>Signature :</p>\n<br>\n<p><label for=\"authDate2\">Date (AAAA-MM-JJ)</label><br><input id=\"authDate2\" maxlength=\"10\" size=\"10\"></p>\n</fieldset>\n<h3>Unit\u00e9 des Finances</h3>\n<p>Veuillez envoyer la Demande de cr\u00e9dit remplie \u00e0 l'Unit\u00e9 des Finances :</p>\n<p><label for=\"finName\">Nom de l'agent financier local</label><br><input id=\"finName\" maxlength=\"40\" size=\"40\"></p>\n<p><label for=\"finAdd\">Adresse</label><br><input id=\"finAdd\" maxlength=\"40\" size=\"40\"></p>\n<p><label for=\"finMin\">Municipalit\u00e9 (ville, village, etc.)</label><br><input id=\"finMin\" maxlength=\"40\" size=\"40\"></p>\n<p><label for=\"finProv\">Province/\u00c9tat/Pays</label><br><input id=\"finProv\" maxlength=\"40\" size=\"40\"></p>\n<p><label for=\"finPost\">Code postal/ZIP</label><br><input id=\"finPost\" maxlength=\"6\" size=\"6\"></p>\n<p><label for=\"finTel\">Num\u00e9ro de t\u00e9l\u00e9phone</label><br><input id=\"finTel\" maxlength=\"12\" size=\"12\"></p>\n<p><label for=\"finExt\">Poste</label><br><input id=\"finExt\" maxlength=\"10\" size=\"10\"></p>\n<p><label for=\"finFax\">Num\u00e9ro de t\u00e9l\u00e9copieur</label><br><input id=\"finFax\" maxlength=\"12\" size=\"12\"></p>\n<h4>R\u00e9serv\u00e9 \u00e0 l'usage du bureau de l'Unit\u00e9 des Finances</h4>\n<p>Signature de l'agent financier local :</p>\n<p>Date :</p>\n<p><strong>L'Unit\u00e9 des Finances doit acheminer la Demande de cr\u00e9dit remplie \u00e0 l'Unit\u00e9 de la gestion des revenus\u00a0:</strong></p>\n<p>Num\u00e9ro de t\u00e9l\u00e9phone: 1-800-282-6249</p>\n<p>Num\u00e9ro de t\u00e9l\u00e9copieur: 1-613-773-0660</p>\n\n<h3>R\u00e9serv\u00e9 \u00e0 l'usage de l'Unit\u00e9 de la gestion des revenus</h3>\n<p>Num\u00e9ro du client :</p>\n<p>Signature :</p>\n<p>Date :</p>\n<ul>\n\t<li>Approuv\u00e9e $</li>\n    <li>Approuv\u00e9e avec condition(s) $</li>\n    <li>Refus\u00e9e</li>\n</ul>\n<p>Recommand\u00e9e par :</p>\n<p>Date :</p>\n<p>Approuv\u00e9e ou refus\u00e9e par :</p>\n<p>Date :</p>\n<p><strong>Veuillez signer la Partie C Autorisation.</strong></p>\n<p class=\"text-center\"><input type=\"button\" value=\"Imprimer\" onclick=\"window.print();return false;\"></p>\n</form>\n\n\r\n    "
    }
}