{
    "dcr_id": "1382649715177",
    "title": {
        "en": "Secretary's manual (page 5 of 9)",
        "fr": "Guide \u00e0 l'intention du secr\u00e9tariat (page 5 de 9)"
    },
    "modified": "2020-03-17",
    "issued": "2011-01-30",
    "templatetype": "content page 1 column",
    "page_type": "0",
    "node_id": "1354137773675",
    "dc_date_created": "2011-01-30",
    "managing_branch": "MISB",
    "parent_node_id": "",
    "short_title": "By-laws",
    "exturl": "",
    "teamsite_location": {
        "en": "/default/main/AAFC-AAC/Internet-Internet/MISB-DGSIM/SDAD-DDAS/AG-GA/WORKAREA/AG-GA/templatedata/comm-comm/gene-gene/data/apasm_page5_by-laws_1382649715177_en",
        "fr": "/default/main/AAFC-AAC/Internet-Internet/MISB-DGSIM/SDAD-DDAS/AG-GA/WORKAREA/AG-GA/templatedata/comm-comm/gene-gene/data/apasm_page5_by-laws_1382649715177_fr"
    },
    "type_name": "comm-comm/gene-gene",
    "has_dcr_id": true,
    "label": {
        "en": "By-laws",
        "fr": "R\u00e9glements administratifs"
    },
    "breadcrumb": {
        "en": "By-laws",
        "fr": "R\u00e9glements administratifs"
    },
    "layout_name": "content page 1 column",
    "lang": "en",
    "refaire": false,
    "meta": {
        "viewport": {
            "en": "width=device-width,initial-scale=1",
            "fr": "width=device-width, initial-scale=1"
        },
        "issued": {
            "en": "2011-01-30",
            "fr": "2003-02-24"
        },
        "modified": {
            "en": "2020-03-17",
            "fr": "2020-03-17"
        },
        "format": {
            "en": "gcformat",
            "fr": "gcformat"
        },
        "title": {
            "en": "Secretary's manual (page 5 of 9)",
            "fr": "Guide \u00e0 l'intention du secr\u00e9tariat (page 5 de 9)"
        },
        "subject": {
            "en": "dairy;cattle;beef;animal production;animal industry;animal breeding;agricultural policy framework (apf);sheep;regulations;provincial governments;agricultural industries;poultry;policies;legislation;law;guidelines;goats;government publications;government information;genetics;federal government;agricultural policy;agricultural law",
            "fr": "l\u00e9gislation;information gouvernementale;industrie animale;g\u00e9n\u00e9tique;gouvernement provincial;gouvernement f\u00e9d\u00e9ral;distribution alimentaire;animaux-am\u00e9lioration;\u00e9levage d'animaux;r\u00e8glements;publications gouvernementales;animaux am\u00e9lioration;agronomie"
        },
        "dcterms:subject": {
            "en": "environment;certification;best practices;animals;animal reproduction;agriculture;agricultural policy;regulations;provincial governments;programs;policy;legislation;law;agreements;intellectual property;guidelines;government publications;government policy;government information;genetics;food;federal contracts;federal government;farms;agri-food products;agri-food industry",
            "fr": "gouvernement provincial;gouvernement des f\u00e9d\u00e9ral;contrat;contrat du gouvernement f\u00e9d\u00e9ral;animal;alimentation animale;alimentation;aliment;\u00e9conomie agricole;r\u00e8glements;publication gouvernementale;produit agro-alimentaire;politique agricole;information gouvernementale;industrie agro-alimentaire;g\u00e9n\u00e9tique;aide \u00e0 l'agriculture;agriculture"
        },
        "description": {
            "en": "This manual is meant to be an explanatory guide in which we have attempted to simplify the terms of the Animal Pedigree Act for easy reference. The manual contains comments on certain provisions of the Act and reflects the interpretation and policy of the Office of the Animal Registration Officer, which may change from time to time to reflect new legislation, jurisprudence or industry factors. In the case of any conflict between this manual and the Animal Pedigree Act, the latter is to be followed. This manual is not meant to substitute for independent legal advice and opinion.",
            "fr": "\u00c9valuation du Programme de la. Loi canadienne sur les pr\u00eats agricoles. Cette \u00e9valuation r\u00e9pond \u00e0 une exigence de la. Loi canadienne sur les pr\u00eats agricoles. (LCPA) dans le cadre du Plan int\u00e9gr\u00e9 de v\u00e9rification et d\u2019\u00e9valuation de 2018-2019 \u00e0 2021-2022."
        },
        "language": {
            "en": "eng",
            "fr": "fra"
        },
        "keywords": {
            "en": "Breed Associations;Animal Pedigree Act",
            "fr": "race.Lorsqu;importante.\u00c9tablissement;\u00e9corn\u00e9s"
        },
        "audience": {
            "en": "gcaudience",
            "fr": "gcaudience"
        },
        "type": {
            "en": "policy",
            "fr": "pr\u00e9sentation"
        },
        "creator": {
            "en": "Market and Industry Services Branch;Agriculture and Agri-Food Canada;Government of Canada",
            "fr": "Direction g\u00e9n\u00e9rale des services \u00e0 l'industrie et aux march\u00e9s;Agriculture et Agroalimentaire Canada;Gouvernement du Canada"
        },
        "spatial": {
            "en": "gcregions",
            "fr": "gcregions"
        },
        "service": {
            "en": "AAFC-AAC",
            "fr": "AAFC-AAC"
        },
        "accessRights": {
            "en": "2",
            "fr": "2"
        },
        "legalName": {
            "en": "agriculture_and_agri_food_canada",
            "fr": "agriculture_et_agroalimentaire_canada"
        },
        "areaServed": {
            "en": "Canada",
            "fr": "Canada"
        }
    },
    "h1": {
        "en": "Secretary's manual (page 5 of 9)",
        "fr": "Guide \u00e0 l'intention du secr\u00e9tariat (page 5 de 9)"
    },
    "body": {
        "en": "\r\n    <div class=\"col-md-4 pull-right\" style=\"z-index: 1000\">\n<section class=\"panel panel-default\">\n<header class=\"panel-heading\">\n<h2 class=\"panel-title\">Animal Pedigree Act Secretary's Manual - Table of Contents</h2>\n</header>\n<div class=\"panel-body\"><ul>\n<li><a href=\"/eng/canadas-agriculture-sectors/animal-industry/animal-genetics/animal-pedigree-act/secretary-s-manual/introduction/?id=1382649715174\">Introduction</a></li>\n<li><a href=\"/eng/canadas-agriculture-sectors/animal-industry/animal-genetics/animal-pedigree-act/secretary-s-manual/breeds-under-the-animal-pedigree-act/?id=1382649715175\">Breeds under the Animal Pedigree Act</a></li>\n<li><a href=\"/eng/canadas-agriculture-sectors/animal-industry/animal-genetics/animal-pedigree-act/secretary-s-manual/governance-of-breed-associations/?id=1382649715176\">Governance of Breed Associations</a></li>\n<li>By-Laws</li>\n<li><a href=\"/eng/canadas-agriculture-sectors/animal-industry/animal-genetics/animal-pedigree-act/secretary-s-manual/enforcement-provisions/?id=1382649715178\">Enforcement provisions for breed associations</a></li>\n<li><a href=\"/eng/canadas-agriculture-sectors/animal-industry/animal-genetics/animal-pedigree-act/secretary-s-manual/glossary-of-terms/?id=1382649715179\">Glossary of terms</a></li>\n<li><a href=\"/eng/canadas-agriculture-sectors/animal-industry/animal-genetics/animal-pedigree-act/secretary-s-manual/breed-codes/?id=1382649715180\">Breed codes</a></li>\n<li><a href=\"/eng/canadas-agriculture-sectors/animal-industry/animal-genetics/animal-pedigree-act/secretary-s-manual/references/?id=1382649715181\">References</a></li>\n</ul></div>\n</section>\n</div>                             <h2>By-laws</h2>        <h3 id=\"int\">Introduction</h3>        <p>All breed associations must submit by-laws for approval          within one year of being incorporated under the Animal          Pedigree Act. No by-law, amendment or repeal has effect          until it is approved by the Minister. By-laws give legal          authority to an association by which it may conduct its          affairs. The by-laws bind every member.</p>        <h3 id=\"rules\">Registration rules of eligibility</h3>        <h4>Background</h4>        <p>Consistent with the Animal Pedigree Act, all breed associations must establish          rules respecting eligibility of animals for registration. The rules of eligibility          contained in the association by-laws should be comprehensive so as to clearly          indicate to the public the criteria by which animals will be included or excluded          from registration. For most breed associations, registration is by far the most          important activity.</p>        <h4>Establishing rules of eligibility</h4>        <p>Rules of eligibility for registration are established to achieve two objectives:</p>        <ol class=\"lst-lwr-alph\">          <li>The maintenance of minimum breed standards. These are like            trademark characteristics for the breed. Animals that do not meet            minimum breed standards which satisfy the broadest description of            the breed should not be registered as purebred. Only animals            which do conform should be accepted into the breeding population.</li>          <li>Enforcement of rules on ancestral lineage (pedigree). Animals must            have documented proof of relationship back to a common            foundation population. This should correspond to the minimum            definition of purebred accepted by the association. Animals            demonstrating lineage less than purebred requirements must have            the percentage purebred appropriately indicated.</li>        </ol>        <p>Rules of eligibility for registration should be based on genetic criteria. For          example, requiring that animals are dehorned as a condition for registration          would do nothing to effect a genetic change in the breed; however, requiring that          only genetically polled animals be allowed registration would have an influence.          Breed characteristics can only be improved if a trait is heritable and inheritance          patterns are well understood. As well as traits being heritable, there also must          be a balance with other breeding objectives related to improving performance          and enhancing overall viability of the population. Therefore, the degree of          emphasis on breed standards must be considered carefully.</p>        <p>Where a breed is well established and the definition of purebred is 100% (<abbr title=\"that is\">i.e.</abbr>          closed herdbook), it is common to reduce or even eliminate eligibility rules related          to breed standards and just concentrate on the pedigree. However, there are a          number of situations in which a breed association may wish to retain emphasis          on breed standards:</p>        <ol class=\"lst-lwr-alph\">          <li>where a breed is not well established and not            as genetically stable as desired for certain            trademark characteristics,</li>          <li>where definition of purebred is less than 100%            (may be no less than 7/8ths) and grading-up to            other breeds is known to diminish certain            accepted trademark characteristics, or</li>          <li>there is a desire to evolve the entire breed.            For example, there may be consensus to remove            a particular colour variant or a genetic disorder            from the population.</li>        </ol>        <p>Nevertheless, caution should be exercised in establishing rules of eligibility which          place undue emphasis on trademark characteristics or other breed standards.          The risk of too much emphasis is to limit the effective population size, limit          selection pressure on other more economically important traits, limit the ability          of the breed to evolve (breeds are dynamic populations), and perhaps even          decrease genetic variability in critical traits. Breed associations must recognize          that there is also an important role for performance recording, genetic          evaluation, and marketing which should be independent of the registry itself.</p>        <h4>Breed of improvement</h4>        <p>The first purpose of the Animal Pedigree Act is to promote breed improvement.          Breed improvement results from selecting certain animals as parents of the next          generation and excluding others. Breed improvement strategies may include          establishing rules of eligibility for registration which enforce breed standards,          culling poorly performing animals, promoting top performers as parents of the          next generation (<abbr title=\"that is\">i.e.</abbr> selection), and planning matings.</p>        <p>Genetic traits can be roughly separated into those which are considered          trademark characteristics (traits which identify the breed such as colour, size,          <abbr title=\"et cetera\">etc</abbr>.), fitness traits (<abbr title=\"for example\">eg.</abbr> fertility, disease resistance, absence of genetic disorders),          and other performance characteristics (<abbr title=\"for example\">eg.</abbr> growth rate, milk production, fibre          quality). Considering the relative impact of breed improvement strategies on          these genetic traits, we would find they are not all equally as effective. For example, it is          difficult to establish rules of eligibility which will improve a breed's fitness.          Registration occurs early in life whereas reproductive and health performance          need to be assessed closer to maturity. On the other hand, establishing rules of          eligibility to enforce breed standards is probably the best means of ensuring that          trademark characteristics of the breed are retained.</p>                <p>Given the emphasis of the Animal Pedigree Act on breed improvement, breed          associations have a special role in assisting breeders by providing a balance          of tools to improve their animals. The Act allows breed associations to make          by-laws (see Section 15(2) of the Act) respecting promotion and establishment          of breed improvement programs, inspection of animals for registration and          performance standards which must be met. However, caution must be exercised          to ensure that registration criteria aren't overused to the point of restricting the breeding population. The main emphasis of registration rules in addition to          pedigree requirements should be on the enforcement of breed standards to          ensure animals retain their essential trademark characteristics. Therefore, most          performance recording programs are additional to the registry system, although <strong>participation</strong> in performance recording may be considered a prerequisite to          registration.</p>        <p>In general, concentration on pedigree background is expected to improve          predictability of the animals in a breed. Concentration on the other areas of          breed improvement are expected to yield additional benefits.</p>        <ol>          <li>Trademark characteristics - enforcement of breed standards,            uniqueness</li>          <li>Performance traits - economic viability, marketability</li>          <li>Fitness traits - selection differential, breeding viability</li>        </ol>        <p>Breed associations should carefully consider where they wish to put emphasis for          the overall benefit of the breed. What will make the breed most competitive?          Over time the emphasis may change so breed associations must remain current          with the requirements of the market.</p>        <h4>Summary</h4>        <p>Rules of eligibility for registration should be kept simple, have a sound genetic          basis, and be used to ensure compliance with minimum breed standards and          ancestral lineage. It is just as critical to maintain a viable, sufficiently large and          diverse population from which to select animals. Performance and marketing          issues should be handled separately from the registry itself. When a breed is well          established and genetically stable, emphasis on breed standards may be replaced          by emphasis on performance traits. These will have a more direct impact on the          long-term economic viability and competitiveness of the breed.</p>        <h3 id=\"rec\">Recognition of foreign registries</h3>        <p>Breed associations may recognize foreign registries in whole or in part. The          effective size of a breeding population is expanded when foreign animals are          accessible to Canadian breeders. The benefits of a larger effective breeding          population can be realized when imported animals meet the minimum          requirements expected of the Canadian registered breed population. They should          also be selected based on objective characteristics expected to improve the          Canadian breed population. Either an entire foreign registry can be recognized          or just the portion considered to be in compliance with Canadian standards.</p>        <h4>Full recognition</h4>        <p>Full recognition of a foreign registry implies the following;</p>        <ol>          <li>The animals registered in the foreign herd book derive from a population            with a similar origin and history to the Canadian registered population.</li>          <li>Animals in the foreign registry have breed standards similar to the            Canadian population.</li>          <li>All animals in the foreign registry are physically identified in a manner            which is unique, permanent and positive (easily read and interpreted).</li>          <li>Rules of eligibility correspond to minimum requirements of the Canadian            registered population.</li>          <li>The foreign registry is centralized to ensure consistent application of its            rules of eligibility, unique and consistent pedigree information with an            ability to produce registration certificates showing at least three            generations of ancestry.</li>        </ol>        <h4>Partial recognition</h4>        <p>Partial recognition of a foreign registry is possible where a herdbook/studbook          has sufficient distinguishing features to allow separation of animals which do and          do not meet the above requirements. The following are some examples of how          criteria may be determined:</p>        <p>Date dependent. Rules of eligibility in the foreign registry may have changed at          some time, making them either more or less compatible with the requirements          of the Canadian registry. Restrictions on animals coming from the foreign          registry may be appropriate which correspond to the date of the rule changes.</p>        <ul>          <li>Differing breed standards. A foreign registry may have multiple            herdbooks/studbooks, not all of which may be considered to conform to            the breed standards of the Canadian breed association.</li>          <li>Animal origin. Although difficult to apply, it may be possible and desirable            to include or exclude animals of a particular origin. For example, a foreign            registry may recognize a country which the Canadian association does not;            otherwise, it meets all the requirements. Having access to animals in that            registry is considered desirable but restrictions may need to be applied            which exclude those with pedigrees from a third country not conforming            to Canadian requirements. More explicitly, a foreign registry should not            be used to \"launder\" animals otherwise unacceptable to the Canadian            registry.</li>          <li>Multiple herdbooks or levels within. Some breed associations establish            multiple herdbooks or levels within a herdbook in recognition of different            qualities of information accepted, different rules of eligibility, or different            origin of the animals. For example, a \"part-bred\" registry may allow            registration of non-purebred animals. Another example is where a            verification process may exist through use of inspectors, <abbr title=\"et cetera\">etc</abbr>. depending            on what level breeders wish to belong to the association. Another            restriction that is common among breed associations is to require that            animals be registered first in their country of birth. This is a criterion            which can be applied jointly in cooperation with foreign registries, or            independently. The purpose of such a restriction is essentially to            acknowledge that the registry in the country of birth is the best positioned            to apply and enforce its rules of eligibility. For example, the Animal            Pedigree Act requires that breed associations make by-laws respecting the            inspection of pedigrees and breeding records kept by its members. This            becomes impractical to do when animals are in a foreign country, outside            its jurisdiction. Likewise, a registry in the United States, for example, may            not be able to provide much assurance as to the private breeding records            and practices of its members in other countries, including Canada.</li>        </ul>        <h4>Conditional recognition</h4>        <p>In addition to whole or part recognition of foreign registries, it is possible in some          situations to recognize animals from a foreign registry with conditions. Two          situations where this can occur are as follows:</p>        <ol>          <li>All animals in the foreign registry do not meet minimum requirements for            registration of purebred animals according to the rules of the Canadian            association. However, the Canadian association has multiple herdbooks            or levels within a herdbook, and foreign registered animals can enter the            herdbook at the appropriate level.</li>          <li>The animals in the foreign registry all derive from a common population to            the Canadian stock and have a common history. However, the rules of            eligibility are somewhat different or the process for verifying information            is less strict than that applied in Canada. For example, the foreign registry            may not check for specific genetic disorders, or may have a lower rate of            parentage verification.            <ol class=\"lst-lwr-alph\">              <li>Apply checks or screenings on imported animals. These may                be according to the existing rules of eligibility, or by a                process established to ensure sufficient confidence that the                animals meet Canadian requirements.</li>              <li>Apply checks on progeny of imported animals. If the                necessary standards can not be confirmed in the imported                animal it may be necessary to exclude it from registration but                the progeny may be considered after application of the rules                of eligibility.</li>            </ol>          </li>        </ol>        <h4>Reciprocity</h4>        <p>There is no standard definition of reciprocity as pertains to international          agreements. Reciprocity may vary between Mutual Recognition and Equivalency.          Equivalency is understood to mean that although the systems may be different,          the objectives and the end result are basically the same. In practise, it means          a registry system may be recognized either in whole or in part. Mutual          Recognition is understood to mean that countries recognize each others' products          (<abbr title=\"that is\">i.e.</abbr> registered animals) even though the regulatory process (<abbr title=\"for example\">eg.</abbr> rules of          eligibility) or standards are different or have gaps.</p>        <p>The preference in the trade of breeding stock is to lean towards equivalency as          the definition of reciprocity. Therefore, breed associations may negotiate          equivalency with foreign registries in whole or in part. In order to develop global          standards, including for registration, some Canadian associations are members          of an international organisation. Their provisions are not binding under          international trade law, although there may be consequences for not ratifying an          agreement (<abbr title=\"for example\">eg.</abbr> not having access to certain shows). However, it should be          noted that any change in rules must not be contrary to the association's by-laws          or to the Animal Pedigree Act. If they are contrary to the by-laws, the necessary          by-law changes must be made first which would require approval by the          membership and Agriculture and Agri-Food Canada.</p>                  <h4>Special Note: International Standard Setting Bodies</h4>                <p>Canada is a member of the World Trade Organization (WTO). The Technical Barriers to          Trade (<abbr title=\"Technical Barriers to Trade\">TBT</abbr>) Agreement is one of the agreements covered by the <abbr title=\"World Trade Organization\">WTO</abbr>. It has provisions          to recognize international organizations whose body or system is open to the relevant          bodies of at least all <abbr title=\"World Trade Organization\">WTO</abbr> members. However, at the present time there are no          organizations that are recognized as \"international organizations\" under the <abbr title=\"Technical Barriers to Trade\">TBT</abbr>          agreement and no procedures currently established to achieve such recognition. There          is considerable debate within the <abbr title=\"Technical Barriers to Trade\">TBT</abbr> Committee in Geneva as to whether procedures          or guidelines should be developed.</p>        <p>If an organization is considering recognition as an international organization under the          <abbr title=\"Technical Barriers to Trade\">TBT</abbr> Agreement then according to the <abbr title=\"Technical Barriers to Trade\">TBT</abbr> Agreement it must:</p>        <ol>          <li>be an international group whose membership is open to the relevant            bodies of at least all members, and</li>          <li>the standards must be developed using the code of good practice for the            preparation, adoption and application of standards (Annex 3 of <abbr title=\"Technical Barriers to Trade\">TBT</abbr>            Agreement).</li>        </ol>        <p>To start the process to be considered as an international organization, an information          package would have to be prepared and sent to the Canadian mission in Geneva who          would then forward the information to the <abbr title=\"Technical Barriers to Trade\">TBT</abbr> secretariat.</p>        <p>As there are currently no bodies that are recognized as international bodies, and thus          no precedents to follow, any application for recognition as an \"international organization\"          would likely involve some learning along the way for breed associations, government          and the <abbr title=\"Technical Barriers to Trade\">TBT</abbr> secretariat.</p>        <h3 id=\"amend\">By-law amendments</h3>        <h4 id=\"recpro\">Recommended process</h4>        <p>The following is a suggested format for submission of a request to Agriculture and          Agri-Food Canada (AAFC) for approval of by-law amendments under the Animal          Pedigree Act.</p>        <p>By-law amendments must be consistent with requirements of the Act as well as          the by-laws of the Association. Standard procedures will assist <abbr title=\"Agriculture and Agri-Food Canada\">AAFC</abbr> in processing the amendments and help avoid unnecessary delays. Standard          practices should also make it easier to incorporate the amendments into the          existing by-laws of the Association.</p>        <p>Requests for approval of by-law amendments are to be submitted (usually by the          secretary) to the <abbr title=\"Agriculture and Agri-Food Canada\">AAFC</abbr> Animal Registration Officer and should include the          following:</p>        <ol>          <li>The <strong>complete</strong> proposed amendments in triplicate            <ul>              <li>must also include notarized declaration (affidavit) in triplicate                (see sample attached)</li>              <li>each copy should be an original (a photocopy of typed text is                acceptable but signatures on the declaration must be original).</li>            </ul>          </li>          <li>Minutes of the general meeting at which the vote was taken            <ul>              <li>used to help check by-law requirements regarding quorum and                majority vote</li>              <li>helps the Department better understand where concerns have                arisen or if the intent of the amendment was not clear</li>              <li>if voting was by mail-in vote, minutes of an associated meeting at                which the proposed amendments were discussed would be                helpful.</li>            </ul>          </li>          <li>Actual vote counts including numbers for, against and abstentions (where            applicable)            <ul>              <li>may be included in the minutes or provided separately</li>              <li>for mail-in votes conducted in accordance with the by-laws of                the Association, final vote counts should be provided by the                designated responsible authority.</li>            </ul>          </li>          <li>A copy of the original notice of meeting            <ul>              <li>in addition to the copy sent in accordance with the Act                (Section 60(a))</li>            </ul>          </li>          <li>A copy of the annual report with audited financial statement, list of            directors and officers of the Association and voting representatives to the            Canadian Livestock Records Corporation (where applicable)            <ul>              <li>to comply with the Act (Section 60(b))</li>              <li>can be sent under separate cover if desired</li>            </ul>          </li>        </ol>                <p>Note that the by-law approval process is subject to requirements of the Act and (see Section 16):</p>                <p class=\"text-center lead mrgn-tp-lg mrgn-bttm-xl\">No by-law of an association and no amendment or repeal of any by-law of an association has any force or effect until it is approved by the Minister.</p>                    <p>The Animal Registration Officer (see Chapter 6) is available to provide assistance          to breed associations in answering questions regarding the Animal Pedigree Act.</p>                <hr>                <h4 id=\"form1\">Sample amendments form</h4>                <p class=\"text-center mrgn-bttm-lg\">(Name of Association)<br>          <b>By-law amendments as presented to<br>            the general membership at the (Annual/Special) General Meeting<br>            (city), (province), (date)</b></p>                  <p class=\"mrgn-bttm-xl\">1. Be it resolved that Section (number) which reads:</p>                <p class=\"mrgn-bttm-xl\">be amended to read:</p>        <p class=\"mrgn-bttm-lg\">Reasoning:</p>                  <div class=\"span-6\">        <div class=\"span-1 text-left mrgn-tp-sm mrgn-bttm-sm mrgn-lft-0\" style=\"border: 2px solid #CCC; background: 0;\">For:</div>         <div class=\"span-1 text-left mrgn-tp-sm mrgn-bttm-sm\" style=\"border: 2px solid #CCC; background: 0;\">Against:</div>          <div class=\"span-1 text-left mrgn-tp-sm mrgn-bttm-sm\" style=\"border: 2px solid #CCC; background: 0;\">Abstain:</div>           <div class=\"span-3 text-left mrgn-tp-sm mrgn-rght-0 mrgn-bttm-xl\" style=\"border: 2px solid #CCC; background: 0;\">Approved/Defeated?</div>       </div>                  <p class=\"mrgn-bttm-xl\">2. Be resolved that Section (number) which reads:</p>           <p class=\"mrgn-bttm-xl\">be deleted and all subsequent sections (or paragraphs, as required) be<br>          renumbered accordingly.</p>               <p class=\"mrgn-bttm-lg\">Reasoning:</p>                             <div class=\"span-6\">        <div class=\"span-1 text-left mrgn-tp-sm mrgn-bttm-sm mrgn-lft-0\" style=\"border: 2px solid #CCC; background: 0;\">For:</div>         <div class=\"span-1 text-left mrgn-tp-sm mrgn-bttm-sm\" style=\"border: 2px solid #CCC; background: 0;\">Against:</div>          <div class=\"span-1 text-left mrgn-tp-sm mrgn-bttm-sm\" style=\"border: 2px solid #CCC; background: 0;\">Abstain:</div>           <div class=\"span-3 text-left mrgn-tp-sm mrgn-rght-0 mrgn-bttm-xl\" style=\"border: 2px solid #CCC; background: 0;\">Approved/Defeated?</div>       </div>               <p class=\"mrgn-bttm-xl\">3. Be it resolved that a new Section (number) which reads;</p>            <p class=\"mrgn-bttm-xl\">be inserted and that all subsequent sections (or paragraphs) be renumbered<br>          accordingly.</p>                <p class=\"mrgn-bttm-lg\">Reasoning:</p>                   <div class=\"span-6\">        <div class=\"span-1 text-left mrgn-tp-sm mrgn-bttm-sm mrgn-lft-0\" style=\"border: 2px solid #CCC; background: 0;\">For:</div>         <div class=\"span-1 text-left mrgn-tp-sm mrgn-bttm-sm\" style=\"border: 2px solid #CCC; background: 0;\">Against:</div>          <div class=\"span-1 text-left mrgn-tp-sm mrgn-bttm-sm\" style=\"border: 2px solid #CCC; background: 0;\">Abstain:</div>           <div class=\"span-3 text-left mrgn-tp-sm mrgn-rght-0 mrgn-bttm-xl\" style=\"border: 2px solid #CCC; background: 0;\">Approved/Defeated?</div>       </div>              <p class=\"mrgn-bttm-xl\">4. Be it resolved that the attached revised by-laws be approved in their entirety as amended, with bolded text proposed for addition and strikeout text proposed for removal from the existing by-laws, as per the explanations also attached. [Note: this option only recommended where extensive rewrite of by-laws has been made.]</p>                <div class=\"span-6\">        <div class=\"span-1 text-left mrgn-tp-sm mrgn-bttm-sm mrgn-lft-0\" style=\"border: 2px solid #CCC; background: 0;\">For:</div>         <div class=\"span-1 text-left mrgn-tp-sm mrgn-bttm-sm\" style=\"border: 2px solid #CCC; background: 0;\">Against:</div>          <div class=\"span-1 text-left mrgn-tp-sm mrgn-bttm-sm\" style=\"border: 2px solid #CCC; background: 0;\">Abstain:</div>           <div class=\"span-3 text-left mrgn-tp-sm mrgn-bttm-sm mrgn-rght-0\" style=\"border: 2px solid #CCC; background: 0;\">Approved/Defeated?</div>       </div>       <div class=\"clearfix\"></div><hr><h4 id=\"form2\">Sample notarized declaration</h4><p>(preferably on Association letterhead)</p><p>(date)</p><p>Minister of Agriculture and Agri-Food Canada<br>  <abbr title=\"care of\">c/o</abbr> Animal Registration Officer<br>  Animal Industry Division<br>  Agriculture and Agri-Food Canada<br> [Type the current address]<br>          <br></p>  <p>I, (name), am submitting herewith for Ministerial approval, the attached amendment(s) to the by-laws of the  (name of Association) and I do solemnly declare that;</p>  <ol>  <li>I am the (title) of the (name of Association) and as such have full knowledge of the matter herein    declared,</li>  <li>I did on the ( )th day of (month), (year) mail a copy of the attached Notice of (Annual/Special)    General Meeting along with the proposed amendments, to the members on the current membership    role in accordance with the by-laws of the Association,</li>  <li>In addition, I mailed a copy of the said notice of meeting to the Animal Registration Officer, for the    Minister of Agriculture and Agri-Food Canada,</li>  <li>The current membership role with given post office addresses is a true and correct record of all (year)    members of the Association determined in accordance with the by-laws of the (name of Association)    at the time of mailing of said notices,</li>  <li>The (Annual/Special) General Meeting was held in (city), (province) on the ( )th day of (month),    (year), and</li>  <li>The attached amendments to the by-laws of the (name of Association) and related voting results are    in accordance with the minutes of the meeting and section (number) of the by-laws of the Association.</li></ol><p>I make this solemn declaration conscientiously believing it to be true, and knowing that it is of the same force  and effect as if made under oath and by virtue of the Canada Evidence Act.</p><p class=\"mrgn-bttm-xl\">Declared before me at the<br>  City of (name), in the county<br>  of (name), this ( )th day of<br>  (month), (year)<br></p><p class=\"mrgn-bttm-xl\">(name)<br>  <span style=\"text-decoration:overline\">Name of Commissioner</span></p><div class=\"span-6\"><div class=\"span-3 text-left\"><span style=\"text-decoration:overline;\">(signature)\u00a0\u00a0\u00a0\u00a0\u00a0\u00a0\u00a0\u00a0\u00a0\u00a0\u00a0\u00a0\u00a0\u00a0\u00a0<br>  </span> Commissioner for Oaths, in and for<br>  Province of (name).</div>  <div class=\"span-3 text-right\"><span style=\"text-decoration:overline\">\u00a0\u00a0\u00a0\u00a0\u00a0\u00a0\u00a0\u00a0\u00a0\u00a0\u00a0\u00a0\u00a0\u00a0\u00a0(signature)<br>  </span> (name and title of submitting<br>  officer for the Association)</div>  </div>  <div class=\"clearfix\"></div>    <nav>        <h2 class=\"hidden\">Previous-next document navigation - bottom</h2>        <p class=\"text-right\"><a href=\"/eng/canadas-agriculture-sectors/animal-industry/animal-genetics/animal-pedigree-act/secretary-s-manual/governance-of-breed-associations/?id=1382649715176\" title=\"Governance of Breed Associations\">Previous</a> | <a href=\"/eng/canadas-agriculture-sectors/animal-industry/animal-genetics/secretary-s-manual/?id=1382649715173\">Table of Contents</a> | <a href=\"/eng/canadas-agriculture-sectors/animal-industry/animal-genetics/animal-pedigree-act/secretary-s-manual/enforcement-provisions/?id=1382649715178\" title=\"Enforcement provisions for breed associations\">Next</a></p>        </nav>             \n\r\n    ",
        "fr": "\r\n    <div class=\"col-md-4 pull-right\" style=\"z-index: 1000\">\n<section class=\"panel panel-default\">\n<header class=\"panel-heading\">\n<h2 class=\"panel-title\">Guide \u00e0 l'intention du secr\u00e9tariat - Table des mati\u00e8res</h2>\n</header>\n<div class=\"panel-body\"><ul>\n<li><a href=\"/fra/secteurs-agricoles-du-canada/production-animale/genetique-animale/loi-sur-la-genealogie-des-animaux/guide-a-l-intention-du-secretariat/introduction/?id=1382649715174\">Introduction</a></li>\n<li><a href=\"/fra/secteurs-agricoles-du-canada/production-animale/genetique-animale/loi-sur-la-genealogie-des-animaux/guide-a-l-intention-du-secretariat/races-sous-la-loi-sur-la-genealogie-des-animaux/?id=1382649715175\">Les races sous la loi sur la g\u00e9n\u00e9alogie des animaux</a></li>\n<li><a href=\"/fra/secteurs-agricoles-du-canada/production-animale/genetique-animale/loi-sur-la-genealogie-des-animaux/guide-a-l-intention-du-secretariat/organisation-interne-des-associations/?id=1382649715176\">Organisation interne des associations de race</a></li>\n<li>R\u00e8glements administratifs</li>\n<li><a href=\"/fra/secteurs-agricoles-du-canada/production-animale/genetique-animale/loi-sur-la-genealogie-des-animaux/guide-a-l-intention-du-secretariat/dispositions-d-application/?id=1382649715178\">Dispositions d'application relatives aux associations de race</a></li>\n<li><a href=\"/fra/secteurs-agricoles-du-canada/production-animale/genetique-animale/loi-sur-la-genealogie-des-animaux/guide-a-l-intention-du-secretariat/glossaire/?id=1382649715179\">Glossaire</a></li>\n<li><a href=\"/fra/secteurs-agricoles-du-canada/production-animale/genetique-animale/loi-sur-la-genealogie-des-animaux/guide-a-l-intention-du-secretariat/codes-de-race/?id=1382649715180\">Codes de race</a></li>\n<li><a href=\"/fra/secteurs-agricoles-du-canada/production-animale/genetique-animale/loi-sur-la-genealogie-des-animaux/guide-a-l-intention-du-secretariat/bibliographie/?id=1382649715181\">Bibliographie</a></li>\n</ul></div>\n</section>\n</div>                                                                        <h2>R\u00e8glements administratifs</h2>        <h3 id=\"int\">Introduction</h3>        <p>Toutes les associations de race doivent pr\u00e9senter des          r\u00e8glements administratifs pour approbation dans les douze          mois suivant leur constitution en soci\u00e9t\u00e9 en vertu de la Loi          sur la g\u00e9n\u00e9alogie des animaux. Aucun r\u00e8glement          administratif, modification ou abrogation n'entrent en          vigueur avant qu'ils n'aient \u00e9t\u00e9 approuv\u00e9s par le ministre.          Les r\u00e8glements administratifs conf\u00e8rent \u00e0 une association          l'autorisation l\u00e9gale de g\u00e9rer ses affaires. Les r\u00e8glements          administratifs lient tous les membres de l'association.</p>        <h3 id=\"rules\">R\u00e8gles d'admissibilit\u00e9 \u00e0 l'enregistrement</h3>        <h4>Contexte</h4>        <p>Conform\u00e9ment \u00e0 la Loi sur la g\u00e9n\u00e9alogie des animaux, toutes les associations de          race doivent \u00e9tablir des r\u00e8gles touchant l'admissibilit\u00e9 des animaux \u00e0          l'enregistrement. Les r\u00e8gles d'admissibilit\u00e9 contenues dans les r\u00e8glements          administratifs de l'association devraient \u00eatre exhaustives de fa\u00e7on \u00e0 indiquer          clairement au public les crit\u00e8res qui pr\u00e9sident \u00e0 l'enregistrement des animaux ou          \u00e0 leur exclusion. Pour la plupart des associations de race, l'enregistrement est de          loin l'activit\u00e9 la plus importante.</p>        <h4>\u00c9tablissement de r\u00e8gles d'admissibilit\u00e9</h4>        <p>Les r\u00e8gles d'admissibilit\u00e9 \u00e0 l'enregistrement sont \u00e9tablies en fonction de deux          objectifs :</p>        <ol class=\"lst-lwr-alph\">          <li>Le maintien de normes minimales de la race. Elles ressemblent aux            caract\u00e9ristiques d'une marque de commerce pour la race. Les            animaux qui ne r\u00e9pondent pas aux normes minimales de la race,            mais qui satisfont \u00e0 la description la plus large possible de la race,            ne devraient pas \u00eatre enregistr\u00e9s comme sujets de race pure. Seuls            les animaux qui se conforment devraient \u00eatre accept\u00e9s dans le            cheptel de reproduction.</li>          <li>L'application des r\u00e8gles sur l'ascendance (g\u00e9n\u00e9alogie). Les animaux            doivent \u00eatre accompagn\u00e9s d'une preuve d'ascendance \u00e0 un cheptel            souche commun qui devrait correspondre \u00e0 la d\u00e9finition minimale            de race pure accept\u00e9e par l'association. Les animaux qui font            preuve d'une ascendance inf\u00e9rieure aux exigences touchant les            sujets de race pure doivent poss\u00e9der une preuve indiquant le            pourcentage appropri\u00e9 de race pure.</li></ol>        <p>Les r\u00e8gles d'admissibilit\u00e9 \u00e0 l'enregistrement devrait s'appuyer sur des crit\u00e8res          g\u00e9n\u00e9tiques. Par exemple, l'exigence voulant que des animaux soient \u00e9corn\u00e9s          comme condition d'enregistrement ne ferait rien pour modifier g\u00e9n\u00e9tiquement la          race, mais l'exigence voulant que seuls les animaux g\u00e9n\u00e9tiquement sans cornes          puissent \u00eatre enregistr\u00e9s aurait s\u00fbrement un effet. Les caract\u00e9ristiques de la race                    ne peuvent \u00eatre am\u00e9lior\u00e9es que si un caract\u00e8re est h\u00e9r\u00e9ditaire et que si les          modes d'h\u00e9ritabilit\u00e9 sont bien compris. En plus des caract\u00e8res h\u00e9r\u00e9ditaires, il doit          \u00e9galement exister un \u00e9quilibre avec d'autres objectifs de reproduction li\u00e9s \u00e0          l'am\u00e9lioration du rendement et de la viabilit\u00e9 globale du cheptel. Il faut donc          \u00e9tudier soigneusement le niveau d'insistance accord\u00e9 aux normes de la race.</p>        <p>Lorsqu'une race est bien \u00e9tablie et que la d\u00e9finition de race pure est totale (c'est-\u00e0-dire, livre g\u00e9n\u00e9alogique ferm\u00e9), il est courant de r\u00e9duire ou m\u00eame d'\u00e9liminer          les r\u00e8gles d'admissibilit\u00e9 relatives aux normes de la race pour se concentrer          uniquement sur la g\u00e9n\u00e9alogie. Toutefois, il existe un certain nombre de situations          permettant \u00e0 une association de race de vouloir continuer \u00e0 mettre l'accent sur          les normes de la race :</p>        <ol class=\"lst-lwr-alph\">          <li>lorsqu'une race n'est pas bien \u00e9tablie et pas aussi g\u00e9n\u00e9tiquement            stable qu'on le souhaiterait pour certains caract\u00e8res de marque de            commerce;</li>          <li>lorsque la d\u00e9finition de race pure est inf\u00e9rieure \u00e0 100 % (ne peut            \u00eatre inf\u00e9rieure \u00e0 7/8 de sang de race pure) et qu'un croisement            d'absorption \u00e0 d'autres races est r\u00e9put\u00e9 diminuer certains            caract\u00e8res de marque de commerce accept\u00e9s;</li>          <li>lorsqu'on veut faire \u00e9voluer l'ensemble de la race. Par exemple, on            peut s'entendre pour \u00e9liminer une variante particuli\u00e8re de            pigmentation ou un d\u00e9sordre g\u00e9n\u00e9tique du cheptel.</li></ol>        <p>Il faudrait n\u00e9anmoins se montrer prudent dans l'\u00e9tablissement de r\u00e8gles          d'admissibilit\u00e9 qui mettent ind\u00fbment l'accent sur les caract\u00e8res de marque de          commerce ou d'autres normes de la race. Le risque de trop insister sur certains          caract\u00e8res est de limiter la densit\u00e9 efficace du cheptel, de restreindre la pression          de s\u00e9lection sur d'autres caract\u00e8res \u00e9conomiquement plus importants, de limiter          la capacit\u00e9 de la race d'\u00e9voluer (les races sont des populations dynamiques) et          peut-\u00eatre m\u00eame de r\u00e9duire la variabilit\u00e9 g\u00e9n\u00e9tique de certains caract\u00e8res          n\u00e9vralgiques. Les associations de race doivent admettre que les relev\u00e9s de la          performance, l'\u00e9valuation g\u00e9n\u00e9tique et la commercialisation ont \u00e9galement un          r\u00f4le important \u00e0 jouer et qu'ils devraient \u00eatre ind\u00e9pendants de l'enregistrement          comme tel.</p>        <h4>Am\u00e9lioration de la race</h4>        <p>Le premier but de la Loi sur la g\u00e9n\u00e9alogie des animaux consiste \u00e0 promouvoir          l'am\u00e9lioration g\u00e9n\u00e9tique de la race. L'am\u00e9lioration de la race \u00e9mane de la          s\u00e9lection de certains animaux comme parents de la prochaine g\u00e9n\u00e9ration et de          l'exclusion d'autres animaux. Les strat\u00e9gies d'am\u00e9lioration peuvent comprendre          l'\u00e9tablissement de r\u00e8gles d'admissibilit\u00e9 \u00e0 l'enregistrement, qui servent \u00e0          appliquer les normes de la race et \u00e0 rejeter les animaux dont la performance est          m\u00e9diocre, \u00e0 promouvoir les meilleurs sujets comme parents de la prochaine          g\u00e9n\u00e9ration (c'est-\u00e0-dire, s\u00e9lection) et \u00e0 planifier la reproduction.</p>        <p>Les caract\u00e8res g\u00e9n\u00e9tiques peuvent \u00eatre sommairement s\u00e9par\u00e9s en ceux qui sont          consid\u00e9r\u00e9s comme des caract\u00e8res de marque de commerce (caract\u00e8res qui          identifient la race, comme la couleur, la taille, <abbr title=\"et cetera\">etc</abbr>.), des caract\u00e8res de valeur          s\u00e9lective (<abbr title=\"par exemple\">p.\u00a0ex.</abbr>, fertilit\u00e9, r\u00e9sistance aux maladies, absence de d\u00e9sordre          g\u00e9n\u00e9tique) et d'autres caract\u00e8res de performance (<abbr title=\"par exemple\">p.\u00a0ex.</abbr>, cro\u00eet, production          laiti\u00e8re, qualit\u00e9 de la fibre). Compte tenu de l'incidence relative des strat\u00e9gies          d'am\u00e9lioration de la race sur ces caract\u00e8res g\u00e9n\u00e9tiques, nous constaterions          qu'elles ne sont pas toutes \u00e9galement efficaces.  Par exemple, il est difficile          d'\u00e9tablir les r\u00e8gles d'admissibilit\u00e9 susceptibles d'am\u00e9liorer la valeur s\u00e9lective          d'une race. L'enregistrement se fait t\u00f4t dans la vie d'un animal, alors que les          aptitudes reproductrices et sanitaires doivent \u00eatre \u00e9valu\u00e9es lorsque l'animal est          plus \u00e2g\u00e9. D'autre part, l'\u00e9tablissement de r\u00e8gles d'admissibilit\u00e9 visant \u00e0 mettre          en vigueur des normes de la race est probablement le meilleur moyen d'assurer          que les caract\u00e8res de la marque de commerce de la race sont conserv\u00e9s.</p>        <p> Compte tenu de l'accent mis par la Loi sur la g\u00e9n\u00e9alogie des animaux sur          l'am\u00e9lioration de la race, les associations de race ont un r\u00f4le sp\u00e9cial a jouer pour          aider les \u00e9leveurs en leur fournissant divers outils visant \u00e0 am\u00e9liorer leurs          animaux. La Loi autorise les associations de race \u00e0 prendre des r\u00e8glements          administratifs (voir le paragraphe 15(2) de la Loi) touchant la promotion et          l'\u00e9tablissement de programmes d'am\u00e9lioration de la race, l'inspection des          animaux pour l'enregistrement et les normes de performance \u00e0 respecter. Il faut          toutefois faire preuve de prudence pour emp\u00eacher que les crit\u00e8res          d'enregistrement ne soient surutilis\u00e9s au point de restreindre le cheptel de          reproduction. En plus des exigences g\u00e9n\u00e9alogiques, les r\u00e8gles d'enregistrement          devraient mettre l'accent sur la mise en vigueur des normes de la race pour          assurer que les animaux conservent leurs caract\u00e8res essentiels qui font leur          marque de commerce. Par cons\u00e9quent, la plupart des programmes de relev\u00e9s de          la performance viennent s'ajouter au syst\u00e8me d'enregistrement, m\u00eame si la          participation aux relev\u00e9s de la performance peut \u00eatre consid\u00e9r\u00e9e comme un          pr\u00e9requis \u00e0 l'enregistrement.</p>        <p>En g\u00e9n\u00e9ral, l'accent mis sur les ant\u00e9c\u00e9dents g\u00e9n\u00e9alogiques devraient permettre          d'am\u00e9liorer la pr\u00e9visibilit\u00e9 des animaux d'une race donn\u00e9e. La concentration sur          d'autres domaines de l'am\u00e9lioration de la race devrait produire des avantages          suppl\u00e9mentaires.</p>        <ol>          <li>Caract\u00e8res de marque de commerce - mise en vigueur des normes            de la race, singularit\u00e9</li>          <li>Caract\u00e8res de performance - rentabilit\u00e9, qualit\u00e9s marchandes</li>          <li>Caract\u00e8res de valeur s\u00e9lective - diff\u00e9rentiel de s\u00e9lection, viabilit\u00e9 de            la reproduction</li></ol>        <p>Les associations de race devraient \u00e9tudier s\u00e9rieusement les domaines o\u00f9 ils          veulent mettre l'accent pour le plus grand avantage de la race. Qu'est-ce qui          rendra la race la plus concurrentielle? Avec le temps, cette concentration peut          \u00e9voluer; les associations de race doivent donc demeurer au courant des          exigences du march\u00e9.</p>        <h4> R\u00e9sum\u00e9</h4>        <p> Les r\u00e8gles d'admissibilit\u00e9 \u00e0 l'enregistrement devaient \u00eatre gard\u00e9es simples, avoir          une bonne base g\u00e9n\u00e9tique et \u00eatre utilis\u00e9es de fa\u00e7on \u00e0 assurer la conformit\u00e9 avec          les normes minimales de la race et l'ascendance. Il est tout aussi essentiel de          maintenir un cheptel viable, suffisamment nombreux et diversifi\u00e9 \u00e0 partir duquel          il est possible de s\u00e9lectionner des sujets. Les questions de performance et de          commercialisation devraient \u00eatre trait\u00e9es s\u00e9par\u00e9ment de l'enregistrement comme          tel. Lorsqu'une race est bien \u00e9tablie et g\u00e9n\u00e9tiquement stable, l'accent mis sur les          normes de la race peut \u00eatre remplac\u00e9 par l'insistance sur les caract\u00e8res de          performance. Ceux-ci auront une incidence plus directe sur la rentabilit\u00e9 et le          caract\u00e8re concurrentiel \u00e0 long terme de la race.</p>        <h3 id=\"rec\">Reconnaissance des registres \u00e9trangers</h3>        <p> Les associations de race peuvent reconna\u00eetre des registres \u00e9trangers en totalit\u00e9          ou en partie. La taille effective d'un cheptel de reproduction augmente lorsque          des animaux exotiques sont accessibles aux \u00e9leveurs canadiens. Les avantages          d'un cheptel de reproduction plus nombreux peuvent se concr\u00e9tiser lorsque les          animaux import\u00e9s r\u00e9pondent aux exigences minimales escompt\u00e9es du cheptel          canadien de reproduction enregistr\u00e9. Les animaux exotiques devraient \u00e9galement          \u00eatre s\u00e9lectionn\u00e9s d'apr\u00e8s certains caract\u00e8res objectifs susceptibles d'am\u00e9liorer le          cheptel canadien. La totalit\u00e9 d'un registre \u00e9tranger peut \u00eatre reconnu, ou une          partie seulement qui est jug\u00e9e conforme aux normes canadiennes.</p>        <h4>Pleine reconnaissance</h4>        <p>La pleine reconnaissance d'un registre \u00e9tranger a les r\u00e9percussions suivantes :</p>        <ol>          <li>Les animaux enregistr\u00e9s dans le livre g\u00e9n\u00e9alogique \u00e9tranger sont issus            d'un cheptel aux origines et ant\u00e9c\u00e9dents semblables \u00e0 ceux du cheptel            enregistr\u00e9 canadien.</li>          <li>Les animaux inscrits au registre \u00e9tranger ont des normes de la race            analogues \u00e0 celles du cheptel canadien.</li>          <li>Tous les animaux inscrits au registre \u00e9tranger sont physiquement identifi\u00e9s            de fa\u00e7on unique, permanente et positive (facile \u00e0 lire et \u00e0 interpr\u00e9ter).</li>          <li>Les r\u00e8gles d'admissibilit\u00e9 correspondent aux exigences minimales du            cheptel enregistr\u00e9 canadien.</li>          <li>Le registre \u00e9tranger est centralis\u00e9 pour assurer l'application uniforme de            ses r\u00e8gles d'admissibilit\u00e9 et la diffusion de renseignements g\u00e9n\u00e9alogiques            uniques et uniformes, en plus de pouvoir produire des certificats            d'enregistrement attestant au moins trois g\u00e9n\u00e9rations d'ascendance.</li></ol>        <h4>Reconnaissance partielle</h4>        <p>La reconnaissance partielle d'un registre \u00e9tranger est possible lorsqu'un livre          g\u00e9n\u00e9alogique a suffisamment de caract\u00e9ristiques distinctives pour permettre la          s\u00e9paration des animaux qui r\u00e9pondent ou non aux exigences susmentionn\u00e9es.</p>        <p> Voici quelques exemples de la fa\u00e7on dont les crit\u00e8res peuvent \u00eatre d\u00e9termin\u00e9s :</p>        <ul>          <li>Facteur temps. Les r\u00e8gles d'admissibilit\u00e9 dans le registre \u00e9tranger peuvent            avoir \u00e9volu\u00e9 \u00e0 un moment donn\u00e9, les rendant soit plus, soit moins            compatibles avec les exigences du registre canadien. Des restrictions sur            les animaux provenant du registre \u00e9tranger peuvent \u00eatre indiqu\u00e9es et            correspondre \u00e0 la date de modification des r\u00e8gles.</li>          <li>Normes de la race diff\u00e9rentes. Un registre \u00e9tranger peut avoir de multiples            livres g\u00e9n\u00e9alogiques qui pourraient ne pas tous \u00eatre jug\u00e9s conformes aux            normes de la race de l'association de race canadienne.</li>          <li>Origine de l'animal. M\u00eame si c'est difficile \u00e0 appliquer, il peut s'av\u00e9rer            possible et souhaitable d'inclure ou d'exclure des animaux provenant d'une            origine particuli\u00e8re. Par exemple, un registre \u00e9tranger peut reconna\u00eetre un            pays que l'association canadienne ne reconna\u00eet pas, tout en r\u00e9pondant \u00e0            toutes les exigences. L'acc\u00e8s aux animaux de ce registre est jug\u00e9            souhaitable, mais des restrictions qui excluent ceux dont les g\u00e9n\u00e9alogies            proviennent de pays tiers qui ne se conforment pas aux exigences            canadiennes pourraient devoir \u00eatre appliqu\u00e9es. Plus pr\u00e9cis\u00e9ment, un            registre \u00e9tranger ne devrait pas servir \u00e0 \u00ab\u00a0blanchir\u00a0\u00bb les animaux            autrement jug\u00e9s inacceptables par le registre canadien.</li>          <li>Livres g\u00e9n\u00e9alogiques ou niveaux multiples. Certaines associations de race            \u00e9tablissent des livres g\u00e9n\u00e9alogiques multiples ou de nombreux niveaux \u00e0            l'int\u00e9rieur d'un m\u00eame livre pour reconna\u00eetre diverses qualit\u00e9s de donn\u00e9es            accept\u00e9es, r\u00e8gles d'admissibilit\u00e9 ou origines des animaux. Par exemple,            un registre \u00ab\u00a0g\u00e9n\u00e9alogique partiel\u00a0\u00bb pourrait autoriser l'enregistrement            d'animaux sans race. Comme                        autre exemple, citons un processus de v\u00e9rification qui pourrait exister par            le recours \u00e0 des inspecteurs, <abbr title=\"et cetera\">etc</abbr>., selon le niveau auquel les \u00e9leveurs            d\u00e9sirent appartenir \u00e0 l'association.</li></ul>        <p>Une autre restriction courante parmi les associations de race consiste \u00e0 exiger          que les animaux soient d'abord enregistr\u00e9s dans leur pays d'origine. Ce crit\u00e8re          peut \u00eatre appliqu\u00e9 de concert avec les registres \u00e9trangers ou ind\u00e9pendamment.          Ce genre de restriction a essentiellement pour but de reconna\u00eetre que le registre          \u00e9tabli dans le pays d'origine est le mieux en mesure d'appliquer et de mettre en          oeuvre ses r\u00e8gles d'admissibilit\u00e9. Par exemple, la Loi sur la g\u00e9n\u00e9alogie des          animaux exige que les associations de race prennent des r\u00e8glements          administratifs touchant l'inspection des g\u00e9n\u00e9alogies et des registres de          reproduction conserv\u00e9s par ses membres. Cette exigence devient peu pratique          lorsque les animaux sont dans un pays \u00e9tranger, donc \u00e0 l'ext\u00e9rieur de sa          juridiction. De m\u00eame, un registre \u00e9tabli aux \u00c9tats-Unis par exemple peut ne pas          pouvoir fournir beaucoup de garanties quant au registre de reproduction et aux          pratiques priv\u00e9es de ses membres dans d'autres pays, y compris le Canada.</p>        <h4>Reconnaissance conditionnelle</h4>        <p>En plus de la reconnaissance totale ou partielle des registres \u00e9trangers, il est          possible, dans certaines situations, de reconna\u00eetre des animaux provenant d'un          registre \u00e9tranger, mais \u00e0 certaines conditions. Voici deux situations o\u00f9 cela peut          se produire :</p>        <ol>          <li>Tous les animaux inscrits au registre \u00e9tranger ne r\u00e9pondent pas aux            exigences minimales d'enregistrement des animaux de race pure selon les            r\u00e8gles de l'association canadienne. Toutefois, l'association canadienne a            des livres g\u00e9n\u00e9alogiques multiples ou de nombreux niveaux dans un livre            g\u00e9n\u00e9alogique, et des animaux enregistr\u00e9s \u00e0 l'\u00e9tranger peuvent faire partie            du livre g\u00e9n\u00e9alogique au niveau appropri\u00e9.</li>          <li>Les animaux inscrits au registre \u00e9tranger sont tous issus d'un cheptel            commun aux sujets d'\u00e9levage canadiens et ont des ant\u00e9c\u00e9dents communs.            Toutefois, les r\u00e8gles d'admissibilit\u00e9 sont un peut diff\u00e9rentes ou le processus            de v\u00e9rification des donn\u00e9es est moins rigoureux que celui appliqu\u00e9 au            Canada. Par exemple, le registre \u00e9tranger pourrait ne pas v\u00e9rifier les            d\u00e9sordres g\u00e9n\u00e9tiques particuliers ou pourrait avoir un taux plus faible de            v\u00e9rification de l'ascendance.            <ol class=\"lst-lwr-alph\">              <li>V\u00e9rifier ou trier les animaux import\u00e9s. Ces mesures peuvent \u00eatre                conformes aux r\u00e8gles d'admissibilit\u00e9 existantes ou \u00e0 un processus                \u00e9tabli visant \u00e0 assurer que les animaux r\u00e9pondent aux exigences                canadiennes.</li>              <li>V\u00e9rifier la descendance des animaux import\u00e9s. S'il est impossible de                confirmer les normes n\u00e9cessaires chez les animaux import\u00e9s, il peut                s'av\u00e9rer n\u00e9cessaire de les exclure de l'enregistrement, mais la                descendance pourrait \u00eatre retenue apr\u00e8s l'application des r\u00e8gles                d'admissibilit\u00e9.</li></ol></li></ol>        <h3>R\u00e9ciprocit\u00e9</h3>        <p>Il n'existe aucune d\u00e9finition normalis\u00e9e de la r\u00e9ciprocit\u00e9 dans les accords          internationaux. La r\u00e9ciprocit\u00e9 peut varier entre la reconnaissance mutuelle et          l'\u00e9quivalence. L'\u00e9quivalence signifie que m\u00eame si les syst\u00e8mes peuvent diff\u00e9rer,          les objectifs et les r\u00e9sultats d\u00e9finitifs sont fondamentalement identiques. En          pratique, cela signifie qu'un syst\u00e8me d'enregistrement peut \u00eatre reconnu en          totalit\u00e9 ou en partie. La reconnaissance mutuelle signifie que les pays          reconnaissent les produits les uns des autres (c'est-\u00e0-dire, animaux enregistr\u00e9s),          m\u00eame si le processus de r\u00e9glementation (c'est-\u00e0-dire, r\u00e8gles d'admissibilit\u00e9) ou          les normes diff\u00e8rent ou comportent des lacunes.</p>        <p>Dans le commerce des animaux de reproduction, la pr\u00e9f\u00e9rence a tendance \u00e0          pencher du c\u00f4t\u00e9 de l'\u00e9quivalence comme d\u00e9finition de la r\u00e9ciprocit\u00e9. Par          cons\u00e9quent, les associations de race peuvent n\u00e9gocier l'\u00e9quivalence avec des          registres \u00e9trangers en totalit\u00e9 ou en partie. Pour pouvoir \u00e9laborer des normes          mondiales, y compris des normes d'enregistrement, certaines associations          canadiennes sont membres d'une organisation internationale. Leurs dispositions          ne sont pas ex\u00e9cutoires en droit commercial international, m\u00eame si la nonratification          d'un accord (<abbr title=\"par exemple\">p.\u00a0ex.</abbr>, acc\u00e8s interdit \u00e0 certaines expositions) peut avoir          des cons\u00e9quences. Il convient toutefois de noter que toute modification aux          r\u00e8gles d'admissibilit\u00e9 ne doit pas aller \u00e0 l'encontre des r\u00e8glements administratifs          de l'association ni de la Loi sur la g\u00e9n\u00e9alogie des animaux. S'ils vont \u00e0 l'encontre          des r\u00e8glements administratifs, les modifications n\u00e9cessaires aux r\u00e8glements          doivent d'abord \u00eatre apport\u00e9es, ce qui exigerait l'approbation des membres de          l'association et d'Agriculture et Agroalimentaire Canada.</p>                  <h4>Note sp\u00e9ciale : Organismes internationaux de normalisation</h4>        <p>Le Canada est membre de l'Organisation mondiale du commerce (OMC). L'Accord sur les obstacles          techniques au commerce (OTC) est l'un des accords vis\u00e9s par l'<abbr title=\"Organisation mondiale du commerce\">OMC</abbr>. Il comporte des dispositions          visant \u00e0 reconna\u00eetre les organismes internationaux correspondant aux organismes pertinents d'au          moins tous les membres de l'<abbr title=\"Organisation mondiale du commerce\">OMC</abbr>. Mais \u00e0 l'heure actuelle, aucun organisme n'est reconnu comme          \u00ab\u00a0organisme international\u00a0\u00bb dans le cadre de l'Accord sur les <abbr title=\"obstacles techniques au commerce\">OTC</abbr> et aucune proc\u00e9dure n'est          actuellement \u00e9tablie pour permettre cette reconnaissance. Le Comit\u00e9 des <abbr title=\"obstacles techniques au commerce\">OTC</abbr> \u00e0 Gen\u00e8ve m\u00e8ne un long          d\u00e9bat sur la question de savoir s'il faudrait \u00e9laborer des proc\u00e9dures ou des lignes directrices.</p>        <p>Lorsqu'un organisme envisage d'\u00eatre reconnu comme organisme international dans le cadre de          l'Accord sur les <abbr title=\"obstacles techniques au commerce\">OTC</abbr> :</p>        <ol>          <li>il doit \u00eatre un groupe international dont les membres sont ouverts aux organismes            respectifs d'au moins tous les membres;</li>          <li>les normes doivent \u00eatre \u00e9labor\u00e9es au moyen du code de bonne pratique pour la            pr\u00e9paration, l'adoption et l'application des normes (annexe 3 de l'Accord sur les            <abbr title=\"obstacles techniques au commerce\">OTC</abbr>).</li></ol>        <p>Pour entamer le processus de reconnaissance comme organisme international, une trousse          d'information doit \u00eatre pr\u00e9par\u00e9e et envoy\u00e9e \u00e0 la mission canadienne \u00e0 Gen\u00e8ve qui la fera ensuite          parvenir au Secr\u00e9tariat charg\u00e9 des <abbr title=\"obstacles techniques au commerce\">OTC</abbr>.</p>        <p>Comme il n'existe actuellement aucun organisme reconnu comme international et donc aucune          jurisprudence \u00e0 suivre, toute demande de reconnaissance comme \u00ab\u00a0organisme international\u00a0\u00bb          comporterait probablement un peu d'apprentissage pour les associations de race, le gouvernement          et le Secr\u00e9tariat charg\u00e9 des <abbr title=\"obstacles techniques au commerce\">OTC</abbr>.</p>                  <h3 id=\"amend\">Modification des r\u00e8glements administratifs</h3>                <h4 id=\"prorec\">Processus recommand\u00e9</h4>        <p>Le texte suivant est une proposition de formule de pr\u00e9sentation d'une demande          \u00e0 Agriculture et Agroalimentaire Canada (AAC) pour l'approbation de          modifications des r\u00e8glements administratifs en vertu de la Loi sur la g\u00e9n\u00e9alogie          des animaux.</p>        <p>Les modifications des r\u00e8glements administratifs doivent \u00eatre conformes aux          exigences de la Loi et aux r\u00e8glements administratifs de l'association. Les          proc\u00e9dures \u00e9talons aideront <abbr title=\"Agriculture et Agroalimentaire Canada\">AAC</abbr> \u00e0 traiter les modifications et \u00e0 \u00e9viter les d\u00e9lais          inutiles. Les pratiques courantes devraient \u00e9galement faciliter l'int\u00e9gration des          modifications aux r\u00e8glements administratifs actuels de l'association.</p>        <p>Les demandes d'approbation de modification des r\u00e8glements administratifs          doivent \u00eatre pr\u00e9sent\u00e9es (g\u00e9n\u00e9ralement par le secr\u00e9taire) \u00e0 l'agent          d'enregistrement des animaux d'<abbr title=\"Agriculture et Agroalimentaire Canada\">AAC</abbr> et devraient comprendre ce qui suit :</p>        <ol>          <li>Le projet complet de modification en triplicata            <ul>              <li>il doit \u00e9galement comprendre une d\u00e9claration notari\u00e9e                (affidavit) en triplicata (voir l'\u00e9chantillon annex\u00e9)</li>              <li>chaque copie devrait \u00eatre un original (une photocopie d'un                texte dactylographi\u00e9 est acceptable, mais les signatures sur                la d\u00e9claration doivent \u00eatre originales)</li></ul></li>          <li>Le compte rendu de l'assembl\u00e9e g\u00e9n\u00e9rale o\u00f9 on a proc\u00e9d\u00e9 au vote            <ul>              <li>contribue \u00e0 la v\u00e9rification des exigences des r\u00e8glements                administratifs concernant le quorum et le vote majoritaire</li>              <li>aide le Minist\u00e8re \u00e0 mieux comprendre l'origine des                pr\u00e9occupations et la motivation de la modification</li>              <li>s'il s'agit d'un scrutin postal, le compte rendu d'une r\u00e9union                correspondante \u00e0 laquelle les modifications propos\u00e9es ont \u00e9t\u00e9                discut\u00e9es serait utile</li></ul></li>          <li>D\u00e9pouillement des votes, y compris les votes favorables,            d\u00e9favorables et les abstentions (s'il y a lieu)            <ul>              <li>peut \u00eatre inclus dans le compte rendu ou fourni s\u00e9par\u00e9ment</li>              <li>pour le scrutin postal men\u00e9 conform\u00e9ment aux r\u00e8glements                                administratifs de l'association, le d\u00e9pouillement final devrait                \u00eatre fourni par l'autorit\u00e9 responsable d\u00e9sign\u00e9e</li></ul></li>          <li>Une copie de l'avis original de r\u00e9union            <ul>              <li>en plus de la copie envoy\u00e9e conform\u00e9ment \u00e0 la Loi (alin\u00e9a 60                a))</li></ul></li>          <li>Une copie du rapport annuel accompagn\u00e9e d'un \u00e9tat financier            v\u00e9rifi\u00e9, une liste de directeurs et d'agents de l'association et des            repr\u00e9sentants votants de la Soci\u00e9t\u00e9 canadienne d'enregistrement            des animaux (s'il y a lieu)            <ul>              <li>pour se conformer \u00e0 la loi (alin\u00e9a 60 b))</li>              <li>peut \u00eatre exp\u00e9di\u00e9 sous pli s\u00e9par\u00e9 au besoin</li></ul></li></ol>        <p>Il convient de noter que le processus d'approbation des r\u00e8glements administratifs          est assujetti aux exigences de la Loi (voir l'article 16) :</p>                          <p class=\"text-center lead mrgn-tp-lg mrgn-bttm-xl\">Les r\u00e8glements administratifs, y compris leur modification ou leur abrogation, sont inop\u00e9rants tant qu'ils n'ont pas \u00e9t\u00e9 approuv\u00e9s par le ministre.</p>                        <p>L'agent d'enregistrement des animaux est accessible pour offrir de l'aide aux          associations de race en r\u00e9pondant aux questions sur la Loi sur la g\u00e9n\u00e9alogie des          animaux.</p>               <hr>                <h4 id=\"form1\">\u00c9chantillon de formule de modifications</h4>                <p class=\"text-center mrgn-bttm-lg\">(Nom de l'association)<br>          <b>Modifications de r\u00e8glements administratifs<br>            pr\u00e9sent\u00e9es aux membres            de l'assembl\u00e9e g\u00e9n\u00e9rale (annuelle/sp\u00e9ciale)<br>            (ville), (province), (date)</b></p>        <p class=\"mrgn-bttm-xl\">1. Il est r\u00e9solu que l'article (num\u00e9ro) qui se lit comme suit :</p>        <p class=\"mrgn-bttm-xl\">soit modifi\u00e9 pour se lire comme suit :</p>        <p class=\"mrgn-bttm-lg\">Argumentation :</p>                 <div class=\"span-6\">        <div class=\"span-1 text-left mrgn-tp-sm mrgn-bttm-sm mrgn-lft-0\" style=\"border: 2px solid #CCC; background: 0;\">Favorable:</div>         <div class=\"span-1 text-left mrgn-tp-sm mrgn-bttm-sm\" style=\"border: 2px solid #CCC; background: 0;\">D\u00e9favorable:</div>          <div class=\"span-1 text-left mrgn-tp-sm mrgn-bttm-sm\" style=\"border: 2px solid #CCC; background: 0;\">Abstention:</div>           <div class=\"span-3 text-left mrgn-tp-sm mrgn-rght-0 mrgn-bttm-xl\" style=\"border: 2px solid #CCC; background: 0;\">Approuv\u00e9e/D\u00e9faite?</div>           </div>        <p class=\"mrgn-bttm-xl\">2. Il est r\u00e9solu que l'article (num\u00e9ro) qui se lit comme suit :</p>        <p class=\"mrgn-bttm-xl\">soit supprim\u00e9 et que tous les articles subs\u00e9quents (ou paragraphe, au          besoin) soient renum\u00e9rot\u00e9s en cons\u00e9quence.</p>        <p class=\"mrgn-bttm-lg\">Argumentation :</p>               <div class=\"span-6\">        <div class=\"span-1 text-left mrgn-tp-sm mrgn-bttm-sm mrgn-lft-0\" style=\"border: 2px solid #CCC; background: 0;\">Favorable:</div>         <div class=\"span-1 text-left mrgn-tp-sm mrgn-bttm-sm\" style=\"border: 2px solid #CCC; background: 0;\">D\u00e9favorable:</div>          <div class=\"span-1 text-left mrgn-tp-sm mrgn-bttm-sm\" style=\"border: 2px solid #CCC; background: 0;\">Abstention:</div>           <div class=\"span-3 text-left mrgn-tp-sm mrgn-rght-0 mrgn-bttm-xl\" style=\"border: 2px solid #CCC; background: 0;\">Approuv\u00e9e/D\u00e9faite?</div>           </div>        <p class=\"mrgn-bttm-xl\"><br>          3. Il est r\u00e9solu que l'article (num\u00e9ro) qui se lit comme suit :</p>        <p class=\"mrgn-bttm-xl\">soit ins\u00e9r\u00e9 et que tous les articles subs\u00e9quents (ou paragraphes) soient renum\u00e9rot\u00e9s en cons\u00e9quence.</p>        <p class=\"mrgn-bttm-lg\">Argumentation :</p>              <div class=\"span-6\">        <div class=\"span-1 text-left mrgn-tp-sm mrgn-bttm-sm mrgn-lft-0\" style=\"border: 2px solid #CCC; background: 0;\">Favorable:</div>         <div class=\"span-1 text-left mrgn-tp-sm mrgn-bttm-sm\" style=\"border: 2px solid #CCC; background: 0;\">D\u00e9favorable:</div>          <div class=\"span-1 text-left mrgn-tp-sm mrgn-bttm-sm\" style=\"border: 2px solid #CCC; background: 0;\">Abstention:</div>           <div class=\"span-3 text-left mrgn-tp-sm mrgn-rght-0 mrgn-bttm-xl\" style=\"border: 2px solid #CCC; background: 0;\">Approuv\u00e9e/D\u00e9faite?</div>           </div>                 <p class=\"mrgn-bttm-xl\">4. Il est r\u00e9solu que les r\u00e8glements administratifs r\u00e9vis\u00e9s ci-joints soient approuv\u00e9s dans leur int\u00e9gralit\u00e9 tels que modifi\u00e9s, assortis d'un texte en         caract\u00e8res gras pour les additions et d'un texte radi\u00e9 pour les suppressions         aux r\u00e8glements administratifs actuels, selon les explications \u00e9galement         annex\u00e9es. [Nota : cette option n'est recommand\u00e9e que si une refonte en         profondeur des r\u00e8glements administratifs a \u00e9t\u00e9 effectu\u00e9e.]<br>         </p><p>\u00a0</p>               <div class=\"span-6\">        <div class=\"span-1 text-left mrgn-tp-sm mrgn-bttm-sm mrgn-lft-0\" style=\"border: 2px solid #CCC; background: 0;\">Favorable:</div>         <div class=\"span-1 text-left mrgn-tp-sm mrgn-bttm-sm\" style=\"border: 2px solid #CCC; background: 0;\">D\u00e9favorable:</div>          <div class=\"span-1 text-left mrgn-tp-sm mrgn-bttm-sm\" style=\"border: 2px solid #CCC; background: 0;\">Abstention:</div>           <div class=\"span-3 text-left mrgn-tp-sm mrgn-rght-0 mrgn-bttm-sm\" style=\"border: 2px solid #CCC; background: 0;\">Approuv\u00e9e/D\u00e9faite?</div>           </div>                      <div class=\"clearfix\"></div>                    <hr>                  <h4 id=\"form2\">\u00c9chantillon de d\u00e9claration notari\u00e9e</h4>                  <p>(de pr\u00e9f\u00e9rence sur papier \u00e0 en-t\u00eate de l'association)</p>        <p>(date)</p>        <p>Ministre d'Agriculture et Agroalimentaire Canada<br>           a/s Agent d'enregistrement des animaux<br>           Division des productions animales<br>           Agriculture et Agroalimentaire Canada<br>           [Inscrivez l\u2019adresse actuelle]<br>          <br></p>        <p>Je, (nom), pr\u00e9sente ci-joint pour approbation minist\u00e9rielle, la(les) modification(s) annex\u00e9e(s) aux r\u00e8glements administratifs de (nom de l'association) et je d\u00e9clare solennellement que :</p>                  <ol>           <li>Je suis le (titre) de la (nom de l'association) et que, comme tel, je suis pleinement au             courant de l'affaire dont il est question dans la pr\u00e9sente;</li>           <li>J'ai, le ( ) jour de (mois), (ann\u00e9e), post\u00e9 une copie de l'avis annex\u00e9 d'une assembl\u00e9e             g\u00e9n\u00e9rale (annuelle/sp\u00e9ciale), accompagn\u00e9e des modifications propos\u00e9es, aux membres             sur le r\u00f4le actuel des membres conform\u00e9ment aux r\u00e8glements administratifs de             l'association;</li>           <li>En outre, j'ai post\u00e9 une copie dudit avis de r\u00e9union \u00e0 l'agent d'enregistrement des             animaux, \u00e0 l'intention du ministre d'Agrculture et Agroalimentaire Canada;</li>           <li>Le r\u00f4le actuel des membres, accompagn\u00e9 des adresses postales, est un registre exact et             v\u00e9ritable de tous (ann\u00e9e) les membres de l'association, d\u00e9termin\u00e9 conform\u00e9ment aux             r\u00e8glements administratifs de la (nom de l'association) au moment de la mise \u00e0 la poste             desdits avis;</li>           <li>L'assembl\u00e9e g\u00e9n\u00e9rale (annuelle/sp\u00e9ciale) a lieu dans la (ville), (province), le ( ) jour de             (mois), (ann\u00e9e);</li>           <li>Les modifications annex\u00e9es aux r\u00e8glements administratifs de la (nom de l'association) et             les r\u00e9sultats du scrutin correspondants sont conformes au compte rendu de la r\u00e9union et             de l'article (num\u00e9ro) des r\u00e8glements administratifs de l'association.</li>        </ol>                 <p> Je fais cette d\u00e9claration solennelle consciencieusement, en croyant qu'elle est vraie et en sachant           qu'elle a la m\u00eame force et le m\u00eame effet que si elle \u00e9tait faite sous serment et en vertu de la Loi sur la preuve au Canada.</p>        <p class=\"mrgn-bttm-xl\">D\u00e9clar\u00e9 devant moi<br>           dans la ville de (nom), dans le comt\u00e9 de (nom),<br>           ce ( ) jour de (mois), (ann\u00e9e)<br></p>        <p class=\"mrgn-bttm-xl\">(nom)<br>           <span style=\"text-decoration:overline\">Nom du commissaire</span></p>                 <div class=\"span-6\"><div class=\"span-3 text-left\"><span style=\"text-decoration:overline\">(signature)\u00a0\u00a0\u00a0\u00a0\u00a0\u00a0\u00a0\u00a0\u00a0\u00a0\u00a0\u00a0\u00a0\u00a0\u00a0</span><br>Commissaire \u00e0 l'assermentation <br>           dans et pour la province de (nom).</div>                    <div class=\"span-3 text-right\"><span style=\"text-decoration:overline\">\u00a0\u00a0\u00a0\u00a0\u00a0\u00a0\u00a0\u00a0\u00a0\u00a0\u00a0\u00a0\u00a0\u00a0\u00a0(signature)</span><br>         (nom et titre de l'agent<br>           pr\u00e9sentateur pour l'association)</div>         </div>                 <div class=\"clearfix\"></div>                      <nav>          <h2 class=\"hidden\">Pr\u00e9c\u00e9dente-suivante navigation de document - bas</h2>          <p class=\"text-right\"><a href=\"/fra/secteurs-agricoles-du-canada/production-animale/genetique-animale/loi-sur-la-genealogie-des-animaux/guide-a-l-intention-du-secretariat/organisation-interne-des-associations/?id=1382649715176\" title=\"Organisation interne des associations de race\">Pr\u00e9c\u00e9dente</a> | <a href=\"/fra/secteurs-agricoles-du-canada/production-animale/genetique-animale/guide-a-l-intention-du-secretariat/?id=1382649715173\">Table des mati\u00e8res</a> | <a href=\"/fra/secteurs-agricoles-du-canada/production-animale/genetique-animale/loi-sur-la-genealogie-des-animaux/guide-a-l-intention-du-secretariat/dispositions-d-application/?id=1382649715178\" title=\"Infractions\">Suivante</a></p></nav>                     "
    },
    "js": {
        "en": "",
        "fr": ""
    }
}