{
    "dcr_id": "1384971854414",
    "title": {
        "en": "Price index for Canada",
        "fr": "Indices de prix pour le Canada"
    },
    "modified": "2021-06-23",
    "issued": "2011-01-30",
    "templatetype": "content page 1 column",
    "page_type": "0",
    "node_id": "1384971799963",
    "dc_date_created": "2011-01-30",
    "managing_branch": "MISB",
    "parent_node_id": "",
    "short_title": "Price index for Canada",
    "exturl": "",
    "teamsite_location": {
        "en": "/default/main/AAFC-AAC/Internet-Internet/MISB-DGSIM/SDAD-DDAS/PE-VO/WORKAREA/PE-VO/templatedata/comm-comm/gene-gene/data/consumer_price_index_1384971854414_en",
        "fr": "/default/main/AAFC-AAC/Internet-Internet/MISB-DGSIM/SDAD-DDAS/PE-VO/WORKAREA/PE-VO/templatedata/comm-comm/gene-gene/data/consumer_price_index_1384971854414_fr"
    },
    "type_name": "comm-comm/gene-gene",
    "has_dcr_id": true,
    "label": {
        "en": "Price index for Canada",
        "fr": "Indices de prix pour le Canada"
    },
    "breadcrumb": {
        "en": "Price index for Canada",
        "fr": "Indices de prix pour le Canada"
    },
    "layout_name": "content page 1 column",
    "lang": "en",
    "refaire": false,
    "meta": {
        "viewport": {
            "en": "width=device-width,initial-scale=1",
            "fr": "width=device-width, initial-scale=1"
        },
        "issued": {
            "en": "2011-01-30",
            "fr": "2003-02-24"
        },
        "modified": {
            "en": "2021-06-23",
            "fr": "2021-06-23"
        },
        "format": {
            "en": "gcformat",
            "fr": "gcformat"
        },
        "title": {
            "en": "Price index for Canada",
            "fr": "Indices de prix pour le Canada"
        },
        "subject": {
            "en": "soil assessement;architectural heritage;potato growers",
            "fr": "eau-conservation;statistiques du commerce;graines de tournesol"
        },
        "dcterms:subject": {
            "en": "statistics;architectural heritage;architecture",
            "fr": "transformation des aliments;\u0153uf;maladie"
        },
        "description": {
            "en": "13849717999630 Consumer Price Index for Poultry and Other Food ItemsCANADA (2002 = 100%) YearChicken1Other PoultryMeat1Beef1Pork1FishEggsDairy ProductsMeatFood 1 Fresh or frozen meat only does not include processed or cured meatsSource: Statistics Canada CANSIM Table 326-0021Calculations done by AAFC-AID Market Information Section 1980 49.5 49.9 56.2 49.0 44.1 56.9 47.8 51.3 48.7 1981 58.9 54.1 57.7 57.1 49.3 65.2 54.8 55.6 54.3 1982 60.4 59.6 57.3 67.3 54.1 64.4 60.3 58.2 58.2 1983 62.6 60.7 57.7 66.5 56.9 66.3 63.5 59.0 60.4 1984 66.7 63.6 61.5 66.2 59.4 70.7 67.7 61.8 63.7 1985 64.0 70.1 63.1 67.9 62.0 69.8",
            "fr": "13849717999630 Indice des prix \u00e0 la consommation de la volaille et d'autres alimentsCANADA (2002 = 100 %) ANN\u00c9EPoulet1Autres viandesde volaille1Boeuf1Porc1PoissonOeufsProduits laitiersViandesAliments 1 Viande fra\u00eeche ou congel\u00e9e seulement ne comprend pas les viandes transform\u00e9es ou durcisSource : Statistique Canada CANSIM table 326-0021Calculs r\u00e9alis\u00e9s par AAC-DIA Section d'information sur les march\u00e9s 1980 495 499 562 490 441 569 478 513 487 1981 589 541 577 571 493 652 548 556 543 1982 604 596 573 673 541 644 603 582 582 1983 626 607 577 665 569 663 635 590 604 1984 667 636 615 662 594 707"
        },
        "language": {
            "en": "eng",
            "fr": "fra"
        },
        "keywords": {
            "en": "AAFC-AID Market Information Section;YearChicken1Other PoultryMeat1Beef1Pork1FishEggsDairy ProductsMeatFood;processed or cured meatsSource;Canada CANSIM Table 326-0021Calculations;Other Food ItemsCANADA",
            "fr": "Canada CANSIM;consommation de la volaille;Indice des prix;AAC-DIA Section d'information;autres alimentsCANADA"
        },
        "audience": {
            "en": "gcaudience",
            "fr": "gcaudience"
        },
        "type": {
            "en": "geospatial material",
            "fr": "rapport"
        },
        "creator": {
            "en": "Market and Industry Services Branch;Agriculture and Agri-Food Canada;Government of Canada",
            "fr": "Direction g\u00e9n\u00e9rale des services \u00e0 l'industrie et aux march\u00e9s;Agriculture et Agroalimentaire Canada;Gouvernement du Canada"
        },
        "spatial": {
            "en": "gcregions",
            "fr": "gcregions"
        },
        "service": {
            "en": "AAFC-AAC",
            "fr": "AAFC-AAC"
        },
        "accessRights": {
            "en": "2",
            "fr": "2"
        },
        "legalName": {
            "en": "agriculture_and_agri_food_canada",
            "fr": "agriculture_et_agroalimentaire_canada"
        },
        "areaServed": {
            "en": "Canada",
            "fr": "Canada"
        }
    },
    "h1": {
        "en": "Price index for Canada",
        "fr": "Indices de prix pour le Canada"
    },
    "js": {
        "en": "",
        "fr": ""
    },
    "body": {
        "en": "\r\n    <p>This section houses reports on Canadian consumer price index and industrial price index of various products. <br></p>\n<p>\u00a0</p>\n\n<dl>\n<dt>Consumer Price Index, not seasonally adjusted\u00a0<a rel=\"external\" href=\"https://www150.statcan.gc.ca/t1/tbl1/en/cv!recreate-nonTraduit.action?pid=1810000401&amp;selectedNodeIds=2D2%2C2D3%2C2D4%2C2D5%2C2D7%2C2D8%2C2D9%2C2D11%2C2D12%2C2D14%2C2D15%2C2D16%2C2D22%2C2D23%2C2D24%2C2D25%2C2D26%2C2D27%2C2D28%2C2D29%2C2D39%2C2D40%2C2D49%2C2D50%2C2D58%2C2D62%2C2D65%2C2D74%2C2D75&amp;checkedLevels=0D1&amp;refPeriods=20190101%2C20201201&amp;dimensionLayouts=layout2%2Clayout3%2Clayout2&amp;vectorDisplay=false&amp;request_locale=en\" title=\"External link to Statistics Canada data table - Consumer Price Index, monthly, not seasonally adjusted\">Monthly</a> / \n<a rel=\"external\" href=\"https://www150.statcan.gc.ca/t1/tbl1/en/cv!recreate.action?pid=1810000501&amp;selectedNodeIds=2D2,2D3,2D4,2D7,2D8,2D9,2D10,2D11,2D12,2D13,2D14,2D15,2D16,2D22,2D23,2D24,2D25,2D26,2D27,2D28,2D29,2D39,2D40,2D49,2D50,2D58,2D62,2D63,2D64,2D65,2D74,2D75&amp;checkedLevels=0D1&amp;refPeriods=20150101,20190101&amp;dimensionLayouts=layout2,layout3,layout2&amp;vectorDisplay=false\" title=\"External link to Statistics Canada data table - Consumer Price Index, annual average, not seasonally adjusted\">Annual</a> (Statistics Canada Table: 18-10-0004-01)</dt>\n<dd>Indexes for major components and special aggregates of the Consumer Price Index (CPI), not seasonally adjusted, for Canada, provinces, Whitehorse, Yellowknife and Iqaluit. Data are presented for the current month and previous four months. The base year for the index is 2002=100.</dd>\n</dl>\n\n\n\n<dl>\n<dt>Industrial product price index, by product\u00a0\n<a title=\"External link to Statistics Canada data table - Industrial product price index, by product\" href=\"https://www150.statcan.gc.ca/t1/tbl1/en/cv!recreate.action?pid=1810003001&amp;selectedNodeIds=2D32,2D33,2D46,2D69,2D70,2D77,2D84,2D88,2D89,2D166&amp;checkedLevels=0D1&amp;refPeriods=20200401,20200801&amp;dimensionLayouts=layout2,layout3,layout2&amp;vectorDisplay=false\" rel=\"external\">Monthly</a> (Statistics Canada Table: 18-10-0030-01) / <a title=\"Link to the Agricultural Industry Market information system report - Industrial product price index for Canada\" href=\"https://aimis-simia-cdic-ccil.agr.gc.ca/rp/index-eng.cfm?action=pR&amp;r=270&amp;pdctc=\">Annual</a>\u00a0(<abbr title=\"Agricultural Industry Market Information System\">AIMIS</abbr>)</dt>\n<dd>Industrial product price index (IPPI), by product by North American Product Classification System (NAPCS). Monthly data are available from January 1956. The table presents data for the most recent reference period and the last four periods. The base period for the index is (2010=100)</dd>\n</dl>\n<p>\u00a0</p>\n<div class=\"well\">\n<p>If you have any questions or require additional information, please send an e-mail to <a title=\"Email: Animal Industry Division - Market Information Section\" href=\"mailto:aafc.poultry-volaille.aac@agr.gc.ca\"> aafc.poultry-volaille.aac@agr.gc.ca </a></p>\n<h2>Our service standards</h2>\n<p>Service standards play a vital role in our market information program's commitment to planning, reporting and performance management. \nThey clearly define the level of service that clients can expect under normal circumstances.</p>\n<p>View the <a title=\"Service standards for poultry reports\" href=\"http://www.agr.gc.ca/eng/industry-markets-and-trade/statistics-and-market-information/by-product-sector/poultry-and-eggs/service-standards-for-poultry-and-egg-market-information/?id=1481029938239\">Service standards for poultry reports.</a></p>\n</div>\n\n\r\n    ",
        "fr": "\r\n    <p>Cette section contient des rapports sur l'indice des prix \u00e0 la consommation au Canada et l'indice des prix industriels de divers produits.</p>\n\n\n<dl>\n<dt>Indice des prix \u00e0 la consommation non d\u00e9saisonnalis\u00e9  <br>\n<a title=\"Liens externe du tableau de donn\u00e9e de statistique Canada - Indice des prix \u00e0 la consommation, mensuel, non d\u00e9saisonnalis\u00e9\" href=\"https://www150.statcan.gc.ca/t1/tbl1/fr/cv!recreate-nonTraduit.action?pid=1810000401&amp;selectedNodeIds=2D2%2C2D3%2C2D4%2C2D5%2C2D7%2C2D8%2C2D9%2C2D11%2C2D12%2C2D14%2C2D15%2C2D16%2C2D22%2C2D23%2C2D24%2C2D25%2C2D26%2C2D27%2C2D28%2C2D29%2C2D39%2C2D40%2C2D49%2C2D50%2C2D58%2C2D62%2C2D65%2C2D74%2C2D75&amp;checkedLevels=0D1&amp;refPeriods=20190101%2C20201201&amp;dimensionLayouts=layout2%2Clayout3%2Clayout2&amp;vectorDisplay=false&amp;request_locale=fr\" rel=\"external\">mensuel</a> / \n<a title=\"Liens externe du tableau de donn\u00e9e de statistique Canada - Indice des prix \u00e0 la consommation, annuel, non d\u00e9saisonnalis\u00e9\" href=\"https://www150.statcan.gc.ca/t1/tbl1/fr/cv!recreate.action?pid=1810000501&amp;selectedNodeIds=2D2,2D3,2D4,2D7,2D8,2D9,2D10,2D11,2D12,2D13,2D14,2D15,2D16,2D22,2D23,2D24,2D25,2D26,2D27,2D28,2D29,2D39,2D40,2D49,2D50,2D58,2D62,2D63,2D64,2D65,2D74,2D75&amp;checkedLevels=0D1&amp;refPeriods=20150101,20190101&amp;dimensionLayouts=layout2,layout3,layout2&amp;vectorDisplay=false&amp;request_locale=fr\" rel=\"external\">Annuel</a> (Statistique Canada Tableau : 18-10-0004-01)</dt>\n<dd>Indices des composantes principales et des agr\u00e9gats sp\u00e9ciaux de l\u2019Indice des prix \u00e0 la consommation (IPC), non d\u00e9saisonnalis\u00e9, pour le Canada, les provinces, Whitehorse, Yellowknife et Iqaluit. Les donn\u00e9es sont pr\u00e9sent\u00e9es pour le mois actuel et les quatre mois pr\u00e9c\u00e9dents. L\u2019ann\u00e9e de base de l\u2019indice est 2002=100.</dd>\n</dl>\n<dt>Indice des prix des produits industriels, par produits\u00a0<br>\n<a rel=\"external\" href=\"https://www150.statcan.gc.ca/t1/tbl1/fr/cv!recreate-nonTraduit.action?pid=1810003001&amp;selectedNodeIds=2D32%2C2D33%2C2D46%2C2D69%2C2D70%2C2D77%2C2D84%2C2D88%2C2D89%2C2D166&amp;checkedLevels=0D1&amp;refPeriods=20200401%2C20200801&amp;dimensionLayouts=layout2%2Clayout3%2Clayout2&amp;vectorDisplay=false&amp;request_locale=fr\" title=\"Liens externe du tableau de donn\u00e9e de statistique Canada - Indice des prix des produits industriels, par produits, mensuel\">Mensuel</a>\u00a0(Statistique Canada Tableau : 18-10-0030-01) / <a title=\"Lien vers le rapport du Syst\u00e8me d'information sur les march\u00e9s de l'industrie agricole - Indice des prix des produits industriels\" href=\"https://aimis-simia-cdic-ccil.agr.gc.ca/rp/index-fra.cfm?action=pR&amp;r=770&amp;pdctc=\">Annuel</a>\u00a0(<abbr title=\"Syst\u00e8me d'information sur les march\u00e9s de l'industrie agricole\">SIMIA</abbr>)</dt>\n<dd>Indice des prix des produits industriels (IPPI) selon le Syst\u00e8me de classification des produits de l\u2019Am\u00e9rique du Nord (SCPAN). Les donn\u00e9es mensuelles sont disponibles \u00e0 partir de janvier 1956. Le tableau pr\u00e9sente les donn\u00e9es de la p\u00e9riode de r\u00e9f\u00e9rence la plus r\u00e9cente et des quatre derni\u00e8res p\u00e9riodes. La p\u00e9riode de base de l\u2019indice est (2010=100).</dd>\n\n<p>\u00a0</p>\n\n\n<div class=\"well\">\n<p>Pour toute question ou information additionnelle, veuillez communiquer avec nous par courriel \u00e0 <a href=\"mailto:aafc.poultry-volaille.aac@agr.gc.ca\" title=\"Courriel : Division de l'industrie animale, Section de l'information sur les march\u00e9s\">aafc.poultry-volaille.aac@agr.gc.ca</a></p>\n<h2>Nos normes de service</h2>\n<p>Les normes de service jouent un r\u00f4le cl\u00e9 dans les processus de gestion de la planification, des rapports et du rendement de notre programme d'information sur le march\u00e9. Elles d\u00e9finissent clairement le niveau de rendement auquel les clients peuvent s'attendre lorsqu'ils re\u00e7oivent un service dans des circonstances normales.</p>\n<p>Visionnez les <a href=\"http://www.agr.gc.ca/fra/industrie-marches-et-commerce/statistiques-et-information-sur-les-marches/par-produit-secteur/volaille-et-oeufs/normes-de-service-pour-l-information-sur-le-marche-de-la-volaille-et-des-ufs/?id=1481029938239\" title=\"Normes de service relatives aux rapports sur la volaille\">Normes de service relatives aux rapports sur la volaille.</a></p>\n</div>\n\n\r\n    "
    }
}