{
    "dcr_id": "1386772013859",
    "title": {
        "en": "Oklahoma-Canada agricultural trade",
        "fr": "Commerce agricole Oklahoma-Canada"
    },
    "modified": "2020-11-23",
    "issued": "2012-12-20",
    "templatetype": "content page 1 column",
    "page_type": "0",
    "node_id": "1453480440103",
    "dc_date_created": "2012-12-20",
    "managing_branch": "MISB",
    "parent_node_id": "",
    "short_title": "",
    "exturl": "",
    "teamsite_location": {
        "en": "/default/main/AAFC-AAC/Internet-Internet/MISB-DGSIM/ATS-SEA/ATS-SEA-s2/WORKAREA/ATS-SEA-s2/templatedata/comm-comm/gene-gene/data/amr_oklahoma-canada_1386772013859_en",
        "fr": "/default/main/AAFC-AAC/Internet-Internet/MISB-DGSIM/ATS-SEA/ATS-SEA-s2/WORKAREA/ATS-SEA-s2/templatedata/comm-comm/gene-gene/data/amr_oklahoma-canada_1386772013859_fr"
    },
    "type_name": "comm-comm/gene-gene",
    "has_dcr_id": true,
    "label": {
        "en": "Oklahoma-Canada agricultural trade",
        "fr": "Commerce agricole Oklahoma-Canada"
    },
    "breadcrumb": {
        "en": "Oklahoma-Canada agricultural trade",
        "fr": "Commerce agricole Oklahoma-Canada"
    },
    "layout_name": "content page 1 column",
    "lang": "en",
    "refaire": false,
    "meta": {
        "viewport": {
            "en": "width=device-width,initial-scale=1",
            "fr": "width=device-width, initial-scale=1"
        },
        "issued": {
            "en": "2012-12-20",
            "fr": "2012-12-20"
        },
        "modified": {
            "en": "2020-11-23",
            "fr": "2020-11-23"
        },
        "format": {
            "en": "gcformat",
            "fr": "gcformat"
        },
        "title": {
            "en": "Oklahoma-Canada agricultural trade",
            "fr": "Commerce agricole Oklahoma-Canada"
        },
        "subject": {
            "en": "aafcsubject",
            "fr": "aafcsubject"
        },
        "dcterms:subject": {
            "en": "exports",
            "fr": "exportation"
        },
        "description": {
            "en": "PDF Version (4.2MB) ; Requires Adobe Acrobat Reader Oklahoma exported $48 million to Canada including: $12M in fresh/frozen chicken meat $8M in protein substances (such as milk proteins) $8M in prepared meat (including $4M in prepared beef) $8M in live animals (including $6M in chickens) $3M in essential oils Oklahoma imported $69 million from Canada including: $28M in fresh/frozen beef $11M in breads and pastries (including $3M in waffles and wafers) $4M in seeds $3M in vegetables and legumes (including $1M in tomatoes) $3M in frozen",
            "fr": "et de gaufrettes) 4 M$ de graines 3 M$ de l\u00e9gumes et de l\u00e9gumineuses (dont 1 M$ de tomates) 3 M$ de frites congel\u00e9es Principaux march\u00e9s d'exportation agricoles et agroalimentaires de l'Oklahoma : Japon : 25 % Mexique : 22 % Canada : 7 % Chine : 6 % Br\u00e9sil : 4 % Un partenariat commercial solide Depuis l'entr\u00e9e en vigueur de l'Accord de libre-\u00e9change nord-am\u00e9ricain (ALENA) le commerce agricole et agroalimentaire a plus que quadrupl\u00e9 ce qui a modifi\u00e9 consid\u00e9rablement la structure des \u00e9changes et"
        },
        "language": {
            "en": "eng",
            "fr": "fra"
        },
        "keywords": {
            "en": "greater variety of safe high-quality food products;protein substances;more information;Canada including;agri-food trade",
            "fr": "M$ d'animaux vivants;M$ du Canada;Utiliser Adobe Acrobat Reader L'Oklahoma;M$ de gaufres;commerce agricole"
        },
        "audience": {
            "en": "gcaudience",
            "fr": "gcaudience"
        },
        "type": {
            "en": "fact sheet",
            "fr": "fiche de renseignements"
        },
        "creator": {
            "en": "Agriculture and Food Trade Commissioner Service;Agriculture and Agri-Food Canada;Government of Canada",
            "fr": "Service des d\u00e9l\u00e9gu\u00e9s commerciaux du secteur agroalimentaire;Agriculture et Agroalimentaire Canada;Gouvernement du Canada"
        },
        "spatial": {
            "en": "gcregions",
            "fr": "gcregions"
        },
        "service": {
            "en": "AAFC-AAC",
            "fr": "AAFC-AAC"
        },
        "accessRights": {
            "en": "2",
            "fr": "2"
        },
        "legalName": {
            "en": "agriculture_and_agri_food_canada",
            "fr": "agriculture_et_agroalimentaire_canada"
        },
        "areaServed": {
            "en": "Canada",
            "fr": "Canada"
        }
    },
    "h1": {
        "en": "Oklahoma-Canada agricultural trade",
        "fr": "Commerce agricole Oklahoma-Canada"
    },
    "js": {
        "en": "",
        "fr": ""
    },
    "body": {
        "en": "\r\n    <p class=\"lead\">A strong, integrated and balanced partnership in agriculture</p>\n\n<p>Let's keep a good thing growing!</p>\n\n<p>Bilateral agricultural trade = $80 million in 2019</p>\n\n<p>Oklahoma exported $21 million to Canada, including:</p>\n<ul>\n<li>$10M in live animals (including $8M in poultry)</li>\n<li>$4M in peptones</li>\n<li>$1M in fresh, chilled or frozen pork</li>\n<li>$1M in prepared meat</li>\n<li>$1M in animal feed</li>\n</ul>\n\n<p>Oklahoma imported $59 million from Canada, including:</p>\n<ul>\n<li>$21M in prepared cereal products</li>\n<li>$16M in fresh or chilled beef</li>\n<li>$7M in fresh vegetables (including $2M in cucumbers and gherkins)</li>\n<li>$2M in oats</li>\n<li>$2M in oil cakes</li>\n</ul>\n\n<p>In 2019, Canada purchased $25.5 billion in agricultural and agri-food products from the U.S. including $21 million from Oklahoma. USMCA will strengthen this partnership in trade!</p>\n\n<p>M = Million</p>\n<p>All figures in U.S. dollars based on 2019 total U.S. export and import data (as of March 2020)</p>\n<p>Trade data source: U.S. census bureau based on the world trade organization definition of agriculture</p>\n\n<p>Email: <a href=\"mailto:aafc.mas-sam.aac@canada.ca\">aafc.mas-sam.aac@canada.ca</a></p>\n<p><a href=\"http://www.agr.gc.ca/agpartners\">For more information</a>: www.agr.gc.ca/agpartners</p>\n<p><a href=\"https://twitter.com/hashtag/agpartners\">Follow the conversation on Twitter</a> #agpartners</p> \n\r\n    ",
        "fr": "\r\n    <p class=\"lead\">Un partenariat solide, int\u00e9gr\u00e9 et \u00e9quilibr\u00e9 en agriculture</p>\n\n<p>Pour faire cro\u00eetre de bonnes choses\u00a0!</p>\n\n<p>Commerce agricole bilat\u00e9ral = 80\u00a0M$ en 2019</p>\n\n<p>L'Oklahoma a export\u00e9 pour 21\u00a0M$ au Canada, dont\u00a0:</p>\n<ul>\n<li>9\u00a0M$ d'animaux vivants (dont 8\u00a0M$ de volaille)</li>\n<li>4\u00a0M$ de peptones</li>\n<li>1\u00a0M$ de porc frais, r\u00e9frig\u00e9r\u00e9 ou congel\u00e9</li>\n<li>1\u00a0M$ de viandes pr\u00e9par\u00e9es</li>\n<li>1\u00a0M$ d'aliments pour animaux</li>\n</ul>\n\n<p>L'Oklahoma a import\u00e9 pour 59\u00a0M$ du Canada, dont\u00a0:</p>\n<ul>\n<li>21\u00a0M$ de produits c\u00e9r\u00e9aliers pr\u00e9par\u00e9s</li>\n<li>16\u00a0M$ de viande bovine fra\u00eeche ou r\u00e9frig\u00e9r\u00e9e</li>\n<li>7\u00a0M$ de l\u00e9gumes frais (dont 2\u00a0M$ de concombres et cornichons)</li>\n<li>2\u00a0M$ en avoine</li>\n<li>2\u00a0M$ en tourteaux</li>\n</ul>\n\n<p>En 2019, le Canada a achet\u00e9 pour 25,5\u00a0G$ de produits agricoles et agroalimentaires  aupr\u00e8s des \u00c9tats-Unis, dont 21\u00a0M$ de l'Oklahoma. L'ACEUM renforcera ce partenariat dans le domaine du commerce!</p>\n\n<p>M = millions</p>\n\n<p>Tous les chiffres sont exprim\u00e9s en dollars am\u00e9ricains en fonction des  donn\u00e9es sur les exportations et les importations totales des \u00c9tats-Unis en 2019 (en date de mars\u00a02020).</p>\n<p>Source des donn\u00e9es commerciales\u00a0: Bureau du recensement des \u00c9tats-Unis, selon la d\u00e9finition de l'agriculture par l'Organisation mondiale du commerce.</p>\n\n<p>Courriel\u00a0: <a href=\"mailto:aafc.mas-sam.aac@canada.ca\">aafc.mas-sam.aac@canada.ca</a></p>\n<p><a href=\"http://www.agr.gc.ca/partenairesag\">Pour en savoir davantage</a>\u00a0: www.agr.gc.ca/partenairesag</p>\n<p><a href=\"https://twitter.com/hashtag/partenairesag\">Suivez le fil de la conversation sur Twitter</a>\u00a0: #partenairesag</p> \n\r\n    "
    }
}