{
    "dcr_id": "1386772104337",
    "title": {
        "en": "Oregon-Canada agricultural trade",
        "fr": "Commerce agricole Oregon-Canada"
    },
    "modified": "2020-11-23",
    "issued": "2012-12-20",
    "templatetype": "content page 1 column",
    "page_type": "0",
    "node_id": "1453480440103",
    "dc_date_created": "2012-12-20",
    "managing_branch": "MISB",
    "parent_node_id": "",
    "short_title": "",
    "exturl": "",
    "teamsite_location": {
        "en": "/default/main/AAFC-AAC/Internet-Internet/MISB-DGSIM/ATS-SEA/ATS-SEA-s2/WORKAREA/ATS-SEA-s2/templatedata/comm-comm/gene-gene/data/amr_oregon-canada_1386772104337_en",
        "fr": "/default/main/AAFC-AAC/Internet-Internet/MISB-DGSIM/ATS-SEA/ATS-SEA-s2/WORKAREA/ATS-SEA-s2/templatedata/comm-comm/gene-gene/data/amr_oregon-canada_1386772104337_fr"
    },
    "type_name": "comm-comm/gene-gene",
    "has_dcr_id": true,
    "label": {
        "en": "Oregon-Canada agricultural trade",
        "fr": "Commerce agricole Oregon-Canada"
    },
    "breadcrumb": {
        "en": "Oregon-Canada agricultural trade",
        "fr": "Commerce agricole Oregon-Canada"
    },
    "layout_name": "content page 1 column",
    "lang": "en",
    "refaire": false,
    "meta": {
        "viewport": {
            "en": "width=device-width,initial-scale=1",
            "fr": "width=device-width, initial-scale=1"
        },
        "issued": {
            "en": "2012-12-20",
            "fr": "2012-12-20"
        },
        "modified": {
            "en": "2020-11-23",
            "fr": "2020-11-23"
        },
        "format": {
            "en": "gcformat",
            "fr": "gcformat"
        },
        "title": {
            "en": "Oregon-Canada agricultural trade",
            "fr": "Commerce agricole Oregon-Canada"
        },
        "subject": {
            "en": "aafcsubject",
            "fr": "aafcsubject"
        },
        "dcterms:subject": {
            "en": "exports",
            "fr": "exportation"
        },
        "description": {
            "en": "PDF Version (4.2MB) ; Requires Adobe Acrobat Reader Oregon exported $352 million to Canada including: $47M in fruits and nuts (including $13M in hazelnuts) $40M in live plants $38M in seeds (including $11M in rye grass seeds) $30M in prepared potatoes $27M in vegetables and legumes (including $11M in onions) Oregon imported $407 million from Canada including: $96M in non-durum wheat $48M in canola oil $38M in vegetables and legumes (including $13M in mushrooms) $26M in fruits and nuts (including $16M in frozen blueberries) $21M in",
            "fr": "canola 38 M$ de l\u00e9gumes et de l\u00e9gumineuses (dont 13 M$ de champignons) 26 M$ de fruits et de noix (dont 16 M$ de bleuets congel\u00e9s) 21 M$ d'animaux vivants (dont 18 M$ de porcs) Principaux march\u00e9s d'exportation agricoles et agroalimentaires de l'Oregon : Japon : 25 % Chine : 19 % Canada : 11 % R\u00e9publique de Cor\u00e9e : 10 % Philippines : 6 % Un partenariat commercial solide Depuis l'entr\u00e9e en vigueur de l'Accord de libre-\u00e9change nord-am\u00e9ricain (ALENA) le commerce"
        },
        "language": {
            "en": "eng",
            "fr": "fra"
        },
        "keywords": {
            "en": "greater variety of safe high-quality food products;live animals;more information;Canada including;agri-food trade",
            "fr": "M$ d'oignons;M$ de bl\u00e9 autre;M$ du Canada;M$ de fruits;M$ de l\u00e9gumes"
        },
        "audience": {
            "en": "gcaudience",
            "fr": "gcaudience"
        },
        "type": {
            "en": "fact sheet",
            "fr": "fiche de renseignements"
        },
        "creator": {
            "en": "Agriculture and Food Trade Commissioner Service;Agriculture and Agri-Food Canada;Government of Canada",
            "fr": "Service des d\u00e9l\u00e9gu\u00e9s commerciaux du secteur agroalimentaire;Agriculture et Agroalimentaire Canada;Gouvernement du Canada"
        },
        "spatial": {
            "en": "gcregions",
            "fr": "gcregions"
        },
        "service": {
            "en": "AAFC-AAC",
            "fr": "AAFC-AAC"
        },
        "accessRights": {
            "en": "2",
            "fr": "2"
        },
        "legalName": {
            "en": "agriculture_and_agri_food_canada",
            "fr": "agriculture_et_agroalimentaire_canada"
        },
        "areaServed": {
            "en": "Canada",
            "fr": "Canada"
        }
    },
    "h1": {
        "en": "Oregon-Canada agricultural trade",
        "fr": "Commerce agricole Oregon-Canada"
    },
    "js": {
        "en": "",
        "fr": ""
    },
    "body": {
        "en": "\r\n    <p class=\"lead\">A strong, integrated and balanced partnership in agriculture</p>\n\n<p>Let's keep a good thing growing!</p>\n\n<p>Bilateral agricultural trade = $802 million in 2019</p>\n\n<p>Oregon exported $405 million to Canada, including:</p>\n<ul>\n<li>$67M in fruit and nuts</li>\n<li>$53M in oil seeds</li>\n<li>$52M in prepared vegetables, fruit and nuts</li>\n<li>$45M in beverages, spirits and vinegar</li>\n<li>$38M in live trees and plants</li>\n</ul>\n\n<p>Oregon imported $397 million from Canada, including:</p>\n<ul>\n<li>$82M in prepared cereal products (including $41M in baked goods and $40M in malt  extract)</li>\n<li>$45M in fresh vegetables</li>\n<li>$45M in fresh, chilled or frozen meat</li>\n<li>$42M in fats and oils</li>\n<li>$25M in cereal grains</li>\n</ul>\n\n<p>Oregon's top agriculture and agri-food export markets:</p>\n<ul>\n<li>Japan: 21%</li>\n<li>Canada: 18%</li>\n<li>South Korea: 17%</li>\n<li>Philippines: 7%</li>\n<li>China: 7%</li>\n</ul>\n\n<p>M = Million</p>\n<p>All figures in U.S. dollars based on 2019 total U.S. export and import data (as of March 2020)</p>\n<p>Trade data source: U.S. census bureau based on the world trade organization definition of agriculture</p>\n\n<p>Email: <a href=\"mailto:aafc.mas-sam.aac@canada.ca\">aafc.mas-sam.aac@canada.ca</a></p>\n<p><a href=\"http://www.agr.gc.ca/agpartners\">For more information</a>: www.agr.gc.ca/agpartners</p>\n<p><a href=\"https://twitter.com/hashtag/agpartners\">Follow the conversation on Twitter</a> #agpartners</p> \n\r\n    ",
        "fr": "\r\n    <p class=\"lead\">Un partenariat solide, int\u00e9gr\u00e9 et \u00e9quilibr\u00e9 en agriculture</p>\n\n<p>Pour faire cro\u00eetre de bonnes choses\u00a0!</p>\n\n<p>Commerce agricole bilat\u00e9ral = 802\u00a0M$ en 2019</p>\n\n<p>L'Oregon a export\u00e9 pour 405\u00a0M$ au Canada, dont\u00a0:</p>\n<ul>\n<li>67\u00a0M$ de fruits et de noix</li>\n<li>53\u00a0M$ en graines ol\u00e9agineuses</li>\n<li>52\u00a0M$ de l\u00e9gumes, de fruits et de noix pr\u00e9par\u00e9s</li>\n<li>45\u00a0M$ en boissons, en spiritueux et en vinaigre</li>\n<li>38\u00a0M$ en arbres et plantes vivants</li>\n</ul>\n\n<p>L'Oregon a import\u00e9 pour 397\u00a0M$ du Canada, dont\u00a0:</p>\n<ul>\n<li>82\u00a0M$ de produits c\u00e9r\u00e9aliers pr\u00e9par\u00e9s (dont 41\u00a0M$  de produits de boulangerie-p\u00e2tisserie et 40\u00a0M$ d'extrait de malt)</li>\n<li>45\u00a0M$ de l\u00e9gumes frais</li>\n<li>45\u00a0M$ de viande fra\u00eeche, r\u00e9frig\u00e9r\u00e9e ou congel\u00e9e</li>\n<li>42\u00a0M$ de graisses et d'huiles</li>\n<li>25\u00a0M$ de grains de c\u00e9r\u00e9ales</li>\n</ul>\n\n<p>Principaux march\u00e9s d'exportation de produits agricoles et agroalimentaires de l'Oregon\u00a0:</p>\n<ul>\n<li>Japon\u00a0: 21\u00a0%</li>\n<li>Canada\u00a0: 18\u00a0%</li>\n<li>Cor\u00e9e du Sud\u00a0: 17\u00a0%</li>\n<li>Philippines\u00a0: 7\u00a0%</li>\n<li>Chine\u00a0: 7\u00a0%</li>\n</ul>\n\n<p>M = millions</p>\n\n<p>Tous les chiffres sont exprim\u00e9s en dollars am\u00e9ricains en fonction des  donn\u00e9es sur les exportations et les importations totales des \u00c9tats-Unis en 2019 (en date de mars\u00a02020).</p>\n<p>Source des donn\u00e9es commerciales\u00a0: Bureau du recensement des \u00c9tats-Unis, selon la d\u00e9finition de l'agriculture par l'Organisation mondiale du commerce.</p>\n\n<p>Courriel\u00a0: <a href=\"mailto:aafc.mas-sam.aac@canada.ca\">aafc.mas-sam.aac@canada.ca</a></p>\n<p><a href=\"http://www.agr.gc.ca/partenairesag\">Pour en savoir davantage</a>\u00a0: www.agr.gc.ca/partenairesag</p>\n<p><a href=\"https://twitter.com/hashtag/partenairesag\">Suivez le fil de la conversation sur Twitter</a>\u00a0: #partenairesag</p> \n\r\n    "
    }
}