{
    "dcr_id": "1401987676692",
    "title": {
        "en": "Spatial and Temporal Variation (Video)",
        "fr": "Variations spatiales et temporelles (Vid\u00e9o)"
    },
    "modified": "2020-01-31",
    "issued": "2014-07-30",
    "templatetype": "content page 1 column",
    "page_type": "0",
    "node_id": "1400188048572",
    "dc_date_created": "2014-07-30",
    "managing_branch": "PAB",
    "parent_node_id": "",
    "short_title": "",
    "exturl": "",
    "teamsite_location": {
        "en": "/default/main/AAFC-AAC/Internet-Internet/Common-Commun/WORKAREA/Common-Commun/templatedata/comm-comm/gene-gene/data/06/water-eau_transcript_spatial_temporal_1401987676692_en",
        "fr": "/default/main/AAFC-AAC/Internet-Internet/Common-Commun/WORKAREA/Common-Commun/templatedata/comm-comm/gene-gene/data/06/water-eau_transcript_spatial_temporal_1401987676692_fr"
    },
    "type_name": "comm-comm/gene-gene",
    "has_dcr_id": true,
    "label": {
        "en": "Spatial and Temporal Variation (Video)",
        "fr": "Variations spatiales et temporelles (Vid\u00e9o)"
    },
    "breadcrumb": {
        "en": "Spatial and Temporal Variation (Video)",
        "fr": "Variations spatiales et temporelles (Vid\u00e9o)"
    },
    "layout_name": "content page 1 column",
    "lang": "en",
    "refaire": false,
    "meta": {
        "viewport": {
            "en": "width=device-width,initial-scale=1",
            "fr": "width=device-width, initial-scale=1"
        },
        "issued": {
            "en": "2014-07-30",
            "fr": "2014-07-30"
        },
        "modified": {
            "en": "2020-01-31",
            "fr": "2020-01-31"
        },
        "format": {
            "en": "text/html",
            "fr": "text/html"
        },
        "title": {
            "en": "Spatial and Temporal Variation (Video)",
            "fr": "Variations spatiales et temporelles (Vid\u00e9o)"
        },
        "subject": {
            "en": "land resources;soil survey;water resources",
            "fr": "\u00e9tudes p\u00e9dologiques;sols-ressources;eau ressource"
        },
        "dcterms:subject": {
            "en": "water management;watersheds;geomatics",
            "fr": "gestion de l'eau;g\u00e9omatique;bassin hydrologique"
        },
        "description": {
            "en": "[fade to black] [fade up from black] [The blue background fades back in. A graph fades in over the blue background.",
            "fr": "[Aucune musique de fond pendant la dur\u00e9e de la vid\u00e9o] Texte \u00e0 l'\u00e9cran : Gestion des bassins hydrographiques - Variation spatiales et temporelles [Retour au noir] [Ouverture en fondu sur fond noir] [De nombreux carr\u00e9s lumineux apparaissent en fondu sur fond bleu dans tout l'\u00e9cran."
        },
        "language": {
            "en": "eng",
            "fr": "fra"
        },
        "keywords": {
            "en": "littoral zone;overland flow;euphotic zone;The blue background;blue background",
            "fr": "zone euphotique;cours d'eau;Variabilit\u00e9 spatiale;fond noir;fond bleu"
        },
        "audience": {
            "en": "gcaudience",
            "fr": "gcaudience"
        },
        "type": {
            "en": "multimedia",
            "fr": "multim\u00e9dia"
        },
        "creator": {
            "en": "Agriculture and Agri-Food Canada;Government of Canada",
            "fr": "Agriculture et Agroalimentaire Canada;Gouvernement du Canada"
        },
        "spatial": {
            "en": "gcregions",
            "fr": "gcregions"
        },
        "service": {
            "en": "AAFC-AAC",
            "fr": "AAFC-AAC"
        },
        "accessRights": {
            "en": "2",
            "fr": "2"
        },
        "legalName": {
            "en": "agriculture_and_agri_food_canada",
            "fr": "agriculture_et_agroalimentaire_canada"
        },
        "areaServed": {
            "en": "Canada",
            "fr": "Canada"
        }
    },
    "h1": {
        "en": "Spatial and Temporal Variation (Video)",
        "fr": "Variations spatiales et temporelles (Vid\u00e9o)"
    },
    "js": {
        "en": "",
        "fr": ""
    },
    "body": {
        "en": "\r\n    <div class=\"row\"><div class=\"col-md-12 col-xs-8\">\n<figure class=\"wb-mltmd\">\n    <video poster=\"http://multimedia.agr.gc.ca/20902/20902-3/20902-3-thumbnail-590x332-eng.png\" title=\"Spatial and Temporal Variation\">\n    <source type=\"video/mp4\" src=\"http://multimedia.agr.gc.ca/20902/20902-3/20902-3-video-590x332-eng.mp4\"></source>\n<track kind=\"captions\" data-type=\"application/ttml+xml\" src=\"/multimedia/20902/20902-3/20902-3-captions-eng.xml\" srclang=\"en\" label=\"English\"></track>\n  </video>\n\n<figcaption>\n<details id=\"inline-captions\">\n<summary>Video Transcript</summary>\n\n<p>[A maple leaf flies across the screen and lands to the left.  A photo of wheat plots fades into the background.  Small circles appear containing images relevant to agriculture. The Canada wordmark and the departmental signature fade in.  The title of the video appears on screen.]</p>\n\n<p>[No background music for length of video]</p>\n\n<p>Text on screen: Watershed Management\u00a0- Spatial &amp; Temporal Variation</p>\n\n<p>[fade to black]</p>\n\n<p>[fade up from black]</p>\n\n<p>[A blue background contains many light squares fades in over the whole frame.  Text starts to fade in over the blue background.]</p>\n\n<p>Text on screen: Streams: Spatial Variability. Horizontal and vertical differences within a cross-section of larger rivers. Different sub-system along longitudinal profile, dependent on depth and flow. Some horizontal stratification where streams merge.</p>\n\n<p>Male narrator: As streams increase in size, there will be variation in chemistry both vertically within the stream, and horizontally across it. Stream velocity changes both across the width and from top to bottom, and this affects the erosive capability of the stream at any particular location. Along the length of the stream, different sections like riffles or pools will also have different chemistry, again due to different velocities and water depths. When two streams merge, the waters often don't become fully mixed until well downstream of the merge point, particularly if they are of different temperatures.</p>\n\n<p>[fade to black]</p>\n\n<p>[fade up from black]</p>\n\n<p>[The blue background fades back in. A graph fades in over the blue background. The graph indicates the flow velocity in a cross section of a stream. The Y axis indicates the depth of the water. The X axis indicates the distance across the stream.]</p>\n\n<p>Text on screen: Streams: Spatial Variability Velocity</p>\n\n<p>This graph demonstrates the variability in the velocity in a cross section of a typical stream. As shown in red, the water is slowest on the bottom where friction is high. But it's also significantly slower on the right, or depositional side, than on the left.</p>\n\n<p>[fade to black]</p>\n\n<p>[fade up from black]</p>\n\n<p>[The blue background fades back in. Four graphics fade in over the blue background. There is one graphic that is larger than the other three graphics. This graphic indicates where erosion and deposition will happen in a flowing stream. The other, smaller graphics indicate three differently shaped streambeds and where the maximum velocity of water flow can be found in each.]</p>\n\n<p>Text on screen: Streams: Spatial Variability, Deposition and Erosion. (on the large graphic) Erosion of Cut Bank, Deposition of Point Bar. (on all three smaller graphics) Maximum Velocity</p>\n\n<p>Regions of deposition and erosion vary based on differences in velocity. The water will be most mixed in the straight section of this stream, where the velocity is most similar across its width.</p>\n\n<p>[fade to black]</p>\n\n<p>[fade up from black]</p>\n\n<p>[The blue background fades back in. Text fades in over the blue background. A photo of a stream fades in underneath the text.]</p>\n\n<p>Text on screen: Streams: Spatial Variability, Runs, Riffles and Pools</p>\n\n<p>Pools, runs and riffles represent different structural components of streams.</p>\n\n<p>[A red circle fades in over the photo of the stream indicating an area where the stream curves.]</p>\n\n<p>Runs have smooth laminar flow, and the streambed may be made up of smaller sediments like gravel and sand.</p>\n\n<p>[The first red circle fades out. Another red circle fades in around the slight rapids in the stream.]</p>\n\n<p>Riffles are characterized by fast turbulent flow, highly oxygenated water, and a streambed that's often comprised of large boulders and cobblestones.</p>\n\n<p>[The red circle fades out.  A third red circle fades in around a still part of the stream.]</p>\n\n<p>Pools feature deeper, slower-moving water, and they often have soft sediments, like silt, sand, or organic muck. The chemistry of the water may be different in each of these three zones, depending on the flow and the size of the stream.</p>\n\n<p>[fade to black]</p>\n\n<p>[fade up from black]</p>\n\n<p>[The blue background fades back in.  Text fades in over the blue background.]</p>\n\n<p>Text on screen:  Streams: Temporal Variability.  Seasonal changes reflect different contributions from groundwater and overland flow.  Intermittent changes due to precipitation events.  In winter oxygen levels could be depleted.</p>\n\n<p>Water chemistry in streams will vary over time due to climatic variation.  Some typical patterns occur over an annual cycle. For example, during winter, the stream is fed primarily by groundwater and therefore its chemistry will most closely resemble groundwater. Similarly, periodic precipitation events will cause stream chemistry to change due to an influx of surface or overland flow. Over winter, oxygen levels may be depleted if ice cover is complete.  In some streams however, small sections over riffles remain open, allowing oxygen to be re-entrained in the water.</p>\n\n<p>[fade to black]</p>\n\n<p>[fade up from black]</p>\n\n<p>[The blue background fades back in.  A graph fades in over the blue background.  The graph indicates the flow variations over the course of several months.  The Y axis indicates the volume of the water flow.  The X axis indicates the month.]</p>\n\n<p>Text on screen:  Streams: Temporal Variability Flow Contributions.  (Y axis) Volume.  (X axis)  Jan, Mar, May, Jul, Sep, Nov.</p>\n\n<p>As this hydrograph illustrates, the water in a stream is comprised of two basic components...</p>\n\n<p>[An arrow fades in over the graph indicating the part of the graph that represents the regional groundwater flow.]</p>\n\n<p>Text on screen:  (new)  Base Flow (regional groundwater)</p>\n\n<p>... base flow, which closely resembles groundwater...</p>\n\n<p>[Another arrow fades in over the graph indicating the part of the graph that represents the overland flow.]</p>\n\n<p>Text on screen:  (new)  Event Flow (overland flow)</p>\n\n<p>... and event flow, which is made up of shallow groundwater and overland flow that enters the stream following storm or spring melt events.</p>\n\n<p>[Another arrow fades in over the graph indicating the part of the graph that represents the total flow.]</p>\n\n<p>Text on screen:  (new)  Total Flow</p>\n\n<p>The two types of water differ in their chemistry and as a consequence, the overall stream chemistry will vary according to the proportion of each type of flow.</p>\n\n<p>[fade to black]</p>\n\n<p>[fade up from black]</p>\n\n<p>[The blue background fades back in.  Text fades in over the blue background.]</p>\n\n<p>Text on screen:  Lakes: Spatial Variability.  Vertically the water is divided into zones which are often sampled individually.  Horizontally, lake bottom may be divided into zones.</p>\n\n<p>Like streams, lake water chemistry varies in space and time.  There will be spatial differences in water chemistry within lakes in both dimensions. Vertically, the water is divided into zones which are dependent on light and temperature. In the horizontal sense, sheltered bays may have different conditions than large open water sections.  In either case, this differentiation can lead to differences in the water chemistry.</p>\n\n<p>[fade to black]</p>\n\n<p>[fade up from black]</p>\n\n<p>[The blue background fades back in.  Text fades in over the blue background.  A graphic also appears representing a cross-section of a stream.  There is a small graph to the right of the graphic.  The graph indicates temperature at various depths.]</p>\n\n<p>Text on screen: Lakes: Spatial Variability Limnetic Zones</p>\n\n<p>[The area in the graphic representing water begins to change color to indicate the different temperatures at different depths.  As the colors change, the graph to the right begins to shift to represent the temperature differences.]</p>\n\n<p>When surface water warms and becomes less dense, the relative thermal resistance to mixing increases. As a result, the water body becomes stratified into 3 vertical or limnetic zones.</p>\n\n<p>[Text fades in over the top color layer (red) in the water.]</p>\n\n<p>Text on screen:  (new)  Epilimnion</p>\n\n<p>The epilimnion is the top layer of water and is relatively well mixed.  It has a uniform temperature and uniform dissolved oxygen and nutrient concentrations.</p>\n\n<p>[Text fades in over the middle color layer (yellow) in the water.]</p>\n\n<p>Text on screen:  (new)  Metalimnion</p>\n\n<p>The metalimnion is a boundary zone that's characterized by a steep thermal gradient which means that temperature changes very quickly in this zone.</p>\n\n<p>[Text fades in over the graphic.  An arrow fades in indicating the curve that has formed in the graph.]</p>\n\n<p>Text on screen:  (new)  Thermocline</p>\n\n<p>The term thermocline actually refers to the depth at which the temperature gradient is steepest.   The metalimnion separates the top and bottom layers.</p> \n\n<p>[Text fades in over the bottom color layer (blue) in the water.]</p>\n\n<p>Text on screen:  (new)  Hypolimnion</p>\n\n<p>The hypolimnion is the zone of water below the thermocline and has uniform temperature, dissolved oxygen and nutrient profiles.</p>\n\n<p>[fade to black]</p>\n\n<p>[fade up from black]</p>\n\n<p>[The blue background fades back in.  Text fades in over the blue background.  The same graphic as earlier fades in over the blue background.  Text fades in over the water in the graphic.]</p>\n\n<p>Text on screen:  Lakes: Spatial Variability Photic Zones.  (on graphic)  Euphotic Zone</p>\n\n<p>The euphotic zone is the column of water in which sufficient light exists for primary production, that is, photosynthesis.</p>\n\n<p>[A graphic representation of grass and underwater vegetation fades in on the graphic.  A white arrow also appears to show the depth of the euphotic zone.]</p>\n\n<p>The euphotic zone descends from the water surface to a depth at which light penetration is just 1% of that at the surface. It follows that the euphotic zone can change throughout a season.</p>\n\n<p>[Text fades in over the graphic indicating the littoral zone, above the euphotic zone.  Two white arrows appear to show where the littoral zone is found.]</p>\n\n<p>The littoral zone is the shallow zone near the shore that is characterized by aquatic macrophytes.  This zone extends from the shore to as deep as the average euphotic zone depth.</p>\n\n<p>[Text fades in over the graphic indicating the profundal zone, underneath the euphotic zone.]</p>\n\n<p>The lake bottom that's in the deeper, openwater area is called the profundal zone.  This is the deep-water depositional zone, characterized by an accumulation of fine sediment.</p>\n\n<p>[fade to black]</p>\n\n<p>[fade up from black]</p>\n\n<p>[The blue background fades back in.  Text fades in over the blue background.]</p>\n\n<p>Text on screen:  Lakes: Temporal Variability.  Daily cycles, related to photosynthesis, changes in oxygen, pH, carbon.  Intermittent mixing in shallow lakes.  Seasonal changes due to changes in light, and hence temperature.</p>\n\n<p>Lakes also exhibit great temporal variability in their water chemistry. Lakes can exhibit daily differences due to photosynthetic activity. Photosynthesis will affect the oxygen, carbon and pH concentrations in the euphotic zone. Shallow lakes may experience intermittent mixing throughout the open-water season during strong wind events.  This mixing will significantly alter the chemistry of the lake as the nutrient rich hypolimnetic water is re-mixed with the epilimnetic water.  Significant seasonal variation also takes place due to the changes in light and hence temperature.</p>\n\n<p>[Fade to black]</p>\n\n<p>[Fade up from white]</p>\n\n<p>[Three circles containing images moving quickly towards the camera.  Once full screen they slip off to the upper left and off screen.  A grey ribbon moves in behind the circles as they become full screen.  The circles line up, zoom out, and center themselves in the middle of the screen.  The Agriculture and Agri-Food Canada departmental signature appears below the circles.]</p>\n\n<p>Text on screen:  Agriculture and Agri-Food Canada.  <span lang=\"fr\" xml:lang=\"fr\">Agriculture et Agroalimentaire Canada</span>.</p>\n\n<p>[Cross-fade to the Canada with an animated Canadian flag over the last letter in the word.]</p>\n\n<p>[Fade to black]</p>\n\n</details> \n</figcaption> \n</figure>\n</div></div>\n\r\n    ",
        "fr": "\r\n    \n<div class=\"row\"><div class=\"col-md-12 col-xs-8\">\n<figure class=\"wb-mltmd\">\n    <video poster=\"http://multimedia.agr.gc.ca/20902/20902-3/20902-3-thumbnail-590x332-fra.png\" title=\"Variations spatiales et temporelles\">\n    <source type=\"video/mp4\" src=\"http://multimedia.agr.gc.ca/20902/20902-3/20902-3-video-590x332-fra.mp4\"></source>\n    <track kind=\"captions\" data-type=\"application/ttml+xml\" src=\"/multimedia/20902/20902-3/20902-3-captions-fra.xml\" srclang=\"fr\" label=\"Fran\u00e7ais\"></track>\n  </video>\n\n<figcaption>\n<details id=\"inline-captions\">\n<summary>Transcription de la vid\u00e9o</summary>\n\n<p>[Une feuille d'\u00e9rable parcourt l'\u00e9cran et s'arr\u00eate \u00e0 gauche. Une photo de parcelles de bl\u00e9 appara\u00eet en arri\u00e8re-plan. De petits cercles contenant des images li\u00e9es \u00e0 l'agriculture apparaissent \u00e0 l'\u00e9cran. Le mot-symbole Canada et la signature minist\u00e9rielle apparaissent en fondu. Le titre de la vid\u00e9o appara\u00eet \u00e0 l'\u00e9cran.]</p>\n\n<p>[Aucune musique de fond pendant la dur\u00e9e de la vid\u00e9o]</p>\n\n<p>Texte \u00e0 l'\u00e9cran\u00a0:  Gestion des bassins hydrographiques\u00a0- Variation spatiales et temporelles</p>\n\n<p>[Retour au noir]</p>\n\n<p>[Ouverture en fondu sur fond noir]</p>\n\n<p>[De nombreux carr\u00e9s lumineux apparaissent en fondu sur fond bleu dans tout l'\u00e9cran. Le texte commence \u00e0 appara\u00eetre en fondu sur le fond bleu.]</p>\n\n<p>Texte \u00e0 l'\u00e9cran\u00a0: Cours d'eau\u00a0: variabilit\u00e9 spatiale.  Diff\u00e9rences sur les plans horizontal et vertical dans une section transversale des grands cours d'eau.  Plusieurs sous-syst\u00e8mes le long du profil longitudinal, en fonction de la profondeur et de l'\u00e9coulement.  Stratification horizontale \u00e0 la confluence des cours d'eau.</p>\n\n<p>Narrateur\u00a0: Les propri\u00e9t\u00e9s chimiques des cours d'eau varient en fonction de la taille de ces derniers, tant sur le plan horizontal que vertical. La vitesse du courant varie sur toute la largeur du cours d'eau et de haut en bas, ce qui a des r\u00e9percussions sur le pouvoir \u00e9rosif de l'eau \u00e0 un endroit donn\u00e9. Les propri\u00e9t\u00e9s chimiques varieront dans les diff\u00e9rentes sections longitudinales du cours d'eau comme les radiers et les fosses, en raison des diff\u00e9rences dans la vitesse du courant et la profondeur de l'eau. Lorsque deux cours d'eau se rejoignent, le m\u00e9lange complet des eaux ne se fait souvent que bien en aval du point de confluence, surtout s'il y a des \u00e9carts de temp\u00e9rature.</p>\n\n<p>[Retour au noir]</p>\n\n<p>[Ouverture en fondu sur fond noir]</p>\n\n<p>[Le fond bleu r\u00e9appara\u00eet en fondu. Un graphique appara\u00eet en fondu sur le fond bleu. Il indique la vitesse d'\u00e9coulement dans une coupe transversale d'un cours d'eau. L'axe des Y indique la profondeur d'eau. L'axe des X indique la distance entre les deux rives.]</p>\n\n<p>Texte \u00e0 l'\u00e9cran\u00a0: Variabilit\u00e9 spatiale\u00a0: vitesse</p>\n\n<p>Ce diagramme illustre la variabilit\u00e9 de la vitesse d'\u00e9coulement de l'eau dans une section transversale d'un cours d'eau type. L'\u00e9coulement de l'eau est le plus faible sur le fond o\u00f9 la friction est grande (en rouge). Mais il est \u00e9galement beaucoup plus lent \u00e0 droite, l\u00e0 o\u00f9 les s\u00e9diments se d\u00e9posent, qu'\u00e0 gauche.</p>\n\n<p>[Retour au noir]</p>\n\n<p>[Ouverture en fondu sur fond noir]</p>\n\n<p>[Le fond bleu r\u00e9appara\u00eet en fondu. Quatre graphiques apparaissent en fondu sur le fond bleu. Un des graphiques est plus grand que les autres. Il indique l'endroit du cours d'eau o\u00f9 il y aura de l'\u00e9rosion et des d\u00e9p\u00f4ts. Les autres graphiques plus petits indiquent trois lits de cours d'eau de formes diff\u00e9rentes et l'endroit o\u00f9 on peut trouver la vitesse maximale de l'eau dans chacun.]</p>\n\n<p>Texte \u00e0 l'\u00e9cran\u00a0:  Variabilit\u00e9 spatiale\u00a0: s\u00e9dimentation et \u00e9rosion.  (sur le grand dessin) \u00c9rosion des berges, D\u00e9pIot d'une barre de m\u00e9andre.  (sur les trois petits dessins) Vitesse maximale.</p>\n\n<p>Les zones de d\u00e9p\u00f4t et d'\u00e9rosion varient en fonction de la vitesse. L'eau se m\u00e9langera davantage dans le tron\u00e7on rectiligne de ce cours d'eau, o\u00f9 la vitesse est assez constante sur toute sa largeur.</p>\n\n<p>[Retour au noir]</p>\n\n<p>[Ouverture en fondu sur fond noir]</p>\n\n<p>[Le fond bleu r\u00e9appara\u00eet en fondu. Un texte appara\u00eet en fondu sur le fond bleu. Une photo d'un cours d'eau appara\u00eet en fondu en dessous du texte.]</p>\n\n<p>Texte \u00e0 l'\u00e9cran\u00a0:  Variabilit\u00e9 spatiale\u00a0: plates, radiers et fosses</p>\n\n<p>Les plats, radiers et fosses sont diff\u00e9rents \u00e9l\u00e9ments structuraux des cours d'eau.</p>\n\n<p>[Un cercle rouge appara\u00eet en fondu au-dessus de la photo du cours d'eau, indiquant un m\u00e9andre du cours d'eau.]</p>\n\n<p>Les plats sont caract\u00e9ris\u00e9s par un \u00e9coulement laminaire r\u00e9gulier; le fond peut \u00eatre constitu\u00e9 de s\u00e9diments de petite taille, comme du gravier et du sable.</p>\n\n<p>[Le premier cercle rouge dispara\u00eet. Un autre cercle rouge appara\u00eet en fondu autour de faibles rapides du cours d'eau.]</p>\n\n<p>Les radiers ou rapides sont caract\u00e9ris\u00e9s par un \u00e9coulement turbulent, une eau bien oxyg\u00e9n\u00e9e et un lit souvent constitu\u00e9 de gros blocs rocheux et de pierres.</p>\n\n<p>[Le cercle rouge dispara\u00eet. Un troisi\u00e8me cercle rouge appara\u00eet en fondu autour d'une partie qui fait toujours partie du cours d'eau.]</p>\n\n<p>Les fosses sont plus profondes; l'eau y circule plus lentement et le fond est souvent constitu\u00e9 de s\u00e9diments meubles, comme du limon, du sable ou de la mati\u00e8re organique. La composition chimique de l'eau peut diff\u00e9rer dans chacune de ces trois zones, selon l'\u00e9coulement de l'eau et la taille du cours d'eau.</p>\n\n<p>[Retour au noir]</p>\n\n<p>[Ouverture en fondu sur fond noir]</p>\n\n<p>[Le fond bleu r\u00e9appara\u00eet en fondu. Un texte appara\u00eet en fondu sur le fond bleu.]</p>\n\n<p>Texte \u00e0 l'\u00e9cran\u00a0:  Cours d'eau\u00a0: variabilit\u00e9 temporelle.  Les variations saisonni\u00e8res sont li\u00e9es aux apports d'eau souterraine et au ruissellement.  Les changements intermittents sont caus\u00e9s par les pr\u00e9cipitations.  En hiver, l'oxyg\u00e8ne peut s'\u00e9puiser.</p>\n\n<p>Les propri\u00e9t\u00e9s chimiques des cours d'eau changent au fil du temps en raison de la variabilit\u00e9 climatique. Des profils types suivent un cycle annuel. Par exemple, durant l'hiver, les cours d'eau sont aliment\u00e9s principalement par la nappe souterraine; leurs propri\u00e9t\u00e9s chimiques sont donc tr\u00e8s semblables \u00e0 celles des eaux souterraines. Les pr\u00e9cipitations p\u00e9riodiques et le ruissellement qui les accompagne sont d'autres agents modificateurs. Durant l'hiver, l'oxyg\u00e8ne peut s'\u00e9puiser si la couverture de glace est totale. Dans certains cours d'eau toutefois, de petites sections de radiers demeurent libres de glace, ce qui permet \u00e0 l'oxyg\u00e8ne de se renouveler. </p>\n\n<p>[Retour au noir]</p>\n\n<p>[Ouverture en fondu sur fond noir]</p>\n\n<p>[Le fond bleu r\u00e9appara\u00eet en fondu. Un graphique appara\u00eet en fondu sur le fond bleu. Le graphique indique les variations de d\u00e9bit au cours de plusieurs mois. L'axe des Y indique le volume du d\u00e9bit d'eau. L'axe des X indique le mois.]</p>\n\n<p>Texte \u00e0 l'\u00e9cran\u00a0:  Variabilit\u00e9 temporelle\u00a0: \u00e9coulement.  (l'axe des y) Volume.  (l'axe des x) Janv, Mars, Mai, Juil, Sept, nov. 25, 12</p>\n\n<p>Comme on peut le constater sur cet hydrogramme, le d\u00e9bit d'un cours d'eau comprend deux composantes principales...</p>\n\n<p>[Une fl\u00e8che appara\u00eet en fondu sur le graphique, indiquant la partie du graphique qui repr\u00e9sente l'\u00e9coulement souterrain r\u00e9gional.]</p>\n\n<p>Texte \u00e0 l'\u00e9cran\u00a0:  \u00c9coulement de base (nappe souterraine r\u00e9gionale)</p>\n\n<p>... l'\u00e9coulement de base, qui provient essentiellement de la nappe souterraine...</p>\n\n<p>[Une autre fl\u00e8che appara\u00eet en fondu sur le graphique, indiquant la partie du graphique qui repr\u00e9sente l'\u00e9coulement de surface.]</p>\n\n<p>Texte \u00e0 l'\u00e9cran\u00a0:  \u00c9coulement d'orage (ruissellement)</p>\n\n<p>...et l'\u00e9coulement d'orage, que l'on associe \u00e0 l'eau souterraine peu profonde et \u00e0 l'eau de ruissellement qui p\u00e9n\u00e8tre dans le cours d'eau apr\u00e8s un orage ou la fonte printani\u00e8re.</p>\n\n<p>[Une autre fl\u00e8che appara\u00eet en fondu sur le graphique, indiquant la partie du graphique qui repr\u00e9sente le d\u00e9bit total.]</p>\n\n<p>Texte \u00e0 l'\u00e9cran\u00a0:  \u00c9coulement global</p>\n\n<p>L'eau de ces deux types d'\u00e9coulement pr\u00e9sente des propri\u00e9t\u00e9s chimiques diff\u00e9rentes. Par cons\u00e9quent, les propri\u00e9t\u00e9s chimiques de l'ensemble du cours d'eau varieront en fonction de la proportion de chaque type d'\u00e9coulement.</p>\n\n<p>[Retour au noir]</p>\n\n<p>[Ouverture en fondu sur fond noir]</p>\n\n<p>[Le fond bleu r\u00e9appara\u00eet en fondu. Un texte appara\u00eet en fondu sur le fond bleu.]</p>\n\n<p>Texte \u00e0 l'\u00e9cran\u00a0:  Lacs\u00a0- Variabilit\u00e9 spatiale.  La colonne d'eau se divise en couches dans lesquelles des \u00e9chantillons sont souvent pr\u00e9lev\u00e9s s\u00e9par\u00e9ment.  Le fond du lac peut se subdiviser en couches horizontales.</p>\n\n<p>Comme dans les cours d'eau, la composition chimique de l'eau des lacs varie dans le temps et dans l'espace, tant sur le plan horizontal que sur le plan vertical. Sur le plan vertical, la colonne d'eau se divise en zones sensibles \u00e0 la lumi\u00e8re et \u00e0 la temp\u00e9rature. Sur le plan horizontal, les baies abrit\u00e9es peuvent pr\u00e9senter des caract\u00e9ristiques diff\u00e9rentes de celles des vastes zones de pleine eau. Dans les deux cas, cette diff\u00e9renciation peut entra\u00eener des modifications de la composition chimique de l'eau.</p>\n\n<p>[Retour au noir]</p>\n\n<p>[Ouverture en fondu sur fond noir]</p>\n\n<p>[Le fond bleu r\u00e9appara\u00eet en fondu. Un texte appara\u00eet en fondu sur le fond bleu. Un graphique appara\u00eet \u00e9galement pour repr\u00e9senter une coupe transversale d'un cours d'eau.  Il y a un petit graphique \u00e0 droite du graphique. Le graphique indique la temp\u00e9rature \u00e0 diff\u00e9rentes profondeurs.]</p>\n\n<p>Texte \u00e0 l'\u00e9cran\u00a0:  Variabilit\u00e9 spatiale\u00a0: zones limn\u00e9tiques</p>\n\n<p>[L'endroit du graphique qui repr\u00e9sente l'eau commence \u00e0 changer de couleur pour indique les diff\u00e9rentes temp\u00e9ratures \u00e0 diff\u00e9rentes profondeurs. En m\u00eame temps que le changement de couleur, le graphique qui est sur la droite commence \u00e0 se d\u00e9placer pour repr\u00e9senter les diff\u00e9rences de temp\u00e9rature.]</p>\n\n<p>Lorsque la couche d'eau superficielle se r\u00e9chauffe et devient moins dense, la r\u00e9sistance thermique relative au m\u00e9lange augmente. Il s'ensuit une stratification de la masse d'eau en trois zones verticales ou limn\u00e9tiques.</p>\n\n<p>[Le texte appara\u00eet en fondu sur la couche color\u00e9e sup\u00e9rieure (rouge) dans l'eau.]</p>\n\n<p>Texte \u00e0 l'\u00e9cran\u00a0:  \u00c9pilimnion</p>\n\n<p>L'\u00e9pilimnion est la couche de surface \u00e0 l'int\u00e9rieur de laquelle l'eau est assez bien m\u00e9lang\u00e9e. La temp\u00e9rature et les concentrations d'oxyg\u00e8ne dissous et de nutriants y sont uniformes.</p>\n\n<p>[Le texte appara\u00eet en fondu sur la couche color\u00e9e du milieu (jaune) dans l'eau.]</p>\n\n<p>Texte \u00e0 l'\u00e9cran\u00a0:  M\u00e9talimnion</p>\n\n<p>Le m\u00e9talimnion est la couche interm\u00e9diaire. Il est caract\u00e9ris\u00e9 par un fort gradient thermique et des variations tr\u00e8s rapides de la temp\u00e9rature.</p>\n\n<p>[Un texte appara\u00eet au-dessus du graphique. Une fl\u00e8che appara\u00eet en fondu. Elle indique la courbe qui s'est form\u00e9e dans le graphique.]</p>\n\n<p>Texte \u00e0 l'\u00e9cran\u00a0:  Thermocline</p>\n\n<p>La thermocline est la profondeur \u00e0 laquelle le gradient de temp\u00e9rature est le plus marqu\u00e9.</p> \n\n<p>[Un texte appara\u00eet en fondu sur la couche color\u00e9e du bas (bleu) dans l'eau.]</p>\n\n<p>Texte \u00e0 l'\u00e9cran\u00a0:  Hypolimnion</p>\n\n<p>L'hypolimnion est la couche situ\u00e9e sous la thermocline; la temp\u00e9rature et les concentrations d'oxyg\u00e8nes dissous et de nutriants y sont uniformes.</p>\n\n<p>[Retour au noir]</p>\n\n<p>[Ouverture en fondu sur fond noir]</p>\n\n<p>[Le fond bleu r\u00e9appara\u00eet en fondu. Un texte appara\u00eet en fondu sur le fond bleu. Le m\u00eame graphique r\u00e9appara\u00eet en fondu sur le fond bleu. Un texte appara\u00eet en fondu sur l'eau dans le graphique.]</p>\n\n<p>Texte \u00e0 l'\u00e9cran\u00a0:  Variabilit\u00e9 spatiale\u00a0- zones photiques</p>\n\n<p>La zone euphotique ou photique est la portion de la colonne d'eau qui re\u00e7oit suffisamment de lumi\u00e8re pour stimuler la production primaire ou la photosynth\u00e8se.</p>\n\n<p>[Une repr\u00e9sentation graphique de l'herbe et de la v\u00e9g\u00e9tation sous-marine appara\u00eet en fondu sur le graphique. Une fl\u00e8che blanche appara\u00eet \u00e9galement. Elle indique la profondeur de la zone euphotique.]</p>\n\n<p>Elle s'\u00e9tend de la surface jusqu'\u00e0 une profondeur \u00e0 laquelle le taux de p\u00e9n\u00e9tration de la lumi\u00e8re ne repr\u00e9sente que 1\u00a0% de celui observ\u00e9 \u00e0 la surface. La zone euphotique peut donc changer au cours d'une m\u00eame saison.</p>\n\n<p>[Un texte appara\u00eet en fondu au-dessus du graphique. Il indique la zone littorale, au-dessus de la zone euphotique. Deux fl\u00e8ches blanches apparaissent pour montrer o\u00f9 l'on trouve la zone littorale.]</p>\n\n<p>La zone littorale est la zone riveraine peu profonde qui abrite les macrophytes aquatiques. Elle s'\u00e9tend du rivage jusqu'\u00e0 la profondeur moyenne de la zone euphotique.</p>\n\n<p>[Un texte appara\u00eet en fondu au-dessus du graphique. Il indique la zone profonde, en dessous de la zone euphotique.]</p>\n\n<p>Le fond du lac situ\u00e9e dans la zone de pleine eau plus profonde est appel\u00e9e zone profonde. C'est une zone de d\u00e9p\u00f4t caract\u00e9ris\u00e9e par une accumulation de s\u00e9diments fins.</p>\n\n<p>[Retour au noir]</p>\n\n<p>[Ouverture en fondu sur fond noir]</p>\n\n<p>[Le fond bleu r\u00e9appara\u00eet en fondu. Un texte appara\u00eet en fondu sur le fond bleu.]</p>\n\n<p>Texte \u00e0 l'\u00e9cran\u00a0:  Lacs\u00a0- variabilit\u00e9 temporelle.  Cycles quotidiens, reli\u00e9s \u00e0 la photosynth\u00e8se, changements de la teneur en oxyg\u00e8ne, du pH, du carbone.  M\u00e9lange intermittent dans les lacs peu profonds.  Changements saisonniers dus aux variations de la lumi\u00e8re et, donc, de la temp\u00e9rature.</p>\n\n<p>La composition chimique de l'eau des lacs affiche une grande variabilit\u00e9 temporelle. Elle varie d'un jour \u00e0 l'autre sous l'effet de l'activit\u00e9 photosynth\u00e9tique. La photosynth\u00e8se influe sur les concentrations d'oxyg\u00e8ne et de carbone et sur le pH de l'eau dans la zone euphotique. L'eau des lacs peu profonds peut se m\u00e9langer par intermittence durant la saison d'eau libre sous l'effet des vents forts. Ce m\u00e9lange modifie consid\u00e9rablement la composition chimique de l'eau, car les eaux hypolimn\u00e9tiques riches en nutriants se m\u00e9langent \u00e0 nouveau avec les eaux \u00e9pilimn\u00e9tiques. On peut \u00e9galement observer une forte variation saisonni\u00e8re due aux changements de l'\u00e9clairement et, par ricochet, de la temp\u00e9rature.</p>\n\n<p>[Retour au noir]</p>\n\n<p>[Ouverture en fondu sur fond blanc]</p>\n\n<p>[Trois cercles contenant des images se d\u00e9placent rapidement en direction de la cam\u00e9ra. D\u00e8s qu'ils sont visibles en gros plan, les cercles se d\u00e9placent vers le coin sup\u00e9rieur gauche de l'\u00e9cran et sortent du champ. Un ruban gris se d\u00e9roule derri\u00e8re les cercles lorsqu'ils arrivent en gros plan. Les cercles s'\u00e9loignent de la cam\u00e9ra et s'alignent au centre de l'\u00e9cran. La signature minist\u00e9rielle d'Agriculture et Agroalimentaire Canada appara\u00eet en dessous des cercles.]</p>\n\n<p>Texte \u00e0 l'\u00e9cran\u00a0:   <span lang=\"en-ca\" xml:lang=\"en-ca\">Agriculture and Agri-Food Canada</span>.  Agriculture et Agroalimentaire Canada.</p>\n\n<p>[Fondu encha\u00een\u00e9 vers le mot symbole Canada avec un drapeau canadien qui flotte au vent sur la derni\u00e8re lettre.]</p>\n\n<p>[Retour au noir]</p>\n\n</details> \n</figcaption> \n</figure>\n</div></div>\n\r\n    "
    }
}