{
    "dcr_id": "1410072148356",
    "title": {
        "en": "Benefits of the Canada Pavilion for Exhibitors",
        "fr": "Avantages du Pavillon du Canada pour les exposants"
    },
    "modified": "2019-07-10",
    "issued": "2011-08-24",
    "templatetype": "content page 1 column",
    "page_type": "0",
    "node_id": "1562778893849",
    "dc_date_created": "2011-08-24",
    "managing_branch": "MISB",
    "parent_node_id": "",
    "short_title": "",
    "exturl": "",
    "teamsite_location": {
        "en": "/default/main/AAFC-AAC/Internet-Internet/MISB-DGSIM/ATS-SEA/ATS-SEA-s1/WORKAREA/ATS-SEA-s1/templatedata/comm-comm/gene-gene/data/eve_about_canada_pavilion_1410072148356_en",
        "fr": "/default/main/AAFC-AAC/Internet-Internet/MISB-DGSIM/ATS-SEA/ATS-SEA-s1/WORKAREA/ATS-SEA-s1/templatedata/comm-comm/gene-gene/data/eve_about_canada_pavilion_1410072148356_fr"
    },
    "type_name": "comm-comm/gene-gene",
    "has_dcr_id": true,
    "label": {
        "en": "Benefits of the Canada Pavilion for Exhibitors",
        "fr": "Avantages du Pavillon du Canada pour les exposants"
    },
    "breadcrumb": {
        "en": "Benefits of the Canada Pavilion for Exhibitors",
        "fr": "Avantages du Pavillon du Canada pour les exposants"
    },
    "layout_name": "content page 1 column",
    "lang": "en",
    "refaire": false,
    "meta": {
        "viewport": {
            "en": "width=device-width,initial-scale=1",
            "fr": "width=device-width, initial-scale=1"
        },
        "issued": {
            "en": "2011-08-24",
            "fr": "2011-08-24"
        },
        "modified": {
            "en": "2019-07-10",
            "fr": "2019-07-10"
        },
        "format": {
            "en": "gcformat",
            "fr": "gcformat"
        },
        "title": {
            "en": "Benefits of the Canada Pavilion for Exhibitors",
            "fr": "Avantages du Pavillon du Canada pour les exposants"
        },
        "subject": {
            "en": "ecoAgriculture;soil assessement;agricultural law",
            "fr": "maladie de la volaille;cultures-maladies et fl\u00e9aux;graines ol\u00e9agineuses"
        },
        "dcterms:subject": {
            "en": "architecture;government information;geomatics",
            "fr": "d\u00e9veloppement \u00e9conomique;communaut\u00e9 rurale;commerce ext\u00e9rieur"
        },
        "description": {
            "en": "Your presence as a Canadian exhibitor at the Canada pavilion gives your business an opportunity to interact with new and established contacts in the world's most dynamic market. An opportunity backed with first-class support not to be missed!",
            "fr": "En exposant au pavillon du Canada, vous donnez \u00e0 votre entreprise la possibilit\u00e9 d'interagir avec des personnes-ressources connues ou nouvellement \u00e9tablies sur le march\u00e9 le plus dynamique du monde. C'est une occasion \u00e0 ne pas manquer, appuy\u00e9e de main de ma\u00eetre par Agriculture et Agroalimentaire Canada."
        },
        "language": {
            "en": "eng",
            "fr": "fra"
        },
        "keywords": {
            "en": " walker program; trade commissioners; booths;pavilion",
            "fr": " programme des visiteurs privil\u00e9gi\u00e9s; d\u00e9l\u00e9gu\u00e9s commerciaux; stands;pavillon"
        },
        "audience": {
            "en": "gcaudience",
            "fr": "gcaudience"
        },
        "type": {
            "en": "notice",
            "fr": "\u00e9valuation"
        },
        "creator": {
            "en": " Agri-Food Trade Service; Branding Management; International Markets Bureau; Market and Industry Services Branch; Agriculture and Agri-Food Canada;Government of Canada",
            "fr": " Service d'exportation agroalimentaire; Gestion de l'image de marque; Bureau des march&eacute;s internationaux; Direction g&eacute;n&eacute;rale des services &agrave; l'industrie et aux march&eacute;s; Agriculture et Agroalimentaire Canada;Gouvernement du Canada"
        },
        "spatial": {
            "en": "gcregions",
            "fr": "gcregions"
        },
        "service": {
            "en": "AAFC-AAC",
            "fr": "AAFC-AAC"
        },
        "accessRights": {
            "en": "2",
            "fr": "2"
        },
        "legalName": {
            "en": "agriculture_and_agri_food_canada",
            "fr": "agriculture_et_agroalimentaire_canada"
        },
        "areaServed": {
            "en": "Canada",
            "fr": "Canada"
        }
    },
    "h1": {
        "en": "Benefits of the Canada Pavilion for Exhibitors",
        "fr": "Avantages du Pavillon du Canada pour les exposants"
    },
    "js": {
        "en": "",
        "fr": ""
    },
    "body": {
        "en": "\r\n    <p>Your presence as a Canadian exhibitor at the Canada Pavilion gives your business an opportunity to interact with new and established contacts in the world's most dynamic markets.</p>\n\n<div class=\"col-md-6 pull-right mrgn-lft-lg mrgn-bttm-lg\">\n<figure>\n<img src=\"http://www.agr.gc.ca/resources/prod/Internet-Internet/MISB-DGSIM/ATS-SEA/images/5847001.png\" alt=\"Description of this image follows.\">\n<figcaption>\n<details>\n<summary>Description</summary>\n<p>A high quality, customizable turn-key booth with an innovative Canadian design. The basic furnishings include company signage, common lounge, meeting rooms, front counter, table and chairs, wastebasket, basic electricity and wireless Internet services.</p>\n</details>\n</figcaption>\n</figure>\n</div>\n\n<p>At a competitive and reasonable price, exhibitors will benefit from a package of high quality services including:</p>\n<ul>\n<li>A customizable turn-key booth with an innovative Canadian design</li>\n<li>Basic furnishings such as company signage, common lounge and refreshments, telecommunications and meeting rooms, selected Canadian promotional aids, counter, table and chairs, wastebasket, basic electricity and wireless Internet services</li>\n<li>Show and official catalogue registration (inclusion in the trade show Media Package)</li>\n<li>Panel graphic (company logo / brand / tagline)</li>\n<li>Pre-show market intelligence briefing</li>\n<li>Pre-show invitations to key international buyers</li>\n<li>Printed catalogue of pavilion participants distributed prior to the show</li>\n<li>Networking sessions on-site in the pavilion</li>\n<li>On-site and on-going marketing support</li>\n<li>Opportunity to meet Canadian Trade Commissioners</li>\n</ul>\n\n<p>The Canada Pavilion Program is aimed at making trade show participation easier. It operates on a first-come, first-served basis and provides greater exhibiting options and a reduced paper burden while maintaining financial support for individual companies.</p>\n\n<p>The program places a focus on new to market, first-time exhibitors, and innovative products. Priority will be given to small and medium size exporters. More information about the <a href=\"?id=1518440736899\">Canada Pavilion Program</a>.</p>\n\n<div class=\"clearfix\"></div> \n\r\n    ",
        "fr": "\r\n    <p>En exposant au pavillon du Canada, vous donnez \u00e0 votre entreprise la possibilit\u00e9 d'interagir avec des personnes-ressources connues ou nouvellement \u00e9tablies sur les march\u00e9s les plus dynamiques du monde.</p>\n\n<div class=\"col-md-6 pull-right mrgn-lft-lg mrgn-bttm-lg\">\n<figure>\n<img src=\"http://www.agr.gc.ca/resources/prod/Internet-Internet/MISB-DGSIM/ATS-SEA/images/5847001.png\" alt=\"La description de cette image suit.\">\n<figcaption>\n<details>\n<summary>Description de l'image</summary>\n<p>Un stand cl\u00e9 en main, de haute qualit\u00e9 et adaptable, au design canadien novateur. L\u2019\u00e9quipement de base comprend les affiches des entreprises, une aire de d\u00e9tente et de rafra\u00eechissements, des salles de conf\u00e9rence et de t\u00e9l\u00e9communications, des \u00e9l\u00e9ments promotionnels canadiens choisis, un comptoir, une table et des chaises, une poubelle, des installations \u00e9lectriques de base et une connexion Internet sans fil.</p>\n</details>\n</figcaption>\n</figure>\n</div>\n\n<p>\u00c0 un prix raisonnable et concurrentiel, les exposants b\u00e9n\u00e9ficieront d\u2019un ensemble de services de qualit\u00e9 sup\u00e9rieure, y compris\u00a0:</p>\n<ul>\n<li>Stand adaptable et cl\u00e9 en main, au design canadien novateur;</li>\n<li>Affiches d\u2019entreprises, aire de d\u00e9tente et de rafra\u00eechissements, salles de conf\u00e9rence et de t\u00e9l\u00e9communications, \u00e9l\u00e9ments promotionnels canadiens choisis, comptoir, table et chaises, poubelle, installations \u00e9lectriques de base et connexion Internet sans fil;</li>\n<li>Inscription au salon et au catalogue officiel (incluant l'ensemble m\u00e9dia du salon);</li>\n<li>\u00c9l\u00e9ments graphiques d'affichage (marque, slogan, logo de l'entreprise;.</li>\n<li>S\u00e9ance d'information commerciale avant le salon;</li>\n<li>Invitations adress\u00e9es aux principaux acheteurs internationaux avant le salon;</li>\n<li>Catalogue imprim\u00e9 des participants du pavillon distribu\u00e9 avant le salon;</li>\n<li>S\u00e9ances de r\u00e9seautage quotidiennes organis\u00e9es au pavillon;</li>\n<li>Soutien sur place et continu \u00e0 la commercialisation;</li>\n<li>Occasion de rencontrer des d\u00e9l\u00e9gu\u00e9s commerciaux du Canada;</li>\n</ul>\n\n<p>Le Programme du Pavillon du Canada a pour but de faciliter la participation aux salons commerciaux. Il fonctionne selon le principe du premier arriv\u00e9, premier servi. Il donne acc\u00e8s \u00e0 davantage d\u2019options en mati\u00e8re d\u2019exposition, tout en r\u00e9duisant le fardeau administratif et en maintenant le soutien financier des entreprises individuelles.</p>\n\n<p>Le programme accorde un int\u00e9r\u00eat particulier aux entreprises nouvelles sur le march\u00e9, \u00e0 celles qui exposent pour la premi\u00e8re fois ainsi qu\u2019aux produits novateurs. La priorit\u00e9 sera accord\u00e9e aux petits et moyens exportateurs. Plus d\u2019information au sujet du <a href=\"?id=1518440736899\">Programme du Pavillon du Canada</a>.</p>\n\r\n    "
    }
}