{
    "dcr_id": "1453229712781",
    "title": {
        "en": "Audit of the AgriMarketing program \u2013 market development stream",
        "fr": "Rapport d'audit du volet D\u00e9veloppement des march\u00e9s du programme Agri\u00admarketing"
    },
    "modified": "2016-05-11",
    "issued": "2016-05-11",
    "templatetype": "content page 1 column",
    "page_type": "0",
    "node_id": "1587496160123",
    "dc_date_created": "2016-05-11",
    "managing_branch": "PAB",
    "parent_node_id": "",
    "short_title": "",
    "exturl": "",
    "teamsite_location": {
        "en": "/default/main/AAFC-AAC/Internet-Internet/Common-Commun/WORKAREA/Common-Commun/templatedata/comm-comm/gene-gene/data/01/oae_audit_amp_1453229712781_en",
        "fr": "/default/main/AAFC-AAC/Internet-Internet/Common-Commun/WORKAREA/Common-Commun/templatedata/comm-comm/gene-gene/data/01/oae_audit_amp_1453229712781_fr"
    },
    "type_name": "comm-comm/gene-gene",
    "has_dcr_id": true,
    "label": {
        "en": "Audit of the AgriMarketing program \u2013 market development stream",
        "fr": "Rapport d'audit du volet D\u00e9veloppement des march\u00e9s du programme Agri\u00admarketing"
    },
    "breadcrumb": {
        "en": "Audit of the AgriMarketing program \u2013 market development stream",
        "fr": "Rapport d'audit du volet D\u00e9veloppement des march\u00e9s du programme Agri\u00admarketing"
    },
    "layout_name": "content page 1 column",
    "lang": "en",
    "refaire": false,
    "meta": {
        "viewport": {
            "en": "width=device-width,initial-scale=1",
            "fr": "width=device-width, initial-scale=1"
        },
        "issued": {
            "en": "2016-05-11",
            "fr": "2016-05-11"
        },
        "modified": {
            "en": "2016-05-11",
            "fr": "2016-05-11"
        },
        "format": {
            "en": "text/html",
            "fr": "text/html"
        },
        "title": {
            "en": "Audit of the AgriMarketing program \u2013 market development stream",
            "fr": "Rapport d'audit du volet D\u00e9veloppement des march\u00e9s du programme Agri\u00admarketing"
        },
        "subject": {
            "en": "federal government;northern development;soil assessement",
            "fr": "agronomie;graines de coriandre;aliments et nutrition"
        },
        "dcterms:subject": {
            "en": "agriculture;agricultural technology;northern development",
            "fr": "coop\u00e9rative;p\u00e2turage;\u00e9conomie agricole"
        },
        "description": {
            "en": "Office of Audit and Evaluation. The. AAFC. FedNor. Federal Economic Development Initiative in Northern Ontario. programming is aligned with Government of Canada and. AAFC.",
            "fr": "Septembre 2011. Version. PDF. (380. EAU. . Le rapport pr\u00e9sente aussi les attentes que peuventavoir les exportateurs, les importateurs et les personnes qui d\u00e9cident des achats (lesd\u00e9cideurs) au moment d'\u00e9tablir des partenariats.Les r\u00e9sultats des entretiens avec les repr\u00e9sentants des quatorze entreprises sontr\u00e9partis dans l'ensemble du rapport. Une foisqu'elles les auront trouv\u00e9s, elles tireront avantage de faire beaucoup appel \u00e0 eux,surtout en ce qui concerne la pr\u00e9sentation d'un produit particulier, car cela leurpermettra de trouver un bon n\u00e9gociant et d'\u00e9tablir un bon r\u00e9seau de distribution.Pendant de nombreuses ann\u00e9es, les chefs \u00e9taient consid\u00e9r\u00e9s comme les d\u00e9cideursdans l'industrie de la restauration."
        },
        "language": {
            "en": "eng",
            "fr": "fra"
        },
        "keywords": {
            "en": null,
            "fr": "l\u00e9lan"
        },
        "audience": {
            "en": "gcaudience",
            "fr": "gcaudience"
        },
        "type": {
            "en": "media release",
            "fr": "information sur la personne-ressource"
        },
        "creator": {
            "en": "Agriculture and Agri-Food Canada;Government of Canada",
            "fr": "Agriculture et Agroalimentaire Canada;Gouvernement du Canada"
        },
        "spatial": {
            "en": "gcregions",
            "fr": "gcregions"
        },
        "service": {
            "en": "AAFC-AAC",
            "fr": "AAFC-AAC"
        },
        "accessRights": {
            "en": "2",
            "fr": "2"
        },
        "legalName": {
            "en": "agriculture_and_agri_food_canada",
            "fr": "agriculture_et_agroalimentaire_canada"
        },
        "areaServed": {
            "en": "Canada",
            "fr": "Canada"
        }
    },
    "h1": {
        "en": "Audit of the AgriMarketing program \u2013 market development stream",
        "fr": "Rapport d'audit du volet D\u00e9veloppement des march\u00e9s du programme Agri\u00admarketing"
    },
    "js": {
        "en": "",
        "fr": ""
    },
    "body": {
        "en": "\r\n    <p>December 3, 2015</p>\n\n  <p><b>Office of Audit and Evaluation</b></p>\n\n<nav>\n<h2>Table of contents</h2>\n<ul class=\"list-unstyled\">\n<li><a href=\"#es\">Executive summary</a></li>\n<li><a href=\"#a1\">1.0 Introduction</a>\n <ul class=\"list-unstyled mrgn-lft-lg\">\n<li><a href=\"#a1.1\">1.1 Background</a></li>\n<li><a href=\"#a1.2\">1.2 Audit objective</a></li>\n<li><a href=\"#a1.3\">1.3 Audit scope</a></li>\n<li><a href=\"#a1.4\">1.4 Audit approach</a></li>\n<li><a href=\"#a1.5\">1.5 Conclusion</a></li>\n<li><a href=\"#a1.6\">1.6 Statement of conformation</a></li>\n</ul>\n</li>\n<li><a href=\"#a2\">2.0 Detailed observations, recommendations and management responses</a>\n <ul class=\"list-unstyled mrgn-lft-lg\">\n<li><a href=\"#a2.1\">2.1 Governance structures</a></li>\n<li><a href=\"#a2.2\">2.2 Risk management</a></li>\n<li><a href=\"#a2.3\">2.3 Management controls</a></li>\n</ul>\n</li>\n<li><a href=\"#ann-a\">Annex A: Audit criteria</a></li>\n<li><a href=\"#ann-b\">Annex B: Acronyms</a></li>\n</ul>\n</nav>\n \n<h2 id=\"es\">Executive summary</h2>\n\n<p>The AgriMarketing program - Market Development stream (AMP MD) is aimed at building and promoting Canada's ability to expand domestic and export markets, undertake promotional activities to help position and differentiate Canadian products and producers, and ensure industry's ability to meet market requirements.</p>\n\n<p>The annual budget allocation for AMP MD is $21.23M<sup id=\"fn1-rf\"><a class=\"fn-lnk\" href=\"#fn1\"><span class=\"wb-inv\">Footnote </span>1</a></sup>. Projects are cost-shared between Agriculture and Agri-Food Canada (AAFC) and recipients, with AAFC's maximum contribution generally not exceeding 50% of the total eligible costs. AMP MD is managed within the Programs Branch, Competitiveness Division.</p>\n\n<p>The audit of AMP MD was included in the 2015-2018 Risk-Based Audit Plan.  The audit focused on the management control framework related activities, addressing governance, risk management and controls, associated with AMP MD.</p>\n\n<p>The audit determined that effective controls were in place to support the management and delivery of AMP MD.</p>\n\n<p>The audit recommendations, addressed to the Assistant Deputy Minister (ADM), Programs Branch, are as follows:</p>\n\n<ul>\n <li>Review and update processes in place to obtain and relay key information to the Director General Review Committee for decision making on project funding;</li>\n <li>Review and update processes in place to obtain technical reviews to ensure that a sufficient level of information is gathered from the organizational areas;</li>\n <li>Review and update the internal guidance documents for the AgriMarketing program - Market Development stream;</li>\n <li>Review and update process in place to collect, track and report on AgriMarketing program \u2013 Market Development stream's performance against service standards.</li>\n</ul>\n\n<h2 id=\"a1\">1.0 Introduction</h2>\n<h3 id=\"a1.1\">1.1 Background</h3>\n<ul class=\"list-unstyled mrgn-lft-0\">\n<li class=\"mrgn-bttm-md\"><b>1.1.1</b> On April 1 2013, federal, provincial and territorial governments marked the official launch of the <cite>Growing Forward\u00a02</cite> agricultural policy framework in Canada.  <cite>Growing Forward\u00a02</cite> is a five-year, $3 billion framework that aligns federal, provincial and territorial policies and programming to support the agriculture sector and food industry. This framework includes the following three federally delivered programs \u2013 AgriInnovation, AgriMarketing and AgriCompetitiveness.</li>\n<li class=\"mrgn-bttm-md\"><b>1.1.2</b> The AgriMarketing Program (AMP) is a five-year (covering fiscal years 2013-14 to 2017-18), $341 million<sup id=\"fn2-rf\"><a class=\"fn-lnk\" href=\"#fn2\"><span class=\"wb-inv\">Footnote </span>2</a></sup> program comprising a combination of government initiatives and contribution funding for industry-led projects. It supports the agriculture industry by creating and maintaining access to markets and taking advantage of market opportunities. Within AMP, there are four streams: Market Development (MD); Assurance Systems; Breaking Down Trade Barriers; and, Building Market Success. Two of these streams, MD and Assurance Systems, provide contribution funding that support industry-led projects.</li>\n \n<li class=\"mrgn-bttm-md\"><b>1.1.3</b> AMP MD is aimed at building and promoting Canada's ability to expand domestic and export markets, undertake promotional activities to help position and differentiate Canadian products and producers, and ensure industry's ability to meet market requirements. Agriculture and Agri-food Canada (AAFC) contribution funding supports national industry organizations in implementing long-term international strategies (herein referred to as the generic component), as well as small and medium sized enterprises  in implementing international market export plans, which include promotional and market development activities in traditional and new markets.</li>\n\n<li class=\"mrgn-bttm-md\"><b>1.1.4</b> The annual budget allocation for AMP MD is $21.23M. Projects are cost-shared between AAFC and recipients, with AAFC's maximum contribution generally not exceeding 50% of total eligible costs. AAFC funding levels may be adjusted upwards where activities are aimed at expanding into new markets and downward where activities are aimed at maintaining established markets.</li>\n\n<li class=\"mrgn-bttm-md\"><b>1.1.5</b> For the generic component, contribution agreement terms ranged from one to five years, with the maximum annual AAFC contribution generally not exceeding $2.5M. Generic contribution agreements signed resulted in a total commitment of $19.7M<sup id=\"fn3-1-rf\"><a class=\"fn-lnk\" href=\"#fn3\"><span class=\"wb-inv\">Footnote </span>3</a></sup> for the 2014-15 fiscal year.</li>\n\n<li class=\"mrgn-bttm-md\"><b>1.1.6</b> For the small-medium sized enterprises component, contribution agreements were for a single year, with the maximum annual AAFC contribution not exceeding $50,000.  Small-medium sized enterprise contribution agreements resulted in total commitments of $416,000<sup id=\"fn3-2-rf\"><a class=\"fn-lnk\" href=\"#fn3\"><span class=\"wb-inv\">Footnote </span>3</a></sup> for the 2014-15 fiscal year.</li>\n\n<li class=\"mrgn-bttm-md\"><b>1.1.7</b> AMP MD is managed by the Programs Branch, Competitiveness Division. AMP MD has recently conducted a lean process review for the small-medium sized enterprise component of the program to reduce the application processing times and to improve performance against service standards. The resulting process improvements were phased in commencing in March 2015.</li>\n</ul> \n \n<h3 id=\"a1.2\">1.2 Audit objective</h3>\n<ul class=\"list-unstyled mrgn-lft-0\">\n<li class=\"mrgn-bttm-md\"><b>1.2.1</b> The objective of the audit was to provide assurance on the adequacy and effectiveness of the controls in place to support the management and delivery of AMP MD.</li>\n</ul>\n \n<h3 id=\"a1.3\">1.3 Audit scope</h3>\n\n<ul class=\"list-unstyled mrgn-lft-0\">\n<li class=\"mrgn-bttm-md\"><b>1.3.1</b> The audit examined the management control framework addressing governance, risk management and controls, associated with AMP MD.</li>\n\n<li class=\"mrgn-bttm-md\"><b>1.3.2</b> The audit examination covered 2013-14 and 2014-15 fiscal years, with an emphasis on the most recent year.</li>\n\n<li class=\"mrgn-bttm-md\"><b>1.3.3</b> The Assurance Systems, Breaking Down Trade Barriers, and Building Market Access AMP program streams were excluded as part of this engagement.</li>\n</ul>\n \n<h3 id=\"a1.4\">1.4 Audit approach</h3>\n\n<ul class=\"list-unstyled mrgn-lft-0\">\n<li class=\"mrgn-bttm-md\"><b>1.4.1</b> The audit approach and methodology was risk-based and consistent with the <cite>International Standards for the Professional Practice of Internal Auditing</cite> and the <cite>Internal Auditing Standards for the Government of Canada</cite>, as required under the <cite>Treasury Board Policy on Internal Audit</cite>.</li>\n\n<li class=\"mrgn-bttm-md\"><b>1.4.2</b> The conduct phase of the audit took place from July to September 2015.</li>\n\n<li class=\"mrgn-bttm-md\"><b>1.4.3</b> Internal Audit performed the following audit steps: \n \n <ul>\n <li>Document Review: Internal Audit assessed key program documentation to obtain an understanding of the program operations, including key documents used by program staff and recipients of program funding, and examples of reports prepared for management.</li>\n <li>File Review: Internal Audit selected a sample of project application assessments and claims payments for review. Sample selections were made on transactions from 2013-14 and 2014-15 fiscal years, with an emphasis on the most recent year in order to reflect the most recent management practices followed by AMP MD management and staff.</li>\n <li>Interviews: Internal Audit conducted interviews with members of AMP MD program management and staff, and with Corporate Management Branch \u2013 Financial Controls, Operations staff, who provide support in terms of processing claim payments.</li>\n</ul>\n</li>\n</ul>\n\n<h3 id=\"a1.5\">1.5 Conclusion</h3>\n\n<ul class=\"list-unstyled mrgn-lft-0\">\n<li class=\"mrgn-bttm-md\"><b>1.5.1</b> The audit determined that effective controls were in place to support the management and delivery of AMP MD.</li>\n\n<li class=\"mrgn-bttm-md\"><b>1.5.2</b> Recommendations were made for improvements in the following areas:\n <ul>\n<li>Information within Project Recommendation Forms provided to the Director General Review Committee;</li>\n<li>Project application technical review process;</li>\n<li>AMP MD internal guidance documents; and,</li>\n<li>Reporting on AMP MD performance against service standards.</li>\n</ul>\n</li>\n</ul>\n\n<h3 id=\"a1.6\">1.6 Statement of conformation</h3>\n<ul class=\"list-unstyled mrgn-lft-0\">\n<li class=\"mrgn-bttm-md\"><b>1.6.1</b> In the professional opinion of the Chief Audit Executive, sufficient and appropriate audit procedures have been conducted and evidence was gathered to support the accuracy of the conclusion provided and contained in this report. The conclusion is based on a comparison of the conditions, as they existed at the time, against pre-established audit criteria that were agreed on with management. The conclusion is applicable only to the entity examined.</li>\n\n<li class=\"mrgn-bttm-md\"><b>1.6.2</b> This audit conforms to the <cite>Internal Auditing Standards for the Government of Canada</cite>, as supported by the results of the quality assurance and improvement program.</li>\n</ul>\n \n<h2 id=\"a2\">2.0 Detailed observations, recommendations and management responses</h2>\n<ul class=\"list-unstyled mrgn-lft-0\">\n<li class=\"mrgn-bttm-md\"><b>2.0.1</b> This section presents the key observations, based on the evidence and analysis associated with the audit, and provides recommendations for improvement.</li>\n\n<li class=\"mrgn-bttm-md\"><b>2.0.2</b>  Management responses are included and provide:\n<ul>\n <li>An action plan to address each recommendation;</li>\n <li>A lead responsible for implementation of the action plan; and,</li>\n <li>A target date for completion of the implementation of the action plan.</li>\n</ul>\n</li>\n</ul>\n \n<h3 id=\"a2.1\">2.1 Governance structures</h3>\n<ul class=\"list-unstyled mrgn-lft-0\">\n<li class=\"mrgn-bttm-md\"><b>2.1.1</b> There are Departmental-level governance structures, as well as a program-level governance committee for the oversight of AgriMarketing program \u2013 market development stream (AMP MD).</li>\n\n<li class=\"mrgn-bttm-md\"><b>2.1.2</b> The Department has the following oversight bodies in place, which oversee departmental grants and contribution programs, including AMP MD: Departmental Management Committee; Director General Management Committee; Policy and Program Management Committee; and, Director General Policy and Program Management Committee. The Departmental Management Committee and Director General Management Committee provide an oversight role associated with management and operational issues, and the Policy and Programs Management Committee and Director General Policy and Program Management Committee provide an oversight role related to policy and program design. The audit team reviewed these governance committees' meeting agendas, records of decision from June 2014 to May 2015, as well as their Terms of Reference, and determined that these oversight bodies were provided with AMP MD information and reports.</li>\n\n<li class=\"mrgn-bttm-md\"><b>2.1.3</b> At the program level, the Director General Review Committee plays a key role in reviewing proposed projects and their funding allocations, prior to Ministerial approval. The Director General Review Committee members were provided with Project Recommendation Forms, which summarized the views of the program area and provided key information through technical reviews by up to seven other organizational areas. The audit found that in 6 of the 21 (29%) applications sampled (out of 65 generic files), the Project Recommendation Forms would have benefited from additional project risk and market access information listed within the technical reviews.  The audit also found that recipient organizations' past performance was not included in the Project Recommendation Forms for 13 of 21 generic files (62%).  As a result, the information being relayed to committee members via the Project Recommendation Forms may not provide complete information to determine the potential value of proposed projects.</li>\n\n<li class=\"mrgn-bttm-md\"><b>2.1.4 Recommendation 1:</b> The Assistant Deputy Minister (ADM), Programs Branch should review and update the processes in place to obtain and relay key information to the Director General Review Committee for decision making on project funding.\n \n<p><i>Management Response and Action Plan:</i></p>\n<p>Agreed. The Market Development stream began a lean process improvement initiative in October 2015.  One of the key objectives of this initiative will be to review and update the Program's collection, presentation, and content of information products going to Director General Review Committee for decision making on project funding; including the development and implementation of a new briefing material format for Director General Review Committee. The new briefing format for the Director General Review Committee will provide better, more organized information and stronger analytics supporting the recommendations.</p>\n<p><i>Target Date for Completion:</i> January 2016</p>\n<p><i>Lead(s) Responsible:</i> ADM, Programs Branch and Director General, Business Development and Competitiveness Directorate</p>\n</li>\n</ul>\n \n<h3 id=\"a2.2\">2.2 Risk management</h3>\n\n<ul class=\"list-unstyled mrgn-lft-0\">\n<li class=\"mrgn-bttm-md\"><b>2.2.1</b> Risk management practices for AMP MD take place at both the program and recipient / project levels.</li>\n\n<li class=\"mrgn-bttm-md\"><b>2.2.2</b> The program utilized the Program Risk Management Assessment tool, as developed by the Service and Program Excellence Directorate, to identify key program risks. The audit team reviewed the risk documentation completed by AMP MD and found that this tool took into consideration key aspects of a program lifecycle and was updated by AMP MD program staff on an annual basis.</li>\n\n<li class=\"mrgn-bttm-md\"><b>2.2.3</b> In addition, the Department has a Recipient / Project Risk Management Framework in place that outlines an approach to identify recipient / project risks and mitigating strategies, which helps to determine advance frequency, holdback limitations, project reporting frequency and claim document sampling percentages. The audit team sampled 21 AMP MD application files (out of 65 generic files) and found that all applications had a recipient / project risk assessment that was completed in accordance with the Recipient/Project Risk Management Framework.</li>\n</ul>\n\n<h3 id=\"a2.3\">2.3 Management controls</h3>\n\n<ul class=\"list-unstyled mrgn-lft-0\">\n<li class=\"mrgn-bttm-md\"><b>2.3.1</b> The AMP MD has management controls in place throughout the recipient / project lifecycle, including during the assessment of funding applications, contribution agreement approvals, project monitoring, as well as claims submission and payment processes.</li>\n\n<li class=\"mrgn-bttm-md\"><b>2.3.2</b> The audit reviewed a sample of 24 successful funding application assessments (28% of 87 generic and small-medium sized enterprises contribution agreements signed between April\u00a01, 2013 and  March\u00a031, 2015) and found that:\n<ul class=\"list-unstyled\">\n<li class=\"mrgn-bttm-md\"><b>2.3.2.1</b> Funding application assessments were assessed in accordance with Service and Program Excellence Directorate's Assess Due Diligence Guide. The Guide identifies factors to be assessed when reviewing project funding applications.</li>\n\n<li class=\"mrgn-bttm-md\"><b>2.3.2.2</b> Conflict of Interest requirements were respected in accordance with the Service and Program Excellence Directorate's Conflict of Interest Guidelines for Grant and Contribution Programs.</li>\n\n<li class=\"mrgn-bttm-md\"><b>2.3.2.3</b> Project funding recommendations and contribution agreements were reviewed and approved through the governance hierarchy to the delegated signing authority.</li>\n</ul>\n</li>\n \n<li class=\"mrgn-bttm-md\"><b>2.3.3</b> As part of the application process, the AMP MD solicits input from up to seven other organizational areas in the form of a technical review questionnaire.  Responses to the questionnaire help support the assessment listed within the Project Recommendation Forms and provides meaningful information to the Director General Review Committee. In a sample of 21 successful funding applications (out of 65 generic files), the audit team found that there was a large variability in the response rate between each organizational area for the completion of technical reviews.  Response rates ranged from 5% to 90%.  The audit team also noted that AMP MD has no formalized agreement in place with other organizational areas regarding the completion of the technical review questionnaires. The varying levels of input within technical reviews may not provide program staff and the Director General Review Committee with complete information to assess proposed projects.</li>\n\n<li class=\"mrgn-bttm-md\"><b>2.3.4 Recommendation 2:</b> The ADM, Programs Branch should review and update the processes in place to obtain technical reviews, to ensure that a sufficient level of information is gathered from other organizational areas. \n\n<p><i>Management Response and Action Plan: </i></p>\n<p>Agreed. The Market Development Stream began a lean process improvement initiative in October 2015. One of the key objectives of this lean initiative will be to review and update the process in place for technical reviews; including the development and implementation of an updated technical assessment form (with dedicated questions to specific areas of expertise in other organizational areas), process improvements (e.g.; a technical assessment discussion with technical reviewers on projects before they go to Director General Review Committee) and related guidelines.</p>\n<p><i>Target Date for Completion:</i> January 2016</p>\n<p><i>Lead(s) Responsible:</i> ADM, Programs Branch and Director General, Business Development and Competitiveness Directorate</p>\n</li>\n\n<li class=\"mrgn-bttm-md\"><b>2.3.5</b> The audit also reviewed a sample of 24 claim payment files (57% of the total of 42 claim files between April 1, 2014 to July 27, 2015) and found that: \n\n<ul class=\"list-unstyled\">\n<li class=\"mrgn-bttm-md\"><b>2.3.5.1</b> Claims were reviewed and approved by the Program Manager / Officer and Manager, Program Operations and Financial Claims, and were certified pursuant to Section 34 of the Financial Administration Act by the delegated authority, prior to Section 33 account verification and payment approval by Corporate Management Branch \u2013 Financial Controls, Operations.</li>\n\n<li class=\"mrgn-bttm-md\"><b>2.3.5.2</b> Claims verification processes were followed, which included ensuring that claims documentation was complete, and that financial updates were received in accordance with contribution agreements.</li>\n\n<li class=\"mrgn-bttm-md\"><b>2.3.5.3</b> Advances, holdbacks and sample selection percentage rates were in accordance with the Recipient / Project Risk Assessment.</li>\n\n<li class=\"mrgn-bttm-md\"><b>2.3.5.4</b> Amendments were signed by the delegated authority and were supported by documented justifications (five such amendments were identified within the sample). In addition, the audit found that the application review and funding decision due diligence process was appropriately followed for the amendments that involved an increase in total project funding and an increase in the agreement period (three amendments of the five).  </li>\n</ul>\n</li>\n\n<li class=\"mrgn-bttm-md\"><b>2.3.6</b> The audit examined guidance documents developed for AMP MD and found some were current, for example: AMP MD Applicant Guide and Recipient Guide, and the Roles and Responsibilities for Claim Positions; while other guidance documents were not updated for <cite>Growing Forward\u00a02</cite>, for example:  AgriMarketing Program \u2013 Program Officer Procedures Manual (2012), or not compiled, for example; roles and responsibilities of AMP MD program staff.  The audit team also observed some inconsistent practices within the file sampling reviews, including: approaches to sampling, and monitoring of project activities and results.  Interviews with staff indicated the need for additional guidance on key activities. As a result, there is a potential risk of inconsistent practices in the management of recipient files.</li>\n\n<li class=\"mrgn-bttm-md\"><b>2.3.7 Recommendation 3:</b>\n The ADM, Programs Branch should review and update the internal guidance documents for the AgriMarketing program \u2013 Market Development stream.\n \n<p><i>Management Response and Action Plan: </i></p>\n<p>Agreed.  The Market Development stream will update the \"AgriMarketing Program \u2013 Program Officer Procedures Manual 2012\", which will provide program officer with detailed information/procedures on: the application process, approval process, contribution agreement process, project monitoring/management, project reporting and shutdown.</p>\n\n<p>The AgriMarketing Market Development stream will work with colleagues from other areas in Program Branch (AgriInnovation Program) to complete the \"Guidance Document for Claims Processing -- Questions and Answers Inventory\".  This document will complement the work undertaken on standardization and harmonization with other program areas.</p>\n<p><i>Target Date for Completion:</i> March 2016</p>\n<p><i>Lead(s) Responsible:</i> ADM, Programs Branch and Director General, Business Development and Competitiveness Directorate</p>\n</li>\n\n<li class=\"mrgn-bttm-md\"><b>2.3.8</b> The AMP MD compiles information on performance against service standards and develops monthly, as well as quarterly reports for management review and decision making. The audit tested the accuracy and completeness of the main tracking spreadsheet used by program staff to document key milestone dates for application and claim processing.  The audit team sampled 24 out of 87 generic and small-medium sized enterprises application files from April\u00a01, 2013 to March\u00a031, 2015, and 16 out of 42 claims files from April\u00a01, 2014 to July\u00a027, 2015. The audit team found that the program area recorded all key application milestone dates accurately, whereas the claim spreadsheet was incomplete, with 8 of 48 claim milestone dates (17%) not recorded.  The audit also examined performance against service standards reports and found that additional qualitative information / analysis (e.g.:  how and why variances occurred), would have been beneficial for management review and decision-making.  The incomplete gathering of data by program staff may result in inaccurate reporting of performance against service standards, while the absence of value-added information / analysis may contribute to less informed decision-making by management.</li>\n\n<li class=\"mrgn-bttm-md\"><b>2.3.9 Recommendation 4:</b> The ADM, Programs Branch should review and update the processes in place to collect, track, and report on AgriMarketing \u2013 Market Development stream's performance against service standards. \n<p><i>Response and Action Plan:</i></p>\n\n<p>Agreed.  The Market Development stream will work with other areas of Program Branch to harmonize and standardize service standards collection and reporting, with a view to provide more timely feedback to management on the status of applications and claims.</p>\n\n<p>The Market Development stream is developing a SharePoint system that will electronically capture and report on key service standard milestones, as projects move through the technical review and approval process. The intention is to pilot this initiative for broader application across multiple programs.</p>\n\n<p>The Market Development stream has put in place a new claims tracking system (spreadsheet) and created a generic \"claims inbox\", with a dedicated position to coordinate the screening and tracking of claims.</p>\n\n<p><i>Target Date for Completion:</i> May 2016</p>\n<p><i>Lead(s) Responsible:</i>  ADM, Programs Branch and Director General, Business Development and Competitiveness Directorate</p>\n</li>\n </ul>\n \n \n <h2 id=\"ann-a\">Annex A:  Audit criteria</h2>\n \n <ol>\n  <li>Adequate program implementation is in place.</li>\n  <li>Effective program monitoring and reporting is in place.</li>\n  <li>Appropriate recipient project funding application assessment, award and agreement development processes are in place.</li>\n  <li>Effective recipient project funding administration, monitoring and reporting processes are in place.</li>\n </ol>\n \n<h2 id=\"ann-b\">Annex B:  Acronyms</h2>\n<dl>\n<dt>AAFC</dt>\n<dd>Agriculture and Agri-Food Canada</dd>\n<dt>ADM</dt>\n<dd>Assistant Deputy Minister</dd>\n<dt>AMP</dt>\n<dd>AgriMarketing program</dd>\n<dt>MD</dt>\n<dd>Market development stream</dd>\n</dl>\n \n \n \n \n<aside class=\"wb-fnote\" role=\"note\">\n    <h2 id=\"fn\">Footnotes</h2>\n    <dl>\n    <dt>Footnote 1</dt>\n    <dd id=\"fn1\">\n      <p>Based on AAFC's 2014-15 Report on Plans and Priorities</p>\n <p class=\"fn-rtn\"><a href=\"#fn1-rf\"><span class=\"wb-inv\">Return to <span>first</span> footnote </span>1<span class=\"wb-inv\"> referrer</span></a></p>\n    </dd>    \n    \n    <dt>Footnote 2</dt>\n    <dd id=\"fn2\">\n      <p>Agriculture and Agri-Food Canada Website: http://www.agr.gc.ca/eng/?id=1357941192614</p>\n      <p class=\"fn-rtn\"><a href=\"#fn2-rf\"><span class=\"wb-inv\">Return to  footnote </span>2<span class=\"wb-inv\"> referrer</span></a></p>\n    </dd>\n\n    <dt>Footnote 3</dt>\n    <dd id=\"fn3\">\n      <p>Business Development and Competitiveness Directorate Financial Summary Report dated 2015/04/01</p>\n      <p class=\"fn-rtn\">\n\t\t\t\t<a href=\"#fn3-1-rf\"><span class=\"wb-inv\">Return to <span>first</span> footnote </span>3<span class=\"wb-inv\"> referrer</span></a>\n\t  </p>\n            \n            <p class=\"fn-rtn\">\n\t\t\t\t<a href=\"#fn3-2-rf\"><span class=\"wb-inv\">Return to <span>second</span> footnote </span>3<span class=\"wb-inv\"> referrer</span></a>\n\t\t\t</p>\n      </dd>\n  </dl>\n</aside> \n \n \n\n \n\r\n    ",
        "fr": "\r\n    <p>3 d\u00e9cembre 2015</p>\n\n <p><b>Bureau de la v\u00e9rification et de l'\u00e9valuation</b></p>\n\n<nav>\n<h2>Table des mati\u00e8res</h2>\n<ul class=\"list-unstyled\">\n<li><a href=\"#es\">Sommaire</a></li>\n<li><a href=\"#a1\">1.0 Introduction</a>\n <ul class=\"list-unstyled mrgn-lft-lg\">\n<li><a href=\"#a1.1\">1.1 Contexte</a></li>\n<li><a href=\"#a1.2\">1.2 Objectif</a></li>\n<li><a href=\"#a1.3\">1.3 Port\u00e9e</a></li>\n<li><a href=\"#a1.4\">1.4 Strat\u00e9gie de l'audit</a></li>\n<li><a href=\"#a1.5\">1.5 Conclusions</a></li>\n<li><a href=\"#a1.6\">1.6 D\u00e9claration de conformit\u00e9</a></li>\n</ul>\n</li>\n<li><a href=\"#a2\">2.0 Constations d\u00e9taill\u00e9es, recommandations et r\u00e9ponses de la direction</a>\n <ul class=\"list-unstyled mrgn-lft-lg\">\n<li><a href=\"#a2.1\">2.1 Structures de gouvernance</a></li>\n<li><a href=\"#a2.2\">2.2 Gestion des risques</a></li>\n<li><a href=\"#a2.3\">2.3 Contr\u00f4les de gestion</a></li>\n</ul>\n</li>\n<li><a href=\"#ann-a\">Annexe A -  crit\u00e8res de v\u00e9rification</a></li>\n<li><a href=\"#ann-b\">Annexe B - acronymes</a></li>\n</ul>\n</nav>\n \n<h2 id=\"es\">Sommaire</h2>\n\n<p>Le volet D\u00e9veloppement des march\u00e9s du programme Agri-marketing (DM-PAM) vise \u00e0 renforcer et \u00e0 promouvoir la capacit\u00e9 du Canada \u00e0 d\u00e9velopper ses march\u00e9s int\u00e9rieurs et d'exportation, \u00e0 r\u00e9aliser des activit\u00e9s promotionnelles qui aideront \u00e0 positionner et \u00e0 diff\u00e9rencier les produits et les producteurs canadiens, et \u00e0 s'assurer que l'industrie est capable de r\u00e9pondre aux exigences des march\u00e9s.</p>\n\n<p>Le volet DM-PAM est dot\u00e9 d'un budget annuel de 21,23 M $<sup id=\"fn1-rf\"><a class=\"fn-lnk\" href=\"#fn1\"><span class=\"wb-inv\">Note de bas de page </span>1</a></sup>. Le financement des projets est \u00e0 frais partag\u00e9s entre Agriculture et Agroalimentaire Canada (AAC) et les b\u00e9n\u00e9ficiaires, et en g\u00e9n\u00e9ral, la contribution maximale d'AAC n'exc\u00e8de pas la moiti\u00e9 des co\u00fbts admissibles globaux.</p>\n\n<p>Le volet DM-PAM est administr\u00e9 par la Division de la comp\u00e9titivit\u00e9 de la Direction g\u00e9n\u00e9rale des programmes.</p>\n\n<p>L'audit du volet  DM-PAM est une activit\u00e9 qui \u00e9tait pr\u00e9vue dans le Plan de v\u00e9rification ax\u00e9 sur  les risques de 2015\u20132018. L'audit a cibl\u00e9 des activit\u00e9s li\u00e9es au cadre de  contr\u00f4le de gestion qui sont associ\u00e9es au volet DM-PAM, et qui portent sur la  gestion des risques, les contr\u00f4les et la gouvernance.</p>\n\n<p>Les auditeurs ont constat\u00e9 qu'en g\u00e9n\u00e9ral, des  contr\u00f4les efficaces en appui de l'administration et de l'ex\u00e9cution du volet DM-PAM sont en place.</p>\n\n<p>Voici les recommandations de l'audit qui sont  formul\u00e9es \u00e0 la sous\u00administre adjointe (SMA) de la Direction g\u00e9n\u00e9rale des  programmes\u00a0:</p>\n\n<ul>\n<li>Examiner et mettre \u00e0 jour les processus actuels de collecte et de  transmission d'informations importantes au Comit\u00e9 des directeurs g\u00e9n\u00e9raux charg\u00e9s de l'examen des demandes qui prend des d\u00e9cisions relatives au financement des projets soumis;</li>\n  <li>Examiner et mettre \u00e0 jour les processus actuels d'examens techniques pour assurer un niveau suffisant de l'information et recueillie \u00e0 partir d'autres secteurs de l'organisation;</li>\n  <li>Examiner et mettre \u00e0 jour les documents d'orientation interne concernant le volet DM-PAM;</li>\n<li>Examiner et mettre \u00e0 jour le processus actuel de collecte de donn\u00e9es, de suivis et de production de rapports sur la performance du volet DM-PAM en regard des normes de service.</li>\n</ul>\n<h2 id=\"a1\">1.0 Introduction</h2>\n<h3 id=\"a1.1\">1.1 Contexte</h3>\n<ul class=\"list-unstyled mrgn-lft-0\">\n<li class=\"mrgn-bttm-md\"><b>1.1.1</b>  Le 1<sup>er</sup> avril 2013 marque le lancement officiel par les gouvernements f\u00e9d\u00e9ral, provinciaux et territoriaux de <cite>Cultivons l'avenir 2</cite>, cadre strat\u00e9gique pour l'agriculture au Canada. Le cadre, qui est dot\u00e9 d'un budget de 3 milliards de dollars sur cinq ans, oriente les politiques et les programmes F\u00e9d\u00e9ral, provincial et territorial qui soutiennent le secteur agricole et de l'industrie alimentaire. Il comprend les trois programmes f\u00e9d\u00e9raux suivants : Agri-innovation, Agri-marketing et \nAgri-comp\u00e9titivit\u00e9.</li>\n\n<li class=\"mrgn-bttm-md\"><b>1.1.2</b> Le programme Agri-marketing (PAM), d'une dur\u00e9e de cinq ans (qui couvre les exercices 2013-2014 \u00e0 2017-2018), est dot\u00e9 d'un budget de 341 millions de dollars<sup id=\"fn2-rf\"><a class=\"fn-lnk\" href=\"#fn2\"><span class=\"wb-inv\">Note de bas de page </span>2</a></sup>. Il offre une combinaison d'initiatives gouvernementales et des contributions pour financer des projets pilot\u00e9s par l'industrie. Il appuie les efforts de l'industrie agricole visant \u00e0 ouvrir des march\u00e9s, \u00e0 pr\u00e9server l'acc\u00e8s aux march\u00e9s d\u00e9j\u00e0 conquis et \u00e0 saisir des d\u00e9bouch\u00e9s. Le PAM comprend quatre volets : D\u00e9veloppement des march\u00e9s (DM); Syst\u00e8mes d'assurance; \u00c9limination des obstacles au commerce; Faciliter la r\u00e9ussite sur les march\u00e9s. Les volets DM et Syst\u00e8mes d'assurance offrent des contributions pour financer des projets pilot\u00e9s par l'industrie.</li>\n \n<li class=\"mrgn-bttm-md\"><b>1.1.3</b> Le volet Le volet D\u00e9veloppement des march\u00e9s du programme Agri-marketing (DM-PAM) vise \u00e0 renforcer la capacit\u00e9 du Canada \u00e0 d\u00e9velopper et \u00e0 \u00e9largir ses march\u00e9s int\u00e9rieurs et d'exportation, \u00e0 r\u00e9aliser des activit\u00e9s promotionnelles qui aideront \u00e0 positionner et \u00e0 diff\u00e9rencier les produits et les producteurs canadiens, ainsi qu'\u00e0 s'assurer que l'industrie soit capable de r\u00e9pondre aux exigences des march\u00e9s. Le financement sous forme de contribution offerte par Agriculture et Agroalimentaire Canada (AAC) aide, d'une part, des organisations nationales de l'industrie \u00e0 mettre en \u0153uvre des strat\u00e9gies internationales \u00e0 long terme (ci\u00adapr\u00e8s appel\u00e9 portion g\u00e9n\u00e9rale du volet), et d'autre part, des petites et moyennes entreprises (ci-apr\u00e8s appel\u00e9 portion Petites et moyennes entreprises du volet) \u00e0 mettre en \u0153uvre des plans d'exportation sur les march\u00e9s internationaux, pour la r\u00e9alisation d'activit\u00e9s promotionnelles et de d\u00e9veloppement des march\u00e9s sur les march\u00e9s traditionnels et nouveaux.</li>\n\n<li class=\"mrgn-bttm-md\"><b>1.1.4</b> Le volet DM-PAM est dot\u00e9 d'un budget annuel de 21,23\u00a0M$. Le financement des projets est \u00e0 frais partag\u00e9s entre AAC et les b\u00e9n\u00e9ficiaires, et en g\u00e9n\u00e9ral, la contribution maximale d'AAC n'exc\u00e8de pas la moiti\u00e9 des co\u00fbts admissibles globaux. Les niveaux de financement d'AAC peuvent \u00eatre ajust\u00e9s \u00e0 la hausse lorsque les activit\u00e9s visent \u00e0 d\u00e9velopper de nouveaux march\u00e9s, et \u00e0 la baisse lorsque les activit\u00e9s visent \u00e0 pr\u00e9server des march\u00e9s d\u00e9j\u00e0 \u00e9tablis.</li>\n\n<li class=\"mrgn-bttm-md\"><b>1.1.5</b> Dans la portion g\u00e9n\u00e9rale du volet, la dur\u00e9e des ententes de contribution varie d'un \u00e0 cinq ans, et en g\u00e9n\u00e9ral, la contribution annuelle maximale d'AAC n'exc\u00e8de pas 2,5\u00a0M$. Les ententes de contribution qui ont \u00e9t\u00e9 sign\u00e9es pour la portion g\u00e9n\u00e9rale du volet durant l'exercice 2014-2015 repr\u00e9sentent un engagement total de 19,7\u00a0M$<sup id=\"fn3-1-rf\"><a class=\"fn-lnk\" href=\"#fn3\"><span class=\"wb-inv\">Note de bas de page </span>3</a></sup>.</li>\n\n<li class=\"mrgn-bttm-md\"><b>1.1.6</b> Dans la portion Petite et moyenne entreprises du volet, les ententes de contribution sont d'une dur\u00e9e d'un an, et la contribution annuelle maximale d'AAC est de 50\u00a0000\u00a0$. Les ententes de contribution qui ont \u00e9t\u00e9 sign\u00e9es pour la portion Petites et moyennes entreprises du volet durant l'exercice 2014-2015 repr\u00e9sentent un engagement total de 416\u00a0000\u00a0$<sup id=\"fn3-2-rf\"><a class=\"fn-lnk\" href=\"#fn3\"><span class=\"wb-inv\">Note de bas de page </span>3</a></sup>.</li>\n\n<li class=\"mrgn-bttm-md\"><b>1.1.7</b> Le volet DM-PAM est administr\u00e9 par la Division de la comp\u00e9titivit\u00e9 de la Direction g\u00e9n\u00e9rale des programmes. Les responsables du volet DM-PAM ont r\u00e9cemment entrepris de simplifier le processus de traitement des demandes d'aide financi\u00e8re au titre de la portion Petites et moyennes entreprises du volet afin de r\u00e9duire le temps de traitement des demandes et d'am\u00e9liorer la performance en regard des normes de service. Ils ont commenc\u00e9 \u00e0 am\u00e9liorer le processus \u00e0 partir de mars 2015. </li>\n</ul> \n \n<h3 id=\"a1.2\">1.2 Objectif</h3>\n<ul class=\"list-unstyled mrgn-lft-0\">\n<li class=\"mrgn-bttm-md\"><b>1.2.1</b> L'audit visait \u00e0 s'assurer que les contr\u00f4les mis en place en appui de l'administration et de l'ex\u00e9cution du volet <span class=\"text-nowrap\">DM\u00adPAM</span> sont pertinents et efficaces.</li>\n</ul>\n \n<h3 id=\"a1.3\">1.3 Port\u00e9e</h3>\n\n<ul class=\"list-unstyled mrgn-lft-0\">\n<li class=\"mrgn-bttm-md\"><b>1.3.1</b> Les auditeurs ont examin\u00e9 le cadre de contr\u00f4le de gestion, \u00e9valuant les activit\u00e9s li\u00e9es au volet \nDM-PAM qui portent sur la gestion, le contr\u00f4le des risques et la gouvernance</li>\n\n<li class=\"mrgn-bttm-md\"><b>1.3.2</b> L'audit portait sur l'exercice 2014-2015.</li>\n\n<li class=\"mrgn-bttm-md\"><b>1.3.3</b> L'\u00e9quipe d'audit n'a pas examin\u00e9 les volets Syst\u00e8mes d'assurance, \u00c9limination des obstacles au commerce et \u00c9largissement de l'acc\u00e8s aux march\u00e9s du programme PAM. </li>\n</ul>\n \n<h3 id=\"a1.4\">1.4 Strat\u00e9gie de l'audit</h3>\n\n<ul class=\"list-unstyled mrgn-lft-0\">\n<li class=\"mrgn-bttm-md\"><b>1.4.1</b> La strat\u00e9gie de l'audit \u00e9tait ax\u00e9e  sur les risques et \u00e9tait conforme aux <cite>Normes  internationales pour la pratique professionnelle de la v\u00e9rification interne</cite> et aux <cite>Normes relatives \u00e0 la v\u00e9rification  interne au sein du gouvernement du Canada</cite>, et \u00e0 la <cite>Politique du Conseil du Tr\u00e9sor sur la v\u00e9rification interne</cite>.</li>\n \n<li class=\"mrgn-bttm-md\"><b>1.4.2</b> L\u2019audit a \u00e9t\u00e9 men\u00e9 de juillet \u00e0 septembre 2015.</li>\n\n<li class=\"mrgn-bttm-md\"><b>1.4.3</b>  L'audit interne a \u00e9t\u00e9 men\u00e9 en suivant les \u00e9tapes suivantes\u00a0: \n \n <ul>\n   <li>Examen  des documents\u00a0: les auditeurs ont \u00e9valu\u00e9 les principaux documents du  programme pour comprendre les op\u00e9rations de programme, dont les documents cl\u00e9s  utilis\u00e9s par le personnel et les b\u00e9n\u00e9ficiaires du programme, ainsi que des  exemples de rapports qui avaient \u00e9t\u00e9 pr\u00e9par\u00e9s \u00e0 l'intention de la direction.</li>\n   <li>Examen  des dossiers\u00a0: \u00e0 des fins d'examen, les auditeurs ont \u00e9chantillonn\u00e9 des demandes  d'aide financi\u00e8re pour des projets soumis qui ont fait l'objet d'\u00e9valuation et des  demandes de paiement qui ont donn\u00e9 lieu \u00e0 des versements. Ils ont cibl\u00e9 les transactions  effectu\u00e9es durant l'exercice\u00a02014\u00ad2015 pour t\u00e9moigner des plus r\u00e9centes  pratiques de gestion du personnel du volet DM-PAM.</li>\n   <li>R\u00e9alisation  d'entrevues\u00a0: les auditeurs ont r\u00e9alis\u00e9 des entrevues avec des membres de  la direction et du personnel du volet \nDM-PAM ainsi qu'avec des membres du  personnel des Contr\u00f4les financiers et des Op\u00e9rations \u00e0 la Direction g\u00e9n\u00e9rale de  la gestion int\u00e9gr\u00e9e qui appuient le traitement des demandes de paiement.</li>\n</ul>\n</li>\n</ul>\n\n<h3 id=\"a1.5\">1.5 Conclusions</h3>\n\n<ul class=\"list-unstyled mrgn-lft-0\">\n<li class=\"mrgn-bttm-md\"><b>1.5.1</b> Les auditeurs ont constat\u00e9 qu'en g\u00e9n\u00e9ral des contr\u00f4les efficaces en appui de la gestion et de la prestation du volet DM\u00adPAM \u00e9taient en place.</li>\n\n<li class=\"mrgn-bttm-md\"><b>1.5.2</b> Les auditeurs ont formul\u00e9 des recommandations afin que les responsables du volet am\u00e9liorent\u00a0:\n <ul>\n   <li>les informations contenues dans les Formulaires  de recommandation de projet qui sont fournis au Comit\u00e9 des directeurs g\u00e9n\u00e9raux  charg\u00e9s de l'examen des demandes;</li>\n   <li>le processus d'examens techniques  des projets soumis;</li>\n   <li>les documents d'orientation interne  concernant le volet DM-PAM;</li>\n   <li>les rapports sur la performance du volet  DM-PAM en regard des normes de services. </li>\n</ul>\n</li>\n</ul>\n\n<h3 id=\"a1.6\">1.6 D\u00e9claration de conformit\u00e9</h3>\n<ul class=\"list-unstyled mrgn-lft-0\">\n<li class=\"mrgn-bttm-md\"><b>1.6.1</b> Selon l'opinion professionnelle du dirigeant principal de la v\u00e9rification, les proc\u00e9dures d'audit qui ont \u00e9t\u00e9 appliqu\u00e9es et les pi\u00e8ces justificatives qui ont \u00e9t\u00e9 collect\u00e9es sont suffisantes et appropri\u00e9es pour \u00e9tayer les conclusions du pr\u00e9sent rapport. Les conclusions reposent sur la comparaison des circonstances qui pr\u00e9valaient \u00e0 l'\u00e9poque des activit\u00e9s examin\u00e9es en regard des crit\u00e8res d'audit convenus d'avance avec la direction. Les conclusions ne s'appliquent qu'\u00e0 l'entit\u00e9 examin\u00e9e.</li>\n\n<li class=\"mrgn-bttm-md\"><b>1.6.2</b> Le pr\u00e9sent audit est conforme aux <cite>Normes relatives \u00e0 la v\u00e9rification interne au sein du gouvernement du Canada</cite>, comme en t\u00e9moignent les r\u00e9sultats du programme d'assurance et d'am\u00e9lioration de la qualit\u00e9.</li>\n</ul>\n \n<h2 id=\"a2\">2.0 Constations d\u00e9taill\u00e9es, recommandations et r\u00e9ponses de la direction</h2>\n<ul class=\"list-unstyled mrgn-lft-0\">\n<li class=\"mrgn-bttm-md\"><b>2.0.1</b> Vous trouverez dans la pr\u00e9sente section, les principales constatations qui sont fond\u00e9es sur des pi\u00e8ces justificatives et des analyses associ\u00e9es \u00e0 l'audit, ainsi que les recommandations qui ont \u00e9t\u00e9 formul\u00e9es \u00e0 des fins d'am\u00e9lioration.</li>\n\n<li class=\"mrgn-bttm-md\"><b>2.0.2</b>  Y sont pr\u00e9sent\u00e9es \u00e9galement les r\u00e9ponses de la direction, laquelle a fourni\u00a0:\n<ul>\n  <li>un plan d'action pour donner suite \u00e0  chaque recommandation;</li>\n  <li>un responsable pour la mise en \u0153uvre  du plan d'action;</li>\n  <li>la date pr\u00e9vue d'ach\u00e8vement de la  mise en \u0153uvre du plan d'action.</li>\n</ul>\n</li>\n</ul>\n \n<h3 id=\"a2.1\">2.1 Structures de gouvernance</h3>\n<ul class=\"list-unstyled mrgn-lft-0\">\n<li class=\"mrgn-bttm-md\"><b>2.1.1</b> Des structures de gouvernance minist\u00e9rielle et un comit\u00e9 de gouvernance du programme sont en place pour assurer la surveillance du volet Le volet D\u00e9veloppement des march\u00e9s du programme Agri-marketing (DM-PAM).</li>\n\n<li class=\"mrgn-bttm-md\"><b>2.1.2</b> Parmi les organes de surveillance minist\u00e9riels en place qui surveillent les subventions et contributions du volet DM-PAM, figurent le Comit\u00e9 de gestion du Minist\u00e8re, le Comit\u00e9 de gestion des directeurs g\u00e9n\u00e9raux, le Comit\u00e9 de gestion des politiques et des programmes et le Comit\u00e9 des directeurs g\u00e9n\u00e9raux charg\u00e9s des politiques et des programmes (CDGPP). Le comit\u00e9 de gestion du minist\u00e8re et le comit\u00e9 de gestion des directeurs g\u00e9n\u00e9raux assurent un r\u00f4le de surveillance au niveau de la gestion et des op\u00e9rations, tandis que le Comit\u00e9 de gestion des politiques et des programmes et le CDGPP assurent un r\u00f4le de surveillance au niveau de la conception des politiques et des programmes. Les auditeurs ont examin\u00e9 les ordres du jour et les comptes rendus des r\u00e9unions des comit\u00e9s de gouvernance pour la p\u00e9riode qui s'\u00e9chelonne de juin 2014 \u00e0 mai 2015, ainsi que leur mandat. Ils ont constat\u00e9 que ces organes de surveillance avaient \u00e9t\u00e9 aliment\u00e9s en donn\u00e9es et en rapports concernant le volet DM-PAM.</li>\n\n<li class=\"mrgn-bttm-md\"><b>2.1.3</b> \u00c0 l'\u00e9chelon du programme, le Comit\u00e9 des directeurs g\u00e9n\u00e9raux charg\u00e9s de l'examen des demandes joue un r\u00f4le majeur dans l'examen des projets soumis et l'octroi de fonds, avant l'autorisation minist\u00e9rielle. Le Comit\u00e9 des directeurs g\u00e9n\u00e9raux charg\u00e9s de l'examen des demandes re\u00e7oit des Formulaire de recommandation de projet qui r\u00e9sument les points de vue des responsables du programme et pr\u00e9sentent les principales informations des examens techniques, lesquels peuvent parfois provenir de sept autres secteurs organisationnels. Les auditeurs ont constat\u00e9 que dans 6 des 21 demandes (29 %) \u00e9chantillonn\u00e9es (sur les 65 dossiers de la portion g\u00e9n\u00e9rale du volet), les Formulaire de recommandation de projet auraient pu renfermer de meilleurs renseignements concernant les risques des projets et l'acc\u00e8s aux march\u00e9s, renseignements qui se trouvaient dans les examens techniques. Les auditeurs ont aussi not\u00e9 que les Formulaire de recommandation de projet de 13 des 21 dossiers de la portion g\u00e9n\u00e9rale du volet (62 %) ne pr\u00e9sentaient pas les r\u00e9sultats ant\u00e9rieurs des organisations b\u00e9n\u00e9ficiaires, qui pourtant avaient tous d\u00e9j\u00e0 obtenu du financement dans le cadre de Cultivons l'avenir1 ou d'un autre programme d'Agriculture et Agroalimentaire Canada (AAC). Les renseignements dans les Formulaire de recommandation de projet qui sont transmis au Comit\u00e9 peuvent donc ne pas fournir toute l'information utile pour l'estimation de la valeur des projets soumis.</li>\n\n<li class=\"mrgn-bttm-md\"><b>2.1.4 Recommandation 1\u00a0:</b> La Sous-ministre adjointe de la Direction g\u00e9n\u00e9rale des programmes devrait examiner et mettre \u00e0 jour les processus actuels de collecte et de transmission des informations importantes au comit\u00e9 des directeurs g\u00e9n\u00e9raux charg\u00e9s de l'examen des demandes qui prend les d\u00e9cisions relatives au financement des projets soumis.\n \n<p><i>R\u00e9ponse de la direction et plan d'action\u00a0:</i></p>\n<p>Accept\u00e9. Le volet de D\u00e9veloppement des march\u00e9s a entam\u00e9 une initiative d'am\u00e9lioration des processus rationalis\u00e9s en octobre 2015. Un des principaux objectifs de cette initiative sera d'examiner et de mettre \u00e0 jour la collecte, la pr\u00e9sentation et le contenu des produits d'information sur le programme qui sont achemin\u00e9s au comit\u00e9 d'examen des DG aux fins de d\u00e9cision concernant le financement du projet; y compris l'\u00e9laboration et la mise en \u0153uvre d'un nouveau format de mat\u00e9riel d'information \u00e0 l'intention du comit\u00e9 d'examen des DG. Le nouveau format des s\u00e9ances d'information du comit\u00e9 d'examen des DG permettra d'offrir de l'information de meilleure qualit\u00e9 et mieux organis\u00e9e, ainsi que des analyses plus approfondies pour appuyer les recommandations.</p>\n\n<p><i>Date pr\u00e9vue d'ach\u00e8vement\u00a0:</i> Janvier 2016</p>\n<p><i>Responsable(s)\u00a0:</i> SMA, Direction g\u00e9n\u00e9rale des programmes, <br>\nDirecteur g\u00e9n\u00e9ral \u2013 Direction du d\u00e9veloppement des   entreprises et de la comp\u00e9titivit\u00e9\n</p>\n</li>\n</ul>\n \n<h3 id=\"a2.2\">2.2 Gestion des risques</h3>\n\n<ul class=\"list-unstyled mrgn-lft-0\">\n<li class=\"mrgn-bttm-md\"><b>2.2.1</b> Les auditeurs ont constat\u00e9 dans le volet DM-PAM que des pratiques de gestion des risques \u00e0 l'\u00e9chelon du programme, des b\u00e9n\u00e9ficiaires et des projets \u00e9taient en place.</li>\n\n<li class=\"mrgn-bttm-md\"><b>2.2.2</b> Au sein du programme, on se sert de l'outil d'\u00e9valuation de la gestion des risques de programmes, lequel a \u00e9t\u00e9 cr\u00e9\u00e9 par la Direction de l'excellence du service et des programmes pour cerner les risques majeurs. Les auditeurs ont examin\u00e9 le document d'\u00e9valuation des risques qui a \u00e9t\u00e9 rempli par les responsables du volet DM-PAM, et ont constat\u00e9 que l'outil prenait en compte les aspects importants de la dur\u00e9e de vie du programme et qu'il avait \u00e9t\u00e9 mis \u00e0 jour annuellement.</li>\n\n<li class=\"mrgn-bttm-md\"><b>2.2.3</b> De plus, le Minist\u00e8re a un cadre de gestion des risques associ\u00e9s au b\u00e9n\u00e9ficiaire et au projet en place. On y propose une approche pour cerner les risques associ\u00e9s au b\u00e9n\u00e9ficiaire et au projet et pour \u00e9laborer une strat\u00e9gie d'att\u00e9nuation des risques, ce qui aide \u00e0 \u00e9tablir la fr\u00e9quence des avances, les limites de retenues, la fr\u00e9quence des rapports \u00e0 fournir et le taux d'\u00e9chantillonnage des documents de demandes de paiement. Les auditeurs ont \u00e9chantillonn\u00e9 21 demandes pr\u00e9sent\u00e9es au titre du volet \nDM-PAM (sur les 65 dossiers de la portion g\u00e9n\u00e9rale du volet) et ont constat\u00e9 qu'elles \u00e9taient toutes accompagn\u00e9es d'une \u00e9valuation des risques du b\u00e9n\u00e9ficiaire et du projet, laquelle avait \u00e9t\u00e9 remplie conform\u00e9ment au Cadre de gestion des risques associ\u00e9s au b\u00e9n\u00e9ficiaire et au projet. </li>\n</ul>\n\n<h3 id=\"a2.3\">2.3 Contr\u00f4les de gestion</h3>\n\n<ul class=\"list-unstyled mrgn-lft-0\">\n<li class=\"mrgn-bttm-md\"><b>2.3.1</b> Les responsables du volet DM-PAM ont \u00e9tabli des contr\u00f4les de gestion tout au long de la dur\u00e9e des projets soumis, soit au cours de l'\u00e9valuation des demandes d'aide financi\u00e8re, de l'autorisation des ententes de contribution, des suivis de projets, du traitement des demandes de paiements et du versement des paiements.</li>\n\n<li class=\"mrgn-bttm-md\"><b>2.3.2</b> Les auditeurs ont examin\u00e9 un \u00e9chantillon de 24 \u00e9valuations de demandes d'aide financi\u00e8re qui furent accept\u00e9es (soit 28\u00a0% des 87 ententes de contribution des portions g\u00e9n\u00e9rale et Petites et moyennes entreprises qui ont \u00e9t\u00e9 sign\u00e9es entre le 1er avril 2013 et le 31 mars 2015) et ont not\u00e9 que\u00a0:\n<ul class=\"list-unstyled\">\n<li class=\"mrgn-bttm-md\"><b>2.3.2.1</b> les \u00e9valuations des demandes de financement avaient \u00e9t\u00e9 \u00e9valu\u00e9es conform\u00e9ment au guide de la Direction de l'excellence du service et des programmes sur la diligence raisonnable \u00e0 l'\u00e9tape de l'\u00e9valuation. Ce guide recense les facteurs \u00e0 \u00e9valuer pour \u00e9tudier une demande d'aide financi\u00e8re relativement \u00e0 un projet soumis;</li>\n\n<li class=\"mrgn-bttm-md\"><b>2.3.2.2</b> les exigences en mati\u00e8re de conflits d'int\u00e9r\u00eats ont \u00e9t\u00e9 respect\u00e9es et sont conformes aux lignes directrices de la Direction de l'excellence du service et des programmes sur les conflits d'int\u00e9r\u00eats visant les programmes de subventions et de contributions;</li>\n\n<li class=\"mrgn-bttm-md\"><b>2.3.2.3</b> les recommandations relatives au financement des projets soumis et les ententes de contribution avaient \u00e9t\u00e9 examin\u00e9es et approuv\u00e9es dans le respect de la hi\u00e9rarchie de gouvernance et des pouvoirs de signature d\u00e9l\u00e9gu\u00e9s. </li>\n\n</ul>\n</li>\n \n<li class=\"mrgn-bttm-md\"><b>2.3.3</b> Dans le processus de traitement des demandes d'aide financi\u00e8re du volet DM-PAM, on a sollicit\u00e9 les commentaires d'autres secteurs organisationnels (jusqu'\u00e0 sept secteurs) en leur envoyant un questionnaire d'examen technique. Les r\u00e9ponses au questionnaire contribuent \u00e0 \u00e9tayer l'\u00e9valuation pr\u00e9sent\u00e9e dans les Formulaire de recommandation de projet et \u00e0 fournir de l'information utile au Comit\u00e9 des directeurs g\u00e9n\u00e9raux charg\u00e9s de l'examen des demandes. Dans un \u00e9chantillon de 21\u00a0demandes d'aide financi\u00e8re accept\u00e9es (sur les 65 dossiers de la portion g\u00e9n\u00e9rale du volet), les auditeurs ont trouv\u00e9 que les taux de r\u00e9ponse au formulaire d'examen technique variaient consid\u00e9rablement selon les secteurs organisationnels, soit de 5\u00a0% \u00e0 90\u00a0%. Les auditeurs ont aussi trouv\u00e9 que dans le volet DM-PAM, aucune entente formelle (comme un protocole d'entente) n'avait \u00e9t\u00e9 conclue avec d'autres secteurs organisationnels concernant les questionnaires d'examen technique. Il se peut que les taux de r\u00e9ponse variables ne fournissent pas des informations compl\u00e8tes aux agents du programme et au Comit\u00e9 des directeurs g\u00e9n\u00e9raux charg\u00e9s de l'examen des demandes qui \u00e9valuent les projets soumis..</li>\n\n<li class=\"mrgn-bttm-md\"><b>2.3.4 Recommandation 2\u00a0:</b> La SMA de la Direction g\u00e9n\u00e9rale des programmes devrait examiner et mettre \u00e0 jour les processus actuels d'examens techniques.  \n\n<p><i>R\u00e9ponse de la direction et plan d'action\u00a0:</i></p>\n<p>Accept\u00e9. Le volet de D\u00e9veloppement des march\u00e9s a entam\u00e9 une initiative d'am\u00e9lioration des processus rationalis\u00e9s en octobre 2015. Un des principaux objectifs de cette initiative rationalis\u00e9e sera d'examiner et de mettre \u00e0 jour le processus en place sur les examens techniques, notamment la cr\u00e9ation et la mise en \u0153uvre d'un formulaire d'\u00e9valuation technique \u00e0 jour (comprenant des questions cibl\u00e9es pour certains domaines de sp\u00e9cialisation dans d'autres secteurs organisationnels), l'am\u00e9lioration des processus (par exemple, une discussion sur l'\u00e9valuation technique avec les \u00e9valuateurs techniques des projets avant qu'ils se pr\u00e9sentent devant le comit\u00e9 d'examen des DG) et l'\u00e9laboration de lignes directrices connexes.</p>\n\n<p><i>Date pr\u00e9vue d'ach\u00e8vement\u00a0:</i> Janvier 2016</p>\n\n<p><i>Responsable(s)\u00a0:</i>\t SMA, Direction g\u00e9n\u00e9rale des programmes,<br>\nDirecteur g\u00e9n\u00e9ral \u2013 Direction du d\u00e9veloppement des   entreprises et de la comp\u00e9titivit\u00e9</p>\n</li>\n\n<li class=\"mrgn-bttm-md\"><b>2.3.5</b> Les auditeurs ont aussi examin\u00e9 un \u00e9chantillon de 24\u00a0demandes de paiement (soit 57\u00a0% des 42\u00a0demandes pr\u00e9sent\u00e9es du 1<sup>er</sup> avril 2014 au 27 juillet 2015) pour lesquelles au moins un paiement avait \u00e9t\u00e9 vers\u00e9 en date de l'audit, et ils ont constat\u00e9 que\u00a0:\n\n<ul class=\"list-unstyled\">\n<li class=\"mrgn-bttm-md\"><b>2.3.5.1</b> le gestionnaire du programme/l'agent et le gestionnaire des Op\u00e9rations et des r\u00e9clamations financi\u00e8res des programmes avaient examin\u00e9 et approuv\u00e9 les demandes de paiement, et que le d\u00e9l\u00e9gataire les avait attest\u00e9es conform\u00e9ment \u00e0 l'article 34 de la Loi sur la gestion des finances publiques, avant la v\u00e9rification des comptes pr\u00e9vue \u00e0 l'article 33 et l'autorisation de paiement par les agents des Contr\u00f4les financiers et des Op\u00e9rations de la Direction g\u00e9n\u00e9rale de la gestion int\u00e9gr\u00e9e;</li>\n\n<li class=\"mrgn-bttm-md\"><b>2.3.5.2</b> les processus de v\u00e9rification des demandes de paiement avaient \u00e9t\u00e9 suivis, notamment ceux qui consistent \u00e0 s'assurer que tous les documents d'accompagnement des demandes se trouvent au dossier et que les mises \u00e0 jour financi\u00e8res mentionn\u00e9es dans les ententes de contribution avaient \u00e9t\u00e9 re\u00e7ues;</li>\n\n<li class=\"mrgn-bttm-md\"><b>2.3.5.3</b> les avances, les retenues et les taux d'\u00e9chantillonnage ont \u00e9t\u00e9 appliqu\u00e9s en fonction de l'\u00c9valuation des risques associ\u00e9s au b\u00e9n\u00e9ficiaire et au projet;</li>\n\n<li class=\"mrgn-bttm-md\"><b>2.3.5.4</b> le d\u00e9l\u00e9gataire a sign\u00e9 les modifications et celles-ci \u00e9taient accompagn\u00e9es de justifications document\u00e9es (l'\u00e9chantillon comptait cinq modifications). En outre, les auditeurs ont constat\u00e9 que les personnes charg\u00e9es de l'examen des demandes et des d\u00e9cisions relatives au financement des projets avaient fait preuve de diligence raisonnable dans le traitement des modifications de projets qui n\u00e9cessitaient une r\u00e9vision \u00e0 la hausse du financement global et une augmentation au cours de la p\u00e9riode vis\u00e9e par l'entente (trois des cinq modifications).</li>\n</ul>\n</li>\n\n<li class=\"mrgn-bttm-md\"><b>2.3.6</b> Les auditeurs ont examin\u00e9 les documents d'orientation concernant le volet DM-PAM et ont constat\u00e9 que certains d'entre eux \u00e9taient \u00e0 jour, dont le Guide \u00e0 l'intention des demandeurs d'aide financi\u00e8re au titre du volet DM\u00adPAM, le Guide \u00e0 l'intention des b\u00e9n\u00e9ficiaires, et les R\u00f4les et responsabilit\u00e9s des postes pour le traitement des demandes de paiement. Par contre, ils ont trouv\u00e9 que d'autres documents d'orientation \u00e9taient p\u00e9rim\u00e9s, dont le Manuel des proc\u00e9dures \u00e0 l'intention des agents du programme \nAgri\u00admarketing (2012), ou encore non disponibles comme le document sur les r\u00f4les et responsabilit\u00e9s des agents de programme charg\u00e9s du volet DM-PAM. Les auditeurs ont aussi remarqu\u00e9 des pratiques incoh\u00e9rentes dans l'examen des \u00e9chantillons de dossiers, notamment au chapitre des approches d'\u00e9chantillonnage, des \u00e9carts de co\u00fbts par rapport au budget et des suivis des activit\u00e9s de projet et des r\u00e9sultats. Dans les entrevues qu'ils ont men\u00e9es aupr\u00e8s des membres du personnel, les auditeurs ont cern\u00e9 un besoin d'orientation additionnelle concernant les activit\u00e9s importantes. Il peut donc y avoir un risque de pratiques incoh\u00e9rentes dans l'administration des dossiers des b\u00e9n\u00e9ficiaires. </li>\n\n<li class=\"mrgn-bttm-md\"><b>2.3.7 Recommandation 3\u00a0:</b> La SMA de la Direction g\u00e9n\u00e9rale des programmes devrait examiner et mettre \u00e0 jour les documents d'orientation interne concernant le volet D\u00e9veloppement des march\u00e9s du programme Agri-marketing.\n \n<p><i>R\u00e9ponse de la direction et plan d'action\u00a0:</i></p>\n\n<p>Accept\u00e9. Le volet de D\u00e9veloppement des march\u00e9s mettra \u00e0 jour le Manuel des proc\u00e9dures \u00e0 l'intention des agents du programme \nAgri\u00admarketing (2012), qui fournira aux agents de programme de l'information d\u00e9taill\u00e9e et des proc\u00e9dures sur\u00a0: le processus de demande, le processus d'approbation, le processus d'entente de contribution, la gestion et le suivi des projets, la pr\u00e9paration de rapports sur un projet et la cl\u00f4ture de celui-ci.</p>\n\n<p>Les responsables du volet de D\u00e9veloppement des march\u00e9s d'Agri-marketing travailleront avec leurs coll\u00e8gues d'autres secteurs au sein de la direction g\u00e9n\u00e9rale des programmes (Programme Agri-innovation) afin de terminer le Document d'orientation sur le traitement des r\u00e9clamations - R\u00e9pertoire des questions et r\u00e9ponses. Ce dernier compl\u00e9tera les travaux entrepris sur la normalisation et l'harmonisation avec d'autres secteurs de programme.</p>\n\n<p><i>Date pr\u00e9vue d'ach\u00e8vement\u00a0:</i> Mars 2016</p>\n\n<p><i>Responsable(s)\u00a0:</i>  SMA, Direction g\u00e9n\u00e9rale des programmes,<br> \nDirecteur g\u00e9n\u00e9ral \u2013 Direction du d\u00e9veloppement des   entreprises et de la comp\u00e9titivit\u00e9</p>\n</li>\n\n<li class=\"mrgn-bttm-md\"><b>2.3.8</b> Les responsables du volet DM-PAM compilent des donn\u00e9es de performance en regard des normes de service et produisent des rapports mensuels et trimestriels \u00e0 l'intention de la direction \u00e0 des fins d'examen et de d\u00e9cisions. Les auditeurs ont v\u00e9rifi\u00e9 l'exactitude et l'exhaustivit\u00e9 des principaux chiffriers utilis\u00e9s par les agents de programme pour documenter les dates rep\u00e8res cl\u00e9s du traitement des demandes d'aide financi\u00e8re et de paiements. Les auditeurs ont \u00e9chantillonn\u00e9 24 des 87 demandes d'aide financi\u00e8re des portions g\u00e9n\u00e9rale et Petites et moyennes entreprises qui ont \u00e9t\u00e9 pr\u00e9sent\u00e9es entre le 1<sup>er</sup>\u00a0avril 2013 et le 31\u00a0mars 2015, et 16 des 42 demandes de paiement qui ont \u00e9t\u00e9 pr\u00e9sent\u00e9es entre le 1er avril 2014 et le 27 juillet 2015. Ils ont constat\u00e9 que les agents du programme avaient enregistr\u00e9 exactement les principales dates rep\u00e8res des demandes de paiement. Par contre, ils ont not\u00e9 que le chiffrier servant au suivi des demandes de paiement \u00e9tait incomplet, et que 8 des 48 dates rep\u00e8res des demandes de paiement (17\u00a0%) avaient \u00e9t\u00e9 omises. Les auditeurs ont aussi examin\u00e9 les rapports de performance en regard des normes de service; ils ont not\u00e9 qu'il aurait pu \u00eatre utile de fournir davantage de renseignements ou d'analyses qualitatives (comme d'expliquer les \u00e9carts observ\u00e9s) \u00e0 la direction \u00e0 des fins d'examen et de d\u00e9cision. La collecte incompl\u00e8te de donn\u00e9es par le personnel du programme peut se traduire par la production de rapports de performance inexacts en regard des normes de service, tandis que l'absence d'information ou d'analyses \u00e0 valeur ajout\u00e9e peut mener \u00e0 la prise de d\u00e9cisions moins \u00e9clair\u00e9es par la direction.</li>\n\n<li class=\"mrgn-bttm-md\"><b>2.3.9 Recommandation 4\u00a0:</b> La SMA de la Direction g\u00e9n\u00e9rale des programmes devrait examiner et mettre \u00e0 jour les processus actuels de collecte, de suivis et de production de rapports sur la performance du volet D\u00e9veloppement des march\u00e9s du programme Agri-marketing en ce qui concerne les normes de services.\n\n<p><i>R\u00e9ponse de la direction et plan d'action\u00a0:</i></p>\n\n<p>Accept\u00e9. Le volet de D\u00e9veloppement des march\u00e9s travaillera avec d'autres secteurs de la Direction g\u00e9n\u00e9rale des programmes afin d'harmoniser et de normaliser la collecte et la pr\u00e9paration de rapports, dans le but d'offrir une r\u00e9troaction plus rapide \u00e0 la direction sur l'\u00e9tat des demandes et des r\u00e9clamations.</p>\n\n<p>Le volet D\u00e9veloppement des march\u00e9s \u00e9labore un syst\u00e8me Sharepoint qui saisira sous forme \u00e9lectronique et \u00e9tablira des rapports sur les \u00e9tapes cl\u00e9s li\u00e9es aux normes de service, tout au long de l'examen technique et du processus d'approbation. L'intention est de mettre \u00e0 l'essai cette initiative pour une application plus large dans de nombreux programmes. </p>\n\n<p>Le volet D\u00e9veloppement des march\u00e9s a mis en place un nouveau syst\u00e8me de suivi des r\u00e9clamations (feuille de calcul) et a cr\u00e9\u00e9 une bo\u00eete de courriel g\u00e9n\u00e9rique pour les r\u00e9clamations, avec un poste affect\u00e9 \u00e0 la coordination de l'examen initial et du suivi des r\u00e9clamations. </p>\n\n<p><i>Date pr\u00e9vue d'ach\u00e8vement\u00a0:</i> Mai 2016</p>\n<p><i>Responsable(s)\u00a0:</i>\tSMA, Direction g\u00e9n\u00e9rale des programmes,<br>Directeur g\u00e9n\u00e9ral \u2013 Direction du d\u00e9veloppement des   entreprises et de la comp\u00e9titivit\u00e9</p>\n</li>\n </ul>\n \n \n <h2 id=\"ann-a\">Annexe A \u2013 crit\u00e8res d'audit</h2>\n \n <ol>\n   <li>Le programme est mis en \u0153uvre  ad\u00e9quatement. </li>\n   <li>Des processus efficaces de suivis et  de production de rapports concernant le programme sont en place. </li>\n   <li>Des  processus ad\u00e9quats d'\u00e9valuation des demandes d'aide financi\u00e8re, d'octroi de  fonds et de conclusion d'ententes avec les b\u00e9n\u00e9ficiaires sont en place.</li>\n    <li>Des  processus efficaces d'administration, de suivis et de production de rapports  sur le financement des projets des b\u00e9n\u00e9ficiaires sont en place</li>\n </ol>\n \n<h2 id=\"ann-b\">Annexe B \u2014  acronymes</h2>\n<dl>\n<dt>AAC</dt>\n<dd>Agriculture et Agroalimentaire Canada</dd>\n<dt>DM</dt>\n<dd>volet D\u00e9veloppement des march\u00e9s</dd>\n<dt>PAM</dt>\n<dd>programme Agri-marketing</dd>\n<dt>SMA</dt>\n<dd>Sous-ministre adjoint</dd>\n</dl>\n \n<aside class=\"wb-fnote\" role=\"note\">\n<h2 id=\"fn\">Notes de bas de page</h2>\n    <dl>\n    <dt>Note de bas de page 1</dt>\n    <dd id=\"fn1\">\n      <p>Selon le Rapport sur les plans et les priorit\u00e9s (RPP) d'AAC de  2014-2015</p>\n <p class=\"fn-rtn\"><a href=\"#fn1-rf\"><span class=\"wb-inv\">Retour \u00e0 la r\u00e9f\u00e9rence de la note de bas de page </span>1</a></p>\n    </dd>    \n\n<dt>Note de bas de page 2</dt>\n    <dd id=\"fn2\">\n    <p>Site  Web\u00a0: http://www.agr.gc.ca/eng/?id=1357941192614</p>\n      <p class=\"fn-rtn\"><a href=\"#fn2-rf\"><span class=\"wb-inv\">Retour \u00e0 la r\u00e9f\u00e9rence de la note de bas de page </span>2</a></p>\n    </dd>\n    \n    <dt>Note de bas de page 3</dt>\n    <dd id=\"fn3\">\n      <p>Rapport financier sommaire de la Direction du d\u00e9veloppement des entreprises et  comp\u00e9titivit\u00e9 en date du 1<sup>er</sup>\u00a0avril 2015</p>\n     \n       <p class=\"fn-rtn\">\n<a href=\"#fn3-1-rf\"><span class=\"wb-inv\">Retour \u00e0 la premi\u00e8re r\u00e9f\u00e9rence de la note de bas de page </span>3</a></p>\n            \n            <p class=\"fn-rtn\"><a href=\"#fn3-2-rf\"><span class=\"wb-inv\">Retour \u00e0 la deuxi\u00e8me r\u00e9f\u00e9rence de la note de bas de page </span>3</a></p>  \n          </dd>\n  </dl>\n</aside>  \n\r\n    "
    }
}