{
    "dcr_id": "1454079206581",
    "title": {
        "en": "Elimination Guidelines 2020 -  Type of Drug Glossary",
        "fr": "Guide d\u2019\u00e9limination 2020 - Glossaire des types de m\u00e9dicaments"
    },
    "modified": "2020-04-03",
    "issued": "2016-02-18",
    "templatetype": "content page 1 column",
    "page_type": "0",
    "node_id": "1365631599631",
    "dc_date_created": "2016-02-18",
    "managing_branch": "PAB",
    "parent_node_id": "",
    "short_title": "",
    "exturl": "",
    "teamsite_location": {
        "en": "/default/main/AAFC-AAC/Internet-Internet/Common-Commun/WORKAREA/Common-Commun/templatedata/comm-comm/gene-gene/data/01/equine_elimination_guide2016-2_1454079206581_en",
        "fr": "/default/main/AAFC-AAC/Internet-Internet/Common-Commun/WORKAREA/Common-Commun/templatedata/comm-comm/gene-gene/data/01/equine_elimination_guide2016-2_1454079206581_fr"
    },
    "type_name": "comm-comm/gene-gene",
    "has_dcr_id": true,
    "label": {
        "en": "Elimination Guidelines 2020 -  Type of Drug Glossary",
        "fr": "Guide d\u2019\u00e9limination 2020 - Glossaire des types de m\u00e9dicaments"
    },
    "breadcrumb": {
        "en": "Elimination Guidelines 2020 -  Type of Drug Glossary",
        "fr": "Guide d\u2019\u00e9limination 2020 - Glossaire des types de m\u00e9dicaments"
    },
    "layout_name": "content page 1 column",
    "lang": "en",
    "refaire": false,
    "meta": {
        "viewport": {
            "en": "width=device-width,initial-scale=1",
            "fr": "width=device-width, initial-scale=1"
        },
        "issued": {
            "en": "2016-02-18",
            "fr": "2016-02-18"
        },
        "modified": {
            "en": "2020-04-03",
            "fr": "2020-04-03"
        },
        "format": {
            "en": "text/html",
            "fr": "text/html"
        },
        "title": {
            "en": "Elimination Guidelines 2020 -  Type of Drug Glossary",
            "fr": "Guide d\u2019\u00e9limination 2020 - Glossaire des types de m\u00e9dicaments"
        },
        "subject": {
            "en": "regulations;horses;agricultural industries",
            "fr": "r\u00e8glements;industries agricoles;chevaux"
        },
        "dcterms:subject": {
            "en": "agricultural policy;drugs;horses",
            "fr": "politique agricole;m\u00e9dicament;cheval"
        },
        "description": {
            "en": "Agriculture and Agri-Food Canada, through the Equine Drug Control Program of the Canadian Pari-Mutuel Agency (CPMA), conducts research into equine drug administration, a program designed to aid the racing industry. The research involves standardbred mares stabled at the Agriculture and Agri-Food Canada Equine Drug Evaluation Centre. Analysis is conducted by the CPMA and Official Racing Laboratories in Canada using methods employed for routine samples.",
            "fr": "Agriculture et Agroalimentaire Canada (AAC), par l\u2019entremise du Programme de surveillance du contr\u00f4le des drogues \u00e9quines de l\u2019Agence canadienne du pari mutuel (ACPM), fait des recherches sur l\u2019administration des drogues \u00e9quines dans le cadre d\u2019un programme visant \u00e0 aider le secteur des courses. Les sujets exp\u00e9rimentaux sont les juments Standardbred log\u00e9es dans les \u00e9curies du Centre d\u2019\u00e9valuation des drogues \u00e9quines d\u2019AAC. Les analyses sont effectu\u00e9es par l\u2019ACPM et les laboratoires officiels de courses du Canada selon les m\u00eames m\u00e9thodes que pour les \u00e9chantillons habituels."
        },
        "language": {
            "en": "eng",
            "fr": "fra"
        },
        "keywords": {
            "en": " Equine Drug Control Program;Elimination Guidelines",
            "fr": " Programme de surveillance du contr\u00f4le des drogues \u00e9quines;Guide d\u2019\u00e9limination"
        },
        "audience": {
            "en": "gcaudience",
            "fr": "gcaudience"
        },
        "type": {
            "en": "guide",
            "fr": "guide"
        },
        "creator": {
            "en": "Agriculture and Agri-Food Canada;Government of Canada",
            "fr": "Agriculture et Agroalimentaire Canada;Gouvernement du Canada"
        },
        "spatial": {
            "en": "gcregions",
            "fr": "gcregions"
        },
        "service": {
            "en": "AAFC-AAC",
            "fr": "AAFC-AAC"
        },
        "accessRights": {
            "en": "2",
            "fr": "2"
        },
        "legalName": {
            "en": "agriculture_and_agri_food_canada",
            "fr": "agriculture_et_agroalimentaire_canada"
        },
        "areaServed": {
            "en": "Canada",
            "fr": "Canada"
        }
    },
    "h1": {
        "en": "Elimination Guidelines 2020 - Type of Drug Glossary",
        "fr": "Guide d\u2019\u00e9limination 2020 - Glossaire des types de m\u00e9dicaments"
    },
    "js": {
        "en": "",
        "fr": ""
    },
    "body": {
        "en": "\r\n    <h2>Type of Drug Glossary</h2>\n\n<nav>\n<ul class=\"list-inline\">\n\n<li style=\"padding-left:3px;padding-right:3px;\"><a href=\"#a\" class=\"btn btn-primary btn-xs\"><span class=\"hidden\">Type of Drug  starting with the letter </span>A</a></li>\n<li style=\"padding-left:3px;padding-right:3px;\"><a href=\"#b\" class=\"btn btn-primary btn-xs\"><span class=\"hidden\">Type of Drug  starting with the letter </span>B</a></li>\n<li style=\"padding-left:3px;padding-right:3px;\"><a href=\"#c\" class=\"btn btn-primary btn-xs\"><span class=\"hidden\">Type of Drug  starting with the letter </span>C</a></li>\n<li style=\"padding-left:3px;padding-right:3px;\"><a href=\"#d\" class=\"btn btn-primary btn-xs\"><span class=\"hidden\">Type of Drug  starting with the letter </span>D</a></li>\n<li style=\"padding-left:3px;padding-right:3px;\"><a href=\"#e\" class=\"btn btn-primary btn-xs\"><span class=\"hidden\">Type of Drug  starting with the letter </span>E</a></li>\n<li style=\"padding-left:3px;padding-right:3px;\"><a class=\"btn btn-xs disabled\"><span class=\"hidden\">Type of Drug  starting with the letter </span>F</a></li>\n<li style=\"padding-left:3px;padding-right:3px;\"><a href=\"#g\" class=\"btn btn-primary btn-xs\"><span class=\"hidden\">Type of Drug  starting with the letter </span>G</a></li>\n<li style=\"padding-left:3px;padding-right:3px;\"><a href=\"#h\" class=\"btn btn-primary btn-xs\"><span class=\"hidden\">Type of Drug  starting with the letter </span>H</a></li>\n<li style=\"padding-left:3px;padding-right:3px;\"><a class=\"btn btn-xs disabled\"><span class=\"hidden\">Type of Drug  starting with the letter </span>I</a></li>\n<li style=\"padding-left:3px;padding-right:3px;\"><a class=\"btn btn-xs disabled\"><span class=\"hidden\">Type of Drug  starting with the letter </span>J</a></li>\n<li style=\"padding-left:3px;padding-right:3px;\"><a href=\"#k\" class=\"btn btn-primary btn-xs\"><span class=\"hidden\">Type of Drug  starting with the letter </span>K</a></li>\n<li style=\"padding-left:3px;padding-right:3px;\"><a href=\"#l\" class=\"btn btn-primary btn-xs\"><span class=\"hidden\">Type of Drug  starting with the letter </span>L</a></li>\n<li style=\"padding-left:3px;padding-right:3px;\"><a href=\"#m\" class=\"btn btn-primary btn-xs\"><span class=\"hidden\">Type of Drug  starting with the letter </span>M</a></li>\n<li style=\"padding-left:3px;padding-right:3px;\"><a href=\"#n\" class=\"btn btn-primary btn-xs\"><span class=\"hidden\">Type of Drug  starting with the letter </span>N</a></li>\n<li style=\"padding-left:3px;padding-right:3px;\"><a href=\"#o\" class=\"btn btn-primary btn-xs\"><span class=\"hidden\">Type of Drug  starting with the letter </span>O</a></li>\n<li style=\"padding-left:3px;padding-right:3px;\"><a href=\"#p\" class=\"btn btn-primary btn-xs\"><span class=\"hidden\">Type of Drug  starting with the letter </span>P</a></li>\n<li style=\"padding-left:3px;padding-right:3px;\"><a class=\"btn btn-xs disabled\"><span class=\"hidden\">Type of Drug  starting with the letter </span>Q</a></li>\n<li style=\"padding-left:3px;padding-right:3px;\"><a href=\"#r\" class=\"btn btn-primary btn-xs\"><span class=\"hidden\">Type of Drug  starting with the letter </span>R</a></li>\n<li style=\"padding-left:3px;padding-right:3px;\"><a href=\"#s\" class=\"btn btn-primary btn-xs\"><span class=\"hidden\">Type of Drug  starting with the letter </span>S</a></li>\n<li style=\"padding-left:3px;padding-right:3px;\"><a href=\"#t\" class=\"btn btn-primary btn-xs\"><span class=\"hidden\">Type of Drug  starting with the letter </span>T</a></li>\n<li style=\"padding-left:3px;padding-right:3px;\"><a class=\"btn btn-xs disabled\"><span class=\"hidden\">Type of Drug  starting with the letter </span>U</a></li>\n<li style=\"padding-left:3px;padding-right:3px;\"><a href=\"#v\" class=\"btn btn-primary btn-xs\"><span class=\"hidden\">Type of Drug  starting with the letter </span>V</a></li>\n<li style=\"padding-left:3px;padding-right:3px;\"><a class=\"btn btn-xs disabled\"><span class=\"hidden\">Type of Drug  starting with the letter </span>W</a></li>\n<li style=\"padding-left:3px;padding-right:3px;\"><a class=\"btn btn-xs disabled\"><span class=\"hidden\">Type of Drug  starting with the letter </span>X</a></li>\n<li style=\"padding-left:3px;padding-right:3px;\"><a class=\"btn btn-xs disabled\"><span class=\"hidden\">Type of Drug  starting with the letter </span>Y</a></li>\n<li style=\"padding-left:3px;padding-right:3px;\"><a class=\"btn btn-xs disabled\"><span class=\"hidden\">Type of Drug  starting with the letter </span>Z</a></li>\n</ul>\n</nav>\n<div class=\"clearfix\"></div>\n\n<h3 id=\"a\">A</h3>\n\n<dl>\n<dt>Androgenic Anabolic Steroid</dt>\n<dd>A drug that possesses anabolic (musculature, size) and androgenic activity (masculinization, behavioural effects).</dd>\n\n<dt>Analgesic</dt>\n<dd>A drug that relieves pain.</dd>\n\n<dt>Anthelmintic</dt>\n<dd>An antiparasitic or worming agent.</dd>\n\n<dt>Antibacterial</dt>\n<dd>A drug that destroys or prevents the growth of bacteria.</dd>\n\n<dt>Anticholinergic</dt>\n<dd>A drug that antagonizes bronchospasm, (anti-muscarinic) reduces respiratory secretions and gastro-intestinal hypermotility.</dd>\n\n<dt>Anti-congestive</dt>\n<dd>A drug that relieves nasal congestion.</dd>\n\n<dt>Anticonvulsant</dt>\n<dd>A drug that prevents or relieves involuntary contraction of muscles.</dd>\n\n<dt>Antidepressant</dt>\n<dd>A drug that relieves depression and has the ability to alter behaviour.</dd>\n\n<dt>Antifibrinolytic</dt>\n<dd>A drug that inhibits the breakdown of fibrin which is important in the blood clotting mechanism.</dd>\n\n<dt>Antihistamine</dt>\n<dd>A drug that relieves the symptoms of allergy. Many antihistaminic drugs have sedative side effects.</dd>\n\n<dt>Antihypertensive</dt>\n<dd>A drug that acts against abnormally high blood pressure and emotional tension.</dd>\n\n<dt>Anti-inflammatory</dt>\n<dd>A drug that relieves local swelling, redness and pain caused by an injury or infection.</dd>\n\n<dt>Antipyretic</dt>\n<dd>A drug that reduces a fever.</dd>\n\n<dt>Antitussive</dt>\n<dd>A cough remedy.</dd>\n</dl>\n\n<h3 id=\"b\">B</h3>\n\n<dl>\n<dt>Bronchodilator</dt>\n<dd>A drug that expands the diameter of the bronchial tubes, permitting easier breathing.</dd>\n</dl>\n\n<h3 id=\"c\">C</h3>\n\n<dl>\n<dt>Counterirritant</dt>\n<dd>An agent producing mild surface irritation of skin with the object of relieving deep-seated inflammation.</dd>\n</dl>\n\n<h3 id=\"d\">D</h3>\n\n<dl>\n<dt>Diuretic</dt>\n<dd>A drug causing increased production and excretion of urine.</dd>\n</dl>\n\n<h3 id=\"e\">E</h3>\n\n<dl>\n<dt>Expectorant</dt>\n<dd>A drug that promotes the clearing of phlegm from chest or lungs.</dd>\n</dl>\n\n<h3 id=\"g\">G</h3>\n\n<dl>\n<dt>Gastric Acid Secretion Inhibitor</dt>\n<dd>A drug that inhibits gastric acid secretion and aids in ulcer therapy.</dd>\n\n<dt>General Anesthetic</dt>\n<dd>A drug producing a lack of sensation and a level of sedation required for major surgery.</dd>\n</dl>\n\n<h3 id=\"h\">H</h3>\n\n<dl>\n<dt>Hemostatic</dt>\n<dd>A drug that aids in the prevention of hemorrhage.</dd>\n\n<dt>Histamine H2 Receptor Antagonist</dt>\n<dd>A drug that inhibits gastric acid secretion, aids in peptic ulcer therapy.</dd>\n</dl>\n\n<h3 id=\"k\">K</h3>\n\n<dl>\n<dt>Keratolytic</dt>\n<dd>An agent producing sloughing of the surface layers of skin.</dd>\n</dl>\n\n<h3 id=\"l\">L</h3>\n\n<dl>\n<dt>Local Anesthetic</dt>\n<dd>A drug producing reduced sensations (e.g. touch, pain) in a restricted area of the body.</dd>\n</dl>\n\n<h3 id=\"m\">M</h3>\n\n<dl>\n<dt>Mucolytic</dt>\n<dd>A drug that breaks down or liquefies mucus.</dd>\n</dl>\n\n<h3 id=\"n\">N</h3>\n\n<dl>\n<dt>NSAID</dt>\n<dd>Non-steroidal anti-inflammatory drug.</dd>\n</dl>\n\n<h3 id=\"o\">O</h3>\n\n<dl>\n<dt>Oxytocic</dt>\n<dd>A drug that acts to produce rhythmic contractions of the uterus.</dd>\n</dl>\n\n<h3 id=\"p\">P</h3>\n\n<dl>\n<dt>Penetrant Carrier</dt>\n<dd>A substance that enhances the absorption of other drugs.</dd>\n</dl>\n\n<h3 id=\"r\">R</h3>\n\n<dl>\n<dt>Respiratory Anti-allergic</dt>\n<dd>A drug that aids in control of allergic respiratory disease and cough, and reduces pulmonary hyperactivity.</dd>\n</dl>\n\n<h3 id=\"s\">S</h3>\n\n<dl>\n<dt>Sedative</dt>\n<dd>A drug that produces a calming effect and reduces nervous excitement.</dd>\n\n<dt>Skeletal Muscle Relaxant</dt>\n<dd>A drug that relaxes the muscles involved in locomotion.</dd>\n\n<dt>Sympathomimetic</dt>\n<dd>A drug that mimics the actions of the sympathetic nervous system.</dd>\n\n<dt>Synthetic Corticosteroid</dt>\n<dd>A drug producing an action similar to that of a steroid hormone of the adrenal cortex, but which is chemically distinguishable from natural hormones.</dd>\n</dl>\n\n<h3 id=\"t\">T</h3>\n\n<dl>\n<dt>Tranquilizer</dt>\n<dd>A drug that relieves anxiety and other stress-related symptoms.</dd>\n</dl>\n\n<h3 id=\"v\">V</h3>\n\n<dl>\n<dt>Vasodilator</dt>\n<dd>A drug that causes dilation of blood vessels.</dd>\n</dl>\n\r\n    ",
        "fr": "\r\n    <h2>Glossaire des types de m\u00e9dicaments</h2>\n\n<nav>\n<ul class=\"list-inline\">\n\n<li style=\"padding-left:3px;padding-right:3px;\"><a href=\"#a\" class=\"btn btn-primary btn-xs\"><span class=\"hidden\">Type de m\u00e9dicament commen\u00e7ant par la lettre </span>A</a></li>\n<li style=\"padding-left:3px;padding-right:3px;\"><a href=\"#b\" class=\"btn btn-primary btn-xs\"><span class=\"hidden\">Type de m\u00e9dicament commen\u00e7ant par la lettre </span>B</a></li>\n<li style=\"padding-left:3px;padding-right:3px;\"><a href=\"#c\" class=\"btn btn-primary btn-xs\"><span class=\"hidden\">Type de m\u00e9dicament commen\u00e7ant par la lettre </span>C</a></li>\n<li style=\"padding-left:3px;padding-right:3px;\"><a href=\"#d\" class=\"btn btn-primary btn-xs\"><span class=\"hidden\">Type de m\u00e9dicament commen\u00e7ant par la lettre </span>D</a></li>\n<li style=\"padding-left:3px;padding-right:3px;\"><a href=\"#e\" class=\"btn btn-primary btn-xs\"><span class=\"hidden\">Type de m\u00e9dicament commen\u00e7ant par la lettre </span>E</a></li>\n<li style=\"padding-left:3px;padding-right:3px;\"><a class=\"btn btn-xs disabled\"><span class=\"hidden\">Type de m\u00e9dicament commen\u00e7ant par la lettre </span>F</a></li>\n<li style=\"padding-left:3px;padding-right:3px;\"><a class=\"btn btn-xs disabled\"><span class=\"hidden\">Type de m\u00e9dicament commen\u00e7ant par la lettre </span>G</a></li>\n<li style=\"padding-left:3px;padding-right:3px;\"><a class=\"btn btn-xs disabled\"><span class=\"hidden\">Type de m\u00e9dicament commen\u00e7ant par la lettre </span>H</a></li>\n<li style=\"padding-left:3px;padding-right:3px;\"><a href=\"#i\" class=\"btn btn-primary btn-xs\"><span class=\"hidden\">Type de m\u00e9dicament commen\u00e7ant par la lettre </span>I</a></li>\n<li style=\"padding-left:3px;padding-right:3px;\"><a class=\"btn btn-xs disabled\"><span class=\"hidden\">Type de m\u00e9dicament commen\u00e7ant par la lettre </span>J</a></li>\n<li style=\"padding-left:3px;padding-right:3px;\"><a href=\"#k\" class=\"btn btn-primary btn-xs\"><span class=\"hidden\">Type de m\u00e9dicament commen\u00e7ant par la lettre </span>K</a></li>\n<li style=\"padding-left:3px;padding-right:3px;\"><a class=\"btn btn-xs disabled\"><span class=\"hidden\">Type de m\u00e9dicament commen\u00e7ant par la lettre </span>L</a></li>\n<li style=\"padding-left:3px;padding-right:3px;\"><a href=\"#m\" class=\"btn btn-primary btn-xs\"><span class=\"hidden\">Type de m\u00e9dicament commen\u00e7ant par la lettre </span>M</a></li>\n<li style=\"padding-left:3px;padding-right:3px;\"><a class=\"btn btn-xs disabled\"><span class=\"hidden\">Type de m\u00e9dicament commen\u00e7ant par la lettre </span>N</a></li>\n<li style=\"padding-left:3px;padding-right:3px;\"><a href=\"#o\" class=\"btn btn-primary btn-xs\"><span class=\"hidden\">Type de m\u00e9dicament commen\u00e7ant par la lettre </span>O</a></li>\n<li style=\"padding-left:3px;padding-right:3px;\"><a class=\"btn btn-xs disabled\"><span class=\"hidden\">Type de m\u00e9dicament commen\u00e7ant par la lettre </span>P</a></li>\n<li style=\"padding-left:3px;padding-right:3px;\"><a class=\"btn btn-xs disabled\"><span class=\"hidden\">Type de m\u00e9dicament commen\u00e7ant par la lettre </span>Q</a></li>\n<li style=\"padding-left:3px;padding-right:3px;\"><a href=\"#r\" class=\"btn btn-primary btn-xs\"><span class=\"hidden\">Type de m\u00e9dicament commen\u00e7ant par la lettre </span>R</a></li>\n<li style=\"padding-left:3px;padding-right:3px;\"><a href=\"#s\" class=\"btn btn-primary btn-xs\"><span class=\"hidden\">Type de m\u00e9dicament commen\u00e7ant par la lettre </span>S</a></li>\n<li style=\"padding-left:3px;padding-right:3px;\"><a href=\"#t\" class=\"btn btn-primary btn-xs\"><span class=\"hidden\">Type de m\u00e9dicament commen\u00e7ant par la lettre </span>T</a></li>\n<li style=\"padding-left:3px;padding-right:3px;\"><a class=\"btn btn-xs disabled\"><span class=\"hidden\">Type de m\u00e9dicament commen\u00e7ant par la lettre </span>U</a></li>\n<li style=\"padding-left:3px;padding-right:3px;\"><a href=\"#v\" class=\"btn btn-primary btn-xs\"><span class=\"hidden\">Type de m\u00e9dicament commen\u00e7ant par la lettre </span>V</a></li>\n<li style=\"padding-left:3px;padding-right:3px;\"><a class=\"btn btn-xs disabled\"><span class=\"hidden\">Type de m\u00e9dicament commen\u00e7ant par la lettre </span>W</a></li>\n<li style=\"padding-left:3px;padding-right:3px;\"><a class=\"btn btn-xs disabled\"><span class=\"hidden\">Type de m\u00e9dicament commen\u00e7ant par la lettre </span>X</a></li>\n<li style=\"padding-left:3px;padding-right:3px;\"><a class=\"btn btn-xs disabled\"><span class=\"hidden\">Type de m\u00e9dicament commen\u00e7ant par la lettre </span>Y</a></li>\n<li style=\"padding-left:3px;padding-right:3px;\"><a class=\"btn btn-xs disabled\"><span class=\"hidden\">Type de m\u00e9dicament commen\u00e7ant par la lettre </span>Z</a></li>\n</ul>\n</nav>\n<div class=\"clearfix\"></div>\n\n<h3 id=\"a\">A</h3>\n\n<dl>\n<dt>Adjuvant</dt>\n<dd>qui favorise l\u2019absorption d\u2019autres drogues.</dd>\n\n<dt>Agent h\u00e9mostatique</dt>\n<dd>un m\u00e9dicament qui aide \u00e0 pr\u00e9venir l'h\u00e9morragie.</dd>\n\n<dt>Analg\u00e9sique</dt>\n<dd>qui soulage la douleur.</dd>\n\n<dt>Anesth\u00e9sique g\u00e9n\u00e9ral</dt>\n<dd>qui produit la perte de sensibilit\u00e9 et le niveau de s\u00e9dation n\u00e9cessaires aux fins  d\u2019une intervention chirurgicale importante.</dd>\n\n<dt>Anesth\u00e9sique local</dt>\n<dd>m\u00e9dicament qui att\u00e9nue les sensations (toucher, douleur) dans une certaine partie du corps.</dd>\n\n<dt>Antagoniste du r\u00e9cepteur H2 de l\u2019histamine</dt>\n<dd>drogue qui emp\u00eache la s\u00e9cr\u00e9tion d\u2019acide gastrique et aide \u00e0 soigner les ulc\u00e8res peptiques.</dd>\n\n<dt>Antiallergique respiratoire</dt>\n<dd>drogue qui aide \u00e0 lutter contre les maladies allergiques respiratoires et la toux et qui r\u00e9duit l\u2019hyperactivit\u00e9 pulmonaire.</dd>\n\n<dt>Antibact\u00e9rien</dt>\n<dd>m\u00e9dicament qui d\u00e9truit les bact\u00e9ries ou en pr\u00e9vient la croissance.</dd>\n\n<dt>Anticholinergique</dt>\n<dd>drogue qui combat les spasmes des bronches, r\u00e9duit les s\u00e9cr\u00e9tions durant la respiration ainsi que l\u2019hypermotilit\u00e9 gastro-intestinale.</dd>\n\n<dt>Anticongestion</dt>\n<dd>drogue qui soulage la congestion nasale.</dd>\n\n<dt>Anticonvulsif</dt>\n<dd>qui bloque ou soulage les contractions involontaires des muscles.</dd>\n\n<dt>Antid\u00e9presseur</dt>\n<dd>qui soulage la d\u00e9pression et qui peut modifier le comportement.</dd>\n\n<dt>Antifibrinolytique</dt>\n<dd>qui emp\u00eache la lyse des fibrines qui sont essentielles \u00e0 la coagulation du sang.</dd>\n\n<dt>Antihelmintique</dt>\n<dd>agent antiparasitaire ou vermifuge.</dd>\n\n<dt>Antihistaminique</dt>\n<dd>qui soulage les sympt\u00f4mes d\u2019allergie. De nombreux antihistaminiques ont un effet s\u00e9datif.</dd>\n\n<dt>Antihypertenseur</dt>\n<dd>qui abaisse la pression sanguine anormalement \u00e9lev\u00e9e et la tension \u00e9motive.</dd>\n\n<dt>Antiinflammatoire</dt>\n<dd>qui r\u00e9duit l\u2019enflure, la rougeur et la douleur locales caus\u00e9es par une blessure ou une infection.</dd>\n\n<dt>Antipyr\u00e9tique</dt>\n<dd>qui combat la fi\u00e8vre.</dd>\n\n<dt>Antitussif</dt>\n<dd>qui combat la toux.</dd>\n\n</dl>\n\n<h3 id=\"b\">B</h3>\n\n<dl>\n\n<dt>Bronchodilatateur</dt>\n<dd>qui augmente la diam\u00e8tre des tubes bronchiques, facilitant ainsi la respiration.</dd>\n\n</dl>\n\n<h3 id=\"c\">C</h3>\n\n<dl>\n\n<dt>Corticost\u00e9ro\u00efde synth\u00e9tique</dt>\n<dd>m\u00e9dicament qui produit un effet semblable \u00e0 celui d\u2019une hormone cortico\u00efde mais distinct de celui de l\u2019hormone naturelle du point de vue chimique.</dd>\n\n</dl>\n\n<h3 id=\"d\">D</h3>\n\n<dl>\n\n<dt>D.A.I.N.S.</dt>\n<dd>drogue antiinflammatoire non st\u00e9ro\u00efde.</dd>\n\n<dt>Diur\u00e9tique</dt>\n<dd>qui stimule la production et l\u2019excr\u00e9tion d\u2019urine.</dd>\n\n</dl>\n\n<h3 id=\"e\">E</h3>\n\n<dl>\n\n<dt>Expectorant</dt>\n<dd>qui favorise l\u2019expulsion du mucus des bronches.</dd>\n\n</dl>\n\n<h3 id=\"i\">I</h3>\n\n<dl>\n\n<dt>Inhibiteur de s\u00e9cr\u00e9tion d\u2019acide gastrique</dt>\n<dd>qui pr\u00e9vient la s\u00e9cr\u00e9tion d\u2019acide gastrique et qui facilite le traitement des ulc\u00e8res.</dd>\n\n</dl>\n\n<h3 id=\"k\">K</h3>\n\n<dl>\n\n<dt>K\u00e9ratolitique</dt>\n<dd>qui provoque une escarrification des couches superficielles de la peau.</dd>\n\n</dl>\n\n<h3 id=\"m\">M</h3>\n\n<dl>\n\n<dt>Mucolytique</dt>\n<dd>m\u00e9dicament qui d\u00e9compose ou liqu\u00e9fie le mucus.</dd>\n\n</dl>\n\n<h3 id=\"o\">O</h3>\n\n<dl>\n\n<dt>Ocytocique</dt>\n<dd>drogue qui produits des contractions rythmiques de l\u2019ut\u00e9rus.</dd>\n\n</dl>\n\n<h3 id=\"r\">R</h3>\n\n<dl>\n\n<dt>Relaxant musculaire</dt>\n<dd>qui d\u00e9tend les muscles locomoteurs.</dd>\n\n<dt>R\u00e9vulsif</dt>\n<dd>qui provoque une l\u00e9g\u00e8re irritation superficielle de la peau dans le but de soulager une inflammation profonde.</dd>\n\n</dl>\n\n<h3 id=\"s\">S</h3>\n\n<dl>\n\n<dt>S\u00e9datif</dt>\n<dd>qui calme et r\u00e9duit l\u2019excitation nerveuse.</dd>\n\n<dt>St\u00e9ro\u00efde anabolisant androg\u00e8ne</dt>\n<dd>un m\u00e9dicament qui exerce une\taction anabolisante (musculature, masse corporelle) et androg\u00e9nique (masculinisation, effets sur le comportement).</dd>\n\n<dt>Sympathom\u00e9tique</dt>\n<dd>drogue qui a des effets similaires \u00e0 ceux que l\u2019on obtient en stimulant le syst\u00e8me nerveux sympathique.</dd>\n\n</dl>\n\n<h3 id=\"t\">T</h3>\n\n<dl>\n\n<dt>Tranquillisant</dt>\n<dd>qui abaisse l\u2019anxi\u00e9t\u00e9 et autres sympt\u00f4mes li\u00e9s au stress.</dd>\n\n</dl>\n\n<h3 id=\"v\">V</h3>\n\n<dl>\n\n<dt>Vasodilateur</dt>\n<dd>m\u00e9dicament qui dilate les vaisseaux sanguins.</dd>\n</dl>   \n\r\n    "
    }
}