{
    "dcr_id": "1454077094773",
    "title": {
        "en": "Elimination Guidelines 2020 - Overview",
        "fr": "Guide d\u2019\u00e9limination 2020 - Vue d'ensemble"
    },
    "modified": "2020-04-03",
    "issued": "2016-02-18",
    "templatetype": "content page 1 column",
    "page_type": "0",
    "node_id": "1365631599631",
    "dc_date_created": "2016-02-18",
    "managing_branch": "PAB",
    "parent_node_id": "",
    "short_title": "",
    "exturl": "",
    "teamsite_location": {
        "en": "/default/main/AAFC-AAC/Internet-Internet/Common-Commun/WORKAREA/Common-Commun/templatedata/comm-comm/gene-gene/data/01/equine_elimination_guide2016-5_1454077094773_en",
        "fr": "/default/main/AAFC-AAC/Internet-Internet/Common-Commun/WORKAREA/Common-Commun/templatedata/comm-comm/gene-gene/data/01/equine_elimination_guide2016-5_1454077094773_fr"
    },
    "type_name": "comm-comm/gene-gene",
    "has_dcr_id": true,
    "label": {
        "en": "Elimination Guidelines 2020 - Overview",
        "fr": "Guide d\u2019\u00e9limination 2020 - Vue d'ensemble"
    },
    "breadcrumb": {
        "en": "Elimination Guidelines 2020 - Overview",
        "fr": "Guide d\u2019\u00e9limination 2020 - Vue d'ensemble"
    },
    "layout_name": "content page 1 column",
    "lang": "en",
    "refaire": false,
    "meta": {
        "viewport": {
            "en": "width=device-width,initial-scale=1",
            "fr": "width=device-width, initial-scale=1"
        },
        "issued": {
            "en": "2016-02-18",
            "fr": "2016-02-18"
        },
        "modified": {
            "en": "2020-04-03",
            "fr": "2020-04-03"
        },
        "format": {
            "en": "text/html",
            "fr": "text/html"
        },
        "title": {
            "en": "Elimination Guidelines 2020 - Overview",
            "fr": "Guide d\u2019\u00e9limination 2020 - Vue d'ensemble"
        },
        "subject": {
            "en": "regulations;horses;agricultural industries",
            "fr": "r\u00e8glements;industries agricoles;chevaux"
        },
        "dcterms:subject": {
            "en": "agricultural policy;drugs;horses",
            "fr": "politique agricole;m\u00e9dicament;cheval"
        },
        "description": {
            "en": "Agriculture and Agri-Food Canada, through the Equine Drug Control Program of the Canadian Pari-Mutuel Agency (CPMA), conducts research into equine drug administration, a program designed to aid the racing industry. The research involves standardbred mares stabled at the Agriculture and Agri-Food Canada Equine Drug Evaluation Centre. Analysis is conducted by the CPMA and Official Racing Laboratories in Canada using methods employed for routine samples.",
            "fr": "Agriculture et Agroalimentaire Canada (AAC), par l\u2019entremise du Programme de surveillance du contr\u00f4le des drogues \u00e9quines de l\u2019Agence canadienne du pari mutuel (ACPM), fait des recherches sur l\u2019administration des drogues \u00e9quines dans le cadre d\u2019un programme visant \u00e0 aider le secteur des courses. Les sujets exp\u00e9rimentaux sont les juments Standardbred log\u00e9es dans les \u00e9curies du Centre d\u2019\u00e9valuation des drogues \u00e9quines d\u2019AAC. Les analyses sont effectu\u00e9es par l\u2019ACPM et les laboratoires officiels de courses du Canada selon les m\u00eames m\u00e9thodes que pour les \u00e9chantillons habituels."
        },
        "language": {
            "en": "eng",
            "fr": "fra"
        },
        "keywords": {
            "en": " Equine Drug Control Program;Elimination Guidelines",
            "fr": " Programme de surveillance du contr\u00f4le des drogues \u00e9quines;Guide d\u2019\u00e9limination"
        },
        "audience": {
            "en": "gcaudience",
            "fr": "gcaudience"
        },
        "type": {
            "en": "guide",
            "fr": "guide"
        },
        "creator": {
            "en": "Agriculture and Agri-Food Canada;Government of Canada",
            "fr": "Agriculture et Agroalimentaire Canada;Gouvernement du Canada"
        },
        "spatial": {
            "en": "gcregions",
            "fr": "gcregions"
        },
        "service": {
            "en": "AAFC-AAC",
            "fr": "AAFC-AAC"
        },
        "accessRights": {
            "en": "2",
            "fr": "2"
        },
        "legalName": {
            "en": "agriculture_and_agri_food_canada",
            "fr": "agriculture_et_agroalimentaire_canada"
        },
        "areaServed": {
            "en": "Canada",
            "fr": "Canada"
        }
    },
    "h1": {
        "en": "Elimination Guidelines 2020 - Overview",
        "fr": "Guide d\u2019\u00e9limination 2020 - Vue d'ensemble"
    },
    "js": {
        "en": "",
        "fr": ""
    },
    "body": {
        "en": "\r\n     \n\n<p>Agriculture and Agri-Food Canada, through the Equine Drug Control Program of the Canadian Pari-Mutuel Agency (CPMA), conducts research into equine drug elimination, a program designed to aid the racing industry. The research involves standardbred mares stabled at the Agriculture and Agri-Food Canada Equine Drug Evaluation Centre. </p>\n\n<p>The <b>approximate</b> nature of the data presented is stressed. Drug absorption and elimination are influenced by many factors, including the horse (age, sex, etc.), its environment (diet, training, etc.) and the drug (dosage, drug mixture, co-administration of drugs and/or supplements etc.). You should be aware that the dosage of the drug may vary with different preparations and manufacturers. Be sure to read the label of the product before use. Taking all factors into consideration, individual horses may have longer or shorter periods of elimination. You should consult with your veterinarian for advice and guidance in the administration of drugs to your horse.</p>\n\n<p>The Elimination Guidelines are intended as information only and do not, in any way, supersede or relieve responsibility for compliance with the Pari-Mutuel Betting Supervision Regulations and provincial racing rules. If you are not already, you should become familiar with these rules.</p>\n\n<p>Agriculture and Agri-Food Canada and the Official Racing Laboratories assume no liability for positive tests which may occur as the result of drugs administered within quantity and time frames set out in this publication.</p>\n\n\n\r\n    ",
        "fr": "\r\n     \n\n<p>Agriculture et Agroalimentaire Canada (AAC), dans le cadre du Programme de contr\u00f4le des drogues \u00e9quines de l\u2019Agence canadienne du pari mutuel (ACPM), fait des recherches sur l\u2019\u00e9limination des drogues \u00e9quines, en vue d\u2019aider le secteur des courses. Les sujets exp\u00e9rimentaux sont les juments Standardbred log\u00e9es dans les \u00e9curies du Centre d\u2019\u00e9valuation des drogues \u00e9quines d\u2019AAC.</p>\n\n<p>Il est important de souligner le caract\u00e8re <b>approximatif</b> des donn\u00e9es pr\u00e9sent\u00e9es. En effet, l\u2019absorption et l\u2019\u00e9limination des drogues d\u00e9pendent de nombreux facteurs, notamment de la b\u00eate (\u00e2ge, sexe, etc.), de son milieu de vie (alimentation, entra\u00eenement, etc.) et de la substance (dose, m\u00e9lange, co administration de drogues et/ou de suppl\u00e9ments, etc.). Il est \u00e0 signaler que la dose varie parfois selon la pr\u00e9paration et le fabricant. Lisez bien l\u2019\u00e9tiquette et le mode d\u2019emploi du produit avant de l\u2019utiliser. Compte tenu de tous ces facteurs, chaque cheval a une vitesse de m\u00e9tabolisme qui lui est propre. Consultez votre v\u00e9t\u00e9rinaire pour obtenir des conseils et des instructions sur l\u2019administration de drogues \u00e0 votre cheval.</p>\n\n<p>Le guide d\u2019\u00e9limination n\u2019est fourni qu\u2019\u00e0 titre d\u2019information et ne remplace ni n\u2019annule d\u2019aucune fa\u00e7on le principe de la responsabilit\u00e9 de se plier au R\u00e8glement sur la surveillance du pari mutuel et aux r\u00e8glements provinciaux sur les courses. Si ce n\u2019est d\u00e9j\u00e0 fait, assurez-vous de bien conna\u00eetre ces r\u00e8glements.</p>\n\n<p>Agriculture et Agroalimentaire Canada et les laboratoires officiels de contr\u00f4le des chevaux de courses d\u00e9clinent toute responsabilit\u00e9 advenant que l\u2019administration de drogues selon les quantit\u00e9s et les d\u00e9lais indiqu\u00e9s dans la pr\u00e9sente publication conduise \u00e0 une \u00e9preuve positive.</p>\n\r\n    "
    }
}