{
    "dcr_id": "1463577350901",
    "title": {
        "en": "Join the Agroclimate Impact Reporter Network",
        "fr": "R\u00e9seau de l'application Rapports sur les impacts agroclimatiques"
    },
    "modified": "2021-03-29",
    "issued": "2016-06-17",
    "templatetype": "content page 1 column",
    "page_type": "0",
    "node_id": "1463687311552",
    "dc_date_created": "2016-06-17",
    "managing_branch": "PAB",
    "parent_node_id": "",
    "short_title": "",
    "exturl": "",
    "teamsite_location": {
        "en": "/default/main/AAFC-AAC/Internet-Internet/Group-Ensemble/ProgServ-ProgServ/WORKAREA/ProgServ-ProgServ/templatedata/comm-comm/gene-gene/data/05/join_air_network_1463577350901_en",
        "fr": "/default/main/AAFC-AAC/Internet-Internet/Group-Ensemble/ProgServ-ProgServ/WORKAREA/ProgServ-ProgServ/templatedata/comm-comm/gene-gene/data/05/join_air_network_1463577350901_fr"
    },
    "type_name": "comm-comm/gene-gene",
    "has_dcr_id": true,
    "label": {
        "en": "Join the Agroclimate Impact Reporter Network",
        "fr": "R\u00e9seau de l'application Rapports sur les impacts agroclimatiques"
    },
    "breadcrumb": {
        "en": "Join the Agroclimate Impact Reporter Network",
        "fr": "R\u00e9seau de l'application Rapports sur les impacts agroclimatiques"
    },
    "layout_name": "content page 1 column",
    "lang": "en",
    "refaire": false,
    "meta": {
        "viewport": {
            "en": "width=device-width,initial-scale=1",
            "fr": "width=device-width, initial-scale=1"
        },
        "issued": {
            "en": "2016-06-17",
            "fr": "2016-06-17"
        },
        "modified": {
            "en": "2021-03-29",
            "fr": "2021-03-29"
        },
        "format": {
            "en": "text/html",
            "fr": "text/html"
        },
        "title": {
            "en": "Join the Agroclimate Impact Reporter Network",
            "fr": "R\u00e9seau de l'application Rapports sur les impacts agroclimatiques"
        },
        "subject": {
            "en": "technology transfer;innovation;soil assessement",
            "fr": "d\u00e9veloppement communautaire;eau souterraine;pommes de terre-producteurs"
        },
        "dcterms:subject": {
            "en": "statistics;geomatics;agriculture",
            "fr": "changement climatique;d\u00e9veloppement communautaire;engrais"
        },
        "description": {
            "en": "DW-GS Drought Watch air_join_the_network Join the Agroclimate Impact Reporter Network. Subscribed users answer short, monthly surveys anonymously. The information is only linked to a location so it is not necessary to create a profile.Subscribe Now. Already a registered user?Click here to login. .\u00a0. Please note, by becoming an AIR volunteer you will recieve notifications regarding the Agroclimate Impact Reporter.\u00a0.",
            "fr": "DW-GS Guetter la s\u00e9cheresse R\u00e9seau de l\u2019application Rapports sur les impacts agroclimatiques. Les donn\u00e9es ne sont li\u00e9es qu\u2019au lieu; il n\u2019est donc pas n\u00e9cessaire de cr\u00e9er un profil.\u00a0. Abonnez-Vous maintenant. Alors,cliquez. ici. pour ouvrir une session."
        },
        "language": {
            "en": "eng",
            "fr": "fra"
        },
        "keywords": {
            "en": "anomalies.Become;airjointhenetwork;prize draws.Register",
            "fr": "Lutilisateur;Labonn\u00e9;Abonnez-Vous"
        },
        "audience": {
            "en": "gcaudience",
            "fr": "gcaudience"
        },
        "type": {
            "en": "sound",
            "fr": "page administrative"
        },
        "creator": {
            "en": "Agriculture and Agri-Food Canada;Government of Canada",
            "fr": "Agriculture et Agroalimentaire Canada;Gouvernement du Canada"
        },
        "spatial": {
            "en": "gcregions",
            "fr": "gcregions"
        },
        "service": {
            "en": "AAFC-AAC",
            "fr": "AAFC-AAC"
        },
        "accessRights": {
            "en": "2",
            "fr": "2"
        },
        "legalName": {
            "en": "agriculture_and_agri_food_canada",
            "fr": "agriculture_et_agroalimentaire_canada"
        },
        "areaServed": {
            "en": "Canada",
            "fr": "Canada"
        }
    },
    "h1": {
        "en": "Join the Agroclimate Impact Reporter Network",
        "fr": "R\u00e9seau de l'application Rapports sur les impacts agroclimatiques"
    },
    "js": {
        "en": "",
        "fr": ""
    },
    "body": {
        "en": "\r\n    <h2>Why join Agroclimate Impact Reporter</h2>\n\n<p>The Agroclimate Impact  Reporter (AIR) helps to connect Agriculture and Agri-Food Canada (AAFC) with  people in Canada's agricultural community. AAFC relies on its network of AIR  volunteers to provide information regarding agroclimate impacts across the  country.</p>\n\n<p>The AIR network provides  valuable and reliable data that are mapped and used in the assessment and  development of policies and programs including AgriRecovery and the Livestock  Tax Deferral Provision, which can provide assistance to the industry during  extreme weather and climate conditions and events.</p>\n\n<p>The AIR network is an  ever-growing database of agroclimate impacts, which enables better data  analysis to help identify trends and anomalies.</p>\n\n<h3>Become a subscribed user</h3>\n\n<p>Subscribed users answer short, monthly surveys anonymously. The information is only linked to a location so it is not necessary to create a profile. As an AIR volunteer you will receive email notifications regarding the Agroclimate Impact Reporter</p>\n\n<p><a class=\"btn btn-primary\" href=\"http://www.agr.gc.ca/ESS-SAC/sub-abon.do?lang=eng&amp;id=1429884452980\">Subscribe now</a></p>\n\n<h3>Submit an Impact Report</h3>\n\n<p>Provide a report on late-breaking, one time or interim impacts.</p>\n\n<p><a class=\"btn btn-primary\" href=\"https://maps.canada.ca/survey/content-en.html?lang=en&amp;appid=82a5d2f51fd54dffaec413e2b980699f&amp;appidalt=c23423aac96b411ebe8196271838c975\">Submit Impacts</a></p>\n\r\n    ",
        "fr": "\r\n    <h2>Pourquoi s'abonner au syst\u00e8me des Rapports sur les impacts agroclimatiques?</h2>\n\n<p>Le syst\u00e8me des Rapports sur les impacts agroclimatiques (RIA) permet la  communication entre Agriculture et Agroalimentaire Canada (AAC) et le milieu  agricole du Canada. AAC se fie \u00e0 son r\u00e9seau de b\u00e9n\u00e9voles du syst\u00e8me de RIA pour  obtenir des donn\u00e9es sur les impacts agroclimatiques partout au pays.</p>\n\n<p>Le r\u00e9seau des RIA fournit des donn\u00e9es pr\u00e9cieuses et fiables qui sont  cartographi\u00e9es et utilis\u00e9es dans l'\u00e9valuation et l'\u00e9laboration de politiques et  de programmes, dont Agri-relance et la Disposition de report de l'imp\u00f4t pour  les \u00e9leveurs, ce qui peut aider l'industrie lors de conditions et ph\u00e9nom\u00e8nes  climatiques et m\u00e9t\u00e9orologiques extr\u00eames.</p>\n\n<p>Le r\u00e9seau des RIA est une base de donn\u00e9es grandissante sur les impacts  agroclimatiques qui permet de mieux analyser les donn\u00e9es pour relever les  tendances et les anomalies.</p>\n\n<h3>S'abonner</h3>\n\n<p>L'abonn\u00e9 r\u00e9pond de fa\u00e7on anonyme \u00e0 de courts sondages mensuels. Les donn\u00e9es ne sont li\u00e9es qu'au lieu; il n'est donc pas n\u00e9cessaire de cr\u00e9er un profil. En devenant un b\u00e9n\u00e9vole, vous recevrez des avis concernant le syst\u00e8me des Rapports sur les impacts agroclimatiques.</p>\n\n<p><a class=\"btn btn-primary\" href=\"http://www.agr.gc.ca/ESS-SAC/sub-abon.do?lang=fra&amp;id=1429884452980\">Inscrivez-vous d\u00e9s maintenant</a></p>\n\n<h3>Transmettez un rapport sur les impacts</h3>\n\n<p>Fournissez un rapport sur les impacts de derni\u00e8re  heure, ponctuels ou temporaires.</p>\n\n<p><a class=\"btn btn-primary\" href=\"https://maps.canada.ca/survey/content-fr.html?lang=fr&amp;appid=c23423aac96b411ebe8196271838c975&amp;appidalt=82a5d2f51fd54dffaec413e2b980699f\">Soumettre impacts</a></p>\n\n\r\n    "
    }
}