{
    "dcr_id": "1491493049051",
    "title": {
        "en": "Indigenous Student Recruitment  Initiative",
        "fr": "Initiative de recrutement d'\u00e9tudiants autochtones"
    },
    "modified": "2018-12-04",
    "issued": "2017-04-19",
    "templatetype": "content page 1 column",
    "page_type": "0",
    "node_id": "1354137774061",
    "dc_date_created": "2017-04-19",
    "managing_branch": "PAB",
    "parent_node_id": "",
    "short_title": "",
    "exturl": "",
    "teamsite_location": {
        "en": "/default/main/AAFC-AAC/Internet-Internet/CCB-DGCC/WORKAREA/CCB-DGCC/templatedata/comm-comm/gene-gene/data/opportunities_isra-irea_1491493049051_en",
        "fr": "/default/main/AAFC-AAC/Internet-Internet/CCB-DGCC/WORKAREA/CCB-DGCC/templatedata/comm-comm/gene-gene/data/opportunities_isra-irea_1491493049051_fr"
    },
    "type_name": "comm-comm/gene-gene",
    "has_dcr_id": true,
    "label": {
        "en": "Indigenous Student Recruitment  Initiative",
        "fr": "Initiative de recrutement d'\u00e9tudiants autochtones"
    },
    "breadcrumb": {
        "en": "Indigenous Student Recruitment  Initiative",
        "fr": "Initiative de recrutement d'\u00e9tudiants autochtones"
    },
    "layout_name": "content page 1 column",
    "lang": "en",
    "refaire": false,
    "meta": {
        "viewport": {
            "en": "width=device-width,initial-scale=1",
            "fr": "width=device-width, initial-scale=1"
        },
        "issued": {
            "en": "2017-04-19",
            "fr": "2017-04-19"
        },
        "modified": {
            "en": "2018-12-04",
            "fr": "2018-12-04"
        },
        "format": {
            "en": "gcformat",
            "fr": "gcformat"
        },
        "title": {
            "en": "Indigenous Student Recruitment  Initiative",
            "fr": "Initiative de recrutement d'\u00e9tudiants autochtones"
        },
        "subject": {
            "en": "poultry processing;potato growers;rural communities",
            "fr": "produits avicoles;volailles-transformation;n\u00e9gociations commerciales"
        },
        "dcterms:subject": {
            "en": "architecture;sustainable development;rural communities",
            "fr": "m\u00e9dicament;\u00e9conomie agricole;cultures"
        },
        "description": {
            "en": "Alternate formats. Blueprint 2020: A world-class Public Service equipped to serve Canada and Canadians, now and in the future.Renewal at Agriculture and Agri-Food Canada. The \"create time and space\" features serve as suggestions for all of us to make room to nurture the relationships we have with one another. [Upbeat, vibrant and uplifting music rises.]. [A colourful flash reveals a male Agriculture and Agri-Food Canada employee smiling to camera.]. [Cut to a female employee laughing and smiling at something off screen.]. Female employee: We are agriculture and Agri-Food Canada.[Upbeat, vibrant and uplifting music continues.]. [Cut to a close up shot of a male employee wearing a suit and tie.",
            "fr": "Vous pouvez parcourir notre liste alphab\u00e9tique ci-dessous ou obtenir des renseignements sur les. Les initiatives d'Agri-relance visent \u00e0 aider les producteurs \u00e0 assumer les co\u00fbts exceptionnels rattach\u00e9s \u00e0 la reprise de leurs activit\u00e9s.Un producteur ne peut pr\u00e9senter sa demande d'aide directement \u00e0 Agri-relance : il doit plut\u00f4t demander l'aide offerte dans le cadre d'une initiative donn\u00e9e. Le site Web d'Agri-relance pr\u00e9sente la liste des initiatives en cours ainsi que des liens vers les pages de ces initiatives. Associations industrielles et organisations agricoles. Produits g\u00e9ospatiaux."
        },
        "language": {
            "en": "eng",
            "fr": "fra"
        },
        "keywords": {
            "en": "Enlist;Cards.Create;Alexandra",
            "fr": "biens.\u00c0 qui cela s adresse-t-il;b\u00e9n\u00e9ficiaire.\u00c0 qui cela s adresse-t-il;agriculture.\u00c0 qui cela s adresse-t-il"
        },
        "audience": {
            "en": "gcaudience",
            "fr": "gcaudience"
        },
        "type": {
            "en": "media release",
            "fr": "accord"
        },
        "creator": {
            "en": "Agriculture and Agri-Food Canada;Government of Canada",
            "fr": "Agriculture et Agroalimentaire Canada;Gouvernement du Canada"
        },
        "spatial": {
            "en": "gcregions",
            "fr": "gcregions"
        },
        "service": {
            "en": "AAFC-AAC",
            "fr": "AAFC-AAC"
        },
        "accessRights": {
            "en": "2",
            "fr": "2"
        },
        "legalName": {
            "en": "agriculture_and_agri_food_canada",
            "fr": "agriculture_et_agroalimentaire_canada"
        },
        "areaServed": {
            "en": "Canada",
            "fr": "Canada"
        }
    },
    "h1": {
        "en": "Indigenous Student Recruitment Initiative",
        "fr": "Initiative de recrutement d'\u00e9tudiants autochtones"
    },
    "js": {
        "en": "",
        "fr": ""
    },
    "body": {
        "en": "\r\n    <p>Agriculture  and Agri-Food Canada\u2019s (AAFC) Indigenous Student Recruitment Initiative offers  Indigenous students work experience that allows for personal growth while  contributing to the goals of the Department. Working in a team environment,  students can expand their knowledge and develop skills associated with science  and other professions within the federal public service.</p>\n\n<h2>Employment Opportunities</h2>\n\n<p>For summer  or full-time opportunities, students and graduates apply to <a href=\"https://www.canada.ca/en/public-service-commission/jobs/services/recruitment.html\">public service recruitment programs</a> including:</p>\n\n<ul>\n  <li><a href=\"https://www.canada.ca/en/public-service-commission/jobs/services/recruitment/students/federal-student-work-program.html\">Federal Student Work Experience  Program</a> (FSWEP), </li>\n  <li><a href=\"https://www.canada.ca/en/public-service-commission/jobs/services/recruitment/students/coop-internship.html\">Co-op/Internship Program</a>, </li>\n  <li><a href=\"https://www.canada.ca/en/public-service-commission/jobs/services/recruitment/students/research-affiliate-program.html\">Research Affiliate Program</a></li>\n</ul>\n\n<h2>Elder Support</h2>\n\n<p>AAFC\u2019s  full-time Elder provides guidance and mentorship to Indigenous students. As the  primary liaison with Indigenous communities, the Elder is able to build  cultural awareness within the Department.</p>\n\n<h2>Diversity and Inclusion</h2>\n\n<p>AAFC is  committed to attracting, developing and retaining a diverse innovative and  high-performing workforce. Its diversity networks, composed of  employee volunteers, help the department continue to grow as an inclusive and  respectful workplace. By being inclusive, we recognize the value of diversity  and welcome the unique talents and experiences of all.</p>\n\n<p>These inclusiveness-based groups are open to all  employees. Students are welcome to participate in activities organized by the Networks,  which include:</p>\n\n<ul>\n<li>Indigenous Network Circle</li>\n<li>Gender and Sexual Diversity Inclusiveness Network</li>\n<li>Persons with Disabilities Network</li>\n<li>Visible Minorities Network</li>\n<li>Women in Science Network</li>\n<li>Young Professionals Network</li>\n</ul>\n\n\n<div class=\"row wb-eqht\">\n  <div class=\"col-md-6\">\n  <h3 class=\"h4\">Opportunities for Indigenous Students</h3>\n<p>Watch as several Indigenous students share their experiences working at Agriculture and Agri-Food Canada, in positions acquired through the Federal Student Work Experience Program.</p>\n</div>\n<div class=\"col-md-6\">\n<h3 class=\"h4\">Opportunities for Indigenous Employees</h3>\n<p>Watch  as Indigenous employees of Agriculture and Agri-Food Canada describe the  benefits of working for the Department.</p>\n</div>\n</div>\n\n<div class=\"row wb-eqht\">\n  <div class=\"col-md-6\">\n<figure class=\"wb-mltmd\" data-wb-mltmd='{\"shareUrl\": \"https://www.youtube.com/watch?v=kU73_ALfaTM\"}'>\n <video title=\"Opportunities for Indigenous Students\">\n <source type=\"video/youtube\" src=\"https://www.youtube.com/watch?v=kU73_ALfaTM\"></source>\n </video>\n <figcaption class=\"mrgn-tp-md\">\n <details id=\"inline-captions\">\n <summary>Video transcript</summary>\n <p><i>[Light electronic music fades up.]</i></p>\n <p><i>[Two workers are pruning apple trees in an  orchard.  The title of the video appears  over this image.]</i></p>\n <p>Text on  screen:  Opportunities For Indigenous  Youth, Agriculture and Agri-Food Canada</p>\n <p><i>[The video cuts to an image of Sterling-Rae  King.  She is standing against a black  background and is speaking slightly off camera.]</i></p>\n <p>Sterling-Rae  King:  My name is Sterling-Rae and I'm  from the BC Metis Nation.</p>\n <p><i>[The video cuts to an image of Alexandra  Freedman. She is standing against a  black background and is speaking slightly off camera.]</i></p>\n <p>Alexandra  Freedman: My name is Ali and I am Metis.</p>\n <p><i>[The video cuts to an image of Kaylie  Atkinson.  She is standing against a  black background and is speaking slightly off camera.]</i></p>\n <p>Kaylie Atkinson:  My name is Kaylie Atkinson and I am First  Nations status.</p>\n <p><i>[The video cuts to an image of Brayden  Jones.  He is standing against a black  background and is speaking slightly off camera.]</i></p>\n <p>Brayden  Jones:  My name is Brayden Jones and I am  Metis.</p>\n <p><i>[Cut back to Sterling-Rae King.]</i></p>\n <p>Sterling-Rae  King:  What attracted me to work with  Agriculture and Agri-Food Canada...</p>\n <p><i>[Cut to a shot of Sterling-Rae taking  readings in a vineyard.]</i></p>\n <p>...was that  it was the perfect opportunity to be able to continue my learning throughout  the summer in an out of classroom setting.</p>\n <p><i>[Cut back to Alexandra Freedman.]</i></p>\n <p>Alexandra  Freedman:  I applied through the FSWEP  program and I self-identified as indigenous.   When I first got the job I didn't really know what agriculture was.  I just thought it was dealing with cows and  pigs.</p>\n <p><i>[Cut to a shot of Brayden Jones working in a  lab.]</i></p>\n <p>Kaylie  Atkinson:  You're doing hands on stuff  everyday so it's definitely something you're going to use in the future.</p>\n <p><i>[Cut back to Kaylie Atkinson.]</i></p>\n <p>I've learned  a lot so far.</p>\n <p><i>[Cut back to Brayden Jones.]</i></p>\n <p>Brayden  Jones:  I'm a first year student just  coming out of university and I'm working right beside a researcher.</p>\n <p><i>[Cut back to Sterling-Rae King.]</i></p>\n <p>Sterling-Rae  King:  I think the most surprising thing  about working here is being able to see all the different jobs that Agriculture  and Agri-Food Canada offers.</p>\n <p><i>[Cut to a series of shots showing the  different types of work available through AAFC.]</i></p>\n <p>There's more  than just the science and research part of this and all the other jobs coming  in.</p>\n <p><i>[Cut to a shot of an employee walking up to  the front doors of the Summerland Research and Development Centre.]</i></p>\n <p>Alexandra  Freedman:  I would definitely recommend  getting into the government.</p>\n <p><i>[Cut back to Alexandra Freedman.]</i></p>\n <p>I think now  more than ever, if you're given the chance, or if you're able to put yourself  out there and make a name for yourself and make a name for indigenous youth,  and in general just indigenous people in the government of Canada, that's a  major thing.</p>\n <p><i>[Cut back to Kaylie Atkinson.]</i></p>\n <p>Kaylie  Atkinson:  Being an indigenous woman, I  think it's so important for other indigenous youth to work in the government.</p>\n <p><i>[Cut back to Alexandra Freedman.]</i></p>\n <p>Alexandra  Freedman:  There's tons of jobs out there  especially if you're indigenous.  It  truly is a rewarding experience and it looks great on a resume as well.</p>\n <p><i>[Cut back to Brayden Jones.]</i></p>\n <p>Brayden  Jones:  It seems like just yesterday that  I started.  I can't believe how much I've  grown this summer.</p>\n <p><i>[Cut back to a shot of Sterling-Rae King  working in a vineyard.]</i></p>\n <p>Sterling-Rae  King:  I really like working for the  government.  I think it's a great  opportunity.</p>\n <p><i>[Cut back to Sterling-Rae King.]</i></p>\n <p>I would  definitely recommend it.</p>\n <p><i>[Cut back to Kaylie Atkinson.]</i></p>\n <p>Kaylie  Atkinson:  I definitely would recommend  it.</p>\n <p><i>[Cut back to Brayden Jones.]</i></p>\n <p>Brayden  Jones:  The more people that are able to  get involved with it, the better.</p>\n <p><i>[Cut back to Alexandra Freedman.]</i></p>\n <p>Alexandra  Freedman:  There's so much that this  department deals with, there's so much science, and so much thought that goes  behind everything about agriculture. It's a great learning experience.</p>\n <p><i>[Fade to black.]</i></p>\n <p><i>[Fade up from black.]</i></p>\n <p>Text on  screen:  For more information contact  AAFC's Elder, Mervin Traverse at mervin.traverse@canada.ca</p>\n <p><i>[The Canada wordmark appears on  the screen with an animated Canadian flag over the last letter of the word.]</i></p>\n <p>Text on screen:  Canada</p>\n <p><i>[Black text appears under the  Canada wordmark.]</i></p>\n <p>Text on screen:  \u00a9 Her  Majesty the Queen in the Right of Canada, represented by Agriculture and  Agri-Food Canada (2016).</p>\n <p><i>[Light electronic music fades  out.]</i></p>\n <p><i>[Fade to white.]</i></p>\n </details>\n </figcaption>\n </figure>\n </div>\n\n\n<div class=\"col-md-6\">\n<figure class=\"wb-mltmd\" data-wb-mltmd='{\"shareUrl\": \"https://www.youtube.com/watch?v=MFOyfgP8a3w\"}'>\n <video title=\"Opportunities for Indigenous Employees\">\n <source type=\"video/youtube\" src=\"https://www.youtube.com/watch?v=MFOyfgP8a3w\"></source>\n </video>\n <figcaption class=\"mrgn-tp-md\">\n <details id=\"inline-captions2\">\n <summary>Video transcript</summary>\n <p><i>[Light electronic music fades up.]</i></p>\n <p><i>[A truck is driving through a vineyard.  The title of the video appears over this  image.]</i></p>\n <p>Text on  screen:  Opportunities For Indigenous  Employees, Agriculture and Agri-Food Canada</p>\n <p><i>[The video cuts to an image of Angelene  Giesbrecht.  She is standing against a  black background and is speaking slightly off camera.]</i></p>\n <p>Angelene  Geisbrecht: My name is Angelene Giesbrecht.   Cree and Ojibwe are my heritage.</p>\n <p><i>[The video cuts to an image of Jackie  Mason.  She is standing against a black  background and is speaking slightly off camera.]</i></p>\n <p>Jackie  Mason:  My name is Jackie Mason.  I'm Metis.</p>\n <p><i>[The video cuts to an image of Erle  Einarsson.  He is standing against a  black background and is speaking slightly off camera.]</i></p>\n <p>Erle Einarsson:  My name is Erle Einarsson.  I am Ojibwe.</p>\n <p><i>[The video cuts to an image of Darren  Cook.  He is standing against a black  background and is speaking slightly off camera.]</i></p>\n <p>Darren  Cook:  My name is Darren Cook.  I am a quiet, shy Mohawk.</p>\n <p><i>[The video cuts to an image of Tony  Savard.  He is standing against a black  background and is speaking slightly off camera.]</i></p>\n <p>Tony  Savard:  I am Tony Savard.  And I am also an indigenous person.</p>\n <p><i>[Light electronic music continues.]</i></p>\n <p><i>[Cut back to the shot of Erle Einarsson.]</i></p>\n <p>Erle  Einarsson:  We are a nature-based people.</p>\n <p><i>[Cut to a shot of an indigenous student  working in a vineyard.]</i></p>\n <p>Agriculture  is also a nature-based industry.</p>\n <p><i>[Cut to a close up of the indigenous student  using high tech equipment.]</i></p>\n <p><i>[Cut back to the shot of Erle Einarsson.]</i></p>\n <p>We need to  get more of our young people, well not just our young people but all of our  people more involved.</p>\n <p><i>[Cut back to the shot of Angelene  Giesbrecht.]</i></p>\n <p>Angelene  Giesbrecht:  There are areas that are  maybe under represented from the indigenous community.</p>\n <p><i>[Cut back to the shot of Jackie Mason.]</i></p>\n <p>Jackie  Mason:  Indigenous people are the people  of the land.</p>\n <p><i>[Cut to a shot of two workers pruning apple  trees in an orchard.]</i></p>\n <p>They  respected their environments.</p>\n <p><i>[Cut to a series of shots of freshly grown  produce.]</i></p>\n <p>They  respected the wildlife.  That's the  spirit and those are the ideas that we need...</p>\n <p><i>[Cut back to the shot of Jackie Mason.]</i></p>\n <p>...when  we're thinking about innovation, when we're thinking about what we need going  forward.</p>\n <p><i>[Light electronic music continues.]</i></p>\n <p><i>[Cut back to the shot of Tony Savard.]</i></p>\n <p>Tony  Savard:  It's important to bring this  knowledge, this strength, back to the department.</p>\n <p><i>[Cut to a shot of an indigenous student  taking reading in a vineyard.]</i></p>\n <p>Jackie  Mason:  There's also fresh ideas, fresh  ways of thinking of things.</p>\n <p><i>[Cut to a series of shots of an indigenous  student working in a lab.]</i></p>\n <p>It's great  to have that youth perspective.</p>\n <p><i>[Cut back to the shot of Angelene  Giesbrecht.]</i></p>\n <p>Angelene  Giesbrecht:  They are needed in the  government.</p>\n <p><i>[Cut back to the shot of Darren Cook.]</i></p>\n <p>Darren  Cook:  To me they're the future.  The represent the future.</p>\n <p><i>[Light electronic music continues.]</i></p>\n <p><i>[Cut back to the shot of Tony Savard.]</i></p>\n <p>Tony  Savard:  It's also important for them to  consider Agriculture and Agri-Food Canada as an employer of choice.</p>\n <p><i>[Cut back to the shot of Jackie Mason.]</i></p>\n <p>Jackie  Mason:  I see AAFC as a department that  cares.</p>\n <p><i>[Cut to a shot of Jackie Mason working at her  computer.]</i></p>\n <p>They want to  embrace us as a culture and as a people.</p>\n <p><i>[Cut back to the shot of Darren Cook.]</i></p>\n <p>Darren  Cook:  It's the type of department that  allows you to have many opportunities.</p>\n <p><i>[Cut to a series of shots showing lab work,  field work, office work, etc.]</i></p>\n <p>If you don't  like this job you can always try another job.   Within Ottawa or across the country.</p>\n <p><i>[Cut to an aerial view of one of the AAFC  greenhouses.]</i></p>\n <p><i>[Cut to an image of an AAFC truck driving  through a field.]</i></p>\n <p><i>[Cut to an image of Angelene Giesbrecht  working at her computer.]</i></p>\n <p>Angelene  Giesbrecht:  There are plenty of opportunities  in areas, not only just in science or just in the agriculture research part of  it.</p>\n <p><i>[Cut back to the shot of Erle Einarsson.]</i></p>\n <p>Erle  Einarsson:  If you like working with  people...</p>\n <p><i>[Cut to a shot of an employee walking up to  the doors of the Summerland Research and Development Centre.]</i></p>\n <p>...this is a  good place to be.</p>\n <p><i>[Cut to a shot of Erle Einarsson at his desk,  smiling.]</i></p>\n <p><i>[Cut back to the shot of Erle Einarsson.]</i></p>\n <p>It gives us  a way to expand our community.</p>\n <p><i>[Light electronic music continues.]</i></p>\n <p><i>[Cut back to the shot of Darren Cook.]</i></p>\n <p>Darren  Cook:  The federal government offers a  great opportunity, career-wise.  I  started at the very bottom and ended up as a Director.  To me, the whole journey was great.</p>\n <p><i>[Fade to black.]</i></p>\n <p><i>[Fade up from black.]</i></p>\n <p>Text on  screen:  For more information contact  AAFC's Elder, Mervin Traverse at mervin.traverse@canada.ca</p>\n <p><i>[The Canada wordmark appears on  the screen with an animated Canadian flag over the last letter of the word.]</i></p>\n <p><i>Text on screen:  Canada</i></p>\n <p><i>[Black text appears under the  Canada wordmark.]</i></p>\n <p>Text on screen:  \u00a9 Her  Majesty the Queen in the Right of Canada, represented by Agriculture and  Agri-Food Canada (2016).</p>\n <p><i>[Light electronic music fades  out.]</i></p>\n <p><i>[Fade  to white.]</i></p></details>\n </figcaption>\n </figure>\n </div>\n</div> \n \n <h2>Contact Us</h2>\n <p class=\"mrgn-tp-lg\">For  more information on AAFC\u2019s Indigenous Student Recruitment Initiative, contact:</p>\n <p>Indigenous Student Recruitment Initiative<br>\n<a href=\"mailto:aafc.isri-irea.aac@canada.ca\">aafc.isri-irea.aac@canada.ca</a></p>\n \n\n\n\r\n    ",
        "fr": "\r\n    <p>Gr\u00e2ce \u00e0 l'Initiative de recrutement d'\u00e9tudiants autochtones, Agriculture et Agroalimentaire Canada (AAC) offre aux \u00e9tudiants autochtones des exp\u00e9riences de travail qui favorisent la croissance personnelle tout en contribuant \u00e0 l'atteinte de ses objectifs. Travaillant au sein d'\u00e9quipes, les \u00e9tudiants approfondissent leurs connaissances et acqui\u00e8rent des comp\u00e9tences propres aux professions scientifiques et autres \u00e0 la fonction publique f\u00e9d\u00e9rale. </p>\n\n<h2>Possibilit\u00e9s d'emploi</h2>\n\n<p>Pour obtenir un emploi d\u2019\u00e9t\u00e9 ou un emploi \u00e0 plein  temps, les \u00e9tudiants et les dipl\u00f4m\u00e9s peuvent pr\u00e9senter une demande \u00e0 l\u2019un des <a href=\"https://www.canada.ca/fr/commission-fonction-publique/emplois/services/recrutement.html\">programmes  de recrutement de la fonction publique</a>\u00a0:</p>\n<ul>\n  <li><a href=\"https://www.canada.ca/fr/commission-fonction-publique/emplois/services/recrutement/etudiants/programme-federal-experience-travail-etudiant.html\">Programme  f\u00e9d\u00e9ral d\u2019exp\u00e9rience de travail \u00e9tudiant</a> (PFETE);</li>\n  <li><a href=\"https://www.canada.ca/fr/commission-fonction-publique/emplois/services/recrutement/etudiants/coop.html\">Programme  d\u2019enseignement coop\u00e9ratif/d\u2019internat</a>;</li>\n  <li><a href=\"https://www.canada.ca/fr/commission-fonction-publique/emplois/services/recrutement/etudiants/programme-adjoints-recherche.html\">Programme  des adjoints de recherche</a></li>\n</ul>\n\n<h2>Soutien de l'a\u00een\u00e9 d'Agriculture et Agroalimentaire Canada</h2>\n\n<p>L'a\u00een\u00e9 au service d'AAC \u00e0 plein temps fournit des conseils et un encadrement aux \u00e9tudiants autochtones. Comme il assure la liaison avec les communaut\u00e9s autochtones, l'a\u00een\u00e9 est en mesure d'accro\u00eetre le niveau de sensibilisation culturelle au Minist\u00e8re.</p>\n\n<h2>Diversit\u00e9 et inclusion</h2>\n\n<p>AAC est d\u00e9termin\u00e9 \u00e0 attirer, \u00e0 former et \u00e0 maintenir  en poste un effectif diversifi\u00e9, innovateur et donnant un rendement \u00e9lev\u00e9.  Form\u00e9s d\u2019employ\u00e9s volontaires, les r\u00e9seaux de la diversit\u00e9 du Minist\u00e8re  contribuent \u00e0 la cr\u00e9ation d\u2019un milieu de travail inclusif et respectueux. En  \u00e9tant inclusifs, nous reconnaissons la valeur de la diversit\u00e9, de m\u00eame que les  talents et les exp\u00e9riences uniques de tout le monde.</p>\n\n<p>Les r\u00e9seaux de la diversit\u00e9 sont ouverts \u00e0 tous les  employ\u00e9s. Les \u00e9tudiants peuvent participer aux activit\u00e9s organis\u00e9es par les  diff\u00e9rents r\u00e9seaux\u00a0:</p>\n<ul>\n  <li>Cercle de r\u00e9seautage des employ\u00e9s  autochtones; </li>\n  <li>R\u00e9seau de l\u2019inclusivit\u00e9 et de la diversit\u00e9 des genres et de la sexualit\u00e9;</li>\n  <li>R\u00e9seau des personnes handicap\u00e9es;</li>\n  <li>R\u00e9seau des minorit\u00e9s visibles;</li>\n  <li>R\u00e9seaux des femmes en science;</li>\n  <li>R\u00e9seau des jeunes professionnels.</li>\n</ul>\n\n\n<div class=\"row wb-eqht\">\n  <div class=\"col-md-6\">\n  <h3 class=\"h4\">Possibilit\u00e9s pour les \u00e9tudiants autochtones</h3>\n\n<p>Plusieurs \u00e9tudiants autochtones parlent de l'exp\u00e9rience qu'ils ont acquise \u00e0 Agriculture et Agroalimentaire Canada dans des postes du Programme f\u00e9d\u00e9ral d'exp\u00e9rience de travail \u00e9tudiant.</p>\n</div>\n\n  <div class=\"col-md-6\">\n  <h3 class=\"h4\">Possibilit\u00e9s pour les employ\u00e9s autochtones</h3>\n  <p>Des employ\u00e9s autochtones d'Agriculture et Agroalimentaire Canada parlent des avantages qu'il y a \u00e0 travailler pour le Minist\u00e8re.</p>\n  </div>\n  </div>\n\n  \n<div class=\"row mrgn-tp-lg\">\n  <div class=\"col-md-6\">\n<figure class=\"wb-mltmd\" data-wb-mltmd='{\"shareUrl\": \"https://www.youtube.com/watch?v=5C-UuvHRajU\"}'>\n <video title=\"Possibilit\u00e9s d'emploi pour les \u00e9tudiants Autochtones\">\n <source type=\"video/youtube\" src=\"https://www.youtube.com/watch?v=5C-UuvHRajU\"></source>\n </video>\n <figcaption class=\"mrgn-tp-md\">\n <details id=\"inline-captions\">\n <summary>Transcription de la vid\u00e9o</summary>\n <p><i>[Une douce musique  \u00e9lectronique devient de plus en plus forte.]</i></p>\n <p><i>[Deux travailleurs  taillent des pommiers dans un verger. Le titre de la vid\u00e9o appara\u00eet sur l'image.]</i></p>\n <p>Texte \u00e0 l'\u00e9cran:  Possibilit\u00e9s  d'emploi pour les jeunes autochtones, Agriculture et Agroalimentaire Canada</p>\n <p><i>[La vid\u00e9o montre une  image de Sterling-Rae King. Elle se tient devant un arri\u00e8re-plan noir et elle  ne s'adresse pas directement \u00e0 la cam\u00e9ra.]</i></p>\n <p>Sterling-Rae King:  Je m'appelle  Stirling Ray et je viens de la Nation m\u00e9tisse de la Colombie-Britannique.</p>\n <p><i>[La vid\u00e9o montre une  image d'Alexandra Freedman. Elle se tient devant un arri\u00e8re-plan noir et elle  ne s'adresse pas directement \u00e0 la cam\u00e9ra.]</i></p>\n <p>Alexandra Freedman: Je m'appelle Alie et je suis M\u00e9tis.</p>\n <p><i>[La vid\u00e9o montre une  image de Kaylie Atkinson. Elle se tient devant un arri\u00e8re-plan noir et elle ne  s'adresse pas directement \u00e0 la cam\u00e9ra.]</i></p>\n <p>Kaylie Atkinson:  Je m'appelle  Kelly Atkinson. J'ai le statut d'Indien inscrit des Premi\u00e8res nations.</p>\n <p><i>[La vid\u00e9o montre une  image de Brayden Jones. Il se tient devant un arri\u00e8re-plan noir et il ne  s'adresse pas directement \u00e0 la cam\u00e9ra.]</i></p>\n <p>Brayden Jones:  Mon nom est Brayden  Jones et je suis M\u00e9tis.</p>\n <p><i>[Retour \u00e0 un plan de Sterling-Rae  King.]</i></p>\n <p>Sterling-Rae King:  Ce qui m'a  attir\u00e9 vers un emploi \u00e0 Agriculture et Agroalimentaire Canada...</p>\n <p><i>[Plan de Sterling-Rae  qui prend des lectures dans un vignoble.]</i></p>\n <p>... c'est que c'\u00e9tait l'occasion id\u00e9ale de continuer mon apprentissage  pendant l'\u00e9t\u00e9 en dehors d'un contexte de salle de classe.</p>\n <p><i>[Retour \u00e0 un plan d'Alexandra  Freedman.]</i></p>\n <p>Alexandra Freedman:  J'ai fait une  demande au Programme f\u00e9d\u00e9ral d'exp\u00e9rience de travail \u00e9tudiant et je me suis  identifi\u00e9e comme autochtone. Quand j'ai eu le poste, je ne savais pas vraiment  ce qu'\u00e9tait l'agriculture. Je pensais que c'\u00e9tait simplement \u00e9lever des vaches  et des cochons.</p>\n <p><i>[Plan de Brayden  Jones travaillant dans un laboratoire.]</i></p>\n <p>Kaylie Atkinson:  Tous les jours,  il y a des travaux pratiques. C'est assur\u00e9ment quelque chose qui va me servir \u00e0  l'avenir.</p>\n <p><i>[Retour \u00e0 un plan de Kaylie  Atkinson.]</i></p>\n <p>J'ai beaucoup appris jusqu'\u00e0 pr\u00e9sent.</p>\n <p><i>[Retour \u00e0 un plan de Brayden  Jones.]</i></p>\n <p>Brayden Jones:  Je suis \u00e9tudiant  de premi\u00e8re ann\u00e9e \u00e0 l'universit\u00e9 et je travaille aux c\u00f4t\u00e9s d'un chercheur.</p>\n <p><i>[Retour \u00e0 un plan de Sterling-Rae  King.]</i></p>\n <p>Sterling-Rae King:  Je pense que  ce qui est le plus surprenant en travaillant ici, c'est de voir tous les  diff\u00e9rents emplois qu'Agriculture et Agroalimentaire Canada peut offrir.</p>\n <p><i>[S\u00e9rie de plans  montrant diff\u00e9rents types de travail effectu\u00e9 \u00e0 AAC.]</i></p>\n <p>Il y a beaucoup plus que la science et la recherche, il y a aussi tous  les emplois connexes.</p>\n <p><i>[Plan d'un employ\u00e9  qui s'approche des portes du Centre de recherche et de d\u00e9veloppement de  Summerland.]</i></p>\n <p>Alexandra Freedman:  Je  recommanderais certainement \u00e0 d'autres de travailler pour le gouvernement.</p>\n <p><i>[Retour \u00e0 un plan d'Alexandra  Freedman.]</i></p>\n <p>Je pense que maintenant, plus que jamais, si tu as la chance de faire un  nom et de faire ta marque comme jeune autochtone et aussi de mani\u00e8re plus  g\u00e9n\u00e9rale comme membre des Premi\u00e8res nations au sein du gouvernement du Canada,  c'est vraiment une r\u00e9alisation importante.</p>\n <p><i>[Retour \u00e0 un plan de  Kaylie Atkinson.]</i></p>\n <p>Kaylie Atkinson:  Comme femme  autochtone, je pense qu'il est tr\u00e8s important que les autres jeunes autochtones  travaillent pour le gouvernement.</p>\n <p><i>[Retour \u00e0 un plan d'Alexandra  Freedman.]</i></p>\n <p>Alexandra Freedman:  Il y a des  tonnes d'emplois, et surtout si tu es autochtone, c'est vraiment une exp\u00e9rience  gratifiante et \u00e7a para\u00eet tr\u00e8s bien sur un CV aussi.</p>\n <p><i>[Retour \u00e0 un plan de Brayden  Jones.]</i></p>\n <p>Brayden Jones:  Il me semble que  c'\u00e9tait hier que j'ai commenc\u00e9, je n'en reviens pas de tout ce que j'ai appris  cet \u00e9t\u00e9.</p>\n <p><i>[Retour \u00e0 un plan de  Sterling-Rae King travaillant dans un vignoble.]</i></p>\n <p>Sterling-Rae King:  J'ai vraiment  aim\u00e9 travailler pour le gouvernement. Je crois que c'est une chance  incroyable...</p>\n <p><i>[Retour \u00e0 un plan de Sterling-Rae  King.]</i></p>\n <p>...et je le recommanderais certainement aux autres.</p>\n <p><i>[Retour \u00e0 un plan de Kaylie  Atkinson.]</i></p>\n <p>Kaylie Atkinson:  Oui, je le  recommanderais.</p>\n <p><i>[Retour \u00e0 un plan de Brayden  Jones.]</i></p>\n <p>Brayden Jones:  Plus nous serons  nombreux \u00e0 participer, le mieux ce sera.</p>\n <p><i>[Retour \u00e0 un plan d'Alexandra  Freedman.]</i></p>\n <p>Alexandra Freedman:  Ce minist\u00e8re  touche \u00e0 plusieurs domaines et il y a tellement de travail scientifique et de  r\u00e9flexion en coulisse de l'agriculture, c'est une exp\u00e9rience d'apprentissage  extraordinaire.</p>\n <p><i>[Fondu au noir.]</i></p>\n <p><i>[L'\u00e9cran  s'\u00e9claircit.]</i></p>\n <p>Texte \u00e0 l'\u00e9cran:  Pour plus  d'information, veuillez communiquer avec l'a\u00een\u00e9 d'AAC, Mervin Traverse, \u00e0 l'adresse  mervin.traverse@canada.ca</p>\n <p><i>[Le mot-symbole Canada s'affiche \u00e0 l'\u00e9cran avec un drapeau canadien qui  s'anime au\u2011dessus de la derni\u00e8re lettre du mot.]</i></p>\n <p>Texte \u00e0 l'\u00e9cran:  Canada</p>\n <p><i>[Un texte en noir s'affiche sous le mot-symbole Canada.]</i></p>\n <p>Texte \u00e0 l'\u00e9cran: \u00a9 Sa  Majest\u00e9 la Reine du Chef du Canada, repr\u00e9sent\u00e9e par le ministre de  l'Agriculture et de l'Agroalimentaire (2016).</p>\n <p><i>[La douce musique \u00e9lectronique s'att\u00e9nue progressivement.]</i></p>\n <p><i>[Fondu  au blanc.]</i></p></details>\n </figcaption>\n</figure>\n \n</div>\n\n<div class=\"col-md-6\">\n<figure class=\"wb-mltmd\" data-wb-mltmd='{\"shareUrl\": \"https://www.youtube.com/watch?v=M-h0saoT0ss\"}'>\n <video title=\"Possibilit\u00e9s d'emploi pour les Autochtones\">\n <source type=\"video/youtube\" src=\"https://www.youtube.com/watch?v=M-h0saoT0ss\"></source>\n </video>\n <figcaption class=\"mrgn-tp-md\">\n <details id=\"inline-captions2\">\n <summary>Transcription de la vid\u00e9o</summary>\n <p><i>[Une douce musique \u00e9lectronique devient de plus en plus forte.]</i></p>\n <p><i>[Un camion traverse un vignoble. Le titre de la vid\u00e9o appara\u00eet sur l'image.]</i></p>\n <p>Texte \u00e0 l'\u00e9cran\u00a0: Possibilit\u00e9s d'emploi pour les employ\u00e9s autochtones, Agriculture et Agroalimentaire Canada</p>\n <p><i>[La vid\u00e9o montre une image d'Angelene Giesbrecht. Elle se tient devant un arri\u00e8re-plan noir et elle ne s'adresse pas directement \u00e0 la cam\u00e9ra.]</i></p>\n <p>Angelene Geisbrecht\u00a0: Je m'appelle Angie Giesbrecht. Je suis d'origine crie et ojibway.</p>\n <p><i>[La vid\u00e9o montre une image de Jackie Mason. Elle se tient devant un arri\u00e8re-plan noir et elle ne s'adresse pas directement \u00e0 la cam\u00e9ra.]</i></p>\n <p>Jackie Mason\u00a0: Je m'appelle Jackie Mason. Je suis une M\u00e9tisse.</p>\n <p><i>[La vid\u00e9o montre une image d'Erle Einarsson. Il se tient devant un arri\u00e8re-plan noir et il ne s'adresse pas directement \u00e0 la cam\u00e9ra.]</i></p>\n <p>Erle Einarsson\u00a0: Je m'appelle Earl Einarsson. Je suis un Ojibway.</p>\n <p><i>[La vid\u00e9o montre une image de Darren Cook. Il se tient devant un arri\u00e8re-plan noir et il ne s'adresse pas directement \u00e0 la cam\u00e9ra.]</i></p>\n <p>Darren Cook\u00a0: Mon nom est Darren Cook. Je suis un Mohawk timide et discret.</p>\n <p><i>[La vid\u00e9o montre une image de Tony Savard. Il se tient devant un arri\u00e8re-plan noir et il ne s'adresse pas directement \u00e0 la cam\u00e9ra.]</i></p>\n <p>Tony Savard\u00a0: Je m'appelle Tony Savard et je suis un Autochtone.</p>\n <p>[<i>La douce musique \u00e9lectronique continue</i>.]</p>\n <p><i>[Retour \u00e0 un plan d'Erle Einarsson.]</i></p>\n <p>Erle Einarsson\u00a0: Notre peuple est ax\u00e9 sur la nature.</p>\n <p><i>[Plan d'une \u00e9tudiante autochtone qui travaille dans un vignoble.]</i></p>\n <p>L'agriculture est aussi une industrie centr\u00e9e sur la nature.</p>\n <p><i>[Plan serr\u00e9 d'une \u00e9tudiante autochtone qui utilise un \u00e9quipement de pointe.]</i></p>\n <p><i>[Retour \u00e0 un plan d'Erle Einarsson.]</i></p>\n <p>Nous avons besoin de plus de jeunes autochtones. En fait, pas juste des jeunes\u00a0: tous les Autochtones doivent contribuer davantage.</p>\n <p><i>[Retour \u00e0 un plan d'Angelene Giesbrecht.]</i></p>\n <p>Angelene Giesbrecht\u00a0: Il y a beaucoup de domaines dans lesquels les collectivit\u00e9s autochtones sont peut-\u00eatre sous-repr\u00e9sent\u00e9es.</p>\n <p><i>[Retour \u00e0 un plan de Jackie Mason.]</i></p>\n <p>Jackie Mason\u00a0: Le peuple autochtone, c'est le peuple de la terre.</p>\n <p><i>[Plan de deux travailleurs qui taillent des pommiers dans un verger.]</i></p>\n <p>Il respecte ses environnements et la faune.</p>\n <p><i>[S\u00e9rie de plans de produits cultiv\u00e9s.]</i></p>\n <p>C'est \u00e7a l'esprit. Ce sont ces id\u00e9es dont nous avons besoin...</p>\n <p><i>[Retour \u00e0 un plan de Jackie Mason.]</i></p>\n <p>... lorsque nous pensons \u00e0 l'innovation, \u00e0 ce qu'il nous faut pour aller de l'avant.</p>\n <p><i>[La douce musique \u00e9lectronique continue.]</i></p>\n <p><i>[Retour \u00e0 un plan de Tony Savard.]</i></p>\n <p>Tony Savard\u00a0: C'est important que le Minist\u00e8re r\u00e9cup\u00e8re ces connaissances et cette richesse.</p>\n <p><i>[Plan d'une \u00e9tudiante autochtone qui prend des lectures dans un vignoble.]</i></p>\n <p>Jackie Mason\u00a0: Il est question d'id\u00e9es et de fa\u00e7ons de penser nouvelles.</p>\n <p><i>[S\u00e9rie de plans d'un \u00e9tudiant autochtone qui travaille dans un laboratoire.]</i><br>\n  <br>\n  C'est bien d'avoir la perspective des jeunes.</p>\n <p>[<i>Retour \u00e0 un plan d'Angelene Giesbrecht</i>.]</p>\n <p>Angelene Giesbrecht\u00a0: On en a besoin au gouvernement.</p>\n <p><i>[Retour \u00e0 un plan de Darren Cook.]</i></p>\n <p>Darren Cook\u00a0: Pour moi, ils sont le futur. Ils repr\u00e9sentent l'avenir.</p>\n <p><i>[La douce musique \u00e9lectronique continue.]</i></p>\n <p><i>[Retour \u00e0 un plan de Tony Savard.]</i></p>\n <p>Tony Savard\u00a0: Il est \u00e9galement important pour eux de consid\u00e9rer Agriculture et Agroalimentaire Canada comme un employeur de choix.</p>\n <p><i>[Retour \u00e0 un plan de Jackie Mason.]</i></p>\n <p>Jackie Mason\u00a0: Agriculture et Agroalimentaire Canada est un minist\u00e8re bienveillant... </p>\n <p><i>[Plan de Jackie Mason qui travaille \u00e0 l'ordinateur.]</i></p>\n <p>...qui souhaite reconna\u00eetre notre culture et notre peuple. </p>\n <p><i>[Retour \u00e0 un plan de Darren Cook.]</i></p>\n <p>Darren Cook\u00a0: C'est le type de minist\u00e8res qui vous offrent de nombreuses possibilit\u00e9s d'emploi.</p>\n <p><i>[S\u00e9rie de plans montrant le travail de laboratoire, le travail dans les champs, le travail de bureau, etc.]</i></p>\n <p>Si vous n'aimez pas ce poste, vous pouvez toujours en essayer un autre \u00e0 Ottawa ou ailleurs au pays.</p>\n <p><i>[Vue a\u00e9rienne de l'une des serres d'AAC.]</i></p>\n <p><i>[Image d'un camion qui traverse un champ.]</i></p>\n <p><i>[Image d'Angelene Giesbrecht qui travaille \u00e0 l'ordinateur.]</i></p>\n <p>Angelene Giesbrecht\u00a0: Il y a beaucoup de possibilit\u00e9s dans plusieurs domaines, pas juste dans la science ou la recherche agricole.</p>\n <p><i>[Retour \u00e0 un plan d'Erle Einarsson.]</i></p>\n <p>Erle Einarsson\u00a0: Si vous aimez travailler avec des gens...</p>\n <p><i>[Plan d'un employ\u00e9 qui s'approche des portes du Centre de recherche et de d\u00e9veloppement de Summerland.]</i></p>\n <p>...vous \u00eates au bon endroit.</p>\n <p><i>[Plan d'Erle Einarsson souriant, \u00e0 son bureau.]</i></p>\n <p><i>[Retour \u00e0 un plan d'Erle Einarsson.]</i></p>\n <p>C'est aussi une fa\u00e7on d'\u00e9largir notre collectivit\u00e9.</p>\n <p><i>[La douce musique \u00e9lectronique continue.]</i></p>\n <p><i>[Retour \u00e0 un plan de Darren Cook.]</i></p>\n <p>Darren Cook\u00a0: Le gouvernement f\u00e9d\u00e9ral offre d'excellentes possibilit\u00e9s d'emploi. Vous savez, j'ai commenc\u00e9 en bas de l'\u00e9chelle et je suis devenu directeur. Pour moi c'\u00e9tait un tr\u00e8s bon parcours.</p>\n <p><i>[Fondu au noir.]</i></p>\n <p><i>[L'\u00e9cran s'\u00e9claircit.]</i></p>\n <p>Texte \u00e0 l'\u00e9cran\u00a0: Pour plus d'information veuillez communiquer avec l'a\u00een\u00e9 d'AAC, Mervin Traverse \u00e0 mervin.traverse@canada.ca</p>\n <p><i>[Le mot-symbole Canada appara\u00eet \u00e0 l'\u00e9cran avec le drapeau canadien qui s'anime au\u2011dessus de la derni\u00e8re lettre du mot.]</i></p>\n <p>Texte \u00e0 l'\u00e9cran\u00a0: <i>Canada</i></p>\n <p><i>[Un texte en noir s'affiche sous le mot-symbole Canada.]</i></p>\n <p>Texte \u00e0 l'\u00e9cran\u00a0: \u00a9 Sa Majest\u00e9 la Reine du Chef du Canada, repr\u00e9sent\u00e9e par le ministre de l'Agriculture et de l'Agroalimentaire (2016).</p>\n <p><i>[La douce musique \u00e9lectronique s'att\u00e9nue progressivement.]</i></p>\n <p><i>[Fondu au blanc.]</i></p></details>\n </figcaption>\n</figure>\n </div>\n</div> \n \n <h2>Contactez-nous</h2>\n <p class=\"mrgn-tp-lg\">Pour de plus amples renseignements sur l'Initiative de recrutement d'\u00e9tudiants autochtones, contactez\u00a0:</p>\n<p>Initiative de recrutement d'\u00e9tudiants autochtones<br>\n<a href=\"mailto:aafc.isri-irea.aac@canada.ca\">aafc.isri-irea.aac@canada.ca</a></p>\n \n\n\n\r\n    "
    }
}