{
    "dcr_id": "1497275764794",
    "title": {
        "en": "Coordinated Agriculture Policy Research Initiative \u2013 Contact information",
        "fr": "Initiative Coordonn\u00e9e de Recherche sur les Politiques Agricoles \u2013 Pour nous joindre"
    },
    "modified": "2019-04-03",
    "issued": "2017-06-14",
    "templatetype": "content page 1 column",
    "page_type": "0",
    "node_id": "1497275692629",
    "dc_date_created": "2017-06-14",
    "managing_branch": "PAB",
    "parent_node_id": "",
    "short_title": "Contact information",
    "exturl": "",
    "teamsite_location": {
        "en": "/default/main/AAFC-AAC/Internet-Internet/Group-Ensemble/ProgServ-ProgServ/WORKAREA/ProgServ-ProgServ/templatedata/comm-comm/gene-gene/data/06/capri_5_contact_1497275764794_en",
        "fr": "/default/main/AAFC-AAC/Internet-Internet/Group-Ensemble/ProgServ-ProgServ/WORKAREA/ProgServ-ProgServ/templatedata/comm-comm/gene-gene/data/06/capri_5_contact_1497275764794_fr"
    },
    "type_name": "comm-comm/gene-gene",
    "has_dcr_id": true,
    "label": {
        "en": "Contact information",
        "fr": "Pour nous joindre"
    },
    "breadcrumb": {
        "en": "Contact information",
        "fr": "Pour nous joindre"
    },
    "layout_name": "content page 1 column",
    "lang": "en",
    "refaire": false,
    "meta": {
        "viewport": {
            "en": "width=device-width,initial-scale=1",
            "fr": "width=device-width, initial-scale=1"
        },
        "issued": {
            "en": "2017-06-14",
            "fr": "2017-06-14"
        },
        "modified": {
            "en": "2019-04-03",
            "fr": "2019-04-03"
        },
        "format": {
            "en": "text/html",
            "fr": "text/html"
        },
        "title": {
            "en": "Coordinated Agriculture Policy Research Initiative \u2013 Contact information",
            "fr": "Initiative Coordonn\u00e9e de Recherche sur les Politiques Agricoles \u2013 Pour nous joindre"
        },
        "subject": {
            "en": "soil assessement",
            "fr": "d\u00e9veloppement communautaire;syst\u00e8mes de culture;\u00e9valuation environnementale strat\u00e9gique"
        },
        "dcterms:subject": {
            "en": "statistics",
            "fr": "d\u00e9veloppement communautaire;politique;sant\u00e9 animale"
        },
        "description": {
            "en": "3. How to apply. 1.What this service offers. To participate in the program, send your project proposal to Coordinated Agriculture Policy Research Initiatives (CAPRI) by email at.",
            "fr": "Initiatives Coordonn\u00e9es de Recherche sur les Politiques Agricoles. 1. Qu'est-ce que le service offre. AAC met \u00e0 la disposition de la communaut\u00e9 universitaire des ressources, y compris des donn\u00e9es, des mod\u00e8les ainsi que des experts du minist\u00e8re, afin d'entreprendre, \u00e0 court-termes des recherches pertinentes sur les politiques termes a court.\u00a0Les donn\u00e9es et les mod\u00e8les qui pourraient ne pas \u00eatre disponibles en dehors d'AAC sont rendus accessibles projet par projet.Un contrat est mis en place pour les projets approuv\u00e9s. Les produits livrables comprennent un une note d'information sur les politiques ainsi qu'une pr\u00e9sentation \u00e0 AAC.\u00a0. Navigation du document - pr\u00e9c\u00e9dente-suivante - bas."
        },
        "language": {
            "en": "eng",
            "fr": "fra"
        },
        "keywords": {
            "en": null,
            "fr": "Coordonn\u00e9es"
        },
        "audience": {
            "en": "gcaudience",
            "fr": "gcaudience"
        },
        "type": {
            "en": "geospatial material",
            "fr": "foire aux questions"
        },
        "creator": {
            "en": "Agriculture and Agri-Food Canada;Government of Canada",
            "fr": "Agriculture et Agroalimentaire Canada;Gouvernement du Canada"
        },
        "spatial": {
            "en": "gcregions",
            "fr": "gcregions"
        },
        "service": {
            "en": "AAFC-AAC",
            "fr": "AAFC-AAC"
        },
        "accessRights": {
            "en": "2",
            "fr": "2"
        },
        "legalName": {
            "en": "agriculture_and_agri_food_canada",
            "fr": "agriculture_et_agroalimentaire_canada"
        },
        "areaServed": {
            "en": "Canada",
            "fr": "Canada"
        }
    },
    "h1": {
        "en": "Coordinated Agriculture Policy Research Initiative \u2013 Contact information",
        "fr": "Initiative Coordonn\u00e9e de Recherche sur les Politiques Agricoles \u2013 Pour nous joindre"
    },
    "js": {
        "en": "",
        "fr": ""
    },
    "body": {
        "en": "\r\n    <div class=\"mrgn-tp-md mrgn-bttm-lg brdr-bttm\">\n <div class=\"row\">\n<ul class=\"toc lst-spcd col-md-12 list-unstyled\">\n<li class=\"col-md-4 col-sm-6\"><span class=\"list-group-item\">1. <a href=\"?id=1497275166570\">What this service offers</a></span></li>\n<li class=\"col-md-4 col-sm-6\"><span class=\"list-group-item\">2. <a href=\"?id=1497275501769\">Who is eligible</a></span></li>\n<li class=\"col-md-4 col-sm-6\"><span class=\"list-group-item\">3. <a href=\"?id=1497275598856\">How to apply</a></span></li>\n<li class=\"col-md-4 col-sm-6\"><span class=\"list-group-item\">4. <a href=\"?id=1497275679915\">After you apply</a></span></li>\n<li class=\"col-md-4 col-sm-6\"><span class=\"list-group-item active\">Contact information</span></li>\n</ul>\n</div>\n</div>\n\n<h2>Contact information</h2>\n\n<p>For more  information, please contact Coordinated Agriculture Policy Research Initiative (CAPRI) staff by email at\u00a0<a href=\"mailto:AAFC.CAPRI-ICRPA.AAC@canada.ca\">AAFC.CAPRI-ICRPA.AAC@canada.ca</a>.</p>\n\n<nav>\n<h2 class=\"wb-inv\">Previous-next document navigation - bottom</h2>\n<div class=\"row\">\n<div class=\"col-md-12 mrgn-lft-0 mrgn-rght-0\">\n<ul class=\"pager\">\n\t<li class=\"previous\"><a href=\"?id=1497275679915\" rel=\"prev\" title=\"4. After you apply\">Previous</a></li>\n</ul>\n</div>\n</div>\n</nav>\n\r\n    ",
        "fr": "\r\n    \n<div class=\"mrgn-tp-md mrgn-bttm-lg brdr-bttm\">\n <div class=\"row\">\n<ul class=\"toc lst-spcd col-md-12 list-unstyled\">\n<li class=\"col-md-4 col-sm-6\"><span class=\"list-group-item\">1. <a href=\"?id=1497275166570\">Ce qu'offre ce programme</a></span></li>\n<li class=\"col-md-4 col-sm-6\"><span class=\"list-group-item\">2. <a href=\"?id=1497275501769\"> Qui est admissible</a></span></li>\n<li class=\"col-md-4 col-sm-6\"><span class=\"list-group-item\">3. <a href=\"?id=1497275598856\">Comment pr\u00e9senter une demande</a></span></li>\n\n<li class=\"col-md-4 col-sm-6\"><span class=\"list-group-item\">4. <a href=\"?id=1497275679915\">Apr\u00e8s avoir pr\u00e9sent\u00e9 votre demande</a></span></li>\n<li class=\"col-md-4 col-sm-6\"><span class=\"list-group-item active\">Pour nous joindre</span></li>\n</ul>\n</div>\n</div>\n\n<h2>Pour nous joindre</h2>\n\n<p>Pour de plus amples renseignements, veuillez communiquez avec le personnel des Initiative coordonn\u00e9e de recherche sur les politiques agricoles (ICRPA) par courriel \u00e0 <a href=\"mailto:AAFC.CAPRI-ICRPA.AAC@canada.ca\">AAFC.CAPRI-ICRPA.AAC@canada.ca</a>.</p>\n\n\n<nav>\n<h2 class=\"wb-inv\">Navigation du document - pr\u00e9c\u00e9dente-suivante - bas</h2>\n<div class=\"row\">\n<div class=\"col-md-12 mrgn-lft-0 mrgn-rght-0\">\n<ul class=\"pager\">\n\t<li class=\"previous\"><a href=\"?id=1497275679915\" rel=\"prev\" title=\"4. Apr\u00e8s avoir pr\u00e9sent\u00e9 votre demande\">Pr\u00e9c\u00e9dente</a></li>\n</ul>\n</div>\n</div>\n</nav> \n\r\n    "
    }
}