{
    "dcr_id": "1515011077933",
    "title": {
        "en": "AgriAssurance Program: National Industry Association Component: Step 2. Who is eligible",
        "fr": "Programme Agri-assurance : Volet Associations nationales de l'industrie : \u00c9tape 2. Qui est admissible"
    },
    "modified": "2018-04-23",
    "issued": "2018-02-13",
    "templatetype": "content page 1 column",
    "page_type": "0",
    "node_id": "1517240181254",
    "dc_date_created": "2018-02-13",
    "managing_branch": "PAB",
    "parent_node_id": "",
    "short_title": "Step 2. Who is eligible",
    "exturl": "",
    "teamsite_location": {
        "en": "/default/main/AAFC-AAC/Internet-Internet/Group-Ensemble/ProgServ-ProgServ/WORKAREA/ProgServ-ProgServ/templatedata/comm-comm/gene-gene/data/01/agriassurance_niac_2_1515011077933_en",
        "fr": "/default/main/AAFC-AAC/Internet-Internet/Group-Ensemble/ProgServ-ProgServ/WORKAREA/ProgServ-ProgServ/templatedata/comm-comm/gene-gene/data/01/agriassurance_niac_2_1515011077933_fr"
    },
    "type_name": "comm-comm/gene-gene",
    "has_dcr_id": true,
    "label": {
        "en": "Step 2. Who is eligible",
        "fr": "\u00c9tape 2. Qui est admissible"
    },
    "breadcrumb": {
        "en": "Step 2. Who is eligible",
        "fr": "\u00c9tape 2. Qui est admissible"
    },
    "layout_name": "content page 1 column",
    "lang": "en",
    "refaire": false,
    "meta": {
        "viewport": {
            "en": "width=device-width,initial-scale=1",
            "fr": "width=device-width, initial-scale=1"
        },
        "issued": {
            "en": "2018-02-13",
            "fr": "2018-02-13"
        },
        "modified": {
            "en": "2018-04-23",
            "fr": "2018-04-23"
        },
        "format": {
            "en": "text/html",
            "fr": "text/html"
        },
        "title": {
            "en": "AgriAssurance Program: National Industry Association Component: Step 2. Who is eligible",
            "fr": "Programme Agri-assurance : Volet Associations nationales de l'industrie : \u00c9tape 2. Qui est admissible"
        },
        "subject": {
            "en": "water resources;potato growers;northern development",
            "fr": "revenus agricoles;biocarburants;Gestion des risques de l'entreprise"
        },
        "dcterms:subject": {
            "en": "architecture;food safety;northern development",
            "fr": "consultation;commerce ext\u00e9rieur;viande"
        },
        "description": {
            "en": "2. Who is eligible. 1.What this program offers. 2. Who is eligible. Eligible applicants under Clusters are not-for-profit organizations, which may include:associations. Previous-next document navigation - bottom. Previous.",
            "fr": "2. Qui est admissible. 1.Ce qu'offre ce programme. Guides du demandeur. Pour nous joindre. 2. Qui est admissible."
        },
        "language": {
            "en": "eng",
            "fr": "fra"
        },
        "keywords": {
            "en": "binding agreements.SMEs;binding agreements.Eligible",
            "fr": null
        },
        "audience": {
            "en": "gcaudience",
            "fr": "gcaudience"
        },
        "type": {
            "en": "geospatial material",
            "fr": "\u00e9valuation"
        },
        "creator": {
            "en": "Agriculture and Agri-Food Canada;Government of Canada",
            "fr": "Agriculture et Agroalimentaire Canada;Gouvernement du Canada"
        },
        "spatial": {
            "en": "gcregions",
            "fr": "gcregions"
        },
        "service": {
            "en": "AAFC-AAC",
            "fr": "AAFC-AAC"
        },
        "accessRights": {
            "en": "2",
            "fr": "2"
        },
        "legalName": {
            "en": "agriculture_and_agri_food_canada",
            "fr": "agriculture_et_agroalimentaire_canada"
        },
        "areaServed": {
            "en": "Canada",
            "fr": "Canada"
        }
    },
    "h1": {
        "en": "AgriAssurance Program: National Industry Association Component: Step 2. Who is eligible",
        "fr": "Programme Agri-assurance : Volet Associations nationales de l'industrie : \u00c9tape 2. Qui est admissible"
    },
    "js": {
        "en": "",
        "fr": ""
    },
    "body": {
        "en": "\r\n    <div class=\"mrgn-tp-md mrgn-bttm-lg brdr-bttm\">\n\n<div class=\"row\">\n<ul class=\"toc lst-spcd col-md-12 list-unstyled\">\n<li class=\"col-md-4 col-sm-6\"><span class=\"list-group-item\">Step 1. <a href=\"?id=1515010952950\">What this program offers</a></span></li>\n\n<li class=\"col-md-4 col-sm-6\"><span class=\"list-group-item active\">Step 2. Who is eligible</span></li>\n\n<li class=\"col-md-4 col-sm-6\"><span class=\"list-group-item\">Step 3. <a href=\"?id=1515011266778\">How to apply</a></span></li>\n\n<li class=\"col-md-4 col-sm-6\"><span class=\"list-group-item\">Step 4. <a href=\"?id=1515011324107\">After you apply</a></span></li>\n\n<li class=\"col-md-4 col-sm-6\"><span class=\"list-group-item\"><a href=\"?id=1515011371844\">Applicant guide</a></span></li>\n\n<li class=\"col-md-4 col-sm-6\"><span class=\"list-group-item\"><a href=\"?id=1515011407700\">Contact information</a></span></li>\n</ul>\n</div>\n</div>\n\n\n<h2>Step 2. Who is eligible</h2>\n\n<p>Eligible applicants under the AgriAssurance  Program: National Industry Association (NIA) Component are <b>not-for-profit organizations</b> operating in the agriculture,  agri-food and agri-based products sector, including fish and seafood, which may  include:</p>\n\n<ul>\n  <li>associations<sup id=\"fn1-rf\"><a class=\"fn-lnk\" href=\"#fn1\"><span class=\"wb-inv\">Footnote </span>1</a></sup></li>\n  <li>co-operatives</li>\n  <li>Indigenous groups</li>\n  <li>clubs and societies</li>\n</ul>\n\n<p>While academic institutions are not  eligible as direct recipients for funding under the AgriAssurance Program, they  may receive indirect program funding, as partners or collaborators, through  projects managed by eligible industry organizations.</p>\n\n<p>All eligible applicants must be legal  entities capable of entering into legally binding agreements.</p>\n\n<p>Eligible applicants must also meet the  principles and criteria outlined in the <a href=\"?id=1515011371844\">Applicant guide</a>, such as:</p>\n\n<ul>\n  <li>providing a minimum of 25% of the funding towards  eligible costs</li>\n  <li>the maximum AAFC contribution for a project will  normally not exceed $1\u00a0million over  five years</li>\n</ul>\n\n<h2>Who is not eligible?</h2>\n\n<p>The following groups are not eligible to  receive funding under this program:</p>\n\n<ul>\n  <li>individual academic institutions </li>\n  <li>for-profit organizations</li>\n  <li>individuals</li>\n  <li>other levels of government</li>\n</ul>\n\n<aside class=\"wb-fnote\" role=\"note\">\n    <h2 id=\"fn\">Footnote</h2>\n    <dl>\n        <dt>Footnote 1</dt>\n        <dd id=\"fn1\">\n        <p>Associations must operate on a national basis.  Applications from not-for-profit associations in Canada operating on a regional  basis may be considered if there is no national representation and if the  applicant can demonstrate their ability to deliver a project from a national or  agriculture and agri-food sector-wide perspective.</p>\n        <p class=\"fn-rtn\"><a href=\"#fn1-rf\"><span class=\"wb-inv\">Return to footnote </span>1<span class=\"wb-inv\"> referrer</span></a></p>\n        </dd>\n    </dl>\n</aside>\n\n<nav>\n<h2 class=\"wb-inv\">Previous-next document navigation - bottom</h2>\n\n<div class=\"row\">\n<div class=\"col-md-12 mrgn-lft-0 mrgn-rght-0\">\n<ul class=\"pager\">\n<li class=\"previous\"><a href=\"?id=1515010952950\" rel=\"prev\" title=\"What this program offers\">Previous</a></li>\n<li class=\"next\"><a href=\"?id=1515011266778\" rel=\"next\" title=\"How to apply\">Next</a></li>\n</ul>\n</div>\n</div>\n</nav>\n\r\n    ",
        "fr": "\r\n    <div class=\"mrgn-tp-md mrgn-bttm-lg brdr-bttm\">\n\n<div class=\"row\">\n<ul class=\"toc lst-spcd col-md-12 list-unstyled\">\n<li class=\"col-md-4 col-sm-6\"><span class=\"list-group-item\">\u00c9tape 1. <a href=\"?id=1515010952950\">Ce qu'offre ce programme</a></span></li>\n\n<li class=\"col-md-4 col-sm-6\"><span class=\"list-group-item active\">\u00c9tape 2. Qui est admissible</span></li>\n\n<li class=\"col-md-4 col-sm-6\"><span class=\"list-group-item\">\u00c9tape 3. <a href=\"?id=1515011266778\">Comment pr\u00e9senter une demande</a></span></li>\n\n<li class=\"col-md-4 col-sm-6\"><span class=\"list-group-item\">\u00c9tape 4. <a href=\"?id=1515011324107\">Apr\u00e8s avoir pr\u00e9sent\u00e9 votre demande</a></span></li>\n\n<li class=\"col-md-4 col-sm-6\"><span class=\"list-group-item\"><a href=\"?id=1515011371844\">Guide du demandeur</a></span></li>\n\n<li class=\"col-md-4 col-sm-6\"><span class=\"list-group-item\"><a href=\"?id=1511187154858\">Pour nous joindre</a></span></li>\n</ul>\n</div>\n</div>\n\n<h2>\u00c9tape 2. Qui est admissible</h2>\n\n<p>Les demandeurs admissibles sous le programme  Agri-assurance\u00a0: Volet Associations nationales de l'industrie sont <b>les organisations sans but lucratif</b>,  qui doivent exercer leurs activit\u00e9s dans les secteurs de l'agriculture, de  l'agroalimentaire et des produits agro industriels, y compris le secteur du  poisson et des fruits de mer. Elles peuvent comprendre\u00a0:</p>\n\n<ul>\n  <li>des associations;<sup id=\"fn1-rf\"><a class=\"fn-lnk\" href=\"#fn1\"><span class=\"wb-inv\">Note de bas de page </span>1</a></sup></li>\n  <li>des coop\u00e9ratives; </li>\n  <li>des groupes autochtones; et </li>\n  <li>des cercles et des soci\u00e9t\u00e9s.</li>\n</ul>\n\n<p>Bien que les \u00e9tablissements universitaires ne  soient pas admissibles \u00e0 titre de b\u00e9n\u00e9ficiaires directs au financement offert  dans le cadre du programme Agri-assurance, ils peuvent n\u00e9anmoins b\u00e9n\u00e9ficier de  financement indirect, \u00e0 titre de partenaires ou de collaborateurs, par  l'entremise de projets g\u00e9r\u00e9s par des organismes admissibles de l'industrie.</p>\n\n<p>Pour \u00eatre admissible, un demandeur doit \u00eatre  une entit\u00e9 juridique habilit\u00e9e \u00e0 conclure des accords juridiquement  contraignants.</p>\n\n<p>Les demandeurs admissibles doivent aussi  rencontrer les principes et crit\u00e8res d\u00e9taill\u00e9s dans le <a href=\"?id=1515011371844\">Guide du demandeur</a>, tels  que\u00a0:</p>\n  \n<ul>\n  <li>fournir un minimum de 25\u00a0% du financement vers  les co\u00fbts admissibles; et</li>\n  <li>la contribution maximale accord\u00e9e par Agriculture et Agroalimentaire Canada (AAC) \u00e0  un projet ne d\u00e9passe pas un million de dollars pour une p\u00e9riode de cinq ans.</li>\n</ul>\n\n<h2>Qui n'est pas admissible?</h2>\n\n<p>Les demandeurs non admissibles au  financement offert dans le cadre de ce programme comprennent\u00a0:</p>\n\n<ul>\n  <li>les \u00e9tablissements universitaires particuliers; </li>\n  <li>les organisations \u00e0 but lucratif; </li>\n  <li>les particuliers; et</li>\n  <li>les autres ordres de  gouvernement.</li>\n</ul>\n\n<aside class=\"wb-fnote\" role=\"note\">\n    <h2 id=\"fn\">Note de bas de page</h2>\n    <dl>\n        <dt>Note de bas de page 1</dt>\n        <dd id=\"fn1\">\n        <p>Les  associations doivent exercer des activit\u00e9s \u00e0 l'\u00e9chelle nationale. Les demandes  d'associations sans but lucratif r\u00e9gionales pourraient \u00eatre envisag\u00e9es s'il n'y  a aucune repr\u00e9sentation \u00e0 l'\u00e9chelle nationale et si le demandeur peut d\u00e9montrer  sa capacit\u00e9 de r\u00e9aliser un projet qui a une port\u00e9e nationale et/ou qui touche  l'ensemble du secteur agricole et agroalimentaire.</p>\n        <p class=\"fn-rtn\"><a href=\"#fn1-rf\"><span class=\"wb-inv\">Retour \u00e0 la r\u00e9f\u00e9rence de la note de bas de page </span>1</a></p>\n        </dd>\n\n    </dl>\n</aside>\n\n<nav>\n  <h2 class=\"wb-inv\">Navigation du document - pr\u00e9c\u00e9dente-suivante - bas</h2>\n<div class=\"row\">\n<div class=\"col-md-12 mrgn-lft-0 mrgn-rght-0\">\n<ul class=\"pager\">\n<li class=\"previous\"><a href=\"?id=1515010952950\" rel=\"prev\" title=\"Ce qu'offre ce programme\">Pr\u00e9c\u00e9dente</a></li>\n<li class=\"next\"><a href=\"?id=1515011266778\" rel=\"next\" title=\"Comment pr\u00e9senter une demande\">Suivante</a></li>\n</ul>\n</div>\n</div>\n</nav>\n\r\n    "
    }
}