{
    "dcr_id": "1516216935259",
    "title": {
        "en": "2018 Statement A \u2013 Corporation/Co-operative and Special Individual",
        "fr": "\u00c9tat A 2018 \u2013 Soci\u00e9t\u00e9s, coop\u00e9ratives et particuliers de cat\u00e9gorie sp\u00e9ciale"
    },
    "modified": "2019-10-22",
    "issued": "2019-10-22",
    "templatetype": "content page 1 column",
    "page_type": "0",
    "node_id": "1571322247714",
    "dc_date_created": "2019-10-22",
    "managing_branch": "PAB",
    "parent_node_id": "",
    "short_title": "",
    "exturl": "",
    "teamsite_location": {
        "en": "/default/main/AAFC-AAC/Internet-Internet/Group-Ensemble/ProgServ-ProgServ/WORKAREA/ProgServ-ProgServ/templatedata/comm-comm/gene-gene/data/09/ai_as_2018_stmnta_1516216935259_en",
        "fr": "/default/main/AAFC-AAC/Internet-Internet/Group-Ensemble/ProgServ-ProgServ/WORKAREA/ProgServ-ProgServ/templatedata/comm-comm/gene-gene/data/09/ai_as_2018_stmnta_1516216935259_fr"
    },
    "type_name": "comm-comm/gene-gene",
    "has_dcr_id": true,
    "label": {
        "en": "2018 Statement A \u2013 Corporation/Co-operative and Special Individual",
        "fr": "\u00c9tat A 2018 \u2013 Soci\u00e9t\u00e9s, coop\u00e9ratives et particuliers de cat\u00e9gorie sp\u00e9ciale"
    },
    "breadcrumb": {
        "en": "2018 Statement A \u2013 Corporation/Co-operative and Special Individual",
        "fr": "\u00c9tat A 2018 \u2013 Soci\u00e9t\u00e9s, coop\u00e9ratives et particuliers de cat\u00e9gorie sp\u00e9ciale"
    },
    "layout_name": "content page 1 column",
    "lang": "en",
    "refaire": false,
    "meta": {
        "viewport": {
            "en": "width=device-width,initial-scale=1",
            "fr": "width=device-width, initial-scale=1"
        },
        "issued": {
            "en": "2019-10-22",
            "fr": "2019-10-22"
        },
        "modified": {
            "en": "2019-10-22",
            "fr": "2019-10-22"
        },
        "format": {
            "en": "text/html",
            "fr": "text/html"
        },
        "title": {
            "en": "2018 Statement A \u2013 Corporation/Co-operative and Special Individual",
            "fr": "\u00c9tat A 2018 \u2013 Soci\u00e9t\u00e9s, coop\u00e9ratives et particuliers de cat\u00e9gorie sp\u00e9ciale"
        },
        "subject": {
            "en": "non renewable resources;proactive disclosure;architectural heritage",
            "fr": "cultures des c\u00e9r\u00e9ales;communaut\u00e9 isol\u00e9e;industrie de l'eau embouteill\u00e9e"
        },
        "dcterms:subject": {
            "en": "architectural heritage;architecture;statistics",
            "fr": "m\u00e9dicament;diversit\u00e9 biologique;communaut\u00e9 isol\u00e9e"
        },
        "description": {
            "en": "AgriInvest-Agri-investissement AgriInvest 2018_statement_a 2018 Statement A \u2013 Corporation/Co-operative and Special Individual. accrual. method to report for AgriStability and AgriInvest and to Canada Revenue Agency (CRA). Enter Code 2. : If you are using the. \u00a0. Building and fence repairs. 9795.",
            "fr": "If you have more than one farming operation (a single farm and one or more partnerships), complete a Statement A for your first farming operation. Nouveau-Brunswick. et. Nouvelle-\u00c9cosse. Machinerie (essence, carburant diesel, huile). 9764."
        },
        "language": {
            "en": "eng",
            "fr": "fra"
        },
        "keywords": {
            "en": "Town;Guide.Round;Patronage dividends",
            "fr": "Voulez-vous;Village;Agri-investissement.Si"
        },
        "audience": {
            "en": "gcaudience",
            "fr": "gcaudience"
        },
        "type": {
            "en": "business plan",
            "fr": "plan d'activit\u00e9s"
        },
        "creator": {
            "en": "Agriculture and Agri-Food Canada;Government of Canada",
            "fr": "Agriculture et Agroalimentaire Canada;Gouvernement du Canada"
        },
        "spatial": {
            "en": "gcregions",
            "fr": "gcregions"
        },
        "service": {
            "en": "AAFC-AAC",
            "fr": "AAFC-AAC"
        },
        "accessRights": {
            "en": "2",
            "fr": "2"
        },
        "legalName": {
            "en": "agriculture_and_agri_food_canada",
            "fr": "agriculture_et_agroalimentaire_canada"
        },
        "areaServed": {
            "en": "Canada",
            "fr": "Canada"
        }
    },
    "h1": {
        "en": "2018 Statement A \u2013 Corporation/Co-operative and Special Individual",
        "fr": "\u00c9tat A 2018 \u2013 Soci\u00e9t\u00e9s, coop\u00e9ratives et particuliers de cat\u00e9gorie sp\u00e9ciale"
    },
    "js": {
        "en": "",
        "fr": ""
    },
    "body": {
        "en": "\r\n    <div class=\"well\">\n<p>This Web document is <b>not</b> a form. Its purpose is to display the information as found on the form for viewing purposes only. If you wish to submit a form, you <b>must</b> use <a href=\"https://www.agr.gc.ca/resources/prod/doc/pol/grow-croiss/brm-gre/agrista/pdf/2018/as_ai_2018_statement_a_1-eng.pdf\">2018 Statement A \u2013 Corporations/Co-operatives and Special Individuals (PDF Version, 294 KB)</a></p>\n<p>If you cannot access the alternative format, please call <span class=\"nowrap\">1-866-367-8506</span>.</p>\n</div>\n\n<div class=\"well\">\n<p>If you have more than one farming operation (a single farm and one or more partnerships), complete a Statement A for your first farming operation. Complete a <a href=\"?id=1516217067571\">Statement\u00a0B</a> for each of your other farming operations.</p>\n\n<p>Use the <a href=\"?id=1516217721068\">2018 AgriStability and AgriInvest Program - Corporation/Co-operative and Special Individual Harmonized Guide</a> to help you complete your form.</p>\n</div>\n\n<p><b>Protected B when complete</b></p>\n<h2>Participant information</h2>\n<h3>Participant indentification</h3>\n<ul>\n<li>First Name/Entity name</li>\n<li>Last Name</li>\n<li>Address</li>\n<li>City/Town</li>\n<li>Province/Territory</li>\n<li>Postal code</li>\n<li>Telephone number</li>\n<li>Fax number</li>\n<li>Email address</li>\n<li>Participant Identification Number (PIN)</li>\n<li><b>Note</b>: You must enter your PIN unless you have not been assigned one.</li>\n<li>Social Insurance Number (SIN)</li>\n<li>Business number</li>\n<li>Trust number</li>\n<li>Band number</li>\n<li>Language of preference: (English/French)</li>\n</ul>\n<h3>Contact person information</h3>\n<p>If you would like someone else to provide additional information on your behalf, provide all details in the contact person section. This applies only to the AgriStability and AgriInvest programs.</p>\n<ul>\n<li>If you have a contact person check here</li>\n<li>First name</li>\n<li>Last name</li>\n<li>Business name</li>\n<li>Address</li>\n<li>City/Town</li>\n<li>Province/Territory</li>\n<li>Postal code</li>\n<li>Telephone number</li>\n<li>Fax number</li>\n</ul>\n<p>Do you want a copy of your Calculation of Program Benefits (COB) for the AgriStability program sent to your contact person? (Yes/No)</p>\n<p><b>Note</b> - If you have a contact person, you must complete this section each time you submit this form. The AgriStability and AgriInvest Administration will replace any previous contact person you may have designated with the name you provide here.</p>\n<p>By providing a contact person's name, you are authorizing both the AgriStability and AgriInvest Administration to receive information from and to disclose information to the contact person, and to make changes to your applications as directed by the contact person.</p>\n<h3>Your farming information</h3>\n<ul>\n<li>Province/Territory of main farmstead</li>\n<li>Number of years this operation has farmed</li>\n<li>Was 2018 your last year of farming? (Yes/No)</li>\n<li>Have you completed a production cycle on at least one of the commodities you produced? (Yes/No)</li>\n<li>If \"no\" to the above question, were you unable to complete a production cycle due to disaster circumstances? (Yes/No)</li>\n</ul>\n<h3>Federal public office holder or employee of Agriculture and Agri-Food Canada</h3>\n<p>Are you, or anyone who participated in the preparation of this form on your behalf, a current or former federal public office holder or employee of Agriculture and Agri-Food Canada? (Yes/No)</p>\n<h3>Farm Type</h3>\n<p>(check all the applicable boxes)</p>\n<ul>\n<li>Corporation \n<ul>\n<li>Date of incorporation (Year/Month/Day)</li>\n</ul>\n</li>\n<li>Co-operative</li>\n<li>Communal organization</li>\n<li>Member of a partnership</li>\n<li>Limited partnership</li>\n<li>Status Indian farming on a reserve</li>\n<li>Band farm</li>\n<li>Trust</li>\n<li>If this form is for a deceased person, enter the date of death. (Year/Month/Day)</li>\n</ul>\n<h2>Other farming information</h2>\n<p>Location of main farmstead, indicate your district, county or municipality name and number:</p>\n<ul>\n<li><b>Yukon</b> and <b>British Columbia</b> - district<br><b>New Brunswick</b> and <b>Nova Scotia</b> - county<br><b>Manitoba</b> - municipality<br>\n<ul>\n<li>district/county/municipality name:</li>\n<li>district/county/municipality number:</li>\n</ul>\n</li>\n</ul>\n<h3>Combined operations</h3>\n<p>Based on the AgriStability combining criteria outlined in the guide, should this operation be combined with another operation for the 2018 program year? (Yes/No)</p>\n<p><b>Note:</b> If you were combined in your last year of participation, you will automatically be combined for 2018, unless you answered \u201cNo\u201d to the above question.</p>\n<ul>\n<li>If you should be combined in the 2018 program year, or were previously but should no longer be combined, indicate the PIN(s) that should be added or removed from your whole farm. \n<ul>\n<li>Add/Remove</li>\n<li>Add/Remove</li>\n<li>Add/Remove</li>\n</ul>\n</li>\n</ul>\n<h2>Identification \u2013 Complete a Statement B for each additional farming operation</h2>\n<ul>\n<li>Single Farm/Partnership<br><b>Note</b>: If you indicate you are in a partnership, complete the partnership information section on page 4.</li>\n<li>Fiscal Period \n<ul>\n<li>From: (Year/Month/Day)</li>\n<li>To: (Year/Month/Day)</li>\n</ul>\n</li>\n<li>Method of accounting \n<ul>\n<li><b>Enter Code 1</b>: If you are using the <b>accrual</b> method to report for AgriStability and AgriInvest and to Canada Revenue Agency (CRA)</li>\n<li><b>Enter Code 2</b>: If you are using the <b>cash</b> method to report for AgriStability and AgriInvest and to CRA</li>\n</ul>\n</li>\n<li>Was your farming operation involved in any of the following: (check all applicable boxes for this operation)<br>\n<ul>\n<li>a member of a feeder association</li>\n<li>a crop share (landlord)</li>\n<li>a crop share (tenant)</li>\n</ul>\n</li>\n</ul>\n<h2>Income</h2>\n<p>Enter the applicable code for each entry on the form. The codes are listed in the Commodity list and in the Program payment lists included in the Harmonized Guide.</p>\n<p><b>Round all income amounts to the nearest dollar.</b></p>\n<figure class=\"mrgn-lft-0\">\n<table class=\"table table-bordered mrgn-bttm-md\">\n<caption><span class=\"wb-inv\">Commodity sales and program payments</span></caption><thead>\n<tr>\n<th scope=\"col\">Commodity sales and program payments</th><th scope=\"col\">Code</th><th scope=\"col\">Amount</th>\n</tr>\n</thead>\n<tbody>\n<tr>\n<td>  </td>\n<td> </td>\n<td> </td>\n</tr>\n<tr>\n<td> </td>\n<td> </td>\n<td> </td>\n</tr>\n<tr>\n<td> </td>\n<td> </td>\n<td> </td>\n</tr>\n<tr>\n<td class=\"text-right\"><b>Total A</b></td>\n<td>9950</td>\n<td>$</td>\n</tr>\n</tbody>\n</table>\n</figure><figure class=\"mrgn-lft-0\">\n<table class=\"table table-bordered mrgn-bttm-md\">\n<caption><span class=\"wb-inv\">Other farming income</span></caption><thead>\n<tr>\n<th scope=\"col\">Other farming income</th><th scope=\"col\">Line</th><th scope=\"col\">Amount</th>\n</tr>\n</thead>\n<tbody>\n<tr>\n<td>Other program payments</td>\n<td>9540</td>\n<td> </td>\n</tr>\n<tr>\n<td>Business risk management (BRM) and disaster assistance payments</td>\n<td>9544</td>\n<td> </td>\n</tr>\n<tr>\n<td>Resales, rebates, GST/HST for allowable expenses</td>\n<td>9574</td>\n<td> </td>\n</tr>\n<tr>\n<td>Resales, rebates, GST/HST for non-allowable expenses, recapture of capital cost allowance (CCA)</td>\n<td>9575</td>\n<td> </td>\n</tr>\n<tr>\n<td>Agricultural contract work</td>\n<td>9601</td>\n<td> </td>\n</tr>\n<tr>\n<td>Patronage dividends</td>\n<td>9605</td>\n<td> </td>\n</tr>\n<tr>\n<td>Interest</td>\n<td>9607</td>\n<td> </td>\n</tr>\n<tr>\n<td>Gravel</td>\n<td>9610</td>\n<td> </td>\n</tr>\n<tr>\n<td>Trucking (farm-related only)</td>\n<td>9611</td>\n<td> </td>\n</tr>\n<tr>\n<td>Resales of commodities purchased</td>\n<td>9612</td>\n<td> </td>\n</tr>\n<tr>\n<td>Leases (gas, oil well, surface, etc.)</td>\n<td>9613</td>\n<td> </td>\n</tr>\n<tr>\n<td>Machine rentals</td>\n<td>9614</td>\n<td> </td>\n</tr>\n<tr>\n<td>Other (specify):</td>\n<td>9600</td>\n<td> </td>\n</tr>\n<tr>\n<td colspan=\"2\" class=\"text-right\"><b>Total B</b></td>\n<td>$</td>\n</tr>\n</tbody>\n</table>\n</figure><figure class=\"mrgn-lft-0\">\n<table class=\"table table-bordered mrgn-bttm-md\">\n<caption><b>Summary of income</b></caption>\n<tbody>\n<tr>\n<th scope=\"row\" class=\"text-right\">Total A</th>\n<td> </td>\n</tr>\n<tr>\n<th scope=\"row\" class=\"text-right\">Total B</th>\n<td>+</td>\n</tr>\n<tr>\n<th scope=\"row\" class=\"text-right\">Gross farming income <span style=\"font-weight: normal;\" class=\"small\">(enter on line 9959 on page 4)</span></th>\n<td>$</td>\n</tr>\n</tbody>\n</table>\n</figure>\n<h2>Expenses</h2>\n<p>Enter the applicable code for each entry on the form. The codes are listed in the Commodity list and in the Program payment lists included in the Harmonized Guide.</p>\n<p><b>Round all expense amounts to the nearest dollar.</b></p>\n<figure class=\"mrgn-lft-0\">\n<table class=\"table table-bordered mrgn-bttm-md\">\n<caption><span class=\"wb-inv\">Commodity purchases and repayment of program benefits</span></caption><thead>\n<tr>\n<th scope=\"col\">Commodity purchases and repayment of program benefits</th><th scope=\"col\">Code</th><th scope=\"col\">Amount</th>\n</tr>\n</thead>\n<tbody>\n<tr>\n<td>Point of sale adjustments</td>\n<td>575</td>\n<td> </td>\n</tr>\n<tr>\n<td> </td>\n<td> </td>\n<td> </td>\n</tr>\n<tr>\n<td> </td>\n<td> </td>\n<td> </td>\n</tr>\n<tr>\n<td class=\"text-right\"><b>Total C</b></td>\n<td>9960</td>\n<td>$</td>\n</tr>\n</tbody>\n</table>\n</figure><figure class=\"mrgn-lft-0\">\n<table class=\"table table-bordered mrgn-bttm-md\">\n<caption><span class=\"wb-inv\">Allowable expenses</span></caption><thead>\n<tr>\n<th scope=\"col\">Allowable expenses</th><th scope=\"col\">Line</th><th scope=\"col\">Amount</th>\n</tr>\n</thead>\n<tbody>\n<tr>\n<td>Containers and twine</td>\n<td>9661</td>\n<td> </td>\n</tr>\n<tr>\n<td>Fertilizers and soil supplements</td>\n<td>9662</td>\n<td> </td>\n</tr>\n<tr>\n<td>Pesticides and chemical treatments</td>\n<td>9663</td>\n<td> </td>\n</tr>\n<tr>\n<td>Insurance premiums (crop or production)</td>\n<td>9665</td>\n<td> </td>\n</tr>\n<tr>\n<td>Veterinary fees, medicine, and breeding fees</td>\n<td>9713</td>\n<td> </td>\n</tr>\n<tr>\n<td>Minerals and salts</td>\n<td>9714</td>\n<td> </td>\n</tr>\n<tr>\n<td>Machinery (gasoline, diesel fuel, oil)</td>\n<td>9764</td>\n<td> </td>\n</tr>\n<tr>\n<td>Electricity</td>\n<td>9799</td>\n<td> </td>\n</tr>\n<tr>\n<td>Freight and shipping</td>\n<td>9801</td>\n<td> </td>\n</tr>\n<tr>\n<td>Heating fuel</td>\n<td>9802</td>\n<td> </td>\n</tr>\n<tr>\n<td>Arm's length salaries</td>\n<td>9815</td>\n<td> </td>\n</tr>\n<tr>\n<td>Storage/drying</td>\n<td>9822</td>\n<td> </td>\n</tr>\n<tr>\n<td>Commissions and levies</td>\n<td>9836</td>\n<td> </td>\n</tr>\n<tr>\n<td>Private insurance premiums for allowable commodities</td>\n<td>9953</td>\n<td> </td>\n</tr>\n<tr>\n<td colspan=\"2\" class=\"text-right\"><b>Total D</b></td>\n<td>$</td>\n</tr>\n</tbody>\n</table>\n</figure><figure class=\"mrgn-lft-0\">\n<table class=\"table table-bordered mrgn-bttm-md\">\n<caption><span class=\"wb-inv\">Non-allowable expenses</span></caption><thead>\n<tr>\n<th scope=\"col\">Non-allowable expenses</th><th scope=\"col\">Line</th><th scope=\"col\">Amount</th>\n</tr>\n</thead>\n<tbody>\n<tr>\n<td>Machinery (repairs, licenses, insurance)</td>\n<td>9760</td>\n<td> </td>\n</tr>\n<tr>\n<td>Machinery lease/rental</td>\n<td>9765</td>\n<td> </td>\n</tr>\n<tr>\n<td>Advertising and promotion costs</td>\n<td>9792</td>\n<td> </td>\n</tr>\n<tr>\n<td>Building and fence repairs</td>\n<td>9795</td>\n<td> </td>\n</tr>\n<tr>\n<td>Land clearing and draining</td>\n<td>9796</td>\n<td> </td>\n</tr>\n<tr>\n<td>Agricultural contract work</td>\n<td>9798</td>\n<td> </td>\n</tr>\n<tr>\n<td>Other insurance premiums</td>\n<td>9804</td>\n<td> </td>\n</tr>\n<tr>\n<td>Interest (real estate, mortgage, other)</td>\n<td>9805</td>\n<td> </td>\n</tr>\n<tr>\n<td>Memberships/subscription fees</td>\n<td>9807</td>\n<td> </td>\n</tr>\n<tr>\n<td>Office expenses</td>\n<td>9808</td>\n<td> </td>\n</tr>\n<tr>\n<td>Legal and accounting fees</td>\n<td>9809</td>\n<td> </td>\n</tr>\n<tr>\n<td>Property taxes</td>\n<td>9810</td>\n<td> </td>\n</tr>\n<tr>\n<td>Rent (land, buildings, pastures)</td>\n<td>9811</td>\n<td> </td>\n</tr>\n<tr>\n<td>Non-arm's length salaries</td>\n<td>9816</td>\n<td> </td>\n</tr>\n<tr>\n<td>Motor vehicle expenses</td>\n<td>9819</td>\n<td> </td>\n</tr>\n<tr>\n<td>Small tools</td>\n<td>9820</td>\n<td> </td>\n</tr>\n<tr>\n<td>Soil testing</td>\n<td>9821</td>\n<td> </td>\n</tr>\n<tr>\n<td>Licenses/permits</td>\n<td>9823</td>\n<td> </td>\n</tr>\n<tr>\n<td>Telephone</td>\n<td>9824</td>\n<td> </td>\n</tr>\n<tr>\n<td>Quota rental (tobacco, dairy)</td>\n<td>9825</td>\n<td> </td>\n</tr>\n<tr>\n<td>Gravel</td>\n<td>9826</td>\n<td> </td>\n</tr>\n<tr>\n<td>Purchases of commodities resold</td>\n<td>9827</td>\n<td> </td>\n</tr>\n<tr>\n<td>Motor vehicle interest and leasing costs</td>\n<td>9829</td>\n<td> </td>\n</tr>\n<tr>\n<td>Capital cost allowance</td>\n<td>9936</td>\n<td> </td>\n</tr>\n<tr>\n<td>Mandatory inventory adjustments - prior year</td>\n<td>9937</td>\n<td> </td>\n</tr>\n<tr>\n<td>Optional inventory adjustments - prior year</td>\n<td>9938</td>\n<td> </td>\n</tr>\n<tr>\n<td>Other (specify):</td>\n<td>9896</td>\n<td> </td>\n</tr>\n<tr>\n<td colspan=\"2\" class=\"text-right\"><b>Total E</b></td>\n<td>$</td>\n</tr>\n</tbody>\n</table>\n</figure><figure class=\"mrgn-lft-0\">\n<table class=\"table table-bordered mrgn-bttm-md\">\n<caption><b>Summary of expenses</b></caption>\n<tbody>\n<tr>\n<th scope=\"row\" class=\"text-right\">Total C</th>\n<td> </td>\n</tr>\n<tr>\n<th scope=\"row\" class=\"text-right\">Total D</th>\n<td>+</td>\n</tr>\n<tr>\n<th scope=\"row\" class=\"text-right\">Total E</th>\n<td>+</td>\n</tr>\n<tr>\n<th scope=\"row\" class=\"text-right\">Total expenses <span style=\"font-weight: normal;\" class=\"small\">(enter on line 9968 on page 4)</span></th>\n<td>$</td>\n</tr>\n</tbody>\n</table>\n</figure>\n<h2>Statement of farming activities (if applicable)</h2>\n<figure class=\"mrgn-lft-0\">\n<table class=\"table table-bordered mrgn-bttm-md\">\n<caption><span class=\"wb-inv\">Other items</span></caption><thead>\n<tr>\n<th scope=\"col\">Other items</th><th scope=\"col\">Code</th><th scope=\"col\">Amount</th>\n</tr>\n</thead>\n<tbody>\n<tr>\n<td>Gross farming income (enter total from \"Summary of income\" on page 2)</td>\n<td>9959</td>\n<td> </td>\n</tr>\n<tr>\n<td><b>Minus: </b>Total expenses (enter total from \"Summary of expenses\" on page 3)</td>\n<td>9968</td>\n<td> </td>\n</tr>\n<tr>\n<td><b>Net income (or loss) before adjustments </b>(line 9959 <b>minus</b> line 9968)</td>\n<td>9969</td>\n<td> </td>\n</tr>\n<tr>\n<td><b>Add: </b>Optional inventory adjustments - current year (if applicable)</td>\n<td>9941</td>\n<td> </td>\n</tr>\n<tr>\n<td><b>Add: </b>Mandatory inventory adjustments - current year (if applicable)</td>\n<td>9942</td>\n<td> </td>\n</tr>\n<tr>\n<td>Total (Optional inventory adjustments + Mandatory inventory adjustments)</td>\n<td> </td>\n<td> </td>\n</tr>\n<tr>\n<td><b>Net income (or loss) after adjustments</b></td>\n<td>9944</td>\n<td> </td>\n</tr>\n<tr>\n<td><b>Net farming income (or loss)</b></td>\n<td>9946</td>\n<td> </td>\n</tr>\n</tbody>\n</table>\n</figure><figure class=\"mrgn-lft-0\">\n<table class=\"table table-bordered mrgn-bttm-md\">\n<caption><b>Shareholder/Member information</b></caption><thead>\n<tr>\n<th scope=\"col\">Name of shareholder/member</th><th scope=\"col\">AgriStability/AgriInvest Participant Identification Number (PIN)</th>\n</tr>\n</thead>\n<tbody>\n<tr>\n<td> </td>\n<td> </td>\n</tr>\n<tr>\n<td> </td>\n<td> </td>\n</tr>\n<tr>\n<td> </td>\n<td> </td>\n</tr>\n</tbody>\n</table>\n</figure>\n<h3>Partnership information</h3>\n<ul>\n<li>Partnership Name:</li>\n</ul>\n<p><b>Note:</b> Enter a Participant Identification Number (PIN) for each of your partners. Enter the first and last names for individual partners. Enter the corporation's name for corporate partners. Your partnership's total shares must equal 100%.</p>\n<ul>\n<li>Your % share of the partnership:</li>\n</ul>\n<figure class=\"mrgn-lft-0\">\n<table class=\"table table-bordered mrgn-bttm-md\">\n<caption><span class=\"wb-inv\">Partnership Information</span></caption><thead>\n<tr>\n<th scope=\"col\">AgriStability/AgriInvest PIN</th><th scope=\"col\">Individual's first name</th><th scope=\"col\">Individual's last name</th><th scope=\"col\">Corporation name</th><th scope=\"col\">% share</th>\n</tr>\n</thead>\n<tbody>\n<tr>\n<td> </td>\n<td> </td>\n<td> </td>\n<td> </td>\n<td>%</td>\n</tr>\n<tr>\n<td> </td>\n<td> </td>\n<td> </td>\n<td> </td>\n<td>%</td>\n</tr>\n<tr>\n<td> </td>\n<td> </td>\n<td> </td>\n<td> </td>\n<td>%</td>\n</tr>\n<tr>\n<td> </td>\n<td> </td>\n<td> </td>\n<td> </td>\n<td>%</td>\n</tr>\n<tr>\n<td> </td>\n<td> </td>\n<td> </td>\n<td> </td>\n<td>%</td>\n</tr>\n<tr>\n<td> </td>\n<td> </td>\n<td> </td>\n<td> </td>\n<td>%</td>\n</tr>\n<tr>\n<td> </td>\n<td> </td>\n<td> </td>\n<td> </td>\n<td>%</td>\n</tr>\n</tbody>\n</table>\n</figure>\n<h2>This page to be completed by AgriStability participants only</h2>\n<ul>\n<li>PIN</li>\n<li>Has the productive capacity of this operation decreased during the program year due to disaster circumstances? \n<ul>\n<li>For crops: (Yes/No)</li>\n<li>For livestock: (Yes/No)</li>\n</ul>\n</li>\n<li>If you participated in crop or production insurance in the program year for this operation, please provide the Contract or Identification numbers below.</li>\n</ul>\n<h3>Crop inventory valuation and productive capacity</h3>\n<figure class=\"mrgn-lft-0\">\n<table class=\"table table-bordered mrgn-bttm-md\">\n<thead>\n<tr>\n<th scope=\"col\">Code</th><th scope=\"col\">Crop/Grade</th><th scope=\"col\">Units</th><th scope=\"col\">Acres</th><th scope=\"col\">Unseedable acres</th><th scope=\"col\">Quantity produced</th><th scope=\"col\">Ending inventory</th><th scope=\"col\">End of year price $</th>\n</tr>\n</thead>\n<tbody>\n<tr>\n<td> </td>\n<td> </td>\n<td> </td>\n<td> </td>\n<td> </td>\n<td> </td>\n<td> </td>\n<td> </td>\n</tr>\n<tr>\n<td> </td>\n<td> </td>\n<td> </td>\n<td> </td>\n<td> </td>\n<td> </td>\n<td> </td>\n<td> </td>\n</tr>\n<tr>\n<td> </td>\n<td> </td>\n<td> </td>\n<td> </td>\n<td> </td>\n<td> </td>\n<td> </td>\n<td> </td>\n</tr>\n<tr>\n<td> </td>\n<td> </td>\n<td> </td>\n<td> </td>\n<td> </td>\n<td> </td>\n<td> </td>\n<td> </td>\n</tr>\n<tr>\n<td>17</td>\n<td colspan=\"2\">Summerfallow acres</td>\n<td> </td>\n<td colspan=\"4\"> </td>\n</tr>\n<tr>\n<td>18</td>\n<td colspan=\"2\">Pasture acres</td>\n<td> </td>\n<td colspan=\"4\"> </td>\n</tr>\n<tr>\n<td>19</td>\n<td colspan=\"2\">Wasteland acres</td>\n<td> </td>\n<td colspan=\"4\"> </td>\n</tr>\n</tbody>\n</table>\n</figure>\n<h3>Livestock inventory valuation</h3>\n<figure class=\"mrgn-lft-0\">\n<table class=\"table table-bordered mrgn-bttm-md\">\n<thead>\n<tr>\n<th scope=\"col\">Code</th><th scope=\"col\">Description</th><th scope=\"col\">Ending inventory</th><th scope=\"col\">End of year price $</th>\n</tr>\n</thead>\n<tbody>\n<tr>\n<td> </td>\n<td> </td>\n<td> </td>\n<td> </td>\n</tr>\n<tr>\n<td> </td>\n<td> </td>\n<td> </td>\n<td> </td>\n</tr>\n<tr>\n<td> </td>\n<td> </td>\n<td> </td>\n<td> </td>\n</tr>\n<tr>\n<td> </td>\n<td> </td>\n<td> </td>\n<td> </td>\n</tr>\n</tbody>\n</table>\n</figure>\n<h3>Livestock productive capacity</h3>\n<figure class=\"mrgn-lft-0\">\n<table class=\"table table-bordered mrgn-bttm-md\">\n<caption><span class=\"wb-inv\">Productive animals</span> </caption><thead>\n<tr>\n<th scope=\"col\" colspan=\"2\">Productive animals</th><th scope=\"col\">Units</th><th scope=\"col\">2018</th>\n</tr>\n</thead>\n<tbody>\n<tr>\n<td>104</td>\n<td>Cattle</td>\n<td>Number of cows that calved</td>\n<td> </td>\n</tr>\n<tr>\n<td>123</td>\n<td>Hogs, farrow to finish</td>\n<td>Number of sows that farrowed</td>\n<td> </td>\n</tr>\n<tr>\n<td>145</td>\n<td>Hogs, farrowing</td>\n<td>Number of sows that farrowed</td>\n<td> </td>\n</tr>\n</tbody>\n</table>\n</figure><figure class=\"mrgn-lft-0\">\n<table class=\"table table-bordered mrgn-bttm-md\">\n<caption><span class=\"wb-inv\">Number of feeder livestock</span> </caption><thead>\n<tr>\n<th scope=\"col\" colspan=\"2\">Number of feeder livestock</th><th scope=\"col\">Units</th><th scope=\"col\">2018</th>\n</tr>\n</thead>\n<tbody>\n<tr>\n<td>105</td>\n<td>Feeder cattle (fed up to 900 lbs)</td>\n<td>Number of animals fed</td>\n<td> </td>\n</tr>\n<tr>\n<td>106</td>\n<td>Finished cattle (fed over 900 lbs)</td>\n<td>Number of animals fed</td>\n<td> </td>\n</tr>\n<tr>\n<td>125</td>\n<td>Hogs, nursery (fed up to 50 lbs)</td>\n<td>Number of animals fed</td>\n<td> </td>\n</tr>\n<tr>\n<td>124</td>\n<td>Hogs, feeders (fed over 50 lbs)</td>\n<td>Number of animals fed</td>\n<td> </td>\n</tr>\n</tbody>\n</table>\n</figure><figure class=\"mrgn-lft-0\">\n<table class=\"table table-bordered mrgn-bttm-md\">\n<caption><span class=\"wb-inv\">Custom fed livestock</span> </caption><thead>\n<tr>\n<th scope=\"col\" colspan=\"2\">Custom fed livestock</th><th scope=\"col\">Units</th><th scope=\"col\">2018</th>\n</tr>\n</thead>\n<tbody>\n<tr>\n<td>141</td>\n<td>Cattle</td>\n<td>Number of animal feed days</td>\n<td> </td>\n</tr>\n<tr>\n<td>142</td>\n<td>Hogs</td>\n<td>Number of animal feed days</td>\n<td> </td>\n</tr>\n<tr>\n<td> </td>\n<td> </td>\n<td> </td>\n<td> </td>\n</tr>\n</tbody>\n</table>\n</figure><figure class=\"mrgn-lft-0\">\n<table class=\"table table-bordered mrgn-bttm-md\">\n<caption><span class=\"wb-inv\">Supply managed commodities</span> </caption><thead>\n<tr>\n<th scope=\"col\" colspan=\"2\">Supply managed commodities</th><th scope=\"col\">Units</th><th scope=\"col\">2018</th>\n</tr>\n</thead>\n<tbody>\n<tr>\n<td>113</td>\n<td>Dairy</td>\n<td>Kilograms butterfat/day</td>\n<td> </td>\n</tr>\n<tr>\n<td>108</td>\n<td>Chickens, layers, broiler eggs for hatching</td>\n<td>Number producing</td>\n<td> </td>\n</tr>\n<tr>\n<td>109</td>\n<td>Chickens, layers, eggs for consumption</td>\n<td>Number producing</td>\n<td> </td>\n</tr>\n<tr>\n<td>143</td>\n<td>Chickens, broilers</td>\n<td>Kilograms produced</td>\n<td> </td>\n</tr>\n<tr>\n<td>144</td>\n<td>Turkeys, broilers</td>\n<td>Kilograms produced</td>\n<td> </td>\n</tr>\n</tbody>\n</table>\n</figure><figure class=\"mrgn-lft-0\">\n<table class=\"table table-bordered mrgn-bttm-md\">\n<caption><span class=\"wb-inv\">Other (specify below)</span></caption><thead>\n<tr>\n<th scope=\"col\" colspan=\"2\">Other (specify below)</th><th scope=\"col\">Units</th><th scope=\"col\">2018</th>\n</tr>\n</thead>\n<tbody>\n<tr>\n<td> </td>\n<td> </td>\n<td> </td>\n<td> </td>\n</tr>\n<tr>\n<td> </td>\n<td> </td>\n<td> </td>\n<td> </td>\n</tr>\n</tbody>\n</table>\n</figure>\n<h3>Purchased inputs</h3>\n<figure class=\"mrgn-lft-0\">\n<table class=\"table table-bordered mrgn-bttm-md\">\n<thead>\n<tr>\n<th scope=\"col\">Code</th><th scope=\"col\">Description</th><th scope=\"col\">End of year amount ($)</th>\n</tr>\n</thead>\n<tbody>\n<tr>\n<td> </td>\n<td> </td>\n<td> </td>\n</tr>\n<tr>\n<td> </td>\n<td> </td>\n<td> </td>\n</tr>\n<tr>\n<td> </td>\n<td> </td>\n<td> </td>\n</tr>\n<tr>\n<td> </td>\n<td> </td>\n<td> </td>\n</tr>\n<tr>\n<td> </td>\n<td> </td>\n<td> </td>\n</tr>\n<tr>\n<td> </td>\n<td> </td>\n<td> </td>\n</tr>\n</tbody>\n</table>\n</figure>\n<h3>Deferred income and receivables</h3>\n<figure class=\"mrgn-lft-0\">\n<table class=\"table table-bordered mrgn-bttm-md\">\n<thead>\n<tr>\n<th scope=\"col\">Code</th><th scope=\"col\">Description</th><th scope=\"col\">Ending receivables and income deferred to 2019 ($)</th>\n</tr>\n</thead>\n<tbody>\n<tr>\n<td>4020</td>\n<td>Expected grains and oilseeds pool payments</td>\n<td> </td>\n</tr>\n<tr>\n<td> </td>\n<td> </td>\n<td> </td>\n</tr>\n<tr>\n<td> </td>\n<td> </td>\n<td> </td>\n</tr>\n<tr>\n<td> </td>\n<td> </td>\n<td> </td>\n</tr>\n<tr>\n<td> </td>\n<td> </td>\n<td> </td>\n</tr>\n</tbody>\n</table>\n</figure>\n<h3>Accounts payable</h3>\n<figure class=\"mrgn-lft-0\">\n<table class=\"table table-bordered mrgn-bttm-md\">\n<thead>\n<tr>\n<th scope=\"col\">Code</th><th scope=\"col\">Description</th><th scope=\"col\">End of year amount ($)</th>\n</tr>\n</thead>\n<tbody>\n<tr>\n<td> </td>\n<td> </td>\n<td> </td>\n</tr>\n<tr>\n<td> </td>\n<td> </td>\n<td> </td>\n</tr>\n<tr>\n<td> </td>\n<td> </td>\n<td> </td>\n</tr>\n<tr>\n<td> </td>\n<td> </td>\n<td> </td>\n</tr>\n<tr>\n<td> </td>\n<td> </td>\n<td> </td>\n</tr>\n<tr>\n<td> </td>\n<td> </td>\n<td> </td>\n</tr>\n</tbody>\n</table>\n</figure>\n<div class=\"mrgn-tp-lg mrgn-bttm-md brdr-bttm\"></div>\n<h2>Confidential information and participant consent</h2>\n<p>Agriculture and Agri-Food Canada (AAFC) and the Canada Revenue Agency (CRA) are committed to protecting the privacy of your information. The information on this form, including your Social Insurance Number (SIN) and Participant Identification Number (PIN) is collected under the authority of Section 4 of the <cite>Farm Income Protection Act</cite> (FIPA) and will be used exclusively for the purposes of:</p>\n<ul>\n<li>administering your participation in the AgriStability and AgriInvest programs</li>\n<li>determining your eligibility for benefits</li>\n<li>verifying the information submitted</li>\n<li>issuing tax receipts</li>\n<li>administering benefits under other farm income and special assistance programs and</li>\n<li>for purposes of audit, analysis, and evaluation of the AgriStability and AgriInvest and other farm income and special assistance programs by the Administration, AAFC, the provincial or territorial governments or third parties engaged for that purpose</li>\n</ul>\n<p>By completing this form you authorize the Administration, the provincial and territorial governments, administrators of other farm income and special assistance programs, and third parties possessing information relevant to the administration of, and your participation in, the AgriStability and AgriInvest programs to share such information with AAFC.</p>\n<p>All applicants except Status Indians and Band farms: by completing this form, you authorize the CRA to share information from this form with AAFC, and you authorize AAFC, where relevant, to share the information on the form and any additional information that is provided as the application is processed, with the CRA, the Administration, provincial and territorial governments and with the administrators of other federal/provincial farm programs.</p>\n<p>Status Indians and Band farms: AAFC agrees that information provided by Status Indians and Band farms to the AgriStability and AgriInvest programs will not be disclosed to CRA by the Administration, unless disclosure is required by law. By completing and submitting this form you authorize the Administration to share information from this form with AAFC, and authorize AAFC to share the information on the form and any additional information that is provided as the application is processed, with provincial or territorial governments and with the administrators of other federal/provincial farm programs.</p>\n<p>If you do not consent to the sharing of information described herein you may be ineligible to participate in the AgriStability or AgriInvest programs or receive benefits or adjustments to benefits under the AgriStability and AgriInvest programs.</p>\n<p>You have the right to access the personal information held by federal departments and to request changes to incorrect personal information. For more information about your rights regarding the <cite>Privacy Act</cite> contact the Access to Information and Privacy Directorate at the Canada Revenue Agency at <a href=\"mailto:ATIP-AIPRP@cra-arc.gc.ca\">ATIP-AIPRP@cra-arc.gc.ca</a> or the AAFC Access to Information and Privacy Coordinator at <a href=\"mailto:aafc.atip-aiprp.aac@canada.ca\">aafc.atip-aiprp.aac@canada.ca</a> and reference CRA PPU 005, CRA PPU 025 and/or AAFC PPU 183.</p>\n<p>In addition, by submitting this form for benefits under the AgriStability and AgriInvest programs, you:</p>\n<ol>\n<li>certify that the information provided is complete and correct;</li>\n<li>declare that the structure of this farming operation has not been altered or created for the purpose of manipulating program benefits or avoiding prescribed maximum limits on program payments;</li>\n<li>understand and agree that any interim or targeted advance payment of AgriStability program funds will be deducted in the calculation of a final AgriStability program payment;</li>\n<li>agree that you will repay any amounts paid to you by the AgriStability and AgriInvest programs that are in excess of the amount calculated under the program rules and understand that any amount you owe to the Crown may be subtracted from any payments to be sent to you by the Crown;</li>\n<li>understand that interest will be charged on overpayments;</li>\n<li>understand and agree that the information you submit may be combined with the information of other participants for the purposes of determining AgriStability and AgriInvest benefits, and consent to the disclosure of information pertaining to you or your financial affairs to the other participants who are being combined with your information;</li>\n<li>understand and certify that where you have provided information about other individuals or entities you have been authorized by those individuals or entities to provide that information;</li>\n<li>understand and agree that where you have provided information about other individuals or entities, if they request to see the information you have submitted about them, the Administration will give them access to that information; </li>\n<li>understand and agree that the person you identified on this form as your contact person may receive information relating to your application from the Administration and may instruct the Administration to modify information relating to your application;</li>\n<li>consent to third parties, CRA and other government programs disclosing to the Administration, upon its request, any information pertaining to you or your financial affairs which the Administration considers necessary for the purpose of verifying the AgriStability and AgriInvest benefit or the information provided on this form; and</li>\n<li>understand that it is a criminal offence to make a false statement in application for program benefits and any declarations made are subject to audit.</li>\n</ol>\n\r\n    ",
        "fr": "\r\n    <div class=\"well\">\n<p>Ce document Web <b>n'est pas</b> un formulaire. Il a pour but d'afficher le contenu du formulaire aux fins de visionnement seulement. Si vous souhaitez soumettre un formulaire, vous <b>devez</b> utiliser <a href=\"https://www.agr.gc.ca/resources/prod/doc/pol/grow-croiss/brm-gre/agrista/pdf/2018/as_ai_20180601_statement_a-fra.pdf\">\u00c9tat A 2018 \u2013 Soci\u00e9t\u00e9s, coop\u00e9ratives et particuliers de cat\u00e9gorie sp\u00e9ciale (Version PDF, 310 Ko)</a>.</p>\n<p>Si vous avez de la difficult\u00e9 \u00e0 utiliser le format de rechange, veuillez t\u00e9l\u00e9phoner au <span class=\"nowrap\">1-866-367-8506</span>.</p>\n</div>\n\n\n<div class=\"well\">\n<p>Si vous avez plus d\u2019une exploitation agricole (une entreprise individuelle et une ou plusieurs soci\u00e9t\u00e9s de personnes), remplissez l\u2019\u00c9tat A pour votre premi\u00e8re exploitation agricole. Remplir  <a href=\"?id=1516217067571\">l\u2019\u00c9tat B</a> pour chaque exploitation agricole suppl\u00e9mentaire.</p>\n\n<p>Utilisez le <a href=\"?id=1516217721068\">le Programmes d'Agri-stabilit\u00e9 et d'Agri-investissement en 2018 : Guide et formulaire harmonis\u00e9s pour les soci\u00e9t\u00e9, les coop\u00e9rative et les particulier de cat\u00e9gorie sp\u00e9ciale</a> pour vous aider \u00e0 remplir votre formulaire.</p>\n</div>\n\n<p><b>Prot\u00e9g\u00e9 B une fois rempli</b></p>\n<h2>Renseignements du participant</h2>\n<h3>Identification du participant</h3>\n<ul>\n<li>Pr\u00e9nom/ Nom de l'entit\u00e9</li>\n<li>Nom de famille</li>\n<li>Adresse</li>\n<li>Ville/Village</li>\n<li>Province/Territoire</li>\n<li>Code postal</li>\n<li>Num\u00e9ro de t\u00e9l\u00e9phone</li>\n<li>Num\u00e9ro de t\u00e9l\u00e9copieur</li>\n<li>Adresse courriel</li>\n<li>Num\u00e9ro d'identification du participant (NIP)</li>\n<li><b>Remarque</b> : Vous devez inscrire votre NIP sauf si aucun ne vous a \u00e9t\u00e9 attribu\u00e9.</li>\n<li>Num\u00e9ro d'assurance sociale (NAS)</li>\n<li>Num\u00e9ro d'entreprise</li>\n<li>Num\u00e9ro de fiducie</li>\n<li>Num\u00e9ro de la bande</li>\n<li>Langue de correspondance : (Fran\u00e7ais/Anglais)</li>\n</ul>\n<h3>Renseignements de la personne-ressource</h3>\n<p>Si vous souhaitez qu'une autre personne fournisse des renseignements en votre nom, fournissez tous les d\u00e9tails dans cette section. Ceci s'applique seulement aux programmes Agri-stabilit\u00e9 et Agri-investissement.</p>\n<p>Si vous voulez d\u00e9signer une personne-ressource, cochez la case :</p>\n<ul>\n<li>Pr\u00e9nom</li>\n<li>Nom de famille</li>\n<li>Nom de l'entreprise</li>\n<li>Adresse</li>\n<li>Ville/Village</li>\n<li>Province/Territoire</li>\n<li>Code postal</li>\n<li>Num\u00e9ro de t\u00e9l\u00e9phone</li>\n<li>Num\u00e9ro de t\u00e9l\u00e9copieur</li>\n</ul>\n<p>Voulez-vous qu'une copie de votre avis de calcul des paiements du programme Agri-stabilit\u00e9 soit envoy\u00e9e \u00e0 votre personne-ressource? (Oui/Non)</p>\n<p><b>Remarque</b> : Si vous avez une personne-ressource, vous devez remplir cette section \u00e0 chaque fois que vous soumettez ce formulaire. L'administration Agri-stabilit\u00e9 et Agri-investissement remplaceront la personne-ressource pr\u00e9c\u00e9dente d\u00e9sign\u00e9e avec le nom que vous fournissez ici.</p>\n<p>En fournissant le nom de votre personne-ressource, vous autorisez l'administration Agri-stabilit\u00e9 et Agri-investissement \u00e0 recevoir de l'information et de d\u00e9voiler de l'information \u00e0 la personne-ressource, et \u00e0 faire des changements \u00e0 vos demandes selon la directive de la personne-ressource.</p>\n<h3>Vos renseignements agricoles</h3>\n<ul>\n<li>Province/Territoire o\u00f9 se situe la ferme</li>\n<li>Nombre d'ann\u00e9es d'exploitation de la ferme</li>\n<li>L\u2019ann\u00e9e 2018, est-elle votre derni\u00e8re ann\u00e9e d'exploitation? (Oui/Non)</li>\n<li>Avez-vous compl\u00e9t\u00e9 un cycle de production pour au moins un de vos produits? (Oui/Non)</li>\n<li>Si vous avez r\u00e9pondu \u00ab Non \u00bb \u00e0 la question pr\u00e9c\u00e9dente, \u00e9tait-ce \u00e0 cause d\u2019une catastrophe naturelle? (Oui/Non)</li>\n</ul>\n<h3>Titulaire d'une charge publique f\u00e9d\u00e9rale ou un employ\u00e9 d'Agriculture et Agroalimentaire Canada</h3>\n<p>Est-ce que vous, ou quelqu'un d'autre qui a particip\u00e9 en votre nom \u00e0 la pr\u00e9paration de ce formulaire, \u00eates un fonctionnaire f\u00e9d\u00e9ral actuel ou pass\u00e9 d'Agriculture et Agroalimentaire Canada? (Oui/Non)</p>\n<h3>Type de ferme</h3>\n<p>(cochez toutes les r\u00e9ponses qui s'appliquent)</p>\n<ul>\n<li>Soci\u00e9t\u00e9 \n<ul>\n<li>date de constitution (Ann\u00e9e/Mois/Jour)</li>\n</ul>\n</li>\n<li>Coop\u00e9rative</li>\n<li>Organisme communautaire</li>\n<li>Associ\u00e9 d'une soci\u00e9t\u00e9 de personnes</li>\n<li>Soci\u00e9t\u00e9 \u00e0 responsabilit\u00e9 limit\u00e9e</li>\n<li>Indien inscrit pratiquant l'agriculture dans une r\u00e9serve</li>\n<li>exploitation agricole appartenant \u00e0 une bande</li>\n<li>Fiducie</li>\n<li>En cas de d\u00e9c\u00e8s du participant, veuillez indiquer la date du d\u00e9c\u00e8s (Ann\u00e9e/Mois/Jour)</li>\n</ul>\n<h2>Autres renseignements agricoles</h2>\n<ul>\n<li>Endroit o\u00f9 se situe la ferme principale, indiquez le nom et le num\u00e9ro de votre district, de votre comt\u00e9 ou de votre municipalit\u00e9 :<br><b>Yukon</b> et <b>Colombie-Britannique</b> \u2013 district<br><b>Nouveau-Brunswick </b>et <b>Nouvelle-\u00c9cosse</b> \u2013 comt\u00e9<br><b>Manitoba</b> \u2013 municipalit\u00e9<br>\n<ul>\n<li>Nom de district/comt\u00e9/municipalit\u00e9 :</li>\n<li>Num\u00e9ro de district/comt\u00e9/municipalit\u00e9 :</li>\n</ul>\n</li>\n</ul>\n<h3>Op\u00e9rations regroup\u00e9es</h3>\n<p>Selon l'approche de soutien Agri-stabilit\u00e9 de l'ensemble de l'exploitation agricole \u00e9nonc\u00e9e dans le guide, cette entreprise agricole doit-elle \u00eatre regroup\u00e9e avec une autre pour l'ann\u00e9e de programme 2018? (Oui/Non)</p>\n<p><b>Remarque</b> : Si vous ont \u00e9t\u00e9 combin\u00e9s dans votre derni\u00e8re ann\u00e9e de participation, vous serez automatiquement combin\u00e9s pour 2018, sauf si vous r\u00e9pondez \u00ab non \u00bb \u00e0 la question ci-dessus.</p>\n<ul>\n<li>Si vous devrez \u00eatre regroup\u00e9e avec une autre pour l'ann\u00e9e 2018, ou si vous l'\u00e9tiez mais ne devriez plus l'\u00eatre, entrez le NIP qui devrait \u00eatre ajout\u00e9 ou enlev\u00e9 de l'ensemble de l'exploitation agricole. \n<ul>\n<li>Ajouter/Enlever</li>\n<li>Ajouter/Enlever</li>\n<li>Ajouter/Enlever</li>\n</ul>\n</li>\n</ul>\n<h2>Identification \u2013 Remplir l'\u00c9tat B pour chaque exploitation agricole suppl\u00e9mentaire</h2>\n<ul>\n<li>Propri\u00e9taire unique/Soci\u00e9t\u00e9 de personnes<br><b>Remarque</b> : Si vous faites partie d'une soci\u00e9t\u00e9 de personnes, veuillez remplir la section qui s'y rapporte \u00e0 la page 4.</li>\n<li>Exercice \n<ul>\n<li>Du : (Ann\u00e9e/Mois/Jour)</li>\n<li>Au : (Ann\u00e9e/Mois/Jour)</li>\n</ul>\n</li>\n<li>M\u00e9thode de comptabilit\u00e9  \n<ul>\n<li><b>Entrez le code 1</b> : Si vous d\u00e9clarez vos donn\u00e9es des programmes Agri-stabilit\u00e9 et Agri-investissement et \u00e0 l'Agence du revenu du Canada (ARC) selon la comptabilit\u00e9<b> d'exercice</b></li>\n<li><b>Entrez le code 2</b> : Si vous d\u00e9clarez vos donn\u00e9es des programmes Agri-stabilit\u00e9 et Agri-investissement et \u00e0 l'ARC selon la comptabilit\u00e9 de <b>caisse</b>.</li>\n</ul>\n</li>\n<li>Votre activit\u00e9 agricole comprenait-elle l'une des composantes suivantes? (Cochez toutes les cases applicables pour cette exploitation.) : \n<ul>\n<li>membre d'une association d'engraisseurs</li>\n<li>m\u00e9tayage (propri\u00e9taire)</li>\n<li>m\u00e9tayage (locataire)</li>\n</ul>\n</li>\n</ul>\n<h2>Revenus</h2>\n<p>Indiquez le code applicable \u00e0 chacune des inscriptions sur le formulaire. Les codes figurent sur la Liste des produits et la Liste des paiements de programme du Guide harmonis\u00e9.</p>\n<p><b>Arrondissez tous les montants au dollar pr\u00e8s.</b></p>\n<figure class=\"mrgn-lft-0\">\n<div class=\"row\">\n<div class=\"col-md-10\">\n<table class=\"table table-bordered mrgn-bttm-md\">\n<caption><span class=\"hidden\">Ventes de produits et paiements provenant de programmes</span></caption><thead>\n<tr>\n<th scope=\"col\">Ventes de produits et paiements provenant de programmes</th><th scope=\"col\">Code</th><th scope=\"col\">Montant</th>\n</tr>\n</thead>\n<tbody>\n<tr>\n<td> </td>\n<td> </td>\n<td> </td>\n</tr>\n<tr>\n<td> </td>\n<td> </td>\n<td> </td>\n</tr>\n<tr>\n<td> </td>\n<td> </td>\n<td> </td>\n</tr>\n<tr>\n<td class=\"text-right\"><b>Total A</b></td>\n<td>9950</td>\n<td class=\"text-right\">$</td>\n</tr>\n</tbody>\n</table>\n</div>\n</div>\n</figure><figure class=\"mrgn-lft-0\">\n<table class=\"table table-bordered mrgn-bttm-md\">\n<caption><span class=\"hidden\">Autres revenus agricoles</span> </caption><thead>\n<tr>\n<th scope=\"col\">Autres revenus agricoles</th><th scope=\"col\">Ligne</th><th scope=\"col\">Montant</th>\n</tr>\n</thead>\n<tbody>\n<tr>\n<td>Autres paiements de programmes</td>\n<td>9540</td>\n<td> </td>\n</tr>\n<tr>\n<td>Gestion des risques de l'entreprise (GRE) et programmes d'aide en cas de catastrophe</td>\n<td>9544</td>\n<td> </td>\n</tr>\n<tr>\n<td>Reventes, remises, TPS/TVH pour d\u00e9penses admissibles</td>\n<td>9574</td>\n<td> </td>\n</tr>\n<tr>\n<td>Reventes, remises, TPS/TVH pour d\u00e9penses non admissibles et r\u00e9cup\u00e9ration de la d\u00e9duction pour amortissement (DPA)</td>\n<td>9575</td>\n<td> </td>\n</tr>\n<tr>\n<td>Travail agricole \u00e0 contrat</td>\n<td>9601</td>\n<td> </td>\n</tr>\n<tr>\n<td>Ristournes</td>\n<td>9605</td>\n<td> </td>\n</tr>\n<tr>\n<td>Int\u00e9r\u00eats</td>\n<td>9607</td>\n<td> </td>\n</tr>\n<tr>\n<td>Gravier</td>\n<td>9610</td>\n<td> </td>\n</tr>\n<tr>\n<td>Camionnage (li\u00e9 \u00e0 l'exploitation agricole seulement)</td>\n<td>9611</td>\n<td> </td>\n</tr>\n<tr>\n<td>Reventes de produits achet\u00e9s</td>\n<td>9612</td>\n<td> </td>\n</tr>\n<tr>\n<td>Contrats de location (gaz, puits de p\u00e9trole, baux de surface, etc.)</td>\n<td>9613</td>\n<td> </td>\n</tr>\n<tr>\n<td>Location de machinerie</td>\n<td>9614</td>\n<td> </td>\n</tr>\n<tr>\n<td>Autres (pr\u00e9cisez) :</td>\n<td>9600</td>\n<td> </td>\n</tr>\n<tr>\n<td colspan=\"2\" class=\"text-right\"><b>Total B</b></td>\n<td class=\"text-right\">$</td>\n</tr>\n</tbody>\n</table>\n</figure><figure class=\"mrgn-lft-0\">\n<div class=\"row\">\n<div class=\"col-md-4\">\n<table class=\"table table-bordered mrgn-bttm-md\">\n<caption><b>Sommaire des revenus</b> </caption>\n<tbody>\n<tr>\n<th scope=\"row\" class=\"text-right\">Total A</th>\n<td> </td>\n</tr>\n<tr>\n<th scope=\"row\" class=\"text-right\">Total B</th>\n<td>+</td>\n</tr>\n<tr>\n<th scope=\"row\" class=\"text-right\">Revenu agricole brut <span style=\"font-weight: normal;\" class=\"small\">(inscrivez \u00e0 la ligne 9968 \u00e0 la page 4)</span></th>\n<td class=\"text-right\">$</td>\n</tr>\n</tbody>\n</table>\n</div>\n</div>\n</figure>\n<h2>D\u00e9penses</h2>\n<p>Indiquez le code applicable \u00e0 chacune des inscriptions sur le formulaire. Les codes figurent sur la Liste des produits et la Liste des paiements de programme du Guide harmonis\u00e9.</p>\n<p><b>Arrondissez tous les montants au dollar pr\u00e8s.</b></p>\n<figure class=\"mrgn-lft-0\">\n<div class=\"row\">\n<div class=\"col-md-10\">\n<table class=\"table table-bordered mrgn-bttm-md\">\n<caption><span class=\"hidden\">Achats de produits et remboursement de paiements provenant de programmes</span> </caption><thead>\n<tr>\n<th scope=\"col\"><span>Achats de produits et remboursement de paiements provenant de programmes</span></th><th scope=\"col\">Code</th><th scope=\"col\">Montant</th>\n</tr>\n</thead>\n<tbody>\n<tr>\n<td>Rajustements du point de vente</td>\n<td>575</td>\n<td> </td>\n</tr>\n<tr>\n<td> </td>\n<td> </td>\n<td> </td>\n</tr>\n<tr>\n<td> </td>\n<td> </td>\n<td> </td>\n</tr>\n<tr>\n<td class=\"text-right\"><b>Total C</b></td>\n<td>9960</td>\n<td class=\"text-right\">$</td>\n</tr>\n</tbody>\n</table>\n</div>\n</div>\n</figure><figure class=\"mrgn-lft-0\">\n<div class=\"row\">\n<div class=\"col-md-10\">\n<table class=\"table table-bordered mrgn-bttm-md\">\n<caption><span class=\"hidden\">D\u00e9penses admissibles</span> </caption><thead>\n<tr>\n<th scope=\"col\">D\u00e9penses admissibles</th><th scope=\"col\">Ligne</th><th scope=\"col\">Montant</th>\n</tr>\n</thead>\n<tbody>\n<tr>\n<td>Contenants et ficelles</td>\n<td>9661</td>\n<td> </td>\n</tr>\n<tr>\n<td>Engrais et suppl\u00e9ments pour le sol</td>\n<td>9662</td>\n<td> </td>\n</tr>\n<tr>\n<td>Pesticides et produits chimiques</td>\n<td>9663</td>\n<td> </td>\n</tr>\n<tr>\n<td>Primes d'assurance (r\u00e9colte ou production)</td>\n<td>9665</td>\n<td> </td>\n</tr>\n<tr>\n<td>Honoraires de v\u00e9t\u00e9rinaire, m\u00e9dicaments et co\u00fbts de reproduction</td>\n<td>9713</td>\n<td> </td>\n</tr>\n<tr>\n<td>Min\u00e9raux et sels</td>\n<td>9714</td>\n<td> </td>\n</tr>\n<tr>\n<td>Machinerie (essence, carburant diesel, huile)</td>\n<td>9764</td>\n<td> </td>\n</tr>\n<tr>\n<td>\u00c9lectricit\u00e9</td>\n<td>9799</td>\n<td> </td>\n</tr>\n<tr>\n<td>Transport et camionnage</td>\n<td>9801</td>\n<td> </td>\n</tr>\n<tr>\n<td>Combustible de chauffage</td>\n<td>9802</td>\n<td> </td>\n</tr>\n<tr>\n<td>Salaires vers\u00e9s \u00e0 des personnes sans lien de d\u00e9pendance</td>\n<td>9815</td>\n<td> </td>\n</tr>\n<tr>\n<td>Entreposage et s\u00e9chage</td>\n<td>9822</td>\n<td> </td>\n</tr>\n<tr>\n<td>Commissions et redevances</td>\n<td>9836</td>\n<td> </td>\n</tr>\n<tr>\n<td>Primes d'assurance priv\u00e9e pour des produits admissibles</td>\n<td>9953</td>\n<td> </td>\n</tr>\n<tr>\n<td colspan=\"2\" class=\"text-right\"><b>Total D</b></td>\n<td class=\"text-right\">$</td>\n</tr>\n</tbody>\n</table>\n</div>\n</div>\n</figure><figure class=\"mrgn-lft-0\">\n<div class=\"row\">\n<div class=\"col-md-10\">\n<table class=\"table table-bordered mrgn-bttm-md\">\n<caption><span class=\"hidden\">D\u00e9penses non admissibles</span> </caption><thead>\n<tr>\n<th scope=\"col\">D\u00e9penses non admissibles</th><th scope=\"col\">Ligne</th><th scope=\"col\">Montant</th>\n</tr>\n</thead>\n<tbody>\n<tr>\n<td>Machinerie (r\u00e9parations, permis, assurance)</td>\n<td>9760</td>\n<td> </td>\n</tr>\n<tr>\n<td>Location de machinerie</td>\n<td>9765</td>\n<td> </td>\n</tr>\n<tr>\n<td>Frais de publicit\u00e9 et de promotion</td>\n<td>9792</td>\n<td> </td>\n</tr>\n<tr>\n<td>R\u00e9parations de b\u00e2timents et de cl\u00f4tures</td>\n<td>9795</td>\n<td> </td>\n</tr>\n<tr>\n<td>D\u00e9frichage et drainage de terrains</td>\n<td>9796</td>\n<td> </td>\n</tr>\n<tr>\n<td>Travail agricole \u00e0 forfait</td>\n<td>9798</td>\n<td> </td>\n</tr>\n<tr>\n<td>Autres primes d'assurance</td>\n<td>9804</td>\n<td> </td>\n</tr>\n<tr>\n<td>Int\u00e9r\u00eats (hypoth\u00e8que, immobilier et autres)</td>\n<td>9805</td>\n<td> </td>\n</tr>\n<tr>\n<td>Cotisations de membres et abonnements</td>\n<td>9807</td>\n<td> </td>\n</tr>\n<tr>\n<td>Frais de bureau</td>\n<td>9808</td>\n<td> </td>\n</tr>\n<tr>\n<td>Frais comptables et juridiques</td>\n<td>9809</td>\n<td> </td>\n</tr>\n<tr>\n<td>Imp\u00f4ts fonciers</td>\n<td>9810</td>\n<td> </td>\n</tr>\n<tr>\n<td>Loyers (terrains, b\u00e2timents, p\u00e2turages)</td>\n<td>9811</td>\n<td> </td>\n</tr>\n<tr>\n<td>Salaires vers\u00e9s \u00e0 des personnes avec lien de d\u00e9pendance</td>\n<td>9816</td>\n<td> </td>\n</tr>\n<tr>\n<td>D\u00e9penses relatives aux v\u00e9hicules \u00e0 moteur</td>\n<td>9819</td>\n<td> </td>\n</tr>\n<tr>\n<td>Petit outillage</td>\n<td>9820</td>\n<td> </td>\n</tr>\n<tr>\n<td>Analyse des sols</td>\n<td>9821</td>\n<td> </td>\n</tr>\n<tr>\n<td>Licences et permis</td>\n<td>9823</td>\n<td> </td>\n</tr>\n<tr>\n<td>T\u00e9l\u00e9phone</td>\n<td>9824</td>\n<td> </td>\n</tr>\n<tr>\n<td>Location de contingents (tabac, lait)</td>\n<td>9825</td>\n<td> </td>\n</tr>\n<tr>\n<td>Gravier</td>\n<td>9826</td>\n<td> </td>\n</tr>\n<tr>\n<td>Achats de produits revendus</td>\n<td>9827</td>\n<td> </td>\n</tr>\n<tr>\n<td>Int\u00e9r\u00eats et frais de location d'un v\u00e9hicule \u00e0 moteur</td>\n<td>9829</td>\n<td> </td>\n</tr>\n<tr>\n<td>D\u00e9duction pour amortissement</td>\n<td>9936</td>\n<td> </td>\n</tr>\n<tr>\n<td>Rajustement obligatoire de l'inventaire \u2013 ann\u00e9e pr\u00e9c\u00e9dente</td>\n<td>9937</td>\n<td> </td>\n</tr>\n<tr>\n<td>Rajustement facultatif de l'inventaire \u2013 ann\u00e9e pr\u00e9c\u00e9dente</td>\n<td>9938</td>\n<td> </td>\n</tr>\n<tr>\n<td>Autres (pr\u00e9cisez) :</td>\n<td>9896</td>\n<td> </td>\n</tr>\n<tr>\n<td colspan=\"2\" class=\"text-right\"><b>Total E</b></td>\n<td class=\"text-right\">$</td>\n</tr>\n</tbody>\n</table>\n</div>\n</div>\n</figure><figure class=\"mrgn-lft-0\">\n<div class=\"row\">\n<div class=\"col-md-4\">\n<table class=\"table table-bordered mrgn-bttm-md\">\n<caption><b>Sommaire des d\u00e9penses</b> </caption>\n<tbody>\n<tr>\n<th scope=\"row\" class=\"text-right\">Total C</th>\n<td> </td>\n</tr>\n<tr>\n<th scope=\"row\" class=\"text-right\">Total D</th>\n<td>+</td>\n</tr>\n<tr>\n<th scope=\"row\" class=\"text-right\">Total E</th>\n<td>+</td>\n</tr>\n<tr>\n<th scope=\"row\" class=\"text-right\">Total des d\u00e9penses <span style=\"font-weight: normal;\" class=\"small\">(inscrivez \u00e0 la ligne 9968 \u00e0 la page 4)</span></th>\n<td class=\"text-right\">$</td>\n</tr>\n</tbody>\n</table>\n</div>\n</div>\n</figure>\n<h2>\u00c9tat des activit\u00e9s agricoles (si applicable)</h2>\n<figure class=\"mrgn-lft-0\">\n<div class=\"row\">\n<div class=\"col-md-10\">\n<table class=\"table table-bordered mrgn-bttm-md\">\n<caption><span class=\"hidden\">Autres</span></caption><thead>\n<tr>\n<th scope=\"col\">Autres</th><th scope=\"col\">Code</th><th scope=\"col\">Montant</th>\n</tr>\n</thead>\n<tbody>\n<tr>\n<td>Revenu agricole brut (inscrivez le total du \u00ab Sommaire des revenus \u00bb de la page 2)</td>\n<td>9959</td>\n<td> </td>\n</tr>\n<tr>\n<td><b>Moins : </b>Total des d\u00e9penses (inscrivez le total du \u00ab Sommaire des d\u00e9penses \u00bb de la page 3)</td>\n<td>9968</td>\n<td> </td>\n</tr>\n<tr>\n<td><b>Revenu net (perte nette) avant rajustements</b> (ligne 9959 <b>moins</b> ligne 9968)</td>\n<td>9969</td>\n<td> </td>\n</tr>\n<tr>\n<td><b>Plus : </b>Rajustement facultatif de l'inventaire \u2013 ann\u00e9e courante (s'il y a lieu)</td>\n<td>9941</td>\n<td> </td>\n</tr>\n<tr>\n<td><b>Plus : </b>Rajustement obligatoire de l'inventaire \u2013 ann\u00e9e courante (s'il y a lieu)</td>\n<td>9942</td>\n<td> </td>\n</tr>\n<tr>\n<td>Total (Rajustement facultatif de l'inventaire + Rajustement obligatoire de l'inventaire)</td>\n<td> </td>\n<td> </td>\n</tr>\n<tr>\n<td><b>Revenu net (perte nette) apr\u00e8s rajustements</b></td>\n<td>9944</td>\n<td> </td>\n</tr>\n<tr>\n<td><b>Revenu agricole net (perte nette)</b></td>\n<td>9946</td>\n<td> </td>\n</tr>\n</tbody>\n</table>\n</div>\n</div>\n</figure><figure class=\"mrgn-lft-0\">\n<table class=\"table table-bordered mrgn-bttm-md\">\n<caption><b>Renseignements sur l'actionnaire ou le membre</b> </caption><thead>\n<tr>\n<th scope=\"col\">Nom de l'actionnaire ou du membre</th><th scope=\"col\">Num\u00e9ro d'identification du participant (NIP) au programme Agri-stabilit\u00e9 et Agri-investissement</th>\n</tr>\n</thead>\n<tbody>\n<tr>\n<td> </td>\n<td> </td>\n</tr>\n<tr>\n<td> </td>\n<td> </td>\n</tr>\n<tr>\n<td> </td>\n<td> </td>\n</tr>\n</tbody>\n</table>\n</figure>\n<h3>Renseignements sur la soci\u00e9t\u00e9s de personnes</h3>\n<ul>\n<li>Nom de la soci\u00e9t\u00e9 de personnes</li>\n</ul>\n<p><b>Remarque :</b> Inscrivez le num\u00e9ro d'identification du participant (NIP) pour chacun de vos associ\u00e9s. Inscrivez le pr\u00e9nom et le nom des associ\u00e9s qui sont des particuliers. Inscrivez le nom de la soci\u00e9t\u00e9 pour les associ\u00e9s d'une soci\u00e9t\u00e9. Le total des quotes-parts de votre soci\u00e9t\u00e9 de personnes doivent s'additionner \u00e0 100 %.</p>\n<ul>\n<li>Inscrivez votre quote-part de la soci\u00e9t\u00e9:</li>\n</ul>\n<figure class=\"mrgn-lft-0\">\n<table class=\"table table-bordered mrgn-bttm-md\">\n<caption><span class=\"hidden\">Renseignements sur la soci\u00e9t\u00e9</span> </caption><thead>\n<tr>\n<th scope=\"col\">NIP d'Agri-stabilit\u00e9/ Agri-investissement</th><th scope=\"col\">Pr\u00e9nom du particulier</th><th scope=\"col\">Nom du particulier</th><th scope=\"col\">Nom de la soci\u00e9t\u00e9</th><th scope=\"col\">Quote-part %</th>\n</tr>\n</thead>\n<tbody>\n<tr>\n<td> </td>\n<td> </td>\n<td> </td>\n<td> </td>\n<td>%</td>\n</tr>\n<tr>\n<td> </td>\n<td> </td>\n<td> </td>\n<td> </td>\n<td>%</td>\n</tr>\n<tr>\n<td> </td>\n<td> </td>\n<td> </td>\n<td> </td>\n<td>%</td>\n</tr>\n<tr>\n<td> </td>\n<td> </td>\n<td> </td>\n<td> </td>\n<td>%</td>\n</tr>\n<tr>\n<td> </td>\n<td> </td>\n<td> </td>\n<td> </td>\n<td>%</td>\n</tr>\n<tr>\n<td> </td>\n<td> </td>\n<td> </td>\n<td> </td>\n<td>%</td>\n</tr>\n<tr>\n<td> </td>\n<td> </td>\n<td> </td>\n<td> </td>\n<td>%</td>\n</tr>\n</tbody>\n</table>\n</figure>\n<h2>Cette page ne doit \u00eatre remplie que par les participants du programme Agri-stabilit\u00e9</h2>\n<ul>\n<li>NIP</li>\n<li>La capacit\u00e9 de production de l'exploitation a-t-elle diminu\u00e9 au cours de l'ann\u00e9e de programme en raison d'une catastrophe? \n<ul>\n<li>Pour les cultures : (Oui/Non)</li>\n<li>Pour le b\u00e9tail : (Oui/Non)</li>\n</ul>\n</li>\n<li>Si vous avez particip\u00e9 au programme d'assurance-production ou d'assurance-r\u00e9colte au cours de l'ann\u00e9e de programme, inscrivez les num\u00e9ros de contrat ou d'identification dans les cases suivantes.</li>\n</ul>\n<h3>Valeur des stocks de cultures et capacit\u00e9 de production</h3>\n<figure class=\"mrgn-lft-0\">\n<table class=\"table table-bordered mrgn-bttm-md\">\n<caption><span class=\"hidden\">Valeur des stocks de cultures et capacit\u00e9 de production</span> </caption><thead>\n<tr>\n<th scope=\"col\">Code</th><th scope=\"col\">Culture/Grade</th><th scope=\"col\">Unit\u00e9s</th><th scope=\"col\">Acres</th><th scope=\"col\">Acres non ensemen\u00e7ables</th><th scope=\"col\">Quantit\u00e9 produite</th><th scope=\"col\">Stocks de fin</th><th scope=\"col\">Prix de fin d'ann\u00e9e ($)</th>\n</tr>\n</thead>\n<tbody>\n<tr>\n<td> </td>\n<td> </td>\n<td> </td>\n<td> </td>\n<td> </td>\n<td> </td>\n<td> </td>\n<td> </td>\n</tr>\n<tr>\n<td> </td>\n<td> </td>\n<td> </td>\n<td> </td>\n<td> </td>\n<td> </td>\n<td> </td>\n<td> </td>\n</tr>\n<tr>\n<td> </td>\n<td> </td>\n<td> </td>\n<td> </td>\n<td> </td>\n<td> </td>\n<td> </td>\n<td> </td>\n</tr>\n<tr>\n<td> </td>\n<td> </td>\n<td> </td>\n<td> </td>\n<td> </td>\n<td> </td>\n<td> </td>\n<td> </td>\n</tr>\n<tr>\n<td>17</td>\n<td colspan=\"2\">Acres en jach\u00e8re</td>\n<td> </td>\n<td colspan=\"4\"> </td>\n</tr>\n<tr>\n<td>18</td>\n<td colspan=\"2\">Acres de p\u00e2turage</td>\n<td> </td>\n<td colspan=\"4\"> </td>\n</tr>\n<tr>\n<td>19</td>\n<td colspan=\"2\">Acres inutilisables</td>\n<td> </td>\n<td colspan=\"4\"> </td>\n</tr>\n</tbody>\n</table>\n</figure>\n<h3>Valeur des stocks de b\u00e9tail</h3>\n<figure class=\"mrgn-lft-0\">\n<table class=\"table table-bordered mrgn-bttm-md\">\n<caption><span class=\"hidden\">Valeur des stocks de b\u00e9tail</span> </caption><thead>\n<tr>\n<th scope=\"col\">Code</th><th scope=\"col\">Description</th><th scope=\"col\">Stocks de fin</th><th scope=\"col\">Prix de fin d'ann\u00e9e ($)</th>\n</tr>\n</thead>\n<tbody>\n<tr>\n<td> </td>\n<td> </td>\n<td> </td>\n<td> </td>\n</tr>\n<tr>\n<td> </td>\n<td> </td>\n<td> </td>\n<td> </td>\n</tr>\n<tr>\n<td> </td>\n<td> </td>\n<td> </td>\n<td> </td>\n</tr>\n<tr>\n<td> </td>\n<td> </td>\n<td> </td>\n<td> </td>\n</tr>\n</tbody>\n</table>\n</figure>\n<h3>Capacit\u00e9 de production du b\u00e9tail</h3>\n<figure class=\"mrgn-lft-0\">\n<table class=\"table table-bordered mrgn-bttm-md\">\n<caption><span class=\"hidden\">Animaux productifs</span></caption><thead>\n<tr>\n<th scope=\"col\" colspan=\"2\">Animaux productifs</th><th scope=\"col\">Unit\u00e9s</th><th scope=\"col\">2018</th>\n</tr>\n</thead>\n<tbody>\n<tr>\n<td>104</td>\n<td>Bovins</td>\n<td>Nombre de vaches ayant mis bas</td>\n<td> </td>\n</tr>\n<tr>\n<td>123</td>\n<td>Porcs (naissage-finition)</td>\n<td>Nombre de truies ayant mis bas</td>\n<td> </td>\n</tr>\n<tr>\n<td>145</td>\n<td>Porcs (naissage)</td>\n<td>Nombre de truies ayant mis bas</td>\n<td> </td>\n</tr>\n</tbody>\n</table>\n</figure><figure class=\"mrgn-lft-0\">\n<table class=\"table table-bordered mrgn-bttm-md\">\n<caption><span class=\"hidden\">B\u00e9tail d'engraissement</span> </caption><thead>\n<tr>\n<th scope=\"col\" colspan=\"2\">B\u00e9tail d'engraissement</th><th scope=\"col\">Unit\u00e9s</th><th scope=\"col\">2018</th>\n</tr>\n</thead>\n<tbody>\n<tr>\n<td>105</td>\n<td>Bovins d'engraissement (jusqu'\u00e0 900 livres)</td>\n<td>Nombre d'animaux nourris</td>\n<td> </td>\n</tr>\n<tr>\n<td>106</td>\n<td>Bovins gras (plus de 900 livres)</td>\n<td>Nombre d'animaux nourris</td>\n<td> </td>\n</tr>\n<tr>\n<td>125</td>\n<td>Porcs en croissance (jusqu'\u00e0 50 livres)</td>\n<td>Nombre d'animaux nourris</td>\n<td> </td>\n</tr>\n<tr>\n<td>124</td>\n<td>Porcs d'engraissement (plus de 50 livres)</td>\n<td>Nombre d'animaux nourris</td>\n<td> </td>\n</tr>\n</tbody>\n</table>\n</figure><figure class=\"mrgn-lft-0\">\n<table class=\"table table-bordered mrgn-bttm-md\">\n<caption><span class=\"hidden\">Animaux engraiss\u00e9s \u00e0 forfait</span> </caption><thead>\n<tr>\n<th scope=\"col\" colspan=\"2\">Animaux engraiss\u00e9s \u00e0 forfait</th><th scope=\"col\">Unit\u00e9s</th><th scope=\"col\">2018</th>\n</tr>\n</thead>\n<tbody>\n<tr>\n<td>141</td>\n<td>Bovins</td>\n<td>Nombre de jours animaux nourris</td>\n<td> </td>\n</tr>\n<tr>\n<td>142</td>\n<td>Porcs</td>\n<td>Nombre de jours animaux nourris</td>\n<td> </td>\n</tr>\n<tr>\n<td> </td>\n<td> </td>\n<td> </td>\n<td> </td>\n</tr>\n</tbody>\n</table>\n</figure><figure class=\"mrgn-lft-0\">\n<table class=\"table table-bordered mrgn-bttm-md\">\n<caption><span class=\"hidden\">Produits soumis \u00e0 la gestion de l'offre</span> </caption><thead>\n<tr>\n<th scope=\"col\" colspan=\"2\">Produits soumis \u00e0 la gestion de l'offre</th><th scope=\"col\">Unit\u00e9s</th><th scope=\"col\">2018</th>\n</tr>\n</thead>\n<tbody>\n<tr>\n<td>113</td>\n<td>Produits laitiers</td>\n<td>kilogrammes de M.G. du lait/jour</td>\n<td> </td>\n</tr>\n<tr>\n<td>108</td>\n<td>Poules, pondeuses, oeufs \u00e0 couver de type poulet \u00e0 griller</td>\n<td>Nombre de pondeuses</td>\n<td> </td>\n</tr>\n<tr>\n<td>109</td>\n<td>Poules, pondeuses, oeufs de consommation</td>\n<td>Nombre de pondeuses</td>\n<td> </td>\n</tr>\n<tr>\n<td>143</td>\n<td>Poulets \u00e0 griller</td>\n<td>kilogrammes produits</td>\n<td> </td>\n</tr>\n<tr>\n<td>144</td>\n<td>Dindes \u00e0 griller</td>\n<td>kilogrammes produits</td>\n<td> </td>\n</tr>\n</tbody>\n</table>\n</figure><figure class=\"mrgn-lft-0\">\n<div class=\"row\">\n<div class=\"col-md-4\">\n<table class=\"table table-bordered mrgn-bttm-md\">\n<caption><span class=\"hidden\">Autre (sp\u00e9cifiez)</span> </caption><thead>\n<tr>\n<th scope=\"col\" colspan=\"2\">Autre (sp\u00e9cifiez)</th><th scope=\"col\">Unit\u00e9s</th><th scope=\"col\">2018</th>\n</tr>\n</thead>\n<tbody>\n<tr>\n<td> </td>\n<td> </td>\n<td> </td>\n<td> </td>\n</tr>\n<tr>\n<td> </td>\n<td> </td>\n<td> </td>\n<td> </td>\n</tr>\n</tbody>\n</table>\n</div>\n</div>\n</figure>\n<h3>Intrants achet\u00e9s</h3>\n<figure class=\"mrgn-lft-0\">\n<div class=\"row\">\n<div class=\"col-md-8\">\n<table class=\"table table-bordered mrgn-bttm-md\">\n<caption><span class=\"hidden\">Intrants achet\u00e9s</span> </caption><thead>\n<tr>\n<th scope=\"col\">Code</th><th scope=\"col\">Description</th><th scope=\"col\">Valeur en fin d'exercice ($)</th>\n</tr>\n</thead>\n<tbody>\n<tr>\n<td> </td>\n<td> </td>\n<td> </td>\n</tr>\n<tr>\n<td> </td>\n<td> </td>\n<td> </td>\n</tr>\n<tr>\n<td> </td>\n<td> </td>\n<td> </td>\n</tr>\n<tr>\n<td> </td>\n<td> </td>\n<td> </td>\n</tr>\n<tr>\n<td> </td>\n<td> </td>\n<td> </td>\n</tr>\n<tr>\n<td> </td>\n<td> </td>\n<td> </td>\n</tr>\n</tbody>\n</table>\n</div>\n</div>\n</figure>\n<h3>Produits report\u00e9s et comptes d\u00e9biteurs</h3>\n<figure class=\"mrgn-lft-0\">\n<table class=\"table table-bordered mrgn-bttm-md\">\n<caption><span class=\"hidden\">Produits report\u00e9s et comptes d\u00e9biteurs</span> </caption><thead>\n<tr>\n<th scope=\"col\">Code</th><th scope=\"col\">Description</th><th scope=\"col\">Comptes d\u00e9biteurs et produits report\u00e9s \u00e0 2019 ($)</th>\n</tr>\n</thead>\n<tbody>\n<tr>\n<td>4020</td>\n<td>Paiements pr\u00e9vus pour les c\u00e9r\u00e9ales et les ol\u00e9agineux</td>\n<td> </td>\n</tr>\n<tr>\n<td> </td>\n<td> </td>\n<td> </td>\n</tr>\n<tr>\n<td> </td>\n<td> </td>\n<td> </td>\n</tr>\n<tr>\n<td> </td>\n<td> </td>\n<td> </td>\n</tr>\n<tr>\n<td> </td>\n<td> </td>\n<td> </td>\n</tr>\n</tbody>\n</table>\n</figure>\n<h3>Comptes cr\u00e9diteurs</h3>\n<figure class=\"mrgn-lft-0\">\n<div class=\"row\">\n<div class=\"col-md-6\">\n<table class=\"table table-bordered mrgn-bttm-md\">\n<caption><span class=\"hidden\">Accounts Payable</span></caption><thead>\n<tr>\n<th scope=\"col\">Code</th><th scope=\"col\">Description</th><th scope=\"col\">Valeur en fin d\u2019exercice ($)</th>\n</tr>\n</thead>\n<tbody>\n<tr>\n<td> </td>\n<td> </td>\n<td> </td>\n</tr>\n<tr>\n<td> </td>\n<td> </td>\n<td> </td>\n</tr>\n<tr>\n<td> </td>\n<td> </td>\n<td> </td>\n</tr>\n<tr>\n<td> </td>\n<td> </td>\n<td> </td>\n</tr>\n<tr>\n<td> </td>\n<td> </td>\n<td> </td>\n</tr>\n<tr>\n<td> </td>\n<td> </td>\n<td> </td>\n</tr>\n</tbody>\n</table>\n</div>\n</div>\n</figure>\n<h2>Renseignements confidentiels et consentement du participant</h2>\n<p>Agriculture et Agroalimentaire Canada (AAC) et l'Agence du revenu du Canada (ARC) s'engagent \u00e0 prot\u00e9ger la confidentialit\u00e9 de vos renseignements. Les renseignements inscrits dans le formulaire, y compris votre num\u00e9ro d'assurance sociale (NAS) et votre num\u00e9ro d'identification du participant (NIP), sont recueillis sous l'autorit\u00e9 de l'article 4 de la Loi sur la protection du revenu agricole (LSPA) et seront exclusivement utilis\u00e9s pour :</p>\n<ul>\n<li>l'administration relative \u00e0 votre participation aux programmes Agri-stabilit\u00e9 et Agri-investissement;</li>\n<li>la d\u00e9termination de votre admissibilit\u00e9 aux versements;</li>\n<li>la v\u00e9rification des renseignements soumis;</li>\n<li>\u00e9mettre des re\u00e7us d'imp\u00f4t;</li>\n<li>administrer les versements provenant d'autres programmes d'aide pour les revenus agricoles et d'autres programmes d'aide sp\u00e9ciaux;</li>\n<li>la v\u00e9rification, l'analyse et l'\u00e9valuation des programmes Agri-stabilit\u00e9 et Agri-investissement et d'autres programmes d'aide pour les revenus agricoles et d'autres programmes d'aide sp\u00e9ciaux par l'administration, AAC, les gouvernements provinciaux ou territoriaux ou des tiers engag\u00e9s \u00e0 cet effet.</li>\n</ul>\n<p>En remplissant ce formulaire, vous donnez votre autorisation \u00e0 l'administration, aux gouvernements provinciaux et territoriaux, aux administrateurs des autres programmes de revenu agricoles et d'aide sp\u00e9ciaux, et aux tiers qui poss\u00e8dent des renseignements pertinents \u00e0 votre participation au programme Agri-stabilit\u00e9 et Agri-investissement et \u00e0 leur administration \u00e0 partager ces renseignements avec AAC.</p>\n<p>En remplissant ce formulaire, vous autorisez l'ARC \u00e0 partager les renseignements sur ce formulaire avec AAC, et vous autorisez AAC, le cas \u00e9ch\u00e9ant, \u00e0 partager les renseignements sur le formulaire et toute information suppl\u00e9mentaire qui est fournie lorsque la demande est trait\u00e9e, avec l'ARC, l'administration, les gouvernements provinciaux et territoriaux et avec les administrateurs d'autres programmes agricoles f\u00e9d\u00e9raux et provinciaux.</p>\n<p>Indiens inscrits et exploitations agricoles appartenant \u00e0 une bande : AAC consent \u00e0 ce que les renseignements fournis par les Indiens inscrits et les exploitations agricoles appartenant \u00e0 une bande dans le cadre des programmes Agri-stabilit\u00e9 et Agri-investissement ne soient pas divulgu\u00e9s \u00e0 l'ARC par l'Administration, sauf si la divulgation desdits renseignements est prescrite par la loi. En remplissant et en soumettant le pr\u00e9sent formulaire, vous autorisez l'Administration \u00e0 communiquer les renseignements de votre \u00c9tat A \u00e0 AAC et vous autorisez AAC \u00e0 divulguer ces renseignements et tout autre renseignement que vous pourriez fournir au cours du traitement de votre demande aux gouvernements provinciaux ou territoriaux et aux administrateurs d'autres programmes agricoles f\u00e9d\u00e9raux et provinciaux.</p>\n<p>Si vous ne consentez pas au partage de l'information d\u00e9crite dans la pr\u00e9sente, vous pourriez ne pas \u00eatre admissible \u00e0 participer \u00e0 des programmes Agri-stabilit\u00e9 ou Agri-investissement ou de recevoir des avantages ou des ajustements aux prestations pr\u00e9vues des programmes Agri-stabilit\u00e9 et Agri-investissement.</p>\n<p>Vous avez le droit d'acc\u00e9der aux renseignements personnels d\u00e9tenus par les minist\u00e8res f\u00e9d\u00e9ral et de demander des modifications aux renseignements personnels incorrects. Pour en savoir plus sur vos droits en ce qui concerne la <cite>Loi sur la protection des renseignements personnels</cite> communiquez avec la Direction de l'acc\u00e8s \u00e0 l'information et de la protection des renseignements personnels \u00e0 l'Agence du revenu du Canada \u00e0 <a href=\"mailto:ATIP-AIPRP@cra-arc.gc.ca\">ATIP-AIPRP@cra-arc.gc.ca</a> ou le coordonnateur de l'acc\u00e8s \u00e0 l'information et de la protection des renseignements personnels \u00e0 <a href=\"mailto:ATIP-AIPRP@cra-arc.gc.ca\">ATIP-AIPRP@cra-arc.gc.ca</a> et faites r\u00e9f\u00e9rence \u00e0 ARC PPU 005, ARC PPU 025 et/ou AAC PPU 183.</p>\n<p>De plus, en soumettant ce formulaire de demande de versement dans le cadre des programmes Agri-stabilit\u00e9 et Agri-investissement, vous :</p>\n<ol>\n<li>attestez que les renseignements fournis sont complets et exacts;</li>\n<li>d\u00e9clarez que la structure de cette op\u00e9ration d'agriculture n'a pas \u00e9t\u00e9 modifi\u00e9e ou cr\u00e9\u00e9e dans le simple but de toucher des paiements au titre des programmes ou d'\u00e9viter les plafonds de paiements prescrits;</li>\n<li>comprenez et convenez que tout paiement provisoire re\u00e7u au titre du programme Agri-stabilit\u00e9 sera d\u00e9duit dans le calcul du paiement final du programme Agri-stabilit\u00e9;</li>\n<li>vous convenez de rembourser tout montant pay\u00e9 en trop dans le cadre des programmes Agri-stabilit\u00e9 et Agri-investissement, par rapport au montant calcul\u00e9 conform\u00e9ment aux r\u00e8gles du programme, et comprenez que tout montant d\u00fb \u00e0 l'\u00c9tat pourra \u00eatre d\u00e9duit de tout paiement vers\u00e9 par l'\u00c9tat;</li>\n<li>comprenez que des int\u00e9r\u00eats seront appliqu\u00e9s sur les paiements vers\u00e9s en trop;</li>\n<li>comprenez et convenez que les renseignements fournis pourront \u00eatre regroup\u00e9s \u00e0 ceux d'autres participants afin de d\u00e9terminer les paiements qui seront vers\u00e9s au titre des programmes Agri-stabilit\u00e9 et Agri-investissement, et consentez \u00e0 ce que soient divulgu\u00e9s des renseignements vous concernant ou concernant votre situation financi\u00e8re pourront aux autres participants dont les renseignements ont \u00e9t\u00e9 regroup\u00e9s aux v\u00f4tres;</li>\n<li>comprenez et confirmez que, lorsque vous fournissez des renseignements sur d'autres personnes ou entit\u00e9s, vous avez re\u00e7u l'autorisation de ces personnes ou entit\u00e9s de fournir ces renseignements;</li>\n<li>comprenez et convenez que les autres personnes ou entit\u00e9s sur lesquelles vous avez fourni des renseignements pourront avoir acc\u00e8s \u00e0 ces renseignements en le demandant \u00e0 l'Administration;</li>\n<li>comprenez et convenez que les personnes que vous avez nomm\u00e9es dans le pr\u00e9sent formulaire en tant que personne-ressource pourront recevoir des renseignements sur votre demande au titre des programmes Agri-stabilit\u00e9 et Agri-investissement et demander \u00e0 l\u2019Administration d\u2019y apporter des modifications;</li>\n<li>consentez \u00e0 ce qu'un tiers, l'ARC et d'autres organisations gouvernemantales divulguent \u00e0 l'Administration, sur demande, tout renseignement vous concernant ou concernant votre situation financi\u00e8re que l'Administration juge n\u00e9cessaire afin de v\u00e9rifier les paiements des programmes Agri-stabilit\u00e9 et Agri-investissement ou les renseignements fournis dans le pr\u00e9sent formulaire;</li>\n<li>comprenez que pr\u00e9senter une fausse d\u00e9claration dans une demande de paiement au titre des programmes constitue un acte criminel et que toute d\u00e9claration est sujette \u00e0 v\u00e9rification.</li>\n</ol>\n\r\n    "
    }
}