{
    "dcr_id": "1517509665919",
    "title": {
        "en": "AgriCompetitiveness Program - Component Consent for Use, Disclosure and Copyright",
        "fr": "Programme Agri-comp\u00e9titivit\u00e9 - Consentement \u00e0 l\u2019utilisation et \u00e0 la divulgation de renseignements et droits de reproduction "
    },
    "modified": "2019-01-07",
    "issued": "2018-02-13",
    "templatetype": "content page 1 column",
    "page_type": "0",
    "node_id": "1518100287124",
    "dc_date_created": "2018-02-13",
    "managing_branch": "PAB",
    "parent_node_id": "",
    "short_title": "Component Consent for Use, Disclosure and Copyright",
    "exturl": "",
    "teamsite_location": {
        "en": "/default/main/AAFC-AAC/Internet-Internet/Group-Ensemble/ProgServ-ProgServ/WORKAREA/ProgServ-ProgServ/templatedata/comm-comm/gene-gene/data/02/agricompetitiveness_component_consent_1517509665919_en",
        "fr": "/default/main/AAFC-AAC/Internet-Internet/Group-Ensemble/ProgServ-ProgServ/WORKAREA/ProgServ-ProgServ/templatedata/comm-comm/gene-gene/data/02/agricompetitiveness_component_consent_1517509665919_fr"
    },
    "type_name": "comm-comm/gene-gene",
    "has_dcr_id": true,
    "label": {
        "en": "Component Consent for Use, Disclosure and Copyright",
        "fr": "Consentement \u00e0 l\u2019utilisation et \u00e0 la divulgation de renseignements et droits de reproduction"
    },
    "breadcrumb": {
        "en": "Component Consent for Use, Disclosure and Copyright",
        "fr": "Consentement \u00e0 l\u2019utilisation et \u00e0 la divulgation de renseignements et droits de reproduction"
    },
    "layout_name": "content page 1 column",
    "lang": "en",
    "refaire": false,
    "meta": {
        "viewport": {
            "en": "width=device-width,initial-scale=1",
            "fr": "width=device-width, initial-scale=1"
        },
        "issued": {
            "en": "2018-02-13",
            "fr": "2018-02-13"
        },
        "modified": {
            "en": "2019-01-07",
            "fr": "2019-01-07"
        },
        "format": {
            "en": "text/html",
            "fr": "text/html"
        },
        "title": {
            "en": "AgriCompetitiveness Program - Component Consent for Use, Disclosure and Copyright",
            "fr": "Programme Agri-comp\u00e9titivit\u00e9 - Consentement \u00e0 l\u2019utilisation et \u00e0 la divulgation de renseignements et droits de reproduction "
        },
        "subject": {
            "en": "community development;soil assessement;proactive disclosure",
            "fr": "pommes de terre-producteurs;carvi;graines de coriandre"
        },
        "dcterms:subject": {
            "en": "community development;food safety;statistics",
            "fr": "p\u00e2turage;\u00e9conomie agricole;m\u00e9dicament"
        },
        "description": {
            "en": "Consent for Use, Disclosure and Copyright. The purpose of this document is to obtain your written consent for the disclosure of personal information and/or business information to Agriculture and Agri-Food Canada (AAFC). With your consent, the Applicant will use this information in or with a Project Application Form that requests funding under the applicable AAFC program.I acknowledge that by signing this form I agree to the following:Use and/or Disclosure. The Applicant consents that the information may also be used for the purposes of: contacting you should additional information be required; validating your credentials; facilitating payment of the contribution in the event your application is successful; program administration; and evaluation, reporting, and statistical analysis.Personal information will be treated and disclosed in accordance with the. Access to Information Act. . For further information about these Acts please contact the Access to Information and Privacy Director at.",
            "fr": "Formats de rechange. Table des mati\u00e8res. Ces m\u00e9thodes donnent les meilleurs r\u00e9sultats lorsqu'elles sont utilis\u00e9es parall\u00e8lement, mais, malheureusement, le nombre de fongicides disponibles diminue, ce qui r\u00e9sulte du retrait de certains produits du march\u00e9 et de l'\u00e9limination progressive d'autres. \u00ab\u00a0Nous avons amorc\u00e9 des essais exp\u00e9rimentaux d'importance majeure sur les haricots et le canola dans le sud de l'Alberta, d\u00e9clare M.\u00a0Howard."
        },
        "language": {
            "en": "eng",
            "fr": "fra"
        },
        "keywords": {
            "en": "Guide.Business;Application.I",
            "fr": "documents.ITCentreTI;BCA.DirectInfo"
        },
        "audience": {
            "en": "gcaudience",
            "fr": "gcaudience"
        },
        "type": {
            "en": "memorandum",
            "fr": "son"
        },
        "creator": {
            "en": "Agriculture and Agri-Food Canada;Government of Canada",
            "fr": "Agriculture et Agroalimentaire Canada;Gouvernement du Canada"
        },
        "spatial": {
            "en": "gcregions",
            "fr": "gcregions"
        },
        "service": {
            "en": "AAFC-AAC",
            "fr": "AAFC-AAC"
        },
        "accessRights": {
            "en": "2",
            "fr": "2"
        },
        "legalName": {
            "en": "agriculture_and_agri_food_canada",
            "fr": "agriculture_et_agroalimentaire_canada"
        },
        "areaServed": {
            "en": "Canada",
            "fr": "Canada"
        }
    },
    "h1": {
        "en": "AgriCompetitiveness Program - Component Consent for Use, Disclosure and Copyright",
        "fr": "Programme Agri-comp\u00e9titivit\u00e9 - Consentement \u00e0 l\u2019utilisation et \u00e0 la divulgation de renseignements et droits de reproduction"
    },
    "js": {
        "en": "",
        "fr": ""
    },
    "mode_html": "no_editor_full",
    "body": {
        "en": "\r\n    <p><a href=\"#alt\">Alternative formats</a></p>\n\n<form action=\"#\" method=\"get\" id=\"print\" role=\"form\">\n\n<p>The purpose of this document is to obtain your written  consent for the disclosure of personal information and/or business information  to Agriculture and Agri-Food Canada (AAFC). With your consent, the Applicant  will use this information in or with a Project Application Form that requests  funding under the applicable AAFC program.</p>\n\n<div class=\"form-group\">\n        <div class=\"checkbox\">\n          <label for=\"agree\"><input type=\"checkbox\" name=\"agree\" id=\"agree\" value=\"Canada\"> I acknowledge that by signing this form I agree to the following:</label>\n        </div>\n</div>\n\n<h2>Use and/or Disclosure</h2>\n\n<p>The  personal and/or business information in this application is being collected  under the authority of the <a href=\"http://lois-laws.justice.gc.ca/eng/acts/A-9/\"><cite>Department of Agriculture and Agri-Food  Act</cite></a> and may be used by AAFC, or disclosed to third parties including other  Government Departments, to:</p>\n\n<ul>\n<li>assess  and review the eligibility of the Applicant and the Project under the  applicable AAFC program</li>\n<li>verify  the accuracy of the information provided in or with the Application Form and  additional documents</li>\n<li>determine  eligibility for other AAFC, Government of Canada or provincial programs from  which the Applicant might benefit; and </li>\n<li>evaluate  the scope, direction and effectiveness of agricultural programming and research  in Canada</li>\n</ul>\n  \n<p>The  Applicant consents that the information may also be used for the purposes of: contacting you should additional information be required; validating your  credentials; facilitating payment of the contribution in the event your application is successful; program  administration; and evaluation, reporting, and statistical analysis.</p>\n\n<p>Personal  information will be treated and disclosed in accordance with the <a href=\"http://laws-lois.justice.gc.ca/eng/acts/P-21/index.html\"><cite>Privacy Act</cite></a>. You have the  right to access your personal information held by Agriculture and Agri-Food  Canada and to request changes to correct personal information by contacting the  AAFC Access to Information and Privacy Director at <a href=\"mailto:aafc.atip-aiprp.aac@canada.ca\">aafc.atip-aiprp.aac@canada.ca</a></p>\n\n<p>For more  information about AAFC\u2019s privacy practices, you may refer to the following  Personal Information Banks: Public Communications PSU 914 and Outreach  Activities PSU\u00a0938.  If there is an  AAFC-specific Personal Information Bank it will be available in the Program\u2019s  Applicant Guide.</p>\n\n<p>Business information  will be disclosed only in accordance with the provisions of the <a href=\"http://laws-lois.justice.gc.ca/eng/acts/a-1/\"><cite>Access to Information Act</cite>.</a></p>\n\n<p>For information about the <cite>Privacy Act</cite> and the <cite>Access  to Information Act</cite>, visit <a href=\"http://laws.justice.gc.ca/eng/acts/P-21/\">Privacy  Act</a> and <a href=\"http://laws.justice.gc.ca/eng/acts/A-1/index.html\">Access to Information Act</a>. For further information about these Acts please contact  the Access to Information and Privacy Director at <a href=\"mailto:aafc.atip-aiprp.aac@canada.ca\">aafc.atip-aiprp.aac@canada.ca</a>.</p>\n\n<h2>Copyright permission</h2>\n\n<p>AAFC may disclose, reproduce and distribute any  part of or the whole of the documentation provided in or with this Application  Form, within AAFC and to its authorized third parties, including  other Government Departments, for purposes consistent with the receipt,  assessment and subsequent treatment of the Application.</p>\n\n<div class=\"form-group\">\n    <label for=\"applicant_consent\">I hereby consent to the provision of my personal information and/or business information by the Applicant:</label>\n    <input size=\"60\" maxlength=\"60\" id=\"applicant_consent\" class=\"form-control\">\n  </div>\n    \n    <div class=\"form-group\">\n      <label for=\"aafc_program\">for the purpose of the submission of the Project Application Form for funding to the applicable AAFC program</label>\n      <input size=\"60\" maxlength=\"60\" id=\"aafc_program\" class=\"form-control\">\n    </div>\n    \n    <div class=\"form-group\">\n        <label for=\"name\">Print name</label>\n        <input size=\"60\" maxlength=\"60\" id=\"name\" class=\"form-control\">\n    </div>\n    \n    <div class=\"form-group\">\n      <label for=\"business_name\">Print business name (if applicable)</label>\n      <input size=\"60\" maxlength=\"60\" id=\"business_name\" class=\"form-control\">\n    </div>\n    \n    <p class=\"mrgn-tp-md\"><b>Signature</b></p>\n    <div class=\"mrgn-bttm-lg\" style=\"width:50%;height:50px;background-color:#f8f8f8;border-bottom:2px solid #888;\"></div>  \n    \n    <div class=\"form-group\">\n\t\t<label for=\"date\" class=\"control-label\">Date<span class=\"datepicker-format\"> (YYYY-MM-DD)</span></label>\n\t\t<input class=\"form-control\" id=\"date\" name=\"date\" type=\"date\">\n\t</div>\n    \n    <input type=\"button\" value=\"Print\" onclick=\"window.print();return false;\">\n<input type=\"submit\" id=\"submit\" hidden=\"hidden\">\n</form>\n\n<h2 id=\"alt\">Alternative formats</h2>\n<p><a href=\"?id=1168622342753\">Help with Alternative Formats</a></p>\n<p><a href=\"http://www.agr.gc.ca/resources/prev/doc/pdf/a9356-eng.pdf\">Consent for Use, Disclosure and Copyright (PDF version, 1.3\u00a0MB)</a></p>\n\n\r\n    ",
        "fr": "\r\n    <p><a href=\"#alt\">Formats de rechange</a></p>\n\n<form action=\"#\" method=\"get\" id=\"print\" role=\"form\">\n\n<p>Le pr\u00e9sent formulaire vise \u00e0 obtenir votre consentement par \u00e9crit  relativement \u00e0 la divulgation de renseignements personnels ou commerciaux \u00e0  Agriculture et Agroalimentaire Canada (AAC). Si vous y consentez, le demandeur  pourra utiliser ces renseignements dans ou avec un Formulaire de pr\u00e9sentation  de projet pour demander du financement dans le cadre du programme applicable  d'AAC.</p>\n\n<div class=\"form-group\">\n        <div class=\"checkbox\">\n          <label for=\"agree\"><input type=\"checkbox\" name=\"agree\" id=\"agree\" value=\"Canada\"></label>\n          En pr\u00e9sentant le pr\u00e9sent  Formulaire de demande de projet, je reconnais que je comprends ce qui suit\u00a0:</div>\n</div>\n\n<h2>Utilisation et divulgation des renseignements</h2>\n\n<p>Les renseignements  personnels et commerciaux dans la pr\u00e9sente demande sont recueillis en vertu des  pouvoirs conf\u00e9r\u00e9s par la <a href=\"http://lois-laws.justice.gc.ca/fra/lois/A-9/\"><cite>Loi sur le minist\u00e8re de l'Agriculture et de  l'Agroalimentaire</cite></a> et peuvent \u00eatre  utilis\u00e9s par AAC ou communiqu\u00e9s \u00e0 des tiers, y compris d'autres minist\u00e8res,  pour\u00a0:</p>\n\n<ul>\n<li>examiner et \u00e9valuer  l'admissibilit\u00e9 du demandeur et du projet aux termes du programme applicable  d'AAC;</li>\n<li>v\u00e9rifier l'exactitude des  renseignements fournis dans le formulaire de demande ou y \u00e9tant annex\u00e9s et dans  les documents suppl\u00e9mentaires;</li>\n<li>d\u00e9terminer l'admissibilit\u00e9  \u00e0 d'autres programmes d'AAC, du gouvernement du Canada ou de la province dont  le demandeur pourrait b\u00e9n\u00e9ficier;</li>\n<li>\u00e9valuer la port\u00e9e,  l'orientation et l'efficacit\u00e9 des programmes et des recherches agricoles au  Canada.</li>\n</ul>\n  \n<p>Le demandeur consent \u00e0 ce  que l'information fournie peut \u00eatre utilis\u00e9e aux fins suivantes : communiquer  avec vous si des renseignements suppl\u00e9mentaires sont n\u00e9cessaires; valider vos  justificatifs d'identit\u00e9; faciliter le paiement de la contribution si votre  demande re\u00e7oit un accueil favorable; administrer le programme; effectuer des  \u00e9valuations, produire des rapports et mener des analyses statistiques.</p>\n\n<p>Vos renseignements personnels sont prot\u00e9g\u00e9s conform\u00e9ment \u00e0 la <a href=\"http://laws-lois.justice.gc.ca/fra/lois/p-21/\"><cite>Loi sur la protection des renseignements personnels</cite></a>. Vous avez le droit d'acc\u00e9der \u00e0 vos  renseignements personnels d\u00e9tenus par Agriculture et Agroalimentaire Canada, et  de demander qu'ils soient corrig\u00e9s, en communiquant avec le coordonnateur de  l'acc\u00e8s \u00e0 l'information et de la protection des renseignements personnels  d'AAC, \u00e0 l'adresse <a href=\"mailto:aafc.atip-aiprp.aac@canada.ca\">aafc.atip-aiprp.aac@canada.ca</a>.</p>\n\n<p>Pour obtenir de plus amples renseignements sur les pratiques d'AAC  concernant la protection des renseignements personnels, veuillez consulter les  fichiers de renseignements personnels suivants : Communications publiques POU\u00a0914; Activit\u00e9s de sensibilisation POU\u00a0938 et un fichier de renseignements  personnels propre \u00e0 AAC non encore attribu\u00e9 (veuillez communiquer avec le  personnel du programme ou consulter le guide du demandeur pour de plus amples  renseignements \u00e0 ce sujet).</p>\n\n<p>Les renseignements commerciaux seront uniquement divulgu\u00e9s conform\u00e9ment aux  dispositions de la <a href=\"http://laws-lois.justice.gc.ca/fra/lois/A-1/TexteComplet.html\" title=\"Loi sur l\u2019acc\u00e8s \u00e0 l\u2019information- L.R.C. (1985), ch. A-1\"><cite>Loi sur l'acc\u00e8s \u00e0  l'information</cite></a>.</p>\n\n<p>Pour obtenir des renseignements sur la <cite>Loi sur la protection des  renseignements personnels</cite> et la <cite>Loi sur l'acc\u00e8s \u00e0 l'information</cite>,  veuillez visiter <a href=\"http://laws.justice.gc.ca/fra/lois/P-21/\">Loi  sur la protection des renseignements personnels</a> et <a href=\"http://laws.justice.gc.ca/fra/lois/A-1/index.html\" title=\"Loi sur l\u2019acc\u00e8s \u00e0 l\u2019information - Table des mati\u00e8res\">Loi sur l'acc\u00e8s \u00e0 l'information</a>. Pour  plus de renseignements sur ces deux\u00a0lois, veuillez communiquer avec le  directeur de l'Acc\u00e8s \u00e0 l'information et de la protection des renseignements  personnels \u00e0 l'adresse <a href=\"mailto:aafc.atip-aiprp.aac@canada.ca\">aafc.atip-aiprp.aac@canada.ca</a>.</p>\n\n<h2>Autorisation de reproduction</h2>\n\n<p>AAC peut divulguer, reproduire  et distribuer une partie ou la totalit\u00e9 des documents fournis dans le pr\u00e9sent  formulaire ou y \u00e9tant annex\u00e9s, au sein d'AAC et aupr\u00e8s des  tiers autoris\u00e9s, y compris d'autres  minist\u00e8res, aux fins compatibles avec la r\u00e9ception, l'\u00e9valuation et le  traitement subs\u00e9quent de la demande.</p>\n\n<div class=\"form-group\">\n    <label for=\"applicant_consent\">Par la pr\u00e9sente, j'autorise le demandeur\u00a0:</label>\n    <input size=\"60\" maxlength=\"60\" id=\"applicant_consent\" class=\"form-control\">\n  </div>\n    \n    <div class=\"form-group\">\n      <label for=\"aafc_program\">\u00e0 fournir mes renseignements personnels et/ou commerciaux pour la pr\u00e9sentation du  Formulaire de pr\u00e9sentation de projet afin d'obtenir du financement dans le  cadre du programme applicable d'AAC\u00a0:</label>\n      <input size=\"60\" maxlength=\"60\" id=\"aafc_program\" class=\"form-control\">\n  </div>\n    \n    <div class=\"form-group\">\n        <label for=\"name\">Nom du signataire</label>\n        <input size=\"60\" maxlength=\"60\" id=\"name\" class=\"form-control\">\n    </div>\n    \n    <div class=\"form-group\">\n      <label for=\"business_name\">Nom de l'entreprise (le cas \u00e9ch\u00e9ant)</label>\n      <input size=\"60\" maxlength=\"60\" id=\"business_name\" class=\"form-control\">\n    </div>\n    \n    <p class=\"mrgn-tp-md\"><b>Signature</b></p>\n    <div class=\"mrgn-bttm-lg\" style=\"width:50%;height:50px;background-color:#f8f8f8;border-bottom:2px solid #888;\"></div>  \n    \n    <div class=\"form-group\">\n\t\t<label for=\"date\" class=\"control-label\">Date<span class=\"datepicker-format\"> (YYYY-MM-DD)</span></label>\n\t\t<input class=\"form-control\" id=\"date\" name=\"date\" type=\"date\">\n\t</div>\n    \n  <input type=\"button\" value=\"Imprimer\" onclick=\"window.print();return false;\">\n<input type=\"submit\" id=\"submit\" hidden=\"hidden\">\n</form>\n\n<h2 id=\"alt\">Formats de rechange</h2>\n<p><a href=\"?id=1168622342753\">Aide sur les formats de rechange</a></p>\n<p><a href=\"http://www.agr.gc.ca/resources/prev/doc/pdf/a9356-fra.pdf\">Consentement \u00e0 l'utilisation et \u00e0 la divulgation de renseignements (Version PDF, 1,7\u00a0Mo)</a></p>\n\n\r\n    "
    }
}