{
    "dcr_id": "1517340593348",
    "title": {
        "en": "AgriCompetitiveness program: Contact information",
        "fr": "Programme Agri-comp\u00e9titivit\u00e9 : Pour nous joindre"
    },
    "modified": "2020-11-02",
    "issued": "2018-02-13",
    "templatetype": "content page 1 column",
    "page_type": "0",
    "node_id": "1517240276734",
    "dc_date_created": "2018-02-13",
    "managing_branch": "PAB",
    "parent_node_id": "",
    "short_title": "Contact information",
    "exturl": "",
    "teamsite_location": {
        "en": "/default/main/AAFC-AAC/Internet-Internet/Group-Ensemble/ProgServ-ProgServ/WORKAREA/ProgServ-ProgServ/templatedata/comm-comm/gene-gene/data/01/agricompetitiveness_contact_information_1517340593348_en",
        "fr": "/default/main/AAFC-AAC/Internet-Internet/Group-Ensemble/ProgServ-ProgServ/WORKAREA/ProgServ-ProgServ/templatedata/comm-comm/gene-gene/data/01/agricompetitiveness_contact_information_1517340593348_fr"
    },
    "type_name": "comm-comm/gene-gene",
    "has_dcr_id": true,
    "label": {
        "en": "Contact information",
        "fr": "Pour nous joindre"
    },
    "breadcrumb": {
        "en": "Contact information",
        "fr": "Pour nous joindre"
    },
    "layout_name": "content page 1 column",
    "lang": "en",
    "refaire": false,
    "meta": {
        "viewport": {
            "en": "width=device-width,initial-scale=1",
            "fr": "width=device-width, initial-scale=1"
        },
        "issued": {
            "en": "2018-02-13",
            "fr": "2018-02-13"
        },
        "modified": {
            "en": "2020-11-02",
            "fr": "2020-11-02"
        },
        "format": {
            "en": "text/html",
            "fr": "text/html"
        },
        "title": {
            "en": "AgriCompetitiveness program: Contact information",
            "fr": "Programme Agri-comp\u00e9titivit\u00e9 : Pour nous joindre"
        },
        "subject": {
            "en": "technology transfer;architectural heritage;soil assessement",
            "fr": "revenus agricoles;biocarburants;Gestion des risques de l'entreprise"
        },
        "dcterms:subject": {
            "en": "architectural heritage;architecture;statistics",
            "fr": "engrais;commerce ext\u00e9rieur;viande"
        },
        "description": {
            "en": "Applicant guide. Step 1.What this program offers. website.The AgriMarketing program is a program under the Canadian Agricultural Partnership.1.1 About the AgriMarketing Program: National Industry Association Component. canadabrand@agr.gc.ca. .). technical training for buyers about Canadian products and product handling.",
            "fr": "AgriAssurance - Small and Medium-sized Enterprise Component. 6. Pour nous joindre. For more information on the AgriAssurance Small and Medium-sized Enterprise Component, please contact us by:Courriel\u00a0:aap-paa@agr.gc.ca. \u00e9tage, pi\u00e8ce\u00a0215."
        },
        "language": {
            "en": "eng",
            "fr": "fra"
        },
        "keywords": {
            "en": "amp-pam;In-kind",
            "fr": null
        },
        "audience": {
            "en": "gcaudience",
            "fr": "gcaudience"
        },
        "type": {
            "en": "business plan",
            "fr": "page administrative"
        },
        "creator": {
            "en": "Agriculture and Agri-Food Canada;Government of Canada",
            "fr": "Agriculture et Agroalimentaire Canada;Gouvernement du Canada"
        },
        "spatial": {
            "en": "gcregions",
            "fr": "gcregions"
        },
        "service": {
            "en": "AAFC-AAC",
            "fr": "AAFC-AAC"
        },
        "accessRights": {
            "en": "2",
            "fr": "2"
        },
        "legalName": {
            "en": "agriculture_and_agri_food_canada",
            "fr": "agriculture_et_agroalimentaire_canada"
        },
        "areaServed": {
            "en": "Canada",
            "fr": "Canada"
        }
    },
    "h1": {
        "en": "AgriCompetitiveness program: Contact information",
        "fr": "Programme Agri-comp\u00e9titivit\u00e9 : Pour nous joindre"
    },
    "js": {
        "en": "",
        "fr": ""
    },
    "body": {
        "en": "\r\n     <div class=\"mrgn-tp-md mrgn-bttm-lg brdr-bttm list-unstyled\">\n<div class=\"row\">\n<ul class=\"toc lst-spcd col-md-12 list-unstyled\">\n<li class=\"col-md-4 col-sm-6\"><span class=\"list-group-item\">Step 1. <a href=\"?id=1517335776475\">What this program offers</a></span></li>\n<li class=\"col-md-4 col-sm-6\"><span class=\"list-group-item\">Step 2. <a href=\"?id=1517336959326\">Who is eligible</a></span></li>\n<li class=\"col-md-4 col-sm-6\"><span class=\"list-group-item\">Step 3. <a href=\"?id=1517338676777\">How to apply</a></span></li>\n<li class=\"col-md-4 col-sm-6\"><span class=\"list-group-item\">Step 4. <a href=\"?id=1517339307837\">After you apply</a></span></li>\n<li class=\"col-md-4 col-sm-6\"><span class=\"list-group-item\"><a href=\"?id=1517327600413\">Applicant guide</a></span></li>\n<li class=\"col-md-4 col-sm-6\"><span class=\"list-group-item active\">Contact information</span></li>\n</ul>\n</div>\n</div>\n\n<h2>Contact information</h2>\n\n<p>For more information on the AgriCompetitiveness program, please contact us by:</p>\n\n <dl class=\"mrgn-tp-md\"> \n\n<dt>Telephone</dt> <dd>1-877-246-4682</dd>\n<dt>TDD/TTY</dt> <dd>613-773-2600</dd>\n<dt>E-mail</dt> <dd><a href=\"mailto:aafc.agricompetitivenessagri-competitivite.aac@canada.ca\">aafc.agricompetitivenessagri-competitivite.aac@canada.ca</a></dd>\n\n  <dt class=\"mrgn-tp-lg\">Mail</dt>\n <dd class=\"mrgn-tp-0 mrgn-bttm-0\">Agriculture and Agri-Food Canada<br>\n AgriCompetitiveness Program<br>\n 1341 Baseline Road<br>\n Tower 7, 7<sup>th</sup> Floor, Room 216<br>\n Ottawa, ON K1A 0C5</dd>\n \n </dl>\n \n\n\n<p class=\"mrgn-tp-lg\"><a href=\"?id=1530013156290\"><img src=\"https://www.agr.gc.ca/resources/prod/img/prog/1522073268316-image-eng.jpg\" alt=\"\"><br>\nSubmit your feedback</a></p>\n\n<nav>\n  <h2 class=\"wb-inv\">Previous-next document navigation - bottom</h2>\n<div class=\"row\">\n<div class=\"col-md-12 mrgn-lft-0 mrgn-rght-0\">\n<ul class=\"pager\">\n\t<li class=\"previous\"><a href=\"?id=1517327600413\" rel=\"prev\" title=\"Applicant guide\">Previous</a></li>\n</ul>\n</div>\n</div>\n</nav>\n \n\r\n    ",
        "fr": "\r\n     <div class=\"mrgn-tp-md mrgn-bttm-lg brdr-bttm list-unstyled\">\n<div class=\"row\">\n<ul class=\"toc lst-spcd col-md-12 list-unstyled\">\n<li class=\"col-md-4 col-sm-6\"><span class=\"list-group-item\">\u00c9tape 1. <a href=\"?id=1517335776475\">Ce qu\u2019offre ce programme</a></span></li>\n<li class=\"col-md-4 col-sm-6\"><span class=\"list-group-item\">\u00c9tape 2. <a href=\"?id=1517336959326\">Qui est admissible?</a></span></li>\n<li class=\"col-md-4 col-sm-6\"><span class=\"list-group-item\">\u00c9tape 3. <a href=\"?id=1517338676777\">Comment pr\u00e9senter une demande</a></span></li>\n<li class=\"col-md-4 col-sm-6\"><span class=\"list-group-item\">\u00c9tape 4. <a href=\"?id=1517339307837\">Apr\u00e8s avoir pr\u00e9sent\u00e9 votre demande</a></span></li>\n<li class=\"col-md-4 col-sm-6\"><span class=\"list-group-item\"><a href=\"?id=1517327600413\">Guide du demandeur</a></span></li>\n<li class=\"col-md-4 col-sm-6\"><span class=\"list-group-item active\">Pour nous joindre</span></li>\n</ul>\n</div>\n</div>\n\n<h2>Pour nous joindre</h2>\n\n<p>Pour plus de renseignements sur le programme Agri-comp\u00e9titivit\u00e9, communiquez avec nous aux coordonn\u00e9es ci-dessous\u00a0:</p>\n\n <dl class=\"mrgn-tp-md\"> \n\n<dt>T\u00e9l\u00e9phone\u00a0:</dt> <dd>1-877-246-4682</dd>\n<dt>ATS\u00a0:</dt> <dd>613-773-2600</dd>\n<dt>Courriel\u00a0:</dt> <dd><a href=\"mailto:aafc.agricompetitivenessagri-competitivite.aac@canada.ca\">aafc.agricompetitivenessagri-competitivite.aac@canada.ca</a></dd>\n\n  <dt class=\"mrgn-tp-lg\">Adresse postale :</dt>\n <dd class=\"mrgn-tp-0\">Agriculture et Agroalimentaire Canada<br>\nProgramme Agri-comp\u00e9titivit\u00e9<br>\n1341 rue Baseline<br>\nTour 7, \u00c9tage 7, Pi\u00e8ce 216<br>\nOttawa ON K1A 0C5</dd>\n \n </dl>\n\n<p class=\"mrgn-tp-lg\"><a href=\"?id=1530013156290\"><img src=\"https://www.agr.gc.ca/resources/prod/img/prog/1522073268316-image-fra.jpg\" alt=\"\"><br>\nSoumettre votre r\u00e9troaction</a></p>\n\n<nav>\n  <h2 class=\"wb-inv\">Navigation du document - pr\u00e9c\u00e9dente-suivante - bas</h2>\n<div class=\"row\">\n<div class=\"col-md-12 mrgn-lft-0 mrgn-rght-0\">\n<ul class=\"pager\">\n\t<li class=\"previous\"><a href=\"?id=1517327600413\" rel=\"prev\" title=\"Guide du demandeur\">Pr\u00e9c\u00e9dente</a></li>\n</ul>\n</div>\n</div>\n</nav>\n \n\r\n    "
    }
}