{
    "dcr_id": "1517419052490",
    "title": {
        "en": "Potato Selection AR2018-11*  (F13050)",
        "fr": "S\u00e9lections de pommes de terre AR2018-11* (F13050) "
    },
    "modified": "2020-03-11",
    "issued": "2018-02-02",
    "templatetype": "content page 1 column",
    "page_type": "0",
    "node_id": "1517351778666",
    "dc_date_created": "2018-02-02",
    "managing_branch": "PAB",
    "parent_node_id": "",
    "short_title": "",
    "exturl": "",
    "teamsite_location": {
        "en": "/default/main/AAFC-AAC/Internet-Internet/Common-Commun/WORKAREA/Common-Commun/templatedata/comm-comm/gene-gene/data/01/ar2018-11_1517419052490_en",
        "fr": "/default/main/AAFC-AAC/Internet-Internet/Common-Commun/WORKAREA/Common-Commun/templatedata/comm-comm/gene-gene/data/01/ar2018-11_1517419052490_fr"
    },
    "type_name": "comm-comm/gene-gene",
    "has_dcr_id": true,
    "label": {
        "en": "Potato Selection AR2018-11*  (F13050)",
        "fr": "S\u00e9lections de pommes de terre AR2018-11* (F13050) "
    },
    "breadcrumb": {
        "en": "Potato Selection AR2018-11*  (F13050)",
        "fr": "S\u00e9lections de pommes de terre AR2018-11* (F13050) "
    },
    "layout_name": "content page 1 column",
    "lang": "en",
    "refaire": false,
    "meta": {
        "viewport": {
            "en": "width=device-width,initial-scale=1",
            "fr": "width=device-width, initial-scale=1"
        },
        "issued": {
            "en": "2018-02-02",
            "fr": "2018-02-02"
        },
        "modified": {
            "en": "2020-03-11",
            "fr": "2020-03-11"
        },
        "format": {
            "en": "text/html",
            "fr": "text/html"
        },
        "title": {
            "en": "Potato Selection AR2018-11*  (F13050)",
            "fr": "S\u00e9lections de pommes de terre AR2018-11* (F13050) "
        },
        "subject": {
            "en": "soil mapping and classification;water;potato production",
            "fr": "cultures mara\u00eech\u00e8res;pommes de terre-producteurs;pommes de terre-production"
        },
        "dcterms:subject": {
            "en": "architecture;government information;statistics",
            "fr": "aliment;actif;changement climatique"
        },
        "description": {
            "en": "(AC Red Island x Chieftain) Fresh Market. Round selection with smooth dark red skin, cream flesh, good boil and bake scores, high tuber set. 25. 2017. 8. 49.2. 32.8. 3.4. 36.3. 10.2. 2.7. Charlottetown. Outlook. 2017. 1.086. not applicable.",
            "fr": "(AC Red Island x Chieftain) March\u00e9 du frais. 25. 2017. 6. 40,6. 33,5. 0,0. 33,5. 6,5. 0,6. Elora. non disponible. non disponible. Outlook. 2017."
        },
        "language": {
            "en": "eng",
            "fr": "fra"
        },
        "keywords": {
            "en": "bruise score",
            "fr": "creux et de verdissement"
        },
        "audience": {
            "en": "gcaudience",
            "fr": "gcaudience"
        },
        "type": {
            "en": "search interface",
            "fr": "pr\u00e9sentation"
        },
        "creator": {
            "en": "Agriculture and Agri-Food Canada;Government of Canada",
            "fr": "Agriculture et Agroalimentaire Canada;Gouvernement du Canada"
        },
        "spatial": {
            "en": "gcregions",
            "fr": "gcregions"
        },
        "service": {
            "en": "AAFC-AAC",
            "fr": "AAFC-AAC"
        },
        "accessRights": {
            "en": "2",
            "fr": "2"
        },
        "legalName": {
            "en": "agriculture_and_agri_food_canada",
            "fr": "agriculture_et_agroalimentaire_canada"
        },
        "areaServed": {
            "en": "Canada",
            "fr": "Canada"
        }
    },
    "h1": {
        "en": "Potato Selection AR2018-11* (F13050)",
        "fr": "S\u00e9lections de pommes de terre AR2018-11* (F13050)"
    },
    "js": {
        "en": "",
        "fr": ""
    },
    "body": {
        "en": "\r\n     <p><b>(Brigus x Redsen) Fresh Market</b></p>\n \n\n<figure class=\"mrgn-lft-0\">\n<div class=\"col-md-8 mrgn-lft-0\">\n<p><img src=\"https://www.agr.gc.ca/resources/prod/img/science/prc-crpt/ar2018-11sm.jpg\" alt=\"AR2018-11 label\" class=\"img-responsive\"></p>\n</div>\n<div class=\"clearfix\"></div>\n\n\n<figcaption class=\"mrgn-bttm-lg\">\n<p>Round  selection with smooth red skin, cream flesh; good boil and bake scores, high tuber set (* selection also available for cash bids for  exclusive testing)</p>\n</figcaption>\n</figure>\n\n\n<ul>\n  <li>Plant vigour moderate; early maturity. </li>\n  <li>Round tubers, medium size with above average  appearance; smooth red skin, cream flesh; average number of  moderately shallow eyes; short dormancy (similar to Norland). </li>\n  <li>High set  (higher than Chieftain); high yield at some trial sites; good  boil and bake scores with a relatively dry texture.</li>\n  <li>Very low  incidence of hollow heart and greening noted at some sites; bruising: in 2  years of controlled testing it had low black spot bruise score (lower than  Russet Burbank).</li>\n  <li>A marker  associated with resistance to golden nematode, Ro1, was not detected.</li>\n  <li>Susceptible to <abbr title=\"potato virus Y\">PVY</abbr> and to <abbr title=\"potato virus X\">PVX</abbr> by mechanical  inoculations. </li>\n  <li>Moderately resistant to scab in 2 years of testing at  Fredericton (New Brunswick). </li>\n<li>Selected also at Vauxhall (Alberta) and Guelph \n(Ontario).</li>\n</ul>\n\n\n<table class=\"table table-responsive table-bordered table-condensed small\">\n<caption class=\"text-left\"><b>Table 1.1 AR2018-11 Yield Data</b></caption>\n<thead>\n  <tr>\n    <th scope=\"col\">Location</th>\n  <th scope=\"col\">Spacing (centimeters)</th>\n  <th scope=\"col\">Year</th>\n  <th scope=\"col\">Tuber Size</th>\n  <th scope=\"col\">Yield in tonnes per hectare - Total</th>\n   <th scope=\"col\">Yield in tonnes per hectare - #1</th>\n  <th scope=\"col\">Yield in tonnes per hectare - #1 Large</th>\n  <th scope=\"col\">Yield in tonnes per hectare - Marketable</th>\n  <th scope=\"col\">Yield in tonnes per hectare - Small</th>\n  <th scope=\"col\">Yield in tonnes per hectare - Cull</th>\n  </tr>\n  </thead>\n  <tbody> \n    <tr>\n      <td>Benton    50H</td>\n      <td>25</td>\n      <td>2015</td>\n      <td>5</td>\n      <td>28.7</td>\n      <td>23.9</td>\n      <td><span class=\"wb-inv\">not applicable</span></td>\n      <td>23.9</td>\n      <td>4.8</td>\n      <td>0.0</td>\n    </tr>\n    <tr>\n      <td>Benton 100H</td>\n      <td>25</td>\n      <td>2016</td>\n      <td>5</td>\n      <td>31.5</td>\n      <td>27.3</td>\n      <td><span class=\"wb-inv\">not applicable</span></td>\n      <td>27.3</td>\n      <td>3.6</td>\n      <td>0.6</td>\n    </tr>\n    <tr>\n      <td>Benton 100H</td>\n      <td>25</td>\n      <td>2017</td>\n      <td>5</td>\n      <td>25.5</td>\n      <td>20.2</td>\n      <td><span class=\"wb-inv\">not applicable</span></td>\n      <td>20.2</td>\n      <td>4.8</td>\n      <td>0.5</td>\n    </tr>\n    <tr>\n      <td>Bloomfield</td>\n      <td>25</td>\n      <td>2017</td>\n      <td>5</td>\n      <td>46.1</td>\n      <td>23.3</td>\n      <td>0.0</td>\n      <td>23.3</td>\n      <td>21.4</td>\n      <td>1.4</td>\n    </tr>\n    <tr>\n      <td>Elora</td>\n      <td>25</td>\n      <td>2017</td>\n      <td>4</td>\n      <td>59.2</td>\n      <td>19.5</td>\n      <td>0.0</td>\n      <td>19.5</td>\n      <td>30.9</td>\n      <td>8.7</td>\n    </tr>\n    <tr>\n      <td>Charlottetown</td>\n      <td>25</td>\n      <td>2017</td>\n      <td>5</td>\n      <td>59.4</td>\n      <td>28.8</td>\n      <td>0.3</td>\n      <td>29.0</td>\n      <td>26.8</td>\n      <td>3.6</td>\n    </tr>\n    <tr>\n      <td>Brooks</td>\n      <td>30</td>\n      <td>2017</td>\n      <td>6</td>\n      <td>59.9</td>\n      <td>43.1</td>\n      <td>1.4</td>\n      <td>44.4</td>\n      <td>15.4</td>\n      <td>0.1</td>\n    </tr>\n    <tr>\n      <td>Winkler</td>\n      <td>30</td>\n      <td>2017</td>\n      <td>3</td>\n      <td>64.8</td>\n      <td>46.5</td>\n      <td>0.0</td>\n      <td>46.5</td>\n      <td>18.3</td>\n      <td>0.0</td>\n    </tr>\n    <tr>\n      <td>Outlook</td>\n      <td>30</td>\n      <td>2017</td>\n      <td><span class=\"wb-inv\">not applicable</span></td>\n      <td>63.2</td>\n      <td>50.3</td>\n      <td>0.5</td>\n      <td>50.8</td>\n      <td>12.4</td>\n      <td>0.0</td>\n    </tr>\n    <tr>\n      <td><b>2017 Mean</b></td>\n<td><span class=\"wb-inv\">not applicable</span></td>\n<td><span class=\"wb-inv\">not applicable</span></td>\n<td><b>5</b></td>\n<td><b>54.0</b></td>\n<td><b>33.1</b></td>\n<td><b>0.4</b></td>\n<td><b>33.4</b></td>\n<td><b>18.6</b></td>\n<td><b>2.1</b></td>\n    </tr>\n \n  <tr>\n    <td><b>Overall Mean</b></td>\n<td><span class=\"wb-inv\">not applicable</span></td>\n<td><span class=\"wb-inv\">not applicable</span></td>\n<td><b>5</b></td>\n<td><b>48.7</b></td>\n<td><b>31.7</b></td>\n<td><b>0.4</b></td>\n<td><b>31.7</b></td>\n<td><b>15.4</b></td>\n<td><b>1.7</b></td>\n  </tr>\n  </tbody>\n</table> \n \n<table class=\"table table-responsive table-bordered table-condensed small\">\n<caption class=\"text-left\"><b>Table 1.2 AR2018-11 - Chieftain, Yield Data Reference</b></caption>\n<thead>\n  <tr>\n<th scope=\"col\">Location</th>\n<th scope=\"col\">Spacing (centimeters)</th>\n<th scope=\"col\">Year</th>\n<th scope=\"col\">Tuber Size</th>\n<th scope=\"col\">Yield in tonnes per hectare - Total</th>\n<th scope=\"col\">Yield in tonnes per hectare - #1</th>\n<th scope=\"col\">Yield in tonnes per hectare - #1 Large</th>\n<th scope=\"col\">Yield in tonnes per hectare - Marketable</th>\n<th scope=\"col\">Yield in tonnes per hectare - Small</th>\n<th scope=\"col\">Yield in tonnes per hectare - Cull</th>\n  </tr>\n  </thead>\n  <tbody> \n    <tr>\n      <td>Benton 50H</td>\n      <td>25</td>\n      <td>2015</td>\n      <td>6</td>\n      <td>24.8</td>\n      <td>23.3</td>\n      <td><span class=\"wb-inv\">not applicable</span></td>\n      <td>23.3</td>\n      <td>1.1</td>\n      <td>0.3</td>\n    </tr>\n    <tr>\n      <td>Benton 100H</td>\n      <td>25</td>\n      <td>2015</td>\n      <td>6</td>\n      <td>31.0</td>\n      <td>29.9</td>\n      <td><span class=\"wb-inv\">not applicable</span></td>\n      <td>29.9</td>\n      <td>0.8</td>\n      <td>0.3</td>\n    </tr>\n    <tr>\n      <td>Benton 100H</td>\n      <td>25</td>\n      <td>2016</td>\n      <td>6</td>\n      <td>36.6</td>\n      <td>33.2</td>\n      <td><span class=\"wb-inv\">not applicable</span></td>\n      <td>33.2</td>\n      <td>0.6</td>\n      <td>2.8</td>\n    </tr>\n    <tr>\n      <td>Benton 100H</td>\n      <td>25</td>\n      <td>2017</td>\n      <td>6</td>\n      <td>23.0</td>\n      <td>20.8</td>\n      <td><span class=\"wb-inv\">not applicable</span></td>\n      <td>20.8</td>\n      <td>1.5</td>\n      <td>0.8</td>\n    </tr>\n    <tr>\n      <td>Bloomfield</td>\n      <td>25</td>\n      <td>2017</td>\n      <td>6</td>\n      <td>40.6</td>\n      <td>33.5</td>\n      <td>0.0</td>\n      <td>33.5</td>\n      <td>6.5</td>\n      <td>0.6</td>\n    </tr>\n    <tr>\n      <td>Elora</td>\n      <td>25</td>\n      <td>2017</td>\n      <td>8</td>\n      <td>49.2</td>\n      <td>32.8</td>\n      <td>3.4</td>\n      <td>36.3</td>\n      <td>10.2</td>\n      <td>2.7</td>\n    </tr>\n    <tr>\n      <td>Charlottetown</td>\n      <td>25</td>\n      <td>2017</td>\n      <td>5</td>\n      <td>53.2</td>\n      <td>42.0</td>\n      <td>3.4</td>\n      <td>45.5</td>\n      <td>7.1</td>\n      <td>0.7</td>\n    </tr>\n    <tr>\n      <td>Brooks</td>\n      <td>30</td>\n      <td>2017</td>\n      <td>7</td>\n      <td>62.7</td>\n      <td>53.6</td>\n      <td>2.6</td>\n      <td>56.3</td>\n      <td>4.7</td>\n      <td>1.7</td>\n    </tr>\n    <tr>\n      <td>Outlook</td>\n      <td>30</td>\n      <td>2017</td>\n      <td><span class=\"wb-inv\">not applicable</span></td>\n      <td>56.2</td>\n      <td>51.3</td>\n      <td>2.4</td>\n      <td>53.7</td>\n      <td>2.4</td>\n      <td>0.0</td>\n    </tr>\n    <tr>\n      <td><b>2017 Mean</b></td>\n<td><span class=\"wb-inv\">not applicable</span></td>\n<td><span class=\"wb-inv\">not applicable</span></td>\n<td><b>6</b></td>\n<td><b>47.5</b></td>\n<td><b>39.0</b></td>\n<td><b>2.4</b></td>\n<td><b>41.0</b></td>\n<td><b>5.4</b></td>\n<td><b>1.1</b></td>\n    </tr>\n \n  <tr>\n    <td><b>Overall Mean</b></td>\n<td><span class=\"wb-inv\">not applicable</span></td>\n<td><span class=\"wb-inv\">not applicable</span></td>\n<td><b>6</b></td>\n<td><b>45.8</b></td>\n<td><b>37.3</b></td>\n<td><b>3.1</b></td>\n<td><b>39.3</b></td>\n<td><b>5.1</b></td>\n<td><b>1.4</b></td>\n  </tr>\n  </tbody>\n</table>\n \n\n<table class=\"table table-responsive table-bordered table-condensed small\">\n<caption class=\"text-left\"><b>Table 1.3 AR2018-11 - Norland East, Yield Data Reference</b></caption>\n<thead>\n  <tr>\n<th scope=\"col\">Location</th>\n<th scope=\"col\">Spacing (centimeters)</th>\n<th scope=\"col\">Year</th>\n<th scope=\"col\">Tuber Size</th>\n<th scope=\"col\">Yield in tonnes per hectare - Total</th>\n<th scope=\"col\">Yield in tonnes per hectare - #1</th>\n<th scope=\"col\">Yield in tonnes per hectare - #1 Large</th>\n<th scope=\"col\">Yield in tonnes per hectare - Marketable</th>\n<th scope=\"col\">Yield in tonnes per hectare - Small</th>\n<th scope=\"col\">Yield in tonnes per hectare - Cull</th>\n  </tr>\n  </thead>\n  <tbody>\n    <tr>\n      <td>Benton    100H</td>\n      <td>25</td>\n      <td>2015</td>\n      <td>7</td>\n      <td>32.5</td>\n      <td>31.0</td>\n      <td><span class=\"wb-inv\">not applicable</span></td>\n      <td>31.0</td>\n      <td>1.1</td>\n      <td>0.5</td>\n    </tr>\n    <tr>\n      <td>Benton 100H</td>\n      <td>25</td>\n      <td>2016</td>\n      <td>6</td>\n      <td>33.7</td>\n      <td>31.5</td>\n      <td><span class=\"wb-inv\">not applicable</span></td>\n      <td>31.5</td>\n      <td>0.9</td>\n      <td>1.3</td>\n    </tr>\n    <tr>\n      <td>Benton 100H</td>\n      <td>25</td>\n      <td>2017</td>\n      <td>6</td>\n      <td>23.3</td>\n      <td>21.9</td>\n      <td><span class=\"wb-inv\">not applicable</span></td>\n      <td>21.9</td>\n      <td>0.6</td>\n      <td>0.7</td>\n    </tr>\n    <tr>\n      <td>Bloomfield</td>\n      <td>25</td>\n      <td>2017</td>\n      <td>5</td>\n      <td>39.1</td>\n      <td>27.9</td>\n      <td>0.0</td>\n      <td>27.9</td>\n      <td>10.1</td>\n      <td>1.1</td>\n    </tr>\n    <tr>\n      <td>Elora</td>\n      <td>25</td>\n      <td>2017</td>\n      <td>7</td>\n      <td>49.4</td>\n      <td>24.1</td>\n      <td>0.0</td>\n      <td>24.1</td>\n      <td>20.8</td>\n      <td>4.5</td>\n    </tr>\n    <tr>\n      <td>Charlottetown</td>\n      <td>25</td>\n      <td>2017</td>\n      <td>5</td>\n      <td>41.1</td>\n      <td>26.9</td>\n      <td>0.0</td>\n      <td>26.9</td>\n      <td>12.5</td>\n      <td>1.8</td>\n    </tr>\n    <tr>\n      <td>Brooks</td>\n      <td>30</td>\n      <td>2017</td>\n      <td>5</td>\n      <td>74.9</td>\n      <td>59.5</td>\n      <td>9.0</td>\n      <td>68.4</td>\n      <td>5.4</td>\n      <td>1.0</td>\n    </tr>\n    <tr>\n      <td>Winkler</td>\n      <td>30</td>\n      <td>2017</td>\n      <td>4</td>\n      <td>55.3</td>\n      <td>49.6</td>\n      <td>0.6</td>\n      <td>50.1</td>\n      <td>5.2</td>\n      <td>0.0</td>\n    </tr>\n    <tr>\n      <td>Outlook</td>\n      <td>30</td>\n      <td>2017</td>\n      <td><span class=\"wb-inv\">not applicable</span></td>\n      <td>39.4</td>\n      <td>35.2</td>\n      <td>0.0</td>\n      <td>35.2</td>\n      <td>4.2</td>\n      <td>0.0</td>\n    </tr>\n    <tr>\n      <td><b>2017 Mean</b></td>\n      <td><span class=\"wb-inv\">not applicable</span></td>\n      <td><span class=\"wb-inv\">not applicable</span></td>\n      <td><b>5</b></td>\n      <td><b>46.1</b></td>\n      <td><b>35.0</b></td>\n      <td><b>1.6</b></td>\n      <td><b>36.4</b></td>\n      <td><b>8.4</b></td>\n      <td><b>1.3</b></td>\n      </tr>\n  <tr>\n    <td><b>Overall Mean</b></td>\n<td><span class=\"wb-inv\">not applicable</span></td>\n<td><span class=\"wb-inv\">not applicable</span></td>\n<td><b>6</b></td>\n<td><b>47.6</b></td>\n<td><b>38.1</b></td>\n<td><b>2.2</b></td>\n<td><b>39.7</b></td>\n<td><b>6.8</b></td>\n<td><b>1.1</b></td>\n  </tr>\n  </tbody>\n</table>\n\n<table class=\"table table-responsive table-bordered table-condensed small\">\n<caption class=\"text-left\"><b>Table 2.1 AR2018-11 Quality Data</b></caption>\n<thead>\n  <tr>\n    <th scope=\"col\">Location</th>\n    <th scope=\"col\">Year</th>\n    <th scope=\"col\">Specific gravity</th>\n    <th scope=\"col\">Boil</th>\n    <th scope=\"col\">Bake</th>\n</tr>\n  </thead>\n  <tbody>\n\n    <tr>\n      <td>Benton    50H</td>\n      <td>2015</td>\n      <td>1.082</td>\n      <td>62</td>\n      <td>58</td>\n    </tr>\n    <tr>\n      <td>Benton 100H</td>\n      <td>2016</td>\n      <td>1.075</td>\n      <td>65</td>\n      <td>66</td>\n    </tr>\n    <tr>\n      <td>Benton 100H</td>\n      <td>2017</td>\n      <td>1.092</td>\n      <td>73</td>\n      <td>55</td>\n    </tr>\n    <tr>\n      <td>Bloomfield</td>\n      <td>2017</td>\n      <td>1.091</td>\n      <td>82</td>\n      <td>85</td>\n    </tr>\n    <tr>\n      <td>Elora</td>\n      <td>2017</td>\n      <td>1.099</td>\n      <td>75</td>\n      <td>95</td>\n    </tr>\n    <tr>\n      <td>Charlottetown</td>\n      <td>2017</td>\n      <td>1.084</td>\n      <td><span class=\"wb-inv\">not applicable</span></td>\n      <td><span class=\"wb-inv\">not applicable</span></td>\n    </tr>\n    <tr>\n      <td>Brooks</td>\n      <td>2017</td>\n      <td>1.082</td>\n      <td><span class=\"wb-inv\">not applicable</span></td>\n      <td><span class=\"wb-inv\">not applicable</span></td>\n    </tr>\n    <tr>\n      <td>Winkler</td>\n      <td>2017</td>\n      <td>1.082</td>\n      <td><span class=\"wb-inv\">not applicable</span></td>\n      <td><span class=\"wb-inv\">not applicable</span></td>\n    </tr>\n    <tr>\n      <td>Outlook</td>\n      <td>2017</td>\n      <td>1.085</td>\n      <td><span class=\"wb-inv\">not applicable</span></td>\n      <td><span class=\"wb-inv\">not applicable</span></td>\n    </tr>\n    <tr>\n      <td><b>2017 Mean</b></td>\n      <td><span class=\"wb-inv\">not applicable</span></td>\n      <td><b>1.088</b></td>\n      <td><b>77</b></td>\n      <td><b>78</b></td>\n    </tr>\n  <tr>\n    <td><b>Overall Mean</b></td>\n    <td><span class=\"wb-inv\">not applicable</span></td>\n    <td><b>1.086</b></td>\n    <td><b>71</b></td>\n    <td><b>72</b></td>\n    </tr>\n  </tbody>\n</table>\n\n<table class=\"table table-responsive table-bordered table-condensed small\">\n<caption class=\"text-left\"><b>Table 2.2 AR2018-11 - Chieftain, Quality Data Reference</b></caption>\n<thead>\n  <tr>\n    <th scope=\"col\">Location</th>\n    <th scope=\"col\">Year</th>\n    <th scope=\"col\">Specific gravity</th>\n    <th scope=\"col\">Boil</th>\n    <th scope=\"col\">Bake</th>\n  </tr>\n  </thead>\n  <tbody>\n \n    <tr>\n      <td>Benton    50H</td>\n      <td>2015</td>\n      <td>1.075</td>\n      <td>73</td>\n      <td>57</td>\n    </tr>\n    <tr>\n      <td>Benton 100H</td>\n      <td>2015</td>\n      <td>1.075</td>\n      <td>73</td>\n      <td>57</td>\n    </tr>\n    <tr>\n      <td>Benton 100H</td>\n      <td>2016</td>\n      <td>1.067</td>\n      <td>68</td>\n      <td>53</td>\n    </tr>\n    <tr>\n      <td>Benton 100H</td>\n      <td>2017</td>\n      <td>1.087</td>\n      <td>75</td>\n      <td>69</td>\n    </tr>\n    <tr>\n      <td>Bloomfield</td>\n      <td>2017</td>\n      <td>1.077</td>\n      <td>80</td>\n      <td>70</td>\n    </tr>\n    <tr>\n      <td>Elora</td>\n      <td>2017</td>\n      <td>1.081</td>\n      <td>83</td>\n      <td>70</td>\n    </tr>\n    <tr>\n      <td>Charlottetown</td>\n      <td>2017</td>\n      <td>1.082</td>\n      <td><span class=\"wb-inv\">not applicable</span></td>\n      <td><span class=\"wb-inv\">not applicable</span></td>\n    </tr>\n    <tr>\n      <td>Brooks</td>\n      <td>2017</td>\n      <td>1.076</td>\n      <td><span class=\"wb-inv\">not applicable</span></td>\n      <td><span class=\"wb-inv\">not applicable</span></td>\n    </tr>\n    <tr>\n      <td>Outlook</td>\n      <td>2017</td>\n      <td>1.079</td>\n      <td><span class=\"wb-inv\">not applicable</span></td>\n      <td><span class=\"wb-inv\">not applicable</span></td>\n    </tr>\n    <tr>\n      <td><b>2017 Mean</b></td>\n      <td><span class=\"wb-inv\">not applicable</span></td>\n      <td><b>1.080</b></td>\n      <td><b>79</b></td>\n      <td><b>70</b></td>\n      </tr>\n   <tr>  \n    <td><b>Overall Mean</b></td>\n       <td><span class=\"wb-inv\">not applicable</span></td>\n       <td><b>1.077</b></td>\n       <td><b>74</b></td>\n       <td><b>59</b></td>\n      </tr>\n</tbody>\n</table>\n\n<table class=\"table table-responsive table-bordered table-condensed small\">\n<caption class=\"text-left\"><b>Table 2.3 AR2018-11 - Norland East, Quality Data Reference</b></caption>\n  <thead>\n  <tr>\n  <th scope=\"col\">Location</th>\n  <th scope=\"col\">Year</th>\n  <th scope=\"col\">Specific gravity</th>\n  <th scope=\"col\">Boil</th>\n  <th scope=\"col\">Bake</th>\n  </tr>\n  </thead>\n  <tbody>\n     <tr>\n       <td>Benton    100H</td>\n       <td>2015</td>\n       <td>1.073</td>\n       <td>75</td>\n       <td>55</td>\n     </tr>\n     <tr>\n       <td>Benton 100H</td>\n       <td>2016</td>\n       <td>1.063</td>\n       <td>71</td>\n       <td>58</td>\n     </tr>\n     <tr>\n       <td>Benton 100H</td>\n       <td>2017</td>\n       <td>1.078</td>\n       <td>73</td>\n       <td>65</td>\n     </tr>\n     <tr>\n       <td>Bloomfield</td>\n       <td>2017</td>\n       <td>1.069</td>\n       <td>68</td>\n       <td>60</td>\n     </tr>\n     <tr>\n       <td>Elora</td>\n       <td>2017</td>\n       <td>1.085</td>\n       <td>63</td>\n       <td>70</td>\n     </tr>\n     <tr>\n       <td>Charlottetown</td>\n       <td>2017</td>\n       <td>1.071</td>\n      <td><span class=\"wb-inv\">not applicable</span></td>\n      <td><span class=\"wb-inv\">not applicable</span></td>\n     </tr>\n     <tr>\n       <td>Brooks</td>\n       <td>2017</td>\n       <td>1.068</td>\n      <td><span class=\"wb-inv\">not applicable</span></td>\n      <td><span class=\"wb-inv\">not applicable</span></td>\n     </tr>\n     <tr>\n       <td>Winkler</td>\n       <td>2017</td>\n       <td>1.065</td>\n      <td><span class=\"wb-inv\">not applicable</span></td>\n      <td><span class=\"wb-inv\">not applicable</span></td>\n     </tr>\n     <tr>\n       <td>Outlook</td>\n       <td>2017</td>\n       <td>1.073</td>\n      <td><span class=\"wb-inv\">not applicable</span></td>\n      <td><span class=\"wb-inv\">not applicable</span></td>\n     </tr>\n     <tr>\n       <td><b>2017 Mean</b></td>\n<td><span class=\"wb-inv\">not applicable</span></td>\n<td><b>1.073</b></td>\n<td><b>68</b></td>\n<td><b>65</b></td>\n      </tr>\n \n  <tr>\n    <td><b>Overall Mean</b></td>\n<td><span class=\"wb-inv\">not applicable</span></td>\n<td><b>1.071</b></td>\n<td><b>67</b></td>\n<td><b>58</b></td>\n      </tr>\n  </tbody>\n</table>\n\r\n    ",
        "fr": "\r\n      <p><b>(Brigus x Redsen) March\u00e9 du frais</b></p>\n \n\n<figure class=\"mrgn-lft-0\">\n<div class=\"col-md-8 mrgn-lft-0\">\n<p><img src=\"https://www.agr.gc.ca/resources/prod/img/science/prc-crpt/ar2018-11sm.jpg\" alt=\"AR2018-11 label\" class=\"img-responsive\"></p>\n</div>\n<div class=\"clearfix\"></div>\n<figcaption class=\"mrgn-bttm-lg\">\n<p>S\u00e9lection donnant des tubercules ronds \u00e0 peau rouge  lisse et \u00e0 chair cr\u00e8me; bonne pour la cuisson \u00e0 l\u2019eau et au four,  taux de  tub\u00e9risation \u00e9lev\u00e9 (*s\u00e9lection \u00e9galement disponible  aux fins de soumission pour des essais exclusifs)</p>\n</figcaption>\n</figure>\n\n\n  <ul>\n<li>Plante de  vigueur mod\u00e9r\u00e9e; maturit\u00e9 h\u00e2tive.</li>\n<li>Tubercules  ronds, de taille moyenne et d\u2019apparence sup\u00e9rieure \u00e0 la moyenne; peau rouge  lisse, chair cr\u00e8me; yeux mod\u00e9r\u00e9ment profonds en nombre moyen; dormance courte  (semblable \u00e0 celle de la Norland).</li>\n    <li>Taux de  tub\u00e9risation \u00e9lev\u00e9 (sup\u00e9rieur \u00e0 celui de la Chieftain); rendement \u00e9lev\u00e9 \u00e0  certains sites d\u2019essai; bonne pour la cuisson \u00e0 l\u2019eau et au four, avec une  texture relativement s\u00e8che. </li>\n    <li>Tr\u00e8s faible  incidence de c\u0153urs creux et de verdissement signal\u00e9e \u00e0 certains sites d\u2019essai;  meurtrissures\u00a0: en deux ans d\u2019\u00e9preuves contr\u00f4l\u00e9es, on a enregistr\u00e9 un  faible taux de taches noires (plus faible que celui de la Russet Burbank).</li>\n    <li>On n\u2019a pas  d\u00e9cel\u00e9 de marqueur associ\u00e9 \u00e0 une r\u00e9sistance au n\u00e9matode dor\u00e9\u00a0Ro1.</li>\n    <li>Sensible au <abbr title=\"virus de la pomme de terre Y\">PVY</abbr>  et au <abbr title=\"virus de la pomme de terre X\">PVX</abbr> apr\u00e8s inoculation m\u00e9canique. </li>\n    <li>R\u00e9sistance  mod\u00e9r\u00e9e \u00e0 la gale commune au cours d\u2019essais de 2\u00a0ans \u00e0 Fredericton  (Nouveau-Brunswick).</li>\n    <li>\u00c9galement  s\u00e9lectionn\u00e9e \u00e0 Vauxhall (Alberta) et \u00e0 Guelph (Ontario). </li>\n  </ul>\n \n\n<table class=\"table table-responsive table-bordered table-condensed small\">\n<caption class=\"text-left\"><b>Tableau 1.1 AR2018-11  \u2212 Donn\u00e9es sur le rendement</b></caption>\n<thead>\n <tr>\n   <th scope=\"col\">Endroit</th>\n   <th scope=\"col\">Espacement (centim\u00e8tres) </th>\n   <th scope=\"col\">Ann\u00e9e</th>\n   <th scope=\"col\">Taille du  tubercule </th>\n   <th scope=\"col\">Rendement en tonnes m\u00e9triques par hectare - Totale</th>\n   <th scope=\"col\">Rendement en tonnes m\u00e9triques par hectare - N\u00b01</th>\n   <th scope=\"col\">Rendement en tonnes m\u00e9triques par hectare  - N\u00b01 Grosse</th>\n   <th scope=\"col\">Rendement en tonnes m\u00e9triques par hectare  -  Vendable</th>\n   <th scope=\"col\">Rendement en tonnes m\u00e9triques par hectare  - Petite</th>\n   <th scope=\"col\">Rendement en tonnes m\u00e9triques par hectare  -  Rebut</th>\n </tr>\n  </thead>\n  <tbody> \n    <tr>\n      <td>Benton    50H</td>\n      <td>25</td>\n      <td>2015</td>\n      <td>5</td>\n      <td>28,7</td>\n      <td>23,9</td>\n      <td><span class=\"wb-inv\">non disponible</span></td>\n      <td>23,9</td>\n      <td>4,8</td>\n      <td>0,0</td>\n    </tr>\n    <tr>\n      <td>Benton 100H</td>\n      <td>25</td>\n      <td>2016</td>\n      <td>5</td>\n      <td>31,5</td>\n      <td>27,3</td>\n      <td><span class=\"wb-inv\">non disponible</span></td>\n      <td>27,3</td>\n      <td>3,6</td>\n      <td>0,6</td>\n    </tr>\n    <tr>\n      <td>Benton 100H</td>\n      <td>25</td>\n      <td>2017</td>\n      <td>5</td>\n      <td>25,5</td>\n      <td>20,2</td>\n      <td><span class=\"wb-inv\">non disponible</span></td>\n      <td>20,2</td>\n      <td>4,8</td>\n      <td>0,5</td>\n    </tr>\n    <tr>\n      <td>Bloomfield</td>\n      <td>25</td>\n      <td>2017</td>\n      <td>5</td>\n      <td>46,1</td>\n      <td>23,3</td>\n      <td>0,0</td>\n      <td>23,3</td>\n      <td>21,4</td>\n      <td>1,4</td>\n    </tr>\n    <tr>\n      <td>Elora</td>\n      <td>25</td>\n      <td>2017</td>\n      <td>4</td>\n      <td>59,2</td>\n      <td>19,5</td>\n      <td>0,0</td>\n      <td>19,5</td>\n      <td>30,9</td>\n      <td>8,7</td>\n    </tr>\n    <tr>\n      <td>Charlottetown</td>\n      <td>25</td>\n      <td>2017</td>\n      <td>5</td>\n      <td>59,4</td>\n      <td>28,8</td>\n      <td>0,3</td>\n      <td>29,0</td>\n      <td>26,8</td>\n      <td>3,6</td>\n    </tr>\n    <tr>\n      <td>Brooks</td>\n      <td>30</td>\n      <td>2017</td>\n      <td>6</td>\n      <td>59,9</td>\n      <td>43,1</td>\n      <td>1,4</td>\n      <td>44,4</td>\n      <td>15,4</td>\n      <td>0,1</td>\n    </tr>\n    <tr>\n      <td>Winkler</td>\n      <td>30</td>\n      <td>2017</td>\n      <td>3</td>\n      <td>64,8</td>\n      <td>46,5</td>\n      <td>0,0</td>\n      <td>46,5</td>\n      <td>18,3</td>\n      <td>0,0</td>\n    </tr>\n    <tr>\n      <td>Outlook</td>\n      <td>30</td>\n      <td>2017</td>\n      <td><span class=\"wb-inv\">non disponible</span></td>\n      <td>63,2</td>\n      <td>50,3</td>\n      <td>0,5</td>\n      <td>50,8</td>\n      <td>12,4</td>\n      <td>0,0</td>\n    </tr>\n    <tr>\n      <td><b>Moyenne 2017</b></td>\n<td><span class=\"wb-inv\">non disponible</span></td>\n<td><span class=\"wb-inv\">non disponible</span></td>\n<td><b>5</b></td>\n<td><b>54,0</b></td>\n<td><b>33,1</b></td>\n<td><b>0,4</b></td>\n<td><b>33,4</b></td>\n<td><b>18,6</b></td>\n<td><b>2,1</b></td>\n    </tr>\n \n  <tr>\n    <td><b>Moyenne somme totale</b></td>\n<td><span class=\"wb-inv\">non disponible</span></td>\n<td><span class=\"wb-inv\">non disponible</span></td>\n<td><b>5</b></td>\n<td><b>48,7</b></td>\n<td><b>31,7</b></td>\n<td><b>0,4</b></td>\n<td><b>31,7</b></td>\n<td><b>15,4</b></td>\n<td><b>1,7</b></td>\n  </tr>\n  </tbody>\n</table> \n \n<table class=\"table table-responsive table-bordered table-condensed small\">\n<caption class=\"text-left\"><b>Tableau 1.2 AR2018-11  \u2212 Donn\u00e9es sur le rendement du T\u00e9moin, Chieftain</b></caption>\n<thead>\n <tr>\n   <th scope=\"col\">Endroit</th>\n   <th scope=\"col\">Espacement (centim\u00e8tres) </th>\n   <th scope=\"col\">Ann\u00e9e</th>\n   <th scope=\"col\">Taille du  tubercule </th>\n   <th scope=\"col\">Rendement en tonnes m\u00e9triques par hectare - Totale</th>\n   <th scope=\"col\">Rendement en tonnes m\u00e9triques par hectare - N\u00b01</th>\n   <th scope=\"col\">Rendement en tonnes m\u00e9triques par hectare  - N\u00b01 Grosse</th>\n   <th scope=\"col\">Rendement en tonnes m\u00e9triques par hectare  -  Vendable</th>\n   <th scope=\"col\">Rendement en tonnes m\u00e9triques par hectare  - Petite</th>\n   <th scope=\"col\">Rendement en tonnes m\u00e9triques par hectare  -  Rebut</th>\n </tr>\n  </thead>\n  <tbody> \n    <tr>\n      <td>Benton 50H</td>\n      <td>25</td>\n      <td>2015</td>\n      <td>6</td>\n      <td>24,8</td>\n      <td>23,3</td>\n      <td><span class=\"wb-inv\">non disponible</span></td>\n      <td>23,3</td>\n      <td>1,1</td>\n      <td>0,3</td>\n    </tr>\n \n    <tr>\n      <td>Benton 100H</td>\n      <td>25</td>\n      <td>2015</td>\n      <td>6</td>\n      <td>31,0</td>\n      <td>29,9</td>\n      <td><span class=\"wb-inv\">non disponible</span></td>\n      <td>29,9</td>\n      <td>0,8</td>\n      <td>0,3</td>\n    </tr>\n    <tr>\n      <td>Benton 100H</td>\n      <td>25</td>\n      <td>2016</td>\n      <td>6</td>\n      <td>36,6</td>\n      <td>33,2</td>\n      <td><span class=\"wb-inv\">non disponible</span></td>\n      <td>33,2</td>\n      <td>0,6</td>\n      <td>2,8</td>\n    </tr>\n    <tr>\n      <td>Benton 100H</td>\n      <td>25</td>\n      <td>2017</td>\n      <td>6</td>\n      <td>23,0</td>\n      <td>20,8</td>\n      <td><span class=\"wb-inv\">non disponible</span></td>\n      <td>20,8</td>\n      <td>1,5</td>\n      <td>0,8</td>\n    </tr>\n    <tr>\n      <td>Bloomfield</td>\n      <td>25</td>\n      <td>2017</td>\n      <td>6</td>\n      <td>40,6</td>\n      <td>33,5</td>\n      <td>0,0</td>\n      <td>33,5</td>\n      <td>6,5</td>\n      <td>0,6</td>\n    </tr>\n    <tr>\n      <td>Elora</td>\n      <td>25</td>\n      <td>2017</td>\n      <td>8</td>\n      <td>49,2</td>\n      <td>32,8</td>\n      <td>3,4</td>\n      <td>36,3</td>\n      <td>10,2</td>\n      <td>2,7</td>\n    </tr>\n    <tr>\n      <td>Charlottetown</td>\n      <td>25</td>\n      <td>2017</td>\n      <td>5</td>\n      <td>53,2</td>\n      <td>42,0</td>\n      <td>3,4</td>\n      <td>45,5</td>\n      <td>7,1</td>\n      <td>0,7</td>\n    </tr>\n    <tr>\n      <td>Brooks</td>\n      <td>30</td>\n      <td>2017</td>\n      <td>7</td>\n      <td>62,7</td>\n      <td>53,6</td>\n      <td>2,6</td>\n      <td>56,3</td>\n      <td>4,7</td>\n      <td>1,7</td>\n    </tr>\n    <tr>\n      <td>Outlook</td>\n      <td>30</td>\n      <td>2017</td>\n      <td><span class=\"wb-inv\">non disponible</span></td>\n      <td>56,2</td>\n      <td>51,3</td>\n      <td>2,4</td>\n      <td>53,7</td>\n      <td>2,4</td>\n      <td>0,0</td>\n    </tr>\n    <tr>\n      <td><b>Moyenne 2017</b></td>\n<td><span class=\"wb-inv\">non disponible</span></td>\n<td><span class=\"wb-inv\">non disponible</span></td>\n<td><b>6</b></td>\n<td><b>47,5</b></td>\n<td><b>39,0</b></td>\n<td><b>2,4</b></td>\n<td><b>41,0</b></td>\n<td><b>5,4</b></td>\n<td><b>1,1</b></td>\n    </tr>\n \n  <tr>\n    <td><b>Moyenne somme totale</b></td>\n<td><span class=\"wb-inv\">non disponible</span></td>\n<td><span class=\"wb-inv\">non disponible</span></td>\n<td><b>6</b></td>\n<td><b>45,8</b></td>\n<td><b>37,3</b></td>\n<td><b>3,1</b></td>\n<td><b>39,3</b></td>\n<td><b>5,1</b></td>\n<td><b>1,4</b></td>\n  </tr>\n  </tbody>\n</table>\n \n\n<table class=\"table table-responsive table-bordered table-condensed small\">\n<caption class=\"text-left\"><b>Tableau 1.3 AR2018-11  \u2212 Donn\u00e9es sur le rendement du T\u00e9moin, Norland Est</b>\n</caption>\n<thead>\n <tr>\n   <th scope=\"col\">Endroit</th>\n   <th scope=\"col\">Espacement (centim\u00e8tres) </th>\n   <th scope=\"col\">Ann\u00e9e</th>\n   <th scope=\"col\">Taille du  tubercule </th>\n   <th scope=\"col\">Rendement en tonnes m\u00e9triques par hectare - Totale</th>\n   <th scope=\"col\">Rendement en tonnes m\u00e9triques par hectare - N\u00b01</th>\n   <th scope=\"col\">Rendement en tonnes m\u00e9triques par hectare  - N\u00b01 Grosse</th>\n   <th scope=\"col\">Rendement en tonnes m\u00e9triques par hectare  -  Vendable</th>\n   <th scope=\"col\">Rendement en tonnes m\u00e9triques par hectare  - Petite</th>\n   <th scope=\"col\">Rendement en tonnes m\u00e9triques par hectare  -  Rebut</th>\n </tr>\n  </thead>\n  <tbody>\n    <tr>\n      <td>Benton    100H</td>\n      <td>25</td>\n      <td>2015</td>\n      <td>7</td>\n      <td>32,5</td>\n      <td>31,0</td>\n      <td><span class=\"wb-inv\">non disponible</span></td>\n      <td>31,0</td>\n      <td>1,1</td>\n      <td>0,5</td>\n    </tr>\n    <tr>\n      <td>Benton 100H</td>\n      <td>25</td>\n      <td>2016</td>\n      <td>6</td>\n      <td>33,7</td>\n      <td>31,5</td>\n      <td><span class=\"wb-inv\">non disponible</span></td>\n      <td>31,5</td>\n      <td>0,9</td>\n      <td>1,3</td>\n    </tr>\n    <tr>\n      <td>Benton 100H</td>\n      <td>25</td>\n      <td>2017</td>\n      <td>6</td>\n      <td>23,3</td>\n      <td>21,9</td>\n      <td><span class=\"wb-inv\">non disponible</span></td>\n      <td>21,9</td>\n      <td>0,6</td>\n      <td>0,7</td>\n    </tr>\n    <tr>\n      <td>Bloomfield</td>\n      <td>25</td>\n      <td>2017</td>\n      <td>5</td>\n      <td>39,1</td>\n      <td>27,9</td>\n      <td>0,0</td>\n      <td>27,9</td>\n      <td>10,1</td>\n      <td>1,1</td>\n    </tr>\n    <tr>\n      <td>Elora</td>\n      <td>25</td>\n      <td>2017</td>\n      <td>7</td>\n      <td>49,4</td>\n      <td>24,1</td>\n      <td>0,0</td>\n      <td>24,1</td>\n      <td>20,8</td>\n      <td>4,5</td>\n    </tr>\n    <tr>\n      <td>Charlottetown</td>\n      <td>25</td>\n      <td>2017</td>\n      <td>5</td>\n      <td>41,1</td>\n      <td>26,9</td>\n      <td>0,0</td>\n      <td>26,9</td>\n      <td>12,5</td>\n      <td>1,8</td>\n    </tr>\n    <tr>\n      <td>Brooks</td>\n      <td>30</td>\n      <td>2017</td>\n      <td>5</td>\n      <td>74,9</td>\n      <td>59,5</td>\n      <td>9,0</td>\n      <td>68,4</td>\n      <td>5,4</td>\n      <td>1,0</td>\n    </tr>\n    <tr>\n      <td>Winkler</td>\n      <td>30</td>\n      <td>2017</td>\n      <td>4</td>\n      <td>55,3</td>\n      <td>49,6</td>\n      <td>0,6</td>\n      <td>50,1</td>\n      <td>5,2</td>\n      <td>0,0</td>\n    </tr>\n    <tr>\n      <td>Outlook</td>\n      <td>30</td>\n      <td>2017</td>\n      <td><span class=\"wb-inv\">non disponible</span></td>\n      <td>39,4</td>\n      <td>35,2</td>\n      <td>0,0</td>\n      <td>35,2</td>\n      <td>4,2</td>\n      <td>0,0</td>\n    </tr>\n    <tr>\n      <td><b>Moyenne 2017</b></td>\n      <td><span class=\"wb-inv\">non disponible</span></td>\n      <td><span class=\"wb-inv\">non disponible</span></td>\n      <td><b>5</b></td>\n      <td><b>46,1</b></td>\n      <td><b>35,0</b></td>\n      <td><b>1,6</b></td>\n      <td><b>36,4</b></td>\n      <td><b>8,4</b></td>\n      <td><b>1,3</b></td>\n      </tr>\n  <tr>\n    <td><b>Moyenne somme totale</b></td>\n<td><span class=\"wb-inv\">non disponible</span></td>\n<td><span class=\"wb-inv\">non disponible</span></td>\n<td><b>6</b></td>\n<td><b>47,6</b></td>\n<td><b>38,1</b></td>\n<td><b>2,2</b></td>\n<td><b>39,7</b></td>\n<td><b>6,8</b></td>\n<td><b>1,1</b></td>\n  </tr>\n  </tbody>\n</table>\n\n<table class=\"table table-responsive table-bordered table-condensed small\">\n<caption class=\"text-left\"><b>Tableau 2.1 AR2018-11 \u2212 Donn\u00e9es sur la qualit\u00e9</b></caption>\n<thead>\n  <tr>\n  <th scope=\"col\">Endroit</th>\n <th scope=\"col\">Ann\u00e9e</th>\n   <th scope=\"col\">Densit\u00e9 relative</th>\n   <th scope=\"col\">Cuisson \u00e0 l'eau</th>\n   <th scope=\"col\">Cuisson au four</th>\n  </tr>\n  </thead>\n  <tbody>\n\n    <tr>\n      <td>Benton    50H</td>\n      <td>2015</td>\n      <td>1,082</td>\n      <td>62</td>\n      <td>58</td>\n    </tr>\n    <tr>\n      <td>Benton 100H</td>\n      <td>2016</td>\n      <td>1,075</td>\n      <td>65</td>\n      <td>66</td>\n    </tr>\n    <tr>\n      <td>Benton 100H</td>\n      <td>2017</td>\n      <td>1,092</td>\n      <td>73</td>\n      <td>55</td>\n    </tr>\n    <tr>\n      <td>Bloomfield</td>\n      <td>2017</td>\n      <td>1,091</td>\n      <td>82</td>\n      <td>85</td>\n    </tr>\n    <tr>\n      <td>Elora</td>\n      <td>2017</td>\n      <td>1,099</td>\n      <td>75</td>\n      <td>95</td>\n    </tr>\n    <tr>\n      <td>Charlottetown</td>\n      <td>2017</td>\n      <td>1,084</td>\n      <td><span class=\"wb-inv\">non disponible</span></td>\n      <td><span class=\"wb-inv\">non disponible</span></td>\n    </tr>\n    <tr>\n      <td>Brooks</td>\n      <td>2017</td>\n      <td>1,082</td>\n      <td><span class=\"wb-inv\">non disponible</span></td>\n      <td><span class=\"wb-inv\">non disponible</span></td>\n    </tr>\n    <tr>\n      <td>Winkler</td>\n      <td>2017</td>\n      <td>1,082</td>\n      <td><span class=\"wb-inv\">non disponible</span></td>\n      <td><span class=\"wb-inv\">non disponible</span></td>\n    </tr>\n    <tr>\n      <td>Outlook</td>\n      <td>2017</td>\n      <td>1,085</td>\n      <td><span class=\"wb-inv\">non disponible</span></td>\n      <td><span class=\"wb-inv\">non disponible</span></td>\n    </tr>\n    <tr>\n      <td><b>Moyenne 2017</b></td>\n      <td><span class=\"wb-inv\">non disponible</span></td>\n      <td><b>1,088</b></td>\n      <td><b>77</b></td>\n      <td><b>78</b></td>\n    </tr>\n  <tr>\n    <td><b>Moyenne somme totale</b></td>\n    <td><span class=\"wb-inv\">non disponible</span></td>\n    <td><b>1,086</b></td>\n    <td><b>71</b></td>\n    <td><b>72</b></td>\n    </tr>\n  </tbody>\n</table>\n\n<table class=\"table table-responsive table-bordered table-condensed small\">\n<caption class=\"text-left\"><b>Tableau 2.2 AR2018-11 \u2212 Donn\u00e9es sur la qualit\u00e9 du T\u00e9moin, Chieftain</b>\n</caption>\n<thead>\n  <tr>\n  <th scope=\"col\">Endroit</th>\n <th scope=\"col\">Ann\u00e9e</th>\n   <th scope=\"col\">Densit\u00e9 relative</th>\n   <th scope=\"col\">Cuisson \u00e0 l'eau</th>\n   <th scope=\"col\">Cuisson au four</th>\n  </tr>\n  </thead>\n  <tbody>\n \n    <tr>\n      <td>Benton    50H</td>\n      <td>2015</td>\n      <td>1,075</td>\n      <td>73</td>\n      <td>57</td>\n    </tr>\n    <tr>\n      <td>Benton 100H</td>\n      <td>2015</td>\n      <td>1,075</td>\n      <td>73</td>\n      <td>57</td>\n    </tr>\n    <tr>\n      <td>Benton 100H</td>\n      <td>2016</td>\n      <td>1,067</td>\n      <td>68</td>\n      <td>53</td>\n    </tr>\n    <tr>\n      <td>Benton 100H</td>\n      <td>2017</td>\n      <td>1,087</td>\n      <td>75</td>\n      <td>69</td>\n    </tr>\n    <tr>\n      <td>Bloomfield</td>\n      <td>2017</td>\n      <td>1,077</td>\n      <td>80</td>\n      <td>70</td>\n    </tr>\n    <tr>\n      <td>Elora</td>\n      <td>2017</td>\n      <td>1,081</td>\n      <td>83</td>\n      <td>70</td>\n    </tr>\n    <tr>\n      <td>Charlottetown</td>\n      <td>2017</td>\n      <td>1,082</td>\n      <td><span class=\"wb-inv\">non disponible</span></td>\n      <td><span class=\"wb-inv\">non disponible</span></td>\n    </tr>\n    <tr>\n      <td>Brooks</td>\n      <td>2017</td>\n      <td>1,076</td>\n      <td><span class=\"wb-inv\">non disponible</span></td>\n      <td><span class=\"wb-inv\">non disponible</span></td>\n    </tr>\n    <tr>\n      <td>Outlook</td>\n      <td>2017</td>\n      <td>1,079</td>\n      <td><span class=\"wb-inv\">non disponible</span></td>\n      <td><span class=\"wb-inv\">non disponible</span></td>\n    </tr>\n    <tr>\n      <td><b>Moyenne 2017</b></td>\n      <td><span class=\"wb-inv\">non disponible</span></td>\n      <td><b>1,080</b></td>\n      <td><b>79</b></td>\n      <td><b>70</b></td>\n      </tr>\n   <tr>  \n    <td><b>Moyenne somme totale</b></td>\n       <td><span class=\"wb-inv\">non disponible</span></td>\n       <td><b>1,077</b></td>\n       <td><b>74</b></td>\n       <td><b>59</b></td>\n      </tr>\n</tbody>\n</table>\n\n<table class=\"table table-responsive table-bordered table-condensed small\">\n<caption class=\"text-left\"><b>Tableau 2.3 AR2018-11 \u2212 Donn\u00e9es sur la qualit\u00e9 du T\u00e9moin, Norland Est</b></caption>\n  <thead>\n  <tr>\n  <th scope=\"col\">Endroit</th>\n <th scope=\"col\">Ann\u00e9e</th>\n   <th scope=\"col\">Densit\u00e9 relative</th>\n   <th scope=\"col\">Cuisson \u00e0 l'eau</th>\n   <th scope=\"col\">Cuisson au four</th>\n  </tr>\n  </thead>\n  <tbody>\n     <tr>\n       <td>Benton    100H</td>\n       <td>2015</td>\n       <td>1,073</td>\n       <td>75</td>\n       <td>55</td>\n     </tr>\n     <tr>\n       <td>Benton 100H</td>\n       <td>2016</td>\n       <td>1,063</td>\n       <td>71</td>\n       <td>58</td>\n     </tr>\n     <tr>\n       <td>Benton 100H</td>\n       <td>2017</td>\n       <td>1,078</td>\n       <td>73</td>\n       <td>65</td>\n     </tr>\n     <tr>\n       <td>Bloomfield</td>\n       <td>2017</td>\n       <td>1,069</td>\n       <td>68</td>\n       <td>60</td>\n     </tr>\n     <tr>\n       <td>Elora</td>\n       <td>2017</td>\n       <td>1,085</td>\n       <td>63</td>\n       <td>70</td>\n     </tr>\n     <tr>\n       <td>Charlottetown</td>\n       <td>2017</td>\n       <td>1,071</td>\n      <td><span class=\"wb-inv\">non disponible</span></td>\n      <td><span class=\"wb-inv\">non disponible</span></td>\n     </tr>\n     <tr>\n       <td>Brooks</td>\n       <td>2017</td>\n       <td>1,068</td>\n      <td><span class=\"wb-inv\">non disponible</span></td>\n      <td><span class=\"wb-inv\">non disponible</span></td>\n     </tr>\n     <tr>\n       <td>Winkler</td>\n       <td>2017</td>\n       <td>1,065</td>\n      <td><span class=\"wb-inv\">non disponible</span></td>\n      <td><span class=\"wb-inv\">non disponible</span></td>\n     </tr>\n     <tr>\n       <td>Outlook</td>\n       <td>2017</td>\n       <td>1,073</td>\n      <td><span class=\"wb-inv\">non disponible</span></td>\n      <td><span class=\"wb-inv\">non disponible</span></td>\n     </tr>\n     <tr>\n       <td><b>Moyenne 2017</b></td>\n<td><span class=\"wb-inv\">non disponible</span></td>\n<td><b>1,073</b></td>\n<td><b>68</b></td>\n<td><b>65</b></td>\n      </tr>\n \n  <tr>\n    <td><b>Moyenne somme totale</b></td>\n<td><span class=\"wb-inv\">non disponible</span></td>\n<td><b>1,071</b></td>\n<td><b>67</b></td>\n<td><b>58</b></td>\n      </tr>\n  </tbody>\n</table>\n\r\n    "
    }
}