{
    "dcr_id": "1517337263907",
    "title": {
        "en": "Outline of opportunities in South Korea",
        "fr": "Aper\u00e7u des d\u00e9bouch\u00e9s en Cor\u00e9e du Sud"
    },
    "modified": "2021-05-21",
    "issued": "2018-02-07",
    "templatetype": "content page 1 column",
    "page_type": "0",
    "node_id": "1549652534579",
    "dc_date_created": "2018-02-07",
    "managing_branch": "MISB",
    "parent_node_id": "",
    "short_title": "",
    "exturl": "",
    "teamsite_location": {
        "en": "/default/main/AAFC-AAC/Internet-Internet/MISB-DGSIM/ATS-SEA/ATS-SEA-s2/WORKAREA/ATS-SEA-s2/templatedata/comm-comm/gene-gene/data/oo_sk1_1517337263907_en",
        "fr": "/default/main/AAFC-AAC/Internet-Internet/MISB-DGSIM/ATS-SEA/ATS-SEA-s2/WORKAREA/ATS-SEA-s2/templatedata/comm-comm/gene-gene/data/oo_sk1_1517337263907_fr"
    },
    "type_name": "comm-comm/gene-gene",
    "has_dcr_id": true,
    "label": {
        "en": "Outline of opportunities in South Korea",
        "fr": "Aper\u00e7u des d\u00e9bouch\u00e9s en Cor\u00e9e du Sud"
    },
    "breadcrumb": {
        "en": "Outline of opportunities in South Korea",
        "fr": "Aper\u00e7u des d\u00e9bouch\u00e9s en Cor\u00e9e du Sud"
    },
    "layout_name": "content page 1 column",
    "lang": "en",
    "refaire": false,
    "meta": {
        "viewport": {
            "en": "width=device-width,initial-scale=1",
            "fr": "width=device-width, initial-scale=1"
        },
        "issued": {
            "en": "2018-02-07",
            "fr": "2018-02-07"
        },
        "modified": {
            "en": "2021-05-21",
            "fr": "2021-05-21"
        },
        "format": {
            "en": "gcformat",
            "fr": "gcformat"
        },
        "title": {
            "en": "Outline of opportunities in South Korea",
            "fr": "Aper\u00e7u des d\u00e9bouch\u00e9s en Cor\u00e9e du Sud"
        },
        "subject": {
            "en": "architectural heritage;soil assessement;food safety and quality",
            "fr": "gestion des sols;moutons;pommes de terre-producteurs"
        },
        "dcterms:subject": {
            "en": "architecture;government information;statistics",
            "fr": "\u00e9conomie agricole;v\u00e9rification;l\u00e9gislation"
        },
        "description": {
            "en": "Bovine hides. Top commodities:Bovine hides. Canada\u2019s rank:2nd largest supplier to South Korea in 2016. Top supplying Canadian provinces to South Korea:Saskatchewan, Ontario, Manitoba. Canada\u2019s rank:8th largest supplier to South Korea in 2016.",
            "fr": "Formats de rechange. Agriculture et Agroalimentaire Canada. L'honorable Gerry Ritz, C.P., d\u00e9put\u00e9. Le ministre de l'Agriculture et de l'Agroalimentaire. Programme 2.2\u00a0: Syst\u00e8me de gestion des risques li\u00e9s \u00e0 la salubrit\u00e9 et \u00e0 la bios\u00e9curit\u00e9 des aliments. Sous-programme 3.3.2\u00a0: D\u00e9veloppement des coop\u00e9ratives."
        },
        "language": {
            "en": "eng",
            "fr": "fra"
        },
        "keywords": {
            "en": "Japan.It;Clam;commodities.With one",
            "fr": null
        },
        "audience": {
            "en": "gcaudience",
            "fr": "gcaudience"
        },
        "type": {
            "en": "form",
            "fr": "fiche de renseignements"
        },
        "creator": {
            "en": "Agriculture and Agri-Food Canada;Government of Canada",
            "fr": "Agriculture et Agroalimentaire Canada;Gouvernement du Canada"
        },
        "spatial": {
            "en": "gcregions",
            "fr": "gcregions"
        },
        "service": {
            "en": "AAFC-AAC",
            "fr": "AAFC-AAC"
        },
        "accessRights": {
            "en": "2",
            "fr": "2"
        },
        "legalName": {
            "en": "agriculture_and_agri_food_canada",
            "fr": "agriculture_et_agroalimentaire_canada"
        },
        "areaServed": {
            "en": "Canada",
            "fr": "Canada"
        }
    },
    "h1": {
        "en": "Outline of opportunities in South Korea",
        "fr": "Aper\u00e7u des d\u00e9bouch\u00e9s en Cor\u00e9e du Sud"
    },
    "js": {
        "en": "",
        "fr": ""
    },
    "mode_html": "no_editor_full",
    "jsres_found": 1,
    "body": {
        "en": "\r\n    <div class=\"row\">\n<div class=\"col-md-3 pull-right hidden-print\">\n<div class=\"panel panel-default\">\n<div class=\"panel-body\">\n<p><img src=\"https://www.agr.gc.ca/resources/prod/Internet-Internet/MISB-DGSIM/ATS-SEA/images/Global-Analysis.jpg\" class=\"img-responsive\" alt=\"\"></p>\n<p><a href=\"#ratingform\"><span class=\"glyphicon glyphicon-comment mrgn-rght-sm\"></span>Feedback<span class=\"wb-inv\"> about this web site</span></a></p>\n<p class=\"wb-share\" data-wb-share='{\"pnlId\": \"pnl1\"}'></p>\n</div>\n</div> \n</div>\n\n<div class=\"mrgn-lft-md mrgn-rght-md\">\n\n<h2>An overview of one of the fastest-growing economies</h2>\n\n<p>South Korea is one of the fastest-growing economies in the world with a Can$2.16 trillion gross domestic product (GDP) in 2018 at a growth rate of 1% in quarter 4 of 2018. With a population of 51\u00a0million, South Korea is Canada's 6<sup>th</sup> largest merchandise trading partner (Can$5.9\u00a0billion in 2018) and our 3<sup>rd</sup> largest in Asia, after China and Japan. The Canada-Korea Free Trade Agreement (CKFTA) eliminates and reduces tariffs on Canadian exports to South Korea, including agri-food and seafood products, creating significant advantages for Canadian exporters to this important market.</p>\n\n<p>South Korea is a net importer of agri-food and seafood products from the world. In 2018, the South Korean agri-food and seafood trade deficit was Can$32.9\u00a0billion with imports valued at Can$43.1\u00a0billion, and Can$10.2\u00a0billion in exports. South Korea imported a wide variety of agri-food and seafood products with top imports being meats, fish and crustaceans, grains and oilseed products. The top 3 supplying countries are the United States, China, and Australia. Canada continues to be one of the main agri-food and seafood supplying countries (10<sup>th</sup> largest, Can$876.9\u00a0million in 2018) to South Korea which has grown by a compound annual growth rate (CAGR) of 7.6% for the past five years (2014-2018). Canada accounted for a 2% share of the global supplying market in agri-food and seafood.</p>\n</div>\n</div>\n\n<h2>Major sector opportunities in South Korea</h2>\n\n<div class=\"row mrgn-bttm-md\">\n<div class=\"col-md-2 text-center\"><a href=\"?id=1517324974373#beef\"><img src=\"https://www.agr.gc.ca/resources/prod/Internet-Internet/MISB-DGSIM/ATS-SEA/images/9618/beef_boeuf.jpg\" alt=\"\" class=\"img-responsive\">Beef products</a></div>\n<div class=\"col-md-2 text-center\"><a href=\"?id=1517324974373#beer\"><img src=\"https://www.agr.gc.ca/resources/prod/Internet-Internet/MISB-DGSIM/ATS-SEA/images/9618/beer_biere.jpg\" alt=\"\" class=\"img-responsive\">Beer from malt</a></div>\n<div class=\"col-md-2 text-center\"><a href=\"?id=1517324974373#berries\"><img src=\"https://www.agr.gc.ca/resources/prod/Internet-Internet/MISB-DGSIM/ATS-SEA/images/9618/berries_petitsfruits.jpg\" alt=\"\" class=\"img-responsive\">Berries</a></div>\n<div class=\"col-md-2 text-center\"><a href=\"?id=1517324974373#canola\"><img src=\"https://www.agr.gc.ca/resources/prod/Internet-Internet/MISB-DGSIM/ATS-SEA/images/9618/canolaseed_grainesdecanola.jpg\" alt=\"\" class=\"img-responsive\">Canola products</a></div>\n<div class=\"col-md-2 text-center\"><a href=\"?id=1517324974373#clam\"><img src=\"https://www.agr.gc.ca/resources/prod/Internet-Internet/MISB-DGSIM/ATS-SEA/images/9618/clams_palourdes.jpg\" alt=\"\" class=\"img-responsive\">Clam products</a></div>\n<div class=\"col-md-2 text-center\"><a href=\"?id=1517324974373#crab\"><img src=\"https://www.agr.gc.ca/resources/prod/Internet-Internet/MISB-DGSIM/ATS-SEA/images/9618/crab_crabe.jpg\" alt=\"\" class=\"img-responsive\">Crab products</a></div>\n</div>\n\n<div class=\"row mrgn-bttm-md\">\n<div class=\"col-md-2 text-center\"><a href=\"?id=1517324974373#petfood\"><img src=\"https://www.agr.gc.ca/resources/prod/Internet-Internet/MISB-DGSIM/ATS-SEA/images/9618/dogcatfood_alimentspourchiensouchats.jpg\" alt=\"\" class=\"img-responsive\">Dog or cat food</a></div>\n<div class=\"col-md-2 text-center\"><a href=\"?id=1517324974373#forage\"><img src=\"https://www.agr.gc.ca/resources/prod/Internet-Internet/MISB-DGSIM/ATS-SEA/images/9618/forage_culturesfourrageres.jpg\" alt=\"\" class=\"img-responsive\">Forage</a></div>\n<div class=\"col-md-2 text-center\"><a href=\"?id=1517324974373#fries\"><img src=\"https://www.agr.gc.ca/resources/prod/Internet-Internet/MISB-DGSIM/ATS-SEA/images/9618/fries_frites.jpg\" alt=\"\" class=\"img-responsive\">Frozen French fries</a></div>\n<div class=\"col-md-2 text-center\"><a href=\"?id=1517324974373#lobster\"><img src=\"https://www.agr.gc.ca/resources/prod/Internet-Internet/MISB-DGSIM/ATS-SEA/images/9618/lobster_homard.jpg\" alt=\"\" class=\"img-responsive\">Lobster products</a></div>\n<div class=\"col-md-2 text-center\"><a href=\"?id=1517324974373#malt\"><img src=\"https://www.agr.gc.ca/resources/prod/Internet-Internet/MISB-DGSIM/ATS-SEA/images/9618/malt.jpg\" alt=\"\" class=\"img-responsive\">Malt</a></div>\n<div class=\"col-md-2 text-center\"><a href=\"?id=1517324974373#maple\"><img src=\"https://www.agr.gc.ca/resources/prod/Internet-Internet/MISB-DGSIM/ATS-SEA/images/9618/maple_lerable.jpg\" alt=\"\" class=\"img-responsive\">Maple products</a></div>\n</div>\n\n<div class=\"row mrgn-bttm-md\">\n<div class=\"col-md-2 text-center\"><a href=\"?id=1517324974373#oats\"><img src=\"https://www.agr.gc.ca/resources/prod/Internet-Internet/MISB-DGSIM/ATS-SEA/images/9618/oats_avoine.jpg\" alt=\"\" class=\"img-responsive\">Oats</a></div>\n<div class=\"col-md-2 text-center\"><a href=\"?id=1517324974373#pork\"><img src=\"https://www.agr.gc.ca/resources/prod/Internet-Internet/MISB-DGSIM/ATS-SEA/images/9618/pork_porc.jpg\" alt=\"\" class=\"img-responsive\">Pork products</a></div>\n<div class=\"col-md-2 text-center\"><a href=\"?id=1517324974373#mink\"><img src=\"https://www.agr.gc.ca/resources/prod/Internet-Internet/MISB-DGSIM/ATS-SEA/images/9618/minkfur_pelleteriesdevisonbrutes.jpg\" alt=\"\" class=\"img-responsive\">Raw mink furskins</a></div>\n<div class=\"col-md-2 text-center\"><a href=\"?id=1517324974373#salmon\"><img src=\"https://www.agr.gc.ca/resources/prod/Internet-Internet/MISB-DGSIM/ATS-SEA/images/9618/salmon_saumon.jpg\" alt=\"\" class=\"img-responsive\">Salmon products</a></div>\n<div class=\"col-md-2 text-center\"><a href=\"?id=1517324974373#urchins\"><img src=\"https://www.agr.gc.ca/resources/prod/Internet-Internet/MISB-DGSIM/ATS-SEA/images/9618/seaurchins_oursinsverts.jpg\" alt=\"\" class=\"img-responsive\">Sea urchins</a></div>\n<div class=\"col-md-2 text-center\"><a href=\"?id=1517324974373#shrimp\"><img src=\"https://www.agr.gc.ca/resources/prod/Internet-Internet/MISB-DGSIM/ATS-SEA/images/9618/shrimp_crevettes.jpg\" alt=\"\" class=\"img-responsive\">Shrimp products</a></div>\n</div>\n\n<div class=\"row mrgn-bttm-md\">\n<div class=\"col-md-2 text-center\"><a href=\"?id=1517324974373#soybean\"><img src=\"https://www.agr.gc.ca/resources/prod/Internet-Internet/MISB-DGSIM/ATS-SEA/images/9618/soybeans_fevesdesoja.jpg\" alt=\"\" class=\"img-responsive\">Soybean and products</a></div>\n<div class=\"col-md-2 text-center\"><a href=\"?id=1517324974373#special\"><img src=\"https://www.agr.gc.ca/resources/prod/Internet-Internet/MISB-DGSIM/ATS-SEA/images/9618/specialcrops_culturesspeciales.jpg\" alt=\"\" class=\"img-responsive\">Special crops</a></div>\n<div class=\"col-md-2 text-center\"><a href=\"?id=1517324974373#wheat\"><img src=\"https://www.agr.gc.ca/resources/prod/Internet-Internet/MISB-DGSIM/ATS-SEA/images/9618/durumwheat_bledur.jpg\" alt=\"\" class=\"img-responsive\">Wheat</a></div>\n<div class=\"col-md-2 text-center\"><a href=\"?id=1517324974373#wine\"><img src=\"https://www.agr.gc.ca/resources/prod/Internet-Internet/MISB-DGSIM/ATS-SEA/images/9618/wine_vin.jpg\" alt=\"\" class=\"img-responsive\">Wine</a></div>\n</div>\n<p>Discover more information, strengths, opportunities and considerations for Canadian agri-food and seafood by reading our <a href=\"?id=1467728531275\">Asian agri-food market intelligence</a> reports.</p>\n\n<h3>How do we select priority sectors?</h3>\n\n<p>Priority sectors were selected through a quantitative analysis of the data available in the Global Trade Tracker database for 2019. The first phase was to identify the top 100 products, amongst all agri-food and seafood products, ruling out the products that Canada does not have a capacity to produce. Each product was evaluated based on a series of quantitative criteria (that is, size of market, market growth, Canada's trade intensity, and tariff reductions), all of which were ranked over 10 years of historical trade data. The top 100 products identified through this method represented 62% of South Korea's total imports from the world, and 93% of Canada's exports to South Korea in 2018.</p>\n\n<p>Our analysis focused on assessing opportunities from a strengths and challenges perspective:</p>\n\n<ol class=\"lst-spcd\">\n<li>Strengths were defined by high performance in large South Korean import sectors, and high growth. Other sectors of interest were those involving free trade agreements such as the Canada-Korea Free Trade Agreement (CKFTA). As of January 1, 2019, 70% of Canadian agriculture and agri-food exports are eligible to enter South Korea duty-free. That will grow to 99% by 2029.(Source: <a href=\"?id=1517591966114\">CKFTA for Agri-Food Exporters</a>)</li>\n<li>Challenges were defined by the issues that industry might face while trying to take advantage of market opportunities.</li>\n</ol>\n\n<p>In phase two, the products were further categorized into 22 super sectors and were assessed through a survey by Agriculture and Agri-Food Canada (AAFC) and 10 provincial experts. The experts assessed the opportunities and identified the challenges that may remain.</p>\n\n<p>All priority agri-food and seafood products are both imported by South Korea and within Canada's capacity to produce and supply internationally.</p>\n\n<h2>Growth through processing</h2>\n\n<p>While South Korea is one of Canada's top trading partners, the exports of processed food and beverages category is expanding quickly. As of 2018, Canada supplied Can$625.9\u00a0million in processed food and beverages to South Korea, at a compound annual growth rate (CAGR) of 15.1% since 2014. High growth products include pork products, canola oil, food preparations, and frozen lobsters.</p>\n\n<div class=\"alert alert-info\">\n<p>Processed foods and beverages represented 71.4% of all Canadian agri-food and seafood shipped to South Korea in 2018.</p>\n</div>\n\n<figure>\n<figcaption><b>Canada's processed food and beverages imported by South Korea 2018</b></figcaption>\n<img src=\"https://www.agr.gc.ca/resources/prod/Internet-Internet/MISB-DGSIM/ATS-SEA/images/9618/outline_opportunities_southkorea-eng.jpg\" alt=\"Description of this image follows.\" class=\"img-responsive\">\n  <details>\n    <summary>Description of above image</summary>\n    <table class=\"table table-bordered\">\n<tbody>\n<tr>\n<th scope=\"row\">Canola oil</th>\n<td class=\"text-right\">17.2%</td>\n</tr>\n<tr>\n<th scope=\"row\">Frozen bone-in  pork </th>\n<td class=\"text-right\">14.6%</td>\n</tr>\n<tr>\n<th scope=\"row\">Food preparations</th>\n<td class=\"text-right\">12.6%</td>\n</tr>\n<tr>\n<th scope=\"row\">Fresh or chilled bone-in pork </th>\n<td class=\"text-right\">10.0%</td>\n</tr>\n<tr>\n<th scope=\"row\">Frozen lobsters </th>\n<td class=\"text-right\">7.2%</td>\n</tr>\n<tr>\n<th scope=\"row\">Other</th>\n<td class=\"text-right\">38.5%</td>\n</tr>\n</tbody>\n</table>\n    </details>\n    <p><b>Source:</b> Global Trade Tracker, 2019</p>\n</figure>\n\n<p>While Canada has a significant advantage in the production of many high-quality commodities in the grains and oilseed sectors, as well as other areas such as pet food and live lobsters, opportunities exist for Canadian exports to grow to meet the changing needs and demands of South Korean consumers. For example, the growing number of consumers choosing to live alone, often in apartments in urban areas, has increased demand for a variety of products and services catering to single family homes. Similarly, opportunities exist for products ranging from smaller portions of packaged food catering to smaller, apartment-sized appliances. That said, Canada is one of many exporters to South Korea, and there is strong competition for key products including pork, beef, food preparations, and various oilseed products.</p>\n\n<div class=\"table-responsive\">\n<figure>\n<figcaption class=\"text-center\"><b>Canada's main competitors for South Korea's global imports in processed food and beverage category, their share and top 3 products in 2018</b></figcaption>\n<table class=\"table table-bordered\">\n<thead>\n<tr>\n<th scope=\"col\">Country</th>\n<th scope=\"col\" class=\"text-right\">Share of South Korea's imports from the world (%)</th>\n<th scope=\"col\">Top three processed food and beverages imported by South Korea (commodity share %)</th>\n</tr>\n</thead>\n<tbody>\n<tr>\n<td>United States</td>\n<td class=\"text-right\">25.9</td>\n<td>Food preparation (13), frozen bone-in beef cuts (9.1), frozen bone-in pork (8.4)</td>\n</tr>\n<tr>\n<td>China</td>\n<td class=\"text-right\">13.2</td>\n<td>Frozen fish, n.e.s* (9.1), frozen vegetables (7.0), vegetables and mixtures of vegetables, prepared or preserved (6.1)</td>\n</tr>\n<tr>\n<td>Australia</td>\n<td class=\"text-right\">8.9</td>\n<td>Frozen boneless beef (25.1), raw cane sugar in solid form (20.0), fresh or chilled boneless beef (15.5)</td>\n</tr>\n<tr>\n<td>Vietnam</td>\n<td class=\"text-right\">5.0</td>\n<td>Frozen shrimps and prawns (21), frozen octopus (16), prepared or preserved shrimps and prawns (11)</td>\n</tr>\n<tr>\n<td>Brazil</td>\n<td class=\"text-right\">4.1</td>\n<td>Oilcake (73.7), Frozen cuts and edible offal of fowls (21.9), frozen, coffee (0.9)</td>\n</tr>\n</tbody>\n<tfoot>\n<tr>\n<td colspan=\"3\"><p><b>Source:</b> Global Trade Tracker 2019</p>\n<p><b>*n.e.s.</b>: not elsewhere specified</p></td>\n</tr>\n</tfoot>\n</table>\n</figure>\n</div>\n\n<h2>Opportunities for Canada</h2>\n\n<p>The Canada-Korea Free Trade Agreement (CKFTA) provides new market access opportunities for Canadian exporters. The agreement recognizes the integrated nature of several industries in the North American economy, providing for rules of origin that will allow these products to benefit from preferential treatment in South Korea. This is important to allow Canada to continue competing with other countries exporting goods to South Korea, including the United States and the European Union, competitors that have benefited from lower tariffs since the implementation of the Korea-U.S. and Korea-EU free trade agreements (FTA).</p>\n\n<p>For more information, please visit <a href=\"?id=1517591966114\">CKFTA for Agri-Food Exporters</a>.</p>\n\n<h2>We can help you grow your business</h2>\n\n<p>We offer <b>free</b> international market intelligence services for Canadian agriculture and agri-food businesses, including:</p>\n\n<ul>\n<li>Identifying new and existing market, sector and product trends and opportunities abroad</li>\n<li>Providing economic, business and consumer trend forecasts</li>\n<li>Analyzing distribution channels, including international e-commerce platforms</li>\n<li>Customized analysis that meets your organization's unique needs</li>\n</ul>\n\n<p>Contact us for market intelligence services: <a href=\"mailto:aafc.mas-sam.aac@canada.ca?subject=International%20market%20intelligence%20services%20and%20analysis&amp;body=Please%20describe%20how%20we%20can%20help%20you%20with%20your%20international%20market%20intelligence%20needs.&amp;cc=aafc.infoservice.aac@canada.ca\">aafc.mas-sam.aac@canada.ca</a>.</p>\n\n<p>The complete library of Global Analysis reports can be accessed through the <a href=\"?id=1410083148447\">International agri-food market intelligence</a> page.</p>\n\n<h2>Market access</h2>\n\n<p>South Korea represents many business opportunities to Canadian companies but it also has strict import requirements for many food products and Canadian exporters are responsible for determining these import conditions by working with their South Korea importers.\u00a0It is also wise to consult your local Canadian Food Inspection Agency (CFIA) Office to obtain <a href=\"http://www.inspection.gc.ca/food/exporting-food/requirements-library/eng/1507329098491/1507329098850#aa\">export requirements information</a> or enquire any market access concerns before shipping your products to South Korea. Please refer to <a href=\"http://www.inspection.gc.ca/about-the-cfia/contact-the-cfia/contact-cfia-online/cfia-a-who-to-contact-list/eng/1447180428700/1447180461509#a3\">CFIA - A Who-to-Contact List</a>. The Market Access Secretariat (MAS) of Agriculture and Agri-Food Canada is also available to assist in providing export-related information and support. This service offers a single point of contact with the goal of helping the Canadian food industry and businesses treach international markets.</p>\n\n<p>If you have questions about exporting your agriculture or agri-food products, or are looking for support, please contact the Market Access Secretariat at <a href=\"mailto:aafc.mas-sam.aac@canada.ca\">aafc.mas-sam.aac@canada.ca</a>.</p>\n\n<h2>Related content</h2>\n\n<p>To find trade events, in-market Trade Commissioners, marketing tools and more to help you achieve your international business goals, see the <a href=\"?id=1432136045585\">Agri-Food Trade Services for Exporters</a> page.</p>\n\n\n\n<div class=\"mrgn-tp-lg mrgn-bttm-lg brdr-bttm\"></div>\n\n<div id=\"rating\"></div>\n<script src=\"/res/aafc-aac4/js/mac_feedback-eng.js\"></script>\n\r\n    ",
        "fr": "\r\n    <div class=\"row\">\n<div class=\"col-md-3 pull-right hidden-print\"> \n<div class=\"panel panel-default\">\n<div class=\"panel-body\">\n<p><img src=\"https://www.agr.gc.ca/resources/prod/Internet-Internet/MISB-DGSIM/ATS-SEA/images/Global-Analysis.jpg\" class=\"img-responsive\" alt=\"\"></p>\n<p><a href=\"#ratingform\"><span class=\"glyphicon glyphicon-comment mrgn-rght-sm\"></span>R\u00e9troaction<span class=\"wb-inv\"> sur ce site Web</span></a></p>\n<p class=\"wb-share\" data-wb-share='{\"pnlId\": \"pnl1\"}'></p>\n</div>\n</div> \n</div>\n\n<div class=\"mrgn-lft-md mrgn-rght-md\">\n\n<h2>Aper\u00e7u de l'une des \u00e9conomies qui connaissent la croissance la plus rapide au monde</h2>\n\n<p>L'\u00e9conomie de la Cor\u00e9e du Sud est l'une de celles qui connaissent la croissance la plus rapide de la plan\u00e8te, avec un produit int\u00e9rieur brut (PIB) de 2,16\u00a0billions de dollars canadiens en 2018 et un taux de croissance de 1\u00a0% au cours du quatri\u00e8me trimestre de la m\u00eame ann\u00e9e. Avec ses 51\u00a0millions d'habitants, la Cor\u00e9e du Sud est le 6<sup>e</sup>\u00a0partenaire du Canada en mati\u00e8re de commerce de marchandises (5, 9\u00a0G$\u00a0CA en\u00a02018) et notre troisi\u00e8me partenaire asiatique, derri\u00e8re la Chine et le Japon. L'Accord de libre-\u00e9change Canada-Cor\u00e9e (ALECC) r\u00e9duit ou supprime les barri\u00e8res tarifaires sur les exportations canadiennes \u00e0 destination de la Cor\u00e9e du Sud, y compris pour les produits agroalimentaires et les produits de la mer, accordant ainsi aux exportateurs canadiens un acc\u00e8s privil\u00e9gi\u00e9 \u00e0 ce march\u00e9 d'importance.</p>\n\n<p>La Cor\u00e9e du Sud est un importateur net de produits agroalimentaires et de produits de la mer. En\u00a02018, son d\u00e9ficit commercial pour ces derniers s'\u00e9levait \u00e0 32,9\u00a0milliards de dollars canadiens, avec des importations \u00e9valu\u00e9es \u00e0 43,1\u00a0milliards de dollars canadiens et des exportations \u00e0 10,2\u00a0milliards. La Cor\u00e9e du Sud a import\u00e9 une vaste gamme de produits agroalimentaires et de produits de la mer, et ses produits de choix \u00e9taient les viandes, les poissons et crustac\u00e9s ainsi que les c\u00e9r\u00e9ales et ol\u00e9agineux. Ses trois principaux fournisseurs sont les \u00c9tats-Unis, la Chine et l'Australie. Le Canada figure toujours parmi les fournisseurs majeurs de produits agroalimentaires et de la mer (10<sup>e</sup>\u00a0rang, 876,9\u00a0M$\u00a0CA en\u00a02018) du pays, qui s'est d\u00e9velopp\u00e9 \u00e0 un taux de croissance annuel compos\u00e9 (TCAC) de 7,6\u00a0% au cours des cinq derni\u00e8res ann\u00e9es (2014-2018). Le Canada occupait une part de 2\u00a0% du march\u00e9 mondial des exportations de produits agroalimentaires et de la mer.</p>\n</div>\n</div>\n\n<h2>Principaux d\u00e9bouch\u00e9s sectoriels en Cor\u00e9e du Sud</h2>\n\n<div class=\"row mrgn-bttm-md\">\n<div class=\"col-md-2 text-center\"><a href=\"?id=1517324974373#chiens\"><img src=\"https://www.agr.gc.ca/resources/prod/Internet-Internet/MISB-DGSIM/ATS-SEA/images/9618/dogcatfood_alimentspourchiensouchats.jpg\" alt=\"\" class=\"img-responsive\">Aliments pour chiens ou chats</a></div>\n<div class=\"col-md-2 text-center\"><a href=\"?id=1517324974373#avoine\"><img src=\"https://www.agr.gc.ca/resources/prod/Internet-Internet/MISB-DGSIM/ATS-SEA/images/9618/oats_avoine.jpg\" alt=\"\" class=\"img-responsive\">Avoine</a></div>\n<div class=\"col-md-2 text-center\"><a href=\"?id=1517324974373#biere\"><img src=\"https://www.agr.gc.ca/resources/prod/Internet-Internet/MISB-DGSIM/ATS-SEA/images/9618/beer_biere.jpg\" alt=\"\" class=\"img-responsive\">Bi\u00e8re de malt</a></div>\n<div class=\"col-md-2 text-center\"><a href=\"?id=1517324974373#ble\"><img src=\"https://www.agr.gc.ca/resources/prod/Internet-Internet/MISB-DGSIM/ATS-SEA/images/9618/durumwheat_bledur.jpg\" alt=\"\" class=\"img-responsive\">Bl\u00e9</a></div>\n<div class=\"col-md-2 text-center\"><a href=\"?id=1517324974373#cultures\"><img src=\"https://www.agr.gc.ca/resources/prod/Internet-Internet/MISB-DGSIM/ATS-SEA/images/9618/specialcrops_culturesspeciales.jpg\" alt=\"\" class=\"img-responsive\">Cultures sp\u00e9ciales</a></div>\n<div class=\"col-md-2 text-center\"><a href=\"?id=1517324974373#fourrage\"><img src=\"https://www.agr.gc.ca/resources/prod/Internet-Internet/MISB-DGSIM/ATS-SEA/images/9618/forage_culturesfourrageres.jpg\" alt=\"\" class=\"img-responsive\">Fourrage</a></div>\n</div>\n\n<div class=\"row mrgn-bttm-md\">\n<div class=\"col-md-2 text-center\"><a href=\"?id=1517324974373#frites\"><img src=\"https://www.agr.gc.ca/resources/prod/Internet-Internet/MISB-DGSIM/ATS-SEA/images/9618/fries_frites.jpg\" alt=\"\" class=\"img-responsive\">Frites surgel\u00e9es</a></div>\n<div class=\"col-md-2 text-center\"><a href=\"?id=1517324974373#malt\"><img src=\"https://www.agr.gc.ca/resources/prod/Internet-Internet/MISB-DGSIM/ATS-SEA/images/9618/malt.jpg\" alt=\"\" class=\"img-responsive\">Malt</a></div>\n<div class=\"col-md-2 text-center\"><a href=\"?id=1517324974373#oursins\"><img src=\"https://www.agr.gc.ca/resources/prod/Internet-Internet/MISB-DGSIM/ATS-SEA/images/9618/seaurchins_oursinsverts.jpg\" alt=\"\" class=\"img-responsive\">Oursins verts</a></div>\n<div class=\"col-md-2 text-center\"><a href=\"?id=1517324974373#vison\"><img src=\"https://www.agr.gc.ca/resources/prod/Internet-Internet/MISB-DGSIM/ATS-SEA/images/9618/minkfur_pelleteriesdevisonbrutes.jpg\" alt=\"\" class=\"img-responsive\">Pelleteries de vison brutes</a></div>\n<div class=\"col-md-2 text-center\"><a href=\"?id=1517324974373#fruits\"><img src=\"https://www.agr.gc.ca/resources/prod/Internet-Internet/MISB-DGSIM/ATS-SEA/images/9618/berries_petitsfruits.jpg\" alt=\"\" class=\"img-responsive\">Petits fruits</a></div>\n<div class=\"col-md-2 text-center\"><a href=\"?id=1517324974373#crevettes\"><img src=\"https://www.agr.gc.ca/resources/prod/Internet-Internet/MISB-DGSIM/ATS-SEA/images/9618/shrimp_crevettes.jpg\" alt=\"\" class=\"img-responsive\">Produits de crevettes</a></div>\n</div>\n\n<div class=\"row mrgn-bttm-md\">\n<div class=\"col-md-2 text-center\"><a href=\"?id=1517324974373#erable\"><img src=\"https://www.agr.gc.ca/resources/prod/Internet-Internet/MISB-DGSIM/ATS-SEA/images/9618/maple_lerable.jpg\" alt=\"\" class=\"img-responsive\">Produits de l'\u00e9rable</a></div>\n<div class=\"col-md-2 text-center\"><a href=\"?id=1517324974373#palourdes\"><img src=\"https://www.agr.gc.ca/resources/prod/Internet-Internet/MISB-DGSIM/ATS-SEA/images/9618/clams_palourdes.jpg\" alt=\"\" class=\"img-responsive\">Produits de palourdes</a></div>\n<div class=\"col-md-2 text-center\"><a href=\"?id=1517324974373#boeuf\"><img src=\"https://www.agr.gc.ca/resources/prod/Internet-Internet/MISB-DGSIM/ATS-SEA/images/9618/beef_boeuf.jpg\" alt=\"\" class=\"img-responsive\">Produits du b\u0153uf</a></div>\n<div class=\"col-md-2 text-center\"><a href=\"?id=1517324974373#canola\"><img src=\"https://www.agr.gc.ca/resources/prod/Internet-Internet/MISB-DGSIM/ATS-SEA/images/9618/canolaseed_grainesdecanola.jpg\" alt=\"\" class=\"img-responsive\">Produits du canola</a></div>\n<div class=\"col-md-2 text-center\"><a href=\"?id=1517324974373#crabe\"><img src=\"https://www.agr.gc.ca/resources/prod/Internet-Internet/MISB-DGSIM/ATS-SEA/images/9618/crab_crabe.jpg\" alt=\"\" class=\"img-responsive\">Produits du crabe</a></div>\n<div class=\"col-md-2 text-center\"><a href=\"?id=1517324974373#homard\"><img src=\"https://www.agr.gc.ca/resources/prod/Internet-Internet/MISB-DGSIM/ATS-SEA/images/9618/lobster_homard.jpg\" alt=\"\" class=\"img-responsive\">Produits du homard</a></div>\n</div>\n\n<div class=\"row mrgn-bttm-md\">\n<div class=\"col-md-2 text-center\"><a href=\"?id=1517324974373#porc\"><img src=\"https://www.agr.gc.ca/resources/prod/Internet-Internet/MISB-DGSIM/ATS-SEA/images/9618/pork_porc.jpg\" alt=\"\" class=\"img-responsive\">Produits du porc</a></div>\n<div class=\"col-md-2 text-center\"><a href=\"?id=1517324974373#saumon\"><img src=\"https://www.agr.gc.ca/resources/prod/Internet-Internet/MISB-DGSIM/ATS-SEA/images/9618/salmon_saumon.jpg\" alt=\"\" class=\"img-responsive\">Produits du saumon</a></div>\n<div class=\"col-md-2 text-center\"><a href=\"?id=1517324974373#soja\"><img src=\"https://www.agr.gc.ca/resources/prod/Internet-Internet/MISB-DGSIM/ATS-SEA/images/9618/soybeans_fevesdesoja.jpg\" alt=\"\" class=\"img-responsive\">Soja et produits connexes</a></div>\n<div class=\"col-md-2 text-center\"><a href=\"?id=1517324974373#vin\"><img src=\"https://www.agr.gc.ca/resources/prod/Internet-Internet/MISB-DGSIM/ATS-SEA/images/9618/wine_vin.jpg\" alt=\"\" class=\"img-responsive\">Vin</a></div>\n</div>\n\n<p>Pour en apprendre davantage, notamment sur les forces, les d\u00e9bouch\u00e9s et d'autres consid\u00e9rations relatives aux produits agroalimentaires et de la mer canadiens, consultez la page sur les <a href=\"?id=1467728531275\">march\u00e9s agricoles et alimentaires d'Asie</a>.</p>\n\n<h3>Comment s\u00e9lectionnons-nous les secteurs prioritaires?</h3>\n\n<p>Les secteurs ont \u00e9t\u00e9 s\u00e9lectionn\u00e9s au moyen d'une analyse quantitative des donn\u00e9es disponibles dans la base de donn\u00e9es Global Trade Tracker pour 2019. La premi\u00e8re \u00e9tape consistait \u00e0 cerner les 100\u00a0produits pr\u00e9dominants parmi l'ensemble des produits agroalimentaires et de la mer, en excluant ceux que le Canada n'a pas la capacit\u00e9 de produire. Chaque produit a \u00e9t\u00e9 \u00e9valu\u00e9 en fonction d'une s\u00e9rie de crit\u00e8res quantitatifs\u00a0(c'est-\u00e0-dire la taille du march\u00e9, la croissance du march\u00e9, l'intensit\u00e9 des \u00e9changes commerciaux du Canada et les r\u00e9ductions tarifaires), qui ont tous \u00e9t\u00e9 class\u00e9s sur une p\u00e9riode de 10\u00a0ans d'apr\u00e8s des donn\u00e9es commerciales historiques. Les 100\u00a0produits retenus par cette m\u00e9thode repr\u00e9sentaient, en 2018, 62\u00a0%\u00a0des importations totales de la Cor\u00e9e du Sud et 93\u00a0%\u00a0des exportations canadiennes vers ce pays.</p>\n<p>L'analyse a mis l'accent sur l'\u00e9valuation des possibilit\u00e9s dans une perspective de forces et de d\u00e9fis\u00a0:</p>\n\n<ol class=\"lst-spcd\">\n<li>Les forces ont \u00e9t\u00e9 d\u00e9finies par un rendement \u00e9lev\u00e9 dans les grands secteurs d'importation de la Cor\u00e9e du Sud, ainsi qu'une forte croissance. Les autres secteurs d'int\u00e9r\u00eat \u00e9taient ceux vis\u00e9s par des accords de libre-\u00e9change comme l'ALECC. Depuis le 1<sup>er</sup>\u00a0janvier\u00a02019, 70\u00a0%\u00a0des exportations canadiennes de produits agricoles et agroalimentaires \u00e0 destination de la Cor\u00e9e du Sud sont exemptes de droits. Cette proportion grimpera \u00e0 99\u00a0% d'ici\u00a02029 (Source\u00a0: <a href=\"?id=1517591966114\">L'ALECC pour les exportateurs de produits agroalimentaires</a>).</li>\n<li>Les d\u00e9fis ont \u00e9t\u00e9 d\u00e9finis par les difficult\u00e9s auxquelles l'industrie pourrait se heurter alors m\u00eame qu'elle tente de tirer avantage des possibilit\u00e9s offertes par le march\u00e9.</li>\n</ol>\n\n<p>Au cours de la deuxi\u00e8me \u00e9tape, les produits ont \u00e9t\u00e9 r\u00e9partis en 22\u00a0grands secteurs, avant</p>\n\n<p>d'\u00eatre \u00e9valu\u00e9s \u00e0 l'aide d'un sondage men\u00e9 par Agriculture et Agroalimentaire Canada\u00a0(AAC)\u00a0et dix experts provinciaux. Les experts ont \u00e9tudi\u00e9 les d\u00e9bouch\u00e9s et d\u00e9termin\u00e9 les d\u00e9fis qu'il reste toujours \u00e0 relever.</p>\n\n<p>Tous les produits agroalimentaires et de la mer qui se sont r\u00e9v\u00e9l\u00e9s prioritaires sont import\u00e9s par la Cor\u00e9e du Sud et font partie des produits que le Canada peut produire et offrir \u00e0 l'\u00e9chelle internationale.</p>\n\n<h2>La croissance au moyen de la transformation</h2>\n\n<p>Comme la Cor\u00e9e du Sud est un partenaire commercial de premier plan du Canada, les exportations tombant dans la cat\u00e9gorie des aliments et boissons transform\u00e9s progressent rapidement. En date de\u00a02018, la valeur des aliments et boissons transform\u00e9s fournis par le Canada \u00e0 la Cor\u00e9e du Sud s'\u00e9levait \u00e0 625,9\u00a0millions de dollars canadiens, avec un TCAC de 15,1\u00a0% depuis\u00a02014. Les secteurs ayant connu la plus forte croissance sont notamment ceux des produits du porc, de l'huile de canola, des pr\u00e9parations alimentaires et des homards congel\u00e9s.</p>\n\n<div class=\"alert alert-info\">\n<p>En\u00a02018, les aliments et boissons transform\u00e9s repr\u00e9sentaient 71,4\u00a0% de l'ensemble des produits agroalimentaires et de la mer canadiens achemin\u00e9s en Cor\u00e9e du Sud.</p>\n</div>\n\n<figure>\n<figcaption><b>Aliments et boissons transform\u00e9s canadiens import\u00e9s par la Cor\u00e9e du Sud en 2018</b></figcaption>\n<img src=\"https://www.agr.gc.ca/resources/prod/Internet-Internet/MISB-DGSIM/ATS-SEA/images/9618/outline_opportunities_southkorea-fra.jpg\" alt=\"La description de cette image suit.\" class=\"img-responsive\">\n    <details>\n    <summary>Description de l'image ci-dessus</summary>\n    <table class=\"table table-bordered\">\n<tbody>\n<tr>\n<th scope=\"row\">Huile de canola</th>\n<td class=\"text-right\">17,2\u00a0%</td>\n</tr>\n<tr>\n<th scope=\"row\">Porc congel\u00e9 non d\u00e9soss\u00e9</th>\n<td class=\"text-right\">14,6\u00a0%</td>\n</tr>\n<tr>\n<th scope=\"row\">Pr\u00e9parations alimentaires</th>\n<td class=\"text-right\">12,6\u00a0%</td>\n</tr>\n<tr>\n<th scope=\"row\">Porc non d\u00e9soss\u00e9 frais ou r\u00e9frig\u00e9r\u00e9</th>\n<td class=\"text-right\">10,0\u00a0%</td>\n</tr>\n<tr>\n<th scope=\"row\">Homards congel\u00e9s </th>\n<td class=\"text-right\">7,2\u00a0%</td>\n</tr>\n<tr>\n<th scope=\"row\">Autres</th>\n<td class=\"text-right\">38,5\u00a0%</td>\n</tr>\n</tbody>\n</table>\n    </details>\n    <p><b>Source\u00a0:</b> Global Trade Tracker, 2019</p>\n</figure>\n\n<p>M\u00eame si le Canada dispose d'un avantage certain dans la production de plusieurs denr\u00e9es de haute qualit\u00e9 du secteur des c\u00e9r\u00e9ales et ol\u00e9agineux, de m\u00eame que d'autres fili\u00e8res tels les aliments pour animaux de compagnie et le homard vivant, les besoins changeants des consommateurs sud-cor\u00e9ens offrent aux exportateurs canadiens une r\u00e9elle occasion d'accro\u00eetre leurs activit\u00e9s. Par exemple, en raison du nombre grandissant de consommateurs choisissant de vivre seuls, souvent dans des appartements en zone urbaine, la demande de produits et services vari\u00e9s adapt\u00e9s aux besoins des m\u00e9nages constitu\u00e9s d'une seule personne s'est accrue. De la m\u00eame fa\u00e7on, les aliments emball\u00e9s en petites portions, qui conviennent bien aux \u00e9lectrom\u00e9nagers de taille r\u00e9duite qu'on retrouve dans les appartements, offrent eux aussi des d\u00e9bouch\u00e9s potentiels. Cela dit, le Canada se classe parmi de nombreux autres exportateurs et la concurrence sur le march\u00e9 sud-cor\u00e9en est f\u00e9roce en ce qui concerne les produits dominants comme le porc, le b\u0153uf, les pr\u00e9parations alimentaires ainsi que divers produits ol\u00e9agineux.</p>\n\n<div class=\"table-responsive\">\n<figure>\n<figcaption class=\"text-center\"><b>Portrait des principaux concurrents du Canada pour l'exportation d'aliments et de boissons transform\u00e9s vers la Cor\u00e9e du Sud en 2018</b></figcaption>\n<table class=\"table table-bordered\">\n<thead>\n<tr>\n<th scope=\"col\">Pays</th>\n<th scope=\"col\" class=\"text-right\">Part occup\u00e9e dans les importations mondiales de la Cor\u00e9e du Sud (%)</th>\n<th scope=\"col\">Trois principaux aliments et boissons transform\u00e9s import\u00e9s par la Cor\u00e9e du Sud (% pour cette marchandise)</th>\n</tr>\n</thead>\n<tbody>\n<tr>\n<td>\u00c9tats-Unis</td>\n<td class=\"text-right\">25,9</td>\n<td>Pr\u00e9parations alimentaires (13), d\u00e9coupes de b\u0153uf congel\u00e9es non d\u00e9soss\u00e9es (9,1), porc congel\u00e9 non d\u00e9soss\u00e9 (8,4)</td>\n</tr>\n<tr>\n<td>Chine</td>\n<td class=\"text-right\">13,2</td>\n<td>Poisson congel\u00e9, N.M.A*\u00a0(9,1), l\u00e9gumes surgel\u00e9s (7,0), l\u00e9gumes et m\u00e9langes de l\u00e9gumes, pr\u00e9par\u00e9s ou en conserve (6,1)</td>\n</tr>\n<tr>\n<td>Australie</td>\n<td class=\"text-right\">8,9</td>\n<td>B\u0153uf congel\u00e9 d\u00e9soss\u00e9 (25,1), sucre de canne brut sous forme solide (20,0), b\u0153uf d\u00e9soss\u00e9 frais ou r\u00e9frig\u00e9r\u00e9 (15,5)</td>\n</tr>\n<tr>\n<td>Vietnam</td>\n<td class=\"text-right\">5,0</td>\n<td>Crevettes congel\u00e9es\u00a0(21), pieuvre congel\u00e9e\u00a0(16), crevettes pr\u00e9par\u00e9es ou en conserve (11)</td>\n</tr>\n<tr>\n<td>Br\u00e9sil</td>\n<td class=\"text-right\">4,1</td>\n<td>Tourteaux\u00a0(73,7), D\u00e9coupes congel\u00e9es et abats de volaille comestibles (21,9), caf\u00e9 congel\u00e9\u00a0(0,9)</td>\n</tr>\n</tbody>\n<tfoot>\n<tr>\n<td colspan=\"3\"><p><b>Source\u00a0:</b> Global Trade Tracker, 2019</p>\n<p><b>*N.M.A.</b>\u00a0: non mentionn\u00e9 ailleurs</p></td>\n</tr>\n</tfoot>\n</table>\n</figure>\n</div>\n\n<h2>Possibilit\u00e9s pour le Canada</h2>\n\n<p>L'Accord de libre-\u00e9change Canada-Cor\u00e9e (ALECC) offre aux exportateurs canadiens de nouvelles perspectives d'acc\u00e8s aux march\u00e9s. L'Accord reconna\u00eet l'int\u00e9gration de plusieurs industries au sein de l'\u00e9conomie nord-am\u00e9ricaine et pr\u00e9voit des r\u00e8gles d'origine qui permettront aux produits mentionn\u00e9s ci-apr\u00e8s de profiter d'un traitement pr\u00e9f\u00e9rentiel en Cor\u00e9e du Sud. De telles r\u00e8gles sont importantes, car elles permettent au Canada de rester concurrentiel face aux autres pays exportateurs de biens en Cor\u00e9e du Sud, y compris les \u00c9tats-Unis et l'Union europ\u00e9enne, qui b\u00e9n\u00e9ficient de droits de douane r\u00e9duits depuis la mise en\u00a0\u0153uvre des accords de libre-\u00e9change Cor\u00e9e-\u00c9.-U. et Cor\u00e9e-UE.</p>\n\n<p>Plus plus de renseignements, consultez l'<a href=\"?id=1517591966114\">ALECC pour les exportateurs de produits agroalimentaires</a>.</p>\n\n<h2>Nous pouvons vous aider \u00e0 faire cro\u00eetre votre entreprise</h2>\n\n<p>Nous offrons aux entreprises canadiennes du secteur de l'agriculture et de l'agroalimentaire des services d'information <b>gratuits</b> sur les march\u00e9s internationaux, qui comprennent\u00a0:</p>\n\n<ul>\n<li>la d\u00e9termination des tendances et possibilit\u00e9s nouvelles et existantes au sujet des diff\u00e9rents march\u00e9s, secteurs et produits \u00e0 l'\u00e9tranger.</li>\n<li>l'\u00e9tablissement de pr\u00e9visions concernant les tendances \u00e9conomiques, commerciales et de consommation.</li>\n<li>une analyse des r\u00e9seaux de distribution, notamment des plateformes internationales de commerce en ligne.</li>\n<li>une analyse personnalis\u00e9e r\u00e9pondant aux besoins uniques de votre entreprise.</li>\n</ul>\n\n<p>Communiquez avec nous pour obtenir des services d'information sur les march\u00e9s\u00a0: <a href=\"mailto:aafc.mas-sam.aac@canada.ca?subject=Services%20et%20analyse%20de%20renseignements%20sur%20les%20march%C3%A9s%20internationaux&amp;body=Veuillez%20nous%20expliquer%20comment%20nous%20pouvons%20r%C3%A9pondre%20%C3%A2%20vos%20besoins%20en%20renseignements%20sur%20les%20march%C3%A9s%20internationaux.&amp;cc=aafc.infoservice.aac@canada.ca\">aafc.mas-sam.aac@canada.ca</a></p>\n\n<p>L'ensemble des rapports d'analyse sur les march\u00e9s mondiaux sont accessibles sur la page <a href=\"?id=1410083148447\">Renseignements sur les march\u00e9s internationaux de l'agroalimentaire</a>.</p>\n\n<h2>Acc\u00e8s aux march\u00e9s</h2>\n\n<p>La Cor\u00e9e du Sud offre plusieurs d\u00e9bouch\u00e9s commerciaux aux entreprises canadiennes, mais des exigences strictes y encadrent l'importation de nombreux produits alimentaires. Les exportateurs canadiens sont charg\u00e9s de d\u00e9terminer, en collaboration avec les importateurs sud-cor\u00e9ens, les conditions d'importation qui s'appliquent \u00e0 leurs produits. Il serait avis\u00e9 de communiquer avec le bureau local de l'Agence canadienne d'inspection des aliments (ACIA) de votre r\u00e9gion pour obtenir les <a href=\"http://www.inspection.gc.ca/aliments/exportations-d-aliments/bibliotheque-des-exigences/fra/1507329098491/1507329098850\">exigences en mati\u00e8re d'exportation</a> ou pour vous renseigner sur les difficult\u00e9s d'acc\u00e8s au march\u00e9 sud-cor\u00e9en avant d'y exp\u00e9dier vos produits. Vous pouvez \u00e9galement consulter <a href=\"http://www.inspection.gc.ca/au-sujet-de-l-acia/contactez-l-acia/contactez-l-acia/liste-de-personnes-ressources-a-joindre-a-l-acia/fra/1447180428700/1447180461509\">la liste de personnes-ressources \u00e0 joindre \u00e0 l'ACIA</a>. Le Secr\u00e9tariat de l'acc\u00e8s aux march\u00e9s\u00a0(SAM) d'Agriculture et Agroalimentaire Canada offre lui aussi des renseignements et du soutien en mati\u00e8re d'exportation. Ce service constitue un guichet unique dont le but est d'aider l'industrie alimentaire et les entreprises canadiennes \u00e0 acc\u00e9der aux march\u00e9s internationaux.</p>\n\n<p>Si vous avez des questions concernant l'exportation de vos produits agricoles ou agroalimentaires, ou pour obtenir de l'aide, communiquez avec le SAM au <a href=\"mailto:aafc.mas-sam.aac@canada.ca\">aafc.mas-sam.aac@canada.ca</a>.</p>\n\n<h2>Contenu connexe</h2>\n\n<p>Pour trouver des salons professionnels, des d\u00e9l\u00e9gu\u00e9s commerciaux sur les march\u00e9s, des outils de marketing et davantage de renseignements pouvant vous aider \u00e0 atteindre vos vis\u00e9es commerciales \u00e0 l'international, consultez la page sur les <a href=\"?id=1432136045585\">services aux exportateurs de produits agroalimentaires</a>.</p>\n\n<div class=\"mrgn-tp-lg mrgn-bttm-lg brdr-bttm\"></div>\n\n<div id=\"rating\"></div>\n<script src=\"/res/aafc-aac4/js/mac_feedback-fra.js\"></script>\n\r\n    "
    }
}