{
    "dcr_id": "1518023242064",
    "title": {
        "en": "AgriAssurance Program: Small and Medium-sized Enterprise Component - Annex A: How to complete the application form ",
        "fr": "Programme Agri-assurance : Volet Petites et moyennes entreprises : Annexe A :  Comment remplir le formulaire de demande"
    },
    "modified": "2021-03-17",
    "issued": "2018-02-13",
    "templatetype": "content page 1 column",
    "page_type": "0",
    "node_id": "1517924361492",
    "dc_date_created": "2018-02-13",
    "managing_branch": "PAB",
    "parent_node_id": "",
    "short_title": "Small and Medium-sized Enterprise Component - Annex A",
    "exturl": "",
    "teamsite_location": {
        "en": "/default/main/AAFC-AAC/Internet-Internet/Group-Ensemble/ProgServ-ProgServ/WORKAREA/ProgServ-ProgServ/templatedata/comm-comm/gene-gene/data/02/agriassurance_smec_5_1_1518023242064_en",
        "fr": "/default/main/AAFC-AAC/Internet-Internet/Group-Ensemble/ProgServ-ProgServ/WORKAREA/ProgServ-ProgServ/templatedata/comm-comm/gene-gene/data/02/agriassurance_smec_5_1_1518023242064_fr"
    },
    "type_name": "comm-comm/gene-gene",
    "has_dcr_id": true,
    "label": {
        "en": "Small and Medium-sized Enterprise Component - Annex A",
        "fr": "Annexe A"
    },
    "breadcrumb": {
        "en": "Small and Medium-sized Enterprise Component - Annex A",
        "fr": "Annexe A"
    },
    "layout_name": "content page 1 column",
    "lang": "en",
    "refaire": false,
    "meta": {
        "viewport": {
            "en": "width=device-width,initial-scale=1",
            "fr": "width=device-width, initial-scale=1"
        },
        "issued": {
            "en": "2018-02-13",
            "fr": "2018-02-13"
        },
        "modified": {
            "en": "2021-03-17",
            "fr": "2021-03-17"
        },
        "format": {
            "en": "text/html",
            "fr": "text/html"
        },
        "title": {
            "en": "AgriAssurance Program: Small and Medium-sized Enterprise Component - Annex A: How to complete the application form ",
            "fr": "Programme Agri-assurance : Volet Petites et moyennes entreprises : Annexe A :  Comment remplir le formulaire de demande"
        },
        "subject": {
            "en": "strategic environmental assessment;waste management;soil assessement",
            "fr": "pommes de terre-producteurs;cultures des c\u00e9r\u00e9ales;revenus agricoles"
        },
        "dcterms:subject": {
            "en": "architectural heritage;architecture;government information",
            "fr": "m\u00e9dicament;science \u00e9conomique;\u00e9conomie agricole"
        },
        "description": {
            "en": "Annex A: How to apply. General information. M\u00e9tis. Inuit. or, Indigenous communities and governments such as:band and tribal councils. Provide a concise summary of your project.How would you briefly describe your project to a friend or colleague, or on social media?Please note that if your project is chosen for funding, this summary may be published on Government of Canada websites.Project purpose.",
            "fr": "Annexe A : Comment pr\u00e9senter une demande. inscrites en tant qu'Indiens ou Indiennes au titre de la. Le cas \u00e9ch\u00e9ant, citez le ou les programmes dans le cadre desquels vous avez obtenu des fonds.Capacit\u00e9 \u00e0 r\u00e9aliser le projet."
        },
        "language": {
            "en": "eng",
            "fr": "fra"
        },
        "keywords": {
            "en": "assessment.Indigenous;applicable.If",
            "fr": "dernier.Si;budget.Capacit\u00e9"
        },
        "audience": {
            "en": "gcaudience",
            "fr": "gcaudience"
        },
        "type": {
            "en": "consultations",
            "fr": "pr\u00e9sentation"
        },
        "creator": {
            "en": "Agriculture and Agri-Food Canada;Government of Canada",
            "fr": "Agriculture et Agroalimentaire Canada;Gouvernement du Canada"
        },
        "spatial": {
            "en": "gcregions",
            "fr": "gcregions"
        },
        "service": {
            "en": "AAFC-AAC",
            "fr": "AAFC-AAC"
        },
        "accessRights": {
            "en": "2",
            "fr": "2"
        },
        "legalName": {
            "en": "agriculture_and_agri_food_canada",
            "fr": "agriculture_et_agroalimentaire_canada"
        },
        "areaServed": {
            "en": "Canada",
            "fr": "Canada"
        }
    },
    "h1": {
        "en": "AgriAssurance Program: Small and Medium-sized Enterprise Component - Annex A: How to complete the application form",
        "fr": "Programme Agri-assurance : Volet Petites et moyennes entreprises : Annexe A : Comment remplir le formulaire de demande"
    },
    "js": {
        "en": "",
        "fr": ""
    },
    "body": {
        "en": "\r\n    <p><a href=\"#alt\">Alternative formats</a></p>\n\n<h2>Table of contents</h2>\n\n<ul class=\"list-unstyled\">\n <li><a href=\"#a\">General Information</a></li>\n <li><a href=\"#b\">Applicant Information</a>\t\n  <ul>\n   <li><a href=\"#b1\">Organizational Capacity</a></li>\n  </ul>\n </li>\n <li><a href=\"#c\">Project Information</a>\n  <ul>\t\n   <li><a href=\"#c1\">Project Data Collection</a></li>\n  </ul>\n </li>\n <li><a href=\"#d\">Work Plan</a></li>\n <li><a href=\"#e\">Project Costs</a>\n  <ul>\t\n   <li><a href=\"#e1\">Eligible Cost Items</a></li>\n   <li><a href=\"#e2\">Sources of Funding</a></li>\n  </ul>\n </li>\n <li><a href=\"#f\">Budget Summary</a></li>\n <li><a href=\"#g\">Declarations</a></li>\n <li><a href=\"#h\">Additional Documents</a></li>\n <li><a href=\"#i\">Submit</a></li>\n</ul>\n\n<section class=\"alert alert-info\">\n<h2 id=\"a\">General information</h2>\n\n<p>Begin by assessing that your organization and activities meet the eligibility criteria detailed in <a href=\"?id=1517867394365#a1.2\">section 1.2 of the AgriAssurance Program: Small and Medium-sized Enterprise component Applicant Guide</a> and <a href=\"?id=1517867394365#a1.4\">section 1.4 of the AgriAssurance Program: Small and Medium-sized Enterprise component Applicant Guide</a>.</p>\n\n<ol class=\"lst-spcd\">\n<li>Complete the project application form by downloading and saving the form to your computer. </li>\n\n<li>Use the step-by-step instructions below to help you complete your    application form, including the project work plan and budget.</li>\n\n<li>See the <a href=\"#h\">Additional Documents</a> section for a list of all additional required documents to ensure you have all the documentation needed to complete your application package.</li>\n\n<li>Attach the documents to your form and submit.</li>\n</ol>\n\n<p>If you experience any trouble submitting your application, or if you prefer to apply by mail or email, please contact us by telephone at 1-877-246-4682.</p> \n</section>\n\n<h2 id=\"b\">Applicant information</h2>\n\n<p>Agriculture and Agri-Food Canada (AAFC) will use the  information you provide in this section to establish your organization's  identity.</p>\n\n<p><b>Organization type</b></p>\n\n <p>See <a href=\"?id=1517867394365#a1.2\">section 1.2 of the AgriAssurance Program: Small and Medium-sized Enterprise component Applicant Guide</a> to determine if you are eligible to apply under this program.</p>\n \n <p><b>Legal name</b></p>\n \n<p>Your organization\u2019s legal name, as it    appears in legal documents such as articles of incorporation, certificate of    incorporation, etc.</p> \n\n<p><b>Operating as (if used)</b></p>\n\n<p>Enter the name under which your    organization operates, if that name is different from its Legal Name.</p>\n\n<p><b>Canada Revenue Agency (CRA) business number</b></p>\n\n<p>A CRA business    number is a nine-digit\u00a0number that gives each registered business its    own unique identifier. For more information on    obtaining a CRA business number, visit the <a href=\"https://www.canada.ca/en/services/taxes/business-number.html\">CRA    business number web page</a>.</p>\n\n<p>If you do not have a CRA Business Number, or do not wish to share it at this time, enter nine zero\u2019s (i.e. 000000000).</p>\n\n<p><b>Primary contact</b></p>\n \n<p>Enter the contact information of the    person in your organization who is responsible for responding to inquiries regarding this application.</p>\n\n<p><b>Project contact</b></p>\n \n<p>If your project is approved for funding,    this is the person who will be liaising with AAFC during the project. This    person can be the same as the Primary Contact.</p>\n\n<p><b>Mailing address</b></p>\n\n<p>Provide the complete address of your organization's headquarters.</p>\n\n<p><b>Primary project location</b></p>\n\n<p>The location where the project will take place other than your organizations headquarter, if applicable.</p>\n\n<p>If you have multiple project locations,    the primary location is the one with activities associated to the largest    portion of the budget.</p>\n\n\n<h3 id=\"b1\">Organizational capacity</h3>\n\n<p>AAFC will use the information you provide    in this section to understand more about your organization and to assess your    ability to carry out this project.</p>\n\n<p><b>How many employees work for your    organization?</b></p>\n\n<p>Include the number of all full-time and    part-time employees on your organization\u2019s payroll. Do not include    contractors.</p>\n\n<p><b>Describe your organization</b></p>\n\n<p>Provide your organization\u2019s mandate and    priorities. Include a brief history of the organization including any    significant changes in the past two years (e.g. a significant    increase/decrease of staff, changes to executive leadership, including the    Board of Directors, and a change in mandate).</p>\n\n<p>Does the mandate of your organization    focus on any of the following groups?</p>\n\n <p>This    question is for statistical purposes only, and will not affect the outcome of    your assessment.  </p>\n      \n  \n<table class=\"table table-bordered\">\n  <tr>\n <th scope=\"row\">Indigenous</th>\n <td><p>Individuals who are:</p>\n   <ul>\n  <li>registered on a band list</li>\n  <li>registered as an Indian  under the <cite>Indian Act</cite> living both on or off reserves</li>\n  <li>M\u00e9tis</li>\n  <li>Inuit</li>\n   </ul>\n \n <p>or, Indigenous communities and governments such as: </p>\n   <ul>\n  <li>band and tribal councils </li>\n  <li>governments of self-governing First Nations</li>\n  <li>local governments of Inuit communities</li>\n  <li>M\u00e9tis organizations</li>\n   </ul></td>\n  </tr>\n  <tr>\n <th scope=\"row\">Persons with disabilities</th>\n <td><p>The <cite>Employment Equity Act</cite> defines persons with disabilities as persons who have a long-term or recurring physical, mental, sensory, psychiatric or learning impairment and who:</p>\n \n <ol class=\"list-lwr-alph\">\n   <li>consider themselves to be disadvantaged in employment by reason of that impairment, or</li>\n   <li>believe that an employer or potential employer is likely to consider them to be disadvantaged in employment by reason of that impairment</li>\n   </ol>\n   \n <p>Includes persons whose functional limitations owing to their impairment have been accommodated in their current job or workplace</p></td>\n  </tr>\n  <tr>\n <th scope=\"row\">Visible minorities</th>\n <td><p>The <cite>Employment Equity Act</cite> defines visible minorities as persons, other than Aboriginal peoples, who are non-Caucasian in race or non-white in colour</p></td>\n  </tr>\n<tr>\n <th scope=\"row\">Women</th>\n <td><p>Individuals who are born female or who identify as female</p></td>\n  </tr>\n  <tr>\n <th scope=\"row\">Youth</th>\n <td><p>Individuals aged 30 and under</p></td>\n  </tr>\n  <tr>\n <th scope=\"row\">Not applicable</th>\n <td><p>Use this section if the mandate of your organization does not focus on any of the above-listed groups</p></td>\n  </tr>\n  <tr>\n <th scope=\"row\">Decline to identify</th>\n <td><p>Use this section if the mandate of your organization might focus on one of the above groups, but you don't want to disclose that information at the time of your application</p></td>\n  </tr>\n</table>\n\n\n <p><b>Previous funding</b></p>\n<p>Please    identify if you or your organization has previously received funding from    AAFC. If yes, list the program(s) from which you have received funding.</p>\n\n<p>Capacity to deliver this project</p>\n\n<p>In your    answer, consider addressing the following:</p>\n      <ul>\n<li>Has your organization managed other projects on a similar scale to    this proposed project/application?</li>\n<li>If applicable, briefly describe the past projects and their    results. </li>\n<li>What resources do you have to ensure this proposed project will be successful (e.g., human resources, financial management practices)?</li>\n      </ul>\n\n\n\n\n<h2 id=\"c\">Project information</h2>\n\n<p>AAFC will use the information in this  section, in association with your project work plan and budget to do a full  assessment of your project.</p>\n\n\n<p><strong>Project title</strong></p>\n \n<p>Provide a short, descriptive project title that accurately reflects the activities and results of the project. </p> \n\n <p><b>Project objective</b></p>\n \n      <p>Provide a concise summary of your    project. </p>\n      <p>How would you briefly describe your    project to a friend or colleague, or on social media?</p>\n      <p>Please note that if your project is    chosen for funding, this summary may be published on Government of Canada    websites.</p>\n      \n\n<p><b>Project purpose</b></p>\n\n<p>Your answer to this question should:</p>\n\n<ul>\n <li>explain how the project will fill a market gap or an industry need</li>\n<li>indicate how the certification will allow you to take advantage of the specific market opportunities that you have identified</li>\n\n<li>describe how this project aligns with the Eligible Activities listed in <a href=\"?id=1517867394365#a1.4\">section 1.4 of the Applicant Guide</a></li>\n<li>describe how you plan to achieve the objectives of this project</li>\n      </ul>\n     \n     \n <p><b>Environmental considerations</b></p>\n \n <ol class=\"lst-spcd lst-upr-alph\">\n  <li><strong>Is your project on federal land?</strong> \n    \n      <p>All projects must comply with the <cite>Canadian Environmental Assessment Act 2012</cite>  (CEAA 2012). To help us determine if the CEAA 2012 applies to your    project, indicate whether the project is on federal land.  Under CEAA 2012, federal land means:</p>\n      <ol class=\"lst-lwr-alph\">\n<li>lands that belong to Her Majesty in right of Canada, or that Her Majesty in right of Canada has the power to dispose of, and all waters on and airspace above those lands, other than lands under the administration and control of the Commissioner of Yukon, the Northwest Territories or Nunavut;</li>\n\n<li>the  following lands and areas:\n<ol class=\"lst-lwr-rmn\">\n<li>the internal waters of Canada, in any area of the sea not within a province,</li>\n<li>the territorial sea of Canada, in any area of the sea not within a province,</li>\n<li>the exclusive economic zone of Canada, and</li>\n<li>the continental shelf of Canada; and</li>\n</ol>\n</li>\n\n<li>reserves, surrendered lands and any other lands that are set apart for the use and benefit of a band and that are subject to the <cite>Indian Act</cite>, and all waters on and airspace above those reserves or lands.</li>\n</ol>\n</li>\n \n<li><strong>Have you received, initiated, or do you anticipate requiring any local, provincial, territorial, federal environmental authorizations related to this project (this does not include electrical, hydro or gas permits)? </strong> \n  \n \n      <p>If a project is on federal land,    additional legislative requirements such as permits or authorizations may be    needed before a project can begin. AAFC staff will follow-up with you for    further details and/or clarification, as required. </p>\n      <p>Indicate in the application form whether    you have or will obtain federal, provincial, territorial or municipal    environmental authorizations or permits (e.g., a municipal wastewater    discharge authorization). Copies of these authorizations or permits may be    required by AAFC during the application assessment.</p>\n      <p>If you have applied for any of the above-mentioned    permits, provide details on whether the project has any environmental effects    and risks. Positive or negative environmental effects and risks can include    those related to air emissions, soil erosion, noise, effluent, waste water,    solid waste, odour, construction, rare species and habitat, and nearby bodies    of water. Any public concerns should also be addressed. AAFC reserves the    right to request additional information.</p>\n      </li>\n <li><strong>Does the project pose any risks or result in any effects to the    environment, including any positive or negative effects on the surrounding    environment? </strong> \n      \n      <p>Environmental effects could    include those related to air emissions, noise, effluent, waste water, solid    waste, odour, soil erosion during construction, rare species, species    habitat, nearby water bodies. Any public concern should also be included.</p>\n      </li>\n      </ol>\n      \n      \n<h3 id=\"c1\">Project data collection</h3>\n\n\n<p>AAFC is committed to the fair and  transparent distribution of program funds.   The Department will be using the following questions for reporting  purposes only; answers will not directly affect the outcome of your project\u2019s  assessment.</p>\n\n\n<p><b>North American Industry Classification    System (NAICS)</b></p>\n\n\n<p>NAICS is an    industry classification system developed by the statistical agencies of    Canada, Mexico and the United States.  </p>\n\n<p>For more information, visit the <a href=\"http://www23.statcan.gc.ca/imdb/p3VD.pl?Function=getVD&amp;TVD=307532\">Statistics Canada website</a>.</p>\n\n<p>AAFC has selected the NAICS identifiers that best suit this program for reporting purposes.  To simplify the selection process, we have sorted the codes into the following four categories that we created:</p>\n      <ul>\n        <li>agricultural production</li>\n        <li>food and beverage manufacturing</li>\n        <li>other manufacturing</li>\n        <li>other</li>\n      </ul>\n\n<p>We recognize that not all projects will fit perfectly into one identifier; if this is the case for your project, select the identifier that best defines the overall intent of your project, or the identifier that best defines the activity with the highest dollar value.</p>\n      \n<p><b>Harmonized System codes</b></p>\n\n<p>The Harmonized Commodity Description and Coding System, generally referred to as \"Harmonized System\" or simply \"HS,\u201d is a multipurpose international product terminology developed by the World Customs Organization. It comprises of about 5,000 commodity groups; each is identified by a six digit code, arranged in a legal and logical structure that is supported by well-defined rules to achieve uniform classification of goods coming into or leaving Canada. As an exporter, you are responsible for the correct use of HS when declaring your goods.</p>\n\n<p>To find your HS code, visit <a href=\"http://www5.statcan.gc.ca/olc-cel/olc.action?objId=65-209-X&amp;objType=2&amp;lang=en&amp;limit=0\">Statistics Canada's website</a></p>\n\n<p>Input all 6-digit HS codes relating to your project activities.</p>\n\n<p>To add an HS code, press the <strong>+</strong> symbol.<br>\n To delete an HS code, press the <strong>x</strong> symbol.</p>\n \n<p>You may enter up to <strong>25</strong> HS    codes per project. If you will exceed this number, or if you think HS codes    do not apply to your project, contact the AgriMarketing Program.</p>\n\n<p><b>Select any of the following groups who will directly benefit from the intent of this project\u2019s activities</b></p>\n\n<p>Definitions are the same as those listed above in the <a href=\"#b1\">Organizational capacity</a> section.</p>\n\n<p><b>Official languages</b></p>\n\n<p>AAFC is committed to enhancing the vitality of the official language    minority communities (OLMCs), supporting and assisting their development, and    promoting the full recognition and use of both English and French in Canadian    society.</p>\n\n<p><b>If approved, would your project activities reach an audience of both English-speaking and French-speaking individuals or groups?</b></p>\n\n<p>OLMCs consist of Francophones outside Quebec and Anglophones in Quebec. These communities are often represented by provincial and regional organizations.</p>\n\n<p><b>If approved, would your project activities specifically target an official language minority community (French-speaking people outside Quebec or English-speaking people in Quebec)?</b></p>\n\n<p>When it is determined that projects under this program involve activities related to the development and transfer of knowledge and may have an impact on OLMCs or are susceptible of promoting the use of English and French, AAFC will include appropriate linguistic commitments in agreements with your organization and ensure that additional expenses incurred as a result of these commitments are considered eligible for contribution funding.</p>\n\n<p><b>Communications</b></p>\n\n<ul>\n<li>Project web pages and/or project social media account(s) produced and maintained in both official languages</li>\n<li>Project materials offered in both official languages (brochures, kits, handouts, newsletters, reports, etc.)</li>\n<li>Directional and educational signs produced in both official languages </li>\n<li>Project-related advertisement in OLMC media (newspapers, radio, social media) </li>\n<li>Bilingual coordinator or other contractor hired to help deliver project-related activities in both official languages (for example, master of ceremony for a project event, workshop facilitator or simultaneous translator) </li>\n<li>Distribution of invitations in both official languages </li>\n<li>Knowledge transfer activities as listed in the applicant guide</li>\n</ul>\n\n<p><b>Outreach</b></p>\n\n<ul>\n<li>One or more OLMCs are included in the project target groups (for example, as in-kind or cash partners in project budget or to be invited to project events)</li>\n<li>Other groups representing OLMCs are consulted to see if there is any potential for involvement on their end</li>\n<li>Travel to or from OLMCs (costs associated with these project activities included in project budget)</li>\n</ul>\n\n<p>If funded, your organization may be required to publicly acknowledge AAFC's support for the project. In these cases, the department may request that such acknowledgments include text in both official languages.</p>\n\n<p>Applicants are also encouraged to complete an OLMC self-identification section in the application form to help AAFC collect information on whether applicants are a member of an OLMC to tailor future communications activities.</p>\n      \n<h2 id=\"d\">Work Plan</h2>\n\n<p>The Work Plan is an important part of  the application form for evaluation purposes.</p>\n\n<p>Complete the fields for your proposed <b>Project Start Date</b> and <b>Project End Date</b>. Please note that funding for  each approved project under the SME component must be undertaken and completed  within the five years of the Canadian Agricultural Partnership that concludes  March 31, 2023. Costs incurred before the <b>Start Date</b> will generally not be reimbursed. </p>\n\n<p>In the Work Plan, you will be asked to  indicate your <b>Target Market(s) by Country</b>. You can choose from a menu of 31 country options.  There will also be the opportunity to specify another country if your target  market does not appear on the menu by selecting <b>Other</b>.</p>\n\n<p>Please provide the <b>Start Date</b> and <b>End Date</b> for the project work for each country that you specify.</p>\n\n<p>You will be asked to indicate if the <b>Type of Activity</b> is either for the  purpose of <b>Certification</b> or <b>Other</b>. If you select <b>Certification</b>, please indicate the <b>scheme name</b>, that is, the name of the  recognized certification program. If you select <b>Other</b>, please provide details about the proposed activity.</p>\n\n<p>The next section is especially  important to the AAFC assessment process. You will be asked to identify the <b>Expected Results</b>  of your proposed  project, and indicate <b>Performance  Measures</b>.  In each <b>Target Market</b> you plan to access, what do you intend to achieve? Each <b>Expected Result</b> must have its own respective <b>Performance Measure</b> to demonstrate progress; each measure must be  expressed as a numeric value.</p>\n\n<h2 id=\"e\">Project Costs</h2>\n\n<p>Select the activity to add eligible costs to.</p>\n\n<p><b>Name of cost item</b></p>\n\n<p>Enter a short description of the eligible cost. </p>\n\n<p><b>Eligible costs </b></p>\n\n<p>To add an eligible cost, press the + symbol. <br>\nTo delete an eligible cost, press the x symbol. <br>\nYou may enter up to 25 eligible cost items per activity. </p>\n\n<p><b>Description </b></p>\n\n<p>In this field, describe the cost item in more detail. The description should give a breakdown of how the number was budgeted. For example, \u201cairfare,\u201d is insufficient; the description should be more detailed, such as, \u201cRoundtrip airfare from Toronto to London for the Great Food Trade Show $800 x 2 people.\u201d </p>\n\n<p><b>Cost category </b></p>\n\n<p>Select the corresponding cost category for the item.</p>\n\n<h3 id=\"e1\">Eligible cost items</h3>\n\n<p>Note: Any costs incurred before April 1, 2018 are normally ineligible for reimbursement. Any costs incurred after March 31, 2023 are ineligible for reimbursement. Ineligible costs cannot be considered as part of an applicant\u2019s cost-share.</p>\n\n<p>AAFC may allow eligible costs to be incurred after a complete funding proposal has been received by the program, but prior to the signing of a Contribution Agreement if AAFC deems this necessary for the achievement of objectives under the project and if such costs are reasonable and required to carry out the eligible activities to which they relate. It is very important that you understand that in these cases, costs cannot be reimbursed until a signed Contribution Agreement (CA) between your organization and AAFC is in place, therefore these incurred costs are done solely at your risk without obligation of payment by AAFC.</p>\n\n<p>The following table demonstrates the  eligible costs under this program and any limitations or instructions you need  to know to help you complete your budget.</p>\n\n<table class=\"table table-bordered\">\n<caption class=\"text-left\"><b>Salaries and Benefits</b></caption>\n<thead>\n  <tr>\n    <th scope=\"col\" class=\"col-sm-6\">Eligible Cost Items</th>\n    <th scope=\"col\" class=\"col-sm-6\">Limitations/Instructions</th>\n  </tr>\n  </thead>\n  <tbody>\n  <tr>\n    <td><p>Salaries and benefits paid to or on    behalf of staff to execute activities outlined in the project Work Plan. These    costs do not include completing financial or performance reports for the    project. </p>\n\n<p>Includes Mandatory Employment    Related Costs (MERCs), Employment Insurance (EI), Canada Pension Plan (CPP),    Quebec Pension Plan (QPP), vacation pay and benefits*</p>\n\n<p>*Benefits mean payments an    employer is required to make by virtue of company policy or a collective    agreement such as contributions to a group pension plan</p>\n\n</td>\n    <td><ul>\n      <li>Salaries and benefits must be additional to    existing costs</li>\n      <li>Contributions towards salaries and benefits    should not exceed 10% of project costs</li>\n      <li>Costs must be substantiated through    supporting documentation, such as timesheets</li>\n      <li>Performance pay (e.g., bonuses) is ineligible</li>\n    </ul></td>\n  </tr>\n  </tbody>\n  </table>\n  \n  <table class=\"table table-bordered\">\n<caption class=\"text-left\"><b>Contracted Services</b></caption>\n<thead>\n  <tr>\n    <th scope=\"col\" class=\"col-sm-6\">Eligible Cost Items</th>\n   <th scope=\"col\" class=\"col-sm-6\">Limitations/Instructions</th>\n  </tr>\n  </thead>\n  <tbody>\n  <tr>\n    <td><p>Professional or specialized services for    which a contract is entered into, such as: </p>\n      <ul>\n        <li>consultant/expert services</li>\n        <li>professional interpretation and    translation services </li>\n        <li>seminars and technical training    to buyers, including room rentals and audio/visual equipment rentals</li>\n      </ul></td>\n    <td><ul>\n      <li>A contract should be in place with the    contractor, including payment terms and deliverables</li>\n      <li>You must use a fair and competitive or    otherwise justifiable and generally accepted sound business process that    results in competent and qualified contractors working on the project</li>\n<li>AAFC will not reimburse costs related to certification services provides by federal governments and agencies</li>\n    </ul></td>\n  </tr>\n  </tbody>\n  </table>\n  \n  \n  <table class=\"table table-bordered\">\n<caption class=\"text-left\"><b>Travel</b></caption>\n<thead>\n  <tr>\n    <th scope=\"col\" class=\"col-sm-6\">Eligible Cost Items</th>\n   <th scope=\"col\" class=\"col-sm-6\">Limitations/Instructions</th>\n  </tr>\n  </thead>\n  <tbody>\n  <tr>\n    <td><p>Travel costs directly related to the    project, such as:</p>\n<ul>\n <li>per diems (accommodations, meals, incidentals and local transportation)</li>\n <li>transportation, such as airfare</li>\n <li>the recipient may claim cost for air, rail and ground transportation (to an out-of-city destination) for individual travel as follows:\n  <ul>\n   <li>private vehicle: kilometric rates ($0.55/km) as well as costs for parking at the destination. Private vehicle is not to be used if more expensive than rental, rail or air</li>\n   <li>rental vehicle: the cost for an intermediate vehicle (or the cost of a larger vehicle, based upon factors such as, but not limited to, safety, the needs of the traveler, and the bulk or weight of goods transported), gas, and parking at the destination</li>\n   <li>air: economy airfare rate only for all travel (not Business or First Class). Bookings should be made as far in advance as possible. Seat selection and baggage costs are eligible, but not premium seat upgrades. If a higher class is purchased, proof of the flight\u2019s economy rate must be obtained for reimbursement purposes</li>\n  </ul>\n </li>\n <li>hospitality, alcohol, entertainment, and gifts are ineligible</li>\n</ul></td>\n    <td>\n<ul>    \n <li>When travel is approved, claimants have the following options:\n  <ul class=\"lst-lwr-alph\">\n   <li>claim the established per diem, or</li>\n   <li>claim actual expenses incurred which are less than the established per diem</li>\n  </ul>\n </li>\n <li>The per diems will contribute to covering the costs for daily accommodation, meals, local or in-city transportation (buses, taxis, vehicle rentals, etc.), ground transportation, including parking, to and from the public carrier terminal, entry documents, including passports and visas, insurance (all types), vaccinations and incidentals (personal phone calls, laundry, gratuities, currency exchange fees, etc.) for individual travel</li>\n <li>If using option (a), per diems can be claimed for every day on travel status as follows:\n  <ul class=\"list-unstyled\">\n   <li><b>Travel within Canada (CAD/day):</b>\n    <ul>\n     <li>day trip with no overnight stay: $70</li>\n     <li>trip with overnight stay: $300</li>\n    </ul>\n   </li>\n   <li><b>Travel outside Canada (CAD/day):</b>\n    <ul>\n     <li>day trip with no overnight stay: $100</li>\n     <li>trip with overnight stays: $425</li>\n    </ul>\n   </li>\n  </ul>\n </li>\n</ul>    \n    </td>\n  </tr>\n  </tbody>\n  </table>\n  \n   <table class=\"table table-bordered\">\n<caption class=\"text-left\"><b>Other Direct Project Costs</b></caption>\n<thead>\n  <tr>\n    <th scope=\"col\" class=\"col-sm-6\">Eligible Cost Items</th>\n   <th scope=\"col\" class=\"col-sm-6\">Limitations/Instructions</th>\n  </tr>\n  </thead>\n  <tbody> \n \n  <tr>\n    <td>Other costs for project-related deliverables, such as mailing.</td>\n    <td>n/a</td>\n  </tr>\n  </tbody>\n</table>\n\n\n<p>In the application form, you will be asked  to provide information under four tabs related to the Budget for your proposed  project:</p>\n<ol>\n  <li>eligible cost items</li>\n  <li>sources of funding</li>\n  <li>cost summary</li>\n  <li>budget summary</li>\n</ol>\n \n<p>As noted in the Work Plan, activities and  their related expenses must fall within the five years of the Canadian  Agricultural Partnership framework that concludes March 31, 2023.</p>\n\n<h3 id=\"e2\">Sources of Funding</h3>\n \n<p>Please see <a href=\"?id=1517867394365#a1.3\">section 1.3 AgriAssurance Program: Small and Medium-sized Enterprise component Applicant Guide</a> for information on cost-sharing, sources of funding, and  government funding stacking limits.</p>\n\n<h2 id=\"f\">Budget Summary</h2>\n\n<p>The Budget Summary tab auto-calculates all the financial information you entered in the Project Costs and Sources of Funding tabs and provides an ongoing high-level overview of your project\u2019s budget.</p>\n\n<h2 id=\"g\">Declarations</h2>\n\n<p><strong>Unpaid  debts to the Government of Canada</strong></p>\n\n<p>The applicant for AAFC funds must declare  any amounts owing to the Government of Canada. Any amounts due to the applicant  under AAFC programs may be set off against any such amounts owing to the  Government of Canada under any agreement or any legislation with the Government  of Canada.</p>\n\n<p><strong>Lobbying  activities</strong></p>\n\n<p>The applicant must ensure that a person  lobbying on behalf of the applicant is registered and in compliance with the <em>Lobbying Act.</em></p>\n<p>More information on the obligations in the <em>Lobbying Act</em> can be found on the website  of the <a href=\"https://lobbycanada.gc.ca/en/rules/the-lobbying-act/\">Commissioner of Lobbying of Canada</a>.</p>\n\n<p><strong>Conflict  of interest</strong></p>\n\n<p>Current  or former public servants or public office holders are required to avoid  conflict of interest situations while employed by the federal government, and  for a period of time following their service. The applicant acknowledges that  any individuals who are subject to the provisions of the <cite>Conflict of  Interest Act</cite>, the <cite>Values and Ethics Code for the Public Sector</cite>, the <cite>Conflict of  Interest Code for Members of the House of Commons</cite>, any applicable federal  values and ethics code or any applicable federal policy on conflict of interest  and post-employment shall not derive any direct benefit resulting from this  application unless the provision or receipt of such benefit is permitted in  such legislation, policy or codes.</p>\n\n<p><strong>Consent  for use, disclosure and copyright</strong></p>\n\n<p>Personal information will be treated and  disclosed in accordance with the <a href=\"http://laws-lois.justice.gc.ca/eng/acts/P-21/index.html\"><cite>Privacy Act</cite></a>. You have the right to  access your personal information held by AAFC and to request changes to  incorrect personal information by contacting the AAFC Access to Information and  Privacy Director at <a href=\"mailto:aafc.atip-aiprp.aac@canada.ca\">aafc.atip-aiprp.aac@canada.ca</a>.</p>\n\n<p>For more information about AAFC\u2019s privacy  practices, you may refer to the following Personal Information Banks: Public  Communications PSU 914 and Outreach Activities PSU 938.</p>\n\n<p>Business information will be disclosed only  in accordance with the provisions of the <a href=\"http://laws-lois.justice.gc.ca/eng/acts/a-1/\"><em>Access to Information Act</em></a>.</p>\n\n<p>Information on the <cite>Privacy Act</cite> and the <cite>Access to  Information Act</cite> is available at the following website: <a href=\"http://laws.justice.gc.ca\">http://laws.justice.gc.ca</a>. For further  information about these Acts please contact the Access to Information and  Privacy Director at <a href=\"mailto:aafc.atip-aiprp.aac@canada.ca\">aafc.atip-aiprp.aac@canada.ca</a>. </p>\n\n\n<p><strong>Copyright  permission</strong></p>\n<p>AAFC may disclose, reproduce and distribute  any part of or the whole of the documentation provided in or with this  application form, within AAFC and to its authorized third parties, including  other government departments, for purposes consistent with the receipt,  assessment and subsequent treatment of the application.</p>\n\n<h2 id=\"h\">Additional documents</h2>\n\n<p>In addition to the application form, the  following documents are required as part of a complete application package:</p>\n\n<table class=\"table table-bordered\">\n<thead>\n  <tr>\n    <th scope=\"col\">Document name</th>\n   <th scope=\"col\">Description</th>\n  </tr>\n  </thead>\n  <tbody>\n  <tr>\n <td>Signature of applicant authorized    representative form</td>\n<td>Applicants must have their authorized    representative(s) sign and attach this form as part of the online project application    package.</td>\n  </tr>\n  <tr>\n    <td>Consent to use, disclose and copyright</td>\n    <td>Written consent required by all    third-parties that submit personal and/or business information such as    biographies as part of a complete application package.</td>\n  </tr>\n  <tr>\n    <td>A copy of the applicant organization's Certificate    of Incorporation or Articles of Incorporation</td>\n    <td>Certificates and Articles of Incorporation are issued and filed, respectively, by or with provincial, territorial or federal government that document the applicant's status as a    legal entity.</td>\n  </tr>\n  <tr>\n    <td>Small and medium-sized enterprise    questionnaire</td>\n    <td>In this questionnaire you must    demonstrate that you have developed an international market export plan for the    targeted market(s).</td>\n  </tr>\n  </tbody>\n</table>\n\n\n<h2 id=\"i\">Submit</h2>\n\n<p>Once you have completed your application  form and all the additional documents, please submit your project  application.</p>\n\n<div class=\"alert alert-info\">\n<p>For  technical assistance submitting your application, or at any time during the  application process, you can access the technical help file by clicking on the information  icon located throughout the project application form.</p> \n</div>\n\n<p>For more information on the AgriAssurance Program: Small and Medium-sized Enterprise (SME) component, please contact us by:</p>\n\n<p>E-mail: <a href=\"mailto:aafc.assurance.aac@canada.ca\">aafc.assurance.aac@canada.ca</a></p>\n\n<p>Telephone: 1-877-246-4682<br>\n TDD/TTY: 613-773-2600</p>\n\n<p>Mail:<br>\n Agriculture and Agri-Food Canada<br>\n AgriAssurance Program: SME<br>\n Tower 7, Floor 6, Room 215<br>\n 1341 Baseline Road<br>\n Ottawa ON\u00a0\u00a0K1A 0C5</p>\n\n<h2 id=\"alt\">Alternative formats</h2>\n\n<p><a href=\"?id=1168622342753\">Help with Alternate Formats</a></p>\n\n<p><a href=\"https://www.agr.gc.ca/resources/prod/doc/pdf/1517867394365-20180418-eng.pdf\">AgriAssurance Program: Small and Medium-sized Enterprise Component - Annex A (PDF, 105 KB)</a></p>\n\r\n    ",
        "fr": "\r\n    <p><a href=\"#alt\">Formats de rechange</a></p>\n\n<h2>Table des mati\u00e8res</h2>\n\n<ul class=\"list-unstyled\">\n <li><a href=\"#a\">Renseignements g\u00e9n\u00e9raux</a></li>\n <li><a href=\"#b\">Renseignements sur le demandeur</a>\t\n  <ul>\n   <li><a href=\"#b1\">Capacit\u00e9 organisationnelle</a></li>\n  </ul>\n </li>\n <li><a href=\"#c\">Renseignements sur le projet</a>\n  <ul>\t\n   <li><a href=\"#c1\">Collecte de donn\u00e9es sur le projet</a></li>\n  </ul>\n </li>\n <li><a href=\"#d\">Plan de travail</a></li>\n <li><a href=\"#e\">Co\u00fbts du projet</a>\n  <ul>\t\n   <li><a href=\"#e1\">\u00c9l\u00e9ments de co\u00fbt admissibles</a></li>\n   <li><a href=\"#e2\">Sources de financement</a></li>\n  </ul>\n </li>\n <li><a href=\"#f\">Sommaire du budget</a></li>\n <li><a href=\"#g\">D\u00e9clarations</a></li>\n <li><a href=\"#h\">Documents suppl\u00e9mentaires</a></li>\n <li><a href=\"#i\">Envoi de la demande</a></li>\n</ul>\n\n<section class=\"alert alert-info\">\n<h2 id=\"a\">Renseignements g\u00e9n\u00e9raux</h2>\n\n<p>Commencez par d\u00e9terminer si votre organisme et les activit\u00e9s qui y sont men\u00e9es satisfont aux crit\u00e8res d\u2019admissibilit\u00e9 d\u00e9taill\u00e9e aux <a href=\"?id=1517867394365#a1.2\">sections 1.2 du Guide du demandeur du Programme Agri-assurance : Volet Petites et moyennes entreprises</a> et <a href=\"?id=1517867394365#a1.4\">section 1.4 du Guide du demandeur du Programme Agri-assurance : Volet Petites et moyennes entreprises</a>.</p>\n\n<ol class=\"lst-spcd\">\n<li>Pour remplir le formulaire de pr\u00e9sentation de projet, t\u00e9l\u00e9chargez-le et enregistrez-le sur votre ordinateur. </li>\n\n<li>Suivez les instructions \u00e9tape par \u00e9tape qui sont pr\u00e9sent\u00e9es ci-dessous pour remplir le formulaire, y compris le plan de travail et le budget du projet.</li>\n\n<li>Consultez les <a href=\"#h\">Documents suppl\u00e9mentaires</a> pour obtenir une liste de tous les autres documents n\u00e9cessaires afin de v\u00e9rifier que vous disposez de tous les documents requis pour remplir votre dossier de demande.</li>\n\n<li>Joignez ces documents \u00e0 votre formulaire, puis envoyez-ce dernier.</li>\n</ol>\n\n<p>Si vous \u00e9prouvez des difficult\u00e9s pour envoyer votre demande ou si vous pr\u00e9f\u00e9rez la transmettre par courrier ou par courriel, communiquez avec nous par t\u00e9l\u00e9phone au num\u00e9ro 1-877-246-4682.</p> \n</section>\n\n<h2 id=\"b\">Renseignements sur le demandeur</h2>\n\n<p>Agriculture et Agroalimentaire Canada (AAC) utilise les renseignements que vous indiquez dans cette section pour \u00e9tablir l\u2019identit\u00e9 de votre organisme.</p>\n\n<p><b>Type d\u2019organisme</b></p>\n\n <p>Consultez la <a href=\"?id=1517867394365#a1.2\">section 1.2 du Guide du demandeur du Programme Agri-assurance : Volet Petites et moyennes entreprises</a> pour savoir si vous pouvez pr\u00e9senter une demande au titre du pr\u00e9sent programme.</p>\n \n <p><b>D\u00e9nomination sociale</b></p>\n \n<p>Il s\u2019agit de la d\u00e9nomination sociale de votre organisme telle qu\u2019elle figure dans les documents juridiques (statuts, certificat de constitution, etc.).</p> \n\n<p><b>Faisant affaire sous le nom de (le cas \u00e9ch\u00e9ant)</b></p>\n\n<p>Indiquez le nom sous lequel votre organisme fait affaire, si celui-ci est diff\u00e9rent de la d\u00e9nomination sociale.</p>\n\n<p><b>Num\u00e9ro d\u2019entreprise aupr\u00e8s de l\u2019Agence du revenu du Canada (ARC)</b></p>\n\n<p>Le num\u00e9ro d\u2019entreprise aupr\u00e8s de  l\u2019ARC est un num\u00e9ro \u00e0 neuf chiffres qui sert d\u2019identifiant unique \u00e0 chaque  entreprise enregistr\u00e9e. Pour en savoir plus sur  l\u2019obtention d\u2019un num\u00e9ro d\u2019entreprise de l\u2019ARC, consultez la <a href=\"https://www.canada.ca/fr/services/impots/numero-dentreprise.html\">page  Web de l\u2019ARC sur le num\u00e9ro d\u2019entreprise</a>. </p>\n\n<p>Si vous n\u2019avez pas de num\u00e9ro d\u2019entreprise de  l\u2019ARC ou ne souhaitez pas le divulguer \u00e0 cette \u00e9tape, saisissez neuf z\u00e9ros  (c'est-\u00e0-dire 000000000).</p>\n\n\n<p><b>Personne-ressource principale</b></p>\n \n<p>Indiquez les coordonn\u00e9es de la personne au sein de votre organisme qui sera charg\u00e9e de r\u00e9pondre aux requ\u00eates concernant votre demande.</p>\n\n<p><b>Personne-ressource du projet</b></p>\n \n<p>Si un financement vous est accord\u00e9, cette personne-ressource assurera la liaison avec AAC pendant toute la dur\u00e9e du projet. Il peut s\u2019agir de la personne-ressource principale.</p>\n\n<p><b>Adresse postale</b></p>\n\n<p>Indiquez l\u2019adresse compl\u00e8te de l\u2019administration centrale de votre organisme.</p>\n\n<p><b>Emplacement principal du projet</b></p>\n\n<p>Endroit o\u00f9 le projet sera ex\u00e9cut\u00e9, s\u2019il est distinct du si\u00e8ge social de votre organisme.</p>\n\n<p>S\u2019il y a plusieurs emplacements, l\u2019emplacement principal est celui dont les activit\u00e9s associ\u00e9es repr\u00e9sentent la part la plus importante du budget.</p>\n\n\n<h2 id=\"b1\">Capacit\u00e9 organisationnelle</h2>\n\n<p>Les renseignements que vous donnez dans cette section permettront \u00e0 AAC de mieux comprendre votre organisme et d\u2019\u00e9valuer votre capacit\u00e9 \u00e0 r\u00e9aliser le projet. </p>\n\n<p><b>Combien d\u2019employ\u00e9s travaillent au sein de votre organisme?</b></p>\n\n<p>Indiquez le nombre d\u2019employ\u00e9s \u00e0 temps complet ou \u00e0 temps partiel que g\u00e8re votre service de la paye. Ne comptez pas les entrepreneurs.</p>\n\n<p><b>D\u00e9crivez votre organisme</b></p>\n\n<p>D\u00e9crivez le mandat et les priorit\u00e9s de votre organisme. Joignez un court historique de votre organisme, en indiquant notamment tout changement important s\u2019\u00e9tant \u00e9ventuellement produit au cours des deux derni\u00e8res ann\u00e9es (p. ex. augmentation ou diminution importante du nombre d\u2019employ\u00e9s, changement au sein de la direction, y compris le conseil d\u2019administration, ou modification du mandat).</p>\n\n<p><b>Le mandat de votre organisme met-il l\u2019accent sur l\u2019un des groupes suivants?</b></p>\n\n \n<p>Cette question est pos\u00e9e \u00e0 des fins statistiques seulement; elle n\u2019a aucune incidence sur votre \u00e9valuation. </p>\n      \n  \n<table class=\"table table-bordered\">\n  <tr>\n <th scope=\"row\">Autochtones</th>\n <td><p>Personnes \u00e9tant\u00a0:</p>\n   <ul>\n<li>inscrites en tant que membres d\u2019une  Premi\u00e8re Nation;</li>\n<li>inscrites en tant qu\u2019Indiens ou  Indiennes au titre de la <cite>Loi sur les  Indiens</cite> et r\u00e9sidant ou non dans une r\u00e9serve;</li>\n<li>des M\u00e9tis; ou</li>\n<li>des Inuits.</li>\n</ul>\n \n<p>ou communaut\u00e9s ou gouvernements autochtones, notamment\u00a0:</p>\n   <ul>\n     <li>des conseils tribaux ou de Premi\u00e8res  Nations;</li>\n     <li>les gouvernements de Premi\u00e8res Nations  autonomes;</li>\n     <li>les administrations locales de  communaut\u00e9s inuites; ou</li>\n   <li>des organisations de M\u00e9tis.</li>\n   </ul></td>\n  </tr>\n  <tr>\n <th scope=\"row\">Personnes handicap\u00e9es</th>\n <td><p>Selon la <cite>Loi sur l\u2019\u00e9quit\u00e9 en mati\u00e8re d\u2019emploi</cite>, une personne handicap\u00e9e est une personne ayant une d\u00e9ficience \u00e0 long terme ou r\u00e9currente, soit dans ses capacit\u00e9s physiques, mentales ou sensorielles, soit d\u2019ordre psychiatrique ou en mati\u00e8re d\u2019apprentissage, et qui\u00a0:</p>\n \n <ol class=\"list-lwr-alph\">\n   <li>soit consid\u00e8re qu\u2019elle a des aptitudes r\u00e9duites pour exercer un emploi, ou</li>\n   <li>soit pense qu\u2019elle risque d\u2019\u00eatre class\u00e9e dans cette cat\u00e9gorie par son employeur ou par d\u2019\u00e9ventuels employeurs en raison d\u2019une telle d\u00e9ficience.</li>\n   </ol>\n   \n <p>Cette d\u00e9finition vise \u00e9galement les personnes dont les limitations fonctionnelles li\u00e9es \u00e0 leur d\u00e9ficience font l\u2019objet de mesures d\u2019adaptation pour leur emploi ou dans leur lieu de travail.</p></td>\n  </tr>\n  <tr>\n <th scope=\"row\">Minorit\u00e9s visibles</th>\n <td>Selon la <cite>Loi sur l\u2019\u00e9quit\u00e9 en mati\u00e8re d\u2019emploi</cite>, le terme \u00ab\u00a0minorit\u00e9 visible\u00a0\u00bb d\u00e9signe les personnes, autres que les Autochtones, qui ne sont pas de race blanche ou n\u2019ont pas la peau blanche.</td>\n  </tr>\n<tr>\n <th scope=\"row\">Femmes</th>\n <td>Il s\u2019agit des personnes d\u00e9clar\u00e9es de sexe f\u00e9minin \u00e0 leur naissance ou plus tard.</td>\n  </tr>\n  <tr>\n <th scope=\"row\">Jeunes</th>\n <td>Toute personne \u00e2g\u00e9e de 30 ans ou moins.</td>\n  </tr>\n  <tr>\n <th scope=\"row\">Sans objet</th>\n <td>Utilisez cette option si le mandat de votre organisme ne met l\u2019accent sur aucun des groupes indiqu\u00e9s ci-dessus.</td>\n  </tr>\n  <tr>\n <th scope=\"row\">Refus de s\u2019identifier</th>\n <td>Utilisez cette option si le mandat de votre organisme met \u00e9ventuellement l\u2019accent sur l\u2019un des groupes indiqu\u00e9s ci-dessus, mais vous ne souhaitez pas divulguer ces renseignements \u00e0 ce stade de la demande.</td>\n  </tr>\n</table>\n\n\n <p><b>Financements ant\u00e9rieurs</b></p>\n<p>Veuillez indiquer si AAC a d\u00e9j\u00e0 accord\u00e9 du financement \u00e0 votre organisme. Le cas \u00e9ch\u00e9ant, citez le ou les programmes dans le cadre desquels vous avez obtenu des fonds.</p>\n\n<p>Capacit\u00e9 \u00e0 r\u00e9aliser le projet</p>\n\n<p>Pour remplir ce champ, vous pouvez r\u00e9pondre aux questions suivantes\u00a0:</p>\n\n      <ul>\n        <li>Votre organisme a-t-il d\u00e9j\u00e0 g\u00e9r\u00e9  d\u2019autres projets d\u2019une ampleur semblable \u00e0 celle du projet que vous proposez  dans la pr\u00e9sente demande?</li>\n        <li>Si c\u2019est le cas, d\u00e9crivez bri\u00e8vement  les projets pr\u00e9c\u00e9dents ainsi que leurs r\u00e9sultats. </li>\n        <li>Quelles sont les ressources \u00e0 votre  disposition pour garantir la r\u00e9ussite du projet que vous proposez (par exemple,  ressources humaines et pratiques en mati\u00e8re de gestion financi\u00e8re)?</li>\n      </ul>\n\n\n\n\n<h2 id=\"c\">1.2 Renseignements sur le projet</h2>\n\n<p>Les renseignements que vous donnez dans cette section, accompagn\u00e9s du plan de travail et du budget pour votre projet, permettront \u00e0 AAC d\u2019\u00e9valuer votre projet de fa\u00e7on approfondie.</p>\n\n\n<p><b>Titre du projet</b></p>\n \n<p>Donnez un titre court et descriptif exprimant avec pr\u00e9cision les activit\u00e9s et les r\u00e9sultats pr\u00e9vus pour votre projet.</p> \n\n <p><b>Objectif du projet</b></p>\n \n      <p>R\u00e9sumez votre projet de mani\u00e8re concise. </p>\n      <p>Comment le d\u00e9cririez-vous en quelques mots  \u00e0 un ami, \u00e0 un coll\u00e8gue ou sur les m\u00e9dias sociaux?</p>\n      <p>Remarque\u00a0: Si votre projet est retenu pour  un financement, ce r\u00e9sum\u00e9 pourra \u00eatre publi\u00e9 dans les sites Web du gouvernement  du Canada.</p>\n      \n      \n<p><b>Raison d\u2019\u00eatre du projet</b></p>\n\n<p>Pour r\u00e9pondre aux questions suivantes\u00a0:</p>\n\n<ul>\n  <li>Expliquez dans quelle mesure le projet  permettra de combler une lacune du march\u00e9 ou un besoin de l\u2019industrie.</li>\n  <li>Indiquez en quoi la certification vous  permettra de tirer profit des occasions particuli\u00e8res de march\u00e9 que vous avez  cern\u00e9es.</li>\n  <li>D\u00e9crivez dans quelle mesure votre  projet cadre avec les activit\u00e9s admissibles du programme cit\u00e9es \u00e0 la  <a href=\"?id=1517867394365#a1.4\">section\u00a01.4 du Guide du demandeur du Programme Agri-assurance : Volet Petites et moyennes entreprises</a>.</li>\n  <li>D\u00e9crivez comment vous avez pr\u00e9vu  d\u2019atteindre les objectifs de ce projet.</li>\n</ul>\n     \n <p><b>Consid\u00e9rations environnementales</b></p>\n \n <ol class=\"lst-spcd lst-upr-alph\">\n  <li><strong>Votre projet sera-t-il r\u00e9alis\u00e9 sur un territoire domanial?</strong> \n    \n<p>Tous les projets doivent se conformer \u00e0 la <cite>Loi canadienne sur l\u2019\u00e9valuation  environnementale</cite> de 2012 (LCEE\u00a02012). Afin de nous aider \u00e0 d\u00e9terminer  si la LCEE\u00a02012 s\u2019applique \u00e0 votre projet, pr\u00e9cisez si votre projet sera  r\u00e9alis\u00e9 sur un territoire domanial. Selon la <cite>Loi canadienne sur l\u2019\u00e9valuation environnementale</cite> (2012), le  territoire domanial comprend\u00a0:</p>\n\n<ol>\n  <li>les terres qui appartiennent \u00e0 Sa Majest\u00e9 du chef du Canada ou dont elle a le pouvoir de disposer, ainsi que leurs eaux et leur espace a\u00e9rien, \u00e0 l\u2019exception des terres dont le commissaire du Yukon, celui des Territoires du Nord-Ouest ou celui du Nunavut a la gestion et la ma\u00eetrise;</li>\n  \n  <li>les terres et les r\u00e9gions suivantes\u00a0:\n  <ol class=\"lst-lwr-rmn\">\n  <li>les eaux int\u00e9rieures du Canada, dans toute zone de la mer ne faisant pas partie d\u2019une province,</li>\n  <li>la mer territoriale du Canada, dans toute zone maritime ne faisant pas partie d\u2019une province,</li>\n  <li>la zone \u00e9conomique exclusive du Canada, et</li>\n  <li>le plateau continental du Canada; et</li>\n  </ol>\n  </li>\n  \n  <li>les r\u00e9serves, terres c\u00e9d\u00e9es ou autres terres qui ont \u00e9t\u00e9 mises de c\u00f4t\u00e9 \u00e0 l\u2019usage et au profit d\u2019une bande et assujetties \u00e0 la <cite>Loi sur les Indiens</cite>, ainsi que leurs eaux et leur espace a\u00e9rien.</li>\n</ol>\n</li>\n \n<li><strong>Avez-vous obtenu ou demand\u00e9 des autorisations environnementales locales, provinciales, territoriales ou f\u00e9d\u00e9rales pour ce projet ou pr\u00e9voyez-vous en avoir besoin (cela ne comprend pas les permis li\u00e9s \u00e0 l\u2019eau, \u00e0 l\u2019\u00e9lectricit\u00e9 ou au gaz)? </strong> \n  \n \n<p>Si le projet doit \u00eatre r\u00e9alis\u00e9 sur le  territoire domanial, d\u2019autres exigences l\u00e9gislatives peuvent s\u2019appliquer, par  exemple l\u2019obligation d\u2019obtenir certains permis ou certaines autorisations avant  le d\u00e9but du projet. Le personnel d\u2019AAC communiquera avec vous pour obtenir plus  de renseignements ou plus de pr\u00e9cisions, au besoin.</p>\n\n<p>Veuillez pr\u00e9ciser dans le formulaire de  demande si vous avez obtenu ou allez obtenir des autorisations ou permis  environnementaux f\u00e9d\u00e9raux, provinciaux, territoriaux ou municipaux, par exemple  une autorisation municipale de rejet d\u2019eaux us\u00e9es. Des copies de ces  autorisations ou permis peuvent \u00eatre exig\u00e9es par AAC pendant l\u2019\u00e9valuation de la  demande.</p>\n\n<p>Si vous avez d\u00e9pos\u00e9 une demande pour l\u2019un  des permis indiqu\u00e9s ci-dessus, quel qu\u2019il soit, fournissez des d\u00e9tails sur les  effets et les risques environnementaux de votre projet. Les effets positifs ou  n\u00e9gatifs sur l\u2019environnement et les risques environnementaux peuvent comprendre  les \u00e9missions atmosph\u00e9riques, l\u2019\u00e9rosion du sol, le bruit, les effluents, les  eaux us\u00e9es, les d\u00e9chets solides, les odeurs, les travaux de construction, les  effets sur les esp\u00e8ces rares et leur habitat ainsi que sur les plans d\u2019eau  voisins. Les pr\u00e9occupations du public doivent \u00e9galement \u00eatre mentionn\u00e9es. AAC  se r\u00e9serve le droit de demander tout renseignement suppl\u00e9mentaire.</p>\n</li>\n\n<li><strong>Le projet pose-t-il un risque pour l\u2019environnement ou aura-t-il des r\u00e9percussions, positives ou n\u00e9gatives, sur l\u2019environnement imm\u00e9diat? </strong> \n      \n<p>Les effets sur l\u2019environnement peuvent \u00eatre li\u00e9s aux \u00e9missions atmosph\u00e9riques, au bruit, aux effluents, aux eaux us\u00e9es, aux d\u00e9chets solides, aux odeurs, \u00e0 l\u2019\u00e9rosion du sol durant la construction, aux esp\u00e8ces rares et \u00e0 leur habitat ainsi qu\u2019aux plans d\u2019eau voisins. Les pr\u00e9occupations du public doivent \u00e9galement \u00eatre mentionn\u00e9es.</p>\n      </li>\n      </ol>      \n      \n      <h3 id=\"c1\">Collecte de donn\u00e9es sur le projet</h3>\n\n<p>AAC s\u2019engage \u00e0 garantir la r\u00e9partition \u00e9quitable et transparente des fonds du programme. Le Minist\u00e8re utilisera les questions suivantes uniquement pour l\u2019\u00e9tablissement de rapports; les r\u00e9ponses donn\u00e9es n\u2019auront aucune incidence directe sur le r\u00e9sultat de l\u2019\u00e9valuation de votre projet.</p>\n\n<p><b>Syst\u00e8me de classification des industries de l\u2019Am\u00e9rique du Nord (SCIAN)</b></p>\n\n<p>Le SCIAN est un syst\u00e8me de classification des industries qui a \u00e9t\u00e9 cr\u00e9\u00e9 par les organismes statistiques du Canada, des \u00c9tats-Unis et du Mexique.</p>\n\n<p>Pour en savoir plus, consultez le <a href=\"http://www23.statcan.gc.ca/imdb/p3VD_f.pl?Function=getVD&amp;TVD=307532\">site Web  de Statistique Canada</a></p>\n\n<p>AAC  a s\u00e9lectionn\u00e9 les identifiants du SCIAN les plus pertinents pour les rapports  cr\u00e9\u00e9s dans le cadre du pr\u00e9sent programme. Pour simplifier le processus de  s\u00e9lection, nous avons r\u00e9parti les codes dans les quatre cat\u00e9gories  suivantes\u00a0:</p>\n\n<ul>\n  <li>production agricole;</li>\n  <li>fabrication d\u2019aliments et de boissons;</li>\n  <li>autres industries manufacturi\u00e8res; et</li>\n  <li>autre.</li>\n</ul>\n\n<p>Nous sommes  conscients que tous les projets ne correspondront pas parfaitement \u00e0 un seul  identifiant. Si c\u2019est le cas pour votre projet, s\u00e9lectionnez l\u2019identifiant qui  d\u00e9crit le mieux l\u2019objectif de votre projet ou qui d\u00e9finit le mieux l\u2019activit\u00e9  dont la valeur mon\u00e9taire est la plus \u00e9lev\u00e9e.</p>\n    \n<p><b>Codes du Syst\u00e8me harmonis\u00e9</b></p>\n\n<p>Le Syst\u00e8me harmonis\u00e9 de d\u00e9signation et  de codification des marchandises g\u00e9n\u00e9ralement appel\u00e9 le \u00ab\u00a0Syst\u00e8me  harmonis\u00e9\u00a0\u00bb ou simplement le \u00ab\u00a0SH\u00a0\u00bb est une nomenclature  internationale de produits \u00e0 usages multiples \u00e9labor\u00e9e par l\u2019Organisation  mondiale des douanes. Il comprend pr\u00e8s de 5\u00a0000\u00a0groupes de  marchandises identifi\u00e9es par un code \u00e0 six chiffres et class\u00e9es suivant une  structure l\u00e9gale et logique qui repose sur des r\u00e8gles bien d\u00e9termin\u00e9es  destin\u00e9es \u00e0 faciliter la classification uniforme des biens qui entrent au  Canada ou quittent le pays. En tant qu\u2019exportateur, vous \u00eates tenu d\u2019utiliser  correctement le SH lorsque vous d\u00e9clarez vos marchandises.</p>\n\n<p>Pour conna\u00eetre votre code SH, consultez  le <a href=\"http://www5.statcan.gc.ca/olc-cel/olc?ObjId=65-209-X&amp;ObjType=2&amp;lang=fr&amp;limit=0\">site Web de Statistique\u00a0Canada</a></p>\n\n<p>Saisissez tous les codes SH \u00e0 six  chiffres qui sont li\u00e9s aux activit\u00e9s de votre projet.</p>\n\n<p>Pour ajouter un code SH, appuyez sur le  symbole <strong>+</strong>.</p>\n\n\n<p>Pour supprimer un code SH, appuyez sur  le symbole <strong>x</strong>.</p>\n\n<p>Vous pouvez saisir jusqu\u2019\u00e0 <strong>25\u00a0</strong>codes SH par projet. Si vous  d\u00e9passez ce nombre, ou si vous pensez que les codes SH ne s\u2019appliquent pas \u00e0  votre projet, communiquez avec l\u2019\u00e9quipe du programme Agri-marketing.</p>\n\n<p><b>Parmi tous les groupes suivants, s\u00e9lectionnez ceux qui tireront un avantage direct de l\u2019objectif vis\u00e9 par les activit\u00e9s du projet.</b></p>\n\n\n<p>Les d\u00e9finitions sont identiques \u00e0 celles de la section <a href=\"#b1\">Capacit\u00e9 organisationnelle</a> ci-dessus.</p>\n\n\n<p><b>Langues officielles</b></p>\n\n<p>AAC s\u2019engage \u00e0 am\u00e9liorer la vitalit\u00e9 des communaut\u00e9s de langue officielle en situation minoritaire (CLOSM) et \u00e0 appuyer leur d\u00e9veloppement, ainsi qu\u2019\u00e0 promouvoir la pleine reconnaissance et l\u2019usage de l\u2019anglais et du fran\u00e7ais dans la soci\u00e9t\u00e9 canadienne.</p>\n\n<p><b>Si elles sont approuv\u00e9es, vos activit\u00e9s de projet atteindront-elles un public compos\u00e9 de personnes ou de groupes anglophones ET francophones?</b></p>\n\n<p>Les CLOSM comprennent les francophones habitant \u00e0 l\u2019ext\u00e9rieur du Qu\u00e9bec et les anglophones r\u00e9sidant au Qu\u00e9bec. Ces communaut\u00e9s sont souvent repr\u00e9sent\u00e9es par des organismes provinciaux et r\u00e9gionaux. </p>\n\n<p><b>Si elles sont approuv\u00e9es, vos activit\u00e9s de projet cibleront-elles sp\u00e9cifiquement une communaut\u00e9 de langue officielle en situation minoritaire (francophones hors Qu\u00e9bec ou anglophones au Qu\u00e9bec)?</b></p>\n\n<p>S\u2019il s\u2019av\u00e8re que votre projet au titre du pr\u00e9sent programme comprend des activit\u00e9s li\u00e9es au d\u00e9veloppement et au transfert de connaissances et peut avoir des r\u00e9percussions sur des CLOSM ou promouvoir l\u2019utilisation des langues anglaise et fran\u00e7aise, AAC ajoutera des engagements linguistiques aux ententes conclues avec votre organisation et veillera \u00e0 ce que les d\u00e9penses suppl\u00e9mentaires qui en d\u00e9coulent soient admissibles \u00e0 une contribution financi\u00e8re.</p>\n\n<p>Les activit\u00e9s peuvent comprendre, sans s\u2019y limiter :</p>\n\n<p><b>Communications</b></p>\n<ul>\n<li>Cr\u00e9er et tenir \u00e0 jour des pages Web et des comptes de m\u00e9dias sociaux dans les deux langues officielles pour le projet;</li>\n<li>Offrir de la documentation sur le projet (p. ex. brochures, trousses, bulletins et rapports) dans les deux langues officielles</li>\n<li>Cr\u00e9er des panneaux indicateurs et \u00e9ducatifs dans les deux langues officielles;</li>\n<li>Diffuser des publicit\u00e9s li\u00e9es au projet dans les m\u00e9dias s\u2019adressant aux CLOSM (par exemple, journaux, radio et m\u00e9dias sociaux);</li>\n<li>Embaucher un coordonnateur bilingue ou un autre entrepreneur (p.ex. ma\u00eetre de c\u00e9r\u00e9monie pour une activit\u00e9, animateur d\u2019ateliers ou interpr\u00e8te en simultan\u00e9) pour faciliter la r\u00e9alisation d\u2019activit\u00e9s li\u00e9es au projet dans les deux langues officielles;</li>\n<li>Distribuer des invitations dans les deux langues officielles; et</li>\n<li>Activit\u00e9s de transfert des connaissances figurant dans le Guide du demandeur.</li>\n</ul>\n\n\n<p><b>Sensibilisation</b></p>\n<ul>\n<li>Inclure un ou des CLOSM dans les groupes cibles du projet (p. ex. \u00e0 titre de partenaires qui contribuent en esp\u00e8ces ou en nature au projet ou \u00e0 titre d\u2019invit\u00e9s \u00e0 des activit\u00e9s du projet);</li>\n<li>Consulter d\u2019autres groupes qui repr\u00e9sentent des CLOSM pour voir si ces groupes pourraient participer au projet; et</li>\n<li>Se rendre dans les CLOSM ou en revenir (les co\u00fbts li\u00e9s \u00e0 ces activit\u00e9s de projet seraient inclus dans le budget du projet).</li>\n</ul>\n\n<p>Si AAC appuie votre projet, votre organisme pourrait devoir l\u2019annoncer publiquement. Dans de tels cas, le Minist\u00e8re demandera que cette annonce soit r\u00e9dig\u00e9e dans les deux langues officielles.</p>\n\n\n<p>Vous \u00eates \u00e9galement encourag\u00e9 \u00e0 remplir la section du formulaire de demande concernant l\u2019auto-identification des CLOSM, afin d\u2019aider AAC \u00e0 recueillir des renseignements sur l\u2019appartenance des demandeurs \u00e0 une CLOSM en vue de mieux adapter les activit\u00e9s de communication \u00e0 l'avenir.</p>\n\n \n      \n<h2 id=\"d\">Plan de travail </h2>\n\n<p>Le plan de travail est tr\u00e8s important  pour l\u2019\u00e9valuation du formulaire de demande.</p>\n\n<p>Remplissez les champs correspondant \u00e0 la <b>date de d\u00e9but</b> et \u00e0 la <b>date de fin</b> du projet propos\u00e9. Veuillez  prendre note que le financement de chaque projet approuv\u00e9 dans le cadre du  volet PME doit porter sur des activit\u00e9s entreprises et achev\u00e9es au cours des  cinq ann\u00e9es du Partenariat canadien pour l\u2019agriculture qui prend fin le  31\u00a0mars\u00a02023. Les co\u00fbts engag\u00e9s avant la <b>date de d\u00e9but</b> ne seront g\u00e9n\u00e9ralement pas rembours\u00e9s.</p>\n\n<p>Dans le plan de travail, indiquez votre  ou vos <b>march\u00e9(s) cible(s) par pays</b>. Vous pouvez choisir parmi 31\u00a0pays. En s\u00e9lectionnant l\u2019option <b>Autre</b>, vous pouvez \u00e9galement ajouter un  autre pays si votre march\u00e9 cible n\u2019appara\u00eet pas dans le menu.</p>\n\n<p>Veuillez pr\u00e9ciser la <b>date de d\u00e9but</b> et la <b>date de fin</b> des travaux ex\u00e9cut\u00e9s dans le cadre du projet pour  chaque pays cit\u00e9.</p>\n<p>Indiquez si le but du <b>type d\u2019activit\u00e9</b> est li\u00e9 \u00e0 la <b>certification</b>. Dans le cas contraire,  choisissez l\u2019option <b>Autre</b>. Si vous  s\u00e9lectionnez <b>Certification</b>, pr\u00e9cisez  le <b>nom du programme</b>, c'est-\u00e0-dire le  nom du programme de certification reconnu. Si vous s\u00e9lectionnez <b>Autre</b>, veuillez donner des d\u00e9tails sur  l\u2019activit\u00e9 propos\u00e9e.</p>\n\n<p>La section suivante est  particuli\u00e8rement importante pour le processus d\u2019\u00e9valuation d\u2019AAC. Vous devrez y  pr\u00e9ciser les <b>r\u00e9sultats attendus</b> du  projet propos\u00e9 et indiquer les <b>mesures de  rendement</b>. Quel objectif souhaitez-vous atteindre dans chaque <b>march\u00e9 cible</b> auquel vous pr\u00e9voyez  acc\u00e9der? Pour montrer les progr\u00e8s r\u00e9alis\u00e9s, chaque <b>r\u00e9sultat attendu</b> doit avoir sa propre <b>mesure de rendement</b> exprim\u00e9e sous forme de valeur num\u00e9rique.</p>\n\n<h2 id=\"e\">Co\u00fbts du projet</h2>\n\n<p>S\u00e9lectionnez l\u2019activit\u00e9/march\u00e9 cible pour laquelle vous devez ajouter les co\u00fbts admissibles.</p>\n\n<p><b>Nom de l\u2019\u00e9l\u00e9ment de co\u00fbt</b></p>\n\n<p>Donnez une br\u00e8ve description du co\u00fbt admissible.</p>\n\n<p><b>Co\u00fbts admissibles</b></p>\n\n<p>Pour ajouter un co\u00fbt admissible, appuyez sur le symbole +.<br>\nPour supprimer un co\u00fbt admissible, appuyez sur le symbole x.<br>\nVous pouvez saisir jusqu\u2019\u00e0 25 \u00e9l\u00e9ments de co\u00fbt admissibles par activit\u00e9/march\u00e9 cible.</p>\n\n<p><b>Description </b></p>\n\n<p>Dans ce champ, d\u00e9crivez l\u2019\u00e9l\u00e9ment de co\u00fbt de mani\u00e8re plus d\u00e9taill\u00e9e. Cette description doit donner un aper\u00e7u de la mani\u00e8re dont le co\u00fbt a \u00e9t\u00e9 calcul\u00e9. L\u2019expression \u00ab\u00a0billets d\u2019avion\u00a0\u00bb est insuffisante; la description doit \u00eatre plus d\u00e9taill\u00e9e\u00a0: par exemple, \u00ab\u00a0Billets d\u2019avion aller-retour de Toronto \u00e0 London pour le Salon des gourmets, 800 $ x 2 personnes.\u00a0\u00bb.</p>\n\n<p><b>Cat\u00e9gorie de co\u00fbt</b></p>\n\n<p>S\u00e9lectionnez la cat\u00e9gorie de co\u00fbt qui correspond \u00e0 l\u2019\u00e9l\u00e9ment.</p>\n\n<h3 id=\"e1\">\u00c9l\u00e9ments de co\u00fbt admissibles</h3>\n\n<p>Remarque\u00a0: Tous les co\u00fbts engag\u00e9s avant le 1<sup>er</sup> avril 2018 ne sont normalement pas admissibles \u00e0 un remboursement. Tous les co\u00fbts engag\u00e9s apr\u00e8s le 31mars 2023 ne sont pas admissibles \u00e0 un remboursement. Les co\u00fbts non admissibles ne peuvent pas \u00eatre pris en compte dans le ratio de partage des co\u00fbts du demandeur.</p>\n\n<p>AAC peut accepter que des co\u00fbts admissibles soient engag\u00e9s apr\u00e8s la r\u00e9ception d\u2019une proposition de financement compl\u00e8te dans le cadre du programme, mais avant la signature d\u2019une entente de contribution (EC), si AAC consid\u00e8re que la mesure est n\u00e9cessaire pour atteindre les objectifs du projet et que les co\u00fbts sont raisonnables et n\u00e9cessaires \u00e0 la r\u00e9alisation des activit\u00e9s admissibles auxquelles ils sont associ\u00e9s. Il est tr\u00e8s important que vous compreniez que dans ce cas, les co\u00fbts ne peuvent \u00eatre rembours\u00e9s que lorsqu\u2019il existe une entente de contribution entre votre organisme et AAC. Vous engagez donc ces co\u00fbts \u00e0 vos propres risques, et AAC n\u2019est pas tenu de les payer.</p>\n\n<p>Le tableau qui suit pr\u00e9sente les co\u00fbts qui peuvent \u00eatre rembours\u00e9s au titre du pr\u00e9sent programme ainsi que les restrictions ou les directives que vous devez respecter pour \u00e9tablir votre budget.</p>\n\n<table class=\"table table-bordered\">\n<caption class=\"text-left\"><b>Salaires et avantages sociaux</b></caption>\n<thead>\n  <tr>\n    <th scope=\"col\" class=\"col-sm-6\">\u00c9l\u00e9ments de co\u00fbt admissibles</th>\n    <th scope=\"col\" class=\"col-sm-6\">Restrictions et consignes</th>\n  </tr>\n  </thead>\n  <tbody>\n  <tr>\n    <td><p>Salaires et avantages sociaux vers\u00e9s aux employ\u00e9s qui m\u00e8nent les activit\u00e9s d\u00e9crites dans le plan de travail du projet ou pay\u00e9s \u00e0 leur compte. Ces co\u00fbts ne comprennent pas les frais li\u00e9s \u00e0 l\u2019\u00e9tablissement des rapports financiers ou des rapports sur le rendement dans le cadre du projet. </p>\n      <ul>\n        <li>Ils comprennent les charges sociales obligatoires de l\u2019employeur, les cotisations d\u2019assurance-emploi, les cotisations au R\u00e9gime de pensions du Canada et au R\u00e9gime de rentes du Qu\u00e9bec, la paye de vacances et les avantages*, etc.</li>\n        <li>Le mot \u00ab\u00a0avantages\u00a0\u00bb renvoie aux paiements qu\u2019un employeur est requis d\u2019effectuer selon les politiques de l\u2019organisation ou une convention collective telle qu\u2019une contribution au r\u00e9gime de pension du groupe.</li>\n      </ul></td>\n    <td><ul>\n<li>Les salaires et avantages  sociaux doivent s\u2019ajouter aux co\u00fbts existants.</li>\n<li>Les contributions applicables  aux salaires et aux avantages ne doivent pas d\u00e9passer 10\u00a0% des co\u00fbts du  projet.</li>\n<li>Les co\u00fbts doivent \u00eatre  justifi\u00e9s par des documents pertinents, comme les feuilles de temps.</li>\n<li>Les salaires au rendement (comme les primes) ne  sont pas admissibles.</li>\n      </ul></td>\n  </tr>\n  </tbody>\n  </table>\n  \n  <table class=\"table table-bordered\">\n<caption class=\"text-left\"><b>Services contractuels</b></caption>\n<thead>\n  <tr>\n    <th scope=\"col\" class=\"col-sm-6\">\u00c9l\u00e9ments de co\u00fbt admissibles</th>\n   <th scope=\"col\" class=\"col-sm-6\">Restrictions et consignes</th>\n  </tr>\n  </thead>\n  <tbody>\n  <tr>\n    <td><p>Services professionnels ou sp\u00e9cialis\u00e9s pour lesquels un march\u00e9 a \u00e9t\u00e9 conclu tels que\u00a0: </p>\n      <ul>\n        <li>les services offerts par des consultants et des experts;</li>\n        <li>les services professionnels, d\u2019interpr\u00e9tation et de traduction;</li>\n        <li>s\u00e9minaires et formations techniques pour les acheteurs, ce qui  comprend le co\u00fbt de la location des salles et de la location d\u2019\u00e9quipement  audiovisuel.</li>\n \n      </ul></td>\n    <td><ul>\n      <li>Un contrat comprenant les  modalit\u00e9s de paiement et les livrables doit avoir \u00e9t\u00e9 conclu avec  l\u2019entrepreneur.</li>\n <li>Vous devez suivre un processus administratif  \u00e9quitable et concurrentiel ou autrement justifiable et g\u00e9n\u00e9ralement reconnu, de  fa\u00e7on \u00e0 garantir que seuls des entrepreneurs comp\u00e9tents et qualifi\u00e9s  travaillent sur le projet.</li>\n<li>AAC ne remboursera pas les frais reli\u00e9s \u00e0 des services de certification rendus par des gouvernements ou organismes f\u00e9d\u00e9raux.</li>\n      </ul></td>\n  </tr>\n  </tbody>\n  </table>\n  \n  \n  <table class=\"table table-bordered\">\n<caption class=\"text-left\"><b>D\u00e9placements</b></caption>\n<thead>\n  <tr>\n    <th scope=\"col\" class=\"col-sm-6\">\u00c9l\u00e9ments de co\u00fbt admissibles</th>\n   <th scope=\"col\" class=\"col-sm-6\">Restrictions et consignes</th>\n  </tr>\n  </thead>\n  <tbody>\n  <tr>\n</tr><tr>\n    <td><p>Frais de d\u00e9placement directement associ\u00e9s au projet tels que :</p>\n<ul>\n <li>les indemnit\u00e9s journali\u00e8res (frais d\u2019h\u00e9bergement, de repas et de transport local et frais accessoires);</li>\n <li>les frais de transport, comme les billets d'avion</li>\n <li>le b\u00e9n\u00e9ficiaire peut r\u00e9clamer les frais de transport a\u00e9rien, ferroviaire et terrestre (vers une destination en dehors de la ville) pour les voyages individuels comme suit :\n  <ul>\n   <li>v\u00e9hicule priv\u00e9 : taux par kilom\u00e8tre (0,55 $ par km) et frais de stationnement au lieu de destination. Le v\u00e9hicule priv\u00e9 ne doit pas \u00eatre utilis\u00e9 si son co\u00fbt est plus \u00e9lev\u00e9 que celui d\u2019un v\u00e9hicule de location ou du transport ferroviaire ou a\u00e9rien;</li>\n   <li>v\u00e9hicule de location : co\u00fbt d\u2019un v\u00e9hicule de taille moyenne (ou co\u00fbt d\u2019un v\u00e9hicule de taille sup\u00e9rieure \u00e0 la taille moyenne pour des motifs li\u00e9s entre autres \u00e0 la s\u00e9curit\u00e9, aux besoins particuliers du voyageur ainsi qu\u2019au volume/poids des biens transport\u00e9s), essence et stationnement \u00e0 destination; et</li>\n   <li>transport a\u00e9rien : tarif de la classe \u00e9conomique uniquement pour tous les d\u00e9placements (pas celui de la classe affaires ou de la premi\u00e8re classe). Les r\u00e9servations doivent \u00eatre effectu\u00e9es le plus \u00e0 l\u2019avance possible. Les co\u00fbts li\u00e9s \u00e0 la s\u00e9lection du si\u00e8ge, hormis ceux qui sont li\u00e9s aux si\u00e8ges surclass\u00e9s, et aux bagages sont admissibles \u00e0 un remboursement. En cas d\u2019achat d\u2019un billet de classe sup\u00e9rieure, vous devrez pr\u00e9senter un justificatif du tarif \u00e9conomique de ce vol pour \u00eatre rembours\u00e9; et</li>\n  </ul>\n </li>\n <li>les frais d\u2019accueil et les co\u00fbts li\u00e9s \u00e0 la consommation d\u2019alcool, aux divertissements et aux cadeaux ne sont pas admissibles.</li>\n</ul></td>\n    <td>\n<ul>    \n <li>Lorsque les frais de d\u00e9placement seront approuv\u00e9s, les demandeurs auront les options suivantes :\n  <ul class=\"lst-lwr-alph\">\n   <li>demander l\u2019indemnit\u00e9 journali\u00e8re \u00e9tablie; ou</li>\n   <li>demander le remboursement des d\u00e9penses r\u00e9elles, dont le montant est inf\u00e9rieur \u00e0 l\u2019indemnit\u00e9</li>\n  </ul>\n </li>\n <li>Les indemnit\u00e9s journali\u00e8res permettront de couvrir les frais quotidiens d\u2019h\u00e9bergement, les d\u00e9placements locaux ou urbains (autobus, taxis, v\u00e9hicules de location, etc.), le transport terrestre, y compris le stationnement, en direction et en provenance du terminal d\u2019un transporteur public, les documents d\u2019entr\u00e9e, y compris les passeports et les visas, les assurances (tous les types), les vaccins, et les frais accessoires (appels t\u00e9l\u00e9phoniques personnels, buanderie, pourboires, etc.) pour les voyages individuels.</li>\n <li>Si l\u2019option a) est retenue, une indemnit\u00e9 journali\u00e8re peut \u00eatre vers\u00e9e pour chaque jour de d\u00e9placement, comme suit :\n  <ul class=\"list-unstyled\">\n   <li><b>D\u00e9placements \u00e0 l\u2019int\u00e9rieur du Canada (CA/jour) :</b>\n    <ul>\n     <li>D\u00e9placement d\u2019une journ\u00e9e sans nuit\u00e9e : 70 $; ou</li>\n     <li>D\u00e9placement avec nuit\u00e9e : 300 $.</li>\n    </ul>\n   </li>\n   <li><b>D\u00e9placements \u00e0 l\u2019ext\u00e9rieur du Canada (CA/jour) :</b>\n    <ul>\n     <li>D\u00e9placement d\u2019une journ\u00e9e sans nuit\u00e9e : 100 $; ou</li>\n     <li>D\u00e9placement avec nuit\u00e9e : 425 $.</li>\n    </ul>\n   </li>\n  </ul>\n </li>\n</ul>  \n    </td>\n  </tr>\n \n  </tbody>\n  </table>\n  \n   <table class=\"table table-bordered\">\n<caption class=\"text-left\"><b>Autres co\u00fbts directs du projet</b></caption>\n<thead>\n  <tr>\n    <th scope=\"col\" class=\"col-sm-6\">\u00c9l\u00e9ments de co\u00fbt admissibles</th>\n   <th scope=\"col\" class=\"col-sm-6\">Restrictions et consignes</th>\n  </tr>\n  </thead>\n  <tbody> \n \n  <tr>\n    <td>Autres co\u00fbts li\u00e9s aux livrables du projet, comme les co\u00fbts de publipostage.</td>\n    <td></td>\n  </tr>\n  </tbody>\n</table>\n\n\n<p>Dans le formulaire de demande, vous devrez remplir les quatre onglets li\u00e9s au budget du projet propos\u00e9\u00a0:</p>\n<ol>\n  <li>\u00e9l\u00e9ments de co\u00fbt admissibles;</li>\n  <li>sources de financement;</li>\n  <li>sommaire des co\u00fbts; et</li>\n  <li>sommaire du budget.</li>\n</ol>\n \n \n<p>Comme indiqu\u00e9 dans le plan de travail, les activit\u00e9s ainsi que les d\u00e9penses qui s\u2019y rattachent doivent \u00eatre r\u00e9alis\u00e9es au cours des cinq ann\u00e9es du Partenariat canadien pour l\u2019agriculture qui prend fin le 31 mars 2023.</p>\n\n<h3 id=\"e2\">Sources de financement</h3>\n \n<p>Veuillez consulter la <a href=\"?id=1517867394365#a1.3\">section 1.3 du Guide du demandeur du Programme Agri-assurance : Volet Petites et moyennes entreprises</a> pour obtenir des renseignements sur le partage des co\u00fbts, les sources de financement et les limites de cumul du financement du gouvernement.</p>\n\n<h2 id=\"f\">Sommaire du budget</h2>\n\n<p>L\u2019onglet Sommaire du budget calcule automatiquement l\u2019ensemble des renseignements financiers que vous avez d\u00e9j\u00e0 entr\u00e9s dans les onglets Co\u00fbts de projet et Sources de financement et vous pr\u00e9sente en continu un aper\u00e7u g\u00e9n\u00e9ral des calculs du budget de votre projet.</p>\n\n<h2 id=\"g\">D\u00e9clarations</h2>\n\n<p><strong>Dettes non rembours\u00e9es au gouvernement du Canada</strong></p>\n\n<p>La personne qui demande des fonds aupr\u00e8s d\u2019AAC doit d\u00e9clarer tous les montants dus au gouvernement du Canada. Tous les montants dus au demandeur dans le cadre de programmes d\u2019AAC peuvent \u00eatre d\u00e9duits des montants dus au gouvernement du Canada en vertu d\u2019une entente ou d\u2019une loi pass\u00e9e avec le gouvernement du Canada.</p>\n\n<p><strong>Activit\u00e9s de lobbying</strong></p>\n\n<p>Le demandeur doit s\u2019assurer que les  personnes faisant du lobbying en son nom sont enregistr\u00e9es et respectent la <cite>Loi sur le lobbying</cite>.</p>\n\n<p>Pour plus de renseignements sur cette loi,  consultez le <a href=\"https://lobbycanada.gc.ca/fr/r%C3%A8gles/la-loi-sur-le-lobbying/\">site Web du commissaire au lobbying du Canada</a>.</p>\n\n<p><strong>Conflit d\u2019int\u00e9r\u00eats</strong></p>\n\n<p>Tous  les fonctionnaires ou titulaires d\u2019une charge publique, actuels ou anciens,  doivent \u00e9viter les situations de conflit d\u2019int\u00e9r\u00eats pendant qu\u2019ils sont \u00e0  l\u2019emploi du gouvernement f\u00e9d\u00e9ral et pendant un certain temps apr\u00e8s leur mandat.  Le demandeur reconna\u00eet qu\u2019aucune personne vis\u00e9e par la <cite>Loi sur les conflits d\u2019int\u00e9r\u00eats</cite>, le <cite>Code de valeurs et d\u2019\u00e9thique de la fonction publique</cite>, le <cite>Code r\u00e9gissant les conflits d\u2019int\u00e9r\u00eats des  d\u00e9put\u00e9s</cite>, tout code f\u00e9d\u00e9ral de valeurs ou d\u2019\u00e9thique applicable ou toute  politique f\u00e9d\u00e9rale sur les conflits d\u2019int\u00e9r\u00eats et l\u2019apr\u00e8s-mandat ne peut  b\u00e9n\u00e9ficier d\u2019un avantage d\u00e9coulant de la pr\u00e9sente demande \u00e0 moins que la  fourniture ou la r\u00e9ception de pareils avantages soit pr\u00e9vue dans ces  dispositions l\u00e9gislatives, politiques et codes.</p>\n\n<p><strong>Consentement \u00e0 l\u2019utilisation et \u00e0 la divulgation de renseignements et droits de reproduction</strong></p>\n\n<p>Les renseignements personnels seront  trait\u00e9s et divulgu\u00e9s conform\u00e9ment \u00e0 la <a href=\"http://laws-lois.justice.gc.ca/fra/lois/P-21/index.html\"><cite>Loi sur la protection des renseignements  personnels</cite></a>. Vous avez le droit de consulter les renseignements  personnels qu\u2019AAC d\u00e9tient \u00e0 votre sujet et de demander que les renseignements  erron\u00e9s soient corrig\u00e9s, en communiquant avec le directeur du Bureau de l\u2019acc\u00e8s  \u00e0 l\u2019information et de la protection des renseignements personnels d\u2019AAC \u00e0  l\u2019adresse <a href=\"mailto:aafc.atip-aiprp.aac@canada.ca\">aafc.atip-aiprp.aac@canada.ca</a>.</p>\n\n<p>Pour en savoir plus sur les pratiques d\u2019AAC  en mati\u00e8re de protection des renseignements personnels, vous pouvez consulter  les fichiers de renseignements personnels intitul\u00e9s \u00ab\u00a0Communications  publiques\u00a0\u00bb (POU\u00a0914) et \u00ab\u00a0Activit\u00e9s de sensibilisation\u00a0\u00bb  (POU\u00a0938).</p>\n\n<p>Les renseignements commerciaux seront  uniquement divulgu\u00e9s conform\u00e9ment \u00e0 la <a href=\"http://www.laws-lois.justice.gc.ca/fra/lois/A-1/\"><cite>Loi sur l\u2019acc\u00e8s \u00e0 l\u2019information</cite></a>.</p>\n\n<p>Il est possible d\u2019obtenir des  renseignements sur la <cite>Loi sur la  protection des renseignements personnels</cite> et la <cite>Loi sur l\u2019acc\u00e8s \u00e0 l\u2019information</cite> sur le site Web suivant\u00a0: <a href=\"http://laws.justice.gc.ca/\">http://laws.justice.gc.ca</a>. Pour obtenir  de plus amples renseignements sur ces lois, veuillez contacter le directeur du  Bureau de l\u2019acc\u00e8s \u00e0 l\u2019information et de la protection des renseignements  personnels \u00e0 l\u2019adresse <a href=\"mailto:aafc.atip-aiprp.aac@canada.ca\">aafc.atip-aiprp.aac@canada.ca</a>.</p>\n\n<p><strong>Autorisation de reproduction</strong></p>\n\n<p>AAC peut divulguer, reproduire et distribuer une partie ou la totalit\u00e9 des documents fournis dans le pr\u00e9sent formulaire ou y \u00e9tant annex\u00e9s, au sein d\u2019AAC et avec les tiers autoris\u00e9s, y compris d\u2019autres minist\u00e8res, aux fins compatibles avec la r\u00e9ception, l\u2019\u00e9valuation et le traitement subs\u00e9quent de la demande.</p>\n\n<h2 id=\"h\">Documents suppl\u00e9mentaires</h2>\n\n<p>En plus du formulaire de demande qui comprend le plan de travail et les budgets, vous devez joindre les documents ci-dessous pour que votre dossier de demande soit complet\u00a0:</p>\n\n<table class=\"table table-bordered\">\n<thead>\n  <tr>\n    <th scope=\"col\">Nom du document</th>\n   <th scope=\"col\">Description</th>\n  </tr>\n  </thead>\n  <tbody>\n  <tr>\n <td>Formulaire des signatures des repr\u00e9sentants d\u00e9sign\u00e9s par le demandeur</td>\n<td>Le ou les repr\u00e9sentants que vous avez d\u00e9sign\u00e9s doivent signer ce formulaire, que vous joindrez au dossier de demande de projet en ligne.</td>\n  </tr>\n  <tr>\n    <td>Consentement \u00e0 l\u2019utilisation et \u00e0 la divulgation de renseignements et droits de reproduction</td>\n    <td>Tous les tiers fournissant des renseignements personnels ou op\u00e9rationnels (leur biographie, par exemple) doivent indiquer leur consentement par \u00e9crit pour que le dossier de demande puisse \u00eatre consid\u00e9r\u00e9 comme complet. </td>\n  </tr>\n  <tr>\n    <td>Copie du certificat de constitution ou des statuts de l\u2019organisme demandeur</td>\n    <td>Les certificats et statuts constitutifs sont \u00e9mis respectivement par le gouvernement provincial, territorial ou f\u00e9d\u00e9ral qui documente le statut du demandeur en tant que personne morale, ou sont d\u00e9pos\u00e9s aupr\u00e8s de ces gouvernements.</td>\n  </tr>\n  <tr>\n    <td>Questionnaire pour les petites et moyennes entreprises</td>\n    <td>Dans ce questionnaire, vous devez d\u00e9montrer avoir \u00e9tabli un plan d'exportation pour le ou les march\u00e9s vis\u00e9s.</td>\n  </tr>\n  </tbody>\n</table>\n\n\n<h2 id=\"i\">Envoi de la demande</h2>\n\n<p>Une fois que vous avez rempli le formulaire et rassembl\u00e9 tous les documents annexes, soumettez votre formulaire de pr\u00e9sentation de projet.</p>\n\n<div class=\"alert alert-info\">\n<p>Si vous avez besoin d\u2019une assistance technique lors du d\u00e9p\u00f4t de votre demande ou \u00e0 tout moment du processus de demande, vous pouvez acc\u00e9der au fichier d\u2019assistance technique en cliquant sur l\u2019ic\u00f4ne qui se trouve sur le formulaire de demande de projet.</p> \n</div>\n\n <p>Pour en savoir plus sur le Programme Agri-assurance  : Volet Petites et moyennes entreprises, veuillez communiquer avec nous aux  coordonn\u00e9es suivantes\u00a0:</p>\n \n<p>T\u00e9l\u00e9phone : 1-877-246-4682<br>\n   ATS/ATM : 613-773-2600</p>\n<p>Courriel : <a href=\"mailto:aafc.assurance.aac@canada.ca\">aafc.assurance.aac@canada.ca</a></p>\n\n <p>Adresse postale :<br>\n   Agriculture et Agroalimentaire Canada<br>\n   Programme Agri-assurance\u00a0: PME<br>\n   Tour 7, 6e \u00e9tage, 215<br>\n   1341 chemin Baseline<br>\n   Ottawa ON\u00a0\u00a0K1A 0C5</p>\n\n<h2 id=\"alt\">Formats de rechange</h2>\n\n<p><a href=\"/fra/?id=1168622342753\">Aide sur les formats de rechange</a></p>\n\n<p><a href=\"https://www.agr.gc.ca/resources/prod/doc/pdf/1517867394365-20180418-fra.pdf\">Programme Agri-assurance : Volet Petites et moyennes entreprises - Annexe A (PDF, 144\u00a0Ko)</a></p>\n\r\n    "
    }
}