{
    "dcr_id": "1519418550645",
    "title": {
        "en": "AgriStability 2021 New and rejoining participant information form",
        "fr": "Agri-stabilit\u00e9 -  Formulaire de renseignements du nouveau participant et du participant r\u00e9inscrit de 2021"
    },
    "modified": "2020-11-26",
    "issued": "2020-07-13",
    "templatetype": "content page 1 column",
    "page_type": "0",
    "node_id": "1594037384895",
    "dc_date_created": "2020-07-13",
    "managing_branch": "PAB",
    "parent_node_id": "",
    "short_title": "",
    "exturl": "",
    "teamsite_location": {
        "en": "/default/main/AAFC-AAC/Internet-Internet/Group-Ensemble/ProgServ-ProgServ/WORKAREA/ProgServ-ProgServ/templatedata/comm-comm/gene-gene/data/06/as_2020_rejoin_application_1519418550645_en",
        "fr": "/default/main/AAFC-AAC/Internet-Internet/Group-Ensemble/ProgServ-ProgServ/WORKAREA/ProgServ-ProgServ/templatedata/comm-comm/gene-gene/data/06/as_2020_rejoin_application_1519418550645_fr"
    },
    "type_name": "comm-comm/gene-gene",
    "has_dcr_id": true,
    "label": {
        "en": "AgriStability 2021 New and rejoining participant information form",
        "fr": "Agri-stabilit\u00e9 -  Formulaire de renseignements du nouveau participant et du participant r\u00e9inscrit de 2021"
    },
    "breadcrumb": {
        "en": "AgriStability 2021 New and rejoining participant information form",
        "fr": "Agri-stabilit\u00e9 -  Formulaire de renseignements du nouveau participant et du participant r\u00e9inscrit de 2021"
    },
    "layout_name": "content page 1 column",
    "lang": "en",
    "refaire": false,
    "meta": {
        "viewport": {
            "en": "width=device-width,initial-scale=1",
            "fr": "width=device-width, initial-scale=1"
        },
        "issued": {
            "en": "2020-07-13",
            "fr": "2020-07-13"
        },
        "modified": {
            "en": "2020-11-26",
            "fr": "2020-11-26"
        },
        "format": {
            "en": "text/html",
            "fr": "text/html"
        },
        "title": {
            "en": "AgriStability 2021 New and rejoining participant information form",
            "fr": "Agri-stabilit\u00e9 -  Formulaire de renseignements du nouveau participant et du participant r\u00e9inscrit de 2021"
        },
        "subject": {
            "en": "potato growers;business risk management;farm income",
            "fr": "industrie des oeufs;r\u00e9colte;protection des v\u00e9g\u00e9taux"
        },
        "dcterms:subject": {
            "en": "statistics;agricultural assistance;programs",
            "fr": "b\u00e2timent;cultures;terre agricole"
        },
        "description": {
            "en": "Please complete, print and send the. PDF form (376 KB). by mail or fax.The HTML version is not an application form.Its purpose is to display the information as found on the form for viewing purposes only. Individual\u2019s last name. Corporation name. Productive animals. Code. Productive animals. Units.",
            "fr": "AgriStability-Agri-stabilite Agri-stabilit\u00e9 Agri-stabilit\u00e9 - Formulaire de renseignements du nouveau participant et du participant r\u00e9inscrit de 2020. NIP Agri-stabilit\u00e9. Nom de l\u2019actionnaire ou du membre. Nombre. 123. Porcs, naissage-finition. Nbre de truies ayant mis bas, ou devant mettre bas."
        },
        "language": {
            "en": "eng",
            "fr": "fra"
        },
        "keywords": {
            "en": "farrow to finish;shareholder is enrolled;spices basket",
            "fr": "quotes-parts doit \u00eatre \u00e9gal;Panier;ensemen\u00e7ables trop mouill\u00e9es"
        },
        "audience": {
            "en": "gcaudience",
            "fr": "gcaudience"
        },
        "type": {
            "en": "administrative page",
            "fr": "avis"
        },
        "creator": {
            "en": "Agriculture and Agri-Food Canada;Government of Canada",
            "fr": "Agriculture et Agroalimentaire Canada;Gouvernement du Canada"
        },
        "spatial": {
            "en": "gcregions",
            "fr": "gcregions"
        },
        "service": {
            "en": "AAFC-AAC",
            "fr": "AAFC-AAC"
        },
        "accessRights": {
            "en": "2",
            "fr": "2"
        },
        "legalName": {
            "en": "agriculture_and_agri_food_canada",
            "fr": "agriculture_et_agroalimentaire_canada"
        },
        "areaServed": {
            "en": "Canada",
            "fr": "Canada"
        }
    },
    "h1": {
        "en": "AgriStability 2021 New and rejoining participant information form",
        "fr": "Agri-stabilit\u00e9 - Formulaire de renseignements du nouveau participant et du participant r\u00e9inscrit de 2021"
    },
    "body": {
        "en": "\r\n     <section class=\"mrgn-tp-lg\" id=\"pdfforms\">\n<div class=\"alert alert-warning\">\n<h4>PDF forms</h4>\n\n<p>If you have problems opening a PDF form in your Internet browser, you need to:</p>\n<ul class=\"mrgn-tp-md mrgn-bttm-lg\">\n <li>Use your computer. <strong>The forms may not open on mobile devices (iPads, tablets, mobile phones)</strong>.</li>\n <li>Make sure you have Adobe Reader 11 (or higher) already installed on your computer. If not, download <a href=\"http://get.adobe.com/reader/otherversions/\" rel=\"external\">Adobe Reader 11 or higher</a> for free. Adobe has help for <a href=\"https://helpx.adobe.com/ca/acrobat/kb/cant-view-pdf-web.html\" rel=\"external\">solving common issues</a>.</li>\n <li>You <strong>must save the file on your computer</strong> in a place you can remember.</li>\n<li>Open the file on your computer using <a href=\"http://get.adobe.com/reader/otherversions/\" rel=\"external\">Adobe Reader 11 or higher</a>.</li>\n<li>If you can\u2019t open the form with Adobe Reader 11 or higher, <a href=\"?id=1374758661655\">contact the program</a>.</li>\n</ul>\n\n\n    <h5 class=\"lead mrgn-bttm-0\">How to download and open a PDF form</h5>\n\n\n<ul class=\"list-unstyled\">\n\n\n\t<li>\n<details class=\"mrgn-tp-sm\">\n    <summary>Microsoft Windows Operating System computers using \u201cInternet Explorer\u201d or \u201cMicrosoft Edge\u201d as your browser</summary>\n    <ol>\n      <li>Right-click on the link you want to save</li>\n      <li>Select \u201cSave target as\u201d or \u201cSave link as\u201d</li>\n      <li>Choose the location on your computer where you would like to save the file</li>\n      <li>Select \u201cSave\u201d</li>\n      <li>Open Adobe Reader 11 or higher</li>\n      <li>Select \u201cFile\u201d</li> \n      <li>Select \u201cOpen\u201d</li>\n      <li>Go to the location where you saved the file</li> \n      <li>Select the PDF file</li>\n      <li>Select \u201cOpen\u201d</li>\n    </ol>\n    </details>\n</li>\n\n<li>\n<details class=\"mrgn-tp-sm\">\n<summary>Microsoft Windows Operating System or Apple computers using \u201cChrome\u201d or Firefox\u201d as your browser</summary>\n    <ol>\n      <li>Right-click on the link you want to save</li>\n      <li>When the option menu appears, choose \"Download link file\" or \"Download link file as\"</li>\n      <li>Choose the location on your computer where you would like to save  the file. Your computer will start the download once you have selected a  location.</li>\n<li>Open Adobe Reader 11 or higher</li>\n      <li>Go to the location where you saved the file</li> \n      <li>Select the PDF file</li>\n      <li>Select \u201cOpen\u201d</li>\n    </ol>\n    </details>\n</li>\n</ul>\n</div>\n</section>\n\n<div class=\"alert alert-info\">\n<p>Please complete, print and send the <a href=\"http://multimedia.agr.gc.ca/pack/pdf/as_2021_part_form-eng.pdf\">PDF form (175\u00a0KB)</a> by mail or fax. </p>\n \n  <div class=\"brdr-bttm mrgn-tp-md mrgn-bttm-md\"></div>\n\n<p><b>The HTML version is not an application form.</b>   Its purpose is to display the information as found on the form for viewing purposes only. If you wish to submit an application form, please use the PDF version. If you cannot access the PDF version or require printed copies of this publication, please contact us at 1-866-367-8506.</p>\n\n</div>\n\n<p>The information on this form is used to calculate your 2021 Enrolment Notice. By completing and submitting this form, you agree to the terms and conditions outlined in the \"Confidential information and participant consent\" section of the <a href=\"?id=1519685699261\">2021 AgriStability Information Guide for New and rejoining participants</a>.</p>\n\n<p>The Privacy Act protects information given on this form which is kept in personal information bank number AAFC PPU 183.</p>\n\n<div class=\"mrgn-tp-lg mrgn-bttm-lg brdr-bttm\"></div>\n<form method=\"get\" action=\"#\" role=\"form\" id=\"print\" class=\"mceVisualAid\">\n<p><b>Protected B when complete</b></p>\n\n<h2>Participant identification</h2>\n<div class=\"form-group\"><label for=\"sec1.nameparta\">First name / Entity name</label> <input maxlength=\"45\" size=\"45\" id=\"sec1.nameparta\" class=\"form-control\" name=\"sec1.nameparta\"> </div>\n<div class=\"form-group\"><label for=\"sec1.namepartb\">Last name</label> <input maxlength=\"45\" size=\"45\" id=\"sec1.namepartb\" class=\"form-control\" name=\"sec1.namepartb\"> </div>\n<div class=\"form-group\"><label for=\"sec1.addpart\">Address</label> <input maxlength=\"45\" size=\"45\" id=\"sec1.addpart\" class=\"form-control\" name=\"sec1.addpart\"> </div>\n<div class=\"form-group\"><label for=\"sec1.townpart\">City / Town</label> <input maxlength=\"45\" size=\"45\" id=\"sec1.townpart\" class=\"form-control\" name=\"sec1.townpart\"> </div>\n<div class=\"form-group\"><label for=\"sec1.provpart\">Province/Territory</label> <input maxlength=\"45\" size=\"45\" id=\"sec1.provpart\" class=\"form-control\" name=\"sec1.provpart\"> </div>\n<div class=\"form-group\"><label for=\"sec1.postpart\">Postal code</label> <input maxlength=\"8\" size=\"8\" id=\"sec1.postpart\" class=\"form-control\" name=\"sec1.postpart\"> </div>\n<div class=\"form-group\"><label for=\"sec1.telpart\">Telephone number</label> <input maxlength=\"20\" id=\"sec1.telpart\" class=\"form-control\" name=\"sec1.telpart\"> </div>\n<div class=\"form-group\"><label for=\"sec1.faxpart\">Fax number</label> <input maxlength=\"20\" id=\"sec1.faxpart\" class=\"form-control\" name=\"sec1.faxpart\"> </div>\n<div class=\"form-group\"><label for=\"sec1.email\">Email address</label> <input maxlength=\"40\" size=\"40\" id=\"sec1.email\" class=\"form-control\" name=\"sec1.email\"> </div>\n\n<div class=\"form-group\"><label for=\"sec1.pin\">Participant Identification Number (PIN)</label> <input maxlength=\"20\" id=\"sec1.pin\" class=\"form-control\" name=\"sec1.pin\"> Note: Provide your PIN if you have been assigned one.</div>\n\n<div class=\"form-group\"><label for=\"sec1.sin\">Social Insurance Number (SIN)</label> <input maxlength=\"20\" id=\"sec1.sin\" class=\"form-control\" name=\"sec1.sin\"> </div>\n\n<div class=\"form-group\"><label for=\"sec1.bus\">Business number</label> <input maxlength=\"20\" id=\"sec1.busin\" class=\"form-control\" name=\"sec1.bus\"> (Provide your 9 digit business number if you have been assigned one. Corporations must also provide the RC reference number.) </div>\n<div class=\"form-group\"><label for=\"sec1.rc\">RC number</label> <input maxlength=\"20\" id=\"sec1.rcin\" class=\"form-control\" name=\"sec1.rc\"></div>\n\n<div class=\"form-group\"><label for=\"sec1.tru\">Trust number</label> <input maxlength=\"20\" id=\"sec1.tru\" class=\"form-control\" name=\"sec1.tru\"> </div>\n<fieldset>\n<legend>Farm type</legend>\n<div class=\"checkbox\"><label id=\"p1.ind\"><input value=\"on\" type=\"checkbox\" title=\"individual\" name=\"p1.ind\"> individual </label></div>\n<div class=\"checkbox\"><label id=\"p1.ltd\"><input value=\"on\" type=\"checkbox\" title=\"limited\" name=\"p1.ltd\"> limited partnership </label></div>\n<div class=\"checkbox\"><label id=\"p1.corp\"><input value=\"on\" type=\"checkbox\" title=\"corporation\" name=\"p1.corp\"> corporation </label></div>\n\n<div class=\"checkbox\"><label id=\"p1.trust\"><input value=\"on\" type=\"checkbox\" title=\"trust\" name=\"p1.trust\"> trust </label></div>\n\n<div class=\"checkbox\"><label id=\"p1.Coop\"><input value=\"on\" type=\"checkbox\" title=\"cooperative\" name=\"p1.coop\"> co-operative </label></div>\n\n<div class=\"checkbox\"><label id=\"p1.reser\"><input value=\"on\" type=\"checkbox\" title=\"Status Indian farming on reserve\" name=\"p1.reser\"> Status Indian farming on a reserve </label></div>\n\n<div class=\"checkbox\"><label id=\"p1.commun\"><input value=\"on\" type=\"checkbox\" title=\"communal organization\" name=\"p1.commun\"> communal organization </label></div>\n\n<div class=\"form-inline\">\n<div class=\"checkbox\"><label id=\"p1.bfarm\"><input value=\"on\" type=\"checkbox\" title=\"Band farm\" name=\"p1.bfarm\"> Band farm </label>\n<div class=\"form-group\"><label for=\"sec1.bnum\">Band number:</label> <input maxlength=\"4\" size=\"4\" id=\"sec1.bnum\" class=\"form-control\" name=\"sec1.bnum\"> </div>\n</div>\n</div>\n<div class=\"checkbox\"><label id=\"p1.part\"><input value=\"on\" type=\"checkbox\" title=\"member of a partnership\" name=\"p1.part\"> member of a partnership </label></div>\n</fieldset>\n\n<div class=\"form-group\"><label for=\"p1.pt\">Province/Territory of main farmstead:</label> <input maxlength=\"6\" size=\"6\" id=\"p1.pt\" class=\"form-control\" name=\"p1.pt\"> </div>\n\n<div class=\"form-group\"><label for=\"sec1.dcmn\">District/County/Municipality number </label><input maxlength=\"20\" id=\"sec1.dcmn\" class=\"form-control\" name=\"sec1.dcmn\"> </div>\n\n<div class=\"form-group\"><label for=\"sec1.dcma\">District/County/Municipality name:</label> <input maxlength=\"60\" size=\"60\" id=\"sec1.dcma\" class=\"form-control\" name=\"sec1.dcma\"> </div>\n<fieldset><legend>Language of preference</legend><label class=\"radio-inline\"><input value=\"on\" type=\"radio\" name=\"optradio\"> English</label> <label class=\"radio-inline\"><input value=\"on\" type=\"radio\" name=\"optradio\"> French</label> </fieldset>\n\n<div>\n<h2>Partnership information (if applicable)</h2>\n<div class=\"row mrgn-lft-sm mrgn-rght-sm\">\n<div class=\"col-sm-7\">Enter the Participant Identification Number (PIN) for each of your partners. Enter the first and last names for individual partners. Enter the corporation\u2019s name for corporate partners. Your partnership\u2019s total shares must equal 100%.</div>\n<div class=\"col-sm-5\">\n<p class=\"mrgn-tp-md\"><label for=\"prtsh\">\nYour % share of the partnership   <input maxlength=\"3\" size=\"5\" id=\"prtsh\" class=\"form-inline\" name=\"prtsh\"> </label></p>\n</div>\n</div>\n</div>\n<div></div>\n<table class=\"table table-bordered\">\n<caption class=\"hidden\">Partnership information</caption><thead>\n<tr class=\"active\">\n<th scope=\"col\" class=\"text-center\">AgriStability<br>PIN</th><th scope=\"col\" class=\"text-center\">Individual\u2019s<br>first name</th><th scope=\"col\" class=\"text-center\">Individual\u2019s<br>last name</th><th scope=\"col\" class=\"text-center\">Corporation<br>name</th><th scope=\"col\" class=\"text-center\">% Share</th>\n</tr>\n</thead>\n<tbody>\n<tr>\n<td>\n<div class=\"form-group\"><label for=\"sec2.pin1\"><span class=\"hidden\">AgriStability PIN 1</span></label> <input maxlength=\"10\" size=\"10\" id=\"sec2.pin1\" class=\"form-control\" name=\"sec2.pin1\"></div>\n</td>\n<td>\n<div class=\"form-group\"><label for=\"sec2.name1\"><span class=\"hidden\">Individual\u2019s first name</span></label> <input maxlength=\"20\" id=\"sec2.name1\" class=\"form-control\" name=\"sec2.name1\"></div>\n</td>\n<td>\n<div class=\"form-group\"><label for=\"sec2.name2\"><span class=\"hidden\">Individual\u2019s last name</span></label> <input maxlength=\"25\" size=\"25\" id=\"sec2.name2\" class=\"form-control\" name=\"sec2.name2\"></div>\n</td>\n<td>\n<div class=\"form-group\"><label for=\"sec2.cname1\"><span class=\"hidden\">Corporation name</span></label> <input maxlength=\"25\" size=\"25\" id=\"sec2.cname1\" class=\"form-control\" name=\"sec2.cname1\"></div>\n</td>\n<td>\n<div class=\"form-group\"><label for=\"sec2.pcent1\"><span class=\"hidden\">Per cent share</span></label> <input size=\"5\" id=\"sec2.pcent1\" class=\"form-control\" name=\"sec2.pcent1\"></div>\n</td>\n</tr>\n<tr>\n<td>\n<div class=\"form-group\"><label for=\"sec2.pin2\"><span class=\"hidden\">AgriStability PIN 2</span></label> <input maxlength=\"10\" size=\"10\" id=\"sec2.pin2\" class=\"form-control\" name=\"sec2.pin2\"></div>\n</td>\n<td>\n<div class=\"form-group\"><label for=\"sec2.name11\"><span class=\"hidden\">Individual\u2019s first name</span></label> <input maxlength=\"20\" id=\"sec2.name11\" class=\"form-control\" name=\"sec2.name11\"></div>\n</td>\n<td>\n<div class=\"form-group\"><label for=\"sec2.name12\"><span class=\"hidden\">Individual\u2019s last name</span></label> <input maxlength=\"25\" size=\"25\" id=\"sec2.name12\" class=\"form-control\" name=\"sec2.name12\"></div>\n</td>\n<td>\n<div class=\"form-group\"><label for=\"sec2.cname12\"><span class=\"hidden\">Corporation name</span></label> <input maxlength=\"25\" size=\"25\" id=\"sec2.cname12\" class=\"form-control\" name=\"sec2.cname12\"></div>\n</td>\n<td>\n<div class=\"form-group\"><label for=\"sec2.pcent2\"><span class=\"hidden\">Per cent share</span></label> <input size=\"5\" id=\"sec2.pcent2\" class=\"form-control\" name=\"sec2.pcent2\"></div>\n</td>\n</tr>\n<tr>\n<td>\n<div class=\"form-group\"><label for=\"sec2.pin3\"><span class=\"hidden\">AgriStability PIN 3</span></label> <input maxlength=\"10\" size=\"10\" id=\"sec2.pin3\" class=\"form-control\" name=\"sec2.pin3\"></div>\n</td>\n<td>\n<div class=\"form-group\"><label for=\"sec2.name111\"><span class=\"hidden\">Individual\u2019s first name</span></label> <input maxlength=\"20\" size=\"20\" id=\"sec2.name111\" class=\"form-control\" name=\"sec2.name111\"></div>\n</td>\n<td>\n<div class=\"form-group\"><label for=\"sec2.name121\"><span class=\"hidden\">Individual\u2019s last name</span></label> <input maxlength=\"25\" size=\"25\" id=\"sec2.name121\" class=\"form-control\" name=\"sec2.name121\"></div>\n</td>\n<td>\n<div class=\"form-group\"><label for=\"sec2.cname121\"><span class=\"hidden\">Corporation name</span></label> <input maxlength=\"25\" size=\"25\" id=\"sec2.cname121\" class=\"form-control\" name=\"sec2.cname121\"></div>\n</td>\n<td>\n<div class=\"form-group\"><label for=\"sec2.pcent3\"><span class=\"hidden\">Per cent share</span></label> <input maxlength=\"5\" size=\"5\" id=\"sec2.pcent3\" class=\"form-control\" name=\"sec2.pcent3\"></div>\n</td>\n</tr>\n<tr>\n<td>\n<div class=\"form-group\"><label for=\"sec2.pin4\"><span class=\"hidden\">AgriStability PIN 4</span></label> <input maxlength=\"10\" size=\"10\" id=\"sec2.pin4\" class=\"form-control\" name=\"sec2.pin4\"></div>\n</td>\n<td>\n<div class=\"form-group\"><label for=\"sec2.name1111\"><span class=\"hidden\">Individual\u2019s first name</span></label> <input maxlength=\"20\" size=\"20\" id=\"sec2.name1111\" class=\"form-control\" name=\"sec2.name1111\"></div>\n</td>\n<td>\n<div class=\"form-group\"><label for=\"sec2.name1212\"><span class=\"hidden\">Individual\u2019s last name</span></label> <input maxlength=\"25\" size=\"25\" id=\"sec2.name1212\" class=\"form-control\" name=\"sec2.name1212\"></div>\n</td>\n<td>\n<div class=\"form-group\"><label for=\"sec2.cname1212\"><span class=\"hidden\">Corporation name</span></label> <input maxlength=\"25\" size=\"25\" id=\"sec2.cname1212\" class=\"form-control\" name=\"sec2.cname1212\"></div>\n</td>\n<td>\n<div class=\"form-group\"><label for=\"sec2.pcent4\"><span class=\"hidden\">Per cent share</span></label> <input maxlength=\"5\" size=\"5\" id=\"sec2.pcent4\" class=\"form-control\" name=\"sec2.pcent4\"></div>\n</td>\n</tr>\n</tbody>\n</table>\n\n<h2>Corporation information (if applicable)</h2>\n\n<p>Enter the name and PIN of shareholders who have controlling interest in the corporation. Check the box if the shareholder is enrolled in AgriStability as an individual for the 2020 program year and has transferred land or inventory to the corporation under Section 85 of the Income Tax Act to the corporation for the 2021 program year. Submit a copy of the signed document showing that a legal transfer to the corporation has taken place.</p>\n\n<table class=\"table table-bordered\">\n<caption class=\"hidden\">Corporation information</caption><thead>\n<tr class=\"active\">\n<th scope=\"col\" class=\"text-center col-sm-5\">Name of shareholder/member</th><th scope=\"col\" class=\"text-center col-sm-4\">Transferred property to the corporation</th><th scope=\"col\" class=\"text-center\">AgriStability PIN</th>\n</tr>\n</thead>\n<tbody>\n<tr>\n<td>\n<div class=\"form-group\"><label for=\"sec3.name1\"><span class=\"hidden\">Individual\u2019s name</span></label> <input maxlength=\"45\" size=\"45\" id=\"sec3.name1\" class=\"form-control\" name=\"sec3.name1\"></div>\n</td>\n<td class=\"text-center\">\n<div class=\"form-group mrgn-tp-lg\"><label for=\"sec3.name2\"><span class=\"hidden\">Transferred property</span></label><input size=\"5\" type=\"checkbox\" id=\"sec3.name2\" name=\"sec3.name2\"></div>\n</td>\n<td>\n<div class=\"form-group\"><label for=\"sec3.pin1\"><span class=\"hidden\">AgriStability PIN 1</span></label> <input maxlength=\"10\" size=\"10\" id=\"sec3.pin1\" class=\"form-control\" name=\"sec3.pin1\"></div>\n</td>\n</tr>\n<tr>\n<td>\n<div class=\"form-group\"><label for=\"sec3.name11\"><span class=\"hidden\">Individual\u2019s name</span></label> <input maxlength=\"45\" size=\"45\" id=\"sec3.name11\" class=\"form-control\" name=\"sec3.name11\"></div>\n</td>\n<td class=\"text-center\">\n<div class=\"form-group mrgn-tp-lg\"><label for=\"sec3.name12\"><span class=\"hidden\">Transferred property </span></label><input size=\"5\" type=\"checkbox\" id=\"sec3.name12\" name=\"sec3.name12\"></div>\n</td>\n<td>\n<div class=\"form-group\"><label for=\"sec3.pin2\"><span class=\"hidden\">AgriStability PIN 2</span></label> <input maxlength=\"10\" size=\"10\" id=\"sec3.pin2\" class=\"form-control\" name=\"sec3.pin2\"></div>\n</td>\n</tr>\n<tr>\n<td>\n<div class=\"form-group\"><label for=\"sec3.name111\"><span class=\"hidden\">Individual\u2019s name</span></label> <input maxlength=\"45\" size=\"45\" id=\"sec3.name111\" class=\"form-control\" name=\"sec3.name111\"></div>\n</td>\n<td class=\"text-center\">\n<div class=\"form-group mrgn-tp-lg\"><label for=\"sec3.name121\"><span class=\"hidden\">Transferred property</span></label> <input size=\"5\" type=\"checkbox\" id=\"sec3.name121\" name=\"sec3.name121\"></div>\n</td>\n<td>\n<div class=\"form-group\"><label for=\"sec3.pin3\"><span class=\"hidden\">AgriStability PIN 3</span></label> <input maxlength=\"10\" size=\"10\" id=\"sec3.pin3\" class=\"form-control\" name=\"sec3.pin3\"></div>\n</td>\n</tr>\n<tr>\n<td>\n<div class=\"form-group\"><label for=\"sec3.name1111\"><span class=\"hidden\">Individual\u2019s name</span></label> <input maxlength=\"45\" size=\"45\" id=\"sec3.name1111\" class=\"form-control\" name=\"sec3.name1111\"></div>\n</td>\n<td class=\"text-center\">\n<div class=\"form-group mrgn-tp-lg\"><label for=\"sec3.name1212\"><span class=\"hidden\">Transferred property</span></label> <input size=\"5\" type=\"checkbox\" id=\"sec3.name1212\" name=\"sec3.name1212\"></div>\n</td>\n<td>\n<div class=\"form-group\"><label for=\"sec3.pin4\"><span class=\"hidden\">AgriStability PIN 4</span></label> <input maxlength=\"10\" size=\"10\" id=\"sec3.pin4\" class=\"form-control\" name=\"sec3.pin4\"></div>\n</td>\n</tr>\n</tbody>\n</table>\n<h2>2021 Productive units for new and rejoining participants</h2>\n<div class=\"form-inline\">\n<p><label for=\"op1\">Operation <input maxlength=\"3\" size=\"4\" id=\"op1\" class=\"form-control\" name=\"op1\"> </label> of <input maxlength=\"3\" size=\"4\" id=\"op2\" class=\"form-control\" name=\"op2\"> </p>\n</div>\n\n<h3>Fiscal period</h3>\n\n<p><b>From</b></p>\n<div class=\"form-inline\">\n<div class=\"form-group\"><label for=\"p1.year1\">Year:</label> <input maxlength=\"4\" size=\"4\" id=\"p1.year1\" class=\"form-control\" name=\"p1.year1\"> </div>\n<div class=\"form-group\"><label for=\"p1.mon1\">Month:</label> <input maxlength=\"8\" size=\"8\" id=\"p1.mon1\" class=\"form-control\" name=\"p1.mon1\"> </div>\n<div class=\"form-group\"><label for=\"p1.day1\">Day:</label> <input maxlength=\"2\" size=\"2\" id=\"p1.day1\" class=\"form-control\" name=\"p1.day1\"> </div>\n</div>\n<p><b>To</b></p>\n\n<div class=\"form-inline\">\n<div class=\"form-group mrgn-rght-md\"><b>Year:</b> 2021</div>\n<div class=\"form-group\"><label for=\"p2.mon1\">Month:</label> <input maxlength=\"8\" size=\"8\" id=\"p2.mon1\" class=\"form-control\" name=\"p2.mon1\"> </div>\n<div class=\"form-group\"><label for=\"p2.day1\">Day:</label> <input maxlength=\"2\" size=\"2\" id=\"p2.day1\" class=\"form-control\" name=\"p2.day1\"> </div>\n</div>\n\n<div class=\"clearfix\"></div>\n<p class=\"mrgn-tp-lg\">If you are a partner in a partnership, report 100% of the partnership\u2019s productive capacity or expected productive capacity in the categories below. We will apply your partnership percentage.</p>\n\n<h2>2021 Crop productive capacity</h2>\n\n<table class=\"table table-bordered\">\n<caption class=\"hidden\">Crop productive capacity</caption><thead>\n<tr class=\"active\">\n<th scope=\"col\" class=\"text-center\">Code</th>\n<th scope=\"col\" class=\"text-center\">Description</th>\n<th scope=\"col\" class=\"text-center\">Acres</th>\n<th scope=\"col\" class=\"text-center\">Unseedable acres<br>(too wet or too dry to seed)</th>\n</tr>\n</thead>\n<tbody>\n<tr>\n<td>1</td>\n<td>Crop basket (excluding organic)</td>\n<td>\n<div class=\"form-group\"><label for=\"sec3.cb1a\"><span class=\"hidden\">Code 1 acres</span></label> <input maxlength=\"20\" id=\"sec3.cb1a\" class=\"form-control\" name=\"sec3.cb1a\"></div>\n</td>\n<td>\n<div class=\"form-group mrgn-bttm-0\"><label for=\"sec3.cb1b\"><span class=\"hidden\">Code 1 unseedable</span></label> <input maxlength=\"20\" id=\"sec3.cb1b\" class=\"form-control\" name=\"sec3.cb1b\"></div>\n</td>\n</tr>\n<tr>\n<td>2</td>\n<td>Forage basket</td>\n<td>\n<div class=\"form-group\"><label for=\"sec3.fb2a\"><span class=\"hidden\">Code 2 acres</span></label> <input maxlength=\"20\" id=\"sec3.fb2a\" class=\"form-control\" name=\"sec3.fb2a\"></div>\n</td>\n<td>\n<div class=\"form-group\"><label for=\"sec3.fb2b\"><span class=\"hidden\">Code 2 unseedable</span></label> <input maxlength=\"20\" id=\"sec3.fb2b\" class=\"form-control\" name=\"sec3.fb2b\"></div>\n</td>\n</tr>\n<tr>\n<td>3</td>\n<td>Vegetable basket</td>\n<td>\n<div class=\"form-group\"><label for=\"sec3.vb1a\"><span class=\"hidden\">Code 3 acres</span></label> <input maxlength=\"20\" id=\"sec3.vb1a\" class=\"form-control\" name=\"sec3.vb1a\"></div>\n</td>\n<td>\n<div class=\"form-group\"><label for=\"sec3.vb1b\"><span class=\"hidden\">Code 3 unseedable</span></label> <input maxlength=\"20\" id=\"sec3.vb1b\" class=\"form-control\" name=\"sec3.vb1b\"></div>\n</td>\n</tr>\n<tr>\n<td>4</td>\n<td>Forage seed basket</td>\n<td>\n<div class=\"form-group\"><label for=\"sec4.fsb1a\"><span class=\"hidden\">Code 3 acres</span></label> <input maxlength=\"20\" id=\"sec4.fsb1a\" class=\"form-control\" name=\"sec4.fsb1a\"></div>\n</td>\n<td>\n<div class=\"form-group\"><label for=\"sec4.fsb1b\"><span class=\"hidden\">Code 4 unseedable</span></label> <input maxlength=\"20\" id=\"sec4.fsb1b\" class=\"form-control\" name=\"sec4.fsb1b\"></div>\n</td>\n</tr>\n<tr>\n<td>6</td>\n<td>Organic crop basket</td>\n<td>\n<div class=\"form-group\"><label for=\"sec4.ocb1a\"><span class=\"hidden\">Code 6 acres</span></label> <input maxlength=\"20\" id=\"sec4.ocb1a\" class=\"form-control\" name=\"sec4.ocb1a\"></div>\n</td>\n<td>\n<div class=\"form-group\"><label for=\"sec4.ocb1b\"><span class=\"hidden\">Code 6 unseedable</span></label> <input maxlength=\"20\" id=\"sec4.ocb1b\" class=\"form-control\" name=\"sec4.ocb1b\"></div>\n</td>\n</tr>\n<tr>\n<td>9</td>\n<td>Herbs and spices basket</td>\n<td>\n<div class=\"form-group\"><label for=\"sec4.hsb1a\"><span class=\"hidden\">Code 9 acres</span></label> <input maxlength=\"20\" id=\"sec4.hsb1a\" class=\"form-control\" name=\"sec4.hsb1a\"></div>\n</td>\n<td>\n<div class=\"form-group\"><label for=\"sec4.hsb1b\"><span class=\"hidden\">Code 9 unseedable</span></label> <input maxlength=\"20\" id=\"sec4.hsb1b\" class=\"form-control\" name=\"sec4.hsb1b\"></div>\n</td>\n</tr>\n</tbody>\n</table>\n<table class=\"table table-bordered\">\n<caption class=\"hidden\">2021 other crops</caption><thead>\n<tr class=\"active\">\n<th scope=\"col\" class=\"text-center\">Code</th><th scope=\"col\" class=\"text-center\">Other crops (specify)</th><th scope=\"col\" class=\"text-center\">Acres</th><th scope=\"col\" class=\"text-center\">Unseedable acres<br>(too wet or too dry to seed)</th>\n</tr>\n</thead>\n<tbody>\n<tr>\n<td>\n<div class=\"form-group\"><label for=\"sec4.oc1a\"><span class=\"hidden\">Code</span></label> <input size=\"4\" id=\"sec4.oc1a\" class=\"form-control\" name=\"sec4.oc1a\"></div>\n</td>\n<td>\n<div class=\"form-group\"><label for=\"sec4.oc1b\"><span class=\"hidden\">Other crops 1</span></label> <input size=\"30\" id=\"sec4.oc1b\" class=\"form-control\" name=\"sec4.oc1b\"></div>\n</td>\n<td>\n<div class=\"form-group\"><label for=\"sec4.oc1c\"><span class=\"hidden\">Acres 1</span></label> <input maxlength=\"10\" id=\"sec4.oc1c\" class=\"form-control\" name=\"sec4.oc1c\"></div>\n</td>\n<td>\n<div class=\"form-group\"><label for=\"sec4.oc1d\"><span class=\"hidden\">Unseedable 1</span></label> <input maxlength=\"20\" id=\"sec4.oc1d\" class=\"form-control\" name=\"sec4.oc1d\"></div>\n</td>\n</tr>\n<tr>\n<td>\n<div class=\"form-group\"><label for=\"sec4.oc2a\"><span class=\"hidden\">Code</span></label> <input size=\"4\" id=\"sec4.oc2a\" class=\"form-control\" name=\"sec4.oc2a\"></div>\n</td>\n<td>\n<div class=\"form-group\"><label for=\"sec4.oc2b\"><span class=\"hidden\">Other crops 1</span></label> <input size=\"30\" id=\"sec4.oc2b\" class=\"form-control\" name=\"sec4.oc2b\"></div>\n</td>\n<td>\n<div class=\"form-group\"><label for=\"sec4.oc2c\"><span class=\"hidden\">Acres 1</span></label> <input maxlength=\"10\" id=\"sec4.oc2c\" class=\"form-control\" name=\"sec4.oc2c\"></div>\n</td>\n<td>\n<div class=\"form-group\"><label for=\"sec4.oc2d\"><span class=\"hidden\">Unseedable 1</span></label> <input maxlength=\"20\" id=\"sec4.oc2d\" class=\"form-control\" name=\"sec4.oc2d\"></div>\n</td>\n</tr>\n<tr>\n<td>\n<div class=\"form-group\"><label for=\"sec4.oc3a\"><span class=\"hidden\">Code</span></label> <input size=\"4\" id=\"sec4.oc3a\" class=\"form-control\" name=\"sec4.oc3a\"></div>\n</td>\n<td>\n<div class=\"form-group\"><label for=\"sec4.oc3b\"><span class=\"hidden\">Other crops 1</span></label> <input size=\"30\" id=\"sec4.oc3b\" class=\"form-control\" name=\"sec4.oc3b\"></div>\n</td>\n<td>\n<div class=\"form-group\"><label for=\"sec4.oc3c\"><span class=\"hidden\">Acres 1</span></label> <input maxlength=\"10\" id=\"sec4.oc3c\" class=\"form-control\" name=\"sec4.oc3c\"></div>\n</td>\n<td>\n<div class=\"form-group\"><label for=\"sec4.oc3d\"><span class=\"hidden\">Unseedable 1</span></label> <input maxlength=\"10\" id=\"sec4.oc3d\" class=\"form-control\" name=\"sec4.oc3d\"></div>\n</td>\n</tr>\n<tr>\n<td>\n<div class=\"form-group\"><label for=\"sec4.oc4a\"><span class=\"hidden\">Code</span></label> <input size=\"4\" id=\"sec4.oc4a\" class=\"form-control\" name=\"sec4.oc4a\"></div>\n</td>\n<td>\n<div class=\"form-group\"><label for=\"sec4.oc4b\"><span class=\"hidden\">Other crops 1</span></label> <input size=\"30\" id=\"sec4.oc4b\" class=\"form-control\" name=\"sec4.oc4b\"></div>\n</td>\n<td>\n<div class=\"form-group\"><label for=\"sec4.oc4c\"><span class=\"hidden\">Acres 1</span></label> <input maxlength=\"10\" id=\"sec4.oc4c\" class=\"form-control\" name=\"sec4.oc4c\"></div>\n</td>\n<td>\n<div class=\"form-group\"><label for=\"sec4.oc4d\"><span class=\"hidden\">Unseedable 1</span></label> <input maxlength=\"10\" id=\"sec4.oc4d\" class=\"form-control\" name=\"sec4.oc4d\"></div>\n</td>\n</tr>\n</tbody>\n</table>\n<table class=\"table table-bordered\">\n<caption class=\"hidden\">2021 Other acres</caption><thead>\n<tr class=\"active\">\n<th scope=\"col\" class=\"text-center\">Code</th>\n<th scope=\"col\" class=\"text-center\">Other acres</th>\n<th scope=\"col\" class=\"text-center\">Acres</th>\n</tr>\n</thead>\n<tbody>\n<tr>\n<td>17</td>\n<td>Summerfallow acres</td>\n<td>\n<div class=\"form-group\"><label for=\"sec5.sa1\"><span class=\"hidden\">Code 1 acres</span></label> <input size=\"4\" id=\"sec5.sa1\" class=\"form-control\" name=\"sec5.sa1\"></div>\n</td>\n</tr>\n<tr>\n<td>18</td>\n<td>Pasture acres</td>\n<td>\n<div class=\"form-group\"><label for=\"sec5.pa1\"><span class=\"hidden\">Code 2 acres</span></label> <input size=\"4\" id=\"sec5.pa1\" class=\"form-control\" name=\"sec5.pa1\"></div>\n</td>\n</tr>\n<tr>\n<td>19</td>\n<td>Wasteland acres</td>\n<td>\n<div class=\"form-group\"><label for=\"sec5.wa1\"><span class=\"hidden\">Code 3 acres</span></label> <input size=\"4\" id=\"sec5.wa1\" class=\"form-control\" name=\"sec5.wa1\"></div>\n</td>\n</tr>\n</tbody>\n</table>\n<h2>2021 Livestock productive capacity</h2>\n<table class=\"table table-bordered\">\n<caption class=\"hidden\">Productive animals</caption><thead>\n<tr class=\"active\">\n<th scope=\"col\" class=\"text-center\">Code</th>\n<th scope=\"col\" class=\"text-center\">Productive animals</th>\n<th scope=\"col\" class=\"text-center\">Units</th>\n<th scope=\"col\" class=\"text-center\">2021</th>\n</tr>\n</thead>\n<tbody>\n<tr>\n<td>104</td>\n<td>Cattle</td>\n<td>Number of cows that calved or you expect to calve</td>\n<td>\n<div class=\"form-group\"><label for=\"sec6.num1\"><span class=\"hidden\">Number</span></label> <input maxlength=\"10\" id=\"sec6.num1\" class=\"form-control\" name=\"sec6.num1\"></div>\n</td>\n</tr>\n<tr>\n<td>123</td>\n<td>Hogs, farrow to finish</td>\n<td>Number of sows that farrowed or you expect to farrow</td>\n<td>\n<div class=\"form-group\"><label for=\"sec6.num2\"><span class=\"hidden\">Number</span></label> <input maxlength=\"10\" id=\"sec6.num2\" class=\"form-control\" name=\"sec6.num2\"></div>\n</td>\n</tr>\n<tr>\n<td>145</td>\n<td>Hogs, farrowing</td>\n<td>Number of sows that farrowed or you expect to farrow</td>\n<td>\n<div class=\"form-group\"><label for=\"sec6.num3\"><span class=\"hidden\">Number</span></label> <input maxlength=\"10\" id=\"sec6.num3\" class=\"form-control\" name=\"sec6.num3\"></div>\n</td>\n</tr>\n</tbody>\n</table>\n\n<table class=\"table table-bordered\">\n<caption class=\"hidden\">Feeder livestock</caption><thead>\n<tr class=\"active\">\n<th scope=\"col\" class=\"text-center\">Code</th>\n<th scope=\"col\" class=\"text-center\">Feeder livestock</th>\n<th scope=\"col\" class=\"text-center\">Units</th>\n<th scope=\"col\" class=\"text-center\">2021</th>\n</tr>\n</thead>\n<tbody>\n<tr>\n<td>105</td>\n<td>Feeder cattle (fed up to 900 lbs)</td>\n<td>Number of animals you fed or expect to feed</td>\n<td>\n<div class=\"form-group\"><label for=\"sec7.num1\"><span class=\"hidden\">Number</span></label> <input maxlength=\"20\" id=\"sec7.num1\" class=\"form-control\" name=\"sec7.num1\"></div>\n</td>\n</tr>\n<tr>\n<td>106</td>\n<td>Finished cattle (fed over 900 lbs)</td>\n<td>Number of animals you fed or expect to feed</td>\n<td>\n<div class=\"form-group\"><label for=\"sec7.num2\"><span class=\"hidden\">Number</span></label> <input maxlength=\"20\" id=\"sec7.num2\" class=\"form-control\" name=\"sec7.num2\"></div>\n</td>\n</tr>\n<tr>\n<td>125</td>\n<td>Hogs, nursery (fed up to 50 lbs)</td>\n<td>Number of animals you fed or expect to feed</td>\n<td>\n<div class=\"form-group\"><label for=\"sec7.num3\"><span class=\"hidden\">Number</span></label> <input maxlength=\"20\" id=\"sec7.num3\" class=\"form-control\" name=\"sec7.num3\"></div>\n</td>\n</tr>\n<tr>\n<td>124</td>\n<td>Hogs, feeders (fed over 50 lbs)</td>\n<td>Number of animals you fed or expect to feed</td>\n<td>\n<div class=\"form-group\"><label for=\"sec7.num4\"><span class=\"hidden\">Number</span></label> <input maxlength=\"20\" id=\"sec7.num4\" class=\"form-control\" name=\"sec7.num4\"></div>\n</td>\n</tr>\n</tbody>\n</table>\n<table class=\"table table-bordered\">\n<caption class=\"hidden\">Custom fed livestock</caption><thead>\n<tr class=\"active\">\n<th scope=\"col\" class=\"text-center\">Code</th>\n<th scope=\"col\" class=\"text-center\">Custom fed livestock</th>\n<th scope=\"col\" class=\"text-center\">Units</th>\n<th scope=\"col\" class=\"text-center\">2021</th>\n</tr>\n</thead>\n<tbody>\n<tr>\n<td>141</td>\n<td>Custom fed cattle</td>\n<td>Number of animal feed days</td>\n<td>\n<div class=\"form-group\"><label for=\"sec8.num1\"><span class=\"hidden\">Number</span></label> <input maxlength=\"20\" id=\"sec8.num1\" class=\"form-control\" name=\"sec8.num1\"></div>\n</td>\n</tr>\n\n<tr>\n<td>142</td>\n<td>Custom fed hogs</td>\n<td>Number of animal feed days</td>\n<td>\n<div class=\"form-group\"><label for=\"sec8.num2\"><span class=\"hidden\">Number</span></label> <input maxlength=\"20\" id=\"sec8.num2\" class=\"form-control\" name=\"sec8.num2\"></div>\n</td>\n</tr>\n</tbody>\n</table>\n\n<table class=\"table table-bordered\">\n<caption class=\"hidden\">Supply managed commodities</caption><thead>\n<tr class=\"active\">\n<th scope=\"col\" class=\"text-center\">Code</th>\n<th scope=\"col\" class=\"text-center\">Supply managed commodities</th>\n<th scope=\"col\" class=\"text-center\">Units</th>\n<th scope=\"col\" class=\"text-center\">2021</th>\n</tr>\n</thead>\n<tbody>\n<tr>\n<td>113</td>\n<td>Milk quota, milkfat</td>\n<td>Number of kg butterfat/day</td>\n<td>\n<div class=\"form-group\"><label for=\"sec9.num1\"><span class=\"hidden\">Number</span></label> <input maxlength=\"20\" id=\"sec9.num1\" class=\"form-control\" name=\"sec9.num1\"></div>\n</td>\n</tr>\n<tr>\n<td>108</td>\n<td>Chickens, layers, broiler eggs for hatching</td>\n<td>Number of producing hens or you expect to produce</td>\n<td>\n<div class=\"form-group\"><label for=\"sec9.num2\"><span class=\"hidden\">Number</span></label> <input maxlength=\"20\" id=\"sec9.num2\" class=\"form-control\" name=\"sec9.num2\"></div>\n</td>\n</tr>\n<tr>\n<td>109</td>\n<td>Chickens, layers, eggs for consumption</td>\n<td>Number of producing hens or you expect to produce</td>\n<td>\n<div class=\"form-group\"><label for=\"sec9.num3\"><span class=\"hidden\">Number</span></label> <input maxlength=\"20\" id=\"sec9.num3\" class=\"form-control\" name=\"sec9.num3\"></div>\n</td>\n</tr>\n\n<tr>\n<td>143</td>\n<td>Chickens, broilers</td>\n<td>Number of kg produced or you expect to produce</td>\n<td>\n<div class=\"form-group\"><label for=\"sec9.num4\"><span class=\"hidden\">Number</span></label> <input maxlength=\"20\" id=\"sec9.num4\" class=\"form-control\" name=\"sec9.num4\"></div>\n</td>\n</tr>\n<tr>\n<td>144</td>\n<td>Turkeys, broilers</td>\n<td>Number of kg produced or you expect to produce</td>\n<td>\n<div class=\"form-group\"><label for=\"sec9.num5\"><span class=\"hidden\">Number</span></label> <input maxlength=\"20\" id=\"sec9.num5\" class=\"form-control\" name=\"sec9.num5\"></div>\n</td>\n</tr>\n</tbody>\n</table>\n<table class=\"table table-bordered\">\n<caption class=\"hidden\">2021 Other</caption><thead>\n<tr class=\"active\">\n<th scope=\"col\" class=\"text-center\">Code</th>\n<th scope=\"col\" class=\"text-center\">Other (specify)</th>\n<th scope=\"col\" class=\"text-center\">Units</th>\n<th scope=\"col\" class=\"text-center\">2021</th>\n</tr>\n</thead>\n<tbody>\n<tr>\n<td>\n<div class=\"form-group\"><label for=\"sec10.ot1a\"><span class=\"hidden\">Code</span></label> <input size=\"4\" id=\"sec10.ot1a\" class=\"form-control\" name=\"sec10.ot1a\"></div>\n</td>\n<td>\n<div class=\"form-group\"><label for=\"sec10.ot1b\"><span class=\"hidden\">Other 1</span></label> <input size=\"30\" id=\"sec10.ot1b\" class=\"form-control\" name=\"sec10.ot1b\"></div>\n</td>\n<td>\n<div class=\"form-group\"><label for=\"sec10.ot1c\"><span class=\"hidden\">Units 1</span></label> <input maxlength=\"20\" id=\"sec10.ot1c\" class=\"form-control\" name=\"sec10.ot1c\"></div>\n</td>\n<td>\n<div class=\"form-group\"><label for=\"sec10.ot1d\"><span class=\"hidden\">2021</span></label> <input maxlength=\"20\" id=\"sec10.ot1d\" class=\"form-control\" name=\"sec10.ot1d\"></div>\n</td>\n</tr>\n<tr>\n<td>\n<div class=\"form-group\"><label for=\"sec10.ot2a\"><span class=\"hidden\">Code</span></label> <input size=\"4\" id=\"sec10.ot2a\" class=\"form-control\" name=\"sec10.ot2a\"></div>\n</td>\n<td>\n<div class=\"form-group\"><label for=\"sec10.ot2b\"><span class=\"hidden\">Other 1</span></label> <input size=\"30\" id=\"sec10.ot2b\" class=\"form-control\" name=\"sec10.ot2b\"></div>\n</td>\n<td>\n<div class=\"form-group\"><label for=\"sec10.ot2c\"><span class=\"hidden\">Units 1</span></label> <input maxlength=\"20\" id=\"sec10.ot2c\" class=\"form-control\" name=\"sec10.ot2c\"></div>\n</td>\n<td>\n<div class=\"form-group\"><label for=\"sec10.ot2d\"><span class=\"hidden\">2021 1</span></label> <input maxlength=\"20\" id=\"sec10.ot2d\" class=\"form-control\" name=\"sec10.ot2d\"></div>\n</td>\n</tr>\n<tr>\n<td>\n<div class=\"form-group\"><label for=\"sec10.ot3a\"><span class=\"hidden\">Code</span></label> <input size=\"4\" id=\"sec10.ot3a\" class=\"form-control\" name=\"sec10.ot3a\"></div>\n</td>\n<td>\n<div class=\"form-group\"><label for=\"sec10.ot3b\"><span class=\"hidden\">Other 1</span></label> <input size=\"30\" id=\"sec10.ot3b\" class=\"form-control\" name=\"sec10.ot3b\"></div>\n</td>\n<td>\n<div class=\"form-group\"><label for=\"sec10.ot3c\"><span class=\"hidden\">Units 1</span></label> <input maxlength=\"20\" id=\"sec10.ot3c\" class=\"form-control\" name=\"sec10.ot3c\"></div>\n</td>\n<td>\n<div class=\"form-group\"><label for=\"sec10.ot3d\"><span class=\"hidden\">2021 1</span></label> <input maxlength=\"20\" id=\"sec10.ot3d\" class=\"form-control\" name=\"sec10.ot3d\"></div>\n</td>\n</tr>\n<tr>\n<td>\n<div class=\"form-group\"><label for=\"sec10.ot4a\"><span class=\"hidden\">Code</span></label> <input size=\"4\" id=\"sec10.ot4a\" class=\"form-control\" name=\"sec10.ot4a\"></div>\n</td>\n<td>\n<div class=\"form-group\"><label for=\"sec10.ot4b\"><span class=\"hidden\">Other 1</span></label> <input size=\"30\" id=\"sec10.ot4b\" class=\"form-control\" name=\"sec10.ot4b\"></div>\n</td>\n<td>\n<div class=\"form-group\"><label for=\"sec10.ot4c\"><span class=\"hidden\">Units 1</span></label> <input maxlength=\"20\" id=\"sec10.ot4c\" class=\"form-control\" name=\"sec10.ot4c\"></div>\n</td>\n<td>\n<div class=\"form-group\"><label for=\"sec10.ot4d\"><span class=\"hidden\">2020 1</span></label> <input maxlength=\"20\" id=\"sec10.ot4d\" class=\"form-control\" name=\"sec10.ot4d\"></div>\n</td>\n</tr>\n</tbody>\n</table>\n\n<!--\n<p class=\"text-center mrgn-tp-lg\"><input value=\"Print\" type=\"button\" onclick=\"window.print();return false;\" /> <input hidden=\"hidden\" value=\"Submit Query\" type=\"submit\" id=\"submit\" /> </p>\n-->\n</form>\n \n\r\n    ",
        "fr": "\r\n    <section class=\"mrgn-tp-lg\" id=\"pdfforms\">\n<div class=\"alert alert-warning\">\n  <h4>Formulaires en format PDF</h4>\n<p>Si vous avez de la difficult\u00e9 \u00e0 ouvrir un formulaire PDF dans votre navigateur Internet, vous devez\u00a0:</p>\n<ul class=\"mrgn-tp-md\">\n <li>utiliser votre ordinateur. <strong>Il est possible que les formulaires ne s'ouvrent pas sur des appareils mobiles (iPad, tablettes, t\u00e9l\u00e9phones cellulaires)</strong>.</li>\n  <li>vous assurer que la version 11 (ou une version ult\u00e9rieure) d'Adobe Reader est d\u00e9j\u00e0 install\u00e9e sur votre ordinateur. Si ce n'est pas le cas, t\u00e9l\u00e9chargez gratuitement <a href=\"http://get.adobe.com/fr/reader/otherversions/\" rel=\"external\">Adobe Reader 11 ou une version ult\u00e9rieure</a>. Adobe offre des <a href=\"https://helpx.adobe.com/fr/acrobat/kb/cant-view-pdf-web.html\" rel=\"external\">solutions aux principaux probl\u00e8mes d'affichage</a>;</li>\n <li><strong>sauvegarder le fichier sur votre ordinateur</strong> \u00e0 un endroit dont vous vous souviendrez;</li>\n <li>ouvrir le fichier sur votre ordinateur \u00e0 l'aide d'<a href=\"http://get.adobe.com/fr/reader/otherversions/\" rel=\"external\">Adobe Reader 11 ou une version ult\u00e9rieure</a>.</li>\n <li>Si vous ne parvenez pas \u00e0 ouvrir le formulaire avec Adobe Reader 11 ou une version ult\u00e9rieure, <a href=\"?id=1374758661655\">veuillez contacter le programme</a>.</li>\n</ul>\n\n\n    <h5 class=\"lead mrgn-bttm-0\">Comment t\u00e9l\u00e9charger et ouvrir un formulaire au format PDF</h5>\n  \n\n<ul class=\"list-unstyled\">\n\t<li>\n<details class=\"mrgn-tp-sm\">\n    <summary>Les ordinateurs utilisant le syst\u00e8me d'exploitation Microsoft Windows et se servant de  \u201cInternet Explorer\u201d ou \u201cMicrosoft Edge\u201d comme fureteur</summary>\n     <ol>\n      <li>Cliquez sur le lien que vous voulez enregistrer avec le bouton droit de la souris;</li>\n      <li>S\u00e9lectionnez \u00ab\u00a0Enregistrer la cible sous\u00a0\u00bb ou \u00ab\u00a0Enregistrer le lien sous\u00a0\u00bb;</li>\n      <li>Choisissez l'emplacement o\u00f9 vous souhaitez enregistrer le fichier sur votre ordinateur;</li>\n      <li>S\u00e9lectionnez \u00ab\u00a0Enregistrer\u00a0\u00bb;</li>\n      <li>Ouvrissiez Adobe Reader 11 ou une version ult\u00e9rieure;</li>\n      <li>S\u00e9lectionnez \u00ab\u00a0Fichier\u00a0\u00bb;</li>\n      <li>S\u00e9lectionnez \u00ab\u00a0Ouvrez\u00a0\u00bb;</li>\n      <li>Acc\u00e9dez \u00e0 l'emplacement o\u00f9 vous avez enregistr\u00e9 le fichier;</li>\n      <li>Choisissez le formulaire PDF;</li>\n      <li>S\u00e9lectionnez \u00ab\u00a0Ouvrez\u00a0\u00bb.</li>\n    </ol>\n    </details>\n</li>\n\n<li>\n<details class=\"mrgn-tp-sm\">\n<summary>Les ordinateurs utilisant le syst\u00e8me d'exploitation Microsoft Windows ou Apple et se servant de \u201cChrome\u201d ou \"Firefox\u201d comme fureteur</summary>\n        <ol>\n      <li>Cliquez sur le lien que vous voulez enregistrer avec le bouton droit de la souris;</li>\n      <li>Quand le menu d'options s'affiche, s\u00e9lectionnez \"T\u00e9l\u00e9charger le fichier li\u00e9\" ou \"T\u00e9l\u00e9charger le fichier li\u00e9 sous\"</li>\n      <li>Choisissez l'emplacement o\u00f9 vous souhaitez enregistrer le fichier  sur votre ordinateur. Le t\u00e9l\u00e9chargement commencera une fois que vous  aurez choisi un emplacement;</li>\n  <li>Ouvrissiez Adobe Reader 11 ou une version ult\u00e9rieure;</li>\n      <li>Acc\u00e9dez \u00e0 l'emplacement o\u00f9 vous avez enregistr\u00e9 le fichier;</li>\n      <li>Choisissez le formulaire PDF;</li>\n      <li>S\u00e9lectionnez \u00ab\u00a0Ouvrez\u00a0\u00bb.</li>\n    </ol>\n    </details>\n</li>\n</ul>\n</div>\n</section>\n\n\n<div class=\"alert alert-info\">\n<p>Veuillez remplir, imprimer et envoyer le <a href=\"http://multimedia.agr.gc.ca/pack/pdf/as_2021_part_form-fra.pdf\">formulaire PDF (174\u00a0Ko)</a> par la poste ou par t\u00e9l\u00e9copieur. </p>  \n <div class=\"brdr-bttm mrgn-tp-md mrgn-bttm-md\"></div>\n<p class=\"mrgn-lft-md\"><b>La version HTML n\u2019est pas un formulaire de demande.</b>  Cette version sert uniquement \u00e0 afficher l\u2019information figurant sur le formulaire. Pour pr\u00e9senter un formulaire de demande, veuillez utiliser la version PDF. Si vous ne pouvez pas acc\u00e9der \u00e0 cette version ou avez besoin d\u2019une copie imprim\u00e9e du formulaire, veuillez communiquer avec nous au 1-866-367-8506.</p>\n\n</div>\n\n<p>Les renseignements pr\u00e9sent\u00e9s dans ce formulaire servent \u00e0 calculer les frais li\u00e9s \u00e0 votre avis d\u2019inscription de 2021. En remplissant et en d\u00e9posant ce formulaire, vous acceptez les modalit\u00e9s qui se trouvent \u00e0 la section \u00ab Renseignements confidentiels et consentement du participant \u00bb du <a href=\"?id=1519685699261\">Guide d\u2019information des nouveaux participants et des participants r\u00e9inscrits au programme Agri-stabilit\u00e9 de 2021</a>.</p>\n\n<p>Les renseignements pr\u00e9sent\u00e9s dans le formulaire sont prot\u00e9g\u00e9s en vertu de la Loi sur la protection des renseignements personnels. Ils sont conserv\u00e9s dans la banque de renseignements personnels sous le num\u00e9ro AAFC PPU 183.</p>\n\n<div class=\"mrgn-tp-lg mrgn-bttm-lg brdr-bttm\"></div>\n<form method=\"get\" action=\"#\" role=\"form\" id=\"print\" class=\"mceVisualAid\">\n<p><b>Prot\u00e9g\u00e9 B (une fois rempli)</b></p>\n<h2>Identification du participant</h2>\n<div class=\"form-group\"><label for=\"sec1.nameparta\">Pr\u00e9nom/nom de l\u2019entit\u00e9</label> <input maxlength=\"45\" size=\"45\" id=\"sec1.nameparta\" class=\"form-control\" name=\"sec1.nameparta\"> </div>\n<div class=\"form-group\"><label for=\"sec1.namepartb\">Nom de famille</label> <input maxlength=\"45\" size=\"45\" id=\"sec1.namepartb\" class=\"form-control\" name=\"sec1.namepartb\"> </div>\n<div class=\"form-group\"><label for=\"sec1.addpart\">Addresse</label> <input maxlength=\"45\" size=\"45\" id=\"sec1.addpart\" class=\"form-control\" name=\"sec1.addpart\"> </div>\n<div class=\"form-group\"><label for=\"sec1.townpart\">Ville / Village</label> <input maxlength=\"45\" size=\"45\" id=\"sec1.townpart\" class=\"form-control\" name=\"sec1.townpart\"> </div>\n<div class=\"form-group\"><label for=\"sec1.provpart\">Province ou territoire</label> <input maxlength=\"45\" size=\"45\" id=\"sec1.provpart\" class=\"form-control\" name=\"sec1.provpart\"> </div>\n<div class=\"form-group\"><label for=\"sec1.postpart\">Code postal</label> <input maxlength=\"8\" size=\"8\" id=\"sec1.postpart\" class=\"form-control\" name=\"sec1.postpart\"> </div>\n<div class=\"form-group\"><label for=\"sec1.telpart\">Num\u00e9ro de t\u00e9l\u00e9phone</label> <input maxlength=\"20\" id=\"sec1.telpart\" class=\"form-control\" name=\"sec1.telpart\"> </div>\n<div class=\"form-group\"><label for=\"sec1.faxpart\">Num\u00e9ro de t\u00e9l\u00e9copieur</label> <input maxlength=\"20\" id=\"sec1.faxpart\" class=\"form-control\" name=\"sec1.faxpart\"> </div>\n\n<div class=\"form-group\"><label for=\"sec1.email\">Adresse courriel</label> <input maxlength=\"40\" size=\"40\" id=\"sec1.email\" class=\"form-control\" name=\"sec1.email\"> </div>\n\n<div class=\"form-group\"><label for=\"sec1.pin\">Num\u00e9ro d\u2019identification du participant (NIP)</label> <input maxlength=\"20\" id=\"sec1.pin\" class=\"form-control\" name=\"sec1.pin\">  Remarque : Si vous avez re\u00e7u un NIP, indiquez-le.</div>\n\n<div class=\"form-group\"><label for=\"sec1.sin\">Num\u00e9ro d\u2019assurance sociale (NAS)</label> <input maxlength=\"20\" id=\"sec1.sin\" class=\"form-control\" name=\"sec1.sin\"> </div>\n\n<div class=\"form-group\"><label for=\"sec1.bus\">Num\u00e9ro d\u2019entreprise</label> <input maxlength=\"20\" id=\"sec1.busin\" class=\"form-control\" name=\"sec1.bus\">  (Indiquez votre num\u00e9ro d\u2019entreprise \u00e0 neuf chiffres si l\u2019on vous en a attribu\u00e9 un. Les soci\u00e9t\u00e9s doivent aussi fournir leur num\u00e9ro de r\u00e9f\u00e9rence \u00e0 titre de soci\u00e9t\u00e9 enregistr\u00e9e.)</div>\n\n<div class=\"form-group\"><label for=\"sec1.rc\">Num\u00e9ro de r\u00e9f\u00e9rence \u00e0 titre de soci\u00e9t\u00e9 enregistr\u00e9e</label> <input maxlength=\"20\" id=\"sec1.rcsin\" class=\"form-control\" name=\"sec1.rc\"></div>\n\n<div class=\"form-group\"><label for=\"sec1.tru\">Num\u00e9ro de la fiducie</label> <input maxlength=\"20\" id=\"sec1.tru\" class=\"form-control\" name=\"sec1.tru\"> </div>\n\n<fieldset>\n<legend>Type</legend>\n<div class=\"checkbox\"><label id=\"p1.ind\"><input value=\"on\" type=\"checkbox\" title=\"personne\" name=\"p1.ind\"> personne </label></div>\n<div class=\"checkbox\"><label id=\"p1.ltd\"><input value=\"on\" type=\"checkbox\" title=\"soci\u00e9t\u00e9 a responsibilit\u00e9 limit\u00e9e\" name=\"p1.ltd\"> soci\u00e9t\u00e9 a responsibilit\u00e9 limit\u00e9e</label></div>\n<div class=\"checkbox\"><label id=\"p1.corp\"><input value=\"on\" type=\"checkbox\" title=\"soci\u00e9t\u00e9\" name=\"p1.corp\"> soci\u00e9t\u00e9 </label></div>\n<div class=\"checkbox\"><label id=\"p1.trust\"><input value=\"on\" type=\"checkbox\" title=\"fiducie\" name=\"p1.trust\"> fiducie</label></div>\n<div class=\"checkbox\"><label id=\"p1.Coop\"><input value=\"on\" type=\"checkbox\" title=\"coop\u00e9rative\" name=\"p1.coop\"> coop\u00e9rative </label></div>\n<div class=\"checkbox\"><label id=\"p1.reser\"><input value=\"on\" type=\"checkbox\" title=\"Indien inscrit pratiquant l\u2019agriculture dans une r\u00e9serve\" name=\"p1.reser\"> Indien inscrit pratiquant l\u2019agriculture dans une r\u00e9serve </label></div>\n<div class=\"checkbox\"><label id=\"p1.commun\"><input value=\"on\" type=\"checkbox\" title=\"Organisme communautaire\" name=\"p1.commun\"> organisme communautaire </label></div>\n<div class=\"form-inline\">\n<div class=\"checkbox\">\n<label id=\"p1.bfarm\"><input value=\"on\" type=\"checkbox\" title=\"exploitation agricole appartenant \u00e0 une bande\" name=\"p1.bfarm\"> exploitation agricole appartenant \u00e0 une bande</label>\n<div class=\"form-group\"><label for=\"sec1.bnum\">Num\u00e9ro de la bande </label> <input maxlength=\"4\" size=\"4\" id=\"sec1.bnum\" class=\"form-control\" name=\"sec1.bnum\"> </div>\n</div>\n</div>\n<div class=\"checkbox\"><label id=\"p1.part\"><input value=\"on\" type=\"checkbox\" title=\"associ\u00e9 d\u2019une soci\u00e9t\u00e9 de personnes\" name=\"p1.part\"> associ\u00e9 d\u2019une soci\u00e9t\u00e9 de personnes</label></div>\n</fieldset>\n<div class=\"form-group\"><label for=\"p1.pt\">Province ou territoire de l\u2019exploitation agricole principale</label> <input maxlength=\"6\" size=\"6\" id=\"p1.pt\" class=\"form-control\" name=\"p1.pt\"> </div>\n<div class=\"form-group\"><label for=\"sec1.dcmn\">Num\u00e9ro de district/comt\u00e9/municipalit\u00e9  </label> <input maxlength=\"20\" size=\"60\" id=\"sec1.dcmn\" class=\"form-control\" name=\"sec1.dcmn\"> </div>\n<div class=\"form-group\"><label for=\"sec1.dcma\">Nom de district/comt\u00e9/municipalit\u00e9</label> <input maxlength=\"60\" size=\"60\" id=\"sec1.dcma\" class=\"form-control\" name=\"sec1.dcma\"> </div>\n<fieldset>\n<legend>Langue pr\u00e9f\u00e9r\u00e9e</legend>\n  <label class=\"radio-inline\">\n<input type=\"radio\" name=\"optradio\">   Fran\u00e7ais</label>\n          <label class=\"radio-inline\">   <input type=\"radio\" name=\"optradio\">\n         Anglais</label>        \n </fieldset>\n<div>\n<h2>Information sur la soci\u00e9t\u00e9 en nom collectif (s\u2019il y a lieu)</h2>\n<div class=\"row mrgn-lft-sm mrgn-rght-sm\">\n<div class=\"col-sm-7\">Inscrivez le NIP de chacun de vos associ\u00e9s. Inscrivez le pr\u00e9nom et le nom des associ\u00e9s qui sont des particuliers et le nom de la soci\u00e9t\u00e9 pour ceux qui sont des soci\u00e9t\u00e9 de personnes. Le total des quotes-parts doit \u00eatre \u00e9gal \u00e0 100\u00a0%.</div>\n\n<div class=\"col-sm-5\">\n<p class=\"mrgn-tp-md\"><label for=\"prtsh\">Votre quote-part de la soci\u00e9t\u00e9 de personnes %   <input maxlength=\"3\" size=\"5\" id=\"prtsh\" class=\"form-inline\" name=\"prtsh\"></label></p>\n</div>\n</div>\n</div>\n<table class=\"table table-bordered mrgn-tp-0\">\n<caption class=\"hidden\">Information sur la soci\u00e9t\u00e9 en nom collectif</caption><thead>\n<tr class=\"active\">\n<th scope=\"col\" class=\"text-center\">NIP Agri-stabilit\u00e9</th>\n<th scope=\"col\" class=\"text-center\">Pr\u00e9nom de la personne</th>\n<th scope=\"col\" class=\"text-center\">Nom de famille<br> de la personne</th>\n<th scope=\"col\" class=\"text-center\">Nom de la soci\u00e9t\u00e9</th>\n<th scope=\"col\" class=\"text-center\">Part (%)</th>\n</tr>\n</thead>\n<tbody>\n<tr>\n<td>\n<div class=\"form-group mrgn-bttm-0 mrgn-tp-0\"><label for=\"sec2.pin1\"><span class=\"hidden\">NIP Agri-stabilit\u00e9 1</span></label> <input maxlength=\"10\" size=\"10\" id=\"sec2.pin1\" class=\"form-control\" name=\"sec2.pin1\"></div>\n</td>\n<td>\n<div class=\"form-group\"><label for=\"sec2.name1\"><span class=\"hidden\">Pr\u00e9nom de la personne</span></label> <input maxlength=\"20\" size=\"20\" id=\"sec2.name1\" class=\"form-control\" name=\"sec2.name1\"></div>\n</td>\n<td>\n<div class=\"form-group\"><label for=\"sec2.name2\"><span class=\"hidden\">Nom de famille de la personne</span></label> <input maxlength=\"25\" size=\"25\" id=\"sec2.name2\" class=\"form-control\" name=\"sec2.name2\"></div>\n</td>\n<td>\n<div class=\"form-group\"><label for=\"sec2.cname1\"><span class=\"hidden\">Nom de la soci\u00e9t\u00e9</span></label> <input maxlength=\"25\" size=\"25\" id=\"sec2.cname1\" class=\"form-control\" name=\"sec2.cname1\"></div>\n</td>\n<td>\n<div class=\"form-group\"><label for=\"sec2.pcent1\"><span class=\"hidden\">Votre quote-part de la soci\u00e9t\u00e9 en %</span></label> <input maxlength=\"5\" size=\"5\" id=\"sec2.pcent1\" class=\"form-control\" name=\"sec2.pcent1\"></div>\n</td>\n</tr>\n<tr>\n<td>\n<div class=\"form-group\"><label for=\"sec2.pin2\"><span class=\"hidden\">NIP Agri-stabilit\u00e9 2</span></label> <input maxlength=\"10\" size=\"10\" id=\"sec2.pin2\" class=\"form-control\" name=\"sec2.pin2\"></div>\n</td>\n<td>\n<div class=\"form-group\"><label for=\"sec2.name11\"><span class=\"hidden\">Pr\u00e9nom de<br> la personne</span></label> <input maxlength=\"20\" size=\"20\" id=\"sec2.name11\" class=\"form-control\" name=\"sec2.name11\"></div>\n</td>\n<td>\n<div class=\"form-group\"><label for=\"sec2.name12\"><span class=\"hidden\">Nom de famille <br>de la personne</span></label> <input maxlength=\"25\" size=\"25\" id=\"sec2.name12\" class=\"form-control\" name=\"sec2.name12\"></div>\n</td>\n<td>\n<div class=\"form-group\"><label for=\"sec2.cname12\"><span class=\"hidden\">Nom de<br> la soci\u00e9t\u00e9</span></label> <input maxlength=\"25\" size=\"25\" id=\"sec2.cname12\" class=\"form-control\" name=\"sec2.cname12\"></div>\n</td>\n<td>\n<div class=\"form-group\"><label for=\"sec2.pcent2\"><span class=\"hidden\">Votre quote-part de la soci\u00e9t\u00e9 en %</span></label> <input maxlength=\"5\" size=\"5\" id=\"sec2.pcent2\" class=\"form-control\" name=\"sec2.pcent2\"></div>\n</td>\n</tr>\n<tr>\n<td>\n<div class=\"form-group\"><label for=\"sec2.pin3\"><span class=\"hidden\">NIP Agri-stabilit\u00e9 3</span></label> <input maxlength=\"10\" size=\"10\" id=\"sec2.pin3\" class=\"form-control\" name=\"sec2.pin3\"></div>\n</td>\n<td>\n<div class=\"form-group\"><label for=\"sec2.name111\"><span class=\"hidden\">Pr\u00e9nom de<br> la personne</span></label> <input maxlength=\"20\" size=\"20\" id=\"sec2.name111\" class=\"form-control\" name=\"sec2.name111\"></div>\n</td>\n<td>\n<div class=\"form-group\"><label for=\"sec2.name121\"><span class=\"hidden\">Nom de famille <br>de la personne</span></label> <input maxlength=\"25\" size=\"25\" id=\"sec2.name121\" class=\"form-control\" name=\"sec2.name121\"></div>\n</td>\n<td>\n<div class=\"form-group\"><label for=\"sec2.cname121\"><span class=\"hidden\">Nom de<br> la soci\u00e9t\u00e9</span></label> <input maxlength=\"25\" size=\"25\" id=\"sec2.cname121\" class=\"form-control\" name=\"sec2.cname121\"></div>\n</td>\n<td>\n<div class=\"form-group\"><label for=\"sec2.pcent3\"><span class=\"hidden\">Votre quote-part de la soci\u00e9t\u00e9 en %</span></label> <input maxlength=\"5\" size=\"5\" id=\"sec2.pcent3\" class=\"form-control\" name=\"sec2.pcent3\"></div>\n</td>\n</tr>\n<tr>\n<td>\n<div class=\"form-group\"><label for=\"sec2.pin4\"><span class=\"hidden\">NIP Agri-stabilit\u00e9 3</span></label> <input maxlength=\"10\" size=\"10\" id=\"sec2.pin4\" class=\"form-control\" name=\"sec2.pin4\"></div>\n</td>\n<td>\n<div class=\"form-group\"><label for=\"sec2.name1111\"><span class=\"hidden\">Pr\u00e9nom de<br> la personne</span></label> <input maxlength=\"20\" size=\"20\" id=\"sec2.name1111\" class=\"form-control\" name=\"sec2.name1111\"></div>\n</td>\n<td>\n<div class=\"form-group\"><label for=\"sec2.name1212\"><span class=\"hidden\">Nom de famille <br>de la personne</span></label> <input maxlength=\"25\" size=\"25\" id=\"sec2.name1212\" class=\"form-control\" name=\"sec2.name1212\"></div>\n</td>\n<td>\n<div class=\"form-group\"><label for=\"sec2.cname1212\"><span class=\"hidden\">Nom de<br> la soci\u00e9t\u00e9</span></label> <input maxlength=\"25\" size=\"25\" id=\"sec2.cname1212\" class=\"form-control\" name=\"sec2.cname1212\"></div>\n</td>\n<td>\n<div class=\"form-group\"><label for=\"sec2.pcent4\"><span class=\"hidden\">Votre quote-part de la soci\u00e9t\u00e9 en %</span></label> <input maxlength=\"5\" size=\"5\" id=\"sec2.pcent4\" class=\"form-control\" name=\"sec2.pcent4\"></div>\n</td>\n</tr>\n</tbody>\n</table>\n\n<h2>Information sur la soci\u00e9t\u00e9 par actions (s\u2019il y a lieu)</h2>\n\n<p>Indiquez le nom et le NIP des actionnaires qui ont une participation majoritaire dans la soci\u00e9t\u00e9. Cochez cette case si l\u2019actionnaire est inscrit \u00e0 titre individuel au programme Agri-stabilit\u00e9 pour l\u2019ann\u00e9e de programme 2020 et a transf\u00e9r\u00e9 une terre ou des stocks \u00e0 la soci\u00e9t\u00e9 par actions en vertu de l\u2019article 85 de la Loi de l\u2019imp\u00f4t sur le revenu pour l\u2019ann\u00e9e de programme 2021. D\u00e9posez une copie du document sign\u00e9 confirmant qu\u2019un transfert l\u00e9gal \u00e0 la soci\u00e9t\u00e9 par actions a eu lieu.</p>\n<table class=\"table table-bordered\">\n<caption class=\"hidden\">Information sur la soci\u00e9t\u00e9</caption>\n<thead>\n<tr class=\"active\">\n<th scope=\"col\" class=\"text-center\">Nom de l\u2019actionnaire ou du membre</th>\n<th scope=\"col\" class=\"text-center\">A transf\u00e9r\u00e9 une terre \u00e0 la soci\u00e9t\u00e9 par actions</th>\n<th scope=\"col\" class=\"text-center\">NIP Agri-stabilit\u00e9</th>\n \n</tr>\n</thead>\n<tbody>\n<tr>\n<td>\n<div class=\"form-group\"><label for=\"sec3.name1\"><span class=\"hidden\">Nom de l\u2019actionnaire ou du membre</span></label> <input maxlength=\"45\" size=\"45\" id=\"sec3.name1\" class=\"form-control\" name=\"sec3.name1\"></div>\n</td>\n<td class=\"text-center\">\n<div class=\"form-group mrgn-tp-lg\"><label for=\"sec3.name2\"><span class=\"hidden\">A transf\u00e9r\u00e9 une terre \u00e0 la soci\u00e9t\u00e9 par actions</span></label> <input size=\"5\" type=\"checkbox\" id=\"sec3.name2\" name=\"sec3.name2\"></div>\n</td>\n<td>\n<div class=\"form-group\"><label for=\"sec3.pin1\"><span class=\"hidden\">NIP Agri-stabilit\u00e9 1</span></label> <input maxlength=\"10\" size=\"10\" id=\"sec3.pin1\" class=\"form-control\" name=\"sec3.pin1\"></div>\n</td>\n</tr>\n<tr>\n<td>\n<div class=\"form-group\"><label for=\"sec3.name11\"><span class=\"hidden\">Nom de l\u2019actionnaire ou du membre</span></label> <input maxlength=\"45\" size=\"45\" id=\"sec3.name11\" class=\"form-control\" name=\"sec3.name11\"></div>\n</td>\n<td class=\"text-center\">\n<div class=\"form-group mrgn-tp-lg\"><label for=\"sec3.name12\"><span class=\"hidden\">A transf\u00e9r\u00e9 une terre \u00e0 la soci\u00e9t\u00e9 par actions</span></label> <input size=\"5\" type=\"checkbox\" id=\"sec3.name12\" name=\"sec3.name12\"></div>\n</td>\n<td>\n<div class=\"form-group\"><label for=\"sec3.pin2\"><span class=\"hidden\">NIP Agri-stabilit\u00e9 2</span></label> <input maxlength=\"10\" size=\"10\" id=\"sec3.pin2\" class=\"form-control\" name=\"sec3.pin2\"></div>\n</td>\n</tr>\n<tr>\n<td>\n<div class=\"form-group\"><label for=\"sec3.name111\"><span class=\"hidden\">Nom de l\u2019actionnaire ou du membre</span></label> <input maxlength=\"45\" size=\"45\" id=\"sec3.name111\" class=\"form-control\" name=\"sec3.name111\"></div>\n</td>\n<td class=\"text-center\">\n<div class=\"form-group mrgn-tp-lg\"><label for=\"sec3.name121\"><span class=\"hidden\">Nom A transf\u00e9r\u00e9 une terre \u00e0 la soci\u00e9t\u00e9 par actions</span></label> <input size=\"5\" type=\"checkbox\" id=\"sec3.name121\" name=\"sec3.name121\"></div>\n</td>\n<td>\n<div class=\"form-group\"><label for=\"sec3.pin3\"><span class=\"hidden\">NIP Agri-stabilit\u00e9 3</span></label> <input maxlength=\"10\" size=\"10\" id=\"sec3.pin3\" class=\"form-control\" name=\"sec3.pin3\"></div>\n</td>\n</tr>\n<tr>\n<td>\n<div class=\"form-group\"><label for=\"sec3.name1111\"><span class=\"hidden\">Nom de l\u2019actionnaire ou du membre</span></label> <input maxlength=\"45\" size=\"45\" id=\"sec3.name1111\" class=\"form-control\" name=\"sec3.name1111\"></div>\n</td>\n<td class=\"text-center\">\n<div class=\"form-group mrgn-tp-lg\"><label for=\"sec3.name1212\"><span class=\"hidden\">Nom A transf\u00e9r\u00e9 une terre \u00e0 la soci\u00e9t\u00e9 par actions</span></label> <input size=\"5\" type=\"checkbox\" id=\"sec3.name1212\" name=\"sec3.name1212\"></div>\n</td>\n<td>\n<div class=\"form-group\"><label for=\"sec3.pin4\"><span class=\"hidden\">NIP Agri-stabilit\u00e9 4</span></label> <input maxlength=\"10\" size=\"10\" id=\"sec3.pin4\" class=\"form-control\" name=\"sec3.pin4\"></div>\n</td>\n</tr>\n</tbody>\n</table>\n<h2>Unit\u00e9s de production de 2021 pour les nouveaux participants et les participants r\u00e9inscrits</h2>\n<div class=\"form-inline\">\n<p><label for=\"op1\">Exploitation <input maxlength=\"3\" size=\"4\" id=\"op1\" class=\"form-control\" name=\"op1\">  </label> de  <input maxlength=\"3\" size=\"4\" id=\"op2\" class=\"form-control\" name=\"op2\"></p>\n</div>\n<h3>Exercice</h3>\n<p><strong>Du</strong></p>\n<div class=\"form-inline\">\n<div class=\"form-group\"><label for=\"p1.year1\">Ann\u00e9e :</label> <input maxlength=\"4\" size=\"4\" id=\"p1.year1\" class=\"form-control\" name=\"p1.year1\"> </div>\n<div class=\"form-group\"><label for=\"p1.mon1\">Mois :</label> <input maxlength=\"2\" size=\"2\" id=\"p1.mon1\" class=\"form-control\" name=\"p1.mon1\"> </div>\n<div class=\"form-group\"><label for=\"p1.day1\">Jour :</label> <input maxlength=\"2\" size=\"2\" id=\"p1.day1\" class=\"form-control\" name=\"p1.day1\"> </div>\n</div>\n<p><b>Au</b></p>\n<div class=\"form-inline\">\n<div class=\"form-group mrgn-rght-md\"><b>Ann\u00e9e :</b> 2021</div>\n<div class=\"form-group\"><label for=\"p2.mon1\">Mois :</label> <input maxlength=\"2\" size=\"2\" id=\"p2.mon1\" class=\"form-control\" name=\"p2.mon1\"> </div>\n<div class=\"form-group\"><label for=\"p2.day1\">Jour :</label> <input maxlength=\"2\" size=\"2\" id=\"p2.day1\" class=\"form-control\" name=\"p2.day1\"> </div>\n</div>\n<div class=\"clearfix\"></div>\n<p class=\"mrgn-tp-lg\">Si vous \u00eates associ\u00e9 dans une soci\u00e9t\u00e9 en nom collectif, d\u00e9clarez la totalit\u00e9 de la capacit\u00e9 de production, r\u00e9elle ou pr\u00e9vue, de la soci\u00e9t\u00e9 pour ces cat\u00e9gories. Nous appliquerons votre pourcentage de participation.</p>\n<h2>Capacit\u00e9 de production des cultures en 2021</h2>\n<table class=\"table table-bordered\">\n<caption class=\"hidden\">Capacit\u00e9 de production des cultures</caption><thead>\n<tr class=\"active\">\n<th scope=\"col\" class=\"text-center\">Code</th>\n<th scope=\"col\" class=\"text-center\">Description</th>\n<th scope=\"col\" class=\"text-center\">Acres</th>\n<th scope=\"col\" class=\"text-center\">Acres non ensemen\u00e7ables<br>(trop mouill\u00e9es ou trop s\u00e8ches)</th>\n</tr>\n</thead>\n<tbody>\n<tr>\n<td>1</td>\n<td>Panier de cultures (\u00e0 l\u2019exception des produits biologiques)</td>\n<td>\n<div class=\"form-group\"><label for=\"sec3.cb1a\"><span class=\"hidden\">Code 1 acres</span></label> <input maxlength=\"20\" id=\"sec3.cb1a\" class=\"form-control\" name=\"sec3.cb1a\"></div>\n</td>\n<td>\n<div class=\"form-group mrgn-bttm-0\"><label for=\"sec3.cb1b\"><span class=\"hidden\">Code 1 unseedable</span></label> <input maxlength=\"20\" id=\"sec3.cb1b\" class=\"form-control\" name=\"sec3.cb1b\"></div>\n</td>\n</tr>\n<tr>\n<td>2</td>\n<td>Panier de plantes fourrag\u00e8res</td>\n<td>\n<div class=\"form-group\"><label for=\"sec3.fb2a\"><span class=\"hidden\">Code 2 acres</span></label> <input maxlength=\"20\" id=\"sec3.fb2a\" class=\"form-control\" name=\"sec3.fb2a\"></div>\n</td>\n<td>\n<div class=\"form-group\"><label for=\"sec3.fb2b\"><span class=\"hidden\">Code 2 unseedable</span></label> <input maxlength=\"20\" id=\"sec3.fb2b\" class=\"form-control\" name=\"sec3.fb2b\"></div>\n</td>\n</tr>\n<tr>\n<td>3</td>\n<td>Panier de l\u00e9gumes</td>\n<td>\n<div class=\"form-group\"><label for=\"sec3.vb1a\"><span class=\"hidden\">Code 3 acres</span></label> <input maxlength=\"20\" id=\"sec3.vb1a\" class=\"form-control\" name=\"sec3.vb1a\"></div>\n</td>\n<td>\n<div class=\"form-group\"><label for=\"sec3.vb1b\"><span class=\"hidden\">Code 3 unseedable</span></label> <input maxlength=\"20\" id=\"sec3.vb1b\" class=\"form-control\" name=\"sec3.vb1b\"></div>\n</td>\n</tr>\n<tr>\n<td>4</td>\n<td>Panier de semences fourrag\u00e8res</td>\n<td>\n<div class=\"form-group\"><label for=\"sec4.fsb1a\"><span class=\"hidden\">Code 3 acres</span></label> <input maxlength=\"20\" id=\"sec4.fsb1a\" class=\"form-control\" name=\"sec4.fsb1a\"></div>\n</td>\n<td>\n<div class=\"form-group\"><label for=\"sec4.fsb1b\"><span class=\"hidden\">Code 4 unseedable</span></label> <input maxlength=\"20\" id=\"sec4.fsb1b\" class=\"form-control\" name=\"sec4.fsb1b\"></div>\n</td>\n</tr>\n<tr>\n<td>6</td>\n<td>Panier de cultures biologiques</td>\n<td>\n<div class=\"form-group\"><label for=\"sec4.ocb1a\"><span class=\"hidden\">Code 6 acres</span></label> <input maxlength=\"20\" id=\"sec4.ocb1a\" class=\"form-control\" name=\"sec4.ocb1a\"></div>\n</td>\n<td>\n<div class=\"form-group\"><label for=\"sec4.ocb1b\"><span class=\"hidden\">Code 6 unseedable</span></label> <input maxlength=\"20\" id=\"sec4.ocb1b\" class=\"form-control\" name=\"sec4.ocb1b\"></div>\n</td>\n</tr>\n<tr>\n<td>9</td>\n<td>Panier de fines herbes et d\u2019\u00e9pices</td>\n<td>\n<div class=\"form-group\"><label for=\"sec4.hsb1a\"><span class=\"hidden\">Code 9 acres</span></label> <input maxlength=\"20\" id=\"sec4.hsb1a\" class=\"form-control\" name=\"sec4.hsb1a\"></div>\n</td>\n<td>\n<div class=\"form-group\"><label for=\"sec4.hsb1b\"><span class=\"hidden\">Code 9 unseedable</span></label> <input maxlength=\"20\" id=\"sec4.hsb1b\" class=\"form-control\" name=\"sec4.hsb1b\"></div>\n</td>\n</tr>\n</tbody>\n</table>\n<table class=\"table table-bordered\">\n<caption class=\"hidden\">2021 Autres cultures</caption><thead>\n<tr class=\"active\">\n<th scope=\"col\" class=\"text-center\">Code</th>\n<th scope=\"col\" class=\"text-center\">Autres cultures (pr\u00e9cisez)</th>\n<th scope=\"col\" class=\"text-center\">Acres</th>\n<th scope=\"col\" class=\"text-center\">Acres non ensemen\u00e7ables<br>(trop mouill\u00e9es ou trop s\u00e8ches)</th>\n</tr>\n</thead>\n<tbody>\n<tr>\n<td>\n<div class=\"form-group\"><label for=\"sec4.oc1a\"><span class=\"hidden\">Code</span></label> <input maxlength=\"4\" size=\"4\" id=\"sec4.oc1a\" class=\"form-control\" name=\"sec4.oc1a\"></div>\n</td>\n<td>\n<div class=\"form-group\"><label for=\"sec4.oc1b\"><span class=\"hidden\">Autres cultures 1</span></label> <input maxlength=\"30\" size=\"30\" id=\"sec4.oc1b\" class=\"form-control\" name=\"sec4.oc1b\"></div>\n</td>\n<td>\n<div class=\"form-group\"><label for=\"sec4.oc1c\"><span class=\"hidden\"> Acres 1</span></label> <input maxlength=\"20\" size=\"20\" id=\"sec4.oc1c\" class=\"form-control\" name=\"sec4.oc1c\"></div>\n</td>\n<td>\n<div class=\"form-group\"><label for=\"sec4.oc1d\"><span class=\"hidden\">Acres non ensemen\u00e7ables 1</span></label> <input maxlength=\"20\" size=\"20\" id=\"sec4.oc1d\" class=\"form-control\" name=\"sec4.oc1d\"></div>\n</td>\n</tr>\n<tr>\n<td>\n<div class=\"form-group\"><label for=\"sec4.oc2a\"><span class=\"hidden\">Code</span></label> <input maxlength=\"4\" size=\"4\" id=\"sec4.oc2a\" class=\"form-control\" name=\"sec4.oc2a\"></div>\n</td>\n<td>\n<div class=\"form-group\"><label for=\"sec4.oc2b\"><span class=\"hidden\">Autres cultures 1</span></label> <input maxlength=\"30\" size=\"30\" id=\"sec4.oc2b\" class=\"form-control\" name=\"sec4.oc2b\"></div>\n</td>\n<td>\n<div class=\"form-group\"><label for=\"sec4.oc2c\"><span class=\"hidden\"> Acres 1</span></label> <input maxlength=\"20\" size=\"20\" id=\"sec4.oc2c\" class=\"form-control\" name=\"sec4.oc2c\"></div>\n</td>\n<td>\n<div class=\"form-group\"><label for=\"sec4.oc2d\"><span class=\"hidden\">Acres non ensemen\u00e7ables 1</span></label> <input maxlength=\"20\" size=\"20\" id=\"sec4.oc2d\" class=\"form-control\" name=\"sec4.oc2d\"></div>\n</td>\n</tr>\n<tr>\n<td>\n<div class=\"form-group\"><label for=\"sec4.oc3a\"><span class=\"hidden\">Code</span></label> <input maxlength=\"4\" size=\"4\" id=\"sec4.oc3a\" class=\"form-control\" name=\"sec4.oc3a\"></div>\n</td>\n<td>\n<div class=\"form-group\"><label for=\"sec4.oc3b\"><span class=\"hidden\">Autres cultures 1</span></label> <input maxlength=\"30\" size=\"30\" id=\"sec4.oc3b\" class=\"form-control\" name=\"sec4.oc3b\"></div>\n</td>\n<td>\n<div class=\"form-group\"><label for=\"sec4.oc3c\"><span class=\"hidden\"> Acres 1</span></label> <input maxlength=\"20\" size=\"20\" id=\"sec4.oc3c\" class=\"form-control\" name=\"sec4.oc3c\"></div>\n</td>\n<td>\n<div class=\"form-group\"><label for=\"sec4.oc3d\"><span class=\"hidden\">Acres non ensemen\u00e7ables 1</span></label> <input maxlength=\"20\" size=\"20\" id=\"sec4.oc3d\" class=\"form-control\" name=\"sec4.oc3d\"></div>\n</td>\n</tr>\n<tr>\n<td>\n<div class=\"form-group\"><label for=\"sec4.oc4a\"><span class=\"hidden\">Code</span></label> <input maxlength=\"4\" size=\"4\" id=\"sec4.oc4a\" class=\"form-control\" name=\"sec4.oc4a\"></div>\n</td>\n<td>\n<div class=\"form-group\"><label for=\"sec4.oc4b\"><span class=\"hidden\">Autres cultures 1</span></label> <input maxlength=\"30\" size=\"30\" id=\"sec4.oc4b\" class=\"form-control\" name=\"sec4.oc4b\"></div>\n</td>\n<td>\n<div class=\"form-group\"><label for=\"sec4.oc4c\"><span class=\"hidden\"> Acres 1</span></label> <input maxlength=\"20\" size=\"20\" id=\"sec4.oc4c\" class=\"form-control\" name=\"sec4.oc4c\"></div>\n</td>\n<td>\n<div class=\"form-group\"><label for=\"sec4.oc4d\"><span class=\"hidden\">Acres non ensemen\u00e7ables 1</span></label> <input maxlength=\"20\" size=\"20\" id=\"sec4.oc4d\" class=\"form-control\" name=\"sec4.oc4d\"></div>\n</td>\n</tr>\n</tbody>\n</table>\n<table class=\"table table-bordered\">\n<caption class=\"hidden\">2021 Autres</caption><thead>\n<tr class=\"active\">\n<th scope=\"col\" class=\"text-center\">Code</th>\n<th scope=\"col\" class=\"text-center\">Autres</th>\n<th scope=\"col\" class=\"text-center\">Acres</th>\n</tr>\n</thead>\n<tbody>\n<tr>\n<td>17</td>\n<td>Acres en jach\u00e8re</td>\n<td>\n<div class=\"form-group\"><label for=\"sec5.sa1\"><span class=\"hidden\">Code 1 acres</span></label> <input maxlength=\"10\" id=\"sec5.sa1\" class=\"form-control\" name=\"sec5.sa1\"></div>\n</td>\n</tr>\n<tr>\n<td>18</td>\n<td>Acres de p\u00e2turage</td>\n<td>\n<div class=\"form-group\"><label for=\"sec5.pa1\"><span class=\"hidden\">Code 2 acres</span></label> <input maxlength=\"10\" id=\"sec5.pa1\" class=\"form-control\" name=\"sec5.pa1\"></div>\n</td>\n</tr>\n<tr>\n<td>19</td>\n<td>Acres inutilisables</td>\n<td>\n<div class=\"form-group\"><label for=\"sec5.wa1\"><span class=\"hidden\">Code 3 acres</span></label> <input maxlength=\"10\" id=\"sec5.wa1\" class=\"form-control\" name=\"sec5.wa1\"></div>\n</td>\n</tr>\n</tbody>\n</table>\n<h2>Capacit\u00e9 de production pour le b\u00e9tail en 2021</h2>\n<table class=\"table table-bordered\">\n<caption class=\"hidden\">Capacit\u00e9 de production du b\u00e9tail</caption><thead>\n<tr class=\"active\">\n<th scope=\"col\" class=\"text-center\">Code</th>\n<th scope=\"col\" class=\"text-center\">Production animale</th>\n<th scope=\"col\" class=\"text-center\">Unit\u00e9s</th>\n<th scope=\"col\" class=\"text-center\">2021</th>\n</tr>\n</thead>\n<tbody>\n<tr>\n<td>104</td>\n<td>Bovins</td>\n<td>Nbre de vaches ayant mis bas, ou devant mettre bas</td>\n<td>\n<div class=\"form-group\"><label for=\"sec6.num1\"><span class=\"hidden\">Nombre</span></label> <input maxlength=\"10\" id=\"sec6.num1\" class=\"form-control\" name=\"sec6.num1\"></div>\n</td>\n</tr>\n<tr>\n<td>123</td>\n<td>Porcs, naissage-finition</td>\n<td>Nbre de truies ayant mis bas, ou devant mettre bas</td>\n<td>\n<div class=\"form-group\"><label for=\"sec6.num2\"><span class=\"hidden\">Nombre</span></label> <input maxlength=\"10\" id=\"sec6.num2\" class=\"form-control\" name=\"sec6.num2\"></div>\n</td>\n</tr>\n<tr>\n<td>145</td>\n<td>Porcs, naissage</td>\n<td>Nbre de truies ayant mis bas, ou devant mettre bas</td>\n<td>\n<div class=\"form-group\"><label for=\"sec6.num3\"><span class=\"hidden\">Nombre</span></label> <input maxlength=\"10\" id=\"sec6.num3\" class=\"form-control\" name=\"sec6.num3\"></div>\n</td>\n</tr>\n</tbody>\n</table>\n\n<table class=\"table table-bordered\">\n<caption class=\"hidden\">B\u00e9tail d\u2019engraissement</caption><thead>\n<tr class=\"active\">\n<th scope=\"col\" class=\"text-center\">Code</th>\n<th scope=\"col\" class=\"text-center\">B\u00e9tail d\u2019engraissement</th>\n<th scope=\"col\" class=\"text-center\">Unit\u00e9s</th>\n<th scope=\"col\" class=\"text-center\">2021</th>\n</tr>\n</thead>\n<tbody>\n<tr>\n<td>105</td>\n<td>Bovins d\u2019engraissement (jusqu\u2019\u00e0 900 livres)</td>\n<td>Nbre d\u2019animaux nourris ou que vous pr\u00e9voyez nourrir</td>\n<td>\n<div class=\"form-group\"><label for=\"sec7.num1\"><span class=\"hidden\">Nombre</span></label> <input maxlength=\"20\" id=\"sec7.num1\" class=\"form-control\" name=\"sec7.num1\"></div>\n</td>\n</tr>\n<tr>\n<td>106</td>\n<td>Bovins gras (plus de 900 livres)</td>\n<td>Nbre d\u2019animaux nourris ou que vous pr\u00e9voyez nourrir</td>\n<td>\n<div class=\"form-group\"><label for=\"sec7.num2\"><span class=\"hidden\">Nombre</span></label> <input maxlength=\"20\" id=\"sec7.num2\" class=\"form-control\" name=\"sec7.num2\"></div>\n</td>\n</tr>\n<tr>\n<td>125</td>\n<td>Porcs en croissance (jusqu\u2019\u00e0 50 livres)</td>\n<td>Nbre d\u2019animaux nourris ou que vous pr\u00e9voyez nourrir</td>\n<td>\n<div class=\"form-group\"><label for=\"sec7.num3\"><span class=\"hidden\">Nombre</span></label> <input maxlength=\"20\" id=\"sec7.num3\" class=\"form-control\" name=\"sec7.num3\"></div>\n</td>\n</tr>\n<tr>\n<td>124</td>\n<td>Porcs d\u2019engraissement (plus de 50 livres)</td>\n<td>Nbre d\u2019animaux nourris ou que vous pr\u00e9voyez nourrir</td>\n<td>\n<div class=\"form-group\"><label for=\"sec7.num4\"><span class=\"hidden\">Nombre</span></label> <input maxlength=\"20\" id=\"sec7.num4\" class=\"form-control\" name=\"sec7.num4\"></div>\n</td>\n</tr>\n</tbody>\n</table>\n\n<table class=\"table table-bordered\">\n<caption class=\"hidden\">B\u00e9tail engraiss\u00e9 \u00e0 fa\u00e7on</caption><thead>\n<tr class=\"active\">\n<th scope=\"col\" class=\"text-center\">Code</th>\n<th scope=\"col\" class=\"text-center\">B\u00e9tail engraiss\u00e9 \u00e0 fa\u00e7on</th>\n<th scope=\"col\" class=\"text-center\">Unit\u00e9s</th>\n<th scope=\"col\" class=\"text-center\">2021</th>\n</tr>\n</thead>\n<tbody>\n<tr>\n<td>141</td>\n<td>Bovins engraiss\u00e9s \u00e0 fa\u00e7on</td>\n<td>Nbre d\u2019animaux engraiss\u00e9s par jour</td>\n<td>\n<div class=\"form-group\"><label for=\"sec8.num1\"><span class=\"hidden\">Nombre</span></label> <input maxlength=\"20\" id=\"sec8.num1\" class=\"form-control\" name=\"sec8.num1\"></div>\n</td>\n</tr>\n<tr>\n<td>142</td>\n<td>Porcs engraiss\u00e9s \u00e0 fa\u00e7on</td>\n<td>Nbre d\u2019animaux engraiss\u00e9s par jour</td>\n<td>\n<div class=\"form-group\"><label for=\"sec8.num2\"><span class=\"hidden\">Nombre</span></label> <input maxlength=\"20\" id=\"sec8.num2\" class=\"form-control\" name=\"sec8.num2\"></div>\n</td>\n</tr>\n</tbody>\n</table>\n\n\n<table class=\"table table-bordered\">\n<caption class=\"hidden\">Produits soumis \u00e0 la gestion de l\u2019offre</caption><thead>\n<tr class=\"active\">\n<th scope=\"col\" class=\"text-center\">Code</th>\n<th scope=\"col\" class=\"text-center\">Produits soumis \u00e0 la gestion de l\u2019offre</th>\n<th scope=\"col\" class=\"text-center\">Unit\u00e9s</th>\n<th scope=\"col\" class=\"text-center\">2021</th>\n</tr>\n</thead>\n<tbody>\n<tr>\n<td>113</td>\n<td>Quota laitier, mati\u00e8re grasse du lait</td>\n<td>Nbre de kg mati\u00e8re de M.G. du lait/jour</td>\n<td>\n<div class=\"form-group\"><label for=\"sec9.num1\"><span class=\"hidden\">Nombre</span></label> <input maxlength=\"20\" id=\"sec9.num1\" class=\"form-control\" name=\"sec9.num1\"></div>\n</td>\n</tr>\n<tr>\n<td>108</td>\n<td>Poulets, pondeuses, \u0153ufs \u00e0 couver de type poulet \u00e0 griller</td>\n<td>Nombre de poules pondeuses ou nombre que vous pr\u00e9voyez produire</td>\n<td>\n<div class=\"form-group\"><label for=\"sec9.num2\"><span class=\"hidden\">Nombre</span></label> <input maxlength=\"20\" id=\"sec9.num2\" class=\"form-control\" name=\"sec9.num2\"></div>\n</td>\n</tr>\n<tr>\n<td>109</td>\n<td>Poulets, pondeuses, \u0153ufs de consommation</td>\n<td>Nombre de poules pondeuses nombre que vous pr\u00e9voyez produire</td>\n<td>\n<div class=\"form-group\"><label for=\"sec9.num3\"><span class=\"hidden\">Nombre</span></label> <input maxlength=\"20\" id=\"sec9.num3\" class=\"form-control\" name=\"sec9.num3\"></div>\n</td>\n</tr>\n\n<tr>\n<td>143</td>\n<td>Poulets, \u00e0 griller</td>\n<td>Nbre de kg produits ou que vous pr\u00e9voyez produire</td>\n<td>\n<div class=\"form-group\"><label for=\"sec9.num4\"><span class=\"hidden\">Nombre</span></label> <input maxlength=\"20\" id=\"sec9.num4\" class=\"form-control\" name=\"sec9.num4\"></div>\n</td>\n</tr>\n<tr>\n<td>144</td>\n<td>Dindons \u00e0 griller</td>\n<td>Nbre de kg produits ou que vous pr\u00e9voyez produire</td>\n<td>\n<div class=\"form-group\"><label for=\"sec9.num5\"><span class=\"hidden\">Nombre</span></label> <input maxlength=\"20\" id=\"sec9.num5\" class=\"form-control\" name=\"sec9.num5\"></div>\n</td>\n</tr>\n</tbody>\n</table>\n<table class=\"table table-bordered\">\n<caption class=\"hidden\">2021 Autre</caption><thead>\n<tr class=\"active\">\n<th scope=\"col\" class=\"text-center\">Code</th>\n<th scope=\"col\" class=\"text-center\">Autre (pr\u00e9cisez)</th>\n<th scope=\"col\" class=\"text-center\">Unit\u00e9s</th>\n<th scope=\"col\" class=\"text-center\">2021</th>\n</tr>\n</thead>\n<tbody>\n<tr>\n<td>\n<div class=\"form-group\"><label for=\"sec10.ot1a\"><span class=\"hidden\">Code</span></label> <input maxlength=\"4\" size=\"4\" id=\"sec10.ot1a\" class=\"form-control\" name=\"sec10.ot1a\"></div>\n</td>\n<td>\n<div class=\"form-group\"><label for=\"sec10.ot1b\"><span class=\"hidden\">Autre 1</span></label> <input maxlength=\"30\" size=\"30\" id=\"sec10.ot1b\" class=\"form-control\" name=\"sec10.ot1b\"></div>\n</td>\n<td>\n<div class=\"form-group\"><label for=\"sec10.ot1c\"><span class=\"hidden\"> Unit\u00e9s 1</span></label> <input maxlength=\"20\" size=\"20\" id=\"sec10.ot1c\" class=\"form-control\" name=\"sec10.ot1c\"></div>\n</td>\n<td>\n<div class=\"form-group\"><label for=\"sec10.ot1d\"><span class=\"hidden\">2021 1</span></label> <input maxlength=\"20\" size=\"20\" id=\"sec10.ot1d\" class=\"form-control\" name=\"sec10.ot1d\"></div>\n</td>\n</tr>\n<tr>\n<td>\n<div class=\"form-group\"><label for=\"sec10.ot2a\"><span class=\"hidden\">Code</span></label> <input maxlength=\"4\" size=\"4\" id=\"sec10.ot2a\" class=\"form-control\" name=\"sec10.ot2a\"></div>\n</td>\n<td>\n<div class=\"form-group\"><label for=\"sec10.ot2b\"><span class=\"hidden\">Autre 1</span></label> <input maxlength=\"30\" size=\"30\" id=\"sec10.ot2b\" class=\"form-control\" name=\"sec10.ot2b\"></div>\n</td>\n<td>\n<div class=\"form-group\"><label for=\"sec10.ot2c\"><span class=\"hidden\"> Unit\u00e9s 1</span></label> <input maxlength=\"20\" size=\"20\" id=\"sec10.ot2c\" class=\"form-control\" name=\"sec10.ot2c\"></div>\n</td>\n<td>\n<div class=\"form-group\"><label for=\"sec10.ot2d\"><span class=\"hidden\">2021 1</span></label> <input maxlength=\"20\" size=\"20\" id=\"sec10.ot2d\" class=\"form-control\" name=\"sec10.ot2d\"></div>\n</td>\n</tr>\n\n<tr>\n<td>\n<div class=\"form-group\"><label for=\"sec10.ot3a\"><span class=\"hidden\">Code</span></label> <input maxlength=\"4\" size=\"4\" id=\"sec10.ot3a\" class=\"form-control\" name=\"sec10.ot3a\"></div>\n</td>\n<td>\n<div class=\"form-group\"><label for=\"sec10.ot3b\"><span class=\"hidden\">Autre 1</span></label> <input maxlength=\"30\" size=\"30\" id=\"sec10.ot3b\" class=\"form-control\" name=\"sec10.ot3b\"></div>\n</td>\n<td>\n<div class=\"form-group\"><label for=\"sec10.ot3c\"><span class=\"hidden\"> Unit\u00e9s 1</span></label> <input maxlength=\"20\" size=\"20\" id=\"sec10.ot3c\" class=\"form-control\" name=\"sec10.ot3c\"></div>\n</td>\n<td>\n<div class=\"form-group\"><label for=\"sec10.ot3d\"><span class=\"hidden\">2021 1</span></label> <input maxlength=\"20\" size=\"20\" id=\"sec10.ot3d\" class=\"form-control\" name=\"sec10.ot3d\"></div>\n</td>\n</tr>\n<tr>\n<td>\n<div class=\"form-group\"><label for=\"sec10.ot4a\"><span class=\"hidden\">Code</span></label> <input maxlength=\"4\" size=\"4\" id=\"sec10.ot4a\" class=\"form-control\" name=\"sec10.ot4a\"></div>\n</td>\n<td>\n<div class=\"form-group\"><label for=\"sec10.ot4b\"><span class=\"hidden\">Autre 1</span></label> <input maxlength=\"30\" size=\"30\" id=\"sec10.ot4b\" class=\"form-control\" name=\"sec10.ot4b\"></div>\n</td>\n<td>\n<div class=\"form-group\"><label for=\"sec10.ot4c\"><span class=\"hidden\"> Unit\u00e9s 1</span></label> <input maxlength=\"20\" size=\"20\" id=\"sec10.ot4c\" class=\"form-control\" name=\"sec10.ot4c\"></div>\n</td>\n<td>\n<div class=\"form-group\"><label for=\"sec10.ot4d\"><span class=\"hidden\">2021 1</span></label> <input maxlength=\"20\" size=\"20\" id=\"sec10.ot4d\" class=\"form-control\" name=\"sec10.ot4d\"></div>\n</td>\n</tr>\n</tbody>\n</table>\n<!--\n<p class=\"text-center mrgn-tp-lg\"><input value=\"Imprimer\" type=\"button\" onclick=\"window.print();return false;\" /> <input hidden=\"hidden\" value=\"Soumettre\" type=\"submit\" id=\"submit\" /> </p>\n-->\n</form>\n\n \n\r\n    "
    },
    "js": {
        "en": "",
        "fr": ""
    },
    "mode_html": "no_editor_full"
}