{
    "dcr_id": "1522072944158",
    "title": {
        "en": "AgriRisk Initiatives: Research and Development Contribution Funding Stream: Step 2. Who is eligible",
        "fr": "Initiatives Agri-risques - Volet de financement par contribution de recherche et d\u00e9veloppement  : \u00c9tape 2. Qui est admissible"
    },
    "modified": "2019-08-30",
    "issued": "2018-04-04",
    "templatetype": "content page 1 column",
    "page_type": "0",
    "node_id": "1521126928137",
    "dc_date_created": "2018-04-04",
    "managing_branch": "PAB",
    "parent_node_id": "",
    "short_title": "Step 2. Who is eligible",
    "exturl": "",
    "teamsite_location": {
        "en": "/default/main/AAFC-AAC/Internet-Internet/Group-Ensemble/ProgServ-ProgServ/WORKAREA/ProgServ-ProgServ/templatedata/comm-comm/gene-gene/data/03/agririsk_2_eligible_1522072944158_en",
        "fr": "/default/main/AAFC-AAC/Internet-Internet/Group-Ensemble/ProgServ-ProgServ/WORKAREA/ProgServ-ProgServ/templatedata/comm-comm/gene-gene/data/03/agririsk_2_eligible_1522072944158_fr"
    },
    "type_name": "comm-comm/gene-gene",
    "has_dcr_id": true,
    "label": {
        "en": "Step 2. Who is eligible",
        "fr": "\u00c9tape 2. Qui est admissible"
    },
    "breadcrumb": {
        "en": "Step 2. Who is eligible",
        "fr": "\u00c9tape 2. Qui est admissible"
    },
    "layout_name": "content page 1 column",
    "lang": "en",
    "refaire": false,
    "meta": {
        "viewport": {
            "en": "width=device-width,initial-scale=1",
            "fr": "width=device-width, initial-scale=1"
        },
        "issued": {
            "en": "2018-04-04",
            "fr": "2018-04-04"
        },
        "modified": {
            "en": "2019-08-30",
            "fr": "2019-08-30"
        },
        "format": {
            "en": "text/html",
            "fr": "text/html"
        },
        "title": {
            "en": "AgriRisk Initiatives: Research and Development Contribution Funding Stream: Step 2. Who is eligible",
            "fr": "Initiatives Agri-risques - Volet de financement par contribution de recherche et d\u00e9veloppement  : \u00c9tape 2. Qui est admissible"
        },
        "subject": {
            "en": "technology transfer;architectural heritage;soil assessement",
            "fr": "semences-production;syst\u00e8mes de culture;pommes de terre-producteurs"
        },
        "dcterms:subject": {
            "en": "architectural heritage;architecture;statistics",
            "fr": "entreprise;actif;engrais"
        },
        "description": {
            "en": "Applicant guide. Step 1.What this program offers. Value-added agriculture and agri-food processing. \u2013 to support the continued growth of the value-added agriculture and agri-food processing sector. AAFC will only reimburse cash contributions for eligible project costs that are incurred and paid for by your organization.",
            "fr": "Guide du demandeur. \u00c9tape 1.Ce qu\u2019offre ce programme. Le Partenariat canadien pour l\u2019agriculture repr\u00e9sente un investissement de trois milliards de dollars r\u00e9parti sur cinq ans r\u00e9alis\u00e9 par les gouvernements f\u00e9d\u00e9ral, provinciaux et territoriaux pour renforcer le secteur de l\u2019agriculture, de l\u2019agroalimentaire et des produits agro-industriels. Elles doivent compter au plus 250\u00a0employ\u00e9s et leur chiffre d\u2019affaires annuel ne doit pas exc\u00e9der 50\u00a0millions de dollars.Toute PME constitu\u00e9e l\u00e9galement de fa\u00e7on ind\u00e9pendante et r\u00e9pondant aux crit\u00e8res d\u2019admissibilit\u00e9 peut pr\u00e9senter une demande; toutefois, lors de l\u2019examen des demandes, la priorit\u00e9 peut \u00eatre accord\u00e9e aux organisations qui ne sont pas des filiales ou des membres d\u2019un groupe d\u2019entreprises plus important.Bien que les d\u00e9cisions soient prises au cas par cas, les repr\u00e9sentants de tierces parties, comme les maisons de commerce, les courtiers en exportation, les agents ou les promoteurs, ne sont g\u00e9n\u00e9ralement pas admissibles au volet\u00a0PME."
        },
        "language": {
            "en": "eng",
            "fr": "fra"
        },
        "keywords": {
            "en": "Partner-led;Canadians.Program",
            "fr": "lemballage et \u00e0 l\u00e9tiquetage;Agri-innover.vous"
        },
        "audience": {
            "en": "gcaudience",
            "fr": "gcaudience"
        },
        "type": {
            "en": "business plan",
            "fr": "accord"
        },
        "creator": {
            "en": "Agriculture and Agri-Food Canada;Government of Canada",
            "fr": "Agriculture et Agroalimentaire Canada;Gouvernement du Canada"
        },
        "spatial": {
            "en": "gcregions",
            "fr": "gcregions"
        },
        "service": {
            "en": "AAFC-AAC",
            "fr": "AAFC-AAC"
        },
        "accessRights": {
            "en": "2",
            "fr": "2"
        },
        "legalName": {
            "en": "agriculture_and_agri_food_canada",
            "fr": "agriculture_et_agroalimentaire_canada"
        },
        "areaServed": {
            "en": "Canada",
            "fr": "Canada"
        }
    },
    "h1": {
        "en": "AgriRisk Initiatives: Research and Development Contribution Funding Stream: Step 2. Who is eligible",
        "fr": "Initiatives Agri-risques - Volet de financement par contribution de recherche et d\u00e9veloppement : \u00c9tape 2. Qui est admissible"
    },
    "js": {
        "en": "",
        "fr": ""
    },
    "body": {
        "en": "\r\n    <div class=\"mrgn-tp-md mrgn-bttm-lg brdr-bttm\">\n\n<div class=\"row\">\n<ul class=\"toc lst-spcd col-md-12 list-unstyled\">\n<li class=\"col-md-4 col-sm-6\"><span class=\"list-group-item\">Step 1. <a href=\"?id=1522072838788\">What this program offers</a></span></li>\n\n<li class=\"col-md-4 col-sm-6\"><span class=\"list-group-item active\">Step 2. Who is eligible</span></li>\n\n<li class=\"col-md-4 col-sm-6 clr-lft-sm\"><span class=\"list-group-item\">Step 3. <a href=\"?id=1522072992069\">How to apply</a></span></li>\n\n<li class=\"col-md-4 col-sm-6\"><span class=\"list-group-item\">Step 4. <a href=\"?id=1522073135183\">After you apply</a></span></li>\n\n<li class=\"col-md-4 col-sm-6\"><span class=\"list-group-item\"><a href=\"?id=1522073181227\">Applicant guide</a></span></li>\n\n<li class=\"col-md-4 col-sm-6\"><span class=\"list-group-item\"><a href=\"?id=1522073268316\">Contact information</a></span></li>\n</ul>\n</div>\n</div>\n\n<h2>Step 2. Who is eligible</h2>\n\n<p>Eligible applicants are <strong>not-for-profit</strong> organizations, which are:</p>\n\n<ul>\n\t<li>industry associations</li>\n\t<li>Indigenous groups</li>\n\t<li>co-operatives, mutual insurance companies or reciprocals</li>\n</ul>\n \n<p>Eligible applicants must be legal entities capable of entering into legally binding agreements.</p>\n\n<p><strong>Note:</strong> Ineligible applicants for ARI R&amp;D include for-profit organizations, academic institutions, provincial, territorial, and municipal governments, foreign governments and individuals. Academic institutions remain eligible for ARI Microgrants.</p>\n\n<nav>\n  <h2 class=\"wb-inv\">Previous-next document navigation - bottom</h2>\n\n<div class=\"row\">\n<div class=\"col-md-12 mrgn-lft-0 mrgn-rght-0\">\n<ul class=\"pager\">\n<li class=\"previous\"><a href=\"?id=1522072838788\" rel=\"prev\" title=\"What this program offers\">Previous</a></li>\n<li class=\"next\"><a href=\"?id=1522072992069\" rel=\"next\" title=\"How to apply\">Next</a></li>\n</ul>\n</div>\n</div>\n</nav>\n\r\n    ",
        "fr": "\r\n    <div class=\"mrgn-tp-md mrgn-bttm-lg brdr-bttm\">\n\n<div class=\"row\">\n<ul class=\"toc lst-spcd col-md-12 list-unstyled\">\n<li class=\"col-md-4 col-sm-6\"><span class=\"list-group-item\">\u00c9tape 1. <a href=\"?id=1522072838788\">Ce qu\u2019offre ce programme</a></span></li>\n\n<li class=\"col-md-4 col-sm-6\"><span class=\"list-group-item active\">\u00c9tape 2. Qui est admissible</span></li>\n\n<li class=\"col-md-4 col-sm-6 clr-lft-sm\"><span class=\"list-group-item\">\u00c9tape 3. <a href=\"?id=1522072992069\">Comment pr\u00e9senter une demande</a></span></li>\n\n<li class=\"col-md-4 col-sm-6\"><span class=\"list-group-item\">\u00c9tape 4. <a href=\"?id=1522073135183\">Apr\u00e8s avoir pr\u00e9sent\u00e9 votre demande</a></span></li>\n\n<li class=\"col-md-4 col-sm-6\"><span class=\"list-group-item\"><a href=\"?id=1522073181227\">Guide du demandeur</a></span></li>\n\n<li class=\"col-md-4 col-sm-6\"><span class=\"list-group-item\"><a href=\"?id=1522073268316\">Pour nous joindre</a></span></li>\n</ul>\n</div>\n</div>\n\n<h2>\u00c9tape 2. Qui est admissible?</h2>\n\n<p>Les demandeurs admissibles sont des organismes <strong>sans but lucratif</strong>, parmi on compte\u00a0:</p>\n\n<ul>\n\t<li>les associations de l\u2019industrie;</li>\n\t<li>les groupes autochtones;</li>\n\t<li>les coop\u00e9ratives, les mutuelles d\u2019assurance ou les assurances de r\u00e9ciprocit\u00e9.</li>\n</ul>\n \n<p>Les demandeurs admissibles doivent \u00eatre en mesure de conclure des accords ex\u00e9cutoires.</p>\n\n<p><strong>Nota\u00a0:</strong> Les organismes \u00e0 but lucratif, les \u00e9tablissements d\u2019enseignement, les gouvernements provinciaux, territoriaux et municipaux, les gouvernements \u00e9trangers et les particuliers ne sont pas admissibles au volet de R\u00a0et\u00a0D des IAR. Les \u00e9tablissements d\u2019enseignement demeurent admissibles aux microsubventions des IAR.</p> \n\n<nav>\n  <h2 class=\"wb-inv\">Navigation du document - pr\u00e9c\u00e9dente-suivante - bas</h2>\n\n<div class=\"row\">\n<div class=\"col-md-12 mrgn-lft-0 mrgn-rght-0\">\n<ul class=\"pager\">\n<li class=\"previous\"><a href=\"?id=1522072838788\" rel=\"prev\" title=\"Ce qu\u2019offre ce programme\">Pr\u00e9c\u00e9dente</a></li>\n<li class=\"next\"><a href=\"?id=1522072992069\" rel=\"next\" title=\"Comment pr\u00e9senter une demande\">Suivante</a></li>\n</ul>\n</div>\n</div>\n</nav>\n\r\n    "
    }
}