{
    "dcr_id": "1533047542996",
    "title": {
        "en": "Michigan-Canada agricultural trade",
        "fr": "Commerce agricole Michigan-Canada"
    },
    "modified": "2020-11-23",
    "issued": "2018-08-03",
    "templatetype": "content page 1 column",
    "page_type": "0",
    "node_id": "1453480440103",
    "dc_date_created": "2018-08-03",
    "managing_branch": "MISB",
    "parent_node_id": "",
    "short_title": "",
    "exturl": "",
    "teamsite_location": {
        "en": "/default/main/AAFC-AAC/Internet-Internet/MISB-DGSIM/ATS-SEA/ATS-SEA-s2/WORKAREA/ATS-SEA-s2/templatedata/comm-comm/gene-gene/data/amr_michigan-canada_1533047542996_en",
        "fr": "/default/main/AAFC-AAC/Internet-Internet/MISB-DGSIM/ATS-SEA/ATS-SEA-s2/WORKAREA/ATS-SEA-s2/templatedata/comm-comm/gene-gene/data/amr_michigan-canada_1533047542996_fr"
    },
    "type_name": "comm-comm/gene-gene",
    "has_dcr_id": true,
    "label": {
        "en": "Michigan-Canada agricultural trade",
        "fr": "Commerce agricole Michigan-Canada"
    },
    "breadcrumb": {
        "en": "Michigan-Canada agricultural trade",
        "fr": "Commerce agricole Michigan-Canada"
    },
    "layout_name": "content page 1 column",
    "lang": "en",
    "refaire": false,
    "meta": {
        "viewport": {
            "en": "width=device-width,initial-scale=1",
            "fr": "width=device-width, initial-scale=1"
        },
        "issued": {
            "en": "2018-08-03",
            "fr": "2018-08-03"
        },
        "modified": {
            "en": "2020-11-23",
            "fr": "2020-11-23"
        },
        "format": {
            "en": "gcformat",
            "fr": "gcformat"
        },
        "title": {
            "en": "Michigan-Canada agricultural trade",
            "fr": "Commerce agricole Michigan-Canada"
        },
        "subject": {
            "en": "proactive disclosure;soil assessement;soil science",
            "fr": "politique agricole;Gestion des risques de l'entreprise;coop\u00e9ratives"
        },
        "dcterms:subject": {
            "en": "architecture;agriculture;statistics",
            "fr": "cultures;terre agricole;coop\u00e9rative"
        },
        "description": {
            "en": "Feedback. about this web site. Alternative format. $55M in oats. $52M in animal feed. Version, 650. KB. ). \u00a0Was this information useful?\u00a0. Yes.",
            "fr": "\u00c9valuation des programmes des Initiatives strat\u00e9giques \u00e0 co\u00fbts partag\u00e9s de Cultivons l\u2019avenir\u00a02. 15 novembre 2017. F\u00e9d\u00e9ral-provincial-territorial. ETP. L\u2019analyse consolid\u00e9e de l\u2019efficience n\u2019entrait pas dans la port\u00e9e de l\u2019\u00e9valuation; toutefois, des exemples d\u2019efficience ont \u00e9t\u00e9 rep\u00e9r\u00e9s.Les programmes \u00e0 co\u00fbts partag\u00e9s de Cultivons l\u2019avenir\u00a02 offrent aux provinces et territoires une plus grande souplesse dans leurs choix de programmes; toutefois, les provinces et les territoires jugent qu\u2019un certain nombre de processus administratifs sont contraignants en ce qui a trait \u00e0 l\u2019attribution opportune de capital de financement.Les restrictions concernant la collecte de donn\u00e9es entravent la capacit\u00e9 d\u2019\u00e9valuer l\u2019incidence du programme.Les communications bilat\u00e9rales sont g\u00e9n\u00e9ralement efficaces."
        },
        "language": {
            "en": "eng",
            "fr": "fra"
        },
        "keywords": {
            "en": "tea substitutes;jelly powders;cream substitutes",
            "fr": "Chine.\u00c0;Aimeriez-vous;rivaliser dans un environnement"
        },
        "audience": {
            "en": "gcaudience",
            "fr": "gcaudience"
        },
        "type": {
            "en": "search interface",
            "fr": "foire aux questions"
        },
        "creator": {
            "en": "Agriculture and Agri-Food Canada;Government of Canada",
            "fr": "Agriculture et Agroalimentaire Canada;Gouvernement du Canada"
        },
        "spatial": {
            "en": "gcregions",
            "fr": "gcregions"
        },
        "service": {
            "en": "AAFC-AAC",
            "fr": "AAFC-AAC"
        },
        "accessRights": {
            "en": "2",
            "fr": "2"
        },
        "legalName": {
            "en": "agriculture_and_agri_food_canada",
            "fr": "agriculture_et_agroalimentaire_canada"
        },
        "areaServed": {
            "en": "Canada",
            "fr": "Canada"
        }
    },
    "h1": {
        "en": "Michigan-Canada agricultural trade",
        "fr": "Commerce agricole Michigan-Canada"
    },
    "js": {
        "en": "",
        "fr": ""
    },
    "body": {
        "en": "\r\n    <p class=\"lead\">A strong, integrated and balanced partnership in agriculture</p>\n\n<p>Let's keep a good thing growing!</p>\n\n<p>Bilateral agricultural trade = $1.7 billion in 2019</p>\n\n<p>Michigan exported $719 million to Canada, including:</p>\n<ul>\n<li>$160M in prepared cereal products</li>\n<li>$90M in fresh vegetables </li>\n<li>$77M in oil seeds </li>\n<li>$63M in food preparations*</li>\n<li>$60M in corn</li>\n</ul>\n\n<p>Michigan imported $968 million from Canada, including:</p>\n<ul>\n<li>$279M in fresh vegetables </li>\n<li>$107M in fresh, chilled or frozen meat</li>\n<li>$97M in prepared cereal products</li>\n<li>$73M in beverages, spirits and vinegar</li>\n<li>$54M in oil cakes</li>\n</ul>\n\n<p>Michigan\u2019s top agriculture and agri-food export markets:</p>\n<ul>\n<li>Canada: 42%</li>\n<li>Mexico: 12%</li>\n<li>Japan: 7%</li>\n<li>South Korea: 6%</li>\n<li>Thailand: 6%</li>\n</ul>\n\n<p>* The category \u201cfood preparations\u201d includes products such as tea substitutes, vegetable preparations, flavoring extracts, powders and essences, milk or cream substitutes, jelly powders, and juices from concentrate.</p>\n\n<p>M = Million; B = Billion</p>\n<p>All figures in U.S. dollars based on 2019 total U.S. export and import data (as of March 2020)</p>\n<p>Trade data source: U.S. census bureau based on the world trade organization definition of agriculture</p>\n\n<p>Email: <a href=\"mailto:aafc.mas-sam.aac@canada.ca\">aafc.mas-sam.aac@canada.ca</a></p>\n<p><a href=\"http://www.agr.gc.ca/agpartners\">For more information</a>: www.agr.gc.ca/agpartners</p>\n<p><a href=\"https://twitter.com/hashtag/agpartners\">Follow the conversation on Twitter</a> #agpartners</p>\n\r\n    ",
        "fr": "\r\n    <p class=\"lead\">Un partenariat solide, int\u00e9gr\u00e9 et \u00e9quilibr\u00e9 en agriculture</p>\n\n<p>Pour faire cro\u00eetre de bonnes choses\u00a0!</p>\n\n<p>Commerce agricole bilat\u00e9ral = 1,7\u00a0G$ en 2019</p>\n\n<p>Le Michigan a export\u00e9 pour 719\u00a0M$ de produits au Canada, dont\u00a0:</p>\n<ul>\n<li>160\u00a0M$ de produits c\u00e9r\u00e9aliers pr\u00e9par\u00e9s</li>\n<li>90\u00a0M$ de l\u00e9gumes frais </li>\n<li>77\u00a0M$ en graines ol\u00e9agineuses </li>\n<li>63\u00a0M$ de pr\u00e9parations alimentaires*</li>\n<li>60\u00a0M$ de ma\u00efs</li>\n</ul>\n\n<p>Le Michigan a import\u00e9 pour 968\u00a0M$ du Canada, dont\u00a0:</p>\n<ul>\n<li>279\u00a0M$ de l\u00e9gumes frais </li>\n<li>107\u00a0M$ de viande fra\u00eeche, r\u00e9frig\u00e9r\u00e9e ou congel\u00e9e</li>\n<li>97\u00a0M$ de produits c\u00e9r\u00e9aliers pr\u00e9par\u00e9s</li>\n<li>73\u00a0M$ en boissons, en spiritueux et en vinaigre</li>\n<li>54\u00a0M$ en tourteaux</li>\n</ul>\n\n<p>Principaux march\u00e9s d\u2019exportation de produits agricoles et agroalimentaires du Michigan\u00a0:</p>\n<ul>\n<li>Canada\u00a0: 42\u00a0%</li>\n<li>Mexique\u00a0: 12\u00a0%</li>\n<li>Japon\u00a0: 7\u00a0%</li>\n<li>Cor\u00e9e du Sud\u00a0: 6\u00a0%</li>\n<li>Tha\u00eflande\u00a0: 6\u00a0%</li>\n</ul>\n\n<p>* Les \u00ab\u00a0pr\u00e9parations alimentaires\u00a0\u00bb comprennent les succ\u00e9dan\u00e9s de th\u00e9, les pr\u00e9parations v\u00e9g\u00e9tales, les extraits, poudres et essences aromatis\u00e9s, les succ\u00e9dan\u00e9s du lait ou de la cr\u00e8me, les gel\u00e9es en poudre et les jus faits \u00e0 partir de concentr\u00e9s.</p>\n\n<p>M = million; G = milliard</p>\n<p>Tous les chiffres sont exprim\u00e9s en dollars am\u00e9ricains en fonction des donn\u00e9es sur les exportations et les importations totales des \u00c9tats-Unis en 2019 (en date de mars\u00a02020).</p>\n<p>Source des donn\u00e9es commerciales\u00a0: Bureau du recensement des \u00c9tats-Unis, selon la d\u00e9finition de l'agriculture par l'Organisation mondiale du commerce.</p>\n\n<p>Courriel\u00a0: <a href=\"mailto:aafc.mas-sam.aac@canada.ca\">aafc.mas-sam.aac@canada.ca</a></p>\n<p><a href=\"http://www.agr.gc.ca/partenairesag\">Pour en savoir davantage</a>\u00a0: www.agr.gc.ca/partenairesag</p>\n<p><a href=\"https://twitter.com/hashtag/partenairesag\">Suivez le fil de la conversation sur Twitter</a>\u00a0: #partenairesag</p>\n\r\n    "
    }
}