{
    "dcr_id": "1534978419938",
    "title": {
        "en": "2018 \"A\" Priorities for weeds / growth regulators",
        "fr": "Malherbologie et r\u00e9gulateurs de croissance - Priorit\u00e9s \u00ab A \u00bb pour 2018"
    },
    "modified": "2018-08-27",
    "issued": "2018-08-27",
    "templatetype": "content page 1 column",
    "page_type": "0",
    "node_id": "1535050365039",
    "dc_date_created": "2018-08-27",
    "managing_branch": "PAB",
    "parent_node_id": "",
    "short_title": "",
    "exturl": "",
    "teamsite_location": {
        "en": "/default/main/AAFC-AAC/Internet-Internet/Group-Ensemble/ProgServ-ProgServ/WORKAREA/ProgServ-ProgServ/templatedata/comm-comm/gene-gene/data/08/2018_weeds_a_priorities_1534978419938_en",
        "fr": "/default/main/AAFC-AAC/Internet-Internet/Group-Ensemble/ProgServ-ProgServ/WORKAREA/ProgServ-ProgServ/templatedata/comm-comm/gene-gene/data/08/2018_weeds_a_priorities_1534978419938_fr"
    },
    "type_name": "comm-comm/gene-gene",
    "has_dcr_id": true,
    "label": {
        "en": "2018 \"A\" Priorities for weeds / growth regulators",
        "fr": "Malherbologie et r\u00e9gulateurs de croissance - Priorit\u00e9s \u00ab A \u00bb pour 2018"
    },
    "breadcrumb": {
        "en": "2018 \"A\" Priorities for weeds / growth regulators",
        "fr": "Malherbologie et r\u00e9gulateurs de croissance - Priorit\u00e9s \u00ab A \u00bb pour 2018"
    },
    "layout_name": "content page 1 column",
    "lang": "en",
    "refaire": false,
    "meta": {
        "viewport": {
            "en": "width=device-width,initial-scale=1",
            "fr": "width=device-width, initial-scale=1"
        },
        "issued": {
            "en": "2018-08-27",
            "fr": "2018-08-27"
        },
        "modified": {
            "en": "2018-08-27",
            "fr": "2018-08-27"
        },
        "format": {
            "en": "text/html",
            "fr": "text/html"
        },
        "title": {
            "en": "2018 \"A\" Priorities for weeds / growth regulators",
            "fr": "Malherbologie et r\u00e9gulateurs de croissance - Priorit\u00e9s \u00ab A \u00bb pour 2018"
        },
        "subject": {
            "en": "safflower;weed control;viral diseases",
            "fr": "lin;mauvaises herbes;pommes de terre-transformation"
        },
        "dcterms:subject": {
            "en": "geomatics;pesticides;agriculture",
            "fr": "organisme nuisible;programme;\u0153uf"
        },
        "description": {
            "en": "MUP-PUL Minor Use Pesticides Program submissions_and_registrations Minor Use Pesticides - Submissions. clopyralid. AAFC15-002. Submitted to PMRA*. Updated information since August\u00a016, 2017.Submission Fiscal Year: 2016-17 (Total 55). Crop. Rust, leaf and stem (Puccinia graminis); Rust (Puccinia sp.); Rust, stripe (Puccinia striiformis). Tilt 250E fungicide.",
            "fr": "MUP-PUL Programme des pesticides \u00e0 usage limit\u00e9 Malherbologie et r\u00e9gulateurs de croissance - Priorit\u00e9s \u00ab A \u00bb pour 2017. 06. Haricot sec. Mauvaises herbes \u00e0 l'\u00e9tiquette. 18-012. 19. Lavande. Mauvaises herbes \u00e0 l'\u00e9tiquette."
        },
        "language": {
            "en": "eng",
            "fr": "fra"
        },
        "keywords": {
            "en": "DuPont;ISK Biosciences;fluroxypyr and florasulam and MCPA",
            "fr": "Fl\u00e9ole;halauxifen et fluroxypry"
        },
        "audience": {
            "en": "gcaudience",
            "fr": "gcaudience"
        },
        "type": {
            "en": "abstract",
            "fr": "accord"
        },
        "creator": {
            "en": "Agriculture and Agri-Food Canada;Government of Canada",
            "fr": "Agriculture et Agroalimentaire Canada;Gouvernement du Canada"
        },
        "spatial": {
            "en": "gcregions",
            "fr": "gcregions"
        },
        "service": {
            "en": "AAFC-AAC",
            "fr": "AAFC-AAC"
        },
        "accessRights": {
            "en": "2",
            "fr": "2"
        },
        "legalName": {
            "en": "agriculture_and_agri_food_canada",
            "fr": "agriculture_et_agroalimentaire_canada"
        },
        "areaServed": {
            "en": "Canada",
            "fr": "Canada"
        }
    },
    "h1": {
        "en": "2018 \"A\" Priorities for weeds / growth regulators",
        "fr": "Malherbologie et r\u00e9gulateurs de croissance - Priorit\u00e9s \u00ab A \u00bb pour 2018"
    },
    "js": {
        "en": "",
        "fr": ""
    },
    "body": {
        "en": "\r\n    <p><a href=\"#alt\">Alternative Formats</a></p>\n\n<h2>\"A\" priorities selected at the 2018 Minor Use Workshop</h2>  \n \n <p>** Please note that the content spans wider than usual.</p>\n\n<table class=\"table table-responsive table-condensed table-bordered small\">\n<caption class=\"hidden\">\"A\" priorities for weeds / growth regulators selected at the 2018 Minor Use Workshop</caption>\n<thead>\n<tr>\n<th scope=\"col\">Agriculture and Agri-Food Canada Project Number</th>\n<th scope=\"col\">Crop group</th>\n<th scope=\"col\">Crop</th>\n<th scope=\"col\">Target Pest<br>(common name)</th>\n<th scope=\"col\">National Ranking</th>\n<th scope=\"col\">Selected Solution</th>\n<th scope=\"col\">Potential Solution<br> (active ingredient)</th>\n<th scope=\"col\">Potential Solution<br>(product)</th>\n<th scope=\"col\">Registrant</th>\n</tr>\n</thead>\n<tbody>\n<tr>\n<td>19-012</td>\n<td class=\"text-center\">01</td>\n<td>Carrot</td>\n<td>Labelled weeds (muck soil only)</td>\n<td class=\"text-center\">A</td>\n<td class=\"text-center\">1</td>\n<td>pyroxasulfone</td>\n<td>Pyroxasulfone 85WG / Zidua</td>\n<td>K-I Chemical U.S.A. / BASF</td>\n</tr>\n<tr>\n<td>Not applicable</td>\n<td class=\"text-center\">01</td>\n<td>Carrot</td>\n<td>Labelled weeds (muck soil only)</td>\n<td class=\"text-center\">A</td>\n<td class=\"text-center\">2</td>\n<td>pethoxamid</td>\n<td>Nero</td>\n<td>FMC</td>\n</tr>\n<tr>\n<td>19-013</td>\n<td class=\"text-center\">01</td>\n<td>Parsnip</td>\n<td>Labelled weeds (mineral soil only)</td>\n<td class=\"text-center\">A</td>\n<td class=\"text-center\">1</td>\n<td>ethalfluralin</td>\n<td>Edge</td>\n<td>Gowan</td>\n</tr>\n<tr>\n<td>Not applicable</td>\n<td class=\"text-center\">01</td>\n<td>Parsnip</td>\n<td>Labelled weeds (mineral soil only)</td>\n<td class=\"text-center\">A</td>\n<td class=\"text-center\">2</td>\n<td>clomazone</td>\n<td>Command</td>\n<td>FMC</td>\n</tr>\n<tr>\n<td>19-014</td>\n<td class=\"text-center\">01</td>\n<td>Potato</td>\n<td>Labelled weeds</td>\n<td class=\"text-center\">A</td>\n<td class=\"text-center\">1</td>\n<td>bentazon</td>\n<td>Broadloom</td>\n<td>UPI </td>\n</tr>\n<tr>\n<td>Not applicable</td>\n<td class=\"text-center\">01</td>\n<td>Potato</td>\n<td>Labelled weeds</td>\n<td class=\"text-center\">A</td>\n<td class=\"text-center\">2</td>\n<td>To be determined</td>\n<td> </td>\n<td> </td>\n</tr>\n<tr>\n<td>19-015</td>\n<td class=\"text-center\">03-07</td>\n<td>Onion, dry bulb</td>\n<td>Labelled weeds including yellow nutsedge (mineral soil)</td>\n<td class=\"text-center\">A</td>\n<td class=\"text-center\">1</td>\n<td>dimethenamid-p</td>\n<td>Frontier Max</td>\n<td>BASF</td>\n</tr>\n<tr>\n<td>19-016</td>\n<td class=\"text-center\">03-07</td>\n<td>Onion, green</td>\n<td>Labelled weeds (mineral and muck soil)</td>\n<td class=\"text-center\">A</td>\n<td class=\"text-center\">1</td>\n<td>oxyfluorfen</td>\n<td>Goal</td>\n<td>Dow Agro</td>\n</tr>\n<tr>\n<td>Not applicable</td>\n<td class=\"text-center\">03-07</td>\n<td>Onion, green</td>\n<td>Labelled weeds (mineral and muck soil)</td>\n<td class=\"text-center\">A</td>\n<td class=\"text-center\">2</td>\n<td>To be determined</td>\n<td> </td>\n<td> </td>\n</tr>\n<tr>\n<td>19-017</td>\n<td class=\"text-center\">06</td>\n<td>Bean. dry</td>\n<td>Wild oat</td>\n<td class=\"text-center\">A</td>\n<td class=\"text-center\">1</td>\n<td>triallate</td>\n<td>Avadex BW</td>\n<td>Gowan</td>\n</tr>\n<tr>\n<td>19-018</td>\n<td class=\"text-center\">19</td>\n<td>Coriander</td>\n<td>Labelled weeds</td>\n<td class=\"text-center\">A</td>\n<td class=\"text-center\">1</td>\n<td>clomazone</td>\n<td>Command</td>\n<td>FMC</td>\n</tr>\n<tr>\n<td>19-019</td>\n<td class=\"text-center\">19</td>\n<td>Mint (field)</td>\n<td>Labelled weeds</td>\n<td class=\"text-center\">A</td>\n<td class=\"text-center\">1</td>\n<td>prridate</td>\n<td>Tough</td>\n<td>Belchim Crop Protection</td>\n</tr>\n<tr>\n<td>Not applicable</td>\n<td class=\"text-center\">19</td>\n<td>Mint (field)</td>\n<td>Labelled weeds</td>\n<td class=\"text-center\">A</td>\n<td class=\"text-center\">2</td>\n<td>pyroxasulfone</td>\n<td>Pyroxasulfone 85WG / Zidua</td>\n<td>K-I Chemical U.S.A. / BASF</td>\n</tr>\n<tr>\n<td>19-020</td>\n<td class=\"text-center\">20</td>\n<td>Sunflower</td>\n<td>Labelled weeds</td>\n<td class=\"text-center\">A</td>\n<td class=\"text-center\">1</td>\n<td>pendimethalin</td>\n<td>Prowl H20</td>\n<td>BASF </td>\n</tr>\n<tr>\n<td>Not applicable</td>\n<td class=\"text-center\">20</td>\n<td>Sunflower</td>\n<td>Labelled weeds</td>\n<td class=\"text-center\">A</td>\n<td class=\"text-center\">2</td>\n<td>To be determined</td>\n<td> </td>\n<td> </td>\n</tr>\n<tr>\n<td>19-021</td>\n<td>It is not included in any crop group</td>\n<td>Hops</td>\n<td>Labelled weeds</td>\n<td class=\"text-center\">A</td>\n<td class=\"text-center\">1</td>\n<td>clopyralid</td>\n<td>Lontrel</td>\n<td>Dow Agro</td>\n</tr>\n<tr>\n<td>Not applicable</td>\n<td>It is not included in any crop group</td>\n<td>Hops</td>\n<td>Labelled weeds</td>\n<td class=\"text-center\">A</td>\n<td class=\"text-center\">2</td>\n<td>carfentrazone and pyroxysulfone</td>\n<td>Focus</td>\n<td>FMC</td>\n</tr>\n</tbody>\n</table>\n\n<h2 id=\"alt\">Alternative Formats</h2>\n\n<p><a href=\"?id=1168622342753\">Help with Alternative Formats</a></p>\n\n\n<p><a href=\"https://www.agr.gc.ca/resources/prod/doc/pmc/pdf/weeds_malherbologie_priorities_a_2018-eng.pdf\">Weeds / Growth regulators - A Priorities selected at the March 2018 Minor Use Workshop (PDF Version, 63 KB)</a></p>\n\r\n    ",
        "fr": "\r\n    <p><a href=\"#alt\">Formats de rechange</a></p>\n\n<h2>Priorit\u00e9s \u00ab A \u00bb choisies lors de l'Atelier sur les pesticides \u00e0 usage limit\u00e9 de 2018</h2>\n\n <p>** Veuillez noter que le contenu est plus large que d'habitude.</p>\n\n<table class=\"table table-responsive table-condensed table-bordered small\">\n<caption class=\"hidden\">Malherbologie et r\u00e9gulateurs de croissance - Priorit\u00e9s \u00ab A \u00bb choisies lors de l'Atelier sur les pesticides \u00e0 usage limit\u00e9 de 2018</caption>\n <thead>\n<tr>\n<th scope=\"col\">Num\u00e9ro de project d'Agriculture et Agroalimentaire Canada</th>\n<th scope=\"col\">Groupe de culture</th>\n<th scope=\"col\">Culture</th>\n<th scope=\"col\">Ravageur vis\u00e9 (nom commun)</th>\n<th scope=\"col\">Classement national</th>\n<th scope=\"col\">Choix des solutions</th>\n<th scope=\"col\">Solution propos\u00e9e<br>(mati\u00e8re active)</th>\n<th scope=\"col\">Solution propos\u00e9e<br> (produit)</th>\n<th scope=\"col\">Compagnie titulaire</th>\n</tr>\n</thead>\n<tbody>\n<tr>\n<td>19-012 </td>\n<td class=\"text-center\">01 </td>\n<td>Carotte </td>\n<td>Mauvaises herbes sur l'\u00e9tiquette (terres noires seulement)</td>\n<td class=\"text-center\">A </td>\n<td class=\"text-center\">1</td>\n<td>pyroxasulfone</td>\n<td>Pyroxasulfone 85WG / Zidua</td>\n<td>K-I Chemical U.S.A. / BASF</td>\n</tr>\n<tr>\n<td> Pas applicable</td>\n<td class=\"text-center\">01</td>\n<td>Carotte </td>\n<td>Mauvaises herbes sur l'\u00e9tiquette (terres noires seulement)</td>\n<td class=\"text-center\">A</td>\n<td class=\"text-center\">2</td>\n<td>pyroxasulfone</td>\n<td>Nero</td>\n<td>FMC</td>\n</tr>\n<tr>\n<td>19-013</td>\n<td class=\"text-center\">01</td>\n<td>Panais</td>\n<td>Mauvaises herbes sur l'\u00e9tiquette (terres min\u00e9rales seulement)</td>\n<td class=\"text-center\">A</td>\n<td class=\"text-center\">1</td>\n<td>\u00e9thalfluraline</td>\n<td>Edge</td>\n<td>Gowan</td>\n</tr>\n<tr>\n<td> Pas applicable</td>\n<td class=\"text-center\">01</td>\n<td>Panais</td>\n<td>Mauvaises herbes sur l'\u00e9tiquette (terres min\u00e9rales seulement)</td>\n<td class=\"text-center\">A</td>\n<td class=\"text-center\">2</td>\n<td>clomazone</td>\n<td>Command</td>\n<td>FMC</td>\n</tr>\n<tr>\n<td>19-014</td>\n<td class=\"text-center\">01</td>\n<td>Pomme de terre</td>\n<td>Mauvaises herbes sur l'\u00e9tiquette</td>\n<td class=\"text-center\">A</td>\n<td class=\"text-center\">1</td>\n<td>bentazone</td>\n<td>Broadloom</td>\n<td>UPI</td>\n</tr>\n<tr>\n<td>Pas applicable</td>\n<td class=\"text-center\">01</td>\n<td>Pomme de terre </td>\n<td>Mauvaises herbes sur l'\u00e9tiquette</td>\n<td class=\"text-center\">A</td>\n<td class=\"text-center\">2</td>\n<td>\u00c0 d\u00e9terminer</td>\n<td> </td>\n<td> </td>\n</tr>\n<tr>\n<td>19-015</td>\n<td class=\"text-center\">03-07</td>\n<td>Oignon sec</td>\n<td>Mauvaises herbes \u00e0 feuilles larges (terres min\u00e9rales) </td>\n<td class=\"text-center\">A</td>\n<td class=\"text-center\">1</td>\n<td>dim\u00e9th\u00e9namide-p</td>\n<td>Frontier Max</td>\n<td>BASF</td>\n</tr>\n<tr>\n<td>19-016</td>\n<td class=\"text-center\">03-07</td>\n<td>Oignon vert</td>\n<td>Mauvaises herbes sur l'\u00e9tiquette (terres noire et min\u00e9rale</td>\n<td class=\"text-center\">A</td>\n<td class=\"text-center\">1</td>\n<td>oxyfluorf\u00e8ne</td>\n<td>Goal</td>\n<td>Dow Agro</td>\n</tr>\n<tr>\n<td> Pas applicable</td>\n<td class=\"text-center\">03-07</td>\n<td>Oignon vert</td>\n<td>Mauvaises herbes sur l'\u00e9tiquette (terres noire et min\u00e9rale</td>\n<td class=\"text-center\">A</td>\n<td class=\"text-center\">2</td>\n<td>\u00c0 d\u00e9terminer</td>\n<td> </td>\n<td> </td>\n</tr>\n<tr>\n<td>19-017</td>\n<td class=\"text-center\">06</td>\n<td>Haricot sec</td>\n<td>Folle avoine</td>\n<td class=\"text-center\">A</td>\n<td class=\"text-center\">1</td>\n<td>triallate</td>\n<td>Avadex BW</td>\n<td>Gowan</td>\n</tr>\n<tr>\n<td>19-018</td>\n<td class=\"text-center\">19</td>\n<td>Coriandre</td>\n<td>Mauvaises herbes sur l'\u00e9tiquette</td>\n<td class=\"text-center\">A</td>\n<td class=\"text-center\">1</td>\n<td>clomazone</td>\n<td>Command</td>\n<td>FMC</td>\n</tr>\n<tr>\n<td>19-019</td>\n<td class=\"text-center\">19</td>\n<td>Menthe (champ)</td>\n<td>Mauvaises herbes sur l'\u00e9tiquette</td>\n<td class=\"text-center\">A</td>\n<td class=\"text-center\">1</td>\n<td>pyridalyl</td>\n<td>Tough</td>\n<td>Belchim Crop Protection</td>\n</tr>\n<tr>\n<td>Pas applicable</td>\n<td class=\"text-center\">19</td>\n<td>Menthe (champ)</td>\n<td>Mauvaises herbes sur l'\u00e9tiquette</td>\n<td class=\"text-center\">A</td>\n<td class=\"text-center\">2</td>\n<td>pyroxasulfone</td>\n<td>Pyroxasulfone 85WG / Zidua</td>\n<td>K-I Chemical U.S.A. / BASF</td>\n</tr>\n<tr>\n<td>19-020</td>\n<td class=\"text-center\">20</td>\n<td>Tournesol </td>\n<td>Mauvaises herbes sur l'\u00e9tiquette</td>\n<td class=\"text-center\">A</td>\n<td class=\"text-center\">1</td>\n<td>pendim\u00e9thaline</td>\n<td>Prowl H20</td>\n<td>BASF </td>\n</tr>\n<tr>\n<td> Pas applicable</td>\n<td class=\"text-center\">20</td>\n<td>Tournesol</td>\n<td>Mauvaises herbes sur l'\u00e9tiquette</td>\n<td class=\"text-center\">A</td>\n<td class=\"text-center\">2</td>\n<td>\u00c0 d\u00e9terminer</td>\n<td> </td>\n<td> </td>\n</tr>\n<tr>\n<td>19-021</td>\n<td> Non compris dans un groupe de culture</td>\n<td>Houblon </td>\n<td>Mauvaises herbes sur l'\u00e9tiquette</td>\n<td class=\"text-center\">A</td>\n<td class=\"text-center\">1</td>\n<td>clopyralid</td>\n<td>Lontrel</td>\n<td>Dow Agro</td>\n</tr>\n<tr>\n<td> Pas applicable</td>\n<td> Non compris dans un groupe de culture</td>\n<td>Houblon</td>\n<td>Mauvaises herbes sur l'\u00e9tiquette</td>\n<td class=\"text-center\">A</td>\n<td class=\"text-center\">2</td>\n<td>carfentrazone and pyroxasulfone</td>\n<td>Focus</td>\n<td>FMC</td>\n</tr>\n</tbody>\n</table>\n\n<h2 id=\"alt\">Formats de rechange</h2>\n\n<p><a href=\"?id=1168622342753\">Aide sur les formats de rechange</a></p>\n\n<p><a href=\"https://www.agr.gc.ca/resources/prod/doc/pmc/pdf/weeds_malherbologie_priorities_a_2018-fra.pdf\">Malherbologie et r\u00e9gulateurs de croissance - Priorit\u00e9s A choisies lors de l'Atelier sur les usages limit\u00e9s de mars 2018 (Version PDF, 62 Ko)</a></p>\n\r\n    "
    }
}