{
    "dcr_id": "1535563395750",
    "title": {
        "en": "Crop Profile for Winter Wheat in Canada, 2016 (84 pages) - Synopsis",
        "fr": "Profil de la culture du bl\u00e9 d\u2019automne au Canada, 2016 (87 pages) \u2013 R\u00e9sum\u00e9"
    },
    "modified": "2019-05-23",
    "issued": "2018-10-12",
    "templatetype": "content page 1 column",
    "page_type": "0",
    "node_id": "1535122352575",
    "dc_date_created": "2018-10-12",
    "managing_branch": "PAB",
    "parent_node_id": "",
    "short_title": "",
    "exturl": "",
    "teamsite_location": {
        "en": "/default/main/AAFC-AAC/Internet-Internet/Group-Ensemble/ProgServ-ProgServ/WORKAREA/ProgServ-ProgServ/templatedata/comm-comm/gene-gene/data/08/cp_wheat-winter_1535563395750_en",
        "fr": "/default/main/AAFC-AAC/Internet-Internet/Group-Ensemble/ProgServ-ProgServ/WORKAREA/ProgServ-ProgServ/templatedata/comm-comm/gene-gene/data/08/cp_wheat-winter_1535563395750_fr"
    },
    "type_name": "comm-comm/gene-gene",
    "has_dcr_id": true,
    "label": {
        "en": "Crop Profile for Winter Wheat in Canada, 2016 (84 pages) - Synopsis",
        "fr": "Profil de la culture du bl\u00e9 d\u2019automne au Canada, 2016 (87 pages) \u2013 R\u00e9sum\u00e9"
    },
    "breadcrumb": {
        "en": "Crop Profile for Winter Wheat in Canada, 2016 (84 pages) - Synopsis",
        "fr": "Profil de la culture du bl\u00e9 d\u2019automne au Canada, 2016 (87 pages) \u2013 R\u00e9sum\u00e9"
    },
    "layout_name": "content page 1 column",
    "lang": "en",
    "refaire": false,
    "meta": {
        "viewport": {
            "en": "width=device-width,initial-scale=1",
            "fr": "width=device-width, initial-scale=1"
        },
        "issued": {
            "en": "2018-10-12",
            "fr": "2018-10-12"
        },
        "modified": {
            "en": "2019-05-23",
            "fr": "2019-05-23"
        },
        "format": {
            "en": "text/html",
            "fr": "text/html"
        },
        "title": {
            "en": "Crop Profile for Winter Wheat in Canada, 2016 (84 pages) - Synopsis",
            "fr": "Profil de la culture du bl\u00e9 d\u2019automne au Canada, 2016 (87 pages) \u2013 R\u00e9sum\u00e9"
        },
        "subject": {
            "en": "architectural heritage;soil assessement;viral diseases",
            "fr": "mauvaises herbes;syst\u00e8mes de culture;coop\u00e9ratives"
        },
        "dcterms:subject": {
            "en": "architecture;geomatics;statistics",
            "fr": "accord;\u00e9conomie agricole;coop\u00e9rative"
        },
        "description": {
            "en": "PRR-RRP Pesticide Risk Reduction Program cp_aspargus Crop Profile for Asparagus in Canada, 2015 (46 pages) - Synopsis. Detailed information is provided in tabular form on pest occurrence, integrated pest management options and registered pesticides available to growers.Grower issues and\u00a0gaps in pest management, identified through stakeholder consultations are described in each of the three main sections (disease, insect and mite and weed) and under each pest description. Detailed information on crop production and pest management in specific regions is available through provincial ministry of agriculture websites and provincial crop specialists.The.",
            "fr": "PRR-RRP Programme de r\u00e9duction des risques li\u00e9s aux pesticides Profil des cultures du Crucif\u00e8res au Canada, 2012 (75 pages) \u2013 R\u00e9sum\u00e9. Le chou, le brocoli, le chou-fleur et le chou de Bruxelles appartiennent \u00e0 la famille des brassicac\u00e9es, commun\u00e9ment appel\u00e9es \u00ab\u00a0crucif\u00e8res\u00a0\u00bb. Ces v\u00e9g\u00e9taux tr\u00e8s diff\u00e9rents l'un de l'autre sont des cultivars d'une seule plante, Brassica oleracea.Le. Il d\u00e9taille sous forme de tableaux les ennemis pr\u00e9sents, les moyens possibles de lutte antiparasitaire int\u00e9gr\u00e9e et les pesticides homologu\u00e9s qui sont \u00e0 la disposition des producteurs pour chaque culture.Les probl\u00e8mes et les lacunes de la lutte contre les ennemis ont \u00e9t\u00e9 cern\u00e9s dans le cadre de consultations aupr\u00e8s des intervenants. ne se veut pas un guide de production culturale."
        },
        "language": {
            "en": "eng",
            "fr": "fra"
        },
        "keywords": {
            "en": "PRR-RRP Pesticide Risk Reduction;options and registered pesticides;Pesticide Risk Reduction",
            "fr": "abiotiques;ennemis ont \u00e9t\u00e9 cern\u00e9s;renvoyons le lecteur"
        },
        "audience": {
            "en": "gcaudience",
            "fr": "gcaudience"
        },
        "type": {
            "en": "presentation",
            "fr": "pr\u00e9sentation"
        },
        "creator": {
            "en": "Agriculture and Agri-Food Canada;Government of Canada",
            "fr": "Agriculture et Agroalimentaire Canada;Gouvernement du Canada"
        },
        "spatial": {
            "en": "gcregions",
            "fr": "gcregions"
        },
        "service": {
            "en": "AAFC-AAC",
            "fr": "AAFC-AAC"
        },
        "accessRights": {
            "en": "2",
            "fr": "2"
        },
        "legalName": {
            "en": "agriculture_and_agri_food_canada",
            "fr": "agriculture_et_agroalimentaire_canada"
        },
        "areaServed": {
            "en": "Canada",
            "fr": "Canada"
        }
    },
    "h1": {
        "en": "Crop Profile for Winter Wheat in Canada, 2016 (84 pages) - Synopsis",
        "fr": "Profil de la culture du bl\u00e9 d\u2019automne au Canada, 2016 (87 pages) \u2013 R\u00e9sum\u00e9"
    },
    "js": {
        "en": "",
        "fr": ""
    },
    "body": {
        "en": "\r\n    <p>The <cite>Crop Profile for Winter Wheat, 2016</cite> provides an overview of production and pest management practices for winter wheat in Canada. Information is provided on abiotic factors affecting winter wheat growth. The biology of key disease, insect and mite, and weed problems is presented, as well as cultural and chemical methods of control. Detailed information is provided in tabular form on pest occurrence, integrated pest management options, as well as registered pesticides available to growers, current as of February, 2019.</p>\n\n<p>Grower issues/ gaps in pest management, identified through stakeholder consultations are described in each of the three main sections (disease, insect and mite and weed) and under each pest description. A list of provincial specialists for wheat and IPM resources is provided at the end of the profile.</p>\n\n<p>Limited crop production and market statistics are provided in the profile to give context to the economic importance of the commodity. For more detailed statistics pertaining to the crop, the reader is referred to <a href=\"http://www.statcan.gc.ca/start-debut-eng.html\">Statistics Canada</a>.</p>\n\n<p>The <cite>Crop Profile for Winter Wheat, 2016</cite> is not intended for use as a crop production guide. Detailed information on crop production and pest management in specific regions is available through provincial ministry of agriculture websites and provincial crop specialists.</p>\n\n<p>The <a href=\"http://www.publications.gc.ca/site/eng/9.872773/publication.html\"><cite>Crop Profile for Winter Wheat, 2016</cite></a> (full report) is available from Government of Canada Publications.</p>\n\r\n    ",
        "fr": "\r\n    <p>Le <cite>Profil de la culture du bl\u00e9 d\u2019automne, 2016</cite> donne un aper\u00e7u des pratiques de production et de gestion antiparasitaire de cette c\u00e9r\u00e9ale au Canada. Il renseigne sur les facteurs abiotiques qui influent sur sa croissance. Il explique la biologie des grands maux caus\u00e9s par les maladies et les infestations tant d\u2019insectes et d\u2019acariens que de mauvaises herbes, et pr\u00e9sente aussi les m\u00e9thodes culturales et chimiques de lutte. Des renseignements d\u00e9taill\u00e9s sont fournis sous forme de tableaux sur la pr\u00e9sence de ravageurs, les options de lutte antiparasitaire int\u00e9gr\u00e9e ainsi que les pesticides homologu\u00e9s offerts aux producteurs, \u00e0 jour en f\u00e9vier 2019.</p>\n\n<p>Il d\u00e9crit en outre les probl\u00e8mes et les lacunes que connaissent ces m\u00eames producteurs dans leur lutte contre les ennemis de cette culture, comme ils ont \u00e9t\u00e9 d\u00e9gag\u00e9s par des consultations aupr\u00e8s des intervenants. Cette description figure dans chacune des trois grandes parties du document (maladies, insectes-acariens et mauvaises herbes) et pour chaque ennemi de la culture du bl\u00e9 d\u2019automne. \u00c0 la fin du profil se trouve une liste de sp\u00e9cialistes provinciaux de cette culture et de personnes-ressources en lutte antiparasitaire int\u00e9gr\u00e9e.</p>\n\n<p>Les statistiques restreintes sur la production et le march\u00e9 du bl\u00e9 d\u2019automne fournies dans ce profil permettent de conna\u00eetre le contexte de son importance \u00e9conomique. Pour l\u2019obtention de statistiques plus d\u00e9taill\u00e9es sur cette culture, nous renvoyons le lecteur \u00e0 <a href=\"http://www.statcan.gc.ca/start-debut-fra.html\">Statistique Canada</a>.</p>\n\n<p>Le <cite>Profil de la culture du bl\u00e9 d\u2019automne, 2016</cite> ne se veut pas un guide de production culturale. On peut obtenir des renseignements d\u00e9taill\u00e9s sur la production du bl\u00e9 d\u2019automne et la lutte contre ses ennemis dans certaines r\u00e9gions en consultant les sites Web des minist\u00e8res provinciaux de l'Agriculture et les sp\u00e9cialistes provinciaux de cette culture. </p>\n\n<p>Le <a href=\"http://www.publications.gc.ca/site/fra/9.872775/publication.html\"><cite>Profil de la culture du bl\u00e9 d\u2019automne, 2016</cite></a> (rapport int\u00e9gral) est disponible aux Publications du gouvernement du Canada.</p>\n\r\n    "
    }
}