{
    "dcr_id": "1535499812385",
    "title": {
        "en": "Crop Profile for Sweet Corn in Canada, 2018 (49 pages) - Synopsis",
        "fr": "Profil de la culture du ma\u00efs sucr\u00e9 au Canada, 2018 (57 pages) - R\u00e9sum\u00e9"
    },
    "modified": "2020-09-03",
    "issued": "2018-10-12",
    "templatetype": "content page 1 column",
    "page_type": "0",
    "node_id": "1535122352575",
    "dc_date_created": "2018-10-12",
    "managing_branch": "PAB",
    "parent_node_id": "",
    "short_title": "",
    "exturl": "",
    "teamsite_location": {
        "en": "/default/main/AAFC-AAC/Internet-Internet/Group-Ensemble/ProgServ-ProgServ/WORKAREA/ProgServ-ProgServ/templatedata/comm-comm/gene-gene/data/08/cp_corn_sweet_1535499812385_en",
        "fr": "/default/main/AAFC-AAC/Internet-Internet/Group-Ensemble/ProgServ-ProgServ/WORKAREA/ProgServ-ProgServ/templatedata/comm-comm/gene-gene/data/08/cp_corn_sweet_1535499812385_fr"
    },
    "type_name": "comm-comm/gene-gene",
    "has_dcr_id": true,
    "label": {
        "en": "Crop Profile for Sweet Corn in Canada, 2018 (49 pages) - Synopsis",
        "fr": "Profil de la culture du ma\u00efs sucr\u00e9 au Canada, 2018 (57 pages) - R\u00e9sum\u00e9"
    },
    "breadcrumb": {
        "en": "Crop Profile for Sweet Corn in Canada, 2018 (49 pages) - Synopsis",
        "fr": "Profil de la culture du ma\u00efs sucr\u00e9 au Canada, 2018 (57 pages) - R\u00e9sum\u00e9"
    },
    "layout_name": "content page 1 column",
    "lang": "en",
    "refaire": false,
    "meta": {
        "viewport": {
            "en": "width=device-width,initial-scale=1",
            "fr": "width=device-width, initial-scale=1"
        },
        "issued": {
            "en": "2018-10-12",
            "fr": "2018-10-12"
        },
        "modified": {
            "en": "2020-09-03",
            "fr": "2020-09-03"
        },
        "format": {
            "en": "text/html",
            "fr": "text/html"
        },
        "title": {
            "en": "Crop Profile for Sweet Corn in Canada, 2018 (49 pages) - Synopsis",
            "fr": "Profil de la culture du ma\u00efs sucr\u00e9 au Canada, 2018 (57 pages) - R\u00e9sum\u00e9"
        },
        "subject": {
            "en": "architectural heritage;soil assessement;viral diseases",
            "fr": "eau souterraine;pommes de terre-producteurs;syst\u00e8mes de culture"
        },
        "dcterms:subject": {
            "en": "architecture;geomatics;statistics",
            "fr": "m\u00e9dicament;importation;d\u00e9veloppement communautaire"
        },
        "description": {
            "en": "PRR-RRP Pesticide Risk Reduction Program cp_corn_sweet Crop Profile for Sweet Corn in Canada, 2015 (66 pages) - Synopsis. A list of provincial specialists and Integrated Pest Management (IPM) resources, are provided at the end of the profile.Limited crop production and market statistics are provided in the profile to give context to the economic importance of the commodity. Crop Profile for Sweet Corn in Canada, 2015.",
            "fr": "PRR-RRP Programme de r\u00e9duction des risques li\u00e9s aux pesticides Profil de la culture du ma\u00efs sucr\u00e9 au Canada, 2015 (72 pages) - R\u00e9sum\u00e9. Le. En outre, des tableaux fournissent de plus amples renseignements sur les ravageurs affectant cette culture, sur les m\u00e9thodes de lutte antiparasitaire int\u00e9gr\u00e9e ainsi que sur les pesticides homologu\u00e9s que les cultivateurs peuvent utiliser.Chacune des trois sections principales explique, \u00e0 la suite de la description de chaque ravageur (maladies, insectes, mites et mauvaises herbes), les probl\u00e8mes et lacunes en mati\u00e8re de lutte antiparasitaire mentionn\u00e9s par les cultivateurs dans le cadre de s\u00e9ances de consultation des intervenants. On peut obtenir des renseignements d\u00e9taill\u00e9s sur la production du ma\u00efs sucr\u00e9 et la lutte contre ses ennemis dans certaines r\u00e9gions en consultant les sites Web des minist\u00e8res provinciaux de l'Agriculture et les sp\u00e9cialistes provinciaux de cette culture.Le\u00a0. profil de la culture du ma\u00efs sucr\u00e9 au Canada, 2015."
        },
        "language": {
            "en": "eng",
            "fr": "fra"
        },
        "keywords": {
            "en": "PRR-RRP Pesticide Risk Reduction;options and registered pesticides;Pesticide Risk Reduction",
            "fr": "R\u00e9sum\u00e9;facteurs abiotiques;homologu\u00e9s que les cultivateurs peuvent utiliser.Chacune"
        },
        "audience": {
            "en": "gcaudience",
            "fr": "gcaudience"
        },
        "type": {
            "en": "presentation",
            "fr": "documentation de r\u00e9union"
        },
        "creator": {
            "en": "Agriculture and Agri-Food Canada;Government of Canada",
            "fr": "Agriculture et Agroalimentaire Canada;Gouvernement du Canada"
        },
        "spatial": {
            "en": "gcregions",
            "fr": "gcregions"
        },
        "service": {
            "en": "AAFC-AAC",
            "fr": "AAFC-AAC"
        },
        "accessRights": {
            "en": "2",
            "fr": "2"
        },
        "legalName": {
            "en": "agriculture_and_agri_food_canada",
            "fr": "agriculture_et_agroalimentaire_canada"
        },
        "areaServed": {
            "en": "Canada",
            "fr": "Canada"
        }
    },
    "h1": {
        "en": "Crop Profile for Sweet Corn in Canada, 2018 (49 pages) - Synopsis",
        "fr": "Profil de la culture du ma\u00efs sucr\u00e9 au Canada, 2018 (57 pages) - R\u00e9sum\u00e9"
    },
    "js": {
        "en": "",
        "fr": ""
    },
    "body": {
        "en": "\r\n     \n\n<p>The <cite>Crop Profile for Sweet Corn in Canada, 2018</cite> provides an overview of production and pest management practices for sweet corn in Canada. Information is provided on abiotic factors affecting its growth. The biology of key disease, insect and mite and weed problems is presented as well as cultural, chemical and alternative methods of control. </p>\n\n<p>Grower issues and gaps in pest management, identified through stakeholder consultations are described in each of the three main sections (disease, insect and mite and weed) and under each pest description. A list of provincial specialists and Integrated Pest Management (IPM) resources, are provided at the end of the profile.</p>\n\n<p>Limited crop production and market statistics are provided in the profile to give context to the economic importance of the commodity. For more detailed statistics pertaining to the crop, the reader is referred to <a href=\"http://www.statcan.gc.ca/start-debut-eng.html\">Statistics Canada</a>.</p>\n\n<p>Information on pest issues and management practices is provided for information purposes only. For detailed information on growing sweet corn, the reader is referred to provincial crop production guides and provincial ministry websites listed in the Resources Section at the end of the profile. For guidance about crop protection products registered for pests on sweet corn, the reader is referred to provincial crop production guides\n <a href=\"https://pr-rp.hc-sc.gc.ca/ls-re/index-eng.php\">Health Canada\u2019s Pesticide label database</a>.</p>\n\n<p>The <a href=\"http://publications.gc.ca/site/eng/9.890665/publication.html\">Crop Profile for Sweet Corn in Canada, 2018</a> (full report) is available from Government of Canada Publications.</p>\n\r\n    ",
        "fr": "\r\n     \n\n<p>Le <cite>profil de la culture du ma\u00efs sucr\u00e9 au Canada, 2018</cite> pr\u00e9sente un aper\u00e7u de la production et des m\u00e9thodes de lutte antiparasitaire ayant trait \u00e0 la culture du ma\u00efs sucr\u00e9 au Canada. De plus, il renferme des renseignements sur les facteurs abiotiques qui affectent la croissance de cette culture. Le profil explique \u00e9galement la biologie des maladies, des insectes, des mites et des mauvaises herbes qui sont les principales sources de probl\u00e8mes affectant cette culture, ainsi que les m\u00e9thodes de lutte (lutte culturale, lutte chimique et autres m\u00e9thodes) employ\u00e9es. </p>\n\n<p>Chacune des trois sections principales explique, \u00e0 la suite de la description de chaque ravageur (maladies, insectes, mites et mauvaises herbes), les probl\u00e8mes et lacunes en mati\u00e8re de lutte antiparasitaire mentionn\u00e9s par les cultivateurs dans le cadre de s\u00e9ances de consultation des intervenants. Une liste de sp\u00e9cialistes provinciaux et de ressources sur la lutte antiparasitaire int\u00e9gr\u00e9e se trouve \u00e0 la fin du profil.</p>\n\n<p>De plus, le profil pr\u00e9sente des statistiques sommaires sur la production et le march\u00e9 de la culture en question afin de donner un aper\u00e7u de l'importance \u00e9conomique du produit. Pour obtenir des statistiques plus d\u00e9taill\u00e9es sur la culture, on peut consulter le site Web de <a href=\"http://www.statcan.gc.ca/start-debut-fra.html\">Statistique Canada</a>.</p>\n\n<p>Les renseignements sur les probl\u00e8mes li\u00e9s aux organismes nuisibles et les techniques de lutte sont uniquement fournis \u00e0 titre d\u2019information. Pour obtenir de plus amples renseignements sur la culture du ma\u00efs sucr\u00e9, le lecteur est invit\u00e9 \u00e0 consulter les guides de production publi\u00e9s par les provinces et les sites Web des minist\u00e8res provinciaux qui sont \u00e9num\u00e9r\u00e9s \u00e0 la rubrique \u00abRessources\u00bb \u00e0 la fin du pr\u00e9sent document. Pour obtenir des renseignements sur les produits de protection homologu\u00e9s pour la culture du ma\u00efs sucr\u00e9, le lecteur est pri\u00e9 de consulter les guides de production publi\u00e9s par les provinces ainsi que la <a href=\"https://pr-rp.hc-sc.gc.ca/ls-re/index-fra.php\">base de donn\u00e9es des \u00e9tiquettes de pesticides de Sant\u00e9 Canada</a>.</p>\n\n<p>Le <a href=\"http://publications.gc.ca/site/eng/9.890666/publication.html\">profil de la culture du ma\u00efs sucr\u00e9 au Canada, 2018</a> (rapport int\u00e9gral) est disponible aux Publications du gouvernement du Canada.</p>\n\r\n    "
    }
}