{
    "dcr_id": "1535413607697",
    "title": {
        "en": "Reduced-Risk Management Strategy for White Mold",
        "fr": "Strat\u00e9gie \u00e0 risque r\u00e9duit pour la lutte contre la scl\u00e9rotiniose"
    },
    "modified": "2019-09-23",
    "issued": "2018-10-12",
    "templatetype": "content page 1 column",
    "page_type": "0",
    "node_id": "1535393199176",
    "dc_date_created": "2018-10-12",
    "managing_branch": "PAB",
    "parent_node_id": "",
    "short_title": "",
    "exturl": "",
    "teamsite_location": {
        "en": "/default/main/AAFC-AAC/Internet-Internet/Group-Ensemble/ProgServ-ProgServ/WORKAREA/ProgServ-ProgServ/templatedata/comm-comm/gene-gene/data/08/s_white_mold_1535413607697_en",
        "fr": "/default/main/AAFC-AAC/Internet-Internet/Group-Ensemble/ProgServ-ProgServ/WORKAREA/ProgServ-ProgServ/templatedata/comm-comm/gene-gene/data/08/s_white_mold_1535413607697_fr"
    },
    "type_name": "comm-comm/gene-gene",
    "has_dcr_id": true,
    "label": {
        "en": "Reduced-Risk Management Strategy for White Mold",
        "fr": "Strat\u00e9gie \u00e0 risque r\u00e9duit pour la lutte contre la scl\u00e9rotiniose"
    },
    "breadcrumb": {
        "en": "Reduced-Risk Management Strategy for White Mold",
        "fr": "Strat\u00e9gie \u00e0 risque r\u00e9duit pour la lutte contre la scl\u00e9rotiniose"
    },
    "layout_name": "content page 1 column",
    "lang": "en",
    "refaire": false,
    "meta": {
        "viewport": {
            "en": "width=device-width,initial-scale=1",
            "fr": "width=device-width, initial-scale=1"
        },
        "issued": {
            "en": "2018-10-12",
            "fr": "2018-10-12"
        },
        "modified": {
            "en": "2019-09-23",
            "fr": "2019-09-23"
        },
        "format": {
            "en": "text/html",
            "fr": "text/html"
        },
        "title": {
            "en": "Reduced-Risk Management Strategy for White Mold",
            "fr": "Strat\u00e9gie \u00e0 risque r\u00e9duit pour la lutte contre la scl\u00e9rotiniose"
        },
        "subject": {
            "en": "vegetable crops;canola oil;soil assessement",
            "fr": "enc\u00e9phalopathie spongiforme bovine;maladie de la vache folle;approvisionnement en eau"
        },
        "dcterms:subject": {
            "en": "architecture;agriculture;technology",
            "fr": "importation;\u00e9conomie agricole;m\u00e9dicament"
        },
        "description": {
            "en": "PRR-RRP Pesticide Risk Reduction Program s_root_insect_pests Pesticide Risk Reduction Strategy for Root Insect Pests of Carrot, Parsnip and Onion. \u2013 Prince Edward Island Department of Agriculture and Forestry;Mary Ruth McDonald. However, since the initiation of this Strategy, a number of other chemical insecticides re-evaluations have been initiated by PMRA: clothianidin and imidacloprid (carrot rust fly, onion maggot and seedcorn maggot), cypermethrin (carrot rust fly, onion maggot flies), lambda-cyhalothrin (carrot rust fly and carrot weevil), phosmet (carrot weevil), and chlorpyrifos (onion maggot larvae). Thus, there is an urgent need for the development of robust, reduced risk management options for these pests.Strategy development.",
            "fr": "PRR-RRP Programme de r\u00e9duction des risques li\u00e9s aux pesticides Strat\u00e9gies de r\u00e9duction des risques li\u00e9s aux pesticides au Centre de la lutte antiparasitaire. Elles peuvent viser non seulement la r\u00e9solution d'un seul probl\u00e8me li\u00e9 aux ravageurs dans une culture donn\u00e9e (par exemple, l'ascochytose du pois chiche), mais aussi la r\u00e9solution de probl\u00e8mes li\u00e9s \u00e0 de multiples ravageurs et cultures (par exemple, la moisissure blanche dans les cultures de grande production et les l\u00e9gumes). Les documents strat\u00e9giques, qui sont habituellement publi\u00e9s sur le site Web du CLA, pr\u00e9sentent un r\u00e9sum\u00e9 des progr\u00e8s r\u00e9alis\u00e9s quant aux activit\u00e9s pr\u00e9vues ou entreprises et du soutien offert dans le cadre du PRRP pour l'\u00e9laboration et la mise en \u0153uvre d'une strat\u00e9gie.Comment les strat\u00e9gies sont-elles \u00e9labor\u00e9es et mises en \u0153uvre?Dans le cadre du PRRP, on choisit les priorit\u00e9s en mati\u00e8re de r\u00e9duction des risques li\u00e9s aux pesticides qu'il faut examiner en les classant en fonction de crit\u00e8res comme les pertes de r\u00e9colte attribuable \u00e0 un ravageur, l'accessibilit\u00e9 des mesures de lutte antiparasitaire en place, l'importance des r\u00e9percussions du ravageur sur les d\u00e9bouch\u00e9s commerciaux et la comp\u00e9titivit\u00e9 des producteurs ainsi que les risques li\u00e9s \u00e0 l'ensemble des pesticides utilis\u00e9s pour lutter contre le ravageur.Comment les strat\u00e9gies sont-elles \u00e9labor\u00e9es et mises en \u0153uvre?Dans le cadre du PRRP, on choisit les priorit\u00e9s en mati\u00e8re de r\u00e9duction des risques li\u00e9s aux pesticides qu'il faut examiner en les classant en fonction de crit\u00e8res comme les pertes de r\u00e9colte attribuable \u00e0 un ravageur, l'accessibilit\u00e9 des mesures de lutte antiparasitaire en place, l'importance des r\u00e9percussions du ravageur sur les d\u00e9bouch\u00e9s commerciaux et la comp\u00e9titivit\u00e9 des producteurs ainsi que les risques li\u00e9s \u00e0 l'ensemble des p..."
        },
        "language": {
            "en": "eng",
            "fr": "fra"
        },
        "keywords": {
            "en": "Oomycete;mildew;Pseudoperonospora cubensis",
            "fr": "agricole.Nous;Pseudoperonospora cubensis;d\u00e9pandages r\u00e9p\u00e9titifs"
        },
        "audience": {
            "en": "gcaudience",
            "fr": "gcaudience"
        },
        "type": {
            "en": "presentation",
            "fr": "mat\u00e9riel didactique"
        },
        "creator": {
            "en": "Agriculture and Agri-Food Canada;Government of Canada",
            "fr": "Agriculture et Agroalimentaire Canada;Gouvernement du Canada"
        },
        "spatial": {
            "en": "gcregions",
            "fr": "gcregions"
        },
        "service": {
            "en": "AAFC-AAC",
            "fr": "AAFC-AAC"
        },
        "accessRights": {
            "en": "2",
            "fr": "2"
        },
        "legalName": {
            "en": "agriculture_and_agri_food_canada",
            "fr": "agriculture_et_agroalimentaire_canada"
        },
        "areaServed": {
            "en": "Canada",
            "fr": "Canada"
        }
    },
    "h1": {
        "en": "Reduced-Risk Management Strategy for White Mold",
        "fr": "Strat\u00e9gie \u00e0 risque r\u00e9duit pour la lutte contre la scl\u00e9rotiniose"
    },
    "js": {
        "en": "",
        "fr": ""
    },
    "body": {
        "en": "\r\n    <nav>\n  <ul class=\"list-unstyled mrgn-lft-lg\">\n    <li><a href=\"#Preface\">Preface</a></li>\n    <li><a href=\"#Acknowledgement\">Acknowledgement </a></li>\n    <li><a href=\"#three\">Executive Summary</a></li>\n    <li><a href=\"#four\">Pest Management and Pesticide Risk Reduction Issues</a></li>\n    <li><a href=\"#five\">The strategy</a></li>\n    <li><a href=\"#Strategy\">Strategy Outcomes</a></li>\n  </ul>\n</nav>\n\n<p><b>For inquiries please contact:</b><br>\nPest Management Centre,  Agriculture and Agri-Food Canada<br>\n<a href=\"mailto:aafc.pmcinfo-clainfo.aac@canada.ca\">aafc.pmcinfo-clainfo.aac@canada.ca</a></p>\n\n<p><b>March, 2014</b></p>\n\n<h2 id=\"Preface\">Preface</h2>  \n  \n<p>Pesticide risk reduction strategies are developed under <a href=\"?id=1288277891464\">Pesticide Risk Reduction</a> (PRR) of Agriculture and Agri-Food Canada's (AAFC) Pest Management Centre. To reduce undesirable impact of the use of pesticides in agriculture, PRR works with grower groups, industry, provinces, researchers and regulators to identify gaps in pest management and opportunities to develop and implement strategies to address these.</p>\n  \n<p>A pesticide risk reduction strategy is a detailed plan that aims to address grower needs for reduced-risk management tools and practices for specific pest issues. The strategies are developed through extensive consultation with stakeholders. The strategy document presented here summarizes the framework and activities supported by PRR. It is intended to provide an update on the progress in developing and implementing the strategy and new tools and practices made available through this process.</p>\n\n<p>For more information, please visit the <a href=\"?id=1466083437376\">Pest Management Centre</a>.</p>\n\n<h2 id=\"Acknowledgement\">Acknowledgement</h2>\n\n<p>Pesticide Risk Reduction acknowledges the contribution of participating organizations and stakeholders, including members of the White Mold Working Groups:</p> \n<ul>\n<li><b>Mark Goodwin</b> \u2013 Pulse Canada;</li>\n<li><b>Greg Boland</b>, <b>Chris Gillard</b>, <b>Mary Ruth McDonald</b> and <b>Kevin Vander Kooi</b> \u2013 University of Guelph;</li>\n<li><b>Jim Bessel</b>, <b>Mathew Stanford</b> and <b>Chris Anderson</b> \u2013 Canola Council of Canada;</li>\n<li><b>Ron Howard</b> and <b>Murray Hartman</b> \u2013 Alberta Agriculture and Rural Development;</li>\n<li><b>Yves Dopper</b> and <b>Casey Kooman</b> \u2013 Alberta Pulse Growers Association;</li>\n<li><b>Bruce Brolley</b> and <b>Philip Northover</b> \u2013 (formerly) Manitoba Agriculture, Food and Rural Initiatives;</li>\n<li><b>Tammy Jones</b> and <b>Shawn McCutcheon</b> \u2013 Manitoba Pulse Growers;</li>\n<li><b>Kevin Sanderson</b>, <b>Debbie McLaren</b> and <b>Vicky Toussaint</b> \u2013 Agriculture and Agri-Food Canada;</li>\n<li><b>Mike Donnelly</b> \u2013 pulse grower in Ontario;</li>\n<li><b>Mario Leblanc</b> \u2013 Minist\u00e8re de l'Agriculture, P\u00eacherie et Alimentaire du Qu\u00e9bec;</li>\n<li><b>Ron Pitblado</b> (deceased) and <b>Ian Nichols</b> \u2013 Weather Innovations Incorporated;</li>\n<li><b>Jean Bernard Van Winden</b> \u2013 carrot grower in Quebec;</li>\n<li><b>Gerald Dykerman</b> \u2013 carrot grower in Prince Edward Island;</li>\n<li><b>Angus Ells</b> \u2013 Oxford Frozen Foods, Nova Scotia;</li>\n<li><b>Blair Roth</b>, <b>Jim Rex</b>, <b>Owen Cleland</b> and <b>Coreen Franke</b> \u2013 Viterra;</li>\n<li><b>Ken Coles</b> \u2013 Farming Smarter.</li>\n</ul>\n\n<h2 id=\"three\">Executive Summary</h2>\n\n<p>White mold is a serious disease limiting production of many economically important crops worldwide. This report summarizes the collaborative efforts and progress on activities undertaken by Pesticide Risk Reduction (PRR) since 2003 to support development and implementation of a reduced-risk strategy for white mold management in field and vegetable crops in Canada. The goal of the strategy is to minimize the need for using fungicides to control white mold, while helping growers achieve viable disease management and farm profitability.</p>\n\n<p>This strategy was developed through consultations and collaboration with relevant stakeholders including growers, provincial specialists, researchers, and industry representatives. Many of these stakeholders and subject matter experts have been actively involved in several PRR-led working groups tasked to develop specific elements of the white mold strategy. As part of the strategy work, pesticide risks and disease management issues were identified, reduced-risk solutions to address these issues were discussed and prioritized, and a plan of actions to develop and implement these solutions was established. This process provided a framework for the funding PRR delivered through AAFC's Pest Management Centre (PMC).</p>\n  \n<p>To implement the white mold strategy, the PMC funded 10 (6 risk reduction and 4 minor use pesticides) projects, and provided regulatory assistance for product registration. Some of the key outcomes made available to growers to date include:</p>\n\n  <ul>\n    <li>registration of five new fungicide uses</li>\n    <li>registration of two new biofungicides, including numerous crop uses</li>\n    <li>established foliage trimming as a cultural method for white mold control in carrot crops</li>\n    <li>a field guide for Sclerotinia disease scouting and risk assessment</li>\n  </ul>\n\n  <p>Detailed information on new technologies resulting from this strategy is provided in Table 2 below. These results have been communicated and demonstrated to growers to facilitate adoption of new technologies.</p>\n\n  <h2 id=\"four\">Pest Management and Pesticide Risk Reduction Issues</h2>\n\n  <p>White mold is caused by the pathogenic fungus <i>Sclerotinia sclerotiorum</i>. The fungus can persist for several years in soil as hard-bodied sclerotia and is capable of infecting the plant tissue by either mycelium or airborne ascospores. Disease can develop rapidly during periods of cool and wet weather, especially when these coincide with dense and lodged crop canopies. White mold can cause significant damage in the field and storage thus reducing crop yields and marketability.</p>\n\n  <p>Sustainable management of white mold is key to the viable production of a number of economically important crops which are susceptible to <i><abbr title=\"Sclerotinia\">S.</abbr>\u00a0sclerotiorum</i>. Traditionally, growers have relied on numerous applications of a few chemical fungicides available for white mold control. However, some of the older fungicides were re-evaluated by the federal pesticides regulator and some uses have already been phased-out in Canada. Moreover, the repeated use of fewer remaining chemicals could also lead to the risk of developing pathogen resistance. In fact, resistance of <i><abbr title=\"Sclerotinia\">S.</abbr>\u00a0sclerotiorum</i> to some of the existing products has been already reported.</p>\n\n  <p>The key issue identified at the outset of this strategy was the lack of a variety of alternative control options to fill the gap from lost product uses and enable sustainable white mold control.</p>\n\n  <p><b>This strategy is, thus centered on helping growers gain access to new, lower risk control products, tools and practices required to replace, or minimize the use of fungicides and allow for integrated disease management systems.</b></p>\n\n  <h2 id=\"five\">The strategy</h2>\n\n    <h3>Working groups </h3>\n\n    <p>Actions were taken to jointly address risk reduction and pest management issues across crops where white mold was identified as a national priority, that is, canola, dry bean, carrot and soybean. Although targeted toward these crops, it was anticipated that solutions developed would have potential for broader application to other crops affected by white mold.</p>\n\n    <p>Two crop-specific working groups were established in 2006 to assist PRR in developing the action plans to address white mold management in these crops: the <b>Dry Bean White Mold Working Group</b> and the <b>Carrot White Mold Working Group</b>. These groups brought together key experts and stakeholders of respective industries from various provinces. White mold of canola was addressed by the Canola Council of Canada (CCC)-led Working Group, also established in 2006, as part of a broader approach targeting pests of canola. A working group specific for soybean was not deemed necessary given the overlapping expertise and benefits resulting from work in other targeted crops.</p>\n\n    <p>In May 2008, an ad-hoc working group was established to specifically roll out an initiative for promoting the adoption of newly registered biopesticides (Contans\u00ae and Serenade Max\u00ae) as part of an integrated approach to white mold management in dry bean and canola. This group helped PRR to identify appropriate collaborators and trial locations, and set up protocols for an on-farm biofungicide implementation project to be established in the irrigated region of Southern Alberta.</p>\n\n    <h3>The gaps and priority issues</h3>\n\n    <p>Since inception, the dry bean and carrot working groups have engaged in multiple consultation sessions leading to identification of 5 top areas of concern to be addressed by the strategy. These priority issues are summarized below, along with solutions proposed over the years.</p>\n\n<h4>Lack of alternative control options in the tool-box</h4>\n\n <p>Growers were facing new challenges for white mold control as they were in the verge of losing existing key products (for example, vinclozolin) which would leave few chemical options to protect their yields. There was a need for lower risk fungicide alternatives to replace phased out products and also allow for adequate rotation among different fungicide groups. This need was especially critical for crops without any fungicide option available at the time (carrot, soybean).</p>\n\n<p>There was also a need for effective, IPM-compatible control tools and practices to support a systems approach that reduced reliance on fungicides. For instance, previous studies suggested that opening up the carrot canopy by side-trimming the leaves can help improve air circulation and reduce moisture within the canopy, thus making the environment less conducive for pathogen and disease development. However, more work was required to determine the efficacy and viability of foliar trimming for white mold control in commercial carrot production.</p>\n\n<h4>Lack of access to biopesticides </h4>\n\n<p>Various biopesticides (for exampmle Contans\u00ae and Serenade Max\u00ae) for white mold control were available to growers in other countries, but not accessible for use in Canada. These tools were considered suitable for use in IPM systems, and a need was identified to facilitate their registration in Canada. </p>\n      \n      <h4>Lack of adequate knowledge of pest and disease </h4>\n      \n<p>Correct identification of <i><abbr title=\"Sclerotinia\">S.</abbr> sclerotiorum</i> to determine pathogen presence and disease risk in the field is important to make informed management decisions. There are several species of fungi which develop reproductive bodies similar to <i><abbr title=\"Sclerotinia\">S.</abbr> sclerotiorum</i>. When growers miss-identify the disease causing fungi, unnecessary fungicide applications may be the result. A guide to help growers identify the pathogen and determine disease risk in the field was proposed.</p>\n\n      <h4>Lack of accurate timing for fungicide applications</h4>\n\n<p>Most of currently used fungicides are protective, requiring application before disease onset for optimal efficacy. Disease forecasters had been developed for white mold in the past, but none had been validated for growing regions in Canada. Effective forecasting tools and delivery systems, as well as relevant education and demonstration activities were needed to help growers with accurate disease risk warnings and fungicide spray timing recommendations.</p>\n\n<h4>Lack of knowledge on proper use of new products </h4>\n\n<p>New control products, including biopesticides, were becoming available for which optimal timing, rates, and application methods were not well established. Even when these parameters are known, the new products often require more know-how for successful results. Lack of knowledge may lead to apparent product failure and limited uptake of newer reduced-risk products at farm level. For instance, Contans\u00ae is a biopesticide incorporated into the soil for long term suppression of sclerotia, with perhaps no immediate obvious disease control impact. Education through training, demonstrations, and field guides on integrated disease management approaches was proposed to help growers make informed decisions, know what to expect, and effectively use these products.</p>\n\n<h3>Action Plan</h3>\n\n<p>Based on these collective issues and proposed solutions, a joint action plan was developed for all targeted crops. As summarized in Table 1, this action plan included the strategy goals, milestones and specific solutions proposed by the working groups, as well progress on research and development activities undertaken by PRR to advance strategy implementation.</p>\n    \n\n<p>Three key goals were defined in this strategy for addressing the above 5 priorities (Table\u00a01):</p>\n\n    <ul>\n<li>Fill technology gaps with reduced risk control solutions</li>\n<li>Reduce fungicide use through better informed decision making process</li>\n<li>Transfer new reduced-risk solutions and facilitate their adoption by growers.</li>\n    </ul>\n   \n<h5>Table 1. Action Plan to Implement a Reduced-Risk Strategy for White Mold Management in Field Crop and Vegetable Productions in Canada (March 2014)</h5>\n\n<p><i><b>Status legend:</b></i> Project addressing a milestone is complete (<b>Complete</b>)</p>\n \n <table class=\"table table-responsive table-bordered\">\n<caption class=\"text-left\"><b>Goal 1. Fill technology gaps with reduced risk control solutions</b>)</caption>\n        <thead>\n          <tr>\n            <th id=\"t102\">Target</th>\n            <th id=\"t103\">Milestone</th>\n            <th id=\"t104\">Status</th>\n            <th id=\"t105\">Implementation Activities</th>\n            <th id=\"t106\">Completion Period</th>\n          </tr>\n        </thead>\n        <tbody>\n          <tr>\n<th headers=\"t102\" rowspan=\"7\" class=\"text-left\" id=\"t102a\">1.a Increase access to new modes of actions, including biopesticides</th>\n<th headers=\"t102 t102a t103\" rowspan=\"4\" class=\"text-left\" id=\"t103a\">Registration of new fungicide products</th>\n<td headers=\"t102 t102a t103 t103a t104\">Complete</td>\n<td headers=\"t102 t102a t103 t103a t105\">Minor Use <b>project AAFC05-053</b> generated efficacy data to support registration of Allegro (fluazinam) on carrots in the field. Allegro was approved for use in 2010.</td>\n<td headers=\"t102 t102a t103 t103a t106\">2005-2008</td>\n          </tr>\n          <tr>\n<td headers=\"t102 t102a t103 t103a t104\">Complete</td>\n<td headers=\"t102 t102a t103 t103a t105\">Minor Use <b>project AAFC07-043</b> generated efficacy data to support registration of Allegro (fluazinam) on dry bean. Allegro was approved for use on snap beans in 2008 and on dry bean in 2009.</td>\n<td headers=\"t102 t102a t103 t103a t106\">2007-2009</td>\n          </tr>\n          <tr>\n<td headers=\"t102 t102a t103 t103a t104\">Complete</td>\n<td headers=\"t102 t102a t103 t103a t105\">Minor Use <b>project AAFC04-056</b> generated efficacy data to support registration of Lance (boscalid) on canola. This was a joint project with the registrant who had a major role in the submission. Lance was approved for use on canola in 2007. </td>\n<td headers=\"t102 t102a t103 t103a t106\">2004-2006</td>\n          </tr>\n          <tr>\n<td headers=\"t102 t102a t103 t103a t104\">Complete</td>\n<td headers=\"t102 t102a t103 t103a t105\">Minor Use <b>project AAFC08-013</b> generated efficacy data to support registration of Scholar 230SC (fludioxonil) for post-harvest control of white mold of carrots in storage. Scholar was approved for use in 2013.</td>\n            <td headers=\"t102 t102a t103 t103a t106\">2008-2012</td>\n          </tr>\n          <tr>\n<th headers=\"t102 t102a t103\" rowspan=\"2\" class=\"text-left\" id=\"t103f\">Investigate biocontrol options</th>\n<td headers=\"t102 t102a t103 t103f t104\">Complete</td>\n <td headers=\"t102 t102a t103 t103f t105\"><a href=\"?id=1535577927697\">Project BPI06-190</a> evaluated the efficacy of biofungicide Contans (<i>Coniothyrium minitans</i>) in suppressing the sclerotia of <i>Sclerotinia sclerotiorum</i> in soil and white mold disease of carrots. Contans treatments were efficacious in degrading sclerotia under controlled conditions, but did not appear to achieve similar results in the field. Efficacy of Contans can be optimized by incorporating it well into the soil (for example using shallow tillage).</td>\n<td headers=\"t102 t102a t103 t103f t106\">2006-2008</td>\n          </tr>\n          <tr>\n<td headers=\"t102 t102a t103 t103f t104\">Completed</td>\n<td headers=\"t102 t102a t103 t103f t105\"><a href=\"?id=1537289933227\">Project PRR03-380</a> evaluated the efficacy of a Manitoba native strain of <i>Coniothyrium minitans</i> to suppress sclerotia in soils and control white mold in dry bean and canola. This <i>C.\u00a0minitans</i> strain reduced white mold incidence by up to 75% (dry bean) and 84% (canola) which was comparable to standard fungicide. Further work would be required to make this strain commercially available.</td>\n<td headers=\"t102 t102a t103 t103f t106\">2003-2007</td>\n          </tr>\n          <tr>\n<th headers=\"t102 t102a t103\" class=\"text-left\" id=\"t103e\">Registration of new biofungicides</th>\n<td headers=\"t102 t102a t103 t103e t104\">Completed</td>\n<td headers=\"t102 t102a t103 t103e t105\">Pesticide Risk Reduction provided regulatory support to registrants assisting with collection and submission of data packages for registration in Canada of biofungicides Serenade Max (AgraQuest Inc.) and Contans (Prophyta GmbH). Serenade Max was registered in 2007, Contans in 2009. Both have multiple crop uses included in their labels.</td>\n<td headers=\"t102 t102a t103 t103e t106\">2006-2008</td>\n          </tr>\n          <tr>\n<th headers=\"t102\" rowspan=\"3\" class=\"text-left\" id=\"t102b\">1.b Increase access to cultural control  methods</th>\n<th headers=\"t102 t102b t103\" rowspan=\"2\" class=\"text-left\" id=\"t103g\">Evaluate carrot foliage trimming in  commercial crops</th>\n<td headers=\"t102 t102b t103 t103g t104\">Completed</td>\n<td headers=\"t102 t102b t103 t103g t105\"><a href=\"?id=1537304016662\">Project PRR06-310</a> assessed the efficacy and commercial viability of mechanical trimming of carrot foliage to control white mold in the field in Prince Edward Island. Using a custom-built trimmer prototype, effective control of disease was achieved without using fungicides and with no adverse effects on carrot yield. Trimming was demonstrated at local carrot farms and featured at field tours.</td>\n<td headers=\"t102 t102b t103 t103g t106\">2006-2009</td>\n          </tr>\n          <tr>\n<td headers=\"t102 t102b t103 t103g t104\">Completed</td>\n<td headers=\"t102 t102b t103 t103g t105\"><a href=\"?id=1537379394286\">Project PRR09-010</a> demonstrated the commercial viability of using foliar trimming to control white mold of carrot under production conditions of Ontario. Using an adapted trimmer implement (from the Prince Edward Island model), effective disease reduction was achieved in several test plots without adverse effects on yield.</td>\n<td headers=\"t102 t102b t103 t103g t106\">2009-2012</td>\n          </tr>\n          <tr>\n<th headers=\"t102 t102b t103\" class=\"text-left\" id=\"t103h\">Investigate cultural control practices for  bean and canola</th>\n<td headers=\"t102 t102b t103 t103h t104\">Completed</td>\n<td headers=\"t102 t102b t103 t103h t105\"><a href=\"?id=1537289933227\">Project PRR03-380</a> evaluated the effect of seeding rates (plant density) and varietal differences to manage white mold in dry bean and canola. Disease incidence was lower in upright and lodge-resistant cultivars and at lower plant densities. Therefore cultivar selection and seeding rate can be important management choices for minimizing risk of white mold.</td>\n<td headers=\"t102 t102b t103 t103h t106\">2003-2007</td>\n          </tr>\n          </tbody>\n          </table>\n          \n <table class=\"table table-responsive table-bordered\">\n<caption class=\"text-left\"><b>Goal 2. Reduce fungicide use through better decision making</b></caption>\n        <thead>\n          <tr>\n            <th scope=\"col\">Target</th>\n            <th scope=\"col\">Milestone</th>\n            <th scope=\"col\">Status</th>\n            <th scope=\"col\">Implementation Activities</th>\n            <th scope=\"col\">Completion Period</th>\n          </tr>\n        </thead>\n        <tbody>\n          <tr>\n <td><strong>2.a Improve grower capacity to identify the pest &amp; assess disease risk</strong></td>\n<td><strong>Develop illustrated field guides</strong></td>\n<td>Completed</td>\n<td><b>Project PRR05-130</b> developed the <a href=\"http://www.saskcanola.com/quadrant/media/canola/pdfs/canola_disease_scouting.pdf\">Canola Disease Identification &amp; Sclerotinia Risk Assessment Card (PDF)</a> for use as a guide to help scouts, growers and crop advisors identify apothecia of <i><abbr title=\"Sclerotinia\">S.</abbr>\u00a0sclerotiorum</i> in the field, assess disease risk and make informed decisions about the need and accurate timing of fungicide sprays. About 15,000 copies of the card were printed and distributed to canola growers, scouts, crop consultants and agri-dealers.</td>\n<td>2005-2006</td>\n          </tr>\n          <tr>\n<td><strong>2.b Improve timing of fungicide sprays</strong></td>\n<td><strong>Develop effective disease forecasting</strong></td>\n<td>Completed</td>\n<td><a href=\"?id=1537289933227\">Project PRR03-380</a> tested a modified version of the Bailey white mold forecasting warning system to improve the timing and minimize unnecessary fungicide sprays in dry bean. Better disease control was achieved following adequate spray timing recommended by the model. Further efforts would be required to make this tool commercially available.</td>\n<td>2003-2007</td>\n          </tr>\n          </tbody>\n          </table>\n          \n <table class=\"table table-responsive table-bordered\">\n<caption class=\"text-left\"><b>Goal 3. Transfer technology and facilitate adoption of reduced risk practices</b></caption>\n        <thead>\n          <tr>\n            <th id=\"t302\">Target</th>\n            <th id=\"t303\">Milestone</th>\n            <th id=\"t304\">Status</th>\n            <th id=\"t305\">Implementation Activities</th>\n            <th id=\"t306\">Completion Period</th>\n          </tr>\n        </thead>\n        <tbody>\n          <tr>\n<th headers=\"t302\" rowspan=\"3\" class=\"text-left\" id=\"t302f\">A cohort of growers aware of, and able to properly implement,  new approaches to white mold management</th>\n<th headers=\"t302 t302f t303\" rowspan=\"2\" class=\"text-left\" id=\"t303n\">Publish results on project outcomes</th>\n<td headers=\"t302 t302f t303 t303n t304\">Completed</td>\n<td headers=\"t302 t302f t303 t303n t305\"><a href=\"?id=1537304016662\">Project PRR06-310</a> disseminated the information on the foliage trimmer technology and its benefits through published factsheets \"<a href=\"?id=1541009656079\">Carrot Foliage Trimmer Reduces Storage Rot</a>\"  and \"<a href=\"http://publications.gc.ca/site/eng/358662/publication.html\">Carrot Foliage Trimming Equipment Technology</a>\".  Other communication vehicles were also used to increase grower awareness and promote adoption of trimming technology, such as   field tours, grower presentations, videos, radio announcements, and farm press articles.</td>\n<td headers=\"t302 t302f t303 t303n t306\">2006-2009</td>\n          </tr>\n          <tr>\n<td headers=\"t302c t302f t303 t303n t304\">Completed</td>\n<td headers=\"t302c t302f t303 t303n t305\"><a href=\"?id=1535577927697\">Project BPI06-190</a> organized a number of presentations and a field day to communicate the benefits of Contans as a biological control method and to assess potential grower uptake of this technology.</td>\n<td headers=\"t302c t302f t303 t303n t106\">2006-2008</td>\n          </tr>\n          <tr>\n<th headers=\"t302c t302f t303\" rowspan=\"2\" class=\"text-left\" id=\"t303m\">Demonstrate viability of integrated use of new tools &amp; practices</th>\n<td headers=\"t302c t302f t103 t303m t304\">Completed</td>\n<td headers=\"t302c t302f t103 t303m t305\"><a href=\"?id=1535660010457\">Project BPI08-030</a> conducted on-farm demonstrations on use of the newly registered biofungicides (Contans and Serenade), as part of an integrated approach to control white mold in dry bean and canola under irrigation in southern Alberta. In some cases, Contans combined with Lance resulted in superior yield advantages. Project results were disseminated to growers through field days, crop walks and local extension publications.</td>\n<td headers=\"t302c t302f t303 t303m t306\">2008-2011</td>\n          </tr>\n        </tbody>\n      </table>\n    \n<h2 id=\"Strategy\">Strategy outcomes </h2>\n\n<p>The main outcomes achieved from the implementation of white mold strategy include:</p>\n  <ul>\n    <li>Support provided by Minor Use Pesticides in generating efficacy data and submitting regulatory packages led to registration of five new fungicides uses: Allegro (carrot, dry &amp; snap bean) and Scholar (carrot), and label expansion for Lance on canola. </li>\n    <li>Regulatory assistance provided in assembling submission packages led to registration of two new biopesticides, Contans and Serenade Max for use against white mold in ten and four crops, respectively.</li>\n    <li>Support enabled validation and demonstration of foliar trimming as an efficacious cultural practice that minimizes the need for, and in some cases replaces fungicide sprays for white mold control in carrots. Trimming has become now a standard practice in many carrot farms of Atlantic Provinces and Ontario, as well as outside Canada.</li>\n    <li>Demonstration trials and extension activities have educated growers on use of new biopesticides products and the carrot foliage trimming </li>\n    <li>Two factsheets published by PRR contribute to dissemination of information and transfer of the carrot foliar trimming technology to growers</li>\n    <li>Support led to publication of a Sclerotinia disease scouting and risk identification guide to help canola growers make informed management decisions in the field </li>\n    <li>Through consultations, collaborative research and demonstration projects and extensive dissemination of information, a large cohort of growers and crop advisors have become aware of resulting new tools and educated on sustainable white mold management.</li>\n  </ul>\n  \n  <h2>Strategy impact: then and now </h2>\n  \n<p>This strategy work and support by PRR has diversified the profile of products, tools and practices available, thus expanding the toolbox for white mold control in Canada. When the strategy was initiated in 2003, management solutions available for the target crops were limited to 6 chemical fungicides, 4 of them older chemistries slated for re-evaluation, and none of them registered for use in carrot or soybean. Following a sustained, 9 year commitment through this strategy, five new modes of actions, amounting to a total of 19 new fungicide and biopesticide crop uses, as well as new control practices and tools are now added to the toolbox, while highest risk fungicides have been phased out. </p>\n  <p>As highlighted in Table 2, implementation of these newly introduced solutions has the potential to impact large acreages in terms of reducing the risk from pesticides and sustainable white mold management. </p>\n  \n<h3>Table 2. Potential impact of control solutions developed through the white mold  strategy</h3>\n\n    <figure class=\"mrgn-lft-sm\">\n      <figcaption><span class=\"hidden\"><b>Table 2.</b> Potential impact of control solutions developed through the white mold  strategy</span></figcaption>\n      <table class=\"table table-responsive table-bordered\">\n        <thead>\n          <tr>\n            <th scope=\"col\">Solution</th>\n            <th scope=\"col\">Pesticide risk reduction mechanism</th>\n            <th scope=\"col\">Crop(s)<span title=\"Includes only crops targeted by this strategy; impact can be larger if all crop uses included in the products labels are considered\">*</span> the solution is applicable to</th>\n            <th scope=\"col\">Total crop acreage<span title=\"Acreage of the indicated crops planted in Canada in 2012\">**</span> (000 hectares)</th>\n            <th scope=\"col\">Potential acreage for adoption (%)</th>\n            <th scope=\"col\">Additional benefits/ Comments</th>\n          </tr>\n        </thead>\n        <tfoot>\n          <tr>\n            <td colspan=\"6\">*Includes only crops targeted by this strategy; impact can be larger if  all crop uses included in the products labels are considered. <br>\n              **Acreage of the indicated crops planted in Canada in 2012.</td>\n          </tr>\n        </tfoot>\n        <tbody>\n          <tr>\n            <td>New biopesticides (Contans &amp; Serenade)</td>\n            <td>Reduce reliance on conventional pesticides</td>\n            <td>carrot, canola &amp; dry bean</td>\n            <td>8,720</td>\n            <td>100</td>\n            <td>Enable protection of non-target &amp; beneficial organisms,  integrated pest management (IPM)  systems, rotation with other modes of actions, resistance management, mitigation of re-entry interval  (REI)/ pre-harvest interval (PHI) &amp; maximum residue limit (MRL) issues</td>\n          </tr>\n          <tr>\n            <td>New fungicides </td>\n            <td>Use lower rates of application compared to old chemistries</td>\n            <td>carrot, canola &amp; dry bean </td>\n            <td>8,720</td>\n            <td>100</td>\n            <td>Enables rotation with other modes of actions, and resistance management</td>\n          </tr>\n          <tr>\n            <td>Carrot foliage trimmer</td>\n            <td>Avoids disease and reduces the need for using control products </td>\n            <td>carrot</td>\n            <td>20</td>\n            <td>85</td>\n            <td rowspan=\"2\">Reduces production cost by lowering fungicide use, suitable for conventional &amp;    organic productions. Higher adoption potential in Eastern Canada because of longer periods of wet weather and storage.</td>\n          </tr>\n          <tr>\n            <td>Factsheets featuring carrot trimming </td>\n            <td>Increase likelihood of growers adopting carrot trimming</td>\n            <td>Carrot</td>\n            <td>20</td>\n            <td>85</td>\n          </tr>\n          <tr>\n            <td>Optimal cultivar/seed density selection</td>\n            <td>Avoids disease and reduces the need for using conventional pesticides </td>\n            <td>Dry bean,canola</td>\n            <td>8,700</td>\n            <td>100</td>\n            <td>Enables  integrated pest management (IPM) systems and resistance management</td>\n          </tr>\n          <tr>\n       <td>Disease identification &amp; risk assessment tool</td>\n            <td>Avoid <br>\n              unnecessary <br>\n              sprays </td>\n            <td>Canola</td>\n            <td>8,600</td>\n            <td>100</td>\n            <td>Enables <abbr title=\"integrated pest management\">IPM</abbr> systems, better decision making, improved timing/efficacy of control    products</td>\n          </tr>\n        </tbody>\n      </table>\n    </figure>\n\r\n    ",
        "fr": "\r\n    <nav>\n  <ul class=\"list-unstyled mrgn-lft-lg\">\n    <li><a href=\"#Avant-propos\">Avant-propos</a></li>\n    <li><a href=\"#Remerciements\">Remerciements </a></li>\n    <li><a href=\"#Sommaire\">Sommaire</a></li>\n    <li><a href=\"#Enjeux\">Enjeux relatifs \u00e0 la lutte antiparasitaire et \u00e0 la r\u00e9duction des risques li\u00e9s aux pesticides</a></li>\n    <li><a href=\"#Strategie\">La strat\u00e9gie</a> </li>\n    <li><a href=\"#Resultats\">R\u00e9sultats attendus</a></li>\n  </ul>\n</nav>\n\n<p><b>Pour tout renseignement sur le contenu de la strat\u00e9gie, veuillez contacter\u00a0:</b><br>\nCentre de la lutte antiparasitaire, Agriculture et Agroalimentaire Canada<br>\n  <a href=\"mailto:aafc.pmcinfo-clainfo.aac@canada.ca\">aafc.pmcinfo-clainfo.aac@canada.ca</a></p>\n\n<p><b>Mars, 2014</b></p>\n\n  <h2 id=\"Avant-propos\">Avant-propos</h2>\n\n<p>Des strat\u00e9gies de r\u00e9duction des risques li\u00e9s aux pesticides sont \u00e9labor\u00e9es dans le cadre de la <a href=\"?id=1288277891464\">R\u00e9duction des risques li\u00e9s aux pesticides</a> (RRP) du Centre de la lutte antiparasitaire d'Agriculture et Agroalimentaire Canada (AAC). Dans le but de r\u00e9duire les effets ind\u00e9sirables de l'utilisation de pesticides en agriculture, les responsables de la RRP collaborent avec des groupements de producteurs, l'industrie, les gouvernements provinciaux, des chercheurs, et des organismes de r\u00e9glementation afin de cerner les lacunes en mati\u00e8re de lutte antiparasitaire, de m\u00eame que les possibilit\u00e9s d'\u00e9laborer et de mettre en oeuvre strat\u00e9gies pour les combler.</p>\n  \n<p>Les strat\u00e9gies de r\u00e9duction des risques li\u00e9s aux pesticides sont des plans d\u00e9taill\u00e9s qui sont d\u00e9velopp\u00e9s en consultation avec des intervenants. Elles visent \u00e0 proposer aux producteurs des moyens de lutte et des pratiques \u00e0 risque r\u00e9duit contre certains enjeux antiparasitaires. Le pr\u00e9sent document informe les intervenants de l'\u00e9volution des activit\u00e9s appuy\u00e9es par la RRP dans le cadre du d\u00e9veloppement et de la mise en \u0153uvre de la strat\u00e9gie pr\u00e9sent\u00e9e ici, et des nouveaux outils et pratiques issus de ce processus.</p>\n  \n<p>Pour en savoir plus, veuillez consulter le <a href=\"?id=1466083437376\">Centre de la lutte antiparasitaire</a>.</p>\n\n  <h2 id=\"Remerciements\">Remerciements </h2>\n  \n<p>La R\u00e9duction des risques li\u00e9s aux pesticides remercie la contribution de tous les intervenants et organismes participants, surtout les membres des Groupes de travail sur la lutte contre la scl\u00e9rotiniose\u00a0:</p>\n\n<ul>\n<li><b>Mark Goodwin</b> \u2013 Pulse Canada; </li>\n<li><b>Greg Boland</b>, <b>Chris Gillard</b>, <b>Mary Ruth McDonald</b> et <b>Kevin Vander Kooi</b> \u2013 Universit\u00e9 de Guelph; </li>\n<li><b>Jim Bessel</b>, <b>Mathew Stanford</b> et <b>Chris Anderson</b> \u2013 Conseil canadienne du canola; </li> \n<li><b>Ron Howard</b> et <b>Murray Hartman</b> \u2013 Minist\u00e8re de l'Agriculture et D\u00e9veloppement Rurale de l'Alberta; </li>\n<li><b>Yves Dopper</b> et <b>Casey Kooman</b> \u2013 Association des producteurs des cultures l\u00e9gumineuses de l'Alberta; </li>\n<li><b>Bruce Brolley</b> et <b>Philip Northover</b> \u2013 (ant\u00e9c\u00e9dent) Minist\u00e8re de l'Agriculture, alimentation et initiatives rurales du Manitoba; </li>\n<li><b>Tammy Jones</b> et <b>Shawn McCutcheon</b> \u2013 Association des producteurs des cultures l\u00e9gumineuses de Manitoba; </li>\n<li><b>Kevin Sanderson</b>, <b>Debbie McLaren</b> et <b>Vicky Toussaint</b> \u2013 Agriculture et Agroalimentaire Canada; </li>\n<li><b>Mike Donnelly</b> \u2013 producteurs des cultures l\u00e9gumineuses en Ontario; </li>\n<li><b>Mario Leblanc</b> \u2013 Minist\u00e8re de l'Agriculture, P\u00eacherie et Alimentaire du Qu\u00e9bec; </li>\n<li><b>Ron Pitblado</b> (d\u00e9c\u00e8de) et <b>Ian Nichols</b> \u2013 <span lang=\"en\" xml:lang=\"en\">Weather Innovations Incorporated</span>; </li>\n<li><b>Jean Bernard Van Winden</b> \u2013 producteurs des carotte au Qu\u00e9bec; </li>\n<li><b>Gerald Dykerman</b> \u2013 producteur des carotte a \u00cele de Prince \u00c9duard; </li>\n<li><b>Angus Ells</b> \u2013 <span lang=\"en\">Oxford Frozen Foods</span>, Nouvelle \u00c9cosse; </li>\n<li><b>Blair Roth</b>, <b>Jim Rex</b>, <b>Owen Cleland</b>, et <b>Coreen Franke</b> \u2013 Viterra; </li>\n<li><b>Ken Coles</b> \u2013 Farming Smarter. </li>\n</ul>\n\n<h2 id=\"Sommaire\">Sommaire</h2>\n\n<p>La scl\u00e9rotiniose est une grave maladie qui limite la production de nombreuses cultures de grande importance \u00e9conomique dans le monde. Le pr\u00e9sent rapport r\u00e9sume les efforts de collaboration et les progr\u00e8s des activit\u00e9s entreprises dans le cadre de la RRP depuis 2003, \u00e0 l'appui de l'\u00e9laboration et de la mise en \u0153uvre d'une strat\u00e9gie \u00e0 risque r\u00e9duit pour la lutte contre la scl\u00e9rotiniose dans les grandes cultures et les productions l\u00e9gumi\u00e8res au Canada. Cette strat\u00e9gie vise \u00e0 minimiser le besoin \u00e0 utiliser des fongicides pour la scl\u00e9rotiniose, tout en aidant les producteurs \u00e0 r\u00e9aliser une gestion viable de la maladie et \u00e0 assurer la rentabilit\u00e9 de leurs production.</p>\n\n<p>Cette strat\u00e9gie a \u00e9t\u00e9 \u00e9labor\u00e9e gr\u00e2ce aux consultations et \u00e0 la collaboration avec des intervenants pertinents, notamment des producteurs, des sp\u00e9cialistes provinciaux, des chercheurs et des repr\u00e9sentants de l'industrie. Bon nombre de ces intervenants et sp\u00e9cialistes ont particip\u00e9 aux plusieurs groupes de travail dirig\u00e9s par la RRP et charg\u00e9s de d\u00e9finir les \u00e9l\u00e9ments particuliers de la strat\u00e9gie de la scl\u00e9rotiniose. Dans le cadre d'\u00e9laboration de la strat\u00e9gie, on a cern\u00e9 les risques li\u00e9s aux pesticides et les enjeux en mati\u00e8re de lutte contre la maladie, on a discut\u00e9 et prioris\u00e9 des solutions \u00e0 risque r\u00e9duit qui permettraient de r\u00e9gler ces enjeux, puis on a mis au point un plan d'action pour d\u00e9velopper et mettre en \u0153uvre ces solutions. Un tel processus a fourni le cadre de travail n\u00e9cessaire pour le financement de la RRP livr\u00e9 par le truchement du Centre de la lutte antiparasitaire (CLA) d'AAC.</p>\n\n  <p>Pour appuyer la mise en \u0153uvre de la strat\u00e9gie de lutte contre la scl\u00e9rotiniose, le CLA a financ\u00e9 une dizaine de projets (six projets de r\u00e9duction des risques et quatre projets portant sur des produits \u00e0 usage limit\u00e9) et fourni de l'assistance r\u00e9glementaire en vue de l'homologation de produits. Quelques r\u00e9sultats cl\u00e9s de b\u00e9n\u00e9fice pour les producteurs sont, notamment\u00a0:</p>\n  \n  <ul>\n    <li>l'homologation des cinq nouveaux usages de fongicides</li>\n    <li>l'homologation de deux nouveaux biofongicides, y compris de plusieurs usages des cultures </li>\n    <li>l'\u00e9tablissement du taillage des feuilles comme une technique culturale de lutte contre la scl\u00e9rotiniose de la carotte </li>\n    <li>un guide de champ pour le d\u00e9pistage et l'identification des risques de la scl\u00e9rotiniose </li>\n  </ul>\n\n  <p>Le tableau 2 pr\u00e9sent\u00e9 ci-dessous fournit des renseignements plus d\u00e9taill\u00e9s sur les nouvelles technologies d\u00e9coulant de cette strat\u00e9gie. Ces r\u00e9sultats ont \u00e9t\u00e9 communiqu\u00e9s et d\u00e9montr\u00e9s aux producteurs en vue de favoriser l'adoption des nouvelles technologies.</p>\n\n  <h2 id=\"Enjeux\">Enjeux relatifs \u00e0 la lutte antiparasitaire et \u00e0 la r\u00e9duction des risques li\u00e9s aux pesticides</h2>\n\n  <p>La scl\u00e9rotiniose est caus\u00e9e par le champignon pathog\u00e8ne <i>Sclerotinia sclerotiorum</i>. Ce champignon peut persister plusieurs ann\u00e9es dans le sol sous forme des corps dur de scl\u00e9rote, et capable \u00e0 infecter les tissus de la plante soit par le myc\u00e9lium ou les ascospores a\u00e9roport\u00e9es. La maladie peut se d\u00e9velopper rapidement par temps froid et humide, surtout lorsque ces p\u00e9riodes co\u00efncident avec des couverts v\u00e9g\u00e9taux denses et log\u00e9s. La scl\u00e9rotiniose peut causer d'importants dommages dans les champs et en entrep\u00f4t, r\u00e9duisant ainsi le rendement des cultures et les possibilit\u00e9s de commercialisation.</p>\n\n  <p>La lutte durable contre la scl\u00e9rotiniose est essentielle \u00e0 la viabilit\u00e9 de nombreuses cultures de grande importance \u00e9conomique qui sont vuln\u00e9rables au <i><abbr title=\"Sclerotinia\">S.</abbr>\u00a0sclerotiorum</i>. Traditionnellement, les producteurs ont eu recours \u00e0 de nombreuses applications des quelques fongicides chimiques homologues pour la scl\u00e9rotiniose. Toutefois, certains fongicides anciens ont fait l'objet d'une r\u00e9\u00e9valuation par l'agence f\u00e9d\u00e9ral de la r\u00e9glementation des pesticides et certaines utilisations en ont d\u00e9j\u00e0 \u00e9t\u00e9 graduellement retrait\u00e9es au Canada. L'utilisation fr\u00e9quente des produits chimiques restants peut aussi causer le d\u00e9veloppement de la r\u00e9sistance chez le pathog\u00e8ne. En fait, on a d\u00e9j\u00e0 signal\u00e9 des cas de r\u00e9sistance de <i><abbr title=\"Sclerotinia\">S.</abbr>\u00a0sclerotiorum</i> \u00e0 certains produits. </p>\n  \n<p>Le principal probl\u00e8me identifi\u00e9 par cette strat\u00e9gie \u00e9tais l'absence d'un \u00e9ventail diversifi\u00e9 d'options alternatives pour remplacer les produits perdus et de permettre la lutte durable contre la scl\u00e9rotiniose. </p>\n\n<p><b>C'est pourquoi cette strat\u00e9gie se concentre sur l'accroissement de l'acc\u00e8s des producteurs \u00e0 des nouveaux produits, outils et pratiques de lutte antiparasitaire \u00e0 risque r\u00e9duit qui sont n\u00e9cessaires pour remplacer ou minimiser l'utilisation des fongicides, ainsi que permettre la mise en place de syst\u00e8mes de lutte int\u00e9gr\u00e9e contre la maladie.</b></p>\n\n<h2 id=\"Strategie\">La strat\u00e9gie</h2>\n  \n<h3>Groupes de travail </h3>\n\n<p>Des mesures sont prises pour aborder conjointement les questions de r\u00e9duction des risques et de lutte antiparasitaire dans les cultures au sein desquelles la scl\u00e9rotiniose a \u00e9t\u00e9 d\u00e9sign\u00e9e comme une priorit\u00e9 nationale, c'est-\u00e0-dire le canola, le haricot sec, la carotte et la f\u00e8ve de soja. Bien que les solutions \u00e9labor\u00e9es ciblent ces cultures particuli\u00e8res, on s'attend \u00e0 ce qu'elles puissent \u00e9galement s'appliquer aux autres cultures touch\u00e9es par la scl\u00e9rotiniose.</p>\n\n<p>Deux groupes de travail ont \u00e9t\u00e9 mis sur pied en 2006 pour aider la RRP \u00e0 concevoir des plans d'action relatifs \u00e0 la lutte contre la scl\u00e9rotiniose dans des cultures particuli\u00e8res, soit le <b>Groupe de travail sur la scl\u00e9rotiniose du haricot sec</b> et le <b>Groupe de travail sur la scl\u00e9rotiniose de la carotte</b>, qui r\u00e9unissent les principaux experts et intervenants des industries vis\u00e9es. La scl\u00e9rotiniose du canola a \u00e9t\u00e9 pris en charge par le Groupe de travail cr\u00e9\u00e9 en 2006 par le Conseil canadien du canola, dans le cadre d'une approche \u00e9largie visant les principaux ravageurs du canola. Les intervenants du secteur du soja n'ont pas jug\u00e9 n\u00e9cessaire de cr\u00e9er un groupe de travail sp\u00e9cifique sur la f\u00e8ve de soja, compte tenu de l'expertise qui se recoupe et des avantages escompt\u00e9s \u00e0 la suite des travaux relatifs aux autres productions cibl\u00e9es. </p>\n\n<p>En mai 2008, on a cr\u00e9\u00e9 un sous-groupe sp\u00e9cial pour mettre en \u0153uvre une initiative visant \u00e0 promouvoir l'adoption de biopesticides nouvellement homologu\u00e9s (Contans<sup>MD</sup> et Serenade Max<sup>MD</sup>) dans le cadre d'une approche int\u00e9gr\u00e9e de lutte contre la scl\u00e9rotiniose du haricot sec et du canola. Ce groupe a aid\u00e9 la RRP \u00e0 d\u00e9signer des collaborateurs comp\u00e9tents et des lieux d'essai, puis \u00e0 \u00e9tablir des protocoles en vue d'un projet de mise en \u0153uvre de biofongicides \u00e0 la ferme pour la r\u00e9gion irrigu\u00e9e du sud de l'Alberta.</p>\n  \n<h3>Lacunes et enjeux prioritaires</h3>\n\n<p>Depuis leur cr\u00e9ation, les groupes de travail sur le haricot sec et la carotte ont particip\u00e9 \u00e0 de nombreuses s\u00e9ances de consultation qui ont permis de cerner les cinq grandes pr\u00e9occupations sur lesquelles la strat\u00e9gie devrait se pencher en priorit\u00e9. Les lignes qui suivent r\u00e9sument ces priorit\u00e9s, ainsi que les solutions propos\u00e9es au fil des ann\u00e9es. </p>\n\n<p>Absence de solutions de rechange en mati\u00e8re de lutte dans la trousse d'outils</p>\n\n<p>Chaque fois que l'utilisation d'un produit a \u00e9t\u00e9 interdite (par exemple, la vinclozoline), les producteurs ont fait face \u00e0 de nouveaux d\u00e9fis en ce qui a trait \u00e0 la lutte contre la scl\u00e9rotiniose, disposant de tr\u00e8s peu de solutions chimiques pouvant les aider \u00e0 prot\u00e9ger leurs rendements. Il \u00e9tait donc n\u00e9cessaire de remplacer les produits chimiques interdits par de nouveaux fongicides \u00e0 moindre risque et de permettre la rotation ad\u00e9quate des groupes de fongicides existants. Cette n\u00e9cessit\u00e9 \u00e9tait particuli\u00e8rement criante dans le cas des cultures pour lesquelles il n'existait aucune option de fongicide (carotte et f\u00e8ve de soja).</p>\n\n<p>Des pratiques efficaces et des outils compatibles avec la lutte antiparasitaire int\u00e9gr\u00e9e \u00e9taient \u00e9galement n\u00e9cessaires pour soutenir une approche syst\u00e9mique qui r\u00e9duit la d\u00e9pendance aux fongicides. Par exemple, des recherches pr\u00e9c\u00e9dentes ont montr\u00e9 que l'ouverture du couvert v\u00e9g\u00e9tal par le taillage lat\u00e9ral du feuillage des carottes peut am\u00e9liorer la circulation d'air et r\u00e9duire la moisissure, rendant ainsi l'environnement moins propice au d\u00e9veloppement de parasites pathog\u00e8nes et de maladies. D'autres travaux ont toutefois \u00e9t\u00e9 n\u00e9cessaires pour d\u00e9terminer l'efficacit\u00e9 et la viabilit\u00e9 du taillage pour supprimer la scl\u00e9rotiniose des cultures commerciales de carottes.</p>\n    \n      <h4>Acc\u00e8s insuffisant aux biopesticides</h4>\n\n      <p>Divers biopesticides (par exemple, Contans<sup>MD</sup> et Serenade Max<sup>MD</sup>) permettant de lutter contre la scl\u00e9rotiniose \u00e9taient disponible aux producteurs dans d'autres pays, mais n'\u00e9taient pas encore accessible au Canada. \u00c9tant appropri\u00e9 pour des syst\u00e8mes de lutte int\u00e9gr\u00e9e, on a d\u00e9termin\u00e9 qu'il \u00e9tait n\u00e9cessaire de faciliter les demandes d'homologation pour ces produits au Canada. </p>\n    \n      <h4>Manque de connaissances pertinentes sur la maladie et les parasites </h4>\n\n      <p>L'identification exacte du champignon parasite <i><abbr title=\"Sclerotinia\">S.</abbr>\u00a0sclerotiorum</i>, qui permet de d\u00e9terminer la pr\u00e9sence de pathog\u00e8nes et le risque de la maladie dans les champs, est essentielle pour la prise de d\u00e9cisions \u00e9clair\u00e9es en mati\u00e8re de gestion. On d\u00e9nombre cependant plusieurs esp\u00e8ces de champignons d\u00e9veloppant des organes reproducteurs semblables \u00e0 ceux du <i><abbr title=\"Sclerotinia\">S.</abbr>\u00a0sclerotiorum</i>. Si les producteurs n'identifient pas correctement le champignon causant la maladie, il pourrait en r\u00e9sulter des applications non n\u00e9cessaires de fongicides. On a donc propos\u00e9 de pr\u00e9parer un guide d'identification pour aider les producteurs \u00e0 identifier correctement l'agent pathog\u00e8ne et \u00e0 d\u00e9terminer les risques de maladie dans les champs.</p>\n    \n<h4>M\u00e9connaissance du moment propice pour appliquer les fongicides</h4>\n\n<p>La plupart des fongicides actuellement utilis\u00e9s ont une action protectrice et doivent \u00eatre appliqu\u00e9s avant l'apparition de la maladie afin que leur efficacit\u00e9 soit optimale. Des outils de pr\u00e9vision de la scl\u00e9rotiniose ont \u00e9t\u00e9 \u00e9labor\u00e9s dans le pass\u00e9, mais aucun n'a \u00e9t\u00e9 valid\u00e9 pour les diverses r\u00e9gions agricoles du Canada. Des outils de pr\u00e9vision et des syst\u00e8mes de mise en \u0153uvre efficaces, ainsi que des activit\u00e9s d'\u00e9ducation et de d\u00e9monstration pertinentes \u00e9taient donc n\u00e9cessaires pour aider les producteurs \u00e0 cerner avec pr\u00e9cision les avertissement de maladie et \u00e0 suivre les recommandations du moment opportune en mati\u00e8re de pulv\u00e9risation de fongicides. </p>\n    \n<h4>M\u00e9connaissance de l'utilisation appropri\u00e9e des nouveaux produits </h4>\n\n<p>De nouveaux produits antiparasitaires, y compris des biopesticides, sont apparus sur le march\u00e9, mais le moment optimal, les taux et les m\u00e9thodes d'application ne sont pas bien \u00e9tablies. M\u00eame lorsque ces param\u00e8tres sont connus, les nouveaux produits requi\u00e8rent souvent un savoir-faire accru pour produire de bons r\u00e9sultats. La m\u00e9connaissance de ces param\u00e8tres peut entra\u00eener un \u00e9chec apparent des nouveaux produits \u00e0 risque r\u00e9duit et ainsi en limiter l'adoption dans les fermes. Contans<sup>MD</sup>, par exemple, est un biopesticide qu'on incorpore au sol pour la suppression \u00e0 long terme des scl\u00e9rotes, sans effets imm\u00e9diatement \u00e9vident sur l'\u00e9limination de la maladie. Au nombre des solutions propos\u00e9es, mentionnons l'\u00e9ducation des producteurs par le truchement de la formation, de d\u00e9monstrations et de la pr\u00e9paration de guides sur les approches de lutte int\u00e9gr\u00e9e contre la maladie dans les champs. Les producteurs pourront ainsi prendre des d\u00e9cisions \u00e9clair\u00e9es, savoir \u00e0 quoi s'attendre et utiliser efficacement les produits. </p>\n    \n<h3>Plan d'action </h3>\n\n<p>\u00c0 la lumi\u00e8re de ces enjeux et des solutions propos\u00e9es, on a \u00e9labor\u00e9 un plan d'action conjoint pour toutes les cultures cibl\u00e9es. R\u00e9sum\u00e9 dans le tableau 1 ci dessous, ce plan d'action comprend les objectifs de la strat\u00e9gie, les jalons et les solutions particuli\u00e8res que les groupes de travail ont propos\u00e9s, ainsi que les progr\u00e8s des activit\u00e9s de recherche et de d\u00e9veloppement men\u00e9es par la RRP en vue de faire progresser la mise en \u0153uvre de la strat\u00e9gie. </p>\n\n    <p>La strat\u00e9gie d\u00e9finit trois objectifs qui ciblent les cinq priorit\u00e9s d\u00e9crites ci-dessus (tableau\u00a01)\u00a0:</p>\n\n    <ul>\n      <li>combler le foss\u00e9 technologique en mettant en place des solutions de lutte \u00e0 risque r\u00e9duit </li>\n      <li>r\u00e9duire l'utilisation des fongicides par meilleurs processus de prise de d\u00e9cisions \u00e9clair\u00e9es</li>\n      <li>transfert des nouvelles solutions \u00e0 risque r\u00e9duit et en faciliter l'adoption par les producteurs. </li>\n    </ul>\n\n    <h5>Tableau 1 :  Plan d'action pour la mise en \u0153uvre d'une strat\u00e9gie \u00e0 risque r\u00e9duit de lutte contre la scl\u00e9rotiniose dans les grandes cultures et les productions l\u00e9gumi\u00e8res au Canada\u00a0: \u00e9tat des progr\u00e8s (Mars 2014).</h5>\n    \n    <p><b>L\u00e9gende :</b> Le projet portant sur un jalon particulier est termin\u00e9 (<b>Termin\u00e9</b>)</p>\n    \n<table class=\"table table-responsive table-bordered\">\n<caption class=\"text-left\"><b>Objectif 1. Combler le foss\u00e9 technologique en mettant en place des solutions de lutte \u00e0 risque r\u00e9duit.</b></caption>\n        <thead>\n          <tr>\n           \n            <th id=\"t102\">Cible</th>\n            <th id=\"t103\">\u00c9tape</th>\n            <th id=\"t104\">\u00c9tat</th>\n            <th id=\"t105\">Activit\u00e9s de mise en \u0153uvre</th>\n            <th id=\"t106\">Date d'ach\u00e8vement</th>\n          </tr>\n        </thead>\n        <tbody>\n          <tr>\n <th headers=\"t102\" rowspan=\"7\" class=\"text-left\" id=\"t102a\">1.a Accro\u00eetre l'acc\u00e8s \u00e0 de nouveaux moyens d'action, y compris des biopesticides</th>\n<th headers=\"t102 t102a t103\" rowspan=\"4\" class=\"text-left\" id=\"t103a\">Homologuer de nouveaux fongicides</th>\n<td headers=\"t102 t102a t103 t103a t104\">Termin\u00e9</td>\n<td headers=\"t102 t102a t103 t103a t105\">Le projet relatif aux pesticides \u00e0 usage limit\u00e9 <b>AAFC05-053</b> a produit des donn\u00e9es d'efficacit\u00e9 \u00e0 l'appui de l'homologation d'Allegro (fluaziname) pour le traitement des carottes en champ. L'utilisation d'Allegro a \u00e9t\u00e9 approuv\u00e9e en 2010.</td>\n<td headers=\"t102 t102a t103 t103a t106\">2005-2008</td>\n          </tr>\n          <tr>\n<td headers=\"t102 t102a t103 t103a t104\">Termin\u00e9</td>\n<td headers=\"t102 t102a t103 t103a t105\">Le projet relatif aux pesticides \u00e0 usage limit\u00e9 <b>AAFC07-043</b> a produit des donn\u00e9es d'efficacit\u00e9 \u00e0 l'appui de l'homologation d'Allegro (fluaziname) pour le traitement du haricot sec. L'utilisation d'Allegro a \u00e9t\u00e9 approuv\u00e9e en 2008 pour le haricot mange-tout et en 2009 pour le haricot sec.</td>\n<td headers=\"t102 t102a t103 t103a t106\">2007-2009</td>\n          </tr>\n          <tr>\n<td headers=\"t102 t102a t103 t103a t104\">Termin\u00e9</td>\n<td headers=\"t102 t102a t103 t103a t105\">Le projet relatif aux pesticides \u00e0 usage limit\u00e9 <b>AAFC04-056</b> a produit des donn\u00e9es d'efficacit\u00e9 \u00e0 l'appui de l'homologation de Lance (boscalide) pour le traitement du canola. Il s'agissait d'un projet conjoint avec le titulaire de l'homologation, qui s'est charg\u00e9 d'une grande partie du travail. L'utilisation de Lance a \u00e9t\u00e9 approuv\u00e9e en 2007 pour le canola.</td>\n<td headers=\"t102 t102a t103 t103a t106\">2004-2006</td>\n          </tr>\n          <tr>\n<td headers=\"t102 t102a t103 t103a t104\">Termin\u00e9</td>\n<td headers=\"t102 t102a t103 t103a t105\">Le projet relatif aux pesticides \u00e0 usage limit\u00e9 <b>AAFC08-013</b> a produit des donn\u00e9es d'efficacit\u00e9 \u00e0 l'appui de l'homologation de Scholar 230SC (fludioxonil) \u00e0 titre de traitement post-r\u00e9colte contre la scl\u00e9rotiniose des carottes en entrep\u00f4t. L'utilisation de Scholar a \u00e9t\u00e9 approuv\u00e9e en 2013.</td>\n<td headers=\"t102 t102a t103 t103a t106\">2008-2012</td>\n          </tr>\n          <tr>\n<th headers=\"t102 t102a t103\" rowspan=\"2\" class=\"text-left\" id=\"t103b\">Examiner les options de lutte biologique</th>\n<td headers=\"t102 t102a t103 t103b t104\">Termin\u00e9</td>\n<td headers=\"t102 t102a t103 t103b t105\">Le <a href=\"?id=1535577927697\">projet BPI06-190</a> visait \u00e0 \u00e9valuer l'efficacit\u00e9 du fongicide Contans (<i>Coniothyrium minitans</i>) pour supprimer les scl\u00e9rotes de <i>S. sclerotiorum</i> dans le sol et la scl\u00e9rotiniose de la carotte. Les traitements au Contans ont permis de d\u00e9t\u00e9riorer les scl\u00e9rotes dans des conditions contr\u00f4l\u00e9es, mais ne semblent pas avoir eu des effets similaires dans les champs. Bien incorporer le produit au sol (<abbr title=\"par exemple\">p. ex.</abbr>, en effectuant un travail superficiel du sol) peut optimiser l'efficacit\u00e9 de ce biofongicide.</td>\n<td headers=\"t102 t102a t103 t103b t106\">2006-2008</td>\n          </tr>\n          <tr>\n<td headers=\"t102 t102a t103 t103b t104\">Termin\u00e9</td>\n<td headers=\"t102 t102a t103 t103b t105\">Le <a href=\"?id=1537289933227\">projet PRR03-380</a> visait \u00e0 \u00e9valuer l'efficacit\u00e9 d'une souche de <i>Coniothyrium minitans</i> indig\u00e8ne au Manitoba afin d'\u00e9liminer les scl\u00e9rotes dans les sols et de lutter contre la scl\u00e9rotiniose du haricot sec et du canola. La souche de <i><abbr title=\"Coniothyrium\">C.</abbr>\u00a0minitans</i> a r\u00e9duit l'incidence de la scl\u00e9rotiniose de 75\u00a0% (haricot sec) et de 84\u00a0% (canola), ce qui \u00e9tait comparable au fongicide standard. D'autres travaux seront n\u00e9cessaires en vue d'offrir cette souche sur les march\u00e9s.</td>\n            <td headers=\"t102 t102a t103 t103b t106\">2003-2007</td>\n          </tr>\n          <tr>\n            <th headers=\"t102 t102a t103\" class=\"text-left\" id=\"t103c\">Homologuer de nouveaux biofongicides</th>\n            <td headers=\"t102 t102a t103 t103c t104\">Termin\u00e9</td>\n            <td headers=\"t102 t102a t103 t103c t105\">La RRP a fourni un appui r\u00e9glementaire aux titulaires d'homologation pour aider \u00e0 la collecte et \u00e0 la soumission des donn\u00e9es pour l'homologation au Canada des biofongicides Serenade Max (AgraQuest Inc.) et Contans (Prophyta GmbH). Serenade Max a \u00e9t\u00e9 homologu\u00e9 en 2007 et Contans a \u00e9t\u00e9 homologu\u00e9 en 2009. Les \u00e9tiquettes des deux produits mentionnent qu'ils peuvent \u00eatre utilis\u00e9s pour de nombreuses cultures.</td>\n            <td headers=\"t102 t102a t103 t103c t106\">2006-2008</td>\n          </tr>\n          <tr>\n            <th headers=\"t102\" rowspan=\"3\" class=\"text-left\" id=\"t102b\">1.b Accro\u00eetre l'acc\u00e8s aux m\u00e9thodes culturales de lutte antiparasitaire</th>\n            <th headers=\"t102 t102b t103\" rowspan=\"2\" class=\"text-left\" id=\"t103d\">\u00c9valuer la technologie du taillage du feuillage de la carotte pour les cultures commerciales</th>\n            <td headers=\"t102 t102b t103 t103d t104\">Termin\u00e9</td>\n            <td headers=\"t102 t102b t103 t103d t105\">Le <a href=\"?id=1537304016662\">projet PRR06-310</a> visait \u00e0 \u00e9valuer l'efficacit\u00e9 et la viabilit\u00e9 \u00e9conomique d'un appareil m\u00e9canique de taillage du feuillage des carottes pour lutter contre la scl\u00e9rotiniose dans les champs en <abbr title=\"\u00cele-du-Prince-\u00c9douard\">\u00ce.-P.-\u00c9.</abbr> \u00c0 l'aide d'une faucheuse construite sur mesure, on a r\u00e9ussi \u00e0 r\u00e9duire la maladie sans recourir aux fongicides et sans nuire \u00e0 la production. La m\u00e9thode du taillage a fait l'objet de d\u00e9monstrations dans des exploitations locales et de visites de champs.</td>\n            <td headers=\"t102 t102b t103 t103d t106\">2006-2009</td>\n          </tr>\n          <tr>\n            <td headers=\"t102 t102b t103 t103d t104\">Termin\u00e9</td>\n            <td headers=\"t102 t102b t103 t103d t105\">Le <a href=\"?id=1537379394286\">projet PRR09-010</a> a permis de d\u00e9montrer la viabilit\u00e9 \u00e9conomique de la technologie du taillage du feuillage pour lutter contre la scl\u00e9rotiniose sous les conditions de production agricole de l'Ontario. \u00c0 l'aide d'un appareil de fauchage adapt\u00e9 (du mod\u00e8le de l'<abbr title=\"\u00cele-du-Prince-\u00c9douard\">\u00ce.-P.-\u00c9.</abbr>), on a r\u00e9ussi \u00e0 r\u00e9duire efficacement l'incidence de la maladie sans nuire \u00e0 la production.</td>\n            <td headers=\"t102 t102b t103 t103d t106\">2009-2012</td>\n          </tr>\n          <tr>\n            <th headers=\"t102 t102b t103\" class=\"text-left\" id=\"t103e\">Examiner les pratiques culturales de lutte pour le haricot sec et le canola</th>\n            <td headers=\"t102 t102b t103 t103e t104\">Termin\u00e9</td>\n            <td headers=\"t102 t102b t103 t103e t105\">Le <a href=\"?id=1537289933227\">projet PRR03-380</a> visait \u00e0 \u00e9valuer l'efficacit\u00e9 du taux de semis (densit\u00e9 de plants) et les diff\u00e9rences des vari\u00e9t\u00e9s pour lutter contre la scl\u00e9rotiniose du haricot sec et du canola. On a ainsi constat\u00e9 que la maladie est moins fr\u00e9quente pour les cultivars \u00e0 port dress\u00e9 et r\u00e9sistants \u00e0 la verse et pour de plus faibles densit\u00e9s de plants. La s\u00e9lection des cultivars et les taux de semis peuvent donc repr\u00e9senter d'importantes options de lutte afin de minimiser les risques de scl\u00e9rotiniose.</td>\n            <td headers=\"t102 t102b t103 t103e t106\">2003-2007</td>\n          </tr>\n          </tbody>\n          </table>\n          \n<table class=\"table table-responsive table-bordered\">\n<caption class=\"text-left\"><b>Objectif 2. R\u00e9duire l'utilisation des fongicides par meilleurs processus de prise</b></caption>\n        <thead>\n          <tr> \n            <th scope=\"col\">Cible</th>\n            <th scope=\"col\">\u00c9tape</th>\n            <th scope=\"col\">\u00c9tat</th>\n            <th scope=\"col\">Activit\u00e9s de mise en \u0153uvre</th>\n            <th scope=\"col\">Date d'ach\u00e8vement</th>\n          </tr>\n        </thead>\n        <tbody>\n          <tr>\n                \n            <td><b>2.a Am\u00e9liorer la capacit\u00e9 des producteurs \u00e0 identifier le pathog\u00e8ne et \u00e0 cerner les risques de maladie</b></td>\n            <td><b>Produire des guides pratiques illustr\u00e9s</b></td>\n           <td>Termin\u00e9</td>\n            <td>Le <b>projet PRR05-130</b> a \u00e9labor\u00e9 <a href=\"http://www.saskcanola.com/quadrant/media/canola/pdfs/canola_disease_scouting.pdf\">une fiche d'identification des maladies du canola et d'\u00e9valuation des risques de scl\u00e9rotiniose (PDF) (en anglais seulement)</a> afin d'aider les producteurs et les conseillers en culture \u00e0 identifier les apoth\u00e9cies du S. sclerotiorum-italicize dans le champ, \u00e0 \u00e9valuer le risque de maladie et \u00e0 prendre des d\u00e9cisions de gestion \u00e9clair\u00e9es quant \u00e0 la n\u00e9cessit\u00e9 des pulv\u00e9risations de fongicides et au moment propice pour le faire. Pr\u00e8s de 15 000 exemplaires de la fiche ont \u00e9t\u00e9 imprim\u00e9s et distribu\u00e9s aux producteurs de canola, aux conseillers en culture et aux n\u00e9gociants agricoles.</td>\n            <td>2005-2006</td>\n          </tr>\n          <tr>\n            <td><b>2.b Pr\u00e9ciser le moment de pulv\u00e9risation des fongicides</b></td>\n            <td><b>\u00c9laborer des m\u00e9canismes efficaces de pr\u00e9vision des maladies</b></td>\n            <td>Termin\u00e9</td>\n            <td>Le <a href=\"?id=1537289933227\">projet PRR03-380</a> visait \u00e0 mettre \u00e0 l'essai une version modifi\u00e9e du syst\u00e8me Bailey d'alerte et de pr\u00e9vision de la scl\u00e9rotiniose afin de mieux pr\u00e9voir le bon moment et minimiser les pulv\u00e9risations non n\u00e9cessaires de fongicides sur le haricot sec. On est parvenu \u00e0 mieux contr\u00f4ler la maladie en trouvant le bon moment pour la pulv\u00e9risation, comme l'indique le mod\u00e8le. De plus amples travaux seront n\u00e9cessaires afin de commercialiser cet outil.</td>\n            <td>2003-2007</td>\n          </tr>\n          </tbody>\n          </table>\n         \n<table class=\"table table-responsive table-bordered\">\n<caption class=\"text-left\"><b>Objectif 3. Transf\u00e9rer des nouvelles solutions \u00e0 risque r\u00e9duit et en faciliter l'adoption par les producteurs</b></caption>\n        <thead>\n          <tr> \n            <th id=\"t302\">Cible</th>\n            <th id=\"t303\">\u00c9tape</th>\n            <th id=\"t304\">\u00c9tat</th>\n            <th id=\"t305\">Activit\u00e9s de mise en \u0153uvre</th>\n            <th id=\"t306\">Date d'ach\u00e8vement</th>\n          </tr>\n        </thead>\n        <tbody>\n          <tr>\n \n            <th headers=\"t302\" rowspan=\"3\" class=\"text-left\" id=\"t302e\">Une cohorte de producteurs connaissant les nouvelles approches de lutte contre la scl\u00e9rotiniose et capables de les mettre en oeuvre correctement</th>\n            <th headers=\"t302 t302e t303\" rowspan=\"2\" class=\"text-left\" id=\"t303h\">Publier les r\u00e9sultats des projets</th>\n            <td headers=\"t302 t302e t303 t303h t304\">Termin\u00e9</td>\n            <td headers=\"t302 t302e t303 t303h t305\">Le <a href=\"?id=1537304016662\">projet PRR06-310</a> d'<abbr title=\"Agriculture et Agroalimentaire Canada\">AAC</abbr> a permis de diffuser des renseignements relatifs \u00e0 la technologie du taillage du feuillage et \u00e0 ses avantages gr\u00e2ce \u00e0 la publication des fiches d'information <a href=\"?id=1541009656079\">L'effeuillage r\u00e9duit la pourriture d'entrep\u00f4t de la carotte</a> et <a href=\"http://publications.gc.ca/site/fra/358662/publication.html\">Technologie du mat\u00e9riel utilis\u00e9 pour faucher le feuillage des carottes</a>. D'autres canaux de communication ont \u00e9galement \u00e9t\u00e9 utilis\u00e9s pour sensibiliser davantage les producteurs et promouvoir l'adoption de la technologie du taillage, notamment des visites des champs, des pr\u00e9sentations de producteurs, des vid\u00e9os, des annonces radiophoniques et des articles de presse sur les exploitants agricoles.</td>\n            <td headers=\"t302 t302e t303 t303h t306\">2006-2009</td>\n          </tr>\n          <tr>\n            <td headers=\"t302 t302e t303 t303h t304\">Termin\u00e9</td>\n            <td headers=\"t302 t302e t303 t303h t305\">Dans le cadre du <a href=\"?id=1535577927697\">projet BPI06-190</a> un certain nombre de pr\u00e9sentations et une journ\u00e9e champ\u00eatre ont eu lieu pour d\u00e9montrer les avantages de la lutte biologique au moyen de Contans et \u00e9valuer l'adoption \u00e9ventuelle de cette technologie par les producteurs.</td>\n            <td headers=\"t302 t302e t303 t303h t306\">2006-2008</td>\n          </tr>\n          <tr>\n            <th headers=\"t302\" class=\"text-left\" id=\"t303i\">D\u00e9montrer la viabilit\u00e9 et l'utilisation int\u00e9gr\u00e9e des nouveaux outils et des nouvelles pratiques</th>\n            <td headers=\"t302 t302e t303 t303i t304\">Termin\u00e9</td>\n            <td headers=\"t302 t302e t303 t303i t305\">Dans le cadre du <a href=\"?id=1535660010457\">projet BPI08-030</a> on a proc\u00e9d\u00e9 \u00e0 des d\u00e9monstrations \u00e0 la ferme de l'utilisation des biofongicides r\u00e9cemment homologu\u00e9s (Contans et Serenade) dans le cadre d'une approche int\u00e9gr\u00e9e de lutte contre la scl\u00e9rotiniose du haricot sec et du canola dans la r\u00e9gion irrigu\u00e9e du sud de l'Alberta. Dans certains cas, l'utilisation combin\u00e9e de Contans et de Lance a permis de b\u00e9n\u00e9ficier d'avantages sup\u00e9rieurs en mati\u00e8re de rendement. Les r\u00e9sultats du projet ont \u00e9t\u00e9 communiqu\u00e9s aux producteurs par le truchement de journ\u00e9es champ\u00eatres, de marches d'inspection des cultures et de publications locales de vulgarisation agricole.</td>\n            <td headers=\"t302 t302e t303 t303i t306\">2008-2011</td>\n          </tr>\n        </tbody>\n      </table> \n\n  <h2 id=\"Resultats\">R\u00e9sultats attendus</h2>\n\n  <p>Les principaux r\u00e9sultats attendus de la mise en \u0153uvre de la strat\u00e9gie de lutte contre la scl\u00e9rotiniose sont les suivants\u00a0:</p>\n\n  <ul>\n    <li>Le soutien offert par la RRP des pesticides \u00e0 usage limit\u00e9 relativement \u00e0 la production de donn\u00e9es d'efficacit\u00e9 et \u00e0 la soumission de dossiers r\u00e9glementaires a permis l'homologation des cinq nouvelles utilisations de fongicides\u00a0: Allegro (pour la carotte, le haricot sec et le haricot mange-tout), Scholar (pour la carotte) et l'ajout du canola sur l'\u00e9tiquette de Lance.</li>\n    <li>L'aide relative \u00e0 la r\u00e9glementation qui a \u00e9t\u00e9 fournie en vue de la pr\u00e9paration et soumission des dossiers de demande a men\u00e9 \u00e0 l'homologation de deux nouveaux biopesticides, Contans et Serenade Max, pour la lutte contre la scl\u00e9rotiniose de dix et de quatre cultures, respectivement.</li>\n    <li>Le soutien fourni a permis de valider et de d\u00e9montrer l'efficacit\u00e9 du taillage du feuillage comme pratique culturale permettant de minimiser, ou dans certains cas, remplacer la n\u00e9cessit\u00e9 de proc\u00e9der \u00e0 des pulv\u00e9risations de fongicides pour lutter contre la scl\u00e9rotiniose de la carotte. Le taillage du feuillage est d\u00e9sormais une pratique normalis\u00e9e dans bon nombre d'exploitations agricoles de production de carottes des provinces de l'Atlantique et de l'Ontario, ainsi que de l'ext\u00e9rieur du Canada.</li>\n    <li>Des essais de d\u00e9monstration et des activit\u00e9s de vulgarisation ont permis d'informer les producteurs \u00e0 propos de l'utilisation des nouveaux biopesticides et de la technologie du taillage du feuillage des carottes.</li>\n    <li>Deux fiches d'information publi\u00e9es par la RRP ont contribu\u00e9 \u00e0 diffuser des renseignements sur la technologie du taillage du feuillage des carottes et \u00e0 favoriser le transfert de cette technologie aupr\u00e8s des producteurs.</li>\n    <li>Le soutien fourni a permis de publier un guide de d\u00e9pistage de la scl\u00e9rotiniose et d'identification des risques de maladie pour aider les producteurs de canola \u00e0 prendre des d\u00e9cisions de gestion \u00e9clair\u00e9es dans les champs.</li>\n    <li>Par le truchement de consultations, de recherches concert\u00e9es, de projets de d\u00e9monstration et de la diffusion d'information \u00e0 grande \u00e9chelle, une vaste cohorte de producteurs et de conseillers en culture ont \u00e9t\u00e9 sensibilis\u00e9s aux nouveaux outils et inform\u00e9s \u00e0 propos de la lutte durable contre la scl\u00e9rotiniose.</li>\n  </ul>\n\n<h2>Impacts de la strat\u00e9gie\u00a0: pass\u00e9es et pr\u00e9sentes</h2>\n\n<p>Le travail effectu\u00e9 relativement \u00e0 la pr\u00e9sente strat\u00e9gie et le soutien fourni par la RRP ont permis de diversifier l'\u00e9ventail des produits, des outils et des pratiques \u00e0 la disposition des producteurs, \u00e9largissant ainsi la trousse d'outils de lutte contre la scl\u00e9rotiniose au Canada. Au moment de la mise en place de la strat\u00e9gie, en 2003, les solutions de lutte adapt\u00e9es aux cultures cibles ne comprenaient que six fongicides chimiques, dont quatre \u00e9taient de vieux produits devant \u00eatre soumis \u00e0 une r\u00e9\u00e9valuation et dont aucun n'avait \u00e9t\u00e9 homologu\u00e9 pour la carotte ou la f\u00e8ve de soja. Au terme d'un engagement soutenu de neuf ans envers l'application de cette strat\u00e9gie, cinq nouveaux moyens d'action \u2013 portant \u00e0 dix-neuf le total des utilisations de fongicides et de biopesticides \u2013, ainsi que de nouvelles pratiques et de nouveaux outils de lutte ont \u00e9t\u00e9 ajout\u00e9s \u00e0 cette trousse d'outils, tandis que l'utilisation des fongicides \u00e0 risque \u00e9lev\u00e9 a \u00e9t\u00e9 graduellement \u00e9limin\u00e9e.</p>\n\n  <p>Comme l'indique le tableau 2, la mise en \u0153uvre de ces nouvelles solutions pourrait avoir des r\u00e9percussions positives sur de vastes superficies de cultures aux chapitres de la r\u00e9duction des risques li\u00e9s aux pesticides et de la lutte durable contre la scl\u00e9rotiniose.</p>   \n\n    <table class=\"table table-responsive table-bordered\">\n<caption class=\"text-left\"><b>Tableau\u00a02 \u00c9ventuels impacts des solutions \u00e9labor\u00e9es dans le cadre de la strat\u00e9gie  de lutte contre la scl\u00e9rotiniose</b></caption>\n\n      <thead>\n        <tr>\n          <th scope=\"col\">Solution</th>\n          <th scope=\"col\">M\u00e9canisme de r\u00e9duction des risques li\u00e9s aux pesticides</th>\n          <th scope=\"col\">Cultures<span title=\"Ne comprennent que les cultures cibl\u00e9es par la strat\u00e9gie. Les  r\u00e9percussions pourraient \u00eatre plus importantes si on envisage toutes les cultures mentionn\u00e9es dans les recommandations d'utilisation indiqu\u00e9es sur les \u00e9tiquettes des produits\">*</span> auxquelles la solution s'applique</th>\n          <th scope=\"col\">Surface cultiv\u00e9e totale<span title=\"Superficie de cultures indiqu\u00e9es ensemenc\u00e9e au Canada en 2012\">**</span> (millier d'hectares)</th>\n    <th scope=\"col\">\u00c9ventuelle superficie au la solution pourrait \u00eatre adopt\u00e9e (%)</th>\n  <th scope=\"col\">Avantages suppl\u00e9mentaires / Commentaires</th>\n        </tr>\n      </thead>\n      <tfoot>\n        <tr>\n          <td colspan=\"6\">*Ne comprennent que les cultures cibl\u00e9es par la strat\u00e9gie. Les  r\u00e9percussions pourraient \u00eatre plus importantes si on envisage toutes les  cultures mentionn\u00e9es dans les recommandations d'utilisation indiqu\u00e9es sur les  \u00e9tiquettes des produits. <br>\n            **Superficie de cultures indiqu\u00e9es ensemenc\u00e9e au Canada en 2012.</td>\n        </tr>\n      </tfoot>\n      <tbody>\n        <tr>\n          <td>Nouveaux biopesticides (Contans et Serenade)</td>\n          <td>R\u00e9duit la d\u00e9pendance aux pesticides traditionnels</td>\n          <td>Carotte, canola et haricot sec</td>\n          <td>8 720</td>\n          <td>100</td>\n          <td>Protection des organismes non cibl\u00e9s et b\u00e9n\u00e9fiques; mise en place de    syst\u00e8mes de lutte int\u00e9gr\u00e9e; rotation avec d'autres moyens d'action; gestion de la r\u00e9sistance; att\u00e9nuation des probl\u00e8mes li\u00e9s aux d\u00e9lai de s\u00e9curit\u00e9 apr\u00e8s le traitement (DSAT), d\u00e9lai d'attente avant la r\u00e9colte (DAAR) et limites maximales de r\u00e9sidus (LMR).</td>\n        </tr>\n        <tr>\n          <td>Nouveaux fongicides</td>\n          <td>Utilise des taux d'application inf\u00e9rieurs \u00e0 ceux des vieux produits    chimiques</td>\n          <td>Carotte, canola et haricot sec</td>\n          <td>8 720</td>\n          <td>100</td>\n          <td>Rotation des nouvelles solutions et d'autres moyens d'action; gestion    de la r\u00e9sistance.</td>\n        </tr>\n        <tr>\n          <td>Taillage du feuillage de la carotte</td>\n          <td>Pr\u00e9vente la maladie et r\u00e9duit la n\u00e9cessit\u00e9 d'utiliser des produits de    lutte antiparasitaire</td>\n          <td>Carotte</td>\n          <td>20</td>\n          <td>85</td>\n          <td rowspan=\"2\">R\u00e9duction des co\u00fbts de production gr\u00e2ce \u00e0 l'utilisation r\u00e9duite des fongicides appropri\u00e9s aux productions traditionnelles et biologiques; potentiel d'adoption accru dans l'Est du Canada en raison des p\u00e9riodes prolong\u00e9es de conditions d'humidit\u00e9 et d'entreposage.</td>\n        </tr>\n        <tr>\n          <td>Fiches d'information sur le taillage du feuillage de la carotte</td>\n          <td>Augmente la probabilit\u00e9 d'adoption de la technologie du taillage du    feuillage de la carotte par les producteurs</td>\n          <td>Carotte</td>\n          <td>20</td>\n          <td>85</td>\n        </tr>\n        <tr>\n          <td>S\u00e9lection des meilleurs cultivars et densit\u00e9 de semis</td>\n          <td>Pr\u00e9vente la maladie et r\u00e9duit la n\u00e9cessit\u00e9 d'utiliser des pesticides    traditionnels</td>\n          <td>Haricot sec et canola</td>\n          <td>8\u00a0700</td>\n          <td>100</td>\n          <td>Mise en place de syst\u00e8mes de lutte antiparasitaire int\u00e9gr\u00e9e; gestion    de la r\u00e9sistance.</td>\n        </tr>\n        <tr>\n          <td>Outil d'identification et d'\u00e9valuation des risques de maladie</td>\n          <td>\u00c9vite les pulv\u00e9risations inutiles.</td>\n          <td>Canola</td>\n          <td>8\u00a0600</td>\n          <td>100</td>\n          <td>Mise en place de syst\u00e8mes de lutte antiparasitaire int\u00e9gr\u00e9e;    am\u00e9lioration du processus de prise de d\u00e9cisions; am\u00e9lioration des calendriers    de pulv\u00e9risation et de l'efficacit\u00e9 des produits de lutte.</td>\n        </tr>\n      </tbody>\n    </table>\n\n\r\n    "
    }
}