{
    "dcr_id": "1535663417472",
    "title": {
        "en": "Evaluation of biofungicides for management of powdery and downy mildew in grape production",
        "fr": "\u00c9valuation des biofongicides pour la lutte contre l'o\u00efdium et le mildiou de la vigne"
    },
    "modified": "2019-10-04",
    "issued": "2018-10-12",
    "templatetype": "content page 1 column",
    "page_type": "0",
    "node_id": "1535122427752",
    "dc_date_created": "2018-10-12",
    "managing_branch": "PAB",
    "parent_node_id": "",
    "short_title": "",
    "exturl": "",
    "teamsite_location": {
        "en": "/default/main/AAFC-AAC/Internet-Internet/Group-Ensemble/ProgServ-ProgServ/WORKAREA/ProgServ-ProgServ/templatedata/comm-comm/gene-gene/data/08/bpi09-080_1535663417472_en",
        "fr": "/default/main/AAFC-AAC/Internet-Internet/Group-Ensemble/ProgServ-ProgServ/WORKAREA/ProgServ-ProgServ/templatedata/comm-comm/gene-gene/data/08/bpi09-080_1535663417472_fr"
    },
    "type_name": "comm-comm/gene-gene",
    "has_dcr_id": true,
    "label": {
        "en": "Evaluation of biofungicides for management of powdery and downy mildew in grape production",
        "fr": "\u00c9valuation des biofongicides pour la lutte contre l'o\u00efdium et le mildiou de la vigne"
    },
    "breadcrumb": {
        "en": "Evaluation of biofungicides for management of powdery and downy mildew in grape production",
        "fr": "\u00c9valuation des biofongicides pour la lutte contre l'o\u00efdium et le mildiou de la vigne"
    },
    "layout_name": "content page 1 column",
    "lang": "en",
    "refaire": false,
    "meta": {
        "viewport": {
            "en": "width=device-width,initial-scale=1",
            "fr": "width=device-width, initial-scale=1"
        },
        "issued": {
            "en": "2018-10-12",
            "fr": "2018-10-12"
        },
        "modified": {
            "en": "2019-10-04",
            "fr": "2019-10-04"
        },
        "format": {
            "en": "text/html",
            "fr": "text/html"
        },
        "title": {
            "en": "Evaluation of biofungicides for management of powdery and downy mildew in grape production",
            "fr": "\u00c9valuation des biofongicides pour la lutte contre l'o\u00efdium et le mildiou de la vigne"
        },
        "subject": {
            "en": "safflower;weed control;viral diseases",
            "fr": "\u00e9coAgriculture;boeuf (viande);pommes de terre-producteurs"
        },
        "dcterms:subject": {
            "en": "geomatics;pesticides;agriculture",
            "fr": "b\u00e9tail;d\u00e9veloppement communautaire;pesticide"
        },
        "description": {
            "en": "MUP-PUL Minor Use Pesticides Program submissions_and_registrations Minor Use Pesticides - Submissions. clopyralid. AAFC15-002. Submitted to PMRA*. Updated information since August\u00a016, 2017.Submission Fiscal Year: 2016-17 (Total 55). Crop. Rust, leaf and stem (Puccinia graminis); Rust (Puccinia sp.); Rust, stripe (Puccinia striiformis). Tilt 250E fungicide.",
            "fr": "Contenu archiv\u00e9. Le contenu archiv\u00e9 est fourni aux fins de r\u00e9f\u00e9rence, de recherche ou de tenue de documents. ), ou un trille fl\u00fbt\u00e9 (. Okanagana rimosa. La cavit\u00e9 plus petite situ\u00e9e devant les miroirs sert \u00e9galement \u00e0 modifier le son."
        },
        "language": {
            "en": "eng",
            "fr": "fra"
        },
        "keywords": {
            "en": "apsg;Podosphaera;Caneberry",
            "fr": "abdomen.Pour;Pseudoperonospora cubensis;d\u00e9pandages r\u00e9p\u00e9titifs"
        },
        "audience": {
            "en": "gcaudience",
            "fr": "gcaudience"
        },
        "type": {
            "en": "abstract",
            "fr": "rapport"
        },
        "creator": {
            "en": "Agriculture and Agri-Food Canada;Government of Canada",
            "fr": "Agriculture et Agroalimentaire Canada;Gouvernement du Canada"
        },
        "spatial": {
            "en": "gcregions",
            "fr": "gcregions"
        },
        "service": {
            "en": "AAFC-AAC",
            "fr": "AAFC-AAC"
        },
        "accessRights": {
            "en": "2",
            "fr": "2"
        },
        "legalName": {
            "en": "agriculture_and_agri_food_canada",
            "fr": "agriculture_et_agroalimentaire_canada"
        },
        "areaServed": {
            "en": "Canada",
            "fr": "Canada"
        }
    },
    "h1": {
        "en": "Evaluation of biofungicides for management of powdery and downy mildew in grape production",
        "fr": "\u00c9valuation des biofongicides pour la lutte contre l'o\u00efdium et le mildiou de la vigne"
    },
    "js": {
        "en": "",
        "fr": ""
    },
    "body": {
        "en": "\r\n    <h2>Project Code BPI09-080</h2>\n\n<h3>Project Lead</h3>\n\n<p><b>Dr. Peter Sholberg</b> -  Agriculture and Agri-Food Canada</p>\n\n<h3>Objective</h3>\n\n<p><b>To compare the efficacy of stand-alone applications of Regalia SC (5% active ingredient) and Regalia Max (20% active ingredient) for the control of fungal diseases, Powdery mildew (<i>Uncinula necator</i>) and Downy mildew (<i>Plasmopara viticola</i>) on grapes</b></p>\n\n<h3>Summary of Results</h3>\n\n<p>Grapevines belong to the genus,Vitis (Vitacaea) with <i>V.\u00a0vinifera</i> being the most economically important of about 60 species. Numerous fungal pathogens including Downy mildew (<i>Plasmopara viticola</i>) and Powdery mildew (<i>Uncinula necator</i>) impact the yield and quality of berries. Powdery mildew attacks all aerial plant parts making whitish or greenish-white powdery patches on leaves which become mottled or distorted, as well as curled and withered. Infected blossoms dry up and/or fail to set fruit, while berries develop a netlike pattern of russet, may crack open, dry up, or drop from the cluster. Downy mildew attacks canes, leaf petioles and tendrils where it causes discoloration and depression of the tissues. Powdery mildew, grey mold and other post-harvest rots are the main diseases associated with the production of wine grapes in British Colombia. In 2009, six different reduced risk materials were tested in a mature vineyard for their efficacy in managing these diseases. Results were assessed in comparison with a conventional standard treatment regimen involving Nova, Flint, Sorvan, Elevate, and Vanguard.</p>\n\n<p>This trial identified MilStop and MilStop/PureSpray as effective materials for the control of grape powdery mildew and Regalia SC as effective for the control of post-harvest rots.</p>\n\n<p>Regalia Max and Regalia SC were not effective on foliar powdery mildew but reduced its severity on fruit. Regalia Max reduced severity of grey mold and blue mold. Regalia SC reduced the severity of grey mold and there was a significantly lower incidence and severity of \"raisining\". It was also effective at controlling the severity of blue mold to a level comparable to the standard program. In addition, the Regalia SC-treated clusters had a significantly lesser amount of mold on the rachis. This indicates that applications of Regalia SC and Regalia Max should target grey mold and rots more so than powdery mildew.</p>\n\n<p>MilStop and MilStop/PureSpray effectively controlled powdery mildew on foliage early in the growing season. The addition of 0.5% PureSpray oil was necessary to improve the effectiveness of MilStop to a level comparable to the one obtained with the standard program in September for foliar powdery mildew. There was a reduction in the incidence of fruit powdery mildew in September for MilStop/PureSpray and both MilStop and MilStop/PureSpray were effective at controlling symptoms by harvest. Both were effective at reducing the severity of powdery mildew on fruit over the growing season.</p>\n\n<p>MilStop and MilStop/PureSpray Oil effectively reduced severity of grey mold and incidence of blue mold. Even though both MilStop and MilStop/PureSpray were effective on powdery mildew, the berries were significantly lower in weight than the ones treated with the standard program. This may be associated with the damage from the phytotoxicity effect which impaired berry growth. MilStop and MilStop with 0.5% PureSpray Oil are effective for the control of grape powdery mildew.Testing to prevent damage to the surface of the fruit with rates lowered post-bloom, as well as alternation with other materials should be undertaken to address this observation.</p>\n\n<p>There was no significant difference in any of the juice quality parameters of the materials tested compared to the standard program indicating that none of the materials tested are likely to be detrimental to wine making.</p>\n\n<p>The information developed in this project has been shared with the registrants of the tested products and Pesticide Risk Reduction (PRR) will be able to take advantage of any label expansion opportunities through PRR's biopesticides regulatory support. Priorities for this biopesticides regulatory support are selected by Canadian growers during the annual Biopesticides Priority Setting workshop.</p>\n\r\n    ",
        "fr": "\r\n    <h2>Code de projet BPI09-080</h2>\n\n<h3>Chef de projet</h3>\n<p><b>Peter Sholberg, Ph.D.</b> - Agriculture et Agroalimentaire Canada</p>\n\n<h3>Objectif</h3>\n<p><b>Comparer l'efficacit\u00e9 d'une seule application de Regalia SC (5\u00a0% mati\u00e8re active) \u00e0 celle de Regalia Max (20\u00a0% mati\u00e8re active) pour lutter contre les maladies fongiques, l'o\u00efdium de la vigne (<i>Uncinula necator</i>) et le mildiou du raisin (<i>Plasmopara viticola</i>)</b></p>\n\n<h3>Sommaire de r\u00e9sultats</h3>\n<p>Au Canada, le raisin est cultiv\u00e9 en Ontario (75\u00a0%), en Colombie-Britannique (24\u00a0%), au Qu\u00e9bec (1\u00a0%) et en Nouvelle-\u00c9cosse (&gt; 1\u00a0%). La vigne appartient au genre Vitis (Vitacaea), <i>V.\u00a0vinifera</i> \u00e9tant l\u2019esp\u00e8ce la plus importante sur le plan \u00e9conomique parmi les quelque 60 qui existent.</p>\n<p>De nombreux pathog\u00e8nes fongiques, dont le mildiou (<i>Plasmopara viticola</i>) et l\u2019o\u00efdium de la vigne (<i>Uncinula necator</i>), influencent la production et la qualit\u00e9 des fruits. L\u2019o\u00efdium de la vigne attaque toutes les parties a\u00e9riennes de la plante, cr\u00e9ant des plaques poudreuses blanch\u00e2tres ou blanc verd\u00e2tre sur les feuilles qui deviennent tachet\u00e9es ou se d\u00e9forment, s\u2019enroulent et fl\u00e9trissent. Les bourgeons infect\u00e9s s\u00e8chent ou n\u2019atteignent pas le stade de nouaison, et un motif r\u00e9ticul\u00e9 rouss\u00e2tre se forme \u00e0 la surface des fruits qui peuvent se fendiller, s\u00e9cher ou se d\u00e9tacher de la grappe. Le mildiou s\u2019attaque aux tiges, aux p\u00e9tioles et aux vrilles, provoquant une d\u00e9coloration et un affaissement des tissus. L\u2019o\u00efdium de la vigne, la pourriture grise et autres pourritures apr\u00e8s la r\u00e9colte sont les principales maladies qui nuisent \u00e0 la production de raisins de cuve en Colombie-Britannique. En 2009, des essais ont \u00e9t\u00e9 r\u00e9alis\u00e9s dans un vignoble mature sur six diff\u00e9rents produits \u00e0 risque r\u00e9duit, pour juger de leur efficacit\u00e9 contre ces maladies. Les r\u00e9sultats ont \u00e9t\u00e9 compar\u00e9s \u00e0 ceux obtenus avec le sch\u00e9ma th\u00e9rapeutique standard classique utilisant Nova, Flint, Sorvan, Elevate et Vanguard.</p>\n<p>Ces essais ont r\u00e9v\u00e9l\u00e9 que MilStop et MilStop/PureSpray sont efficaces contre l\u2019o\u00efdium de la vigne, alors que Regalia SC est efficace contre les pourritures post-r\u00e9colte.</p>\n<p>Regalia Max et Regalia SC n\u2019ont pas \u00e9t\u00e9 efficaces contre l\u2019o\u00efdium sur les feuilles, mais ont r\u00e9duit la gravit\u00e9 de cette maladie sur les fruits. Regalia Max a r\u00e9duit la gravit\u00e9 de la pourriture grise et de la pourriture bleue, alors que Regalia SC a att\u00e9nu\u00e9 la gravit\u00e9 de la pourriture grise et a sensiblement diminu\u00e9 l\u2019incidence et la gravit\u00e9 du dess\u00e8chement des raisins. Son efficacit\u00e9 contre la pourriture bleue s\u2019est \u00e9galement r\u00e9v\u00e9l\u00e9e comparable \u00e0 celle du traitement standard. De plus, les grappes trait\u00e9es avec Regalia SC ont pr\u00e9sent\u00e9 beaucoup moins de moisissure sur le rachis. Ces r\u00e9sultats indiquent que Regalia SC et Regalia Max devraient \u00eatre utilis\u00e9s contre la pourriture grise et autres pourritures, davantage que pour lutter contre l\u2019o\u00efdium de la vigne.</p>\n<p>MilStop et MilStop/PureSpray ont \u00e9t\u00e9 efficaces contre l\u2019o\u00efdium de la vigne sur le feuillage au d\u00e9but de la saison de croissance. L\u2019ajout de PureSpray \u00e0 0,5\u00a0% en huile a \u00e9t\u00e9 n\u00e9cessaire pour accro\u00eetre l\u2019efficacit\u00e9 de MilStop \u00e0 un niveau comparable \u00e0 celui obtenu avec le programme de traitement standard appliqu\u00e9 en septembre pour lutter contre l\u2019o\u00efdium sur le feuillage. L\u2019application de MilStop/PureSpray a diminu\u00e9 l\u2019incidence de l\u2019o\u00efdium sur les fruits en septembre, alors que MilStop et MilStop/PureSpray se sont tous deux r\u00e9v\u00e9l\u00e9s efficaces pour supprimer les sympt\u00f4mes jusqu\u2019\u00e0 la r\u00e9colte. Les deux ont \u00e9galement att\u00e9nu\u00e9 la gravit\u00e9 de l\u2019o\u00efdium de la vigne sur les fruits durant la saison de croissance.</p>\n<p>MilStop et MilStop/PureSpray en huile se sont r\u00e9v\u00e9l\u00e9s efficaces pour r\u00e9duire la gravit\u00e9 de la pourriture grise et l\u2019incidence de la pourriture bleue. Cependant, malgr\u00e9 l\u2019efficacit\u00e9 de MilStop et de MilStop/PureSpray contre l\u2019o\u00efdium de la vigne, le poids des raisins infect\u00e9s a \u00e9t\u00e9 sensiblement inf\u00e9rieur au poids des raisins trait\u00e9s selon le protocole standard. Ce r\u00e9sultat pourrait \u00eatre attribuable \u00e0 un effet de phytotoxicit\u00e9 qui a nui au d\u00e9veloppement des fruits. Donc, m\u00eame si MilStop et MilStop avec PureSpray 0,5\u00a0% en huile sont efficaces contre l\u2019o\u00efdium de la vigne, il y aurait lieu de mener des essais pour tenter de pr\u00e9venir les dommages \u00e0 la surface des fruits en r\u00e9duisant les doses apr\u00e8s la floraison et en alternant avec d\u2019autres produits, afin de r\u00e9soudre ce probl\u00e8me.</p>\n<p>La comparaison des produits \u00e0 l\u2019\u00e9tude avec le programme de traitement standard n\u2019a r\u00e9v\u00e9l\u00e9 aucune diff\u00e9rence significative dans quelques param\u00e8tres li\u00e9s \u00e0 la qualit\u00e9 du jus, ce qui signifie qu\u2019aucun de ces produits ne devrait nuire \u00e0 la vinification.</p>\n\n<p>Les renseignements recueillis dans le cadre de ce projet ont \u00e9t\u00e9 partag\u00e9s avec les titulaires de l\u2019homologation des produits \u00e0 l\u2019\u00e9tude; R\u00e9duction des risques li\u00e9s aux pesticides (RRP) pourra \u00e9galement tirer avantage de toutes les possibilit\u00e9s d\u2019extension du profil d\u2019emploi qui pourraient d\u00e9couler des activit\u00e9s de soutien r\u00e9glementaire li\u00e9 aux biopesticides. Les priorit\u00e9s du soutien en mati\u00e8re de r\u00e9glementation des biopesticides sont d\u00e9finies par les producteurs canadiens durant l\u2019Atelier annuel sur l\u2019\u00e9tablissement des priorit\u00e9s en mati\u00e8re de biopesticides.</p>\n\r\n    "
    }
}