{
    "dcr_id": "1535558002544",
    "title": {
        "en": "Crop Profile for Lentil in Canada, 2015 (62 pages) - Synopsis",
        "fr": "Profil de la culture de la lentille au Canada, 2015 (71 pages) - R\u00e9sum\u00e9"
    },
    "modified": "2018-10-12",
    "issued": "2018-10-12",
    "templatetype": "content page 1 column",
    "page_type": "0",
    "node_id": "1535122352575",
    "dc_date_created": "2018-10-12",
    "managing_branch": "PAB",
    "parent_node_id": "",
    "short_title": "",
    "exturl": "",
    "teamsite_location": {
        "en": "/default/main/AAFC-AAC/Internet-Internet/Group-Ensemble/ProgServ-ProgServ/WORKAREA/ProgServ-ProgServ/templatedata/comm-comm/gene-gene/data/08/cp_lentil_1535558002544_en",
        "fr": "/default/main/AAFC-AAC/Internet-Internet/Group-Ensemble/ProgServ-ProgServ/WORKAREA/ProgServ-ProgServ/templatedata/comm-comm/gene-gene/data/08/cp_lentil_1535558002544_fr"
    },
    "type_name": "comm-comm/gene-gene",
    "has_dcr_id": true,
    "label": {
        "en": "Crop Profile for Lentil in Canada, 2015 (62 pages) - Synopsis",
        "fr": "Profil de la culture de la lentille au Canada, 2015 (71 pages) - R\u00e9sum\u00e9"
    },
    "breadcrumb": {
        "en": "Crop Profile for Lentil in Canada, 2015 (62 pages) - Synopsis",
        "fr": "Profil de la culture de la lentille au Canada, 2015 (71 pages) - R\u00e9sum\u00e9"
    },
    "layout_name": "content page 1 column",
    "lang": "en",
    "refaire": false,
    "meta": {
        "viewport": {
            "en": "width=device-width,initial-scale=1",
            "fr": "width=device-width, initial-scale=1"
        },
        "issued": {
            "en": "2018-10-12",
            "fr": "2018-10-12"
        },
        "modified": {
            "en": "2018-10-12",
            "fr": "2018-10-12"
        },
        "format": {
            "en": "text/html",
            "fr": "text/html"
        },
        "title": {
            "en": "Crop Profile for Lentil in Canada, 2015 (62 pages) - Synopsis",
            "fr": "Profil de la culture de la lentille au Canada, 2015 (71 pages) - R\u00e9sum\u00e9"
        },
        "subject": {
            "en": "architectural heritage;soil assessement;viral diseases",
            "fr": "eau souterraine;pommes de terre-producteurs;syst\u00e8mes de culture"
        },
        "dcterms:subject": {
            "en": "architecture;geomatics;statistics",
            "fr": "m\u00e9dicament;importation;d\u00e9veloppement communautaire"
        },
        "description": {
            "en": "PRR-RRP Pesticide Risk Reduction Program cp_aspargus Crop Profile for Asparagus in Canada, 2015 (46 pages) - Synopsis. Detailed information is provided in tabular form on pest occurrence, integrated pest management options and registered pesticides available to growers.Grower issues and\u00a0gaps in pest management, identified through stakeholder consultations are described in each of the three main sections (disease, insect and mite and weed) and under each pest description. Detailed information on crop production and pest management in specific regions is available through provincial ministry of agriculture websites and provincial crop specialists.The.",
            "fr": "PRR-RRP Programme de r\u00e9duction des risques li\u00e9s aux pesticides Profil de la culture de l\u2019asperge au Canada, 2015 (48 pages) - R\u00e9sum\u00e9. Le. En outre, des tableaux fournissent de plus amples renseignements sur les ravageurs affectant cette culture, sur les m\u00e9thodes de lutte antiparasitaire int\u00e9gr\u00e9e ainsi que sur les pesticides homologu\u00e9s que les cultivateurs peuvent utiliser.Chacune des trois sections principales explique, \u00e0 la suite de la description de chaque ravageur (maladies, insectes, mites et mauvaises herbes), les probl\u00e8mes et lacunes en mati\u00e8re de lutte antiparasitaire mentionn\u00e9s par les cultivateurs dans le cadre de s\u00e9ances de consultation des intervenants. profil de la culture de l\u2019asperge au Canada, 2015."
        },
        "language": {
            "en": "eng",
            "fr": "fra"
        },
        "keywords": {
            "en": "PRR-RRP Pesticide Risk Reduction;options and registered pesticides;Pesticide Risk Reduction",
            "fr": "R\u00e9sum\u00e9;facteurs abiotiques;homologu\u00e9s que les cultivateurs peuvent utiliser.Chacune"
        },
        "audience": {
            "en": "gcaudience",
            "fr": "gcaudience"
        },
        "type": {
            "en": "presentation",
            "fr": "documentation de r\u00e9union"
        },
        "creator": {
            "en": "Agriculture and Agri-Food Canada;Government of Canada",
            "fr": "Agriculture et Agroalimentaire Canada;Gouvernement du Canada"
        },
        "spatial": {
            "en": "gcregions",
            "fr": "gcregions"
        },
        "service": {
            "en": "AAFC-AAC",
            "fr": "AAFC-AAC"
        },
        "accessRights": {
            "en": "2",
            "fr": "2"
        },
        "legalName": {
            "en": "agriculture_and_agri_food_canada",
            "fr": "agriculture_et_agroalimentaire_canada"
        },
        "areaServed": {
            "en": "Canada",
            "fr": "Canada"
        }
    },
    "h1": {
        "en": "Crop Profile for Lentil in Canada, 2015 (62 pages) - Synopsis",
        "fr": "Profil de la culture de la lentille au Canada, 2015 (71 pages) - R\u00e9sum\u00e9"
    },
    "js": {
        "en": "",
        "fr": ""
    },
    "body": {
        "en": "\r\n     \n<p>The <cite>Crop Profile for Lentil, 2015</cite> provides an overview of production and pest management practices for the crop in Canada. Information is provided on abiotic factors affecting its growth. The biology of key disease, insect and mite and weed problems is presented as well as cultural and chemical methods of control. Detailed information is provided in tabular form on pest occurrence, integrated pest management options and registered pesticides available to growers.</p>\n<p>Grower issues/gaps in pest management, identified through stakeholder consultations are described in each of the three main sections (disease, insect and mite and weed) and under each pest description. A list of provincial specialists for Lentil and Integrated Pest Management resources are provided at the end of the profile.</p>\n<p>Limited crop production and market statistics are provided in the profile to give context to the economic importance of the commodity. For more detailed statistics pertaining to the crop, the reader is referred to <a href=\"http://www.statcan.gc.ca/start-debut-eng.html\">Statistics Canada</a>.</p>\n<p>The <cite>Crop Profile for Lentil in Canada, 2015</cite> is not intended for use as a crop production guide. Detailed information on crop production and pest management in specific regions is available through provincial ministry of agriculture websites and provincial crop specialists.</p>\n<p>The <a href=\"http://www.publications.gc.ca/site/eng/9.838297/publication.html\">Crop Profile for Lentil in Canada, 2015</a> (full report) is available from Government of Canada Publications.</p>\n\r\n    ",
        "fr": "\r\n     \n\n<p><cite>Le profil de la culture de la lentille au Canada, 2015</cite> pr\u00e9sente un aper\u00e7u de la production et des m\u00e9thodes de lutte antiparasitaire ayant trait \u00e0 cette culture au Canada. De plus, il renferme des renseignements sur les facteurs abiotiques qui en affectent la croissance. Le profil explique \u00e9galement la biologie des maladies, des insectes, des mites et des mauvaises herbes qui sont les principales sources de probl\u00e8mes affectant cette culture, ainsi que les m\u00e9thodes de lutte (lutte culturale et lutte chimique) employ\u00e9es. En outre, des tableaux fournissent de plus amples renseignements sur les ravageurs, ainsi que sur les m\u00e9thodes de lutte antiparasitaire int\u00e9gr\u00e9e et les pesticides homologu\u00e9s que les cultivateurs peuvent utiliser.</p>\n<p>Chacune des trois sections principales explique, \u00e0 la suite de la description de chaque ravageur (maladies, insectes, mites et mauvaises herbes), les probl\u00e8mes et lacunes en mati\u00e8re de lutte antiparasitaire mentionn\u00e9s par les cultivateurs dans le cadre de s\u00e9ances de consultation des intervenants. Une liste de sp\u00e9cialistes provinciaux de la lentille et de ressources sur la lutte antiparasitaire int\u00e9gr\u00e9e se trouve \u00e0 la fin du profil.</p>\n<p>De plus, le profil pr\u00e9sente des statistiques sommaires sur la production et le march\u00e9 de la culture en question afin de donner un aper\u00e7u de l'importance \u00e9conomique du produit. Pour obtenir des statistiques plus d\u00e9taill\u00e9es sur la culture, on peut consulter le site Web de <a href=\"http://www.statcan.gc.ca/start-debut-fra.html\">Statistique Canada</a>.</p>\n<p>Le <cite>profil de la culture de la lentille au Canada, 2015</cite> ne se veut pas un guide sur la production de la culture en question. On peut obtenir des renseignements d\u00e9taill\u00e9s sur la production de la lentille et la lutte contre ses ennemis dans certaines r\u00e9gions en consultant les sites Web des minist\u00e8res provinciaux de l'Agriculture et les sp\u00e9cialistes provinciaux de cette culture. </p>\n<p>Le <a href=\"http://www.publications.gc.ca/site/fra/9.838299/publication.html\">profil de la culture de la lentille au Canada, 2015</a> (rapport int\u00e9gral) est disponible aux Publications du gouvernement du Canada.</p>\n\r\n    "
    }
}