{
    "dcr_id": "1535495787108",
    "title": {
        "en": "Crop Profile for Apple in Canada, 2016 (94 pages) - Synopsis",
        "fr": "Profil de la culture de la pomme au Canada, 2016 (pages 98) \u2013 R\u00e9sum\u00e9"
    },
    "modified": "2019-02-08",
    "issued": "2018-10-12",
    "templatetype": "content page 1 column",
    "page_type": "0",
    "node_id": "1535122352575",
    "dc_date_created": "2018-10-12",
    "managing_branch": "PAB",
    "parent_node_id": "",
    "short_title": "",
    "exturl": "",
    "teamsite_location": {
        "en": "/default/main/AAFC-AAC/Internet-Internet/Group-Ensemble/ProgServ-ProgServ/WORKAREA/ProgServ-ProgServ/templatedata/comm-comm/gene-gene/data/08/cp_apple_1535495787108_en",
        "fr": "/default/main/AAFC-AAC/Internet-Internet/Group-Ensemble/ProgServ-ProgServ/WORKAREA/ProgServ-ProgServ/templatedata/comm-comm/gene-gene/data/08/cp_apple_1535495787108_fr"
    },
    "type_name": "comm-comm/gene-gene",
    "has_dcr_id": true,
    "label": {
        "en": "Crop Profile for Apple in Canada, 2016 (94 pages) - Synopsis",
        "fr": "Profil de la culture de la pomme au Canada, 2016 (pages 98) \u2013 R\u00e9sum\u00e9"
    },
    "breadcrumb": {
        "en": "Crop Profile for Apple in Canada, 2016 (94 pages) - Synopsis",
        "fr": "Profil de la culture de la pomme au Canada, 2016 (pages 98) \u2013 R\u00e9sum\u00e9"
    },
    "layout_name": "content page 1 column",
    "lang": "en",
    "refaire": false,
    "meta": {
        "viewport": {
            "en": "width=device-width,initial-scale=1",
            "fr": "width=device-width, initial-scale=1"
        },
        "issued": {
            "en": "2018-10-12",
            "fr": "2018-10-12"
        },
        "modified": {
            "en": "2019-02-08",
            "fr": "2019-02-08"
        },
        "format": {
            "en": "text/html",
            "fr": "text/html"
        },
        "title": {
            "en": "Crop Profile for Apple in Canada, 2016 (94 pages) - Synopsis",
            "fr": "Profil de la culture de la pomme au Canada, 2016 (pages 98) \u2013 R\u00e9sum\u00e9"
        },
        "subject": {
            "en": "architectural heritage;soil assessement;viral diseases",
            "fr": "produits avicoles;volailles-march\u00e9;volailles-transformation"
        },
        "dcterms:subject": {
            "en": "architecture;geomatics;statistics",
            "fr": "consultation;gestion des terres;importation"
        },
        "description": {
            "en": "PRR-RRP Pesticide Risk Reduction Program cp_rutabaga Crop Profile for Rutabaga in Canada, 2015 (56 pages) - Synopsis. Detailed information is provided in tabular form on pest occurrence, integrated pest management options and registered pesticides available to growers.Grower issues and gaps in pest management, identified through stakeholder consultations are described in each of the three main sections (disease, insect and mite and weed) and under each pest description. Detailed information on crop production and pest management in specific regions is available through provincial ministry of agriculture websites and provincial crop specialists.The.",
            "fr": "Pour obtenir la version longue de ce document, dans laquelle vous trouverez plus de recettes dans un format imprimable, veuillez envoyer un courriel \u00e0. mas-sam@agr.gc.ca. Chauffer et porter \u00e0 \u00e9bullition, puis laisser refroidir.Pr\u00e9paration (bison). Ajouter le bison \u00e0 la marinade froide et r\u00e9frig\u00e9rer pendant au moins 24 heures (plus longtemps si vous pr\u00e9f\u00e9rez une viande ferme). Retirer le bison de la marinade et ass\u00e9cher en tapotant. Source : Agriculture et Agroalimentaire Canada. Cr\u00eapes roul\u00e9es au crabe des neiges napp\u00e9es de sauce \u00e0 l'\u00e9rable."
        },
        "language": {
            "en": "eng",
            "fr": "fra"
        },
        "keywords": {
            "en": "PRR-RRP Pesticide Risk Reduction;options and registered pesticides;Pesticide Risk Reduction",
            "fr": "r\u00e9duction des risques li\u00e9s aux pesticides;lutte antiparasitaire mentionn\u00e9s par les cultivateurs;facteurs abiotiques qui affectent la croissance"
        },
        "audience": {
            "en": "gcaudience",
            "fr": "gcaudience"
        },
        "type": {
            "en": "presentation",
            "fr": "\u00e9valuation"
        },
        "creator": {
            "en": "Agriculture and Agri-Food Canada;Government of Canada",
            "fr": "Agriculture et Agroalimentaire Canada;Gouvernement du Canada"
        },
        "spatial": {
            "en": "gcregions",
            "fr": "gcregions"
        },
        "service": {
            "en": "AAFC-AAC",
            "fr": "AAFC-AAC"
        },
        "accessRights": {
            "en": "2",
            "fr": "2"
        },
        "legalName": {
            "en": "agriculture_and_agri_food_canada",
            "fr": "agriculture_et_agroalimentaire_canada"
        },
        "areaServed": {
            "en": "Canada",
            "fr": "Canada"
        }
    },
    "h1": {
        "en": "Crop Profile for Apple in Canada, 2016 (94 pages) - Synopsis",
        "fr": "Profil de la culture de la pomme au Canada, 2016 (pages 98) \u2013 R\u00e9sum\u00e9"
    },
    "js": {
        "en": "",
        "fr": ""
    },
    "body": {
        "en": "\r\n    \n <p>The <cite>Crop Profile for Apple, 2016</cite> provides an overview of production and pest management practices for apple in Canada. Information is provided on abiotic factors affecting apple growth. The biology of key disease, insect and mite and weed problems is presented as well as cultural and chemical methods of control. Detailed information is provided in tabular form on pest occurrence, integrated pest management options, as well as registered pesticides available to growers, current as of November, 2018.</p>\n\n<p>Grower issues and gaps in pest management, identified through stakeholder consultations are described in each of the three main sections (disease, insect and weed) and under each pest description. Links are provided to national and provincial grower organizations and provincial ministry of agriculture websites and other sources of information on apple production and pest management.</p>\n<p>Limited crop production and market statistics are provided in the profile to give context to the economic importance of the commodity. For more detailed statistics pertaining to the crop, the reader is referred to <a href=\"http://www.statcan.gc.ca/start-debut-eng.html\">Statistics Canada</a>.</p>\n<p>The <cite>Crop Profile for Apple in Canada, 2016</cite> is not intended for use as a crop production guide. Detailed information on crop production and pest management in specific regions is available through provincial ministry of agriculture websites and provincial crop specialists.</p>\n<p>The <a rel=\"external\" href=\"http://www.publications.gc.ca/site/eng/9.867685/publication.html\">Crop Profile for Apple in Canada, 2016</a> (full report) is available from Government of Canada Publications.</p>\n\r\n    ",
        "fr": "\r\n    <p>Le <cite>profil de la culture de la pomme, 2016</cite> pr\u00e9sente un aper\u00e7u de la production et des m\u00e9thodes de lutte antiparasitaire ayant trait \u00e0 la pomme au Canada. De plus, il renferme des renseignements sur les facteurs abiotiques qui affectent la croissance de cette culture. Le profil explique \u00e9galement la biologie des maladies, des insectes, des mites et des mauvaises herbes qui sont les principales sources de probl\u00e8mes affectant cette culture, ainsi que les m\u00e9thodes de lutte (lutte culturale et lutte chimique) employ\u00e9es. Des renseignements d\u00e9taill\u00e9s sont fournis sous forme de tableaux sur la pr\u00e9sence de ravageurs, les options de lutte antiparasitaire int\u00e9gr\u00e9e ainsi que les pesticides homologu\u00e9s offerts aux producteurs, \u00e0 jour en novembre 2018</p>\n\n\n<p>Chacune des trois sections principales explique, \u00e0 la suite de la description de chaque ravageur (maladies, insectes, et mauvaises herbes), les probl\u00e8mes et lacunes en mati\u00e8re de lutte antiparasitaire mentionn\u00e9s par les cultivateurs dans le cadre de s\u00e9ances de consultation des intervenants. On trouve \u00e9galement des liens vers les sites Web d'organisations nationales et provinciales de producteurs, les sites Web de minist\u00e8res provinciaux de l'Agriculture, sources d'information sur la culture en question.</p>\n\n<p>De plus, le profil pr\u00e9sente des statistiques sommaires sur la production et le march\u00e9 de la culture en question afin de donner un aper\u00e7u de l'importance \u00e9conomique du produit. Pour obtenir des statistiques plus d\u00e9taill\u00e9es sur la culture, on peut consulter le site Web de <a href=\"http://www.statcan.gc.ca/start-debut-fra.html\">Statistique Canada</a>.</p>\n<p>Le <cite>profil de la culture de la pomme au Canada, 2016</cite> ne se veut pas un guide sur la production de la culture en question. On peut obtenir des renseignements d\u00e9taill\u00e9s sur la production de la pomme et la lutte contre ses ennemis dans certaines r\u00e9gions en consultant les sites Web des minist\u00e8res provinciaux de l'Agriculture et les sp\u00e9cialistes provinciaux de cette culture. </p>\n<p>Le <a href=\"http://www.publications.gc.ca/site/fra/9.867686/publication.html\">profil de la culture de la pomme au Canada, 2016</a> (rapport int\u00e9gral) est disponible aux Publications du gouvernement du Canada.</p>\n\r\n    "
    }
}