{
    "dcr_id": "1536768228539",
    "title": {
        "en": "Evaluation of PureSpray Green Oil 13E for the management of aphids in wasabi plants",
        "fr": "\u00c9valuation de PureSpray Green huile de pulv\u00e9risation 13E contre les pucerons dans les cultures de wasabi "
    },
    "modified": "2018-10-12",
    "issued": "2018-10-12",
    "templatetype": "content page 1 column",
    "page_type": "0",
    "node_id": "1535122427752",
    "dc_date_created": "2018-10-12",
    "managing_branch": "PAB",
    "parent_node_id": "",
    "short_title": "",
    "exturl": "",
    "teamsite_location": {
        "en": "/default/main/AAFC-AAC/Internet-Internet/Group-Ensemble/ProgServ-ProgServ/WORKAREA/ProgServ-ProgServ/templatedata/comm-comm/gene-gene/data/09/bpr14-060_1536768228539_en",
        "fr": "/default/main/AAFC-AAC/Internet-Internet/Group-Ensemble/ProgServ-ProgServ/WORKAREA/ProgServ-ProgServ/templatedata/comm-comm/gene-gene/data/09/bpr14-060_1536768228539_fr"
    },
    "type_name": "comm-comm/gene-gene",
    "has_dcr_id": true,
    "label": {
        "en": "Evaluation of PureSpray Green Oil 13E for the management of aphids in wasabi plants",
        "fr": "\u00c9valuation de PureSpray Green huile de pulv\u00e9risation 13E contre les pucerons dans les cultures de wasabi "
    },
    "breadcrumb": {
        "en": "Evaluation of PureSpray Green Oil 13E for the management of aphids in wasabi plants",
        "fr": "\u00c9valuation de PureSpray Green huile de pulv\u00e9risation 13E contre les pucerons dans les cultures de wasabi "
    },
    "layout_name": "content page 1 column",
    "lang": "en",
    "refaire": false,
    "meta": {
        "viewport": {
            "en": "width=device-width,initial-scale=1",
            "fr": "width=device-width, initial-scale=1"
        },
        "issued": {
            "en": "2018-10-12",
            "fr": "2018-10-12"
        },
        "modified": {
            "en": "2018-10-12",
            "fr": "2018-10-12"
        },
        "format": {
            "en": "text/html",
            "fr": "text/html"
        },
        "title": {
            "en": "Evaluation of PureSpray Green Oil 13E for the management of aphids in wasabi plants",
            "fr": "\u00c9valuation de PureSpray Green huile de pulv\u00e9risation 13E contre les pucerons dans les cultures de wasabi "
        },
        "subject": {
            "en": "technology transfer;architectural heritage;soil assessement",
            "fr": "gouvernement f\u00e9d\u00e9ral;s\u00e9curit\u00e9 alimentaire;\u00e9coAgriculture"
        },
        "dcterms:subject": {
            "en": "statistics;architectural heritage;architecture",
            "fr": "terre agricole;m\u00e9dicament;commerce ext\u00e9rieur"
        },
        "description": {
            "en": "Alternative Formats. International Standard Serial Number: 2292-1524. Sub-Program 2.1.6: Federal-Provincial-Territorial Cost-shared Environment. Agriculture and Agri-Food Canada provides leadership in the growth and development of a competitive, innovative and sustainable Canadian agriculture and agri-food sector.Responsibilities.",
            "fr": "PRR-RRP Programme de r\u00e9duction des risques li\u00e9s aux pesticides Biopesticides Biopesticides. Au Canada, on reconnait trois types de produits comme \u00e9tant des biopesticides: les produits microbiens, les s\u00e9miochimiques, et les produits non conventionnels.Les produits microbiens. Ainsi, on se sert du vinaigre pour \u00e9liminer certaines mauvaises herbes, et de l\u2019huile min\u00e9rale et du sucre en poudre pour lutter contre les acariens."
        },
        "language": {
            "en": "eng",
            "fr": "fra"
        },
        "keywords": {
            "en": null,
            "fr": "bl\u00e9.Pesticides;aleurodes.Au;dhomologation \u00e0 lARLA"
        },
        "audience": {
            "en": "gcaudience",
            "fr": "gcaudience"
        },
        "type": {
            "en": "sound",
            "fr": "mat\u00e9riel didactique"
        },
        "creator": {
            "en": "Agriculture and Agri-Food Canada;Government of Canada",
            "fr": "Agriculture et Agroalimentaire Canada;Gouvernement du Canada"
        },
        "spatial": {
            "en": "gcregions",
            "fr": "gcregions"
        },
        "service": {
            "en": "AAFC-AAC",
            "fr": "AAFC-AAC"
        },
        "accessRights": {
            "en": "2",
            "fr": "2"
        },
        "legalName": {
            "en": "agriculture_and_agri_food_canada",
            "fr": "agriculture_et_agroalimentaire_canada"
        },
        "areaServed": {
            "en": "Canada",
            "fr": "Canada"
        }
    },
    "h1": {
        "en": "Evaluation of PureSpray Green Oil 13E for the management of aphids in wasabi plants",
        "fr": "\u00c9valuation de PureSpray Green huile de pulv\u00e9risation 13E contre les pucerons dans les cultures de wasabi"
    },
    "js": {
        "en": "",
        "fr": ""
    },
    "body": {
        "en": "\r\n    <h2>Project Code: BPR14-060</h2>\n\n<h3>Project lead </h3>\n\n<p><b>Jennifer Hayes</b>   Bio-Smart Solutions, British Columbia, Canada</p>\n\n<h3>Objectives</h3>\n\n<p><b>Develop efficacy and crop tolerance data in support of a regulatory submission for PureSpray<sup>TM</sup> GREEN Spray Oil 13E for the management of aphids in wasabi</b></p>\n\n<h3>Summary of Results</h3>\n\n<h4>Background</h4>\n\n<p>During the annual Biopesticides Priority Setting Workshop in March 2013, aphids in wasabi were identified as a priority issue by Canadian growers, and PureSpray<sup>TM</sup> GREEN Spray Oil 13E (mineral oil) as the desired solution. The product is registered in Canada for control of diseases and insects including aphids in various crops.</p>\n\n<p>Wasabi (<i>Wasabia japonica</i>) is a member of the Cruciferaceae or Brassicaceae family (commonly called the mustard family). It is a perennial plant grown mainly in British Columbia in Canada as a new crop. The rhizome of wasabi has a hot flavor similar to horseradish and is commonly used in sushi restaurants as a condiment.</p>\n\n<p>Aphid (<i>Myzus persicae</i>) is a serious problem in wasabi crop in Canada. There are few pest management products available for control of aphids in wasabi. </p>\n\n<p>In 2015, two efficacy trials (BPR14-061 and BPR14-062) were conducted to develop efficacy and tolerance data in support of a submission of the User Requested Minor Use Label Expansion (URMULE) of PureSpray<sup>TM</sup> GREEN Spray Oil 13E for the management of aphids in wasabi. </p>\n\n<h4>Approaches</h4>\n\n<p>Two trials were conducted on wasabi in British Colombia. Treatments in each trial included two rates of PureSpray<sup>TM</sup> GREEN Spray Oil 13E, insecticide Beleaf 50SG (flonicamid, 50<abbr title=\"percent\">%</abbr>), which was included as the commercial control treatment, and an untreated control. Each treatment had 4 replicates and 6 applications at 5-7 day intervals except the insecticide Beleaf with 3 applications. Incidences of wasabi plants and leaves infected by aphids, number of aphids per plot, symptomatic severity of plants, and number of fresh marketable leaves per plot were assessed for the efficacy measurements. </p>\n\n<h4>Results</h4>\n\n<p>In both trials, results showed the two test rates of PureSpray<sup>TM</sup> GREEN Spray Oil 13E greatly reduced incidence of leaves infested by aphids, number of aphids, and symptomatic severity in the treated plots, compared to the untreated plots. Particularly in the trial BPR14-062, incidences of infested plants and leaves, number of aphids, and symptomatic severity were significantly reduced on most assessment dates and significant control/suppression of aphids was maintained until harvest after the first application. Compared to the untreated controls, aphid number in treated plots with both rates was decreased by 15-83<abbr title=\"percent\">%</abbr> in the assessment dates in the two trials. The treatments of both rates were able to reduce infested plants by 10-57 and infected leaves by up to 67<abbr title=\"percent\">%</abbr>. Leaf areas covered by aphids were reduced by up to 87<abbr title=\"percent\">%</abbr> in the two rate treatments. Plants with curling leaves caused by aphids were reduced by 55-100<abbr title=\"percent\">%</abbr> in the treated plots in the two trials. Marketable fresh leaves of wasabi were also significantly increased compared with the untreated plots in the two trials. In general, the efficacy levels of the two rates, measured with each of indices, were not significantly different on most of the assessment dates in two trials. No phytotoxicity was observed on wasabi for the product applications in either of the two trials</p>\n\n<p>PureSpray<sup>TM</sup> GREEN Spray Oil 13E is registered on fruit trees such as apple, pear, peach, plums, blueberry, apricots, and sour cherry in Canada. The data generated from these two trials will be used to support the submission of URMULE of PureSpray<sup>TM</sup> GREEN Spray Oil 13E for the control of aphids in wasabi in Canada.</p>\n\r\n    ",
        "fr": "\r\n    <h2>Code du projet : BPR14-060</h2>\n\n<h3>Chef de projet</h3>\n\n<p><b>Jennifer Hayes</b>   <i>Bio-Smart Solutions</i>, Colombie-Britannique, Canada</p>\n\n<h3>Objectif</h3>\n\n<p><b>Produire des donn\u00e9es sur l\u2019efficacit\u00e9 du produit et sur la tol\u00e9rance de la plante trait\u00e9e, \u00e0 l\u2019appui d\u2019une demande d\u2019homologation relative au produit PureSpray<sup>MC</sup> GREEN huile de pulv\u00e9risation 13E pour lutter contre les pucerons dans les cultures de wasabi</b></p>\n\n<h3>Sommaire des r\u00e9sultats</h3>\n\n<h4>Contexte</h4>\n\n<p>Au cours de l\u2019atelier annuel sur l\u2019\u00e9tablissement des priorit\u00e9s en mati\u00e8re de biopesticides tenu en mars 2013, les producteurs canadiens ont retenu le puceron s\u2019attaquant aux cultures de wasabi comme probl\u00e8me prioritaire, et le produit PureSpray<sup>MC</sup> GREEN huile de pulv\u00e9risation 13E (huile min\u00e9rale) comme solution privil\u00e9gi\u00e9e. Le produit est homologu\u00e9 au Canada pour lutter contre certaines maladies et certains insectes, dont les pucerons, dans diverses cultures.</p>\n<p>Le wasabi (<i>Wasabia japonica</i>) est une plante de la famille des Crucif\u00e8res, ou Brassicac\u00e9es. Il est cultiv\u00e9 depuis peu au Canada, principalement en Colombie-Britannique. Le rhizome du wasabi, dont le go\u00fbt piquant ressemble \u00e0 celui du raifort, est souvent utilis\u00e9 comme condiment dans les restaurants de sushi.</p>\n<p>Le <i>Myzus persicae</i>, esp\u00e8ce de puceron, cause de graves dommages dans les cultures de wasabi au Canada. Les produits offerts pour lutter contre les pucerons dans les cultures de wasabi sont peu nombreux. </p>\n<p>En 2015, deux essais d\u2019efficacit\u00e9 (BPR14-061 et BPR14-062) ont \u00e9t\u00e9 r\u00e9alis\u00e9s en vue d\u2019obtenir des donn\u00e9es sur l\u2019efficacit\u00e9 du produit et la tol\u00e9rance des plantes trait\u00e9es \u00e0 l\u2019appui d\u2019une demande pr\u00e9sent\u00e9e dans le cadre du programme d\u2019extension du profil d\u2019emploi pour usages limit\u00e9s visant le produit PureSpray<sup>MC</sup> GREEN huile de pulv\u00e9risation 13E pour lutter contre les pucerons dans les cultures de wasabi. </p>\n\n<h4>M\u00e9thodes</h4>\n\n<p>Deux essais ont \u00e9t\u00e9 r\u00e9alis\u00e9s dans des cultures de wasabi, en Colombie-Britannique. Dans le cadre de chaque essai, les traitements comprenaient deux doses de PureSpray<sup>MC</sup> GREEN huile de pulv\u00e9risation 13E, le Beleaf 50SG (flonicamide, 50 <abbr title=\"pour cent \">%</abbr>), insecticide utilis\u00e9 comme traitement commercial de comparaison, et un t\u00e9moin (aucun traitement). Trois applications ont \u00e9t\u00e9 r\u00e9alis\u00e9es dans le cas de l\u2019insecticide Beleaf et 6 applications ont \u00e9t\u00e9 r\u00e9alis\u00e9es dans le cas des autres traitements, \u00e0 intervalles de 5 \u00e0 7 jours, \u00e0 raison de 4 r\u00e9p\u00e9titions par traitement. La fr\u00e9quence des plantes et des feuilles infest\u00e9es par les pucerons, le nombre de pucerons par parcelle, la gravit\u00e9 des sympt\u00f4mes observ\u00e9s chez les plantes ainsi que le nombre de feuilles fra\u00eeches commercialisables par parcelle ont \u00e9t\u00e9 utilis\u00e9s pour mesurer l\u2019efficacit\u00e9 des traitements. </p>\n\n<h4>R\u00e9sultats</h4>\n\n<p>Dans le cas des deux essais, les r\u00e9sultats ont montr\u00e9 que les deux doses de PureSpray<sup>MC</sup> GREEN huile de pulv\u00e9risation 13E mises \u00e0 l\u2019essai ont permis une diminution consid\u00e9rable de la fr\u00e9quence de feuilles infest\u00e9es par les pucerons, du nombre de pucerons par parcelle et de la gravit\u00e9 des sympt\u00f4mes comparativement au traitement t\u00e9moin. Dans le cadre de l\u2019essai BPR14-062 en particulier, une diminution consid\u00e9rable de la fr\u00e9quence de plantes et de feuilles infest\u00e9es, du nombre de pucerons et de la gravit\u00e9 des sympt\u00f4mes a \u00e9t\u00e9 observ\u00e9e la plupart des dates d\u2019\u00e9valuation dans les parcelles trait\u00e9es avec le produit \u00e9valu\u00e9, et l\u2019efficacit\u00e9 contre les pucerons a \u00e9t\u00e9 bonne jusqu\u2019\u00e0 la r\u00e9colte \u00e0 partir de la premi\u00e8re application. Selon les donn\u00e9es recueillies aux diff\u00e9rentes dates d\u2019\u00e9valuation dans le cadre des deux essais, le nombre de pucerons \u00e9tait de 15 \u00e0 83 <abbr title=\"pour cent \">%</abbr> moins \u00e9lev\u00e9 dans les parcelles trait\u00e9es avec chacune des deux doses que dans les parcelles t\u00e9moins. Les deux doses mises \u00e0 l\u2019essai ont permis une diminution de 10 \u00e0 57 <abbr title=\"pour cent \">%</abbr> des plantes infest\u00e9es et de jusqu\u2019\u00e0 67 <abbr title=\"pour cent \">%</abbr> des feuilles infest\u00e9es. En outre, elles ont permis une diminution de jusqu\u2019\u00e0 87 <abbr title=\"pour cent \">%</abbr> de la superficie foliaire occup\u00e9e par les pucerons. Dans le cadre des deux essais, le nombre de plantes pr\u00e9sentant des feuilles enroul\u00e9es \u00e0 cause des pucerons \u00e9tait de 55 \u00e0 100 <abbr title=\"pour cent \">%</abbr> moins \u00e9lev\u00e9 dans les parcelles trait\u00e9es que dans les parcelles t\u00e9moin, et le nombre de feuilles fra\u00eeches commercialisables \u00e9tait consid\u00e9rablement plus \u00e9lev\u00e9. En g\u00e9n\u00e9ral, d\u2019apr\u00e8s les donn\u00e9es recueillies dans le cadre des deux essais et pour chacun des indices, il n\u2019y avait pas de diff\u00e9rence consid\u00e9rable entre les deux doses en ce qui a trait \u00e0 l\u2019efficacit\u00e9 dans le cas de la plupart des dates d\u2019\u00e9valuation. De plus, aucun signe de phytotoxicit\u00e9 n\u2019a \u00e9t\u00e9 observ\u00e9 chez les plantes trait\u00e9es dans le cadre des deux essais.</p>\n<p>Le produit PureSpray<sup>MC</sup> GREEN huile de pulv\u00e9risation 13E est homologu\u00e9 au Canada pour utilisation chez les arbres fruitiers, comme les pommiers, les poiriers, les p\u00eachers, les pruniers, les bleuetiers, les abricotiers et les cerisiers \u00e0 cerises acides. Les donn\u00e9es obtenues dans le cadre des deux essais seront utilis\u00e9es pour appuyer la demande pr\u00e9sent\u00e9e dans le cadre du programme d\u2019extension du profil d\u2019emploi pour usages limit\u00e9s visant le produit PureSpray<sup>MC</sup> GREEN huile de pulv\u00e9risation 13E pour lutter contre les pucerons dans les cultures de wasabi au Canada.</p>\n\r\n    "
    }
}