{
    "dcr_id": "1536942549992",
    "title": {
        "en": "Use of trap plants as a risk reduction control option for thrips on greenhouses ornamentals",
        "fr": "Utilisation de plantes pi\u00e8ges comme option de lutte \u00e0 risque r\u00e9duit contre les thrips dans les serres ornamentales"
    },
    "modified": "2018-10-12",
    "issued": "2018-10-12",
    "templatetype": "content page 1 column",
    "page_type": "0",
    "node_id": "1535122427752",
    "dc_date_created": "2018-10-12",
    "managing_branch": "PAB",
    "parent_node_id": "",
    "short_title": "",
    "exturl": "",
    "teamsite_location": {
        "en": "/default/main/AAFC-AAC/Internet-Internet/Group-Ensemble/ProgServ-ProgServ/WORKAREA/ProgServ-ProgServ/templatedata/comm-comm/gene-gene/data/09/mur06-090_1536942549992_en",
        "fr": "/default/main/AAFC-AAC/Internet-Internet/Group-Ensemble/ProgServ-ProgServ/WORKAREA/ProgServ-ProgServ/templatedata/comm-comm/gene-gene/data/09/mur06-090_1536942549992_fr"
    },
    "type_name": "comm-comm/gene-gene",
    "has_dcr_id": true,
    "label": {
        "en": "Use of trap plants as a risk reduction control option for thrips on greenhouses ornamentals",
        "fr": "Utilisation de plantes pi\u00e8ges comme option de lutte \u00e0 risque r\u00e9duit contre les thrips dans les serres ornamentales"
    },
    "breadcrumb": {
        "en": "Use of trap plants as a risk reduction control option for thrips on greenhouses ornamentals",
        "fr": "Utilisation de plantes pi\u00e8ges comme option de lutte \u00e0 risque r\u00e9duit contre les thrips dans les serres ornamentales"
    },
    "layout_name": "content page 1 column",
    "lang": "en",
    "refaire": false,
    "meta": {
        "viewport": {
            "en": "width=device-width,initial-scale=1",
            "fr": "width=device-width, initial-scale=1"
        },
        "issued": {
            "en": "2018-10-12",
            "fr": "2018-10-12"
        },
        "modified": {
            "en": "2018-10-12",
            "fr": "2018-10-12"
        },
        "format": {
            "en": "text/html",
            "fr": "text/html"
        },
        "title": {
            "en": "Use of trap plants as a risk reduction control option for thrips on greenhouses ornamentals",
            "fr": "Utilisation de plantes pi\u00e8ges comme option de lutte \u00e0 risque r\u00e9duit contre les thrips dans les serres ornamentales"
        },
        "subject": {
            "en": "technology transfer;architectural heritage;soil assessement",
            "fr": "mauvaises herbes;chanvre;lin"
        },
        "dcterms:subject": {
            "en": "statistics;architectural heritage;architecture",
            "fr": "\u0153uf;grain;pesticide"
        },
        "description": {
            "en": "Alternative Formats. International Standard Serial Number: 2292-1524. Sub-Program 2.1.6: Federal-Provincial-Territorial Cost-shared Environment. Agriculture and Agri-Food Canada provides leadership in the growth and development of a competitive, innovative and sustainable Canadian agriculture and agri-food sector.Responsibilities.",
            "fr": "MUP-PUL Programme des pesticides \u00e0 usage limit\u00e9 \u00c9tat des projets par culture - Programme des pesticides \u00e0 usage limit\u00e9. Tableaux (par culture jusqu'au 1 novembre 2017). A. cultures. Ripcord 400 EC Insecticide. cyperm\u00e9thrine. AAFC13-004. MCPA Ester 600 Liquid Herbicide Pixxaro A Herbicide. MCPA fluroxypyr Halauxif\u00e8ne-m\u00e9thyl."
        },
        "language": {
            "en": "eng",
            "fr": "fra"
        },
        "keywords": {
            "en": null,
            "fr": "achill\u00e9e mille-feuille;Achillea millefolium ou la camomille;art\u00e9glasine A est une lactone sesquiterp\u00e9nique"
        },
        "audience": {
            "en": "gcaudience",
            "fr": "gcaudience"
        },
        "type": {
            "en": "sound",
            "fr": "information sur la personne-ressource"
        },
        "creator": {
            "en": "Agriculture and Agri-Food Canada;Government of Canada",
            "fr": "Agriculture et Agroalimentaire Canada;Gouvernement du Canada"
        },
        "spatial": {
            "en": "gcregions",
            "fr": "gcregions"
        },
        "service": {
            "en": "AAFC-AAC",
            "fr": "AAFC-AAC"
        },
        "accessRights": {
            "en": "2",
            "fr": "2"
        },
        "legalName": {
            "en": "agriculture_and_agri_food_canada",
            "fr": "agriculture_et_agroalimentaire_canada"
        },
        "areaServed": {
            "en": "Canada",
            "fr": "Canada"
        }
    },
    "h1": {
        "en": "Use of trap plants as a risk reduction control option for thrips on greenhouses ornamentals",
        "fr": "Utilisation de plantes pi\u00e8ges comme option de lutte \u00e0 risque r\u00e9duit contre les thrips dans les serres ornamentales"
    },
    "js": {
        "en": "",
        "fr": ""
    },
    "body": {
        "en": "\r\n     \n<h2>Project Code : MUR06-090</h2>\n \n<h3>Project Lead</h3>\n<p><b>Les Shipp</b> - Agriculture and Agri-Food Canada</p>\n \n<h3>Objective</h3>\n<p><b>To investigate the use of trap plants treated with and without the application of a pesticide (Spinosad) for control of Western flower thrips (WFT) on potted chrysanthemum</b></p>\n \n<h3>Summary of Results</h3>\n\n<p>Western flower thrips (WFT), <i>Frankliniella occidentalis</i> Pergande (Thysanoptera: Thripidae), are a major pest of greenhouse ornamentals. Chemical pesticides are the main control measure used for <abbr title=\"Western flower thrips\">WFT</abbr> control on ornamentals and their use impedes the implementation of biological control. Indeed, in potted chrysanthemum production, 68% of all insecticide treatments were for control of <abbr title=\"Western flower thrips\">WFT</abbr>. The use of trap plants (i.e. plants more attractive to a pest than the crop) is new in greenhouse production and can be a useful addition to ornamental <abbr title=\"Integrated Pest Management\">IPM</abbr> and risk reduction strategies.</p>\n\n<p>In this project, several aspects that can influence the efficacy of the trap plant strategy were investigated. In choice trials, yellow flowering chrysanthemums were more attractive to adult <abbr title=\"Western flower thrips\">WFT</abbr> than gerbera or eggplants. <abbr title=\"Western flower thrips\">WFT</abbr> preferred flowering chrysanthemums as compared to vegetative, bud or crack-bud chrysanthemum stages, which means that they can be used as trap plants in chrysanthemum production for almost the whole crop production cycle. Trap plants were most effective to attract dispersing thrips. Thrips that were already on a plant were less likely to move to the trap plants. Thus, it is important to place trap plants in sites where thrips are dispersing or moving around the greenhouse such as vents and doorways or between flowering and non-flowering crops. Large cage greenhouse trials demonstrated that flowering chrysanthemums as trap plants can suppress populations of <abbr title=\"Western flower thrips\">WFT</abbr> in a vegetative chrysanthemum crop and reduce crop damage. A commercial trial in potted chrysanthemum showed that trap plants reduced thrips populations under commercial growing practices and natural thrips infestations. Treating the trap plants with a reduced-risk insecticide like spinosad (Success) did not improve their efficacy as compared to replacing the trap plants every week. These findings suggest that thrips stay on the trap plants and do not move back into the crop. Another aspect of the project looked at combining the trap plant strategy with application of biological control agents (the entomopathogenic fungus <i>Beauveria bassiana</i> or the predatory mite <i>Amblyseius swirskii</i>). These experiments were not conclusive, however, and further investigation will be required.</p>\n\n<p>Results of the project indicate that whole greenhouse sprays of insecticides against <abbr title=\"Western flower thrips\">WFT</abbr> can potentially be reduced by 85-100% in ornamentals production by employing a trap plant strategy. Elimination of these chemical sprays will enable growers to make use of more biological control agents against other greenhouse pests, resulting in a further reduction in the amount of chemical pest control required to product the crop. Results of this study have been published in the industry magazine \"Greenhouse Canada\", and in the scientific journal <cite>Environmental Entomology.</cite></p>\n \n\r\n    ",
        "fr": "\r\n     \n<h2>Code de projet : MUR06-090</h2>\n \n<h3>Chef de projet</h3>\n<p><b>Les Shipp</b> - Agriculture et Agroalimentaire Canada</p>\n \n<h3>Objectif</h3>\n<p><b>\u00c9valuer l'efficacit\u00e9 de plantes pi\u00e8ges trait\u00e9es ou non avec un pesticide (Spinosad) contre le thrips des petits fruits dans les cultures de chrysanth\u00e8mes en pot</b></p>\n \n<h3>Sommaire de r\u00e9sultats</h3>\n<p>Le thrips des petits fruits (<i>Frankliniella occidentalis</i> Pergande) (Thysanoptera: Thripidae) est un important ravageur des plantes ornementales cultiv\u00e9es en serre. Dans les serres ornementales, la lutte contre ce ravageur repose principalement sur l'utilisation de pesticides chimiques, mais cette strat\u00e9gie emp\u00eache l'introduction de m\u00e9thodes de lutte biologique. Le thrips des petits fruits \u00e9tait en effet la cible de 68 % de tous les traitements insecticides r\u00e9alis\u00e9s par les producteurs de chrysanth\u00e8mes en pot. L'utilisation de plantes pi\u00e8ges (c'est-\u00e0-dire plantes plus attractives pour le ravageur que les plantes cultiv\u00e9es) constitue une nouvelle option de lutte en serriculture ornementale et une pr\u00e9cieuse addition aux strat\u00e9gies existantes de lutte int\u00e9gr\u00e9e et de r\u00e9duction des risques.</p>\n\n<p>Dans le cadre de ce projet, nous avons \u00e9tudi\u00e9 plusieurs facteurs qui peuvent influer sur l'efficacit\u00e9 des plantes pi\u00e8ges. Dans des essais avec choix, les chrysanth\u00e8mes \u00e0 fleurs jaunes se sont r\u00e9v\u00e9l\u00e9s plus attractifs pour les thrips adultes que les gerberas ou les aubergines. Les chrysanth\u00e8mes en fleur ont \u00e9galement \u00e9t\u00e9 pr\u00e9f\u00e9r\u00e9s aux chrysanth\u00e8mes sans fleurs, en bouton ou en bouton en train d'\u00e9clater. Les chrysanth\u00e8mes en fleur peuvent donc \u00eatre utilis\u00e9s comme plantes pi\u00e8ges pendant presque tout le cycle de production. Les plantes pi\u00e8ges se sont r\u00e9v\u00e9l\u00e9es particuli\u00e8rement attractives pour les thrips en dispersion, les thrips d\u00e9j\u00e0 install\u00e9s sur une plante \u00e9tant moins port\u00e9s \u00e0 se d\u00e9placer. Il est donc important de placer les plantes pi\u00e8ges dans des sections de la serre o\u00f9 les thrips se dispersent ou se d\u00e9placent activement, comme devant les panneaux de ventilation ou dans les entr\u00e9es de porte ou encore entre des groupes de plantes en fleur et des groupes de plantes au stade v\u00e9g\u00e9tatif. Des essais men\u00e9s en serre dans de grandes cages ont montr\u00e9 que l'utilisation de chrysanth\u00e8mes en fleur comme plantes pi\u00e8ges peut entra\u00eener l'\u00e9limination des populations de thrips dans les cultures de chrysanth\u00e8mes au stade v\u00e9g\u00e9tatif et ainsi contribuer \u00e0 r\u00e9duire les dommages caus\u00e9s aux cultures. Un essai commercial r\u00e9alis\u00e9 chez un producteur de chrysanth\u00e8mes en pot appliquant des pratiques horticoles commerciales a montr\u00e9 que l'utilisation de plantes pi\u00e8ges permet de r\u00e9duire les populations de thrips et les infestations naturelles de thrips. La pulv\u00e9risation d'un insecticide \u00e0 risque r\u00e9duit comme le spinosad (Success) sur les plantes pi\u00e8ges n'a pas donn\u00e9 de meilleurs r\u00e9sultats que le remplacement des plantes pi\u00e8ges chaque semaine. Ces r\u00e9sultats donnent \u00e0 croire que les thrips demeurent sur les plantes pi\u00e8ges et ne retournent pas sur les plantes cultiv\u00e9es. Nous avons \u00e9galement \u00e9valu\u00e9 l'efficacit\u00e9 d'une strat\u00e9gie alliant l'utilisation de plantes pi\u00e8ges \u00e0 l'application d'un agent de lutte biologique (le champignon entomopathog\u00e8ne <i>Beauveria bassiana</i> ou l'acarien pr\u00e9dateur <i>Amblyseius swirskii</i>). Ces exp\u00e9riences se sont cependant r\u00e9v\u00e9l\u00e9es peu concluantes, et des essais plus pouss\u00e9s devront \u00eatre entrepris.</p>\n\n<p>Les r\u00e9sultats obtenus dans le cadre de ce projet indiquent que l'utilisation de plantes pi\u00e8ges pourrait permettre de r\u00e9duire de 85 \u00e0 100 % les pulv\u00e9risations d'insecticides contre le thrips des petits fruits dans les serres ornementales. Une telle r\u00e9duction permettrait aux producteurs d'utiliser un plus grand nombre d'agents de lutte biologique contre les autres ravageurs serricoles et d'ainsi r\u00e9duire encore davantage les quantit\u00e9s de pesticides chimiques requises pour la production des cultures. Les r\u00e9sultats de cette \u00e9tude ont \u00e9t\u00e9 publi\u00e9s dans la revue commerciale <i>Greenhouse Canada</i> et la revue scientifique <cite>Environmental Entomology</cite>.</p>\n \n\r\n    "
    }
}