{
    "dcr_id": "1536946275529",
    "title": {
        "en": "Development of Novel and Blended Formulations and Application Technologies for Low Risk Management of Wireworms in Potatoes",
        "fr": "Mise au point de formulations nouvelles et de m\u00e9langes de formulations ainsi que de technologies d'application pour la lutte, avec un risque faible, contre les vers fil de fer chez les pommes de terre"
    },
    "modified": "2019-10-09",
    "issued": "2018-10-12",
    "templatetype": "content page 1 column",
    "page_type": "0",
    "node_id": "1535122427752",
    "dc_date_created": "2018-10-12",
    "managing_branch": "PAB",
    "parent_node_id": "",
    "short_title": "",
    "exturl": "",
    "teamsite_location": {
        "en": "/default/main/AAFC-AAC/Internet-Internet/Group-Ensemble/ProgServ-ProgServ/WORKAREA/ProgServ-ProgServ/templatedata/comm-comm/gene-gene/data/09/mur07-040_1536946275529_en",
        "fr": "/default/main/AAFC-AAC/Internet-Internet/Group-Ensemble/ProgServ-ProgServ/WORKAREA/ProgServ-ProgServ/templatedata/comm-comm/gene-gene/data/09/mur07-040_1536946275529_fr"
    },
    "type_name": "comm-comm/gene-gene",
    "has_dcr_id": true,
    "label": {
        "en": "Development of Novel and Blended Formulations and Application Technologies for Low Risk Management of Wireworms in Potatoes",
        "fr": "Mise au point de formulations nouvelles et de m\u00e9langes de formulations ainsi que de technologies d'application pour la lutte, avec un risque faible, contre les vers fil de fer chez les pommes de terre"
    },
    "breadcrumb": {
        "en": "Development of Novel and Blended Formulations and Application Technologies for Low Risk Management of Wireworms in Potatoes",
        "fr": "Mise au point de formulations nouvelles et de m\u00e9langes de formulations ainsi que de technologies d'application pour la lutte, avec un risque faible, contre les vers fil de fer chez les pommes de terre"
    },
    "layout_name": "content page 1 column",
    "lang": "en",
    "refaire": false,
    "meta": {
        "viewport": {
            "en": "width=device-width,initial-scale=1",
            "fr": "width=device-width, initial-scale=1"
        },
        "issued": {
            "en": "2018-10-12",
            "fr": "2018-10-12"
        },
        "modified": {
            "en": "2019-10-09",
            "fr": "2019-10-09"
        },
        "format": {
            "en": "text/html",
            "fr": "text/html"
        },
        "title": {
            "en": "Development of Novel and Blended Formulations and Application Technologies for Low Risk Management of Wireworms in Potatoes",
            "fr": "Mise au point de formulations nouvelles et de m\u00e9langes de formulations ainsi que de technologies d'application pour la lutte, avec un risque faible, contre les vers fil de fer chez les pommes de terre"
        },
        "subject": {
            "en": "vegetable crops;canola oil;soil assessement",
            "fr": "fraises;\u00e9valuation environnementale strat\u00e9gique;mauvaises herbes"
        },
        "dcterms:subject": {
            "en": "architecture;agriculture;technology",
            "fr": "pesticide;maladie;politique"
        },
        "description": {
            "en": "PRR-RRP Pesticide Risk Reduction Program s_root_insect_pests Pesticide Risk Reduction Strategy for Root Insect Pests of Carrot, Parsnip and Onion. \u2013 Prince Edward Island Department of Agriculture and Forestry;Mary Ruth McDonald. However, since the initiation of this Strategy, a number of other chemical insecticides re-evaluations have been initiated by PMRA: clothianidin and imidacloprid (carrot rust fly, onion maggot and seedcorn maggot), cypermethrin (carrot rust fly, onion maggot flies), lambda-cyhalothrin (carrot rust fly and carrot weevil), phosmet (carrot weevil), and chlorpyrifos (onion maggot larvae). Thus, there is an urgent need for the development of robust, reduced risk management options for these pests.Strategy development.",
            "fr": "MUP-PUL Programme des pesticides \u00e0 usage limit\u00e9 Pesticide \u00e0 usage limit\u00e9 - Soumissions. Laitue, feuilles. Scl\u00e9rotiniose mineure (Sclerotinia minor); Scl\u00e9rotinia, pourriture blanche (Sclerotinia sclerotiorum). Allegro 500F Agricultural Fungicide. Fraise. Mauvaises herbes \u00e0 feuilles larges."
        },
        "language": {
            "en": "eng",
            "fr": "fra"
        },
        "keywords": {
            "en": "minor-crop pest-control;abreast of minor-crop",
            "fr": "ampelina;Lyme.De;Blazer"
        },
        "audience": {
            "en": "gcaudience",
            "fr": "gcaudience"
        },
        "type": {
            "en": "presentation",
            "fr": "d\u00e9cision"
        },
        "creator": {
            "en": "Agriculture and Agri-Food Canada;Government of Canada",
            "fr": "Agriculture et Agroalimentaire Canada;Gouvernement du Canada"
        },
        "spatial": {
            "en": "gcregions",
            "fr": "gcregions"
        },
        "service": {
            "en": "AAFC-AAC",
            "fr": "AAFC-AAC"
        },
        "accessRights": {
            "en": "2",
            "fr": "2"
        },
        "legalName": {
            "en": "agriculture_and_agri_food_canada",
            "fr": "agriculture_et_agroalimentaire_canada"
        },
        "areaServed": {
            "en": "Canada",
            "fr": "Canada"
        }
    },
    "h1": {
        "en": "Development of Novel and Blended Formulations and Application Technologies for Low Risk Management of Wireworms in Potatoes",
        "fr": "Mise au point de formulations nouvelles et de m\u00e9langes de formulations ainsi que de technologies d'application pour la lutte, avec un risque faible, contre les vers fil de fer chez les pommes de terre"
    },
    "js": {
        "en": "",
        "fr": ""
    },
    "body": {
        "en": "\r\n     <h2>Project Code: MUR07-040</h2>\n \n<h3>Project Lead</h3>\n\n<p><b>Robert Vernon</b> - Agriculture and Agri-Food Canada</p>\n \n<h3>Objective</h3>\n\n<p><b>To study repellency and toxicity of various insecticides to wireworms and to evaluate efficacy of promising insecticidal blends in potato and wheat fields; and to map wireworm pest species on a national basis</b></p>\n\n<h3>Summary of Results - national species distribution map</h3>\n\n<h4>Background</h4>\n\n<p>Wireworms are the larval stage of click beetles. More than 800 species are known worldwide and approximately 30 species are recognised as pests in Canada. They are a problem in many crops, especially potatoes and other such vegetables as corn, cereals, canola, and pulses.</p>\n\n<p>The increase in wireworm populations is likely due to the removal of organochlorine insecticides (that is aldrin, dieldrin and heptachlor) in the 1960s and  70s. In potatoes, the only products currently registered that will reduce  wireworm levels and protect daughter tubers at harvest are Thimet 15G (phorate) and Pyrinex 480EC (chlorpyrifos). Thimet is scheduled to be de-registered in 2012. Due to trade barriers, the use of Pyrinex is limited to potatoes designated for the domestic market (no Maximum Residue Limit (MRL) for chlorpyrifos-treated potatoes in the United States (U.S.)).</p>\n\n<p>Agriculture and Agri-Food Canada (AAFC) conducted insecticide screening trials in potatoes to identify low-risk candidates for wireworm control. As the efficacy of certain classes of insecticides (that is neonicotinoids, synthetic pyrethroids) has been shown to vary with differing wireworm species, it created the need in a national survey to determine the predominant wireworm species in key agricultural areas across Canada. </p>\n\n<h4>Approaches</h4>\n\n<p>Wireworms were collected from sites across Canada through collaboration between AAFC, growers, and crop specialists. In a series of seminars given in seven provinces during 2007 and 2008 by the Project Lead, R. Vernon, growers and extension professionals have  been asked to collect specimens whenever found and send them for identification. All field material was sent to AAFC-Agassiz, British Columbia (BC), and samples have been identified by Wim van Herk. The current version of the wireworm distribution map is comprised of 3-year survey data, 2007-2009. </p>\n \n<h4>Results</h4>\n\n<p>The national distribution map documents over twenty wireworm species and demonstrates differences in the species composition between major productions regions in Canada. Among the noticeable differences are <i>Agriotes lineatus</i>, a species found in BC and in Atlantic Canada but not in Ontario or the prairies; <i>Agriotes sputator</i>, a species found only in the Atlantic Provinces (Nova Scotia (NS), Prince Edward Island (PEI)); and <i>Limonius canus</i>, a species found only in BC.</p>\n\n<p>The wireworm species distribution map will serve growers and crop specialists alike when choosing the most appropriate pest management tools to be used on a regional basis. It will enable growers to avoid using insecticides known to have reduced efficacy on certain wireworm species in production areas where these species are dominant. It is expected that the survey will continue in the coming years and new, updated versions of the map will be published as they become available.</p>\n\n<p>Visit the <a href=\"?id=1536946792761\">National Wireworm Species Distribution Map</a></p>\n\n<p>This study was funded by AAFC's Pest Management Centre.</p>\n\r\n    ",
        "fr": "\r\n     <h2>Code de projet\u00a0: MRU07-040</h2>\n \n<h3>Chef de projet</h3>\n\n<p><b>Robert Vernon</b> - Agriculture et Agroalimentaire Canada</p>\n \n<h2>Objectif</h2>\n\n<p><b>\u00c9tudier le pouvoir de r\u00e9pulsion et de toxicit\u00e9 de divers insecticides \u00e0 l'\u00e9gard des vers fil de fer et \u00e9valuer l'efficacit\u00e9 de m\u00e9langes insecticides prometteurs dans des champs de pommes de terre et de bl\u00e9; \u00e9tablir une repr\u00e9sentation graphique des esp\u00e8ces de ver fil de fer \u00e0 l'\u00e9chelle nationale</b></p>\n \n<h3>Sommaire de resultants - Une carte de r\u00e9partition des taupins au Canada</h3>\n \n<h4>Contexte</h4>\n\n<p>Le ver \u00ab\u00a0fil de fer\u00a0\u00bb est le stade larvaire du taupin. Il existe plus de 800 esp\u00e8ces connues de taupins dans le monde, et environ 30 esp\u00e8ces sont r\u00e9pertori\u00e9es comme nuisibles au Canada. Les larves de taupins causent des d\u00e9g\u00e2ts dans de nombreuses cultures, en particulier chez la pomme de terre, le ma\u00efs, les c\u00e9r\u00e9ales, le canola et les l\u00e9gumineuses.</p>\n\n<p>L\u2019augmentation des populations de vers fil de fer est probablement attribuable au retrait des insecticides organochlor\u00e9s (aldrine, dieldrine et heptachlore) dans les ann\u00e9es 1960 et 1970. Pour la pomme de terre, les seuls produits homologu\u00e9s qui peuvent r\u00e9duire les populations de vers fil de fer et prot\u00e9ger les tubercules fils \u00e0 la r\u00e9colte sont le Thimet 15G (phorate) et le Pyrinex 480EC (chlorpyrifos). Le Thimet sera radi\u00e9 de la liste des produits homologu\u00e9s en 2012.  En raison de barri\u00e8res commerciales, le Pyrinex ne peut \u00eatre utilis\u00e9 que sur les cultures de pomme de terre destin\u00e9es aux march\u00e9s canadiens (aucune limites maximales des r\u00e9sidus (LMR) pour les pommes de terre trait\u00e9es au chlorpyrifos aux \u00c9tats-Unis).</p>\n\n<p>Agriculture et Agroalimentaire Canada (AAC) a r\u00e9alis\u00e9 des essais pr\u00e9liminaires dans des cultures de pomme de terre afin de rep\u00e9rer des insecticides \u00e0 faible risque pouvant \u00eatre employ\u00e9s contre les vers fil de fer. Comme il a \u00e9t\u00e9 \u00e9tabli que l\u2019efficacit\u00e9 de certaines classes d\u2019insecticides (n\u00e9onicotino\u00efdes, pyr\u00e9thro\u00efdes de synth\u00e8se) contre les vers fil de fer variait selon les esp\u00e8ces, il devenait n\u00e9cessaire de faire un relev\u00e9 \u00e0 l\u2019\u00e9chelle du Canada pour recenser les esp\u00e8ces de taupins pr\u00e9sentes dans les zones agricoles les plus importantes. </p>\n \n<h4>M\u00e9thode</h4>\n\n<p>Gr\u00e2ce \u00e0 un travail de collaboration entre AAC, les producteurs et les sp\u00e9cialistes des grandes cultures, des sp\u00e9cimens de larves de taupins ont \u00e9t\u00e9 r\u00e9colt\u00e9s dans toutes les r\u00e9gions du Canada. \u00c0 l\u2019occasion des colloques pr\u00e9sent\u00e9s dans sept provinces au cours de 2007 et 2008 par le charg\u00e9 de projet, R. Vernon, on a demand\u00e9 aux producteurs et aux conseillers agricoles de bien vouloir, lorsqu\u2019ils d\u00e9couvraient des vers fil de fer, en pr\u00e9lever des sp\u00e9cimens et de les faire parvenir au Minist\u00e8re pour identification. Tout le mat\u00e9riel biologique a \u00e9t\u00e9 envoy\u00e9 \u00e0 AAC-Agassiz, en Colombie-Britannique, et les sp\u00e9cimens ont \u00e9t\u00e9 identifi\u00e9s par Wim van Herk. La carte de r\u00e9partition actuelle des taupins est fond\u00e9e sur les donn\u00e9es de r\u00e9lev\u00e9s effectu\u00e9s sur une p\u00e9riode de 3 ans, de 2007 \u00e0 2009. </p>\n \n<h4>R\u00e9sultats </h4>\n\n<p>La carte de r\u00e9partition des taupins au Canada r\u00e9pertorie plus de 20 esp\u00e8ces et montre les diff\u00e9rences de communaut\u00e9s entre les principales r\u00e9gions de production agricole. On remarquera notamment que  l\u2019<i>Agriotes lineatus</i> se rencontre en Colombie-Britannique et dans le Canada atlantique mais non en Ontario ni dans les Prairies, que l\u2019<i>Agriotes sputator</i> ne se trouve que dans les provinces de l\u2019Atlantique (Nouvelle-\u00c9cosse et \u00cele-du-Prince-\u00c9douard) et que le <i>Limonius canus</i> est pr\u00e9sent uniquement en Colombie-Britannique.</p>\n\n<p>La carte de r\u00e9partition des taupins permettra aux producteurs et aux conseillers agricoles de choisir le moyen de lutte contre les vers fil de fer qui convient le mieux pour la r\u00e9gion. Elle \u00e9vitera aux producteurs de choisir des insecticides dont l\u2019efficacit\u00e9 contre certaines esp\u00e8ces n\u2019est pas tr\u00e8s \u00e9lev\u00e9e dans les r\u00e9gions  o\u00f9 ces esp\u00e8ces sont dominantes. Le relev\u00e9 devrait se poursuivre dans les ann\u00e9es \u00e0 venir, et la carte sera mise en jour au fur et \u00e0 mesure de l\u2019acquisition de nouvelles informations.</p>\n\n<p>Visitez la <a href=\"?id=1536946792761\">carte de r\u00e9partition des taupins au Canada</a></p>\n\n<p>La pr\u00e9sente \u00e9tude a \u00e9t\u00e9 financ\u00e9e par le Centre de la lutte antiparasitaire.</p>\n\r\n    "
    }
}