{
    "dcr_id": "1536861554438",
    "title": {
        "en": "Microbial biocontrol for foliar blight (Monilinia and Botrytis) of lowbush blueberry and fruit rot (Phomopsis and Fusicoccum) of cranberry",
        "fr": "Agent microbien de lutte biologique de la pourriture de la feuille (Monilinia et Botrytis) du bleuet nain et de la pourriture (Phomopsis et Fusicoccum) de la canneberge"
    },
    "modified": "2018-10-12",
    "issued": "2018-10-12",
    "templatetype": "content page 1 column",
    "page_type": "0",
    "node_id": "1535122427752",
    "dc_date_created": "2018-10-12",
    "managing_branch": "PAB",
    "parent_node_id": "",
    "short_title": "",
    "exturl": "",
    "teamsite_location": {
        "en": "/default/main/AAFC-AAC/Internet-Internet/Group-Ensemble/ProgServ-ProgServ/WORKAREA/ProgServ-ProgServ/templatedata/comm-comm/gene-gene/data/09/mu03-path04_1536861554438_en",
        "fr": "/default/main/AAFC-AAC/Internet-Internet/Group-Ensemble/ProgServ-ProgServ/WORKAREA/ProgServ-ProgServ/templatedata/comm-comm/gene-gene/data/09/mu03-path04_1536861554438_fr"
    },
    "type_name": "comm-comm/gene-gene",
    "has_dcr_id": true,
    "label": {
        "en": "Microbial biocontrol for foliar blight (Monilinia and Botrytis) of lowbush blueberry and fruit rot (Phomopsis and Fusicoccum) of cranberry",
        "fr": "Agent microbien de lutte biologique de la pourriture de la feuille (Monilinia et Botrytis) du bleuet nain et de la pourriture (Phomopsis et Fusicoccum) de la canneberge"
    },
    "breadcrumb": {
        "en": "Microbial biocontrol for foliar blight (Monilinia and Botrytis) of lowbush blueberry and fruit rot (Phomopsis and Fusicoccum) of cranberry",
        "fr": "Agent microbien de lutte biologique de la pourriture de la feuille (Monilinia et Botrytis) du bleuet nain et de la pourriture (Phomopsis et Fusicoccum) de la canneberge"
    },
    "layout_name": "content page 1 column",
    "lang": "en",
    "refaire": false,
    "meta": {
        "viewport": {
            "en": "width=device-width,initial-scale=1",
            "fr": "width=device-width, initial-scale=1"
        },
        "issued": {
            "en": "2018-10-12",
            "fr": "2018-10-12"
        },
        "modified": {
            "en": "2018-10-12",
            "fr": "2018-10-12"
        },
        "format": {
            "en": "text/html",
            "fr": "text/html"
        },
        "title": {
            "en": "Microbial biocontrol for foliar blight (Monilinia and Botrytis) of lowbush blueberry and fruit rot (Phomopsis and Fusicoccum) of cranberry",
            "fr": "Agent microbien de lutte biologique de la pourriture de la feuille (Monilinia et Botrytis) du bleuet nain et de la pourriture (Phomopsis et Fusicoccum) de la canneberge"
        },
        "subject": {
            "en": "safflower;weed control;viral diseases",
            "fr": "fraises;\u00e9valuation environnementale strat\u00e9gique;mauvaises herbes"
        },
        "dcterms:subject": {
            "en": "geomatics;pesticides;agriculture",
            "fr": "pesticide;maladie;politique"
        },
        "description": {
            "en": "MUP-PUL Minor Use Pesticides Program submissions_and_registrations Minor Use Pesticides - Submissions. clopyralid. AAFC15-002. Submitted to PMRA*. Updated information since August\u00a016, 2017.Submission Fiscal Year: 2016-17 (Total 55). Crop. Rust, leaf and stem (Puccinia graminis); Rust (Puccinia sp.); Rust, stripe (Puccinia striiformis). Tilt 250E fungicide.",
            "fr": "MUP-PUL Programme des pesticides \u00e0 usage limit\u00e9 Pesticide \u00e0 usage limit\u00e9 - Soumissions. Laitue, feuilles. Scl\u00e9rotiniose mineure (Sclerotinia minor); Scl\u00e9rotinia, pourriture blanche (Sclerotinia sclerotiorum). Allegro 500F Agricultural Fungicide. Fraise. Mauvaises herbes \u00e0 feuilles larges."
        },
        "language": {
            "en": "eng",
            "fr": "fra"
        },
        "keywords": {
            "en": "appendiculatus;ahead.In;Caneberry",
            "fr": "Kaneemite;Canada.Toundra;Blazer"
        },
        "audience": {
            "en": "gcaudience",
            "fr": "gcaudience"
        },
        "type": {
            "en": "abstract",
            "fr": "d\u00e9cision"
        },
        "creator": {
            "en": "Agriculture and Agri-Food Canada;Government of Canada",
            "fr": "Agriculture et Agroalimentaire Canada;Gouvernement du Canada"
        },
        "spatial": {
            "en": "gcregions",
            "fr": "gcregions"
        },
        "service": {
            "en": "AAFC-AAC",
            "fr": "AAFC-AAC"
        },
        "accessRights": {
            "en": "2",
            "fr": "2"
        },
        "legalName": {
            "en": "agriculture_and_agri_food_canada",
            "fr": "agriculture_et_agroalimentaire_canada"
        },
        "areaServed": {
            "en": "Canada",
            "fr": "Canada"
        }
    },
    "h1": {
        "en": "Microbial biocontrol for foliar blight (Monilinia and Botrytis) of lowbush blueberry and fruit rot (Phomopsis and Fusicoccum) of cranberry",
        "fr": "Agent microbien de lutte biologique de la pourriture de la feuille (Monilinia et Botrytis) du bleuet nain et de la pourriture (Phomopsis et Fusicoccum) de la canneberge"
    },
    "js": {
        "en": "",
        "fr": ""
    },
    "body": {
        "en": "\r\n     \n<h2>Project code: MU03-PATH04</h2>\n\n\n<h3>Project Lead</h3>\n<p><b>Jim Traquair</b> - Agriculture and Agri-Food Canada</p>\n\n\n<h3>Objective</h3>\n<p><b>To assess the efficacy of Sporodex\u00ae, Mycostop\u00ae, Prestop\u00ae, and Actinovate\u00ae to control diseases of wild blueberry and cranberry and to identify improved, endemic strains for potential development as biocontrol agents</b></p>\n\n\n<h3>Summary of Results</h3>\n\n<p>Lowbush (wild) blueberries and cranberries are important, high-value crops in Atlantic Canada, particularly in Nova Scotia. Wild blueberry production and quality can be severely limited by Monilinia and Botryitis blights on leaves and blossoms. Cranberry yields, quality and post-harvest storage can be limited by Fusicoccum and Phomopsis fruit rots. These diseases are currently controlled in Nova Scotia by the careful use of chemical fungicides within integrated disease and pest management programs. However, the arsenal of chemical pesticides is limited. Availability of biological controls as alternatives to use of fungicides would reduce risks to human health and to the environment.</p>\n<p>Several biopesticides registered in the United States and Canada but not for these particular crops and diseases, were evaluated in the laboratory, in the greenhouse and in the field for their efficacy in suppressing these blight and fruit rot problems. In addition, naturally occurring yeasts and bacteria isolated from blueberry leaves in the field were investigated for their potential as biological control agents against these diseases. Bioassays were developed to conduct these assessments, first involving detached leaves and blossoms, and eventually graduating to whole plant bioassays in the lab and in the greenhouse.</p>\n<p>None of the microbial products reduced cranberry fruit rot, so attention was focused on evaluating microbial biocontrol products for blights of wild blueberry.</p>\n\n<p>From the seven microbial agents tested (four commercial formulations and three native isolates), Serenade Max\u00ae (<i>Bacillus subtilis</i> QST713) was selected as the most efficacious biofungicide for Monilinia foliar and blossom blight of lowbush blueberry, with activity against Monilinia blight comparable to the standard chemical fungicide control (Topas) currently used by growers.</p>\n<p>Serenade Max\u00ae is produced by AgraQuest <abbr title=\"Incorporated\">Inc.</abbr>, in Davis California and is registered for use on blueberries in Canada and <abbr title=\"United States of America\">USA</abbr> for similar disease problems. The expansion of the label to include the use against Monilinia diseases in lowbush blueberry is being followed up by the company. It is anticipated that this product will provide a valuable tool for the integrated management of Monilinia blight and mummy berry disease of wild blueberry, and will be particularly useful to organic growers.</p>\n \n\r\n    ",
        "fr": "\r\n     \n<h2>Code de projet : MU03-PATH04</h2>\n \n<h3>Chef de projet</h3>\n<p><b>Jim Traquair</b> - Agriculture et Agroalimentaire Canada</p>\n \n<h3>Objectif</h3>\n<p><b>\u00c9valuer l'efficacit\u00e9 de <span lang=\"en\">Sporodex</span>\u00ae, de <span lang=\"en\">Mycostop</span>\u00ae, de <span lang=\"en\">Prestop</span>\u00ae et d'<span lang=\"en\">Actinovate</span>\u00ae afin de contr\u00f4ler les maladies du bleuet sauvage et du gadellier glanduleux et d\u00e9terminer les souches end\u00e9miques am\u00e9lior\u00e9es en vue de la mise au point possible d'agents de lutte biologique</b></p>\n \n<h3>Sommaire de r\u00e9sultats</h3>\n<p>Les canneberges et les bleuets nains (sauvages) sont des cultures importantes, de grande valeur, au Canada atlantique, particuli\u00e8rement en Nouvelle-\u00c9cosse. La pourriture de la feuille et de la fleur caus\u00e9e par Monilinia et Botryitis peut limiter consid\u00e9rablement la production de bleuets nains et la qualit\u00e9 de ces bleuets. La pourriture des fruits (Fusicoccum et Phomopsis) peut limiter les rendements en canneberges, ainsi que la qualit\u00e9 et l'entreposage apr\u00e8s la r\u00e9colte de ces canneberges. En Nouvelle-\u00c9cosse, on lutte \u00e0 l'heure actuelle contre ces maladies en utilisant avec soin des fongicides chimiques dans le cadre de programmes de lutte int\u00e9gr\u00e9e contre les maladies et les ravageurs. L'arsenal des pesticides chimiques est toutefois limit\u00e9. Les risques pour la sant\u00e9 de l'\u00eatre humain et pour l'environnement seraient r\u00e9duits s'il existait des agents de lutte biologique.</p>\n<p>La capacit\u00e9 de supprimer ces probl\u00e8mes de pourriture a \u00e9t\u00e9 \u00e9valu\u00e9e en laboratoire, en serre et au champ pour plusieurs biopesticides homologu\u00e9s aux \u00c9tats-Unis et au Canada, mais non pour ces cultures et maladies en particulier. De plus, la possibilit\u00e9 d'utiliser comme agents de lutte biologique contre ces maladies des levures et des bact\u00e9ries naturellement pr\u00e9sentes sur les feuilles de bleuets dans les champs a \u00e9t\u00e9 examin\u00e9e. Des essais biologiques ont \u00e9t\u00e9 con\u00e7us pour ces \u00e9valuations, qui ont d'abord port\u00e9 sur des fleurs et des feuilles d\u00e9tach\u00e9es, puis sur des plantes enti\u00e8res, au laboratoire et en serre.</p>\n<p>Aucun des produits microbiens n'a r\u00e9duit la pourriture du fruit de la canneberge, si bien que l'attention des chercheurs s'est tourn\u00e9e vers l'\u00e9valuation de produits microbiens de lutte biologique contre les pourritures du bleuet sauvage.</p>\n<p>Parmi les sept agents microbiens mis \u00e0 l'essai (quatre formulations commerciales et trois isolats indig\u00e8nes), Serenade Max\u00ae (<i>Bacillus subtilis</i> QST713) a \u00e9t\u00e9 le biofongicide le plus efficace contre la pourriture des feuilles et des fleurs du bleuet nain caus\u00e9e par Monilinia, son efficacit\u00e9 \u00e9tant comparable \u00e0 celle du fongicide chimique t\u00e9moin standard (Topas), que les producteurs utilisent \u00e0 l'heure actuelle.</p>\n<p>Serenade Max\u00ae est produit par <span lang=\"en\">AgraQuest</span> <abbr title=\"Incorporated\" lang=\"en\">Inc.</abbr> de Davis, en Californie, et son utilisation sur les bleuets est homologu\u00e9e au Canada et aux \u00c9tats-Unis pour des maladies semblables. La soci\u00e9t\u00e9 s'occupe en ce moment de faire inscrire sur l'\u00e9tiquette l'utilisation contre les maladies caus\u00e9es par Monilinia chez le bleuet nain. Ce produit devrait constituer un outil pr\u00e9cieux pour la lutte int\u00e9gr\u00e9e et devrait \u00eatre particuli\u00e8rement utile pour les agriculteurs de produits biologiques.</p>\n \n\r\n    "
    }
}