{
    "dcr_id": "1537309886961",
    "title": {
        "en": "Development of a fungicide spray action threshold to help reduce Captan residue levels on fruits",
        "fr": "D\u00e9veloppement d\u2019un vaporisateur fongicide \u00e0 seuil d\u2019intervention permettant de r\u00e9duire les niveaux de r\u00e9sidus de captane sur les fruits "
    },
    "modified": "2018-10-12",
    "issued": "2018-10-12",
    "templatetype": "content page 1 column",
    "page_type": "0",
    "node_id": "1535122427752",
    "dc_date_created": "2018-10-12",
    "managing_branch": "PAB",
    "parent_node_id": "",
    "short_title": "",
    "exturl": "",
    "teamsite_location": {
        "en": "/default/main/AAFC-AAC/Internet-Internet/Group-Ensemble/ProgServ-ProgServ/WORKAREA/ProgServ-ProgServ/templatedata/comm-comm/gene-gene/data/09/prr06-910_1537309886961_en",
        "fr": "/default/main/AAFC-AAC/Internet-Internet/Group-Ensemble/ProgServ-ProgServ/WORKAREA/ProgServ-ProgServ/templatedata/comm-comm/gene-gene/data/09/prr06-910_1537309886961_fr"
    },
    "type_name": "comm-comm/gene-gene",
    "has_dcr_id": true,
    "label": {
        "en": "Development of a fungicide spray action threshold to help reduce Captan residue levels on fruits",
        "fr": "D\u00e9veloppement d\u2019un vaporisateur fongicide \u00e0 seuil d\u2019intervention permettant de r\u00e9duire les niveaux de r\u00e9sidus de captane sur les fruits "
    },
    "breadcrumb": {
        "en": "Development of a fungicide spray action threshold to help reduce Captan residue levels on fruits",
        "fr": "D\u00e9veloppement d\u2019un vaporisateur fongicide \u00e0 seuil d\u2019intervention permettant de r\u00e9duire les niveaux de r\u00e9sidus de captane sur les fruits "
    },
    "layout_name": "content page 1 column",
    "lang": "en",
    "refaire": false,
    "meta": {
        "viewport": {
            "en": "width=device-width,initial-scale=1",
            "fr": "width=device-width, initial-scale=1"
        },
        "issued": {
            "en": "2018-10-12",
            "fr": "2018-10-12"
        },
        "modified": {
            "en": "2018-10-12",
            "fr": "2018-10-12"
        },
        "format": {
            "en": "text/html",
            "fr": "text/html"
        },
        "title": {
            "en": "Development of a fungicide spray action threshold to help reduce Captan residue levels on fruits",
            "fr": "D\u00e9veloppement d\u2019un vaporisateur fongicide \u00e0 seuil d\u2019intervention permettant de r\u00e9duire les niveaux de r\u00e9sidus de captane sur les fruits "
        },
        "subject": {
            "en": "strawberries;air quality;soil assessement",
            "fr": "d\u00e9veloppement communautaire;eau souterraine;pommes de terre-producteurs"
        },
        "dcterms:subject": {
            "en": "soil;architectural heritage;architecture",
            "fr": "champignon;d\u00e9veloppement communautaire;\u00e9conomie agricole"
        },
        "description": {
            "en": "Archived content. Archived content is provided for reference, research or recordkeeping purposes. Biology: symptoms. Apple scab is caused by the fungus. Better safe than sorry:Cultivar. For new orchards, choose tolerant or moderately susceptible cultivars (see Susceptibility of Apple Cultivars below).Pruning.",
            "fr": "Contenu archiv\u00e9. Le contenu archiv\u00e9 est fourni aux fins de r\u00e9f\u00e9rence, de recherche ou de tenue de documents. Venturia inaequalis. . Cette maladie affecte \u00e9galement le pommetier. Tr\u00e8s sensibles. 'McIntosh'; 'Vista Bella'. Sensibles."
        },
        "language": {
            "en": "eng",
            "fr": "fra"
        },
        "keywords": {
            "en": null,
            "fr": "Covell;CanadaGeometroidea"
        },
        "audience": {
            "en": "gcaudience",
            "fr": "gcaudience"
        },
        "type": {
            "en": "media release",
            "fr": "mat\u00e9riel publicitaire"
        },
        "creator": {
            "en": "Agriculture and Agri-Food Canada;Government of Canada",
            "fr": "Agriculture et Agroalimentaire Canada;Gouvernement du Canada"
        },
        "spatial": {
            "en": "gcregions",
            "fr": "gcregions"
        },
        "service": {
            "en": "AAFC-AAC",
            "fr": "AAFC-AAC"
        },
        "accessRights": {
            "en": "2",
            "fr": "2"
        },
        "legalName": {
            "en": "agriculture_and_agri_food_canada",
            "fr": "agriculture_et_agroalimentaire_canada"
        },
        "areaServed": {
            "en": "Canada",
            "fr": "Canada"
        }
    },
    "h1": {
        "en": "Development of a fungicide spray action threshold to help reduce Captan residue levels on fruits",
        "fr": "D\u00e9veloppement d\u2019un vaporisateur fongicide \u00e0 seuil d\u2019intervention permettant de r\u00e9duire les niveaux de r\u00e9sidus de captane sur les fruits"
    },
    "js": {
        "en": "",
        "fr": ""
    },
    "body": {
        "en": "\r\n    <h2>Project code: PRR06-910</h2>\n\n<h3>Project lead</h3>\n\n<p><b> Vincent Philion</b> -  Institute of Research and Development in Agroenvironment</p>\n\n<h3>Objective</h3>\n<p><strong>To devise and implement a summer spray program that minimizes the use of the fungicide captan on apple trees</strong></p>\n\n\n<h3><strong>Summary of Results</strong></h3>\n\n<h4>Background</h4>\n\n<p>Captan is a fungicide commonly used by apple growers because it is affordable and is an option for control of both summer diseases and pin-point scab infections. Captan sprays directed against apple scab are typically applied in early spring to coincide with rainy periods during primary infection by fungal ascospores. Adequate suppression of ascosporic infections can result in a relaxed spray schedule up until harvest. Unfortunately, very low levels of primary infection on foliage can result in unacceptable scab levels on fruit when weather conditions in summer and early autumn are conducive to apple scab.</p>\n<p>The purpose of this project was to help identify situations in which captan sprays can be safely omitted and to determine the optimal spray program needed to protect the fruit.</p>\n \n<h4>Approaches</h4>\n<p>Experiments were carried out between 2006 and 2009 in an experimental orchard in Quebec. In the apple scab spray threshold experiments, a 4 year-old McIntosh orchard (2200 trees/<abbr title=\"hectares\">ha</abbr>) was split into sectors of different scab levels and each sector was further split into plots treated with either: 1 - no summer fungicide application, 2 - current grower standard, or 3 - sprays based on a proposed threshold. Grower standard captan sprays were applied every 14 days or when 1.5 inches of rain had accumulated, regardless of scab levels. Scab levels were measured weekly by randomly sampling 10 shoots or clusters on 5 trees per plot in each sector.</p>\n\n<p>In the captan residual efficacy experiments, a mature standard McIntosh orchard (120 trees/<abbr title=\"hectares\">ha</abbr>) was used. Normal fungicide sprays were initially applied to maintain apple scab at a low level, but no sprays were applied after June 1st. Twice weekly starting in late June, randomly selected trees were marked and sprayed once with captan and then inoculated with apple scab fungus in July. Uninoculated and unsprayed controls were maintained for each inoculation date. Apples were harvested in early September and stored at 4<abbr title=\"centigrade\">\u00b0C</abbr>. Apple scab severity was evaluated after storage.</p>\n \n<h4>Results</h4>\n\n<p>All three summers during the course of the study sustained extended rainy periods, precluding any analysis of the spray threshold method under dry conditions. Overall, results were consistent across the three years of the project, demonstrating that in plots with scab levels below the proposed threshold in June, disease increase in August was not commercially acceptable. Although fruit scab at harvest remained low, scab observed after 12 weeks of storage was consistently above thresholds. Therefore, sprays applied once the threshold was reached were insufficient to maintain adequate control, indicating that the proposed threshold of 5 scabby leaves per 100 shoots in June is not conservative enough for a sensitive cultivar like MacIntosh during extended periods of rain. It was also noted that lowering the threshold to 1 scabby leaf per 100 shoots dramatically increases sampling time, and the cost of this added scouting may not warrant the potential benefits.</p>\n<p>Despite these limitations, a new proposal for management of fruit scab was put forward, based on the concept of an extended pre harvest interval during which no fungicides would be needed. In this new approach, instead of stopping sprays when primary scab is over, growers would maintain minimal fungicidal coverage until a <q>\"summer spray stop date\"</q>. The proposal received considerable support from risk-averse consultants. Three seasons of wet, scab-conducive weather illustrated that this approach could be used to maintain fruit quality, but did not reduce pesticide risks. Further work on this threshold in drier season would be needed to determine whether the spray action threshold would reduce pesticide risk while at the same time controlling apple scab to commercially acceptable levels.</p>\n \n\r\n    ",
        "fr": "\r\n     \n<h2>Code de projet : PRR06-910</h2>\n<h3>Chef de projet</h3>\n<p><b>Vincent Philion</b> - Institute de Recherche et D\u00e9veloppement en Agroenvironnement</p>\n \n<h3>Objectif</h3>\n<p><b>\u00c9laborer et mettre en \u0153uvre un programme de pulv\u00e9risation estival qui r\u00e9duit l'emploi du fongicide captane sur les pommiers</b></p>\n \n<h3>Sommaire des r\u00e9sultats</h3>\n \n<h4>Contexte</h4>\n<p>Le captane est un fongicide couramment utilis\u00e9 par les pomiculteurs parce qu'il est peu co\u00fbteux et qu'il permet de lutter \u00e0 la fois contre les infections estivales et les infections caus\u00e9es par la tavelure mouchet\u00e9e. Les pulv\u00e9risations de captane dirig\u00e9es contre la tavelure du pommier sont d'ordinaire effectu\u00e9es t\u00f4t au printemps afin qu'elles co\u00efncident avec les p\u00e9riodes pluvieuses pendant lesquelles apparaissent les infections primaires par ascospores fongiques. L'application d'un calendrier moins intensif de pulv\u00e9risation jusqu'\u00e0 la r\u00e9colte assure une suppression ad\u00e9quate des infections par ascospores. Malheureusement, un tr\u00e8s faible taux d'infection primaire du feuillage peut entra\u00eener un taux d'infection des fruits inacceptable lorsque les conditions m\u00e9t\u00e9orologiques de l'\u00e9t\u00e9 et du d\u00e9but de l'automne favorisent le d\u00e9veloppement de la tavelure du pommier.</p>\n<p>L'objectif de ce projet est d'aider \u00e0 identifier les situations dans lesquelles les pulv\u00e9risations de captane peuvent \u00eatre omises sans danger et de d\u00e9terminer le programme de pulv\u00e9risation optimal n\u00e9cessaire pour prot\u00e9ger les fruits.</p>\n \n<h4>M\u00e9thodes</h4>\n<p>Nous avons effectu\u00e9, entre 2006 et 2009, des exp\u00e9riences dans un verger exp\u00e9rimental du Qu\u00e9bec. Dans le cadre d'exp\u00e9riences portant sur l'\u00e9tablissement d'un seuil d'intervention au-del\u00e0 duquel il conviendrait d'entreprendre un programme de pulv\u00e9risation contre la tavelure du pommier, nous avons divis\u00e9 un verger McIntosh de 4 ans (2200 pommiers/<abbr title=\"hectares\">ha</abbr>) en secteurs pr\u00e9sentant diff\u00e9rents taux d'incidence de la tavelure. Nous avons ensuite subdivis\u00e9 chaque secteur en parcelles comme suit : 1) aucun traitement fongicide estival; 2) application de la m\u00e9thode d'intervention couramment employ\u00e9e par les pomiculteurs; 3) application du seuil d'intervention propos\u00e9. La m\u00e9thode d'intervention couramment employ\u00e9e par les pomiculteurs consiste \u00e0 pulv\u00e9riser le captane aux 14 jours ou apr\u00e8s toute accumulation d'eau de 1,5 pouce, sans tenir compte du taux d'incidence de la tavelure. Nous avons \u00e9valu\u00e9 les taux d'incidence de la tavelure chaque semaine en effectuant un \u00e9chantillonnage au hasard de 10 pousses sur 5 arbres par parcelle dans chaque secteur.</p>\n<p>Dans le cadre des exp\u00e9riences portant sur l'efficacit\u00e9 r\u00e9siduelle du captane, nous avons utilis\u00e9 un verger McIntosh standard mature (120 pommiers/<abbr title=\"hectares\">ha</abbr>). Nous avons d'abord effectu\u00e9 les pulv\u00e9risations habituelles n\u00e9cessaires pour maintenir les taux d'infection par la tavelure du pommier \u00e0 un faible niveau, mais sans proc\u00e9der \u00e0 aucune application apr\u00e8s le 1er juin. Deux fois par semaine \u00e0 partir de la fin juin, nous avons marqu\u00e9 et trait\u00e9 une fois avec du captane des pommiers choisis au hasard; ces pommiers ont \u00e9t\u00e9 inocul\u00e9s avec le champignon responsable de la tavelure du pommier en juillet. Des pommiers t\u00e9moins non inocul\u00e9s et non pulv\u00e9ris\u00e9s ont \u00e9t\u00e9 conserv\u00e9s pour chaque date d'inoculation. Nous avons r\u00e9colt\u00e9 les pommes au d\u00e9but septembre et les avons entrepos\u00e9es \u00e0 une temp\u00e9rature de 4 <abbr title=\"centigrades\">\u00b0C</abbr>. L'incidence de la tavelure du pommier a \u00e9t\u00e9 \u00e9valu\u00e9e apr\u00e8s l'entreposage.</p>\n \n<h4>R\u00e9sultats</h4>\n<p>Au cours des trois \u00e9t\u00e9s de l'\u00e9tude, il y a eu de longues p\u00e9riodes de pr\u00e9cipitations qui ont emp\u00each\u00e9 toute analyse de l'efficacit\u00e9 du seuil d'intervention dans des conditions s\u00e8ches. Dans l'ensemble, les r\u00e9sultats ont \u00e9t\u00e9 uniformes pendant les trois ann\u00e9es du projet. Ils r\u00e9v\u00e8lent que dans les parcelles affichant des taux d'incidence inf\u00e9rieurs au seuil d'intervention propos\u00e9 en juin, l'incidence de la tavelure avait atteint en ao\u00fbt des proportions rendant les fruits impossibles \u00e0 commercialiser. M\u00eame si l'incidence de la tavelure chez les fruits \u00e9tait demeur\u00e9e faible \u00e0 la r\u00e9colte, les l\u00e9sions observ\u00e9es apr\u00e8s 12 semaines d'entreposage \u00e9taient toujours en nombre sup\u00e9rieur aux seuils. Les pulv\u00e9risations effectu\u00e9es apr\u00e8s le d\u00e9passement du seuil d'intervention n'ayant pas permis de ma\u00eetriser efficacement la maladie, nous pouvons conclure que le seuil d'intervention propos\u00e9 de 5 feuilles tavel\u00e9es par 100 pousses en juin n'est pas assez conservateur pour un cultivar vuln\u00e9rable comme le MacIntosh en cas de longues p\u00e9riodes de pr\u00e9cipitations. Nous avons \u00e9galement remarqu\u00e9 que l'abaissement du seuil d'intervention \u00e0 1 feuille tavel\u00e9e par 100 pousses augmentait de fa\u00e7on spectaculaire le temps consacr\u00e9 au d\u00e9pistage et que le co\u00fbt de cet effort additionnel n'\u00e9tait pas en soi une garantie de b\u00e9n\u00e9fices potentiels.</p>\n \n\r\n    "
    }
}