{
    "dcr_id": "1537300966959",
    "title": {
        "en": "Environmental assessment and phytosanitary efficacy of a drift recovery sprayer",
        "fr": "\u00c9valuation environnementale et efficacit\u00e9 phytosanitaire d'un pulv\u00e9risateur r\u00e9cup\u00e9rateur de d\u00e9rive"
    },
    "modified": "2018-10-12",
    "issued": "2018-10-12",
    "templatetype": "content page 1 column",
    "page_type": "0",
    "node_id": "1535122427752",
    "dc_date_created": "2018-10-12",
    "managing_branch": "PAB",
    "parent_node_id": "",
    "short_title": "",
    "exturl": "",
    "teamsite_location": {
        "en": "/default/main/AAFC-AAC/Internet-Internet/Group-Ensemble/ProgServ-ProgServ/WORKAREA/ProgServ-ProgServ/templatedata/comm-comm/gene-gene/data/09/prr06-130_1537300966959_en",
        "fr": "/default/main/AAFC-AAC/Internet-Internet/Group-Ensemble/ProgServ-ProgServ/WORKAREA/ProgServ-ProgServ/templatedata/comm-comm/gene-gene/data/09/prr06-130_1537300966959_fr"
    },
    "type_name": "comm-comm/gene-gene",
    "has_dcr_id": true,
    "label": {
        "en": "Environmental assessment and phytosanitary efficacy of a drift recovery sprayer",
        "fr": "\u00c9valuation environnementale et efficacit\u00e9 phytosanitaire d'un pulv\u00e9risateur r\u00e9cup\u00e9rateur de d\u00e9rive"
    },
    "breadcrumb": {
        "en": "Environmental assessment and phytosanitary efficacy of a drift recovery sprayer",
        "fr": "\u00c9valuation environnementale et efficacit\u00e9 phytosanitaire d'un pulv\u00e9risateur r\u00e9cup\u00e9rateur de d\u00e9rive"
    },
    "layout_name": "content page 1 column",
    "lang": "en",
    "refaire": false,
    "meta": {
        "viewport": {
            "en": "width=device-width,initial-scale=1",
            "fr": "width=device-width, initial-scale=1"
        },
        "issued": {
            "en": "2018-10-12",
            "fr": "2018-10-12"
        },
        "modified": {
            "en": "2018-10-12",
            "fr": "2018-10-12"
        },
        "format": {
            "en": "text/html",
            "fr": "text/html"
        },
        "title": {
            "en": "Environmental assessment and phytosanitary efficacy of a drift recovery sprayer",
            "fr": "\u00c9valuation environnementale et efficacit\u00e9 phytosanitaire d'un pulv\u00e9risateur r\u00e9cup\u00e9rateur de d\u00e9rive"
        },
        "subject": {
            "en": "strawberries;air quality;soil assessement",
            "fr": "\u00e9coAgriculture;pommes de terre-producteurs;\u00e9valuation environnementale strat\u00e9gique"
        },
        "dcterms:subject": {
            "en": "soil;architectural heritage;architecture",
            "fr": "science \u00e9conomique;d\u00e9veloppement communautaire;\u00e9conomie agricole"
        },
        "description": {
            "en": "Archived content. Archived content is provided for reference, research or recordkeeping purposes. Biology: symptoms. Apple scab is caused by the fungus. Better safe than sorry:Cultivar. For new orchards, choose tolerant or moderately susceptible cultivars (see Susceptibility of Apple Cultivars below).Pruning.",
            "fr": "Navigation dans le document : page suivante - page pr\u00e9c\u00e9dente - haut. (Les flores des \u00c9tats voisins des \u00c9tats-Unis ne sont incluses que quand, en l'absence de flores canadiennes suffisantes, elles aident tr\u00e8s nettement \u00e0 l'identification des plantes canadiennes.). Compl\u00e9mentarit\u00e9\u00a0: des r\u00e9f\u00e9rences comme de simples listes d'esp\u00e8ces et des guides de nomenclature qui, conjointement \u00e0 d'autres ouvrages, contribuent \u00e0 identifier et \u00e0 fournir les noms exacts.Inclusion des cl\u00e9s d'identification.Inclusion d'informations (en sus des cl\u00e9s) qui facilitent l'identification\u00a0: illustrations, cartes de r\u00e9partition, descriptions.Guides des plantes d'habitats distinctifs et r\u00e9partis au Canada\u00a0: plantes nordiques, plantes aquatiques, mauvaises herbes.Guides des plantes de familles ou de genres canadiens vastes et populaires et importants sur le plan \u00e9conomique\u00a0: gramin\u00e9es, cyp\u00e9rac\u00e9es, foug\u00e8res.Guides de classes extr\u00eamement importantes de plantes \u00e9conomiques au Canada\u00a0: arbres, plantes toxiques, plantes cultiv\u00e9es.Donn\u00e9es sur l\u00e0 o\u00f9 l'on peut localiser les instruments d'identification des plantes \u00e9trang\u00e8res qui pr\u00e9sentent d'\u00e9ventuels risques pour le Canada \u00e0 titre de mauvaises herbes introduites, d'esp\u00e8ces envahissantes exotiques, de contaminants des produits, de drogues illicites, etc.Outils bibliographiques cl\u00e9s qui aideront les chercheurs \u00e0 trouver les nombreuses informations dont ils ont besoin pour \u00e9claircir des probl\u00e8mes de classification. Les Cyp\u00e9rac\u00e9es de l'est du Canada."
        },
        "language": {
            "en": "eng",
            "fr": "fra"
        },
        "keywords": {
            "en": null,
            "fr": "ci-dessus.Continuum;Agri-innover.vous"
        },
        "audience": {
            "en": "gcaudience",
            "fr": "gcaudience"
        },
        "type": {
            "en": "media release",
            "fr": "description du programme ou du service"
        },
        "creator": {
            "en": "Agriculture and Agri-Food Canada;Government of Canada",
            "fr": "Agriculture et Agroalimentaire Canada;Gouvernement du Canada"
        },
        "spatial": {
            "en": "gcregions",
            "fr": "gcregions"
        },
        "service": {
            "en": "AAFC-AAC",
            "fr": "AAFC-AAC"
        },
        "accessRights": {
            "en": "2",
            "fr": "2"
        },
        "legalName": {
            "en": "agriculture_and_agri_food_canada",
            "fr": "agriculture_et_agroalimentaire_canada"
        },
        "areaServed": {
            "en": "Canada",
            "fr": "Canada"
        }
    },
    "h1": {
        "en": "Environmental assessment and phytosanitary efficacy of a drift recovery sprayer",
        "fr": "\u00c9valuation environnementale et efficacit\u00e9 phytosanitaire d'un pulv\u00e9risateur r\u00e9cup\u00e9rateur de d\u00e9rive"
    },
    "js": {
        "en": "",
        "fr": ""
    },
    "body": {
        "en": "\r\n     \n<h2>Project Code: PRR06-130</h2>\n \n<h2>Project Lead</h2>\n<p><b>Bernard Panneton</b> - Agriculture and Agri-Food Canada</p>\n \n<h2>Objective</h2>\n<p><b>To determine the drift reduction, efficacy and environmental impact of a newly developed recuperating pesticide sprayer for use in grape production</b></p>\n \n<h2>Summary of Results</h2>\n \n<h3>Background</h3>\n<p>With conventional airblast radial sprayers only 55% of the treatment solution is deposited on the foliage, 25% ends up on the soil and 20% goes away as airborne drift. Reducing off-target loss of spray solutions can lead to reduction in risk from pesticide contamination and better efficacy of pesticide applications. An alternative spray method was needed to avoid the off-target pesticide loss, especially in the context of enforcing legal buffer zone parameters close to sensitive areas (20-30 <abbr title=\"metres\">m</abbr> in Qu\u00e9bec). Agriculture and Agri-Food Canada researchers had developed a new drift recovery sprayer (DRS) technology designed for use in apple orchards which combined the advantages and configurations of both tower and tunnel sprayers. A prototype of <abbr title=\"the drift recovery sprayer\">DRS</abbr> was later adapted for use in vineyards and other crops with similar canopy geometry (<abbr title=\"for example,\">e.g.</abbr> raspberries). This study evaluated the potential of the vineyard <abbr title=\"drift recovery sprayer\">DRS</abbr> prototype to reduce ground contamination and airborne drift in vineyards.</p>\n \n<h3>Approaches</h3>\n<p>A comparative study was performed to evaluate the economic and environmental performance of <abbr title=\"the drift recovery sprayer\">DRS</abbr> in maintaining efficacy, good canopy penetration and leaf coverage while reducing drift and recovering spray solution. Trials were conducted in a commercial vineyard using 2 sprayers: a conventional airblast radial sprayer equipped with proper baffles to target the air stream to the canopy and the <abbr title=\"drift recovery sprayer\">DRS</abbr>.</p>\n \n<h3>Results</h3>\n\n<p>The tests confirmed that the new design achieved a satisfactory balance between a good canopy penetration and leaf coverage, and good efficacy (15-20%) in pesticide recovery. It was demonstrated that the <abbr title=\"drift recovery sprayer\">DRS</abbr> technology reduced drift (ground deposition) by 90% and that it could be used to reduce buffer zones by up to 20 <abbr title=\"metres\">m</abbr> without impacting the environment. Field trials showed that late in the season, when vine canopy reaches its full size and density, 10% of the applied spray can be recovered and recycled. An economic analysis based on drift reduction and pesticide savings indicated that the <abbr title=\"drift recovery sprayer\">DRS sprayer</abbr> pays for itself in 15 years under current regulations. The technology is more economically viable if recognized as a drift reduction method for buffer zone management, in which case, the payback period can be as short as 2\u00bd years.</p>\n\n<p>As a result of the outcomes from the work conducted in this project, a manufacturer of farm machinery in Quebec teamed up with the Agriculture and Agri-Food Canada team in St-Jean-sur-Richelieu and a tree fruit and berry farm to construct a 3-row commercial prototype sprayer based on the main features of the <abbr title=\"drift recovery sprayer\">DRS</abbr> design. This prototype will be tested on commercial apple orchards in 2011 and the following years.</p>\n \n\r\n    ",
        "fr": "\r\n     \n<h2>Code de projet : PRR06-130</h2>\n \n<h2>Chef de projet</h2>\n<p><b>Bernar Panneton</b> - Agriculture et Agroalimentaire Canada</p>\n \n<h2>Objectif</h2>\n<p><b>D\u00e9terminer la r\u00e9duction de la d\u00e9rive, l'efficacit\u00e9 et les r\u00e9percussions environnementales d'un nouveau pulv\u00e9risateur \u00e0 r\u00e9cup\u00e9ration pour l'usage dans la production viticole</b></p>\n \n<h2>Sommaire de r\u00e9sultats</h2>\n \n<h3>Contexte</h3>\n<p>Dans le cas des pulv\u00e9risateurs \u00e0 jet d'air \u00e0 large rayon traditionnels utilis\u00e9s dans les vignes, seulement 55\u00a0% du produit se d\u00e9pose sur le feuillage tandis que 25\u00a0% se retrouve dans le sol et 20\u00a0% est d\u00e9riv\u00e9 de sa trajectoire. La r\u00e9duction du produit asperg\u00e9 hors de sa trajectoire peut contribuer \u00e0 r\u00e9duire le risque de contamination au pesticide et am\u00e9liorer l'efficacit\u00e9 d'\u00e9pandage du pesticide. Une solution de pulv\u00e9risation de rechange \u00e9tait n\u00e9cessaire pour \u00e9viter la perte de pesticide hors-trajectoire, en particulier en mati\u00e8re d'application des param\u00e8tres des zones tampons pr\u00e9vus par la loi pr\u00e8s des endroits vuln\u00e9rables (de 20 \u00e0 30 <abbr title=\"m\u00e8tres\">m</abbr> au Qu\u00e9bec). Des chercheurs \u00e0 Agriculture et Agroalimentaire Canada ont mis au point une nouvelle technologie portant sur un pulv\u00e9risateur r\u00e9cup\u00e9rateur de d\u00e9rive (PRD) con\u00e7ue pour \u00eatre utilis\u00e9e dans les vergers de pomme. Cette technologie combine les avantages et les configurations des mod\u00e8les de pulv\u00e9risateur \u00e0 tourelles et \u00e0 tunnels. Un prototype de <abbr title=\"pulv\u00e9risateur r\u00e9cup\u00e9rateur de d\u00e9rive\">PRD</abbr> a \u00e9t\u00e9 adapt\u00e9 par la suite pour \u00eatre utilis\u00e9 dans les vignes et d'autres cultures dont la g\u00e9om\u00e9trie est similaire (<abbr title=\"par exemple\">p. ex.</abbr> les framboises). Dans cette \u00e9tude, on a \u00e9valu\u00e9 le potentiel du prototype de <abbr title=\"pulv\u00e9risateur r\u00e9cup\u00e9rateur de d\u00e9rive\">PRD</abbr> pour les vignes \u00e0 r\u00e9duire la contamination au sol et la d\u00e9rive.</p>\n \n<h3>D\u00e9marche</h3>\n<p>Une \u00e9tude comparative a \u00e9t\u00e9 effectu\u00e9e pour \u00e9valuer le rendement \u00e9conomique et environnemental du prototype de <abbr title=\"pulv\u00e9risateur r\u00e9cup\u00e9rateur de d\u00e9rive\">PRD</abbr> afin de maintenir l'efficacit\u00e9, bonne atteinte de la culture et bonne couverture du feuillage tout en r\u00e9duisant la d\u00e9rive et en r\u00e9cup\u00e9rant le produit asperg\u00e9. Des essais ont \u00e9t\u00e9 men\u00e9s chez un vignoble commercial \u00e0 l'aide de deux pulv\u00e9risateurs : un pulv\u00e9risateur \u00e0 jet d'air \u00e0 large rayon conventionnel dot\u00e9 des bons s\u00e9parateurs pour cibler le jet d'air vers la culture et un <abbr title=\"pulv\u00e9risateur r\u00e9cup\u00e9rateur de d\u00e9rive\">PRD</abbr>.</p>\n \n<h3>R\u00e9sultats</h3>\n<p>Les essais ont permis de confirmer que le nouveau mod\u00e8le du <abbr title=\"pulv\u00e9risateur r\u00e9cup\u00e9rateur de d\u00e9rive\">PRD</abbr> obtenait un \u00e9quilibre satisfaisant entre une bonne atteinte de la culture et couverture du feuillage ainsi qu'une bonne efficacit\u00e9 (de 15 \u00e0 20\u00a0%) de r\u00e9cup\u00e9ration du pesticide. Il a \u00e9t\u00e9 d\u00e9montr\u00e9 que la technologie du <abbr title=\"pulv\u00e9risateur r\u00e9cup\u00e9rateur de d\u00e9rive\">PRD</abbr> r\u00e9duisait la d\u00e9rive de 90\u00a0% et qu'elle pourrait servir \u00e0 r\u00e9duire les zones tampons jusqu'\u00e0 20 <abbr title=\"m\u00e8tres\">m</abbr> sans cons\u00e9quence pour l'environnement. Les essais sur le terrain indiquent que, lorsque la saison est avanc\u00e9e au moment o\u00f9 la vigne atteint sa pleine grosseur et densit\u00e9, 10\u00a0% du produit pulv\u00e9ris\u00e9 peut \u00eatre r\u00e9cup\u00e9r\u00e9 et recycl\u00e9. Une analyse \u00e9conomique ax\u00e9e sur la r\u00e9duction de la d\u00e9rive et des \u00e9conomies en mati\u00e8re de pesticide indique que la technologie du <abbr title=\"pulv\u00e9risateur r\u00e9cup\u00e9rateur de d\u00e9rive\">PRD</abbr> s'autofinance en 15 ans en tenant compte de la r\u00e9glementation actuelle. Cette technologie est plus viable sur le plan financier si elle est reconnue comme m\u00e9thode de r\u00e9duction de la d\u00e9rive pour la gestion des zones tampons et, auquel cas, la p\u00e9riode d'autofinancement pourrait \u00eatre aussi courte que 2 ans et demi.</p>\n<p>Pour faire suite aux r\u00e9sultats de l'\u00e9tude dans le cadre de ce projet, un fabricant de machinerie agricole au Qu\u00e9bec est en collaboration avec les chercheurs de Agriculture et Agroalimentaire Canada a St-Jean-sur-Richelieu et un producteur commercial de pomme et des petit fruits a fabriquer un prototype commercial de pulv\u00e9risateur r\u00e9cup\u00e9rateur de d\u00e9rive a 3 rangs. Cette prototype sera fabriqu\u00e9e selon les sp\u00e9cifications du <abbr title=\"pulv\u00e9risateur r\u00e9cup\u00e9rateur de d\u00e9rive\">PRD</abbr> est sera \u00e9valu\u00e9e dans les vergers de pomme commerciales en 2011 et les ann\u00e9es suivantes.</p>\n \n\r\n    "
    }
}