{
    "dcr_id": "1537372542019",
    "title": {
        "en": "Development of bioclimatic models to forecast the dynamics of two insect pests: carrot weevil and carrot fly",
        "fr": "D\u00e9veloppement de mod\u00e8les bioclimatiques pour pr\u00e9dire la dynamique de deux insectes ravageurs : le charan\u00e7on de la carotte et la mouche de la carotte"
    },
    "modified": "2018-10-12",
    "issued": "2018-10-12",
    "templatetype": "content page 1 column",
    "page_type": "0",
    "node_id": "1535122427752",
    "dc_date_created": "2018-10-12",
    "managing_branch": "PAB",
    "parent_node_id": "",
    "short_title": "",
    "exturl": "",
    "teamsite_location": {
        "en": "/default/main/AAFC-AAC/Internet-Internet/Group-Ensemble/ProgServ-ProgServ/WORKAREA/ProgServ-ProgServ/templatedata/comm-comm/gene-gene/data/09/prr07-090_1537372542019_en",
        "fr": "/default/main/AAFC-AAC/Internet-Internet/Group-Ensemble/ProgServ-ProgServ/WORKAREA/ProgServ-ProgServ/templatedata/comm-comm/gene-gene/data/09/prr07-090_1537372542019_fr"
    },
    "type_name": "comm-comm/gene-gene",
    "has_dcr_id": true,
    "label": {
        "en": "Development of bioclimatic models to forecast the dynamics of two insect pests: carrot weevil and carrot fly",
        "fr": "D\u00e9veloppement de mod\u00e8les bioclimatiques pour pr\u00e9dire la dynamique de deux insectes ravageurs : le charan\u00e7on de la carotte et la mouche de la carotte"
    },
    "breadcrumb": {
        "en": "Development of bioclimatic models to forecast the dynamics of two insect pests: carrot weevil and carrot fly",
        "fr": "D\u00e9veloppement de mod\u00e8les bioclimatiques pour pr\u00e9dire la dynamique de deux insectes ravageurs : le charan\u00e7on de la carotte et la mouche de la carotte"
    },
    "layout_name": "content page 1 column",
    "lang": "en",
    "refaire": false,
    "meta": {
        "viewport": {
            "en": "width=device-width,initial-scale=1",
            "fr": "width=device-width, initial-scale=1"
        },
        "issued": {
            "en": "2018-10-12",
            "fr": "2018-10-12"
        },
        "modified": {
            "en": "2018-10-12",
            "fr": "2018-10-12"
        },
        "format": {
            "en": "text/html",
            "fr": "text/html"
        },
        "title": {
            "en": "Development of bioclimatic models to forecast the dynamics of two insect pests: carrot weevil and carrot fly",
            "fr": "D\u00e9veloppement de mod\u00e8les bioclimatiques pour pr\u00e9dire la dynamique de deux insectes ravageurs : le charan\u00e7on de la carotte et la mouche de la carotte"
        },
        "subject": {
            "en": "vegetable crops;canola oil;soil assessement",
            "fr": "pommes de terre-transformation;approvisionnement en eau;syst\u00e8mes de culture"
        },
        "dcterms:subject": {
            "en": "architecture;agriculture;technology",
            "fr": "\u00e9conomie agricole;sol;m\u00e9dicament"
        },
        "description": {
            "en": "PRR-RRP Pesticide Risk Reduction Program s_root_insect_pests Pesticide Risk Reduction Strategy for Root Insect Pests of Carrot, Parsnip and Onion. \u2013 Prince Edward Island Department of Agriculture and Forestry;Mary Ruth McDonald. However, since the initiation of this Strategy, a number of other chemical insecticides re-evaluations have been initiated by PMRA: clothianidin and imidacloprid (carrot rust fly, onion maggot and seedcorn maggot), cypermethrin (carrot rust fly, onion maggot flies), lambda-cyhalothrin (carrot rust fly and carrot weevil), phosmet (carrot weevil), and chlorpyrifos (onion maggot larvae). Thus, there is an urgent need for the development of robust, reduced risk management options for these pests.Strategy development.",
            "fr": "PRR-RRP Programme de r\u00e9duction des risques li\u00e9s aux pesticides Strat\u00e9gie de r\u00e9duction des risques li\u00e9s aux pesticides contre les insectes nuisibles des racines des carottes, panais et oignons. \u2013 Phytodata, Qu\u00e9bec;Rachael Cheverie. de l\u2019ARLA pour les cultures de l\u00e9gumes-racines et de l\u00e9gumes-bulbes, qui ont coordonn\u00e9 des efforts pour obtenir d\u2019autres pesticides chimiques classiques comme solution de rechange aux pesticides qui sont retir\u00e9s par suite de leur r\u00e9\u00e9valuation.Dans le cadre du PRRP, un groupe de travail compos\u00e9 de sp\u00e9cialistes provinciaux des cultures l\u00e9gumi\u00e8res, d'entomologistes, d'experts en vulgarisation, d'intervenants de l'industrie l\u00e9gumi\u00e8re a \u00e9t\u00e9 form\u00e9 pour discuter des enjeux li\u00e9s \u00e0 la gestion de ces insectes nuisibles."
        },
        "language": {
            "en": "eng",
            "fr": "fra"
        },
        "keywords": {
            "en": "Ga\u00e9tan Bourgeois",
            "fr": "adopter.Qu"
        },
        "audience": {
            "en": "gcaudience",
            "fr": "gcaudience"
        },
        "type": {
            "en": "presentation",
            "fr": "mat\u00e9riel didactique"
        },
        "creator": {
            "en": "Agriculture and Agri-Food Canada;Government of Canada",
            "fr": "Agriculture et Agroalimentaire Canada;Gouvernement du Canada"
        },
        "spatial": {
            "en": "gcregions",
            "fr": "gcregions"
        },
        "service": {
            "en": "AAFC-AAC",
            "fr": "AAFC-AAC"
        },
        "accessRights": {
            "en": "2",
            "fr": "2"
        },
        "legalName": {
            "en": "agriculture_and_agri_food_canada",
            "fr": "agriculture_et_agroalimentaire_canada"
        },
        "areaServed": {
            "en": "Canada",
            "fr": "Canada"
        }
    },
    "h1": {
        "en": "Development of bioclimatic models to forecast the dynamics of two insect pests: carrot weevil and carrot fly",
        "fr": "D\u00e9veloppement de mod\u00e8les bioclimatiques pour pr\u00e9dire la dynamique de deux insectes ravageurs : le charan\u00e7on de la carotte et la mouche de la carotte"
    },
    "js": {
        "en": "",
        "fr": ""
    },
    "body": {
        "en": "\r\n    <h2>Project Code: PRR07-090</h2>\n<h3>Project Lead</h3>\n<p><b>Ga\u00e9tan Bourgeois</b> - Agriculture and Agri-Food Canada</p>\n<h3>Objective</h3>\n<p><b>To develop, validate, demonstrate and assist carrot growers to adopt anintegrated system for the management of carrot weevil and rust fly</b></p>\n\n<h3>Summary of Results</h3>\n\n<h4>Background</h4>\n<p>In Canada, carrot weevil (<i>Listronotus oregonensis</i>) and rust fly (<i>Psila rosae</i>) are major pests causing serious economic damage across all carrot production areas. In mid-1980\u2019s, forecasting models had been developed for both pests using limited documented observations. However, new information on changes in population dynamics indicates that crop damage could also occur from a 2nd generation of carrot weevil and that life cycles of carrot rust fly may have evolved with time.</p>\n<p>This 3-year (2007-2010) project aimed at updating the existing models using extensive sets of new data, so that the models account for the changing population dynamics of these pests, and facilitating the adoption of the tools by carrot growers across Canada.</p>\n<h4>Methods</h4>\n<p>The data used for updating the prediction models for these two pests were collected at the experimental farm of Agriculture and Agri-Food Canada (<abbr title=\"Agriculture and Agri-Food Canada\">AAFC</abbr>) in Sainte-Clotilde (Quebec) from 1983 to 2009. Meteorological data collected from the weather stations at the same sites for the same period of time allowed the elaboration of bioclimatic models based on cumulative thermal units (degree-days).</p>\n\n<p>Carrot weevil: Data were collected from two plots seeded with carrots at beginning of May of each year of the project. Standard crop production practices were implemented in these plots, except that no insecticide applications were used. In late April, 3 wooden-plate weevil traps were placed 2 m from the edge of each plot, and 3 other traps were placed in the middle of each plot. The traps were monitored twice a week till mid-September by counting the number of adult weevils found in each trap.</p>\n\n<p>Carrot rust fly: Data were collected from the same plots as for the weevils. Yellow sticky traps were installed along the borders of the plots at every 5 m and at 1 m high from the ground between 10 and 15 May of each year of the project. The traps were monitored twice a week till the end of season by counting the number of adult carrot rust flies found in each trap.</p>\n<p>The combined data collected during this project and over the previous 25 years were used to elaborate the bioclimatic models for each pest, as well as to evaluate their predictive capacity. The updated models were validated in a select number of commercial carrot crops by comparing the timings of observed insects captured in the traps and those predicted by the models. The meteorological data obtained from respective weather stations served to complete the validation. For the weevil, the model validation was conducted in Lanaudi\u00e8re (Quebec) and Bradford (Ontario) regions over the periods between 1995 - 2010 and 2005 - 2008, respectively. For the carrot rust fly, the model validation was conducted in the Bradford region from 2005 to 2008.</p>\n<h4>Results</h4>\n<p>Overall, the analyses of comparisons between observations and predictions indicated an improvement of the predictive capacity of the updated models, given that observations of over 20 years had been taken into account.</p>\n<p>Carrot weevil: Comparison statistics obtained for thresholds of 5, 50 and 95% of weevil populations indicate that the variations between observed and predicted timings averaged 3.7 days. Moreover, statistics of model efficiency indicate that the model has a better predictive value then the use of the mean of observations. In general, the weevil completes one generation per season. Occasionally, a 2nd generation of the weevil can be reached and cause damage to the crop. Unfortunately, the trap used in these experiments did not allow obtaining enough data to characterize this 2nd generation. Indeed, the type of trap used works well for the 1st generation since it provides a feeding source and an egg laying site for weevils at a time when the carrots are at the early stages of their development. When the 2nd generation of adults emerges, the carrots are almost mature and weevils are much less attracted to traps. This study was therefore limited to modeling the emergence of overwintering adults (1st generation) of the carrot weevil.</p>\n<p>Carrot rust fly: In general, this pest completes two generations per season and the traps used are quite efficient for an adequate monitoring of the adult populations. The updated model offers a good prediction for the 1st generation of the insect. The variations between the observed and predicted timings averaged 6 days for the 1st generation, while the difference was 8.6 days on average for the 2nd generation, therefore less accurate by a few days. Moreover, the model indicates that to complete its life cycle, this 2nd generation requires about 200 degree-days more than it was observed in studies conducted in early 1980\u2019s, which implies that the carrot rust flies remain active longer in the fall.</p>\n\n<p>Validation results obtained from Quebec and Ontario demonstrated the excellent predictive capacity of these two models in different carrot growing regions, provided that the time of trap installation and seeding dates are taken into consideration. Early installation of traps (soon after carrot seeding) is especially important for best results with the carrot weevil model.</p>\n\n<p>These prediction tools are part of an integrated system that includes also economic damage thresholds, appropriate scouting techniques and control recommendations, allowing a system approach for weevil and rust fly management in carrots. These two models updated through this project are integrated into CIPRA (Computer Centre for Agricultural Pest Forecasting), a multi-crop/pest decisions support system software developed by the <abbr title=\"Agriculture and Agri-Food Canada\">AAFC</abbr>\u2019s team of researchers in bioclimatology and modeling at the Saint-Jean-sur-Richelieu Centre (Quebec). The information and service are now available to carrot growers in Canada through the provincial extension personnel. It is anticipated that these models will allow growers to better target their pest control practices and avoid unnecessary pesticide applications, thus contributing to judicious pest management decisions and pesticide risk reduction.</p>\n\n<p>Numerous extension activities were conducted in the context of technology transfer (e.g. publications, presentations at conferences and posters) to communicate the results of this studies to stakeholders.</p>\n\n<p>For more details, please contact <a href=\"mailto:Gaetan.Bourgeois@AGR.GC.CA\">Dr. Ga\u00e9tan Bourgeois</a>.</p>\n\n\r\n    ",
        "fr": "\r\n    <h2>Code de projet : PRR07-090</h2>\n<h3>Chef de projet</h3>\n<p><b>Ga\u00e9tan Bourgeois</b> - Agriculture et Agroalimentaire Canada</p>\n<h3>Objectif</h3>\n\n<p><b>\u00c9laborer et valider un syst\u00e8me int\u00e9gr\u00e9 permettant de g\u00e9rer le charan\u00e7on de la carotte et la mouche de la carotte; d\u00e9montrer son efficacit\u00e9 et aider les producteurs de carottes \u00e0 adopter ce syst\u00e8me</b></p>\n\n<h3>Sommaire de r\u00e9sultats</h3>\n\n<h4>Contexte</h4>\n\n<p>Au Canada, le charan\u00e7on de la carotte (<i>Listronotus oregonensis</i>) et la mouche de la carotte (<i>Psila rosae</i>) causent d'importantes pertes \u00e9conomiques dans toutes les r\u00e9gions productrices de carottes. Au milieu des ann\u00e9es 1980, des mod\u00e8les pr\u00e9visionnels ont \u00e9t\u00e9 \u00e9labor\u00e9s pour ces deux insectes nuisibles en utilisant un nombre limit\u00e9 d'observations. Depuis, plusieurs jeux de donn\u00e9es ont \u00e9t\u00e9 recueillies. Des changements survenant dans la dynamique des populations indiquent que des dommages sur la carotte pourraient \u00eatre attribu\u00e9s \u00e0 une deuxi\u00e8me g\u00e9n\u00e9ration du charan\u00e7on et que le cycle biologique de la mouche de la carotte pourrait avoir \u00e9volu\u00e9 avec le temps.</p>\n<p>Le pr\u00e9sent projet de trois ans (2007-2010) visait la mise \u00e0 jour des mod\u00e8les existants \u00e0 des nouveaux jeux de donn\u00e9es sur ces insectes ravageurs, afin de tenir compte des changements survenant dans la dynamique de leurs populations et, \u00e0 permettre aux producteurs canadiens des r\u00e9gions productrices de carottes d'adopter ces outils.</p>\n<h4>M\u00e9thodes</h4>\n<p>Les donn\u00e9es utilis\u00e9es sont recueillies \u00e0 la ferme exp\u00e9rimentale d'Agriculture et Agroalimentaire Canada (<abbr title=\"Agriculture et Agroalimentaire Canada\">AAC</abbr>) \u00e0 Sainte-Clotilde (Qu\u00e9bec) entre 1983 et 2009 sur ces deux ravageurs, ainsi que les donn\u00e9es climatiques enregistr\u00e9es sur ce site pour la m\u00eame p\u00e9riode ont permis l'\u00e9laboration de mod\u00e8les bioclimatiques bas\u00e9s sur l'approche des cumuls thermiques (degr\u00e9s-jours).</p>\n<p>Charan\u00e7on de la carotte : Des donn\u00e9es ont \u00e9t\u00e9 recueillies sur deux parcelles sem\u00e9es en carottes au d\u00e9but du mois de mai de chaque ann\u00e9e du projet. Les pratiques agronomiques normales ont \u00e9t\u00e9 respect\u00e9es sauf qu'aucun insecticide n'a \u00e9t\u00e9 appliqu\u00e9 dans ces parcelles. D\u00e8s la fin avril, 3 pi\u00e8ges \u00e0 charan\u00e7ons de type \u00ab trappes en plaques de bois \u00bb ont \u00e9t\u00e9 plac\u00e9s \u00e0 2 m\u00e8tres du bord de la parcelle et 3 autres \u00e0 l'int\u00e9rieur de la parcelle. Les pi\u00e8ges ont \u00e9t\u00e9 relev\u00e9s deux fois par semaine jusqu'\u00e0 la mi-septembre en comptant le nombre de charan\u00e7ons adultes qui s'y trouvaient.</p>\n<p>Mouche de la carotte : Des donn\u00e9es ont \u00e9t\u00e9 recueillies dans les m\u00eames parcelles que pour le charan\u00e7on. Les pi\u00e8ges de type \u00ab cartons jaunes \u00bb \u00e9taient install\u00e9s entre le 10 et le 15 mai de chaque ann\u00e9e du projet, en bordure des champs \u00e0 une hauteur de 1 m et espac\u00e9s de 5 m. Les relev\u00e9s \u00e9taient effectu\u00e9s deux fois par semaine jusqu'\u00e0 la fin de la saison en comptant le nombre de mouches de la carotte adultes qui s'y trouvaient.</p>\n<p>Les donn\u00e9es recueillies ont ensuite \u00e9t\u00e9 utilis\u00e9es pour \u00e9laborer les mod\u00e8les bioclimatiques de chaque insecte ravageur, ainsi qu'\u00e0 \u00e9valuer leur valeur pr\u00e9dictive. La validation des mod\u00e8les de pr\u00e9diction a eu lieu dans certains champs commerciaux de carottes en comparant des observations de captures et des pr\u00e9dictions des mod\u00e8les. Les donn\u00e9es m\u00e9t\u00e9orologiques en provenance des stations m\u00e9t\u00e9orologiques respectives ont servi \u00e0 cette validation. Pour le charan\u00e7on, la validation a eu lieu dans les r\u00e9gions de Lanaudi\u00e8re (Qu\u00e9bec) et de Bradford (Ontario) pour les p\u00e9riodes de 1995 \u00e0 2010 et de 2005 \u00e0 2008, respectivement. Pour la mouche de la carotte, la validation a eu lieu dans la r\u00e9gion de Bradford pour la p\u00e9riode de 2005 et 2008.</p>\n\n<h4>R\u00e9sultats</h4>\n\n<p>Sur l'ensemble, les analyses des comparaisons entre les pr\u00e9dictions et les observations d\u00e9montrent une am\u00e9lioration du potentiel pr\u00e9dictif des mod\u00e8les bioclimatiques vu qu'une vingtaine d'ann\u00e9es d'observations ont \u00e9t\u00e9 utilis\u00e9es pour \u00e9laborer ceux-ci.</p>\n<p>Charan\u00e7on de la carotte : Les statistiques comparatives obtenues pour les seuils de 5, 50 et 95 % de population du charan\u00e7on indiquent que l'\u00e9cart entre l'observation et la pr\u00e9diction du mod\u00e8le est en moyenne de 3,7 jours. De plus, la statistique d'efficience du mod\u00e8le indique que le mod\u00e8le a une meilleure valeur pr\u00e9dictive que l'utilisation de la moyenne des observations. Ce ravageur compl\u00e8te g\u00e9n\u00e9ralement une g\u00e9n\u00e9ration par ann\u00e9e. Occasionnellement, une 2\u00e8me g\u00e9n\u00e9ration du charan\u00e7on peut \u00eatre atteinte pendant la saison de croissance et causer des dommages \u00e0 la culture. Malheureusement, le pi\u00e8ge utilis\u00e9 au cours de ces exp\u00e9riences n'a pas permis d'accumuler assez de donn\u00e9es pour pouvoir caract\u00e9riser cette g\u00e9n\u00e9ration. En effet, le type de pi\u00e8ge utilis\u00e9 fonctionne bien pour la 1\u00e8re g\u00e9n\u00e9ration puisqu'il offre une source d'alimentation et un site de ponte aux charan\u00e7ons \u00e0 un moment o\u00f9 les carottes sont au d\u00e9but de leur d\u00e9veloppement. Au moment o\u00f9 la 2\u00e8me g\u00e9n\u00e9ration d'adultes \u00e9merge, les carottes sont presque matures et les charan\u00e7ons sont beaucoup moins attir\u00e9s par les pi\u00e8ges. Cette \u00e9tude s'est donc limit\u00e9e \u00e0 la mod\u00e9lisation de l'\u00e9mergence des adultes hivernants (1\u00e8re g\u00e9n\u00e9ration) du charan\u00e7on.</p>\n\n<p>Mouche de la carotte : Ce ravageur compl\u00e8te g\u00e9n\u00e9ralement deux g\u00e9n\u00e9rations par ann\u00e9e et les pi\u00e8ges utilis\u00e9s semblent assez efficaces pour un suivi ad\u00e9quat des populations d'adultes. Le mod\u00e8le fournit une bonne pr\u00e9diction pour la 1\u00e8re g\u00e9n\u00e9ration de l'insecte. En effet, l'\u00e9cart entre les observations et les pr\u00e9dictions du mod\u00e8le se situe autour de 6 jours pour cette g\u00e9n\u00e9ration, alors qu'on obtient pr\u00e8s de 8,6 jours de diff\u00e9rence pour la 2\u00e8me g\u00e9n\u00e9ration, donc moins pr\u00e9cise de quelques jours. D'ailleurs, le mod\u00e8le pour le cycle de vie de cette 2\u00e8me g\u00e9n\u00e9ration requiert environ 200 degr\u00e9s-jours de plus que dans les \u00e9tudes effectu\u00e9es au d\u00e9but des ann\u00e9es 1980, ce qui sous-entend que les mouches de la carotte demeurent actives plus longtemps \u00e0 l'automne.</p>\n\n<p>La validation des deux mod\u00e8les \u00e0 partir de donn\u00e9es en provenance du Qu\u00e9bec et Ontario a permis aussi de constater leur excellente capacit\u00e9 pr\u00e9dictive dans diff\u00e9rentes r\u00e9gions, en autant que la date d'installation des pi\u00e8ges ou la date de semis est prise en compte. La date d'installation des pi\u00e8ges s'est av\u00e9r\u00e9e particuli\u00e8rement importante pour l'utilisation du mod\u00e8le du charan\u00e7on de la carotte (pr\u00e9f\u00e9rablement le plus rapidement possible apr\u00e8s le semis de carotte).</p>\n\n<p>Les outils de pr\u00e9vision font partie d'un syst\u00e8me int\u00e9gr\u00e9 permettant de g\u00e9rer le charan\u00e7on et la mouche de la carotte, comprenant \u00e9galement des seuils de nuisibilit\u00e9 \u00e9conomique, des techniques de d\u00e9pistage et des recommandations de lutte contre ces insectes. Les deux mod\u00e8les d\u00e9velopp\u00e9s au cours du pr\u00e9sent projet ont \u00e9t\u00e9 int\u00e9gr\u00e9s dans le logiciel CIPRA (Centre informatique de pr\u00e9visions des ravageurs en agriculture), d\u00e9velopp\u00e9 par l'\u00e9quipe de recherche en bioclimatologie et mod\u00e9lisation d'<abbr title=\"Agriculture et Agroalimentaire Canada\">AAC</abbr> \u00e0 Saint-Jean-sur-Richelieu (Qu\u00e9bec), et disponibles aux producteurs de carottes au Canada par le biais des conseillers r\u00e9gionaux. Ces mod\u00e8les bioclimatiques permettront aux producteurs de mieux cibler les interventions phytosanitaires contre ces ravageurs et d'\u00e9viter les applications inutiles de pesticides, contribuant ainsi \u00e0 des d\u00e9cisions judicieuses en mati\u00e8re de lutte \u00e0 la r\u00e9duction des risques associ\u00e9s aux pesticides.</p>\n\n<p>De nombreuses activit\u00e9s ont \u00e9t\u00e9 effectu\u00e9es dans un cadre de transfert technologique (p. ex. : publications, pr\u00e9sentations aux conf\u00e9rences et affiches) pour communiquer les r\u00e9sultats du projet aux intervenants.</p>\n\n<p>Pour de plus amples renseignements, veuillez communiquer avec <a href=\"mailto:Gaetan.Bourgeois@AGR.GC.CA\">Dr. Ga\u00e9tan Bourgeois</a>.</p>\n\n\r\n    "
    }
}