{
    "dcr_id": "1537306717685",
    "title": {
        "en": "Evaluation of spray pruners for target delivery of fungicides to tomato leaf cut-wounds to control botrytis stem canker",
        "fr": "\u00c9valuation des \u00e9lagueurs-vaporisateurs quant \u00e0 la date de livraison du fongicide sur les feuilles entaill\u00e9es de tomate pour la lutte contre la pourriture grise"
    },
    "modified": "2018-10-12",
    "issued": "2018-10-12",
    "templatetype": "content page 1 column",
    "page_type": "0",
    "node_id": "1535122427752",
    "dc_date_created": "2018-10-12",
    "managing_branch": "PAB",
    "parent_node_id": "",
    "short_title": "",
    "exturl": "",
    "teamsite_location": {
        "en": "/default/main/AAFC-AAC/Internet-Internet/Group-Ensemble/ProgServ-ProgServ/WORKAREA/ProgServ-ProgServ/templatedata/comm-comm/gene-gene/data/09/prr06-590_1537306717685_en",
        "fr": "/default/main/AAFC-AAC/Internet-Internet/Group-Ensemble/ProgServ-ProgServ/WORKAREA/ProgServ-ProgServ/templatedata/comm-comm/gene-gene/data/09/prr06-590_1537306717685_fr"
    },
    "type_name": "comm-comm/gene-gene",
    "has_dcr_id": true,
    "label": {
        "en": "Evaluation of spray pruners for target delivery of fungicides to tomato leaf cut-wounds to control botrytis stem canker",
        "fr": "\u00c9valuation des \u00e9lagueurs-vaporisateurs quant \u00e0 la date de livraison du fongicide sur les feuilles entaill\u00e9es de tomate pour la lutte contre la pourriture grise"
    },
    "breadcrumb": {
        "en": "Evaluation of spray pruners for target delivery of fungicides to tomato leaf cut-wounds to control botrytis stem canker",
        "fr": "\u00c9valuation des \u00e9lagueurs-vaporisateurs quant \u00e0 la date de livraison du fongicide sur les feuilles entaill\u00e9es de tomate pour la lutte contre la pourriture grise"
    },
    "layout_name": "content page 1 column",
    "lang": "en",
    "refaire": false,
    "meta": {
        "viewport": {
            "en": "width=device-width,initial-scale=1",
            "fr": "width=device-width, initial-scale=1"
        },
        "issued": {
            "en": "2018-10-12",
            "fr": "2018-10-12"
        },
        "modified": {
            "en": "2018-10-12",
            "fr": "2018-10-12"
        },
        "format": {
            "en": "text/html",
            "fr": "text/html"
        },
        "title": {
            "en": "Evaluation of spray pruners for target delivery of fungicides to tomato leaf cut-wounds to control botrytis stem canker",
            "fr": "\u00c9valuation des \u00e9lagueurs-vaporisateurs quant \u00e0 la date de livraison du fongicide sur les feuilles entaill\u00e9es de tomate pour la lutte contre la pourriture grise"
        },
        "subject": {
            "en": "safflower;weed control;viral diseases",
            "fr": "politique agricole;\u00e9valuation environnementale strat\u00e9gique;gestion de l'exploitation agricole"
        },
        "dcterms:subject": {
            "en": "geomatics;pesticides;agriculture",
            "fr": "maladie;cultures;politique"
        },
        "description": {
            "en": "MUP-PUL Minor Use Pesticides Program submissions_and_registrations Minor Use Pesticides - Submissions. clopyralid. AAFC15-002. Submitted to PMRA*. Updated information since August\u00a016, 2017.Submission Fiscal Year: 2016-17 (Total 55). Crop. Rust, leaf and stem (Puccinia graminis); Rust (Puccinia sp.); Rust, stripe (Puccinia striiformis). Tilt 250E fungicide.",
            "fr": "treecodes.length; i++) { var thistree=treecodes[i]; var myvalue=document.treecalc[thistree].value; if (myvalue==\"\") { myvalue=0;} totalRowLength+=parseInt(myvalue); if (document.treecalc.units[1].checked) { //spacing in metres if (thistree==\"ah\";;thistree==\"cc\") { totalTrees+=document.treecalc[thistree+\"x\"].value=Math.round(myvalue/1); } else { totalTrees+=document.treecalc[thistree+\"x\"].value=myvalue/3.5; } } else { //spacing in feet if (thistree==\"ah\";;thistree==\"cc\") { totalTrees+=document.treecalc[thistree+\"x\"].value=Math.round(myvalue/3); } } } document.treecalc.total.value = totalRowLength; document.treecalc.totalx.value = totalTrees; } function myalert() { alert (\"You're not supposed to type anything in Trees Required field.\"); additup(); } function filterNonNumeric(field) { var result = new String(); var numbers = \"0123456789\"; var chars = field.value.split(\"\"); // create array for (i = 0; i. Alternative Formats. Donec ultricies enim vel massa dapibus luctus vel sed odio. The asterisk is to be presented in. plain text."
        },
        "language": {
            "en": "eng",
            "fr": "fra"
        },
        "keywords": {
            "en": "Caneberry",
            "fr": "lampourde glouteron;calceolus cytise;Ailanthus altissima"
        },
        "audience": {
            "en": "gcaudience",
            "fr": "gcaudience"
        },
        "type": {
            "en": "abstract",
            "fr": "pr\u00e9sentation"
        },
        "creator": {
            "en": "Agriculture and Agri-Food Canada;Government of Canada",
            "fr": "Agriculture et Agroalimentaire Canada;Gouvernement du Canada"
        },
        "spatial": {
            "en": "gcregions",
            "fr": "gcregions"
        },
        "service": {
            "en": "AAFC-AAC",
            "fr": "AAFC-AAC"
        },
        "accessRights": {
            "en": "2",
            "fr": "2"
        },
        "legalName": {
            "en": "agriculture_and_agri_food_canada",
            "fr": "agriculture_et_agroalimentaire_canada"
        },
        "areaServed": {
            "en": "Canada",
            "fr": "Canada"
        }
    },
    "h1": {
        "en": "Evaluation of spray pruners for target delivery of fungicides to tomato leaf cut-wounds to control botrytis stem canker",
        "fr": "\u00c9valuation des \u00e9lagueurs-vaporisateurs quant \u00e0 la date de livraison du fongicide sur les feuilles entaill\u00e9es de tomate pour la lutte contre la pourriture grise"
    },
    "js": {
        "en": "",
        "fr": ""
    },
    "body": {
        "en": "\r\n    \n<h2>Project Code : PRR06-590</h2>\n\n<h3>Project Lead</h3>\n<p><b>Iris Bitterlich</b> - National Greenhouse Vegetable Growers</p>\n\n<h3>Objective</h3>\n<p><b>To evaluate the efficacy of delivering registered fungicides with spray pruners directly onto leaf cut-wounds of greenhouse tomato during pruning to prevent the entry of botrytis stem canker (BSC) disease</b></p>\n \n<h3>Summary of Results</h3>\n\n<p>Botrytis stem canker (BSC) was identified as the #1 disease priority for greenhouse tomato at the Canadian Minor Use Pesticide Priority Setting Meeting in Ottawa (2005) as well as a national priority by the Pesticide Reduced Risk Steering Committee Meeting (2006).</p>\n<p><abbr title=\"Botrytis stem canker\">BSC</abbr> is caused by <i>Botrytis cinerea</i> and is the most prevalent disease on greenhouse tomato (Lycopersicon esculentum Mill.), affecting stems, twigs, leaves, blossoms and fruits at all developmental stages. The pathogen produces numerous spores on infected tissues that are rapidly dispersed by wind currents, irrigation, machinery, equipment and workers. Spores enter the plant primarily through wounds, natural openings, or even by direct penetration. <abbr title=\"Botrytis stem canker\">BSC</abbr> is often initiated at leaf cut-wounds, leading to lesions, cankers and girdling of stems, eventually causing wilting and death of tomato vines. Pruning wounds can remain wet for several hours post-cutting, providing an easy entry point for <i>B. cinerea</i> spores. Protectant fungicides used currently as a foliar spray do not typically prevent infection, since spray and pruning events do not coincide.</p>\n\n<p>The objective of this study was to evaluate the efficacy of delivering three registered chemical fungicides, Decree (fenhexamid), Botran (dichloran) and Milstop (potassium bicarbonate), and one biological fungicide, Rootshield (<i>Trichoderma harzianum</i>), with spray pruners ( Felco Spray Pruner #19) directly onto leaf cut-wounds during pruning of tomato leaves to prevent the entry of pathogen through cut wounds.</p>\n<p>In this study, the results showed that the fungicide Decree performed better than the other fungicide treatments on all three tomato varieties Trust, Tricia and Clarence when delivered with the use of spray pruners. Incidence and severity of <abbr title=\"Botrytis stem canker\">BSC</abbr> in the Decree treatments were comparable to that of the uninoculated healthy check and were significantly different from the inoculated disease check. None of the other fungicides applied with spray pruners reduced the incidence of <abbr title=\"Botrytis stem canker\">BSC</abbr> significantly compared to the inoculated disease check. Hence, delivering Decree with spray pruners directly onto leaf cut-wounds of greenhouse tomato during pruning can reduce both disease incidence and severity significantly.</p>\n\n<p>Furthermore, the quantity and volume of a fungicide required for spray pruner application was 73-80% less than that of conventional foliar application. Therefore, the reduced amount of fungicide applied on a per hectare basis will reduce the overall production cost for greenhouse tomato producers. Worker-exposure to air-borne (aerosol) fungicide particles during spray pruning was also extremely low as determined by the volume (amount) of fungicide deposited on water sensitive strips during spray pruning. The residue level found on the leaf and fruit samples of all three tomato varieties treated with Decree and Botran was below the acceptable Maximum Residue Tolerance Limits.</p>\n<p>Based on a survey conducted at the end of the experiment, greenhouse workers rated spray pruners as very high for efficiency, user-friendliness and overall performance. Although the larger size of the spray-pruners used in the experiment was a concern, such spray-pruners can be modified to suit grower convenience.</p>\n\n<p>It would be beneficial to confirm the positive results obtained in the course of this short project with a study over one to two full greenhouse growing seasons.</p>\n \n\r\n    ",
        "fr": "\r\n     \n<h2>Code de projet : PRR06-590</h2>\n \n<h3>Chef de projet</h3>\n<p><b>Iris Bitterlich</b> - <i lang=\"en\">National Greenhouse Vegetable Growers</i></p>\n \n<h3>Objectif</h3>\n<p><b>\u00c9valuer l'efficacit\u00e9 des applications de fongicides homologu\u00e9s \u00e0 l'aide d'\u00e9lagueurs pulv\u00e9risateurs directement sur les coupures des feuilles de tomates de serre durant l'\u00e9mondage</b></p>\n\n<h3>Sommaire de r\u00e9sultats</h3>\n\n<p>Il a \u00e9t\u00e9 d\u00e9termin\u00e9, au cours de la r\u00e9union tenue \u00e0 Ottawa au sujet de l'<i>\u00c9tablissement des priorit\u00e9s nationales relatives aux pesticides \u00e0 usage limit\u00e9</i> (2005), que la pourriture des tiges caus\u00e9es par le <i>Botrytis cinerea</i> constitue la priorit\u00e9 num\u00e9ro un parmi les maladies qui attaquent les tomates de serre. Cette affection a \u00e9galement \u00e9t\u00e9 d\u00e9sign\u00e9e comme une priorit\u00e9 nationale au cours de la r\u00e9union du \"<i lang=\"en\">Pesticide Reduced Risk Steering Committee\"</i> (Comit\u00e9 directeur de r\u00e9duction des risques des pesticides) (2006).</p>\n\n\n<p>La pourriture des tiges est caus\u00e9e par le <i>Botrytis cinerea</i> (la pourriture grise) et il s'agit de la maladie la plus r\u00e9pandue parmi les plants de tomate de serre (<i>Lycopersicon esculentum Mill</i>). Elle atteint les tiges, les feuilles, les fleurs et les fruits, \u00e0 toutes les \u00e9tapes de leur d\u00e9veloppement. Ce pathog\u00e8ne produit un grand nombre de spores qui sont rapidement diss\u00e9min\u00e9es par les courants d'air, l'irrigation, la machinerie, les \u00e9quipements et les travailleurs. Les spores s'introduisent dans cette plante principalement par les blessures, les orifices naturels et m\u00eame par p\u00e9n\u00e9tration directe. Souvent, l'infection caus\u00e9e par le <i>Botrytis cinerea</i> contamine d'abord les entailles des feuilles, puis provoque des l\u00e9sions, des chancres ou la formation d'une enveloppe autour de la tige, pour finalement causer le fl\u00e9trissement et la mort des plants. Les entailles caus\u00e9es par l'\u00e9lagage peuvent rester humides pendant plusieurs heures, permettant ainsi aux spores du <i>Botrytis cinerea</i> de p\u00e9n\u00e9trer facilement. Les fongicides protecteurs qui sont couramment appliqu\u00e9s sur les feuilles n'aident pas \u00e0 pr\u00e9venir l'infection parce qu'habituellement, on n'applique pas de fongicides au moment de la taille.</p>\n\n<p>La pr\u00e9sente \u00e9tude avait pour objectif d'\u00e9valuer l'efficacit\u00e9 de trois fongicides chimiques homologu\u00e9s, le Decree (f\u00e9nhexamide), le Botran (dichloran) et le Milstop (bicarbonate de potassium), ainsi qu'un fongicide biologique, le Rootshield (<i>Trichoderma harzianum</i>), ayant \u00e9t\u00e9 appliqu\u00e9s au moyen de s\u00e9cateurs assortis de pulv\u00e9risateurs (plus, pr\u00e9cis\u00e9ment, du mod\u00e8le <i lang=\"en\">Felco Spray Pruner</i> no 19) directement sur les l\u00e9sions subies par les feuilles de la tomate au cours de la taille, afin d'emp\u00eacher la p\u00e9n\u00e9tration du pathog\u00e8ne dans le plant \u00e0 travers des entailles.</p>\n\n<p>Les r\u00e9sultats de cette \u00e9tude d\u00e9montrent que le fongicide Decree est plus efficace que les autres pour chacune des vari\u00e9t\u00e9s de la tomate - Trust, Tricia et Clarence - lorsqu'il est appliqu\u00e9 avec un s\u00e9cateur assorti d'un pulv\u00e9risateur. L'incidence et la gravit\u00e9 de l'infection, par le <i>Botrytis cinerea</i>, des plants trait\u00e9s avec Decree sont comparables \u00e0 celles d'un \u00e9chantillon de plants non inocul\u00e9s, en bonne sant\u00e9, alors qu'elles diff\u00e8rent consid\u00e9rablement des controls inocul\u00e9s. Aucun des autres fongicides appliqu\u00e9s \u00e0 l'aide d'un s\u00e9cateur assorti d'un pulv\u00e9risateur n'a diminu\u00e9 de mani\u00e8re significative l'incidence de la pourriture grise par rapport au control inocul\u00e9. Cela signifie que l'application de Decree, au moyen d'un s\u00e9cateur assorti d'un pulv\u00e9risateur, directement sur les l\u00e9sions subies par les feuilles de la tomate au cours de la taille, peut diminuer consid\u00e9rablement l'incidence et la gravit\u00e9 de la maladie.</p>\n \n\r\n    "
    }
}