{
    "dcr_id": "1537290667429",
    "title": {
        "en": "Molecular approach to insecticide resistance development and monitoring in potato insect pests",
        "fr": "\u00c9laboration d'une approche mol\u00e9culaire pour l'acquisition de la r\u00e9sistance aux insecticides et la surveillance des insectes ravageurs de la pomme de terre"
    },
    "modified": "2018-10-12",
    "issued": "2018-10-12",
    "templatetype": "content page 1 column",
    "page_type": "0",
    "node_id": "1535122427752",
    "dc_date_created": "2018-10-12",
    "managing_branch": "PAB",
    "parent_node_id": "",
    "short_title": "",
    "exturl": "",
    "teamsite_location": {
        "en": "/default/main/AAFC-AAC/Internet-Internet/Group-Ensemble/ProgServ-ProgServ/WORKAREA/ProgServ-ProgServ/templatedata/comm-comm/gene-gene/data/09/prr03-460_1537290667429_en",
        "fr": "/default/main/AAFC-AAC/Internet-Internet/Group-Ensemble/ProgServ-ProgServ/WORKAREA/ProgServ-ProgServ/templatedata/comm-comm/gene-gene/data/09/prr03-460_1537290667429_fr"
    },
    "type_name": "comm-comm/gene-gene",
    "has_dcr_id": true,
    "label": {
        "en": "Molecular approach to insecticide resistance development and monitoring in potato insect pests",
        "fr": "\u00c9laboration d'une approche mol\u00e9culaire pour l'acquisition de la r\u00e9sistance aux insecticides et la surveillance des insectes ravageurs de la pomme de terre"
    },
    "breadcrumb": {
        "en": "Molecular approach to insecticide resistance development and monitoring in potato insect pests",
        "fr": "\u00c9laboration d'une approche mol\u00e9culaire pour l'acquisition de la r\u00e9sistance aux insecticides et la surveillance des insectes ravageurs de la pomme de terre"
    },
    "layout_name": "content page 1 column",
    "lang": "en",
    "refaire": false,
    "meta": {
        "viewport": {
            "en": "width=device-width,initial-scale=1",
            "fr": "width=device-width, initial-scale=1"
        },
        "issued": {
            "en": "2018-10-12",
            "fr": "2018-10-12"
        },
        "modified": {
            "en": "2018-10-12",
            "fr": "2018-10-12"
        },
        "format": {
            "en": "text/html",
            "fr": "text/html"
        },
        "title": {
            "en": "Molecular approach to insecticide resistance development and monitoring in potato insect pests",
            "fr": "\u00c9laboration d'une approche mol\u00e9culaire pour l'acquisition de la r\u00e9sistance aux insecticides et la surveillance des insectes ravageurs de la pomme de terre"
        },
        "subject": {
            "en": "technology transfer;architectural heritage;soil assessement",
            "fr": "gouvernement f\u00e9d\u00e9ral;s\u00e9curit\u00e9 alimentaire;\u00e9coAgriculture"
        },
        "dcterms:subject": {
            "en": "statistics;architectural heritage;architecture",
            "fr": "terre agricole;m\u00e9dicament;commerce ext\u00e9rieur"
        },
        "description": {
            "en": "Alternative Formats. International Standard Serial Number: 2292-1524. Sub-Program 2.1.6: Federal-Provincial-Territorial Cost-shared Environment. Agriculture and Agri-Food Canada provides leadership in the growth and development of a competitive, innovative and sustainable Canadian agriculture and agri-food sector.Responsibilities.",
            "fr": "PRR-RRP Programme de r\u00e9duction des risques li\u00e9s aux pesticides Biopesticides Biopesticides. Au Canada, on reconnait trois types de produits comme \u00e9tant des biopesticides: les produits microbiens, les s\u00e9miochimiques, et les produits non conventionnels.Les produits microbiens. Ainsi, on se sert du vinaigre pour \u00e9liminer certaines mauvaises herbes, et de l\u2019huile min\u00e9rale et du sucre en poudre pour lutter contre les acariens."
        },
        "language": {
            "en": "eng",
            "fr": "fra"
        },
        "keywords": {
            "en": "Oomycete;mildew;Pseudoperonospora cubensis",
            "fr": "arr\u00e9rages;Virement;Tr\u00e9sor.\u00c9tat"
        },
        "audience": {
            "en": "gcaudience",
            "fr": "gcaudience"
        },
        "type": {
            "en": "sound",
            "fr": "mat\u00e9riel didactique"
        },
        "creator": {
            "en": "Agriculture and Agri-Food Canada;Government of Canada",
            "fr": "Agriculture et Agroalimentaire Canada;Gouvernement du Canada"
        },
        "spatial": {
            "en": "gcregions",
            "fr": "gcregions"
        },
        "service": {
            "en": "AAFC-AAC",
            "fr": "AAFC-AAC"
        },
        "accessRights": {
            "en": "2",
            "fr": "2"
        },
        "legalName": {
            "en": "agriculture_and_agri_food_canada",
            "fr": "agriculture_et_agroalimentaire_canada"
        },
        "areaServed": {
            "en": "Canada",
            "fr": "Canada"
        }
    },
    "h1": {
        "en": "Molecular approach to insecticide resistance development and monitoring in potato insect pests",
        "fr": "\u00c9laboration d'une approche mol\u00e9culaire pour l'acquisition de la r\u00e9sistance aux insecticides et la surveillance des insectes ravageurs de la pomme de terre"
    },
    "js": {
        "en": "",
        "fr": ""
    },
    "body": {
        "en": "\r\n    \n<h2>Project code: PRR03-460</h2>\n\n<h3>Project Lead</h3>\n<p><b>Yvan Pelletier</b> - Agriculture and Agri-Food Canada</p>\n\n<h3>Objective</h3>\n\n<p><b>To develop a molecular diagnostic tool which will allow potato producers (through an agricultural pest monitoring service) to track resistance to insecticides in their fields</b></p>\n \n<h3>Summary of Results</h3>\n\n<p>Across North America, including the Canadian Atlantic provinces, instances of potato insect pests which have become resistant to synthetic pesticides have been documented. The failure of an insecticide to control a pest can cause significant economic losses for potato producers and result in unnecessary loading of pesticides into the environment; therefore, resistance management is an important aspect of any pesticide risk reduction strategy. The only test available currently to gauge the level of resistance in a pest population must be conducted immediately prior to the normal spray date, by which time the grower has already purchased pest control products. It is thus of little practical help to the farmer.</p>\n<p>Because the most common mechanisms of resistance development come about through genetic point mutations, a <abbr title=\"Polymerase Chain Reaction\">PCR</abbr>-based molecular approach was used to analyze pest population <abbr title=\"Deoxyribonucleic Acid\">DNA</abbr> for changes (mutations) to genes known to be involved in insecticide detoxification or alteration of insecticide target sites. Examples of some of these genes are: cytochrome P450, <span class=\"nowrap\">glutathione-S-transferase</span>, esterase, and nicotinic acetylcholine receptor.</p>\n<p>A new method to monitor the development of resistance in pest populations was developed based on this molecular approach. Further validation of this resistance monitoring tool is underway, and a commercial partner to develop the tool is being sought. At the same time, the design of resistance management strategies has been advanced by the development of a <abbr title=\"Deoxyribonucleic Acid\">DNA</abbr> array tool which can be used by researchers to aid in discovery of insecticide resistance genes.</p>\n\n<p>Both of these advances should improve resistance management at the field level, through improved and timely monitoring of pest populations to ensure producers do not use ineffective insecticides in their operations, and through discovery of new insecticide resistance genes for incorporation into monitoring tools in the future.</p>\n\n<p>For more information, please contact <a href=\"mailto:yvan.pelletier@agr.gc.ca\">Dr. Yvan Pelletier</a> at the Potato Research Centre, <abbr title=\"Agriculture and Agri-Food Canada\">AAFC</abbr>, Fredericton, New Brunswick.</p>\n \n\r\n    ",
        "fr": "\r\n     \n<h2>Code de projet : PRR03-460</h2>\n \n<h3>Chef de projet</h3>\n<p><b>Yvan Pelletier</b> -  Agriculture et Agroalimentaire Canada</p>\n \n<h3>Objectif</h3>\n\n<p><b>Concevoir un outil de diagnostic mol\u00e9culaire qui permet aux producteurs de pommes de terre de suivre la r\u00e9sistance aux insecticides dans leurs champs (au moyen d'un service de surveillance des populations d'organismes nuisibles en agriculture)</b></p>\n \n<h3>Sommaire de r\u00e9sultats</h3>\n\n<p>Partout en Am\u00e9rique du Nord, y compris dans les provinces de l'Atlantique, des cas d'insectes ravageurs de la pomme de terre ayant acquis une r\u00e9sistance aux pesticides synth\u00e9tiques ont \u00e9t\u00e9 document\u00e9s. L'inefficacit\u00e9 d'un produit \u00e0 combattre un ravageur peut causer des pertes \u00e9conomiques consid\u00e9rables pour les producteurs de pommes de terre et se traduire par une charge inutile de pesticides dans l'environnement; par cons\u00e9quent, la gestion de la r\u00e9sistance est un aspect important de toute strat\u00e9gie de r\u00e9duction des risques li\u00e9s aux pesticides. Comme le seul test actuellement offert pour mesurer le degr\u00e9 de r\u00e9sistance dans une population de ravageurs doit \u00eatre effectu\u00e9 imm\u00e9diatement avant la date d'\u00e9pandage normale - auquel temps le producteur a d\u00e9j\u00e0 achet\u00e9 ses produits de lutte contre les organismes nuisibles - cette fa\u00e7on de proc\u00e9der n'aide gu\u00e8re l'agriculteur.</p>\n\n<p>Compte tenu que les m\u00e9canismes les plus courants d'apparition d'une r\u00e9sistance sont attribuables \u00e0 des mutations ponctuelles, une approche mol\u00e9culaire fond\u00e9e sur la <abbr title=\"Polymerase Chain Reaction\" lang=\"en\">PCR</abbr> a \u00e9t\u00e9 utilis\u00e9e pour analyser l'<abbr title=\"Acide D\u00e9soxyribonucl\u00e9ique\">ADN</abbr> des populations de ravageurs et identifier les alt\u00e9rations des g\u00e8nes (mutations) connus pour leur r\u00f4le dans la d\u00e9toxification des insecticides ou l'alt\u00e9ration des sites cibles des insecticides. Parmi ces g\u00e8nes figurant\u00a0: le cytochrome P450, le <span class=\"nowrap\">glutathion-S-transf\u00e9rase</span>, l'est\u00e9rase et le r\u00e9cepteur de l'ac\u00e9tylcholine nicotinique.</p>\n\n<p>On a \u00e9labor\u00e9 une nouvelle m\u00e9thode fond\u00e9e sur cette approche mol\u00e9culaire pour surveiller l'apparition de la r\u00e9sistance chez les populations de ravageurs. Actuellement, on effectue d'autres tests de validation de l'outil de surveillance et on recherche un partenaire commercial pour mettre au point l'outil. Parall\u00e8lement, des progr\u00e8s ont \u00e9t\u00e9 accomplis sur le plan de l'\u00e9laboration de strat\u00e9gies de gestion de la r\u00e9sistance gr\u00e2ce \u00e0 l'\u00e9laboration d'un outil de diagnostic (puce \u00e0 <abbr title=\"Acide D\u00e9soxyribonucl\u00e9ique\">ADN</abbr>) qui peut \u00eatre utilis\u00e9 par les chercheurs pour les aider \u00e0 d\u00e9couvrir des g\u00e8nes de r\u00e9sistance aux insecticides.</p>\n\n<p>Ces deux perc\u00e9es devraient am\u00e9liorer la gestion de la r\u00e9sistance sur le terrain, par une surveillance am\u00e9lior\u00e9e et opportune des populations de ravageurs afin de veiller \u00e0 ce que les producteurs n'utilisent pas d'insecticides inefficaces dans le cadre de leurs activit\u00e9s et par la d\u00e9couverte de nouveaux g\u00e8nes r\u00e9sistant aux insecticides \u00e0 int\u00e9grer, \u00e0 l'avenir, dans les outils de surveillance.</p>\n\n<p>Pour obtenir de plus amples renseignements, veuillez communiquer avec <a href=\"mailto:yvan.pelletier@agr.gc.ca\">Yvan Pelletier</a> au Centre de recherches sur la pomme de terre d'<abbr title=\"Agriculture et Agroalimentaire Canada\">AAC</abbr>, \u00e0 Fredericton, au Nouveau-Brunswick.</p>\n \n\r\n    "
    }
}