{
    "dcr_id": "1537391478806",
    "title": {
        "en": "Management of the European apple sawfly using a parasitic wasp ",
        "fr": "Lutte dirig\u00e9e contre l\u2019hoplocampe du pommier (Hoplocampa testudinea) au moyen d\u2019une gu\u00eape parasite (Lathrolestes ensator), au Canada "
    },
    "modified": "2018-10-12",
    "issued": "2018-10-12",
    "templatetype": "content page 1 column",
    "page_type": "0",
    "node_id": "1535122427752",
    "dc_date_created": "2018-10-12",
    "managing_branch": "PAB",
    "parent_node_id": "",
    "short_title": "",
    "exturl": "",
    "teamsite_location": {
        "en": "/default/main/AAFC-AAC/Internet-Internet/Group-Ensemble/ProgServ-ProgServ/WORKAREA/ProgServ-ProgServ/templatedata/comm-comm/gene-gene/data/09/prr10-060_1537391478806_en",
        "fr": "/default/main/AAFC-AAC/Internet-Internet/Group-Ensemble/ProgServ-ProgServ/WORKAREA/ProgServ-ProgServ/templatedata/comm-comm/gene-gene/data/09/prr10-060_1537391478806_fr"
    },
    "type_name": "comm-comm/gene-gene",
    "has_dcr_id": true,
    "label": {
        "en": "Management of the European apple sawfly using a parasitic wasp ",
        "fr": "Lutte dirig\u00e9e contre l\u2019hoplocampe du pommier (Hoplocampa testudinea) au moyen d\u2019une gu\u00eape parasite (Lathrolestes ensator), au Canada "
    },
    "breadcrumb": {
        "en": "Management of the European apple sawfly using a parasitic wasp ",
        "fr": "Lutte dirig\u00e9e contre l\u2019hoplocampe du pommier (Hoplocampa testudinea) au moyen d\u2019une gu\u00eape parasite (Lathrolestes ensator), au Canada "
    },
    "layout_name": "content page 1 column",
    "lang": "en",
    "refaire": false,
    "meta": {
        "viewport": {
            "en": "width=device-width,initial-scale=1",
            "fr": "width=device-width, initial-scale=1"
        },
        "issued": {
            "en": "2018-10-12",
            "fr": "2018-10-12"
        },
        "modified": {
            "en": "2018-10-12",
            "fr": "2018-10-12"
        },
        "format": {
            "en": "text/html",
            "fr": "text/html"
        },
        "title": {
            "en": "Management of the European apple sawfly using a parasitic wasp ",
            "fr": "Lutte dirig\u00e9e contre l\u2019hoplocampe du pommier (Hoplocampa testudinea) au moyen d\u2019une gu\u00eape parasite (Lathrolestes ensator), au Canada "
        },
        "subject": {
            "en": "safflower;weed control;viral diseases",
            "fr": "semences-production;approvisionnement en eau;m\u00e9dia"
        },
        "dcterms:subject": {
            "en": "geomatics;pesticides;agriculture",
            "fr": "ressources p\u00e9dagogiques;engrais;m\u00e9dicament"
        },
        "description": {
            "en": "MUP-PUL Minor Use Pesticides Program submissions_and_registrations Minor Use Pesticides - Submissions. clopyralid. AAFC15-002. Submitted to PMRA*. Updated information since August\u00a016, 2017.Submission Fiscal Year: 2016-17 (Total 55). Crop. Rust, leaf and stem (Puccinia graminis); Rust (Puccinia sp.); Rust, stripe (Puccinia striiformis). Tilt 250E fungicide.",
            "fr": "Protection Durable des Cultures. R\u00e9sultats du Programme de r\u00e9duction des risques li\u00e9s aux pesticides. pr\u00e9sente une gamme \u00e9largie de techniques de LAI pour s\u2019attaquer \u00e0 l\u2019aleurode, un ravageur important de plusieurs cultures serricoles. Beauvaria bassiana. et. Isaria fumosorosea. (Figure 9).La troisi\u00e8me vid\u00e9o pr\u00e9sente des."
        },
        "language": {
            "en": "eng",
            "fr": "fra"
        },
        "keywords": {
            "en": null,
            "fr": "appropri\u00e9es.Cliquez;aleurodes.Au;ACCC"
        },
        "audience": {
            "en": "gcaudience",
            "fr": "gcaudience"
        },
        "type": {
            "en": "abstract",
            "fr": "liste de r\u00e9f\u00e9rence"
        },
        "creator": {
            "en": "Agriculture and Agri-Food Canada;Government of Canada",
            "fr": "Agriculture et Agroalimentaire Canada;Gouvernement du Canada"
        },
        "spatial": {
            "en": "gcregions",
            "fr": "gcregions"
        },
        "service": {
            "en": "AAFC-AAC",
            "fr": "AAFC-AAC"
        },
        "accessRights": {
            "en": "2",
            "fr": "2"
        },
        "legalName": {
            "en": "agriculture_and_agri_food_canada",
            "fr": "agriculture_et_agroalimentaire_canada"
        },
        "areaServed": {
            "en": "Canada",
            "fr": "Canada"
        }
    },
    "h1": {
        "en": "Management of the European apple sawfly using a parasitic wasp",
        "fr": "Lutte dirig\u00e9e contre l\u2019hoplocampe du pommier (Hoplocampa testudinea) au moyen d\u2019une gu\u00eape parasite (Lathrolestes ensator), au Canada"
    },
    "js": {
        "en": "",
        "fr": ""
    },
    "body": {
        "en": "\r\n    <h2>Project Code: PRR10-060</h2>\n<h3>Project Lead</h3>\n<p><b>Charles Vincent</b> - Agriculture and Agri-Food Canada</p>\n<h3>Objective</h3>\n<ul>\n<li>Determine the susceptibility of <i>Lathrolestes ensator</i> to pesticides commonly used in conventional apple orchards and establish its potential as a biological control agent.</li>\n<li>To disseminate the parasitoid into three minimally sprayed orchards where the European apple sawfly is established.</li>\n<li>To develop recommendations for the incorporation of <i>L. ensator</i> for the management of the European apple sawfly into orchard <abbr title=\"Integrated Pest Management\">Integrated Pest Management (IPM)</abbr> that supports the survival and activity of the parasitoid.</li>\n</ul>\n<h3>Summary of Results</h3>\n<h4>Background</h4>\n<p>The European apple sawfly, (<abbr title=\"European apple sawfly\">EAS</abbr>), is an insect pest accidentally introduced into North America in the late 1930\u2019s that has become established in southwestern Quebec, eastern Ontario, Nova Scotia and parts of New Brunswick. The larvae feed on apple fruit early in the season causing a ribbon-like scar on the fruit at harvest. The larvae may also bore into the core of the fruit and create a large exit hole plugged with frass. Fruit that have this secondary type of damage tend to drop in June. Larvae damage more than one fruit in a cluster. </p>\n<p>At the time of the initiation of this project, the <abbr title=\"European apple sawfly\">EAS</abbr> was managed by insecticide applications at pre-bloom to control other spring feeding insects and at post bloom by the timely application of the organophosphate insecticide azinphos-methyl (AZM). At the time, <abbr title=\"azinphos-methyl\">AZM</abbr> was the only product registered for <abbr title=\"European apple sawfly\">EAS</abbr> control and moreover, it was scheduled for phase-out by the end of 2012. With the impending phase-out of this material, there was a recognized need for alternative control products for both conventional and organic orchards. This project was initiated under the Agriculture and Agri-Food Canada (AAFC) <a href=\"?id=1535414450267\">National Strategy to reduce the risks from the use of organophosphate pesticides in pome fruit orchards</a>. </p>\n\n<p><i>Lathrolestes ensator</i>, an ichneumonid wasp parasitoid specific to the European apple sawfly, had been imported from Europe and released from 1995-1999. The parasitoid became established in minimally sprayed orchards at <abbr title=\"Agriculture and Agri-Food Canada \">AAFC</abbr> Frelighsburg, Quebec, and had been shown to provide as much as 64% larval parasitism of <abbr title=\"European apple sawfly\">EAS</abbr> populations. Similar to its host, <i>L. ensator</i> has one generation per year and has an obligatory diapause. Adult <i>L. ensator</i> emerge in June, shortly after the fruit set stage of apple. To establish its potential as a biological control agent, additional studies were required to determine the susceptibility of this parasitoid to insecticides used in conventional programs and how it could effectively fit into integrated pest management programs.</p>\n\n<h4>Approach</h4>\n\n<p>Two apple orchards at <abbr title=\"Agriculture and Agri-Food Canada \">AAFC</abbr> Frelighsburg, Quebec were used as sources of the parasitoid for distribution to other orchards and for the laboratory studies. The parasitoids were collected in apple fruitlets infested with parasitized <abbr title=\"European apple sawfly\">EAS</abbr> larvae. This is the most successful way to handle the parasitoid and results in a minimal mortality of the parasitoid during transfer activities and a synchronised emergence of the parasitoid with its host the following year.</p>\n\n<p>Laboratory testing to evaluate the susceptibility of the parasitoid to insecticides commonly used in conventional orchards was planned for years 2011 and 2012 of the study. In spring 2010, fruitlets showing secondary sawfly damage were collected from source orchards. The percent parasitism of the <abbr title=\"European apple sawfly\">EAS</abbr> in the fruitlets was determined by dissection to be up to 80%. Fruitlets were placed on sandy soil beneath trees in an unsprayed apple orchard at <abbr title=\"Agriculture and Agri-Food Canada \">AAFC</abbr>, Frelighsburg to allow the obligatory diapause of both host and parasitoid during the winter. In the spring of 2011, parasitized pupae were separated from the sandy soil by sifting and put on clean sand to allow emergence of <i>L. ensator</i> adults in a rearing room with a temperature regime simulating outside conditions. To test for susceptibility to insecticides, adults were to be collected upon emergence and placed in contact with dried residues of insecticides on inner surfaces of Petri dishes. Similar tests were planned for 2012, using fruitlet collections occurring in 2011.</p>\n\n<p>Fruitlets showing evidence of <abbr title=\"European apple sawfly\">EAS</abbr> infestation and with known rates of <abbr title=\"European apple sawfly\">EAS</abbr> parasitism (24-80%) were introduced into each of three recipient orchards in Kentville (Nova Scotia), Mountain (Ontario) and Magog (Quebec) in 2010. The recipient orchards had previously confirmed European apple sawfly infestations and were under pest management programs with minimal pesticide use. The establishment of the parasitoids was evaluated in 2011 through the dissection of 100 fruitlets from recipient orchards. Releases were planned for 2011 and 2012, however they were not conducted due to insufficient availability of <i>L. ensator</i>.</p>\n\n<h4>Results</h4>\n\n<p>In May 2010, successive freezing during the flowering of apple in Frelighsburg resulted in an unusually low fruit set. Dissections of fruitlets collected in 2010 and 2011 from the Mountain and Kentville orchards revealed zero or trace levels of <abbr title=\"European apple sawfly\">EAS</abbr> injury with no signs of the parasitoid. Although fruitlets from the Magog orchard were not examined, <abbr title=\"European apple sawfly\">EAS</abbr> was found to be present through the use of sticky traps. </p>\n\n<p>Harvesting of the <abbr title=\"European apple sawfly\">EAS</abbr> pupae for laboratory studies in the spring of 2011, yielded only 10 viable parasitoid pupae, which was insufficient for testing susceptibility to pesticides.</p>\n\n<p>Although fruit production was normal in spring 2011, the number of fruitlets showing evidence of <abbr title=\"European apple sawfly\">EAS</abbr> attack in source orchards, was abnormally low. The low levels of <abbr title=\"European apple sawfly\">EAS</abbr> in 2011 and corresponding low availability of the parasitoid, resulted in insufficient numbers of the parasitoid available for further distribution to recipient orchards in 2011 and for laboratory testing in 2012. As a result the project had to be prematurely terminated. While the source orchards at Frelighsburg are no longer available due to the closure of this <abbr title=\"Agriculture and Agri-Food Canada \">AAFC</abbr> site, in years previous to this project, the parasitoid had been introduced into other organic orchards in Quebec which might provide a source of the parasitoid for future studies with this promising biological control approach.</p>\n\n<p>Since this project was initiated, additional reduced risk pesticides have been registered for the management of <abbr title=\"European apple sawfly\">EAS</abbr>. Growers follow an integrated approach that includes monitoring and the use of action thresholds to determine the need and timing of sprays for this insect pest.</p>\n\n\n\r\n    ",
        "fr": "\r\n    <h2>Code de projet : PRR10-060</h2>\n<h3>Chef de projet</h3>\n\n<p><b>Charles Vincent</b> - Agriculture et Agroalimentaire Canada</p>\n\n<h3>Objectif</h3>\n\n<ul>\n<li>D\u00e9terminer si la gu\u00eape parasite <i>Lathrolestes ensator</i> est sensible aux pesticides couramment utilis\u00e9s dans les vergers conventionnels et \u00e9tablir son potentiel en tant qu\u2019agent de lutte biologique</li>\n<li>Diss\u00e9miner le parasito\u00efde dans trois vergers peu trait\u00e9s o\u00f9 la pr\u00e9sence de l\u2019hoplocampe du pommier est \u00e9tablie</li>\n<li>Formuler des recommandations pour l\u2019int\u00e9gration de <i>L. ensator</i> \u00e0 une lutte int\u00e9gr\u00e9e contre l\u2019hoplocampe du pommier dans les vergers qui favorise la survie et l\u2019activit\u00e9 du parasito\u00efde</li>\n</ul>\n\n<h3>Sommaire de r\u00e9sultats</h3>\n\n<h4>Contexte</h4>\n\n<p>L\u2019hoplocampe du pommier est un insecte ravageur qui a \u00e9t\u00e9 introduit par accident en Am\u00e9rique du Nord \u00e0 la fin des ann\u00e9es 1930. Il est maintenant bien \u00e9tabli dans le sud ouest du Qu\u00e9bec, dans l\u2019est de l\u2019Ontario, en Nouvelle\u00ad \u00c9cosse et dans certaines parties du Nouveau\u00adBrunswick. Ses larves se nourrissent dans les pommes t\u00f4t en saison, ce qui provoque la formation de cicatrices en forme de ruban sur les fruits \u00e0 la r\u00e9colte. Les larves peuvent aussi creuser des galeries jusqu\u2019au c\u0153ur de la pomme, et cr\u00e9er un grand trou de sortie o\u00f9 elles laissant des sciures et des excr\u00e9ments. Le fruit qui pr\u00e9sente ce second type de dommages tombe habituellement en juin. Les larves peuvent endommager plus d\u2019un fruit par grappe. </p>\n\n<p>Au d\u00e9but du pr\u00e9sent projet, la lutte contre l\u2019hoplocampe se faisait au moyen d\u2019applications d\u2019insecticides avant la floraison afin de contr\u00f4ler d\u2019autres insectes ravageurs printaniers, et par des applications ponctuelles apr\u00e8s la floraison d\u2019azinphos-m\u00e9thyl (AZM), un insecticide organophosphor\u00e9. \u00c0 l\u2019\u00e9poque, l\u2019<abbr title=\"azinphos-m\u00e9thyl\">AZM</abbr> \u00e9tait le seul produit homologu\u00e9 contre l\u2019hoplocampe, et son retrait du march\u00e9 \u00e9tait pr\u00e9vu pour la fin de 2012. Avec la perte attendue de ce produit, il fallait trouver d\u2019autres moyens de lutte utilisables dans les vergers conventionnels et biologiques. Le pr\u00e9sent projet a \u00e9t\u00e9 lanc\u00e9 dans le cadre de la <a href=\"?id=1535414450267\">Strat\u00e9gie nationale de r\u00e9duction des risques li\u00e9s \u00e0 l\u2019utilisation des pesticides organophosphor\u00e9s dans les vergers de fruits \u00e0 p\u00e9pins</a> d\u2019Agriculture et Agroalimentaire Canada (AAC).</p>\n\n<p>La gu\u00eape parasito\u00efde <i>Lathrolestes ensator</i> (famille des Ichneumonidae) s\u2019attaque sp\u00e9cifiquement \u00e0 l\u2019hoplocampe du pommier. Elle a \u00e9t\u00e9 import\u00e9e d\u2019Europe et rel\u00e2ch\u00e9e dans des vergers de 1995 \u00e0 1999. Elle a r\u00e9ussi \u00e0 s\u2019\u00e9tablir dans des vergers peu trait\u00e9s de la station de recherche d\u2019<abbr title=\"Agriculture et Agroalimentaire Canada\">AAC</abbr> \u00e0 Frelighsburg au Qu\u00e9bec. Selon les observations, elle peut parasiter jusqu\u2019\u00e0 64 % des larves des populations d\u2019hoplocampes. \u00c0 l\u2019instar de son h\u00f4te, la gu\u00eape est univoltine et passe par une diapause obligatoire. L\u2019\u00e9mergence des adultes se produit en juin, peu de temps apr\u00e8s le stade nouaison des pommiers. Pour \u00e9tablir le potentiel de la gu\u00eape en tant qu\u2019agent de lutte biologique, il fallait faire d\u2019autres \u00e9tudes pour d\u00e9terminer la sensibilit\u00e9 du parasito\u00efde aux insecticides utilis\u00e9s dans les programmes de lutte conventionnels et savoir de quelle mani\u00e8re on pourrait l\u2019int\u00e9grer efficacement aux programmes de lutte int\u00e9gr\u00e9e. </p>\n\n<h4>Approche</h4>\n\n<p>On s\u2019est approvisionn\u00e9 en parasito\u00efdes dans deux vergers sources de la station de recherche d\u2019<abbr title=\"Agriculture et Agroalimentaire Canada\">AAC</abbr> \u00e0 Frelighsburg (Qu\u00e9bec) pour implanter la gu\u00eape dans d\u2019autres vergers et r\u00e9aliser des \u00e9tudes en laboratoire. On a recueilli les parasito\u00efdes dans des jeunes pommes infest\u00e9es de larves d\u2019hoplocampes parasit\u00e9es. C\u2019\u00e9tait la meilleure fa\u00e7on de manipuler les parasito\u00efdes pour limiter leur mortalit\u00e9 durant leur transfert ainsi que pour synchroniser l\u2019\u00e9mergence du parasito\u00efde avec celle de son h\u00f4te l\u2019ann\u00e9e suivante. </p>\n\n<p>On devait effectuer des tests de laboratoire en 2011 et 2012 afin d\u2019\u00e9valuer la sensibilit\u00e9 du parasito\u00efde aux insecticides couramment utilis\u00e9s dans les vergers conventionnels de l\u2019\u00e9tude. Au printemps 2010, on a cueilli dans les vergers sources de jeunes fruits qui affichaient des dommages secondaires d\u2019hoplocampes. On a \u00e9valu\u00e9 le pourcentage d\u2019hoplocampes parasit\u00e9s dans les jeunes fruits en diss\u00e9quant jusqu\u2019\u00e0 80 % des fruits qui avaient \u00e9t\u00e9 plac\u00e9s sur un sol sableux sous les arbres d\u2019un verger non trait\u00e9 de la station de Frelighsburg afin de permettre la diapause obligatoire \u00e0 la fois de l\u2019h\u00f4te et du parasito\u00efde au cours de l\u2019hiver. Au printemps 2011, on a s\u00e9par\u00e9 les pupes parasit\u00e9es du sol sableux en les tamisant, puis on les a plac\u00e9es sur du sable propre dans une chambre d\u2019\u00e9levage dont les temp\u00e9ratures simulaient les conditions ext\u00e9rieures afin de permettre l\u2019\u00e9mergence des adultes de <i>L. ensator</i>. Pour les tests de sensibilit\u00e9 aux insecticides, on a collect\u00e9 des adultes jusqu\u2019\u00e0 leur \u00e9mergence et on les a mis en contact avec des r\u00e9sidus d\u2019insecticides s\u00e9ch\u00e9s \u00e0 la surface interne de bo\u00eetes de P\u00e9tri. On devait effectuer des essais semblables en 2012 au moyen de jeunes fruits de la production de 2011.</p>\n\n<p>En 2010, de jeunes fruits montrant des signes d\u2019infestation d\u2019hoplocampes, et dont les taux de parasitisme des hoplocampes \u00e9taient connus (de 24 \u00e0 80 %), ont \u00e9t\u00e9 introduits dans chacun des trois vergers receveurs \u00e0 Kentville (Nouvelle\u00ad\u00c9cosse), \u00e0 Mountain (Ontario) et \u00e0 Magog (Qu\u00e9bec). On avait pr\u00e9c\u00e9demment confirm\u00e9 que les vergers receveurs \u00e9taient infest\u00e9s d\u2019hoplocampes et soumis ces vergers \u00e0 des programmes de lutte \u00e0 doses r\u00e9duites de pesticides. En 2011, on a \u00e9valu\u00e9 l\u2019\u00e9tablissement des parasito\u00efdes en diss\u00e9quant 100 jeunes fruits issus des vergers receveurs. On devait aussi l\u00e2cher des insectes en 2011 et en 2012, mais on ne l\u2019a pas fait par manque de gu\u00eapes.</p>\n\n<h4>R\u00e9sultats</h4>\n\n<p>En mai 2010, la fructification des pommiers \u00e0 Frelighsburg a \u00e9t\u00e9 anormalement mauvaise en raison des gels successifs survenus au cours de la floraison. Lors des dissections de petits fruits ramass\u00e9s en 2010 et 2011 dans les vergers de Mountain et Kentville, on n\u2019a observ\u00e9 aucun dommage d\u2019hoplocampes ou seulement tr\u00e8s peu, ni la pr\u00e9sence de parasito\u00efdes. M\u00eame si on n\u2019a pas examin\u00e9 de petits fruits du verger de Magog, on sait que les hoplocampes y \u00e9taient pr\u00e9sents, car on en a trouv\u00e9 sur les pi\u00e8ges collants.</p>\n\n<p>La collecte de pupes d\u2019hoplocampes en pr\u00e9vision des \u00e9tudes en laboratoire au printemps de 2011 n\u2019a permis d\u2019obtenir que 10 pupes de parasito\u00efdes viables, nombre insuffisant pour la r\u00e9alisation d\u2019essais sur la sensibilit\u00e9 aux pesticides. </p>\n\n<p>Malgr\u00e9 une fructification normale au printemps 2011, le nombre de jeunes fruits affichant des dommages d\u2019hoplocampes dans les vergers sources a \u00e9t\u00e9 anormalement bas. Compte tenu des faibles populations d\u2019hoplocampes en 2011 et par cons\u00e9quent de gu\u00eapes parasito\u00efdes associ\u00e9es, on a manqu\u00e9 de gu\u00eapes parasito\u00efdes \u00e0 introduire dans les vergers receveurs en 2011 et pour la r\u00e9alisation d\u2019essais de laboratoire en 2012. Par cons\u00e9quent, on a d\u00fb mettre un terme au projet plus t\u00f4t que pr\u00e9vu. M\u00eame si la station de recherche d\u2019<abbr title=\"Agriculture et Agroalimentaire Canada\">AAC</abbr> \u00e0 Frelighsburg a \u00e9t\u00e9 ferm\u00e9e et que les vergers sources de ce site ne sont plus disponibles, d\u2019autres vergers biologiques du Qu\u00e9bec ont d\u00e9j\u00e0 ensemenc\u00e9 avec la gu\u00eape parasito\u00efde dans les ann\u00e9es ant\u00e9rieures au pr\u00e9sent projet, et pourraient servir de source de parasito\u00efdes dans de futures \u00e9tudes reli\u00e9es \u00e0 cette approche de lutte biologique prometteuse. </p>\n\n<p>Depuis le lancement du pr\u00e9sent projet, d\u2019autres pesticides \u00e0 risque r\u00e9duit ont \u00e9t\u00e9 homologu\u00e9s contre l\u2019hoplocampe du pommier. Les producteurs suivent un programme de lutte int\u00e9gr\u00e9 fond\u00e9 sur la surveillance et l\u2019utilisation de seuils d\u2019intervention qui les aide \u00e0 d\u00e9terminer la n\u00e9cessit\u00e9 d\u2019effectuer des traitements antiparasitaires et le moment de le faire.</p>\n\r\n    "
    }
}