{
    "dcr_id": "1538136734881",
    "title": {
        "en": "Notice of Intent by Secured Creditor",
        "fr": "Pr\u00e9avis de r\u00e9alisation par les cr\u00e9anciers garantis"
    },
    "modified": "2019-10-25",
    "issued": "2018-09-28",
    "templatetype": "content page 1 column",
    "page_type": "0",
    "node_id": "1536082487561",
    "dc_date_created": "2018-09-28",
    "managing_branch": "PAB",
    "parent_node_id": "",
    "short_title": "",
    "exturl": "",
    "teamsite_location": {
        "en": "/default/main/AAFC-AAC/Internet-Internet/Group-Ensemble/ProgServ-ProgServ/WORKAREA/ProgServ-ProgServ/templatedata/comm-comm/gene-gene/data/09/fdms_notice_secured_creditor_1538136734881_en",
        "fr": "/default/main/AAFC-AAC/Internet-Internet/Group-Ensemble/ProgServ-ProgServ/WORKAREA/ProgServ-ProgServ/templatedata/comm-comm/gene-gene/data/09/fdms_notice_secured_creditor_1538136734881_fr"
    },
    "type_name": "comm-comm/gene-gene",
    "has_dcr_id": true,
    "label": {
        "en": "Notice of Intent by Secured Creditor",
        "fr": "Pr\u00e9avis de r\u00e9alisation par les cr\u00e9anciers garantis"
    },
    "breadcrumb": {
        "en": "Notice of Intent by Secured Creditor",
        "fr": "Pr\u00e9avis de r\u00e9alisation par les cr\u00e9anciers garantis"
    },
    "layout_name": "content page 1 column",
    "lang": "en",
    "refaire": false,
    "meta": {
        "viewport": {
            "en": "width=device-width,initial-scale=1",
            "fr": "width=device-width, initial-scale=1"
        },
        "issued": {
            "en": "2018-09-28",
            "fr": "2018-09-28"
        },
        "modified": {
            "en": "2019-10-25",
            "fr": "2019-10-25"
        },
        "format": {
            "en": "text/html",
            "fr": "text/html"
        },
        "title": {
            "en": "Notice of Intent by Secured Creditor",
            "fr": "Pr\u00e9avis de r\u00e9alisation par les cr\u00e9anciers garantis"
        },
        "subject": {
            "en": "business risk management;land resources;soil management",
            "fr": "pommes de terre-producteurs;oeufs-production;syst\u00e8mes de culture"
        },
        "dcterms:subject": {
            "en": "government information;statistics;horticulture",
            "fr": "programme;m\u00e9dicament;apiculture"
        },
        "description": {
            "en": "Agriculture and Agri-Food Canada's (AAFC's) regional offices help the agriculture, food, fish and seafood sectors across Canada. Agriculture and Agri-Food Canada. 361 Pictou Road. Email:ATS-Bulletin-SEA-AB@agr.gc.ca. Telephone (English): 780-495-4141.",
            "fr": "Les bureaux r\u00e9gionaux d'Agriculture et Agroalimentaire Canada (AAC) aident les secteurs de l'agriculture, de l'alimentation, du poisson et des produits de la mer \u00e0 l'\u00e9chelle du Canada. T\u00e9l\u00e9copieur : 902-896-0100. ) : 780-495-4141. T\u00e9l\u00e9phone (Fran\u00e7ais) : 780-495-5525."
        },
        "language": {
            "en": "eng",
            "fr": "fra"
        },
        "keywords": {
            "en": "Docteur;Culinary",
            "fr": "couriel sur r\u00e9ception de votre demande.La;Andrea Dilworth"
        },
        "audience": {
            "en": "gcaudience",
            "fr": "gcaudience"
        },
        "type": {
            "en": "presentation",
            "fr": "description du programme ou du service"
        },
        "creator": {
            "en": "Agriculture and Agri-Food Canada;Government of Canada",
            "fr": "Agriculture et Agroalimentaire Canada;Gouvernement du Canada"
        },
        "spatial": {
            "en": "gcregions",
            "fr": "gcregions"
        },
        "service": {
            "en": "AAFC-AAC",
            "fr": "AAFC-AAC"
        },
        "accessRights": {
            "en": "2",
            "fr": "2"
        },
        "legalName": {
            "en": "agriculture_and_agri_food_canada",
            "fr": "agriculture_et_agroalimentaire_canada"
        },
        "areaServed": {
            "en": "Canada",
            "fr": "Canada"
        }
    },
    "h1": {
        "en": "Notice of Intent by Secured Creditor",
        "fr": "Pr\u00e9avis de r\u00e9alisation par les cr\u00e9anciers garantis"
    },
    "body": {
        "en": "\r\n     <section class=\"alert alert-info\">\n<p>You can use either the Web version below or the <a href=\"https://www.agr.gc.ca/resources/prod/doc/prod/pdf/a4805-eng.pdf\">PDF (81 KB)</a>.</p>\n<p>Please complete, print and send the form by mail or fax to your region or closest region.</p>\n</section>\n\n<h2>Locations</h2>\n\n<h3>Regional Office responsible for Alberta, British Columbia, Manitoba, Northwest Territories, Nunavut, Saskatchewan and Yukon</h3>\n\n<p>Agriculture and Agri-Food Canada<br>\nFarm Debt Mediation Service<br>\n301-2010 12<sup>th</sup> Avenue<br>\nRegina SK S4P 0M3</p>\n\n<p><b>Toll Free Number:</b> 1-866-452-5556<br>\n<b>Telephone:</b> 306-780-5544<br>\n<b>TTY:</b> 613-773-2600<br>\n<b>Fax:</b> 306-780-7353</p>\n\n<h3>Regional Office responsible for New Brunswick, Newfoundland and Labrador, Nova Scotia, Ontario, Prince Edward Island, and Quebec</h3>\n\n<p>Agriculture and Agri-Food Canada<br>\nFarm Debt Mediation Service<br>\nJules-Dallaire Complexe<br>\n2828 Laurier Blvd - Room 640<br>\nQuebec QC G1V 0B9</p>\n\n<p><b>Toll Free Number:</b> 1-866-452-5556<br>\n<b>Telephone (Atlantic and Quebec):</b> 418-649-8142<br>\n<b>Telephone (Ontario):</b> 613-773-0878<br>\n<b>TTY:</b> 613-773-2600<br>\n<b>Fax (Atlantic and Ontario):</b> 506-452-4975<br>\n<b>Fax (Quebec):</b> 418-648-2439</p>\n\n<form role=\"form\" method=\"get\" action=\"#\">\n\n  <fieldset>\n    <legend><strong>Protected B</strong></legend>\n\n    <p>As required under Section 21 of the <cite>Farm Debt Mediation Act</cite>, you are hereby notified that it is the intent of:</p>\n    \n     <div class=\"form-group\"> \n    <label for=\"nameofcreditor\">Name of creditor</label> <br>\n    <input size=\"70\" maxlength=\"70\" id=\"nameofcreditor\" class=\"form-control\">\n    </div>  \n     <div class=\"form-group\">\n<p>To enforce a remedy against the property of; or commence a proceeding, action, execution or other proceeding, judicial or extra-judicial, for the recovery of a debt, the realization of the security or the taking of the property of:</p>\n     <label for=\"familynameoffarmer\">Full name of farmer or business name</label><br>\n    <input size=\"70\" maxlength=\"70\" id=\"familynameoffarmer\" class=\"form-control\">\n    </div> \n  </fieldset>\n    <br>\n    \n    <fieldset>\n      <legend> Farmer's address</legend>\n       <div class=\"form-group\"> \n      <label for=\"addressapartmentno\">Unit/Suite/Apartment\n      </label><br>\n      <input size=\"10\" maxlength=\"10\" id=\"addressapartmentno\" class=\"form-control\">\n      </div> \n       <div class=\"form-group\"> \n      <label for=\"addressstreetno\">Street number\n      </label><br>\n      <input size=\"10\" maxlength=\"10\" id=\"addressstreetno\" class=\"form-control\">\n      </div> \n       <div class=\"form-group\"> \n      <label for=\"adressnumbersuffix\">Number suffix\n      </label><br>\n            <input size=\"10\" maxlength=\"10\" id=\"adressnumbersuffix\" class=\"form-control\">\n      </div>  \n       <div class=\"form-group\"> \n      <label for=\"addressstreetname\">Street name\n      </label><br>\n      <input size=\"50\" maxlength=\"50\" id=\"addressstreetname\" class=\"form-control\">\n      </div>  \n       <div class=\"form-group\"> \n      <label for=\"addressstreettype\">Street type\n      </label><br>\n      <input size=\"10\" maxlength=\"10\" id=\"addressstreettype\" class=\"form-control\">\n      </div>  \n       <div class=\"form-group\"> \n      <label for=\"addressstreetdirection\">Street direction\n      </label><br>\n      \n       <select id=\"addressstreetdirection\" class=\"form-control\">\n        <option selected> </option>\n        <option>E</option>\n        <option>N</option>\n        <option>NE</option>\n        <option>NW</option>\n        <option>S</option>\n        <option>SE</option>\n        <option>SW</option>\n        <option>W</option>\n      </select>\n      </div> \n      \n       <div class=\"form-group\"> \n      <label for=\"addresspobox\">PO Box or Route Number\n      </label><br>\n      <input size=\"10\" maxlength=\"10\" id=\"addresspobox\" class=\"form-control\">\n      </div> \n      \n       <div class=\"form-group\"> \n      <label for=\"addresscity\">Municipality (City, Town, etc.)\n      </label><br>\n      <input size=\"30\" maxlength=\"30\" id=\"addresscity\" class=\"form-control\">\n      </div>  \n      \n       <div class=\"form-group\"> \n      <label for=\"adresssprovince\">Province\n      </label><br>\n      \n      <select id=\"adresssprovince\" class=\"form-control\">\n        <option selected> </option>\n        <option>AB</option>\n        <option>BC</option>\n        <option>MB</option>\n        <option>NB</option>\n        <option>NB</option>\n        <option>NL</option>\n        <option>NS</option>\n        <option>NT</option>\n        <option>NU</option>\n        <option>ON</option>\n        <option>PE</option>\n        <option>QC</option>\n        <option>SK</option>\n        <option>YT</option>\n      </select>\n      </div>  \n      \n       <div class=\"form-group\"> \n      <label for=\"addresspostalcode\">Postal code\n      </label><br>\n      <input size=\"10\" maxlength=\"10\" id=\"addresspostalcode\" class=\"form-control\">\n      </div>\n </fieldset>     \n       <br>\n\n<table class=\"table table-bordered\">\n<thead>\n<tr>\n<th>The security being (type(s) of security):</th>\n<th>On (asset(s)):</th>\n</tr>\n</thead>\n<tbody>\n<tr>\n<td><label for=\"typeofsecurity1\">1.</label>\u00a0<input size=\"40\" maxlength=\"50\" id=\"typeofsecurity1\" class=\"form-inline\"></td>\n<td class=\"form-inline\"><label for=\"onasset1\">1.</label>\u00a0<input size=\"40\" maxlength=\"50\" id=\"onasset1\" class=\"form-inline\"></td>\n</tr>\n<tr>\n<td class=\"form-inline\"><label for=\"typeofsecurity2\">2.</label>\u00a0<input size=\"40\" maxlength=\"50\" id=\"typeofsecurity2\" class=\"form-inline\"></td>\n<td class=\"form-inline\"><label for=\"onasset2\">2.</label>\u00a0<input size=\"40\" maxlength=\"50\" id=\"onasset2\" class=\"form-inline\"></td>\n</tr>\n<tr>\n<td class=\"form-inline\"><label for=\"typeofsecurity3\">3.</label>\u00a0<input size=\"40\" maxlength=\"50\" id=\"typeofsecurity3\" class=\"form-inline\"></td>\n<td class=\"form-inline\"><label for=\"onasset3\">3.</label>\u00a0<input size=\"40\" maxlength=\"50\" id=\"onasset3\" class=\"form-inline\"></td>\n</tr>\n<tr>\n<td class=\"form-inline\"><label for=\"typeofsecurity4\">4.</label>\u00a0<input size=\"40\" maxlength=\"50\" id=\"typeofsecurity4\" class=\"form-inline\"></td>\n<td class=\"form-inline\"><label for=\"onasset4\">4.</label>\u00a0<input size=\"40\" maxlength=\"50\" id=\"onasset4\" class=\"form-inline\"></td>\n</tr>\n<tr>\n<td class=\"form-inline\"><label for=\"typeofsecurity5\">5.</label>\u00a0<input size=\"40\" maxlength=\"50\" id=\"typeofsecurity5\" class=\"form-inline\"></td>\n<td class=\"form-inline\"><label for=\"onasset5\">5.</label>\u00a0<input size=\"40\" maxlength=\"50\" id=\"onasset5\" class=\"form-inline\"></td>\n</tr>\n</tbody>\n</table>\n \n<div class=\"form-group\"> \n    <label for=\"recdate\">Dated this</label>\u00a0<input size=\"10\" maxlength=\"10\" id=\"recdate\" class=\"form-inline\">\u00a0\n     \n    <label for=\"recat\">day of</label>\n    <input size=\"10\" maxlength=\"10\" id=\"recat\" class=\"form-inline\">\n    \n    <label for=\"recat1\">, </label>\n    <input size=\"4\" maxlength=\"4\" id=\"recat1\" class=\"form-inline\"> \n    \n    <label for=\"recat2\"> at</label>\n<input size=\"10\" maxlength=\"10\" id=\"recat2\" class=\"form-inline\">\n        </div>\n \n   \n\n     <div class=\"form-group\"> \n<label for=\"securedname\">Name of secured creditor or authorized representative</label><br>\n<input class=\"form-control\" size=\"70\" maxlength=\"70\" id=\"securedname\">\n\n     \n    </div>\n\n<p class=\"mrgn-tp-md\"><b>Signature of secured creditor or authorized representative</b> (by hand only)</p>\n    <div class=\"mrgn-bttm-lg\" style=\"width:50%;height:50px;background-color:#f8f8f8;border-bottom:2px solid #888;\"></div>  \n \n \n <div class=\"form-group\">\n<label for=\"creditorphone\">Creditor's phone number and extension</label><br>\n    <input maxlength=\"20\" id=\"creditorphone\" class=\"form-control\">\n</div>\n\n <div class=\"form-group\">\n<label for=\"creditor_email\">Email address of secured creditor or authorized representative</label><br>\n    <input id=\"creditor_email\" class=\"form-control\">\n</div>\n\n <div class=\"form-group\">\n<label for=\"creditor_fax\">Creditor\u2019s fax number</label><br>\n    <input id=\"creditor_fax\" class=\"form-control\">\n</div>\n\n    <p>You are hereby notified of your right to make application under Section 5 of the <cite>Farm Debt Mediation Act</cite> for a review of your financial affairs, mediation with your creditors, and to obtain a stay of proceedings against this action. Provided you are:</p>\n    <ol class=\"lst-lwr-alph\">\n      <li>currently engaged in farming for commercial purposes; and</li>\n      <li>insolvent, meaning that you are:\n        <ul>\n          <li>unable to meet your obligations as they generally become due; or</li>\n          <li>have ceased paying your current obligations in the ordinary course of business as they generally become due; or</li>\n          <li>the aggregate of your property is not, at fair valuation, sufficient, or if disposed of at a fairly conducted sale under legal process would not be sufficient, to enable payment of all your obligations, due and accruing due.</li>\n        </ul>\n      </li>\n    </ol>\n    <p><strong>Please note:</strong> A secured creditor must wait 15 business days after this notice has been deemed served before beginning action to realize on their security. You may apply for mediation and a stay of proceedings at any time, before, during, or after the 15 business day period, by making an application to the Farm Debt Mediation Service.</p>\n    <p>The Farm Debt Mediation Service provides qualified farm financial counselors to conduct a financial review and to prepare a recovery plan for your mediation meeting. Qualified mediators are provided to help you and your creditors reach a mutually satisfactory arrangement.</p>\n    <p>Application forms and more information about the service can be obtained from:<br>\n      <b>Farm Debt Mediation Service</b><br>\n      1-866-452-5556</p>\n    <p>The information you provide on this document is collected by Agriculture and Agri-Food Canada under the authority of the <cite>Farm Debt Mediation Act</cite> for the purpose of facilitating financial arrangements between farmers and their creditors. Personal information will be protected under the provisions of the <cite>Privacy Act</cite> and will be stored in Personal Information Bank AAFC-PPU-227. Information may be accessible or protected as required under the provisions of the <cite>Access to Information Act</cite>.</p>\n    \n    \n<input type=\"button\" value=\"Print\" onclick=\"window.print();return false;\">\n<input type=\"submit\" value=\"Submit\" id=\"submit\" class=\"hidden\">\n</form>\n\r\n    ",
        "fr": "\r\n    <section class=\"alert alert-info\">\n<p>Vous pouvez utiliser la version <a href=\"https://www.agr.gc.ca/resources/prod/doc/prod/pdf/a4805v1-fra.pdf\">PDF (48 ko)</a> du formulaire ou le formulaire Web ci-dessous.</p>\n  <p>Veuillez remplir le formulaire, l'imprimer et l'envoyer par la poste ou par t\u00e9l\u00e9copieur au bureau le plus pr\u00e8s de chez vous. </p>\n</section>\n\n<h2>Bureaux</h2>\n\n<h3>Bureau r\u00e9gional responsable pour l'Alberta, la Colombie-Britannique, le Manitoba, le Nunavut, la Saskatchewan, les Territoires du Nord-Ouest et le Yukon</h3>\n\n<p>Agriculture et Agroalimentaire Canada<br>\nService de m\u00e9diation en mati\u00e8re d'endettement agricole<br>\n301-2010, 12<sup>e</sup> avenue<br>\nRegina, SK<br>\nS4P 0M3</p>\n\n<p><b>Sans frais d'interurbain\u00a0:</b> 1-866-452-5556<br>\n<b>Num\u00e9ro de t\u00e9l\u00e9phone\u00a0:</b> 306-780-5544<br>\n<b>ATS\u00a0:</b> 613-773-2600<br>\n<b>T\u00e9l\u00e9copieur\u00a0:</b> 306-780-7353</p>\n\n<h3>Bureau r\u00e9gional responsable pour l'\u00cele-du-Prince-\u00c9douard, le Nouveau-Brunswick, la Nouvelle-\u00c9cosse, l\u2019Ontario, le Qu\u00e9bec, et Terre-Neuve-et-Labrador</h3>\n\n<p>Agriculture et Agroalimentaire Canada<br>\nService de m\u00e9diation en mati\u00e8re d'endettement agricole<br>\nComplexe Jules-Dallaire<br>\n2828 boulevard Laurier - local 640<br>\nQu\u00e9bec QC G1V 0B9</p>\n\n<p><b>Sans frais d'interurbain\u00a0:</b> 1-866-452-5556<br>\n<b>Num\u00e9ro de t\u00e9l\u00e9phone (Atlantique et Qu\u00e9bec)\u00a0:</b> 418-649-8142<br>\n<b>Num\u00e9ro de t\u00e9l\u00e9phone (Ontario)\u00a0:</b> 613-773-0878<br>\n<b>ATS\u00a0:</b> 613-773-2600<br>\n<b>T\u00e9l\u00e9copieur (Atlantique et Ontario)\u00a0:</b> 506-452-4975<br>\n<b>T\u00e9l\u00e9copieur (Qu\u00e9bec)\u00a0:</b> 418-648-2439</p>\n\n\n  \n<form role=\"form\" method=\"get\" action=\"#\">\n\n  <fieldset>\n    <legend><strong>Prot\u00e9g\u00e9 B</strong></legend>\n    \n    <p>Conform\u00e9ment \u00e0 l'article 21 de la <cite>Loi sur la m\u00e9diation en mati\u00e8re d'endettement agricole</cite>, vous \u00eates, par la pr\u00e9sente, avis\u00e9 qu'il est dans l'intention de :</p>\n    \n     <div class=\"form-group\"> \n    <label for=\"nameofcreditor\">Nom du cr\u00e9ancier<br>\n    </label>\n    <input class=\"form-control\" size=\"70\" maxlength=\"70\" id=\"nameofcreditor\">\n    </div>\n    \n   <div class=\"form-group\"> \n<p>De se pr\u00e9valoir d'un recours contre les biens de; ou d'intenter toute action ou proc\u00e9dure, judiciaire ou extrajudiciaire, pour le recouvrement d'une dette, la r\u00e9alisation d'une suret\u00e9 ou la prise de possession d'un bien de\u00a0:</p>\n   <label for=\"familynameoffarmer\">Nom complet de l\u2019agriculteur(trice)  ou nom de l\u2019entreprise\n    </label><br>\n    <input class=\"form-control\" size=\"70\" maxlength=\"70\" id=\"familynameoffarmer\">\n     </div>\n   \n     </fieldset>\n     \n   <fieldset>  \n      <legend>Adresse de l'agriculteur(trice)</legend>\n\n       <div class=\"form-group\"> \n      <label for=\"addressapartmentno\">Pi\u00e8ce/bureau/appartement\n      </label><br>\n      <input class=\"form-control\" size=\"10\" maxlength=\"10\" id=\"addressapartmentno\">\n  </div>\n      <div class=\"form-group\"> \n      <label for=\"addressstreetno\">Num\u00e9ro civique\n      </label> <br>\n      <input class=\"form-control\" size=\"10\" maxlength=\"10\" id=\"addressstreetno\">\n        </div>\n        \n      <div class=\"form-group\">     \n      <label for=\"adressnumbersuffix\">Suffixe de num\u00e9ro<br>\n      </label><br>\n      <input class=\"form-control\" size=\"10\" maxlength=\"10\" id=\"adressnumbersuffix\">\n            </div>\n            \n      <div class=\"form-group\">         \n      <label for=\"addressstreetname\">Rue\n      </label><br>\n      <input class=\"form-control\" size=\"50\" maxlength=\"50\" id=\"addressstreetname\">\n        </div> \n        \n      <div class=\"form-group\">       \n      <label for=\"addressstreettype\">Type de rue\n      </label><br>\n      <input class=\"form-control\" size=\"10\" maxlength=\"10\" id=\"addressstreettype\">\n      </div>\n      \n   <div class=\"form-group\">       \n      <label for=\"addressstreetdirection\">Direction de la rue\n      </label>\n     \n   \n      <select id=\"addressstreetdirection\" class=\"form-control\">\n        <option selected> </option>\n        <option>E</option>\n        <option>N</option>\n        <option>NE</option>\n        <option>NO</option>\n        <option>S</option>\n        <option>SE</option>\n        <option>SO</option>\n        <option>O</option>\n      </select>\n      </div>\n\n   \n    <div class=\"form-group\">    \n      <label for=\"addresspobox\">BP ou num\u00e9ro de route\n      </label><br>\n      <input class=\"form-control\" size=\"10\" maxlength=\"10\" id=\"addresspobox\">\n      </div>\n          \n            \n       <div class=\"form-group\"> \n      <label for=\"addresscity\">Municipalit\u00e9 (ville, village, etc.)\n      </label><br>\n      <input class=\"form-control\" size=\"30\" maxlength=\"30\" id=\"addresscity\">\n      </div>\n      \t\t\n            \n      <div class=\"form-group\">        \n      <label for=\"adresssprovince\">Province\n      </label><br>\n    \n      <select id=\"adresssprovince\" class=\"form-control\">\n        <option selected> </option>\n        <option>AB</option>\n        <option>BC</option>\n        <option>MB</option>\n        <option>NB</option>\n        <option>NB</option>\n        <option>NL</option>\n        <option>NS</option>\n        <option>NT</option>\n        <option>NU</option>\n        <option>ON</option>\n        <option>PE</option>\n        <option>QC</option>\n        <option>SK</option>\n        <option>YT</option>\n      </select>\n     \n    </div> \n \n    <div class=\"form-group\"> \n      <label for=\"addresspostalcode\">Code postal\n      </label><br>\n      <input class=\"form-control\" size=\"10\" maxlength=\"10\" id=\"addresspostalcode\">\n      </div>\n  </fieldset>\n      \n <br>\n\n<table class=\"table table-bordered\">\n<thead>\n<tr>\n<th>La s\u00fbret\u00e9 qui est (genre(s) de s\u00fbret\u00e9) :</th>\n<th>Sur (bien(s)) :</th>\n</tr>\n</thead>\n<tbody>\n<tr>\n<td><label for=\"typeofsecurity1\">1.</label>\u00a0<input size=\"40\" maxlength=\"50\" id=\"typeofsecurity1\" class=\"form-inline\"></td>\n<td class=\"form-inline\"><label for=\"onasset1\">1.</label>\u00a0<input size=\"40\" maxlength=\"50\" id=\"onasset1\" class=\"form-inline\"></td>\n</tr>\n<tr>\n<td class=\"form-inline\"><label for=\"typeofsecurity2\">2.</label>\u00a0<input size=\"40\" maxlength=\"50\" id=\"typeofsecurity2\" class=\"form-inline\"></td>\n<td class=\"form-inline\"><label for=\"onasset2\">2.</label>\u00a0<input size=\"40\" maxlength=\"50\" id=\"onasset2\" class=\"form-inline\"></td>\n</tr>\n<tr>\n<td class=\"form-inline\"><label for=\"typeofsecurity3\">3.</label>\u00a0<input size=\"40\" maxlength=\"50\" id=\"typeofsecurity3\" class=\"form-inline\"></td>\n<td class=\"form-inline\"><label for=\"onasset3\">3.</label>\u00a0<input size=\"40\" maxlength=\"50\" id=\"onasset3\" class=\"form-inline\"></td>\n</tr>\n<tr>\n<td class=\"form-inline\"><label for=\"typeofsecurity4\">4.</label>\u00a0<input size=\"40\" maxlength=\"50\" id=\"typeofsecurity4\" class=\"form-inline\"></td>\n<td class=\"form-inline\"><label for=\"onasset4\">4.</label>\u00a0<input size=\"40\" maxlength=\"50\" id=\"onasset4\" class=\"form-inline\"></td>\n</tr>\n<tr>\n<td class=\"form-inline\"><label for=\"typeofsecurity5\">5.</label>\u00a0<input size=\"40\" maxlength=\"50\" id=\"typeofsecurity5\" class=\"form-inline\"></td>\n<td class=\"form-inline\"><label for=\"onasset5\">5.</label>\u00a0<input size=\"40\" maxlength=\"50\" id=\"onasset5\" class=\"form-inline\"></td>\n</tr>\n</tbody>\n</table>\n\n<div class=\"form-group\"> \n    <label for=\"recdate\">Dat\u00e9 ce</label>\u00a0<input size=\"10\" maxlength=\"10\" id=\"recdate\" class=\"form-inline\">\u00a0\n     \n    <label for=\"recat\">jour de </label>\n    <input size=\"10\" maxlength=\"10\" id=\"recat\" class=\"form-inline\">\n    \n    <label for=\"recat1\">, </label>\n    <input size=\"4\" maxlength=\"4\" id=\"recat1\" class=\"form-inline\"> \n    \n    <label for=\"recat2\"> \u00e0</label>\n<input size=\"10\" maxlength=\"10\" id=\"recat2\" class=\"form-inline\">\n        </div>\n\n    <div class=\"form-group\"> \n    <label for=\"creditorname\">Nom du cr\u00e9ancier ou du repr\u00e9sentant autoris\u00e9</label> <br>\n    <input class=\"form-control\" size=\"70\" maxlength=\"70\" id=\"creditorname\">\n     </div>\n \n \n   <p class=\"mrgn-tp-md\">Signature du cr\u00e9ancier garanti ou du repr\u00e9sentant autoris\u00e9 (\u00e0 la main seulement)</p>\n    <div class=\"mrgn-bttm-lg\" style=\"width:50%;height:50px;background-color:#f8f8f8;border-bottom:2px solid #888;\"></div>\n \n       <div class=\"form-group\">\n    <label for=\"creditorphone\">Num\u00e9ro de t\u00e9l\u00e9phone et poste du cr\u00e9ancier\n    </label><br>\n    <input maxlength=\"20\" id=\"creditorphone\" class=\"form-control\">\n    </div>\n\n    \n       <div class=\"form-group\">\n    <label for=\"creditor_email\">Adresse courriel du cr\u00e9ancier garanti ou du repr\u00e9sentant autoris\u00e9</label><br>\n    <input id=\"creditor_email\" class=\"form-control\">\n    </div>\n\n       <div class=\"form-group\">\n    <label for=\"creditor_fax\">Num\u00e9ro de t\u00e9l\u00e9copieur du cr\u00e9ancier</label><br>\n    <input id=\"creditor_fax\" class=\"form-control\">\n    </div>\n\n\n    <p>Vous \u00eates, par la pr\u00e9sente, avis\u00e9 de votre droit de pr\u00e9senter une demande en vertu de l'article 5 de la <cite>Loi sur la m\u00e9diation en mati\u00e8re d'endettement agricole</cite> en vue d'un examen de vos affaires financi\u00e8res, de la m\u00e9diation avec vos cr\u00e9anciers et de l'obtention d'une suspension des proc\u00e9dures contre cette action. Sous r\u00e9serve que vous \u00eates :</p>\n    <ol class=\"lst-lwr-alph\">\n      <li>actuellement engag\u00e9 en agriculture \u00e0 des fins commerciales;</li>\n      <li>insolvable, ce qui signifie :\n        <ul>\n          <li>que vous ne pouvez-vous acquitter de vos obligations au fur et \u00e0 mesure de leurs \u00e9ch\u00e9ances; ou</li>\n          <li>que vous ayez cess\u00e9 de vous acquitter de vos obligations courantes dans le cours ordinaire de vos affaires au fur et \u00e0 mesure de leurs \u00e9ch\u00e9ances; ou</li>\n          <li>que la totalit\u00e9 de vos biens n'est pas suffisante, d'apr\u00e8s une juste estimation, ou ne suffirait pas, s'il en \u00e9tait dispos\u00e9 lors d'une vente r\u00e9guli\u00e8rement effectu\u00e9e par autorit\u00e9 de justice, pour permettre l'acquittement de toutes vos obligations \u00e9chues ou \u00e0 \u00e9choir.</li>\n        </ul>\n      </li>\n    </ol>\n    <p><strong>Veuillez noter :</strong> Le cr\u00e9ancier garanti doit attendre 15 jours ouvrables apr\u00e8s que cet avis ait \u00e9t\u00e9 r\u00e9put\u00e9 avoir \u00e9t\u00e9 signifi\u00e9 pour prendre des mesures en vue de r\u00e9aliser la garantie. Vous pouvez demander une m\u00e9diation et une suspension des proc\u00e9dures en tout temps, c'est-\u00e0-dire avant, pendant ou apr\u00e8s les 15 jours ouvrables, en pr\u00e9sentant une demande en ce sens au Service de m\u00e9diation en mati\u00e8re d'endettement agricole.</p>\n    <p>Le Service de m\u00e9diation en mati\u00e8re d'endettement agricole offre les services de conseillers financiers comp\u00e9tents en agriculture qui peuvent mener un examen financier et pr\u00e9parer un plan de recouvrement en pr\u00e9vision de votre r\u00e9union de m\u00e9diation. Les services de m\u00e9diateurs comp\u00e9tents sont offerts pour vous aider ainsi que vos cr\u00e9anciers \u00e0 conclure un accord satisfaisant pour toutes les parties.</p>\n    <p>Vous pouvez obtenir les formulaires de demande et un compl\u00e9ment d'information sur le service aupr\u00e8s de :<br>\n      <b>Service de m\u00e9diation en mati\u00e8re d'endettement agricole </b><br>\n      1-866-452-5556</p>\n    <p>Les renseignements que vous fournissez dans le pr\u00e9sent document sont recueillis par Agriculture et Agroalimentaire Canada en vertu de la <cite>Loi sur la m\u00e9diation en mati\u00e8re d'endettement agricole</cite> afin de faciliter la conclusion d'arrangements financiers entre les agriculteurs(trices) et leurs cr\u00e9anciers. Les renseignements personnels seront prot\u00e9g\u00e9s en vertu de la <cite>Loi sur la protection des renseignements personnels</cite> et seront vers\u00e9s au Fichier de renseignements personnels AAC-PPU-227. Les renseignements peuvent \u00eatre accessibles ou prot\u00e9g\u00e9s selon ce que prescrit la <cite>Loi sur l'acc\u00e8s \u00e0 l'information.</cite></p>\n    \n   \n<input type=\"button\" value=\"Imprimer\" onclick=\"window.print();return false;\">\n<input type=\"submit\" value=\"Soumettre\" id=\"submit\" class=\"hidden\">\n    \n</form>\n\r\n    "
    },
    "js": {
        "en": "",
        "fr": ""
    },
    "mode_html": "no_editor_full"
}