{
    "dcr_id": "1541173474160",
    "title": {
        "en": "European Corn Borer Crusher for Potatoes",
        "fr": "Broyeur de pyrales du ma\u00efs dans les pommes de terre"
    },
    "modified": "2021-05-10",
    "issued": "2018-11-09",
    "templatetype": "content page 1 column",
    "page_type": "0",
    "node_id": "1534850060420",
    "dc_date_created": "2018-11-09",
    "managing_branch": "PAB",
    "parent_node_id": "",
    "short_title": "",
    "exturl": "",
    "teamsite_location": {
        "en": "/default/main/AAFC-AAC/Internet-Internet/Group-Ensemble/ProgServ-ProgServ/WORKAREA/ProgServ-ProgServ/templatedata/comm-comm/gene-gene/data/11/european_corn_crusher_potatoes_1541173474160_en",
        "fr": "/default/main/AAFC-AAC/Internet-Internet/Group-Ensemble/ProgServ-ProgServ/WORKAREA/ProgServ-ProgServ/templatedata/comm-comm/gene-gene/data/11/european_corn_crusher_potatoes_1541173474160_fr"
    },
    "type_name": "comm-comm/gene-gene",
    "has_dcr_id": true,
    "label": {
        "en": "European Corn Borer Crusher for Potatoes",
        "fr": "Broyeur de pyrales du ma\u00efs dans les pommes de terre"
    },
    "breadcrumb": {
        "en": "European Corn Borer Crusher for Potatoes",
        "fr": "Broyeur de pyrales du ma\u00efs dans les pommes de terre"
    },
    "layout_name": "content page 1 column",
    "lang": "en",
    "refaire": false,
    "meta": {
        "viewport": {
            "en": "width=device-width,initial-scale=1",
            "fr": "width=device-width, initial-scale=1"
        },
        "issued": {
            "en": "2018-11-09",
            "fr": "2018-11-09"
        },
        "modified": {
            "en": "2021-05-10",
            "fr": "2021-05-10"
        },
        "format": {
            "en": "text/html",
            "fr": "text/html"
        },
        "title": {
            "en": "European Corn Borer Crusher for Potatoes",
            "fr": "Broyeur de pyrales du ma\u00efs dans les pommes de terre"
        },
        "subject": {
            "en": "strawberries;air quality;soil assessement",
            "fr": "politique agricole;Gestion des risques de l'entreprise;coop\u00e9ratives"
        },
        "dcterms:subject": {
            "en": "soil;architectural heritage;architecture",
            "fr": "cultures;terre agricole;coop\u00e9rative"
        },
        "description": {
            "en": "Archived content. Archived content is provided for reference, research or recordkeeping purposes. Biology: symptoms. Apple scab is caused by the fungus. Better safe than sorry:Cultivar. For new orchards, choose tolerant or moderately susceptible cultivars (see Susceptibility of Apple Cultivars below).Pruning.",
            "fr": "\u00c9valuation des programmes des Initiatives strat\u00e9giques \u00e0 co\u00fbts partag\u00e9s de Cultivons l\u2019avenir\u00a02. 15 novembre 2017. F\u00e9d\u00e9ral-provincial-territorial. ETP. L\u2019analyse consolid\u00e9e de l\u2019efficience n\u2019entrait pas dans la port\u00e9e de l\u2019\u00e9valuation; toutefois, des exemples d\u2019efficience ont \u00e9t\u00e9 rep\u00e9r\u00e9s.Les programmes \u00e0 co\u00fbts partag\u00e9s de Cultivons l\u2019avenir\u00a02 offrent aux provinces et territoires une plus grande souplesse dans leurs choix de programmes; toutefois, les provinces et les territoires jugent qu\u2019un certain nombre de processus administratifs sont contraignants en ce qui a trait \u00e0 l\u2019attribution opportune de capital de financement.Les restrictions concernant la collecte de donn\u00e9es entravent la capacit\u00e9 d\u2019\u00e9valuer l\u2019incidence du programme.Les communications bilat\u00e9rales sont g\u00e9n\u00e9ralement efficaces."
        },
        "language": {
            "en": "eng",
            "fr": "fra"
        },
        "keywords": {
            "en": "Ascochyta;Reduced-risk Wireworm;Borer crusher",
            "fr": "messieurs Creel et Ruest;Jean-Jacques Ruest;Ogden Dale"
        },
        "audience": {
            "en": "gcaudience",
            "fr": "gcaudience"
        },
        "type": {
            "en": "media release",
            "fr": "foire aux questions"
        },
        "creator": {
            "en": "Agriculture and Agri-Food Canada;Government of Canada",
            "fr": "Agriculture et Agroalimentaire Canada;Gouvernement du Canada"
        },
        "spatial": {
            "en": "gcregions",
            "fr": "gcregions"
        },
        "service": {
            "en": "AAFC-AAC",
            "fr": "AAFC-AAC"
        },
        "accessRights": {
            "en": "2",
            "fr": "2"
        },
        "legalName": {
            "en": "agriculture_and_agri_food_canada",
            "fr": "agriculture_et_agroalimentaire_canada"
        },
        "areaServed": {
            "en": "Canada",
            "fr": "Canada"
        }
    },
    "h1": {
        "en": "European Corn Borer Crusher for Potatoes",
        "fr": "Broyeur de pyrales du ma\u00efs dans les pommes de terre"
    },
    "js": {
        "en": "",
        "fr": ""
    },
    "body": {
        "en": "\r\n    \n<h2>A Device to Control European Corn Borers in Potatoes</h2>\n<p>The European corn borer population has steadily increased over the past ten years and is now causing significant damage to potatoes in Prince Edward Island, New Brunswick, and Nova Scotia. Damage is also on the increase in Quebec. Severe infestations can result in yield reductions as corn borer larvae bore into the stem of the potato plants and feed on the tissue inside, restricting the flow of water and nutrients to the key parts of the growing plant. This insect is very difficult to control because once the larvae hatch and enter the stem they are protected from insecticide sprays.</p>\n<p>Agriculture and Agri-Food Canada researchers in Charlottetown have developed a mechanical device to crush potato stems and the larvae of the European corn borer hiding inside when the potatoes are being harvested. Potato growers can use the inexpensive crusher to reduce European corn borer populations and cut down their operating costs by reducing the need to spray their crops as frequently. This project is part of a national strategy to reduce the use of chemical pesticides and develop alternative, reduced-risk pest control options funded through the Pest Management Centre.</p>\n\n\n<h3>European Corn Borer</h3>\n<p>Adult moths emerge in early to mid-summer and lay their eggs on the stems and the underside of potato leaves. The eggs hatch within a week and the larvae bore into the stem, forming tunnels as they feed on the xylem and phloem tissue within the stem. The entrance holes and tunnels created by the larvae weaken the stem, making it susceptible to wind breakage, acting as entrance points for disease organisms, and also restricting the flow of nutrients. The primary method of controlling this pest is the application of a precisely-timed insecticide aimed at the hatching larvae. However, inclement weather often restricts the precise timing of insecticide applications, resulting in poor control. Once a larva has entered the stem, it is protected from insecticide sprays and is difficult to control. European corn borers overwinter as larvae within the discarded stems of the potato plant following harvest. Control of these overwintering individuals would decrease the colonizing population the following year.</p>\n\n\n\n<h3>'European Corn Borer Crusher'</h3>\n\n<figure>\n<p><b>Fig. 1</b>. Corn borer crusher.</p>\n<img src=\"https://www.agr.gc.ca/resources/prod/img/pmc/img/fig1_cbc.jpg\" alt=\"Description of this image follows.\">\n\n<figcaption>\n<p>Researchers at Agriculture and Agri-Food Canada in Charlottetown have developed a device called the 'ECB\u00a0crusher', to control overwintering European corn borer larvae (Figure\u00a01). The device attaches to the back of a harvester, allowing the grower to simultaneously harvest the tubers and control the European corn borer and eliminate the need to return to the field to control this pest.</p>\n</figcaption>\n</figure>\n<br>\n\n<figure>\n<p><b>Fig. 2</b>. 'ECB crusher' attached to the back of a potato harvester</p>\n<img src=\"https://www.agr.gc.ca/resources/prod/img/pmc/img/fig2_cbc.jpg\" alt=\"Description of this image follows.\">\n<figcaption>\n  <details>\n    <summary>Description - Fig. 2</summary>\n    <p>Views of the 'ECB Crusher' consisting of two brushes and two metal rollers attached just below the conveyer belt. Two heavy-duty springs at both ends of the roller keep the tension on the rollers and also allow the rollers to open if a rock happens to fall on them. Two motors, visible from behind the rollers, are connected to the hydraulic system of the tractor and keep the rollers turning. Finally a view of the ECB Crusher from the back where the crushed tubers come out from the rollers and are dropped into the field.</p>\n    </details>\n</figcaption>\n</figure>\n\n<p>The 'ECB Crusher' (Figure 2) consists of two brushes and two metal rollers attached just below the conveyer belt used to discard the potato stalks. Two heavy-duty springs at both ends of the roller keep the tension on the rollers and also allow the rollers to open if a rock happens to fall on them. Two motors, connected to the hydraulic system of the tractor, keep the rollers turning.</p>\n\n<figure>\n<p><b>Fig. 3</b>. Crushed European corn borer larvae.</p>\n<img src=\"https://www.agr.gc.ca/resources/prod/img/pmc/img/fig3_cbc.jpg\" alt=\"Description of this image precedes.\">\n</figure>\n\n<p>As the stalks fall off the belt, they are guided on to and pass through the two rollers before falling to the ground. The tension on the rollers is set to crush the stalks and, in the process, kill/crush the corn borer larvae inside the stalks (Figure\u00a03). A space between the brush and the belt would allow any rocks to fall to the ground, rocks being heavier than the stems, and the bristles of the brush pick up the stems and move them onto the rollers.</p>\n<p>The crusher was especially designed so that it could be built to fit different-sized harvesters. All the parts that are needed to build this device can easily be purchased in the length and size required to fit a particular harvester.</p>\n\n\n\n<h3>Test Results</h3>\n<p><b>Efficacy testing</b>: Field trials were conducted in Prince Edward Island on two varieties (cvs Russet Burbank and Kennebec) in 2005. Potato stems were crushed while tubers were harvested. The crushed stems were collected and taken back to the lab where they were split, and all crushed and uncrushed larvae were counted. Results showed between 80-88% of the larvae within the stems were killed (Table\u00a01). Several of the larvae that were not crushed and killed were found to be injured. Although some larvae were alive when the stems were crushed, they might not have survived through the winter months.</p>\n\n<table class=\"table table-bordered\">\n<caption class=\"text-left\"><b>Table 1. Percentage of crushed larvae found in stems that passed through the ECB Crusher</b>.</caption>\n<thead>\n<tr>\n<th scope=\"col\">Variety</th>\n<th scope=\"col\">Russet Burbank % <br>\n\tcrushed larvae</th>\n<th scope=\"col\">Kennebec %<br>\n\tcrushed larvae</th>\n</tr>\n</thead>\n<tbody>\n<tr>\n<td>Test 1</td>\n<td class=\"text-right\">79.8</td>\n<td class=\"text-right\">87.0</td>\n</tr>\n<tr>\n<td>Test 2</td>\n<td class=\"text-right\">81.3</td>\n<td class=\"text-right\">89.5</td>\n</tr>\n</tbody>\n</table>\n\n<p><b>Moth Emergence</b>: The efficacy of the crusher was also tested by determining how many ECB larvae survive the winter within crushed stems. When stems pass through the crusher they split open, giving greater exposure of any surviving larvae to predators and cold winter temperatures when compared to those larvae within intact stems. Crushed and uncrushed stems from 185 plants for cv. Russet Burbank and 200 plants for cv. Kennebec were collected and placed in the field over the winter months. In early June the crushed and uncrushed stems were collected and placed separately in field cages. The number of moths emerging from these stems was recorded. Results show emergence of 311 and 66 moths from the non-crushed stems, and 3 and 4 moths from the crushed stems, of Russet Burbank and Kennebec respectively. Thus, we found 99% mortality in the crushed Russet Burbank stems and 94% mortality in crushed Kennebec stems when compared to the uncrushed stems (Table\u00a02).</p>\n\n<table class=\"table table-bordered\">\n<caption class=\"text-left\"><b>Table 2.1 Number of moths emerging from crushed and non-crushed stems following overwintering in the field\u00a0- Russet Burban</b>.</caption>\n<thead>\n<tr>\n<th>Non-crushed stems<br>Males</th>\n<th>Non-crushed stems<br>Females</th>\n<th>Crushed stems<br>Males</th>\n<th>Crushed stems<br>Females</th>\n</tr>\n</thead>\n<tbody>\n<tr>\n<td class=\"text-right\">158</td>\n<td class=\"text-right\">153</td>\n<td class=\"text-right\">0</td>\n<td class=\"text-right\">3</td>\n</tr>\n<tr>\n<td class=\"text-right\">311</td>\n<td></td>\n<td class=\"text-right\">3</td>\n<td></td>\n</tr>\n</tbody>\n<tfoot>\n<tr>\n<td colspan=\"4\">99% mortality</td>\n</tr>\n</tfoot>\n</table>\n<br>\n\n<table class=\"table table-bordered\">\n<caption class=\"text-left\"><b>Table 2.2 Number of moths emerging from crushed and non-crushed stems following overwintering in the field\u00a0- Kennebe</b>.</caption>\n<thead>\n<tr>\n<th>Non-crushed stems<br>Males</th>\n<th>Non-crushed stems<br>Females</th>\n<th>Crushed stems<br>Males</th>\n<th>Crushed stems<br>Females</th>\n</tr>\n</thead>\n<tbody>\n<tr>\n<td class=\"text-right\">39</td>\n<td class=\"text-right\">27</td>\n<td class=\"text-right\">4</td>\n<td class=\"text-right\">0</td>\n</tr>\n<tr>\n<td class=\"text-right\">66</td>\n<td></td>\n<td class=\"text-right\">4</td>\n<td></td>\n</tr>\n</tbody>\n<tfoot>\n<tr>\n<td colspan=\"4\">94% mortality</td>\n</tr>\n</tfoot>\n</table>\n\n<h3>Conclusions</h3>\n<p>Based on the results obtained we can conclude that the crusher demonstrated a very high efficacy in controlling ECB larvae overwintering within the discarded potato stalks. The flexibility of the design of the crusher makes this device easy to build and attach to any harvester. It also allows a grower to harvest and control the corn borer simultaneously, thus eliminating the need for re-entry into the field to control this insect. Reducing overwintering populations would reduce the colonizing population for the following year, and thus help potato producers to reduce the number of spray applications and operating costs.</p>\n\n<h3>Acknowledgements</h3>\n<p>This work was supported by the Pest Management Centre of Agriculture and Agri-Food Canada, Pesticide Risk Reduction Program.</p>\n\n<p><b>For further information, contact</b>: Dr. Christine Noronha</p>\n\r\n    ",
        "fr": "\r\n    <h2>Appareil pour lutter contre la pyrale du ma\u00efs dans les pommes de terre</h2>\n<p>La population de pyrales du ma\u00efs a r\u00e9guli\u00e8rement augment\u00e9 au cours des dix derni\u00e8res ann\u00e9es et elle cause d\u00e9sormais des dommages consid\u00e9rables aux pommes de terre \u00e0 l'\u00cele-du-Prince-\u00c9douard, au Nouveau-Brunswick et en Nouvelle-\u00c9cosse. Les dommages augmentent \u00e9galement au Qu\u00e9bec. Les infestations graves peuvent provoquer la baisse des rendements, car les larves de pyrale du ma\u00efs percent la tige des plants de pomme de terre et se nourrissent du tissu interne, ce qui restreint le flux d'eau et de nutriments aux principales parties de la plante qui pousse. Il est tr\u00e8s difficile de lutter contre cet insecte, car, une fois que les larves \u00e9closent et p\u00e9n\u00e8trent dans la tige, elles sont prot\u00e9g\u00e9es contre la pulv\u00e9risation d'insecticides.</p>\n\n<p>Les chercheurs d'Agriculture et Agroalimentaire Canada, \u00e0 Charlottetown, ont con\u00e7u un appareil m\u00e9canique qui broie les tiges des plants de pomme de terre et les larves de pyrale du ma\u00efs qui s'y cachent lors de la r\u00e9colte des pommes de terre. Les producteurs de pommes de terre peuvent utiliser le broyeur peu on\u00e9reux pour faire baisser la population de pyrales du ma\u00efs et leurs co\u00fbts d'exploitation en r\u00e9duisant la n\u00e9cessit\u00e9 de pulv\u00e9riser leurs cultures aussi fr\u00e9quemment. Ce projet s'inscrit dans une strat\u00e9gie nationale visant \u00e0 r\u00e9duire l'utilisation de pesticides chimiques et \u00e0 \u00e9laborer des options de lutte dirig\u00e9e de rechange, qui pr\u00e9sentent moins de risques, cette strat\u00e9gie est financ\u00e9e par l'entremise du Centre de la lutte antiparasitaire.</p>\n\n\n<h3>Pyrale du ma\u00efs</h3>\n<p>Les adultes de la pyrale du ma\u00efs arrivent entre le d\u00e9but et le milieu de l'\u00e9t\u00e9 et pondent leurs oeufs sur les tiges et en dessous des feuilles des plants de pomme de terre. Les oeufs \u00e9closent au bout d'une semaine et, \u00e0 mesure qu'elles se nourrissent, les larves percent la tige en y faisant des tunnels. Les trous et les tunnels perc\u00e9s par les larves affaiblissent la tige qui peut \u00eatre bris\u00e9e par le vent, font office de points d'entr\u00e9e d'organismes pathog\u00e8nes et restreignent \u00e9galement le flux de nutriments. La principale m\u00e9thode de lutte contre cet organisme nuisible consiste \u00e0 appliquer \u00e0 un moment tr\u00e8s pr\u00e9cis un pesticide destin\u00e9 \u00e0 tuer les larves qui \u00e9closent. Toutefois, le temps d\u00e9favorable limite souvent l'application opportune de l'insecticide, ce qui ne permet pas d'\u00e9liminer un grand nombre de larves. D\u00e8s qu'une larve est entr\u00e9e dans la tige, elle est prot\u00e9g\u00e9e contre la pulv\u00e9risation d'insecticides et il est difficile de l'\u00e9liminer. Les pyrales du ma\u00efs passent l'hiver sous forme de larves dans les tiges des plants de pomme de terre que l'on jette apr\u00e8s la r\u00e9colte. La lutte contre ces larves d'hiver diminuerait la population colonisatrice l'ann\u00e9e suivante.</p>\n\n\n\n<h3>Broyeur de pyrales du ma\u00efs</h3>\n\n<figure>\n<p><b>Fig. 1</b>. Broyeur de pyrales du ma\u00efs.</p>\n<img src=\"https://www.agr.gc.ca/resources/prod/img/pmc/img/fig1_cbc.jpg\" alt=\"La description de cette image suit.\">\n<figcaption>\n<p>Les chercheurs d'Agriculture et Agroalimentaire Canada \u00e0 Charlottetown ont invent\u00e9 un appareil appel\u00e9 \u00ab\u00a0broyeur de pyrales du ma\u00efs\u00a0\u00bb, afin de lutter contre les larves d'hiver de l'insecte (figure\u00a01). Cet appareil se fixe \u00e0 l'arri\u00e8re de l'arracheuse de pommes de terre, permettant simultan\u00e9ment \u00e0 l'agriculteur de r\u00e9colter les tubercules, de tuer la pyrale du ma\u00efs et d'\u00e9liminer la n\u00e9cessit\u00e9 de labourer le champ afin de lutter contre cet organisme nuisible.</p>\n</figcaption>\n</figure>\n\n<figure>\n<p><b>Fig. 2</b>. Broyeur de pyrales du ma\u00efs fix\u00e9 \u00e0 l'arri\u00e8re d'une arracheuse de pommes de terre.</p>\n<img src=\"https://www.agr.gc.ca/resources/prod/img/pmc/img/fig2_cbc.jpg\" alt=\"La description de cette image suit.\">\n<figcaption>\n  <details>\n  \t<summary>Description - Fig. 2</summary>\n   \t<p>Vues du broyeur de pyrales du ma\u00efs, compos\u00e9 de deux brosses et de deux rouleaux m\u00e9talliques fix\u00e9s en dessous du transporteur \u00e0 courroie. Deux ressorts ultra r\u00e9sistants situ\u00e9s de chaque c\u00f4t\u00e9 des rouleaux maintiennent la tension entre ceux-ci et leur permettent de s'\u00e9carter si une roche tombe sur eux. Deux moteurs, visibles derri\u00e8re les rouleaux, sont branch\u00e9s au syst\u00e8me hydraulique du tracteur et font tourner les rouleaux. Pour finir, une vue arri\u00e8re du broyeur de pyrales du ma\u00efs, o\u00f9 les tiges broy\u00e9es tombent des rouleaux sur le sol.</p>\n  </details>\n</figcaption>\n</figure>\n\n<p>Le \u00ab\u00a0broyeur de pyrales du ma\u00efs\u00a0\u00bb (figure\u00a02) consiste en deux brosses et en deux rouleaux en m\u00e9tal fix\u00e9s juste en dessous du tapis roulant utilis\u00e9 pour jeter les tiges de plants de pomme de terre. Deux ressorts ultra r\u00e9sistants aux deux bouts des rouleaux maintiennent la tension entre eux et permettent \u00e0 ceux-ci de s'\u00e9carter si une roche tombe sur eux. Deux moteurs branch\u00e9s au syst\u00e8me hydraulique du tracteur font tourner les rouleaux.</p>\n\n<figure>\n<p><b>Fig. 3</b>. Pyrale du ma\u00efs \u00e9cras\u00e9e.</p>\n<img src=\"https://www.agr.gc.ca/resources/prod/img/pmc/img/fig3_cbc.jpg\" alt=\"La description de cette image pr\u00e9c\u00e9de.\">\n</figure>\n\n<p>Lorsque les tiges tombent du tapis roulant, elles sont orient\u00e9es vers les deux rouleaux et passent entre eux avant de tomber sur le sol. La tension entre les rouleaux est r\u00e9gl\u00e9e de fa\u00e7on \u00e0 broyer les tiges et, du m\u00eame coup, \u00e9craser ou tuer les larves de pyrale du ma\u00efs qui s'y trouvent (figure\u00a03). Un espace entre la brosse et le tapis roulant permet aux roches de tomber au sol, car elles sont plus lourdes que les tiges, et les poils de la brosse ramassent ces derni\u00e8res pour les orienter vers les rouleaux.</p>\n<p>Le broyeur a \u00e9t\u00e9 sp\u00e9cialement con\u00e7u pour pouvoir \u00eatre construit et fix\u00e9 \u00e0 des arracheuses de pommes de terre de diverses tailles. Toutes les pi\u00e8ces n\u00e9cessaires \u00e0 la construction de cet appareil peuvent \u00eatre facilement achet\u00e9es dans la longueur et la taille requises pour \u00eatre adapt\u00e9es \u00e0 ces arracheuses.</p>\n\n\n\n<h3>R\u00e9sultats des tests</h3>\n<p><b>Test de l'efficacit\u00e9</b>\u00a0: Des essais sur le terrain ont \u00e9t\u00e9 r\u00e9alis\u00e9s \u00e0 <span class=\"wrap-none\">l'\u00cele-du-Prince-\u00c9douard</span> sur deux vari\u00e9t\u00e9s de pomme de terre (soit la Russet Burbank et la Kennebec) en 2005. Les tiges des plants de pomme de terre ont \u00e9t\u00e9 broy\u00e9es pendant la r\u00e9colte des tubercules. Les tiges broy\u00e9es ont \u00e9t\u00e9 ramass\u00e9es et rapport\u00e9es au laboratoire o\u00f9 elles ont \u00e9t\u00e9 ouvertes en longueur. Ensuite, toutes les larves broy\u00e9es et non broy\u00e9es ont \u00e9t\u00e9 compt\u00e9es. Les r\u00e9sultats ont indiqu\u00e9 qu'entre 80 et 88\u00a0% des larves qui se trouvaient dans les tiges avaient \u00e9t\u00e9 tu\u00e9es (tableau\u00a01). On a constat\u00e9 que plusieurs des larves qui n'avaient pas \u00e9t\u00e9 broy\u00e9es et tu\u00e9es \u00e9taient bless\u00e9es. M\u00eame si quelques larves \u00e9taient vivantes lorsque les tiges ont \u00e9t\u00e9 broy\u00e9es, elles n'auraient peut-\u00eatre pas surv\u00e9cu \u00e0 l'hiver.</p>\n\n<table class=\"table table-bordered\">\n<caption class=\"text-left\"><b>Tableau\u00a01. Pourcentage de larves broy\u00e9es trouv\u00e9es dans les tiges pass\u00e9es dans le broyeur de pyrales du ma\u00efs</b></caption>\n<thead>\n<tr>\n<th scope=\"col\">Vari\u00e9t\u00e9</th>\n<th scope=\"col\">Russet Burbank\u00a0%<br>\n\tlarves broy\u00e9es</th>\n<th scope=\"col\">Kennebec\u00a0%<br>\n\tlarves broy\u00e9es</th>\n</tr>\n</thead>\n<tbody>\n<tr class=\"align-center\">\n<td>Test 1</td>\n<td class=\"text-right\">79,8</td>\n<td class=\"text-right\">87,0</td>\n</tr>\n<tr class=\"align-center\">\n<td>Test 2</td>\n<td class=\"text-right\">81,3</td>\n<td class=\"text-right\">89,5</td>\n</tr>\n</tbody>\n</table>\n\n<p><b>\u00c9mergence des adultes</b>\u00a0: L'efficacit\u00e9 du broyeur a \u00e9galement \u00e9t\u00e9 v\u00e9rifi\u00e9e en d\u00e9terminant le nombre de larves de pyrale du ma\u00efs qui survivent \u00e0 l'hiver dans les tiges broy\u00e9es. Lorsque les tiges passent entre les rouleaux du broyeur, elles se fendent, exposant ainsi davantage toute larve survivante aux pr\u00e9dateurs et aux temp\u00e9ratures froides hivernales, en comparaison avec les larves qui se trouvent dans des tiges intactes. Les tiges broy\u00e9es et non broy\u00e9es de 185 plants de Russet Burbank et de 200 plants de Kennebec ont \u00e9t\u00e9 ramass\u00e9es et plac\u00e9es dans le champ pendant les mois d'hiver. Au d\u00e9but de juin, elles ont \u00e9t\u00e9 plac\u00e9es s\u00e9par\u00e9ment dans des cages sur le terrain. Le nombre d'adultes \u00e9clos de ces tiges a \u00e9t\u00e9 not\u00e9. Les r\u00e9sultats pour les cvs. Russet Burbank et Kennebec indiquent que 311 et 66 adultes ont respectivement \u00e9merg\u00e9s des tiges non broy\u00e9es tandis que trois et quatre adultes ont \u00e9merg\u00e9s des tiges broy\u00e9es. Ainsi, nous avons constat\u00e9 un taux de mortalit\u00e9 de 99\u00a0% dans les tiges broy\u00e9es des plants de Russet Burbank et de 94\u00a0% dans celles des plants de Kennebec, en comparaison avec les tiges non broy\u00e9es (tableau\u00a02).</p>\n\n<table class=\"table table-bordered\">\n<caption class=\"align-left font-medium\"><b>Tableau\u00a02.1 Nombre d'adultes qui ont \u00e9merg\u00e9s des tiges broy\u00e9es et non broy\u00e9es apr\u00e8s avoir pass\u00e9 l'hiver dans le champ\u00a0- Russet Burbank</b></caption>\n<thead>\n<tr>\n<th>Tiges non broy\u00e9es<br>M\u00e2les</th>\n<th>Tiges non broy\u00e9es<br>Femelles</th>\n<th>Tiges broy\u00e9es<br>M\u00e2les</th>\n<th>Tiges broy\u00e9es<br>Femelles</th>\n</tr>\n</thead>\n<tbody>\n<tr class=\"align-center\">\n<td class=\"text-right\">158</td>\n<td class=\"text-right\">153</td>\n<td class=\"text-right\">0</td>\n<td class=\"text-right\">3</td>\n</tr>\n<tr class=\"align-center\">\n<td class=\"text-right\">311</td>\n<td></td>\n<td class=\"text-right\">3</td>\n<td></td>\n</tr>\n</tbody>\n<tfoot>\n<tr>\n<td headers=\"t101 t101a t101b t102 t102a t102b\" colspan=\"4\">Mortalit\u00e9\u00a0: 99\u00a0%</td>\n</tr>\n</tfoot>\n</table>\n\n<br>\n\n<table class=\"table table-bordered\">\n<caption class=\"align-left font-medium\"><b>Tableau\u00a02.2 Nombre d'adultes qui ont \u00e9merg\u00e9s des tiges broy\u00e9es et non broy\u00e9es apr\u00e8s avoir pass\u00e9 l'hiver dans le champ\u00a0- Kennebec</b></caption>\n<thead>\n<tr>\n<th>Tiges non broy\u00e9es<br>M\u00e2les</th>\n<th>Tiges non broy\u00e9es<br>Femelles</th>\n<th>Tiges broy\u00e9es<br>M\u00e2les</th>\n<th>Tiges broy\u00e9es<br>Femelles</th>\n</tr>\n</thead>\n<tbody>\n<tr class=\"align-center\">\n<td class=\"text-right\">39</td>\n<td class=\"text-right\">27</td>\n<td class=\"text-right\">4</td>\n<td class=\"text-right\">0</td>\n</tr>\n<tr class=\"align-center\">\n<td class=\"text-right\">66</td>\n<td></td>\n<td class=\"text-right\">4</td>\n<td></td>\n</tr>\n</tbody>\n<tfoot>\n<tr>\n<td headers=\"t201 t201a t201b t202 t202a t202b\" colspan=\"4\">Mortalit\u00e9\u00a0: 94\u00a0%</td>\n</tr>\n</tfoot>\n</table>\n\n<h3>Conclusions</h3>\n<p>En nous fondant sur les r\u00e9sultats obtenus, nous pouvons conclure que le broyeur s'est r\u00e9v\u00e9l\u00e9 tr\u00e8s efficace pour lutter contre les larves de pyrale du ma\u00efs qui passent l'hiver dans les tiges de plants de pomme de terre jet\u00e9es. Gr\u00e2ce \u00e0 la souplesse de sa conception, cet appareil peut \u00eatre facilement construit et fix\u00e9 \u00e0 n'importe quelle arracheuse de pommes de terre. En outre, il permet \u00e0 un producteur de r\u00e9colter ses pommes de terre et de lutter contre la pyrale du ma\u00efs simultan\u00e9ment, \u00e9liminant ainsi la n\u00e9cessit\u00e9 de travailler de nouveau le champ pour \u00e9liminer cet insecte. La r\u00e9duction des populations d'hiver r\u00e9duira la population colonisatrice l'ann\u00e9e suivante et aidera ainsi les producteurs de pommes de terre \u00e0 r\u00e9duire le nombre de pulv\u00e9risations insecticides et leurs frais d'exploitation.</p>\n\n<h3>Remerciements</h3>\n<p>Ce projet de recherche a re\u00e7u l'appui financier du Programme de r\u00e9duction des risques li\u00e9s aux pesticides du Centre de la lutte antiparasitaire d'Agriculture et Agroalimentaire Canada.</p>\n\n<p><b>Pour obtenir de plus amples renseignements, communiquez avec</b>\u00a0: Madame Christine Noronha, Ph. D.</p>\n\r\n    "
    }
}