{
    "dcr_id": "1542989913537",
    "title": {
        "en": "An Integrated Approach to Manage Ascochyta Blight in Chickpea",
        "fr": "Approche int\u00e9gr\u00e9e pour la lutte contre l'ascochytose du pois chiche"
    },
    "modified": "2021-05-10",
    "issued": "2018-11-28",
    "templatetype": "content page 1 column",
    "page_type": "0",
    "node_id": "1534850060420",
    "dc_date_created": "2018-11-28",
    "managing_branch": "PAB",
    "parent_node_id": "",
    "short_title": "",
    "exturl": "",
    "teamsite_location": {
        "en": "/default/main/AAFC-AAC/Internet-Internet/Group-Ensemble/ProgServ-ProgServ/WORKAREA/ProgServ-ProgServ/templatedata/comm-comm/gene-gene/data/11/pmc-cla_fs_ascochyta_1542989913537_en",
        "fr": "/default/main/AAFC-AAC/Internet-Internet/Group-Ensemble/ProgServ-ProgServ/WORKAREA/ProgServ-ProgServ/templatedata/comm-comm/gene-gene/data/11/pmc-cla_fs_ascochyta_1542989913537_fr"
    },
    "type_name": "comm-comm/gene-gene",
    "has_dcr_id": true,
    "label": {
        "en": "An Integrated Approach to Manage Ascochyta Blight in Chickpea",
        "fr": "Approche int\u00e9gr\u00e9e pour la lutte contre l'ascochytose du pois chiche"
    },
    "breadcrumb": {
        "en": "An Integrated Approach to Manage Ascochyta Blight in Chickpea",
        "fr": "Approche int\u00e9gr\u00e9e pour la lutte contre l'ascochytose du pois chiche"
    },
    "layout_name": "content page 1 column",
    "lang": "en",
    "refaire": false,
    "meta": {
        "viewport": {
            "en": "width=device-width,initial-scale=1",
            "fr": "width=device-width, initial-scale=1"
        },
        "issued": {
            "en": "2018-11-28",
            "fr": "2018-11-28"
        },
        "modified": {
            "en": "2021-05-10",
            "fr": "2021-05-10"
        },
        "format": {
            "en": "text/html",
            "fr": "text/html"
        },
        "title": {
            "en": "An Integrated Approach to Manage Ascochyta Blight in Chickpea",
            "fr": "Approche int\u00e9gr\u00e9e pour la lutte contre l'ascochytose du pois chiche"
        },
        "subject": {
            "en": "architectural heritage;potato growers;soil assessement",
            "fr": "semences-production;pois chiches;l\u00e9gumineuses"
        },
        "dcterms:subject": {
            "en": "statistics;programs;agricultural assistance",
            "fr": "changement climatique;recherche;\u00e9conomie agricole"
        },
        "description": {
            "en": "AgriStability-Agri-stabilite AgriStability gf2_as_guidelines Growing Forward 2 - AgriStability Program Guidelines. 4.7 Structural Change. 4.7.1 Changes In Productive Units. A participant, other than an individual, recognized by law as having rights and duties such as a corporation, cooperative, communal organization, or limited partnership.Farming Income.",
            "fr": "buchwaldtl Buchwaldt Lone Ph.D. Chercheuse scientifique, phytopathologie 107. Les phytog\u00e9n\u00e9ticiens pourront se servir de ces marqueurs pour s\u00e9lectionner des lign\u00e9es poss\u00e9dant une meilleure r\u00e9sistance \u00e0 la pourriture scl\u00e9rotique. Comit\u00e9 de recommandation des inscriptions au catalogue du grain des Prairies, de 1996 jusqu\u2019\u00e0 pr\u00e9sent."
        },
        "language": {
            "en": "eng",
            "fr": "fra"
        },
        "keywords": {
            "en": null,
            "fr": null
        },
        "audience": {
            "en": "gcaudience",
            "fr": "gcaudience"
        },
        "type": {
            "en": "media release",
            "fr": "rapport financier"
        },
        "creator": {
            "en": "Agriculture and Agri-Food Canada;Government of Canada",
            "fr": "Agriculture et Agroalimentaire Canada;Gouvernement du Canada"
        },
        "spatial": {
            "en": "gcregions",
            "fr": "gcregions"
        },
        "service": {
            "en": "AAFC-AAC",
            "fr": "AAFC-AAC"
        },
        "accessRights": {
            "en": "2",
            "fr": "2"
        },
        "legalName": {
            "en": "agriculture_and_agri_food_canada",
            "fr": "agriculture_et_agroalimentaire_canada"
        },
        "areaServed": {
            "en": "Canada",
            "fr": "Canada"
        }
    },
    "h1": {
        "en": "An Integrated Approach to Manage Ascochyta Blight in Chickpea",
        "fr": "Approche int\u00e9gr\u00e9e pour la lutte contre l'ascochytose du pois chiche"
    },
    "js": {
        "en": "",
        "fr": ""
    },
    "body": {
        "en": "\r\n     \n<h2>Sustainable Crop Protection</h2>\n\n<h3>Results from the Pesticide Risk Reduction Program</h3>\n\n<p>Ascochyta blight, caused by the pathogenic  fungus <i>Ascochyta rabiei</i>, is the most important challenge limiting  chickpea production in western Canada. The disease occurs in nearly all  chickpea growing areas. The fungus attacks all above-ground plant parts and  infection can occur on leaves, stems and pods at any stage of plant growth  (Fig.\u00a01A-C), but plants are most susceptible to disease during flowering.  Ascochyta blight causes low yields with poor seed quality and can result in up  to 100% yield loss, especially in susceptible varieties (Fig.\u00a01d).</p>\n<figure class=\"mrgn-bttm-md\">\n  <img src=\"https://www.agr.gc.ca/resources/prod/img/pmc/img/fs_ascochyta_fig1.jpg\" alt=\"Description of this image follows.\">\n<figcaption><b>Fig. 1:</b> Symptoms of ascochyta blight disease on (A) leaves, (B), stems and (C) pods of chickpea plants and (D) total crop failure caused from severe disease.</figcaption>\n</figure>\n\n<h3>I. How to prevent disease before it strikes?</h3>\n\n<h4>Use disease-free and treated seeds</h4>\n<p>Using certified, disease-free seed is key to a successful ascochyta blight management program. Treating seeds with a product registered for <i>Ascochyta rabiei</i> with multiple modes of action will help minimize seed-borne disease in both kabuli and desi varieties. Metalaxyl containing products can also provide protection against seedling blight caused by Oomycetes. Kabuli chickpea are more sensitive to seedling blight than desi varieties. Producers should be aware that Saskatchewan Crop Insurance requires seeds with ascochyta-infection at or below 0.3% for coverage. Also, planting machinery needs to be equipped with a seed-feeding mechanism capable of handling large sized seeds to avoid physical damage. Damaged seeds are highly vulnerable to infection by soil-borne pathogens.</p>\n\n<p>It is essential that Rhizobium inoculants are compatible with the fungicides and that the fungicide is applied first and dried before Rhizobium inoculants are to be applied. Use of granular inoculants instead of seed-applied inoculants will increase Rhizobium viability.</p>\n<h4>Select fields with no or less ascochyta history</h4>\n\n<p>Chickpea should be grown in an area with a non-host crop surrounding it. New plantings should be at least 500 meters away from fields that had chickpea crops the previous season, especially if the crop might have been infected.</p>\n\n<h4>Rotate chickpea every three to four years</h4>\n\n<p>In western Canada, ascochyta pathogen can be persistent on infected crop resides for 3 to 4 years. Thus, a 3- to 4-year rotation cycle with non-host crops is required between successive chickpea crops. The pathogen may be present in the field even four years after the initial chickpea crop, but the amount of fungal inoculum declines substantially after the first two intervening crops. However, in areas where the infection is through long distance dispersal of pathogen via winds, crop rotation may be of limited benefit.</p>\n\n<h4>Select less susceptible varieties</h4>\n\n<p>Chickpea varieties differ in their susceptibility to ascochyta blight. Under similar disease pressure, varieties with pinnate (fern-like) leaves (i.e. CDC Orion, CDC Leader, Amit, CDC Chico, CDC Frontier) show consistently lower susceptibility to ascochyta blight than varieties with unifoliate leaves (i.e. CDC Diva, Sanford) at all growth stages (Fig.\u00a02a). Similarly, desi types (all with pinnate leaves) are less susceptible to ascochyta blight than kabuli types (Fig.\u00a02b).</p>\n\n<p>Planting less susceptible (also known as partially resistant) varieties can improve control efficiency by disrupting the infection cycles of the disease during a growing season.</p>\n\n \n\n<figure class=\"mrgn-bttm-md\">\n<img src=\"https://www.agr.gc.ca/resources/prod/img/pmc/img/fs_ascochyta_fig2-eng.jpg\" alt=\"Description of this image follows.\">\n<figcaption><b>Fig. 2:</b> Severity of ascochyta blight in relation to (A) leaf type (pinnate vs. unifoliate), and (B) variety type (kabuli vs desi). Data shown are averaged across 3 years and 2 sites.</figcaption>\n<details>\n<summary>Description of above image</summary>\n \n\n<p>Progress and severity of ascochyta blight disease during a growing season and at all chickpea growth stages (seedling, early flowering, late flowering and late pod) in relation to (A) chickpea varieties with different leaf types (for example fern-like vs. unifoliate leaf forms), and (B) chickpea variety type (kabuli vs desi). Varieties with fern leaves and desi types show consistently lower susceptibility to disease than varieties with unifoliate leaves and kabuli types. Data shown are averaged across 3 years and 2 sites.</p>\n<p>Severity of ascochyta blight in the different crop growth stages. The following data is approximate.</p>\n<table class=\"table table-bordered\">\n <thead>\n <tr>\n  <td></td>\n  <th scope=\"col\" class=\"text-center\">Seeding</th>\n  <th scope=\"col\" class=\"text-center\">Early flower</th>\n  <th scope=\"col\" class=\"text-center\">Late flower</th>\n  <th scope=\"col\" class=\"text-center\">Late pod</th>\n </tr>\n </thead>\n <tbody>\n <tr class=\"text-center\">\n  <th scope=\"row\" class=\"text-left\">Unifoliate leaf type</th>\n  <td>21%</td>\n  <td>30%</td>\n  <td>39%</td>\n  <td>49%</td>\n </tr>\n  <tr class=\"text-center\">\n  <th scope=\"row\" class=\"text-left\">Fern leaf type</th>\n  <td>7%</td>\n  <td>9%</td>\n  <td>18%</td>\n  <td>16%</td>\n </tr>\n <tr class=\"text-center\">\n  <th scope=\"row\" class=\"text-left\">Kabuli variety</th>\n  <td>16%</td>\n  <td>21%</td>\n  <td>29%</td>\n  <td>32%</td>\n </tr>\n <tr class=\"text-center\">\n  <th scope=\"row\" class=\"text-left\">Desi variety</th>\n  <td>5%</td>\n  <td>8%</td>\n  <td>18%</td>\n  <td>16%</td>\n </tr>\n </tbody>\n</table>\n</details>\n</figure>\n \n<p>For more detailed information on recent recommendations of variety choice, refer to the '<cite>Varieties of Grain Crops 2009</cite>' published by Saskatchewan Ministry of Agriculture (also available on-line; the web address is listed at the end of this document).</p>\n\n<h4>Aim for optimum plant density</h4>\n\n<p>Optimum density for best yield is 38 to 44 plants/m2 for kabuli chickpea and 44 to 50 plants/m2 for desi chickpea in western Canada. Typically, plant density within the recommended range does not appear to have an association with the severity of ascochyta blight when less susceptible varieties are used.</p>\n\n<p>It is crucial to establish an optimum plant density to achieve best seed yield in chickpea, because seed yield is linearly associated with plant density (Fig.\u00a03). Under high disease conditions, as plant density increased from 20 to 70 plants/m2, disease severity was shown to increase in highly susceptible varieties (e.g. CDC Xena, Evans), but remains constant or even decrease in the least susceptible varieties (e.g. CDC Cabri). Once ascochyta blight develops in a field, susceptible varieties quickly become infected, regardless of plant density.</p>\n\n<figure class=\"mrgn-bttm-md\">\n<img src=\"https://www.agr.gc.ca/resources/prod/img/pmc/img/fs_ascochyta_fig3-eng.jpg\" alt=\"Description of this image follows.\">\n<figcaption><b>Fig. 3:</b> Chickpea seed yield in response to plant density under the same disease pressure.</figcaption>\n<details>\n<summary>Description of above image</summary>\n\n<p>Variations in seed yield (ranging from 1,000 - 5,000 kg/ha) in chickpea varieties CDC Anna, CDC Cabri, CDC Xena, and Evans in response to increasing plant density (20, 30, 40, 50, 60, 70, and 80 plants/m2) and under the same disease pressure. Seed yield is linearly associated with plant density and disease severity was shown to increase with increasing as plant density in highly susceptible varieties.</p>\n\n<table class=\"table table-bordered\">\n <thead>\n <tr>\n<th scope=\"col\" class=\"text-center\">Plant population (plants m<sup>-2</sup>)</th>\n<th scope=\"col\" class=\"text-center\">Seed yield kg ha<sup>-1</sup> for cultivar Evans</th>\n<th scope=\"col\" class=\"text-center\">Seed yield kg ha<sup>-1</sup> for cultivar CDC Xena</th>\n<th scope=\"col\" class=\"text-center\">Seed yield kg ha<sup>-1</sup> for cultivar CDC Cabri</th>\n<th scope=\"col\" class=\"text-center\">Seed yield kg ha<sup>-1</sup> for cultivar CDC Anna</th>\n </tr>\n </thead>\n <tbody>\n <tr class=\"text-center\">\n  <td>20</td>\n  <td>900</td>\n  <td></td>\n  <td></td>\n  <td></td>\n </tr>\n <tr class=\"text-center\">\n  <td>30</td>\n  <td>1100</td>\n  <td>2100</td>\n  <td>3100</td>\n  <td>3200</td>\n </tr>\n <tr class=\"text-center\">\n  <td>40</td>\n  <td>1500</td>\n  <td>2500</td>\n  <td>3200</td>\n  <td>3800</td>\n </tr>\n  <tr class=\"text-center\">\n  <td>50</td>\n  <td>1700</td>\n  <td>2500</td>\n  <td>3600</td>\n  <td>4000</td>\n </tr>\n <tr class=\"text-center\">\n  <td>60</td>\n  <td>1800</td>\n  <td>2450</td>\n  <td>3800</td>\n  <td>4100</td>\n </tr>\n <tr class=\"text-center\">\n  <td>70</td>\n  <td></td>\n  <td>2450</td>\n  <td>3500</td>\n  <td>4300</td>\n </tr>\n </tbody>\n</table>\n</details>\n</figure>\n\n \n \n<h4>Consider paired-row seeding as an alternative planting configuration</h4>\n\n<p>Changing planting patterns from solid rows (i.e., spaced at 20-25 cm between rows) to a paired-row planting (i.e., 25-cm intra-row, and 75-cm between the paired-rows) (Fig.\u00a04A) has been shown to decrease ascochyta blight severity in the crop by an average of 16%, reduce use of fungicides by up to 30%, while maintaining or increasing yield by as much as 30% in highly-susceptible varieties. These results were achieved by using a modified sprayer system equipped with 2 arms and 3 angled nozzles, one on the top and one other nozzle on each side of the plant canopy (Fig.\u00a04b).</p>\n\n<p>The 3-nozzle sprayer provides a uniform coverage and delivers fungicide droplets directly into the lower part of the crop canopy where it is needed most (Fig.\u00a04c). In conventional solid row planting, about 30-50% of the fungicide droplets are wasted on the bare ground when canopy is open early in the season, and later, when the canopy is closed, fungicide droplets are mainly trapped on the top of the canopy. Some modifications on the drill and sprayer are required in order to implement the paired-row planting.</p>\n\n\n<figure class=\"mrgn-bttm-md\">\n<img src=\"https://www.agr.gc.ca/resources/prod/img/pmc/img/fs_ascochyta_fig4.jpg\" alt=\"Description of this image follows.\">\n<figcaption><b>Fig. 4:</b> Chickpea seeded in paired-rows (A); a schematic 3-nozzle sprayer system (B); and optimal coverage of foliage by fungicide droplets (C).</figcaption>\n</figure>\n \n<h3>II. What to do when the disease strikes?</h3>\n\n<h4>Know your foe and check regularly for its presence in the field</h4>\n\n<p>Regular scouting and monitoring is the key for early disease detection and timely management actions. Refer to the '<cite>Scouting and Management of Ascochyta Blight in Chickpea</cite>' guide, published by the Saskatchewan Ministry of Agriculture (available only as a booklet) for tips on how to recognize the pathogen and disease symptoms, understand disease development, determine disease risk and make sound decisions about judicious use of fungicides in the field.</p>\n\n<h4>Rotate fungicide chemistries </h4>\n\n<p>Currently available fungicides for use in chickpea include chlorothalonil, azoxystrobin, pyraclostrobin, boscalid and prothioconazole. These belong to different chemistry groups with varying modes of action (except for azoxystrobin and pyraclostrobin, which are both in the same group, namely group 11, or strobilurins). Fungicides should be rotated between groups with no more than two applications of the same group applied during a single growing season (except for chlorothalonil which can be applied up to 3 times with no restrictions in terms of application order). There is a high risk that the pathogen may develop resistance to fungicides with repeated use of the same fungicides. The resistance to strobilurin fungicides is particularly likely to develop and has already been detected across Saskatchewan.</p>\n\n<h4>Optimize the number and sequence of foliar fungicide sprays</h4>\n\n<p>The number of fungicide sprays during the season depends on chickpea variety and disease severity. With more resistant varieties, such as CDC Leader or CDC Frontier, one to two sprays may be sufficient in a normal season. However, if above-average rainfall occurs during flowering, more than two sprays may be needed. Highly susceptible varieties, such as Sanford, may require up to 6 sprays. In paired-row plantings, the rate of fungicides can be reduced by 1/3 because of improved coverage with the 3-nozzle sprayer system (Fig.\u00a04b). Fungicide sprays are no longer necessary when the crop reaches the late-pod stage, regardless of disease severity at that time. If applied after late-pod stage, fungicide may delay plant maturation.</p>\n\n<h4>Optimize spray application timing</h4>\n\n<p>Timing of first spray is the key to the success of any spray program. It is critical to apply the first foliar fungicide for ascochyta blight <em>before</em> flowering. Air-borne spores are present right from the beginning of the growing season. A preventative fungicide application during seedling stage is warranted to delay the onset of disease. This should be done regardless of the presence of moisture or blight symptoms on the plants. Timing of any consecutive sprays can be determined based on rainfall and blight symptoms.</p>\n\n<p>The number of plant nodes can be used to time the first spray. After plant emergence, the number of nodes on the stems increases progressively with rising temperatures. Under normal growing conditions, the plant starts flowering at the 12 to 14 node stage (Fig.\u00a05). The ideal timing of first spray is recommended to be between the 8th and 10th node stage (about a week before flowering).</p>\n\n<figure class=\"mrgn-bttm-md\">\n<img src=\"https://www.agr.gc.ca/resources/prod/img/pmc/img/fs_ascochyta_fig5-eng.jpg\" alt=\"Description of this image follows.\">\n<figcaption><b>Fig. 5:</b> Progress of node development on main chickpea stem. The initial spray is recommended when number of nodes is below the green band.</figcaption>\n\n<details>\n<summary>Description of the above image</summary>\n<p>Changes in the timing of the beginning of flowering and the pattern of increasing number of nodes on the chickpea main stem over the plant growth period from 0-80 days after planting in chickpea crops seeded in mid-May and early-May. Application of the first foliar fungicide is recommended before flowering starts or when the number of nodes is below the intersection of a horizontal line linking the beginning of the flowering (12-14 nodes) with the node number on the vertical axis (shown with the green band).</p>\n<table class=\"table table-bordered\">\n <thead>\n <tr>\n<th scope=\"col\" class=\"text-center\">Days after initial plant emergence</th>\n<th scope=\"col\" class=\"text-center\">Number of nodes for early-May seeded chickpea</th>\n<th scope=\"col\" class=\"text-center\">Number of nodes for mid-May seeded chickpea</th>\n </tr>\n </thead>\n <tbody>\n <tr class=\"text-center\">\n  <td>0</td>\n  <td></td>\n  <td></td>\n </tr>\n <tr class=\"text-center\">\n  <td>10</td>\n  <td>4</td>\n  <td>4</td>\n </tr>\n <tr class=\"text-center\">\n  <td>20</td>\n  <td>6</td>\n  <td>10</td>\n </tr>\n <tr class=\"text-center\">\n  <td>30</td>\n  <td>9</td>\n  <td>13</td>\n </tr>\n <tr class=\"text-center\">\n  <td>40</td>\n  <td>13</td>\n  <td>18</td>\n </tr>\n <tr class=\"text-center\">\n  <td>50</td>\n  <td>18</td>\n  <td>22</td>\n </tr>\n <tr class=\"text-center\">\n  <td>60</td>\n  <td>19</td>\n  <td>24</td>\n </tr>\n <tr class=\"text-center\">\n  <td>70</td>\n  <td>20</td>\n  <td>25</td>\n </tr>\n </tbody>\n</table>\n</details>\n</figure>\n\n\n<h4>Use an appropriate sprayer system</h4>\n\n<p>It is essential to use a sprayer system that is adapted to deliver the product to the central part of the crop canopy that is most vulnerable to disease. The modified 2-armed, 3-nozzles system (Fig.\u00a04B) to has been shown to achieve optimal coverage of foliage due to a superior penetration of the spray droplets into plant canopy, especially in a paired-row seeding setting. This system has great potential to reduce fungicide rates through minimizing the loss of fungicides between the rows in an open canopy and improving spray efficiency. In addition, proper carrier volume is important for adequate coverage, with a minimum volume of 100\u00a0L per hectare (40\u00a0liters per acre) being required. Higher carrier volume improves coverage and enhances fungicide efficacy.</p>\n\n<h3>III. How to choose the best control package?</h3>\n\n<p>Integrating a variety of tactics described in this guide is the best approach to achieve good results in minimizing the devastating effects of ascochyta blight in chickpea. Integrated disease control systems require a combination of available cultural practices along with genetic resistance to keep plant disease below economically damaging levels. Use of fungicides is part of the integrated approach to ensure reliable production, especially for susceptible varieties. However, using an integrated approach will reduce the overall dependency on chemicals, reduce input costs and decrease the potential impact of pesticides on the environment.</p>\n\n<p>Control tactics described above may perform differently in crop varieties that vary in the level of susceptibility. Therefore, growers are encouraged to develop and adopt customized management packages that are best suited to their cropping and field conditions. Work is underway to develop more detailed ascochyta blight management packages for existing chickpea varieties.</p>\n\n<h3>IV. Testimonials</h3>\n\n<figure class=\"mrgn-bttm-md\">\n<img src=\"https://www.agr.gc.ca/resources/prod/img/pmc/img/fs_ascochyta_fig6.jpg\" alt=\"Description of this image follows.\">\n</figure>\n\n<p class=\"mrgn-lft-lg\">'With the research results we now understand proper stubble to seed into, proper plant population and more effective disease control programs. This information has helped to improve plant maturity, reduce disease severity and increase yield and quality for my clients and other producers,' says <b>Troy LaForge</b>, manager of a leading consulting firm at Swift Current (shown here on the right with a Research Scientist from Australia, at a chickpea field of southern Saskatchewan).</p>\n\n<figure class=\"mrgn-bttm-md\">\n<img src=\"https://www.agr.gc.ca/resources/prod/img/pmc/img/fs_ascochyta_fig7.jpg\" alt=\"Description of this image follows.\">\n</figure>\n\n<p class=\"mrgn-lft-lg\">'There is no 'Magic Bullet' to successful farming. Successes come from the integration of multitudes of strategies. Research has been helping my farm to improve the bottom lines by addressing most of the variables in the production systems. Systems approach optimizes many phases of the production cycles, starting right from seed selection and treatment, seeding configuration, crop management, all the way to harvest. Over 20+ years of growing pulses on my farm, we have learned a great deal from many mistakes and unknowns. This paper flags most of these problems and recommends excellent methods of addressing them.' says <b>John Bennett</b>, farming at Bigger area, Saskatchewan.</p>\n\n\n<h4>Disclaimer</h4>\n\n<p>This publication is based on the results of research conducted at AAFC. The content has been reviewed by experts in the field of chickpea pathology and integrated disease management. This publication is meant to serve as a source of information on disease control techniques. Provincial crop production guides and fungicide labels should be consulted for information on specific uses and precautions. Disease management decisions are the responsibility of individual growers.</p>\n\n<h3>Acknowledgment</h3>\n\n<p>The Pest Management Centre acknowledges the contribution and support of all collaborators in conducting the study and reviewing this publication, especially Dr. Yantai Gan, Dr. Bruce Gossen, Dr. Tom Wolf, Cal McDonald, Lee Poppy, Greg Ford, and Ray Leshures of AAFC; Drs. Tom Warkentin and Sabine Banniza of Crop Development Centre, University of Saskatchewan; Penny Pearse, Faye Dokken and Ray McVicar of Saskatchewan Ministry of Agriculture.</p>\n\n<p><b>For more information contact:</b> Dr. Michelle Hubbard</p>\n\r\n    ",
        "fr": "\r\n     <h2>Phytoprotection Durable</h2>\n\n<h3>Des r\u00e9sultats du Programme de r\u00e9duction des risques li\u00e9s aux pesticides</h3>\n\n<p>L'ascochytose, caus\u00e9e par le champignon pathog\u00e8ne <i>Ascochyta rabiei</i>, repr\u00e9sente l'obstacle le plus important \u00e0 la production de pois chiches dans l'Ouest canadien. Cette maladie est pr\u00e9sente dans presque toutes les r\u00e9gions productrices de pois chiches. Le champignon s'attaque \u00e0 toutes les parties a\u00e9riennes des plants, et l'infection peut \u00eatre observ\u00e9e sur les feuilles, les tiges et les gousses \u00e0 tous les stades de croissance des plants (fig. 1A-C), mais les plantes sont plus sensibles \u00e0 la maladie pendant la floraison. L'ascochytose entra\u00eene de faibles rendements et une pi\u00e8tre qualit\u00e9 des semences et, dans certains cas, peut occasionner une perte de rendement pouvant atteindre 100\u00a0%, en particulier chez les vari\u00e9t\u00e9s sensibles (fig. 1D).</p>\n\n<figure class=\"mrgn-bttm-md\">\n  <img src=\"https://www.agr.gc.ca/resources/prod/img/pmc/img/fs_ascochyta_fig1.jpg\" alt=\"La description de cette image suit.\">\n<figcaption><b>Fig. 1\u00a0:</b> Sympt\u00f4mes de l'ascochytose sur (A) les feuilles, (B) les tiges et (C) les gousses des plants de pois chiches, et (D) r\u00e9colte \u00e0 100 % d\u00e9ficitaire attribuable \u00e0 une grave attaque d'ascochytose.</figcaption>\n</figure>\n\n<h3>I. Comment pr\u00e9venir la maladie avant sa survenue?</h3>\n\n<h4>Utiliser des semences indemnes de maladie et trait\u00e9es</h4>\n\n<p>L'utilisation de semences certifi\u00e9es indemnes de  maladie est essentielle \u00e0 la r\u00e9ussite de tout programme de lutte contre  l'ascochytose. Le traitement des semences avec un produit \u00e0 divers modes d'action homologu\u00e9 pour combattre Ascochyta rabiei contribuera \u00e0 limiter la transmission de la maladie par les semences chez les vari\u00e9t\u00e9s kabuli et desi. Les produits contenant du m\u00e9talaxyl peuvent \u00e9galement fournir une protection contre la br\u00fblure des semis caus\u00e9e par des oomyc\u00e8tes. Les pois chiches kabuli sont plus sensibles \u00e0 la br\u00fblure des semis que les vari\u00e9t\u00e9s desi. Les producteurs doivent savoir que la  couverture de la Saskatchewan Crop Insurance est conditionnelle \u00e0 ce que  l'infection \u00e0 l'ascochytose ne d\u00e9passe pas une proportion de 0,3\u00a0% des  semences. En outre, les semoirs doivent \u00eatre pourvus d'un m\u00e9canisme  d'alimentation permettant d'accueillir les grosses semences sans leur causer de  dommages physiques. Les semences endommag\u00e9es sont tr\u00e8s vuln\u00e9rables aux  infections caus\u00e9es par les agents pathog\u00e8nes pr\u00e9sentes dans le sol.</p>\n\n<p>Les inoculants \u00e0 base de rhizobium doivent \u00eatre  compatibles avec les fongicides. De plus, le traitement aux fongicides doit  \u00eatre effectu\u00e9 en premier, et les semences doivent \u00eatre s\u00e8ches avant que l'on  puisse proc\u00e9der \u00e0 l'inoculation. L'utilisation d'inoculants granulaires plut\u00f4t  que de semences inocul\u00e9es accro\u00eetra la viabilit\u00e9 du rhizobium.</p>\n\n<h4>Choisir des champs qui pr\u00e9sentent peu d'ant\u00e9c\u00e9dents d'ascochytose, voire aucun</h4>\n\n<p>Il faut cultiver le pois chiche dans une zone entour\u00e9e d'une culture non h\u00f4te. Les nouveaux semis doivent se situer \u00e0 au moins 500 m\u00e8tres des champs o\u00f9 l'on a cultiv\u00e9 le pois chiche la saison pr\u00e9c\u00e9dente et o\u00f9 la culture a pu \u00eatre infect\u00e9e.</p>\n\n<h4>Alterner les cultures de pois  chiche tous les trois ou quatre ans</h4>\n<p>Dans l'Ouest canadien, l'agent pathog\u00e8ne qui  cause l'ascochytose peut survivre de trois \u00e0 quatre ans sur les r\u00e9sidus  culturaux infect\u00e9s. Ainsi, il faut proc\u00e9der \u00e0 une rotation sur un cycle de  trois \u00e0 quatre ans avec des cultures non h\u00f4tes entre des cultures successives  de pois chiche. L'agent pathog\u00e8ne peut \u00eatre pr\u00e9sent dans le champ m\u00eame quatre  ans apr\u00e8s la premi\u00e8re culture, mais la quantit\u00e9 de l'inoculum fongique diminue  de fa\u00e7on importante apr\u00e8s les deux premi\u00e8res cultures interm\u00e9diaires.  Cependant, dans les r\u00e9gions o\u00f9 l'infection est attribuable \u00e0 la dispersion de  l'agent pathog\u00e8ne sur de grandes distances par les vents, les avantages offerts  par la rotation des cultures peuvent \u00eatre limit\u00e9s.</p>\n<h4>Choisir des vari\u00e9t\u00e9s moins sensibles</h4>\n\n<p>La sensibilit\u00e9 \u00e0 l'ascochytose varie selon les vari\u00e9t\u00e9s de pois chiche. Lorsque la pression exerc\u00e9e par la maladie est similaire, les vari\u00e9t\u00e9s \u00e0 feuilles penn\u00e9es semblables \u00e0 celles de la foug\u00e8re (c.-\u00e0-d. CDC Orion, CDC Leader, Amit, CDC Chico et CDC Frontier) affichent toujours une sensibilit\u00e9 inf\u00e9rieure \u00e0 celle des vari\u00e9t\u00e9s unifoli\u00e9es (c.-\u00e0-d. CDC Diva et Sanford), et ce, \u00e0 tous les stades de croissance (fig. 2A). De m\u00eame, les types desi (tous \u00e0 feuilles penn\u00e9es) sont moins sensibles \u00e0 l'ascochytose que les types kabuli (fig. 2B). L'ensemencement de vari\u00e9t\u00e9s moins sensibles (\u00e9galement appel\u00e9es vari\u00e9t\u00e9s partiellement r\u00e9sistantes) peut am\u00e9liorer l'efficacit\u00e9 de la lutte en perturbant les cycles d'infection de la maladie pendant une saison de croissance.</p>\n\n \n\n<figure class=\"mrgn-bttm-md\">\n<img src=\"https://www.agr.gc.ca/resources/prod/img/pmc/img/fs_ascochyta_fig2-eng.jpg\" alt=\"La description de cette image suit.\">\n<figcaption><b>Fig. 2:</b> Gravit\u00e9 de l'ascochytose en fonction (A) du type de feuille (vari\u00e9t\u00e9s \u00e0 feuilles penn\u00e9es vs vari\u00e9t\u00e9s unifoli\u00e9es) et (B) du type de vari\u00e9t\u00e9 (kabuli vs desi). Les donn\u00e9es indiqu\u00e9es sont des moyennes calcul\u00e9es sur trois ans et deux sites.</figcaption>\n<details>\n<summary>Description of above image</summary>\n \n\n<p>Progression et gravit\u00e9 de l'ascochytose pendant la saison de croissance et \u00e0 tous les stades de croissance de pois chiches (semis, floraison pr\u00e9coce, floraison tardive et fin de maturit\u00e9 de la gousse) en fonction (A) du type de feuille (vari\u00e9t\u00e9s \u00e0 feuilles penn\u00e9es vs vari\u00e9t\u00e9s unifoli\u00e9es) et (B) du type de vari\u00e9t\u00e9 (kabuli c. desi). Les vari\u00e9t\u00e9s \u00e0 feuilles penn\u00e9es semblables \u00e0 celles de la foug\u00e8re et de vari\u00e9t\u00e9 desi affichent toujours une sensibilit\u00e9 inf\u00e9rieure \u00e0 celle des vari\u00e9t\u00e9s unifoli\u00e9es et du type kabuli. Les donn\u00e9es indiqu\u00e9es sont des moyennes calcul\u00e9es sur trois ans et deux sites.</p>\n<p>Gravit\u00e9 de l'ascochytose \u00e0 tous les stades de croissance. Les donn\u00e9es suivantes sont approximatives.</p>\n\n \n<table class=\"table table-bordered\">\n <thead>\n <tr>\n  <td></td>\n  <th scope=\"col\" class=\"text-center\">Semis</th>\n  <th scope=\"col\" class=\"text-center\">D\u00e9but de al floraison</th>\n  <th scope=\"col\" class=\"text-center\">Fin de la floraison</th>\n  <th scope=\"col\" class=\"text-center\">Fin de maurit\u00e9 des gousses</th>\n </tr>\n </thead>\n <tbody>\n <tr class=\"text-center\">\n  <th scope=\"row\" class=\"text-left\">Vari\u00e9t\u00e9s unifoli\u00e9es</th>\n  <td>21%</td>\n  <td>30%</td>\n  <td>39%</td>\n  <td>49%</td>\n </tr>\n  <tr class=\"text-center\">\n  <th scope=\"row\" class=\"text-left\">Vari\u00e9t\u00e9s \u00e0 feuilles penn\u00e9es</th>\n  <td>7%</td>\n  <td>9%</td>\n  <td>18%</td>\n  <td>16%</td>\n </tr>\n <tr class=\"text-center\">\n  <th scope=\"row\" class=\"text-left\">Vari\u00e9t\u00e9s Kabuli</th>\n  <td>16%</td>\n  <td>21%</td>\n  <td>29%</td>\n  <td>32%</td>\n </tr>\n <tr class=\"text-center\">\n  <th scope=\"row\" class=\"text-left\">Vari\u00e9t\u00e9s Desi</th>\n  <td>5%</td>\n  <td>8%</td>\n  <td>18%</td>\n  <td>16%</td>\n </tr>\n </tbody>\n</table>\n</details>\n</figure>\n \n<p>Pour des informations plus d\u00e9taill\u00e9es sur les r\u00e9centes recommandations en mati\u00e8re de choix des vari\u00e9t\u00e9s, consultez le document \"<cite>Varieties of Grain Crops 2009</cite>\" publi\u00e9 par le minist\u00e8re de l'agriculture du Saskatchewan (\u00e9galement disponible en ligne ; l'adresse web est indiqu\u00e9e \u00e0 la fin de ce document).</p>\n\n<h4>Cibler une densit\u00e9 de semis optimale</h4>\n\n<p>Dans l'Ouest canadien, la densit\u00e9 qui permettra  d'optimiser le rendement est de 38\u00a0\u00e0 44\u00a0semis/m2  pour le pois chiche de type kabuli et de 44\u00a0\u00e0 50\u00a0semis/m2  pour le type desi. En r\u00e8gle g\u00e9n\u00e9rale, il ne semble pas exister de lien entre la  densit\u00e9 de semis \u00e0 l'int\u00e9rieur des limites recommand\u00e9es et la gravit\u00e9 de l'ascochytose  lorsqu'on utilise des vari\u00e9t\u00e9s moins sensibles.</p>\n\n<p>Il est essentiel d'utiliser une densit\u00e9 de semis  qui optimisera le rendement en pois chiche du fait que ce rendement est associ\u00e9  de fa\u00e7on lin\u00e9aire \u00e0 la densit\u00e9 de semis (fig.\u00a03). En cas de risque \u00e9lev\u00e9e  de maladie, lorsque la densit\u00e9 de semis passe de 20\u00a0\u00e0 70\u00a0semis/m<sup>2</sup>,  il a \u00e9t\u00e9 \u00e9tabli que la gravit\u00e9 de la maladie augmente chez les vari\u00e9t\u00e9s tr\u00e8s  sensibles (par exemple CDC Xena, Evans), mais demeure constante, voire  diminue, chez les vari\u00e9t\u00e9s les moins sensibles (par exemple CDC Cabri).  Une fois que l'ascochytose se d\u00e9veloppe dans un champ, les vari\u00e9t\u00e9s sensibles  s'infectent rapidement, quelle que soit la densit\u00e9 de semis utilis\u00e9e.</p>\n\n<figure class=\"mrgn-bttm-md\">\n  <img src=\"https://www.agr.gc.ca/resources/prod/img/pmc/img/fs_ascochyta_fig3-fra.jpg\" alt=\"La description de cette image suit.\">\n<figcaption><b>Fig. 3:</b> Rendement en pois chiche en fonction de la densit\u00e9 de semis, sous conditions similaires relatifs \u00e0 la maladie.</figcaption>\n<details>\n<summary>Description of above image</summary>\n\n<p>Variations du rendement grainier (\u00e9cart de 1 000 \u00e0 5 000 kg/ha) des vari\u00e9t\u00e9s de pois chiche CDC Anna, CDC Cabri, CDC Xena et Evans en fonction de la densit\u00e9 croissante de semis (20, 30, 40, 50, 60, 70 et 80 plants/m2) et dans des conditions similaires relative \u00e0 la maladie. Le rendement grainier est li\u00e9 de fa\u00e7on lin\u00e9aire \u00e0 la densit\u00e9 de semis. Plus celle-ci est grande, plus la maladie empire dans les vari\u00e9t\u00e9s grandement vuln\u00e9rables.</p>\n\n\n \n\n\n<table class=\"table table-bordered\">\n <thead>\n <tr>\n<th scope=\"col\" class=\"text-center\">Densit\u00e9 (semis/m<sup>-2</sup>)</th>\n<th scope=\"col\" class=\"text-center\">Rendement en pois chiche kg/ha pour cultivar Evans</th>\n<th scope=\"col\" class=\"text-center\">Rendement en pois chiche kg/ha pour cultivar CDC Xena</th>\n<th scope=\"col\" class=\"text-center\">Rendement en pois chiche kg/ha pour cultivar CDC Cabri</th>\n<th scope=\"col\" class=\"text-center\">Rendement en pois chiche kg/ha pour cultivar CDC Anna</th>\n </tr>\n </thead>\n <tbody>\n <tr class=\"text-center\">\n  <td>20</td>\n  <td>900</td>\n  <td></td>\n  <td></td>\n  <td></td>\n </tr>\n <tr class=\"text-center\">\n  <td>30</td>\n  <td>1100</td>\n  <td>2100</td>\n  <td>3100</td>\n  <td>3200</td>\n </tr>\n <tr class=\"text-center\">\n  <td>40</td>\n  <td>1500</td>\n  <td>2500</td>\n  <td>3200</td>\n  <td>3800</td>\n </tr>\n  <tr class=\"text-center\">\n  <td>50</td>\n  <td>1700</td>\n  <td>2500</td>\n  <td>3600</td>\n  <td>4000</td>\n </tr>\n <tr class=\"text-center\">\n  <td>60</td>\n  <td>1800</td>\n  <td>2450</td>\n  <td>3800</td>\n  <td>4100</td>\n </tr>\n <tr class=\"text-center\">\n  <td>70</td>\n  <td></td>\n  <td>2450</td>\n  <td>3500</td>\n  <td>4300</td>\n </tr>\n </tbody>\n</table>\n</details>\n</figure>\n\n \n \n<h4>Envisager le semis en lignes jumel\u00e9es pour la configuration des semis</h4>\n\n<p>Il a \u00e9t\u00e9 \u00e9tabli que le fait de changer les modes  de semis en passant de lignes simples (\u00e9cartement de 20\u00a0\u00e0 25\u00a0cm) \u00e0  des lignes jumel\u00e9s (\u00e9cartement de 25\u00a0cm pour le petit interligne et de  75\u00a0cm pour le grand interligne) (fig.\u00a04A) diminue la gravit\u00e9 de l'ascochytose  dans la culture de 16\u00a0% en moyenne, et r\u00e9duit l'utilisation de fongicides  jusqu'\u00e0 30\u00a0%, tout en maintenant ou en augmentant le rendement de  30\u00a0% chez les vari\u00e9t\u00e9s tr\u00e8s sensibles. On a obtenu ces r\u00e9sultats au moyen  d'un pulv\u00e9risateur modifi\u00e9 \u00e0 deux bras et \u00e0 trois buses inclin\u00e9es, l'une  d'elles \u00e9tant situ\u00e9e au-dessus du couvert et les deux autres, de chaque c\u00f4t\u00e9 de  celui-ci (fig.\u00a04B).</p>\n\n<p>Le pulv\u00e9risateur \u00e0 trois buses assure une  couverture uniforme et distribue des gouttelettes de fongicide directement dans  la partie inf\u00e9rieure du feuillage, l\u00e0 o\u00f9 elles sont le plus utiles  (fig.\u00a04C). Dans les semis classiques en lignes simples, une proportion de  30 \u00e0 50\u00a0% environ des gouttelettes sont perdues sur le sol d\u00e9nud\u00e9 lorsque  le couvert est ouvert t\u00f4t en saison; plus tard, lorsque le couvert est ferm\u00e9,  la plupart des gouttelettes ne peuvent traverser la partie sup\u00e9rieure du  feuillage. Il faut apporter certaines modifications au semoir et au  pulv\u00e9risateur pour mettre en \u0153uvre une configuration de semis en lignes  jumel\u00e9es.</p>\n\n\n<figure class=\"mrgn-bttm-md\">\n  <img src=\"https://www.agr.gc.ca/resources/prod/img/pmc/img/fs_ascochyta_fig4.jpg\" alt=\"La description de cette image suit.\">\n<figcaption><b>Fig. 4:</b> Pois chiches sem\u00e9s en lignes jumel\u00e9es (A); sch\u00e9ma d'un pulv\u00e9risateur \u00e0 trois buses (B); couverture optimale du feuillage par les gouttelettes de fongicide (C).</figcaption>\n</figure>\n \n<h3>II. Quoi faire en cas que la maladie s'attaque?</h3>\n\n<h4>Conna\u00eetre l'ennemi et v\u00e9rifier r\u00e9guli\u00e8rement sa pr\u00e9sence dans le champ</h4>\n\n<p>Des surveillances et d\u00e9pistages r\u00e9guliers sont  essentiels \u00e0 la d\u00e9tection pr\u00e9coce de la maladie et \u00e0 la prise de mesures de  lutte en temps opportun. Veuillez consulter le guide publi\u00e9 par le minist\u00e8re de  l'Agriculture de la Saskatchewan intitul\u00e9 \u00ab\u00a0<cite>Scouting and Management of Ascochyta Blight in Chickpea</cite>\u00a0\u00bb (portant sur le d\u00e9pistage et la lutte dirig\u00e9e  contre l'ascochytose du pois chiche; disponible seulement dans un livret en  Anglais) pour obtenir des conseils sur l'identification de l'agent pathog\u00e8ne et  des sympt\u00f4mes de la maladie, comprendre le d\u00e9veloppement de la maladie,  d\u00e9terminer le risque de la maladie et prendre des d\u00e9cisions \u00e9clair\u00e9es  concernant l'utilisation judicieuse de fongicides dans les champs.</p>\n\n<h4>Alterner les fongicides chimiques</h4>\n\n<p>Les fongicides employ\u00e9s \u00e0 l'heure actuelle (y compris le chlorothalonil, l'azoxystrobine, la pyraclostrobine, le boscalid et le prothioconazole) appartiennent \u00e0 diff\u00e9rents groupes de produits chimiques dont les modes d'action varient (\u00e0 l'exception de l'azoxystrobine et de la pyraclostrobine qui font partie du m\u00eame groupe, soit le groupe 11, appel\u00e9 strobilurines). Il faut alterner les fongicides des diff\u00e9rents groupes, \u00e9viter de pulv\u00e9riser plus de deux fois des fongicides appartenant au m\u00eame groupe pendant une saison de croissance (\u00e0 l'exception de chlorothalonil puisque ce produit peut \u00eatre utilis\u00e9 jusqu'\u00e0 3 fois dans une saison). L'agent pathog\u00e8ne risque fort de d\u00e9velopper une r\u00e9sistance aux fongicides \u00e0 la suite de leur usage r\u00e9p\u00e9t\u00e9e. La r\u00e9sistance aux fongicides \u00e0 base de strobilurine est particuli\u00e8rement susceptible de se d\u00e9velopper et a d\u00e9j\u00e0 \u00e9t\u00e9 observ\u00e9e en Saskatchewan.</p>\n\n<h4>Optimiser le nombre et la s\u00e9quence des pulv\u00e9risations de fongicides foliaires</h4>\n\n<p>Le nombre de traitements par pulv\u00e9risation de fongicides pendant la saison est fonction de la vari\u00e9t\u00e9 de pois chiche et de la gravit\u00e9 de la maladie. Avec des vari\u00e9t\u00e9s plus r\u00e9sistantes telles que CDC Leader ou CDC Frontier, un ou deux traitements peuvent suffire pendant une saison normale. Cependant, si les pr\u00e9cipitations sont sup\u00e9rieures \u00e0 la moyenne pendant la floraison, plus de deux traitements peuvent s'imposer. Pour les vari\u00e9t\u00e9s tr\u00e8s sensibles telles que Sanford, jusqu'\u00e0 six traitements peuvent \u00eatre n\u00e9cessaires. Dans les semis en lignes jumel\u00e9es, le taux de pulv\u00e9risation des fongicides peut \u00eatre r\u00e9duit du tiers en raison de l'am\u00e9lioration de la couverture attribuable au syst\u00e8me de pulv\u00e9risation \u00e0 trois buses (fig. 4B). Les traitements ne sont plus requis lorsque les plants parviennent au stade \u00ab\u00a0fin de maturit\u00e9 des gousses\u00a0\u00bb, peu importe la gravit\u00e9 de la maladie \u00e0 ce moment-l\u00e0. Le fait de pulv\u00e9riser le fongicide apr\u00e8s ce stade peut retarder la maturation des plants.</p>\n\n<h4>Optimiser le moment de la pulv\u00e9risation</h4>\n\n<p>Le choix du moment de la premi\u00e8re pulv\u00e9risation  est essentiel \u00e0 la r\u00e9ussite de tout programme de phytoprotection. Il faut  pulv\u00e9riser le premier fongicide foliaire pour la lutte contre l'ascochytose  avant la <strong>floraison</strong>. Les spores en suspension dans l'air sont pr\u00e9sentes  d\u00e8s le d\u00e9but de la saison de croissance. Ainsi, il est justifi\u00e9 de proc\u00e9der \u00e0  un traitement pr\u00e9ventif au moyen de fongicides pendant le stade jeune pour  retarder le d\u00e9but de la maladie. Ce traitement doit \u00eatre effectu\u00e9 sans \u00e9gard \u00e0  la pr\u00e9sence d'humidit\u00e9 ou de sympt\u00f4mes d'ascochytose sur les plants. Le moment  de toute pulv\u00e9risation cons\u00e9cutive pourra \u00eatre choisi en fonction des  pr\u00e9cipitations et des sympt\u00f4mes d'ascochytose constat\u00e9s.</p>\n\n<p>On peut se servir du nombre de n\u0153uds pour  d\u00e9cider du moment de la premi\u00e8re pulv\u00e9risation. Apr\u00e8s la lev\u00e9e, le nombre de  n\u0153uds sur les tiges augmente graduellement \u00e0 mesure que les temp\u00e9ratures  augmentent. Dans des conditions de croissance normales, la floraison du plant  d\u00e9bute lorsque celui-ci atteint le stade de 12\u00a0\u00e0 14\u00a0n\u0153uds  (fig.\u00a05). Le moment id\u00e9al recommand\u00e9 pour la premi\u00e8re pulv\u00e9risation se  situe lorsque le plant atteint le stade de 8\u00a0\u00e0 10\u00a0n\u0153uds (environ une semaine avant la floraison).</p>\n\n<figure class=\"mrgn-bttm-md\">\n  <img src=\"https://www.agr.gc.ca/resources/prod/img/pmc/img/fs_ascochyta_fig5-fra.jpg\" alt=\"La description de cette image suit.\">\n<figcaption><b>Fig. 5\u00a0:</b> Progr\u00e8s de l'apparition des n\u0153uds sur la tige principale chez le pois chiche. On recommande d'effectuer la premi\u00e8re pulv\u00e9risation lorsque le nombre de n\u0153uds sur les plants se situe sous l'intersection avec la bande verte.</figcaption>\n\n<details>\n<summary>Description of the above image</summary>\n<p>Variations du moment du d\u00e9but de la floraison et tendance d'augmentation du nombre de n\u0153uds sur la tige principale du pois chiche pendant la p\u00e9riode de croissance, soit de 0 \u00e0 80 jours apr\u00e8s la plantation des cultures de pois chiches au d\u00e9but et \u00e0 la mi-mai. On recommande d'effectuer la premi\u00e8re pulv\u00e9risation foliaire avant le d\u00e9but de la floraison (entre 12 et 14 noeuds) ou lorsque le nombre de n\u0153uds sur les plants se situe sous l'intersection d'une ligne horizontale (bande verte) indiquant le d\u00e9but de la floraison et une ligne verticale signifiant le nombre de n\u0153uds.</p>\n\nNombre de n\u0153uds pour les pois chiches sem\u00e9s \u00e0 la mi-mai\n\n<table>\n <thead>\n <tr>\n<th scope=\"col\" class=\"text-center\">Jours apr\u00e8s la lev\u00e9e</th>\n<th scope=\"col\" class=\"text-center\">Nombre de n\u0153uds pour les pois chiches sem\u00e9s au d\u00e9but mai</th>\n<th scope=\"col\" class=\"text-center\">Nombre de n\u0153uds pour les pois chiches sem\u00e9s \u00e0 la mi-mai</th>\n </tr>\n </thead>\n <tbody>\n <tr class=\"text-center\">\n  <td>0</td>\n  <td></td>\n  <td></td>\n </tr>\n <tr class=\"text-center\">\n  <td>10</td>\n  <td>4</td>\n  <td>4</td>\n </tr>\n <tr class=\"text-center\">\n  <td>20</td>\n  <td>6</td>\n  <td>10</td>\n </tr>\n <tr class=\"text-center\">\n  <td>30</td>\n  <td>9</td>\n  <td>13</td>\n </tr>\n <tr class=\"text-center\">\n  <td>40</td>\n  <td>13</td>\n  <td>18</td>\n </tr>\n <tr class=\"text-center\">\n  <td>50</td>\n  <td>18</td>\n  <td>22</td>\n </tr>\n <tr class=\"text-center\">\n  <td>60</td>\n  <td>19</td>\n  <td>24</td>\n </tr>\n <tr class=\"text-center\">\n  <td>70</td>\n  <td>20</td>\n  <td>25</td>\n </tr>\n </tbody>\n</table>\n</details>\n</figure>\n\n\n<h4>Employer un pulv\u00e9risateur appropri\u00e9</h4>\n\n<p>Il est essentiel d'employer un pulv\u00e9risateur qui est adapt\u00e9 pour diffuser le produit sur la partie centrale du couvert v\u00e9g\u00e9tal, laquelle est la plus vuln\u00e9rable \u00e0 la maladie. Il a \u00e9t\u00e9 \u00e9tabli que le pulv\u00e9risateur modifi\u00e9 \u00e0 deux bras et \u00e0 trois buses (fig. 4B) assure une couverture optimale du feuillage en raison de la p\u00e9n\u00e9tration sup\u00e9rieure des gouttelettes dans le couvert v\u00e9g\u00e9tal, en particulier lorsqu'on utilise une configuration de semis en lignes jumel\u00e9es. Ce pulv\u00e9risateur offre de grandes possibilit\u00e9s pour ce qui est de r\u00e9duire l'utilisation de fongicides en limitant la perte de fongicides entre les lignes dans un couvert ouvert et en am\u00e9liorant l'efficacit\u00e9 de la pulv\u00e9risation. En outre, un volume de charge appropri\u00e9 est essentiel \u00e0 une couverture ad\u00e9quate, un volume minimal de 100 l/hectare (40 l/acre) \u00e9tant requis. Un volume de charge accru am\u00e9liore la couverture et l'efficacit\u00e9 des fongicides.</p>\n\n<h3>III. Choix du meilleur programme de lutte</h3>\n\n<p>L'int\u00e9gration d'un \u00e9ventail de tactiques parmi  celles d\u00e9crites dans le pr\u00e9sent guide constitue l'approche optimale pour  r\u00e9ussir \u00e0 limiter les effets d\u00e9vastateurs de l'ascochytose du pois chiche. Les  syst\u00e8mes de lutte int\u00e9gr\u00e9e contre les maladies combinent les pratiques  culturales disponibles \u00e0 la r\u00e9sistance g\u00e9n\u00e9tique afin de maintenir la maladie  dans les plants en de\u00e7\u00e0 des niveaux dommageables sur le plan \u00e9conomique.  L'utilisation de fongicides s'inscrit dans le cadre d'une approche int\u00e9gr\u00e9e  visant l'obtention d'une production fiable, en particulier pour les vari\u00e9t\u00e9s  sensibles. Cependant, l'adoption d'une approche int\u00e9gr\u00e9e r\u00e9duira la d\u00e9pendance  g\u00e9n\u00e9rale aux produits chimiques, r\u00e9duira les co\u00fbts des intrants et diminuera  l'impact potentiel des pesticides sur l'environnement.</p>\n\n<p>Les tactiques de lutte d\u00e9crites ci-devant  peuvent donner des r\u00e9sultats diff\u00e9rents selon la sensibilit\u00e9 de la vari\u00e9t\u00e9  cultiv\u00e9e. C'est pourquoi on incite les producteurs \u00e0 \u00e9laborer et \u00e0 adopter un  programme de lutte personnalis\u00e9 en fonction de conditions de leurs champs et  cultures. On m\u00e8ne actuellement des travaux afin d'\u00e9laborer des programmes plus  d\u00e9taill\u00e9s de lutte contre l'ascochytose pour les vari\u00e9t\u00e9s de pois chiches  actuellement cultiv\u00e9es.</p>\n\n<h3>IV. T\u00e9moignages</h3>\n\n<figure class=\"mrgn-bttm-md\">\n<img src=\"https://www.agr.gc.ca/resources/prod/img/pmc/img/fs_ascochyta_fig6.jpg\" alt=\"Troy LaForge, gestionnaire d'une soci\u00e9t\u00e9 de conseil phare de Swift Current\">\n</figure>\n\n<p class=\"mrgn-lft-lg\">\u00ab\u00a0Gr\u00e2ce aux r\u00e9sultats de recherche, nous savons maintenant quelle quantit\u00e9 de chaume est appropri\u00e9e au semis, quelle est la densit\u00e9 de semis ad\u00e9quate \u00e0 respecter et quels sont les programmes de lutte contre les maladies plus efficaces que nous pouvons adopter. Ces renseignements ont aid\u00e9 mes clients et d'autres producteurs \u00e0 am\u00e9liorer la maturit\u00e9 des plants, \u00e0 r\u00e9duire la gravit\u00e9 des maladies ainsi qu'\u00e0 accro\u00eetre le rendement et la qualit\u00e9 de la r\u00e9colte [traduction]\u00a0\u00bb - <b>Troy LaForge</b>, gestionnaire d'une soci\u00e9t\u00e9 de conseil phare de Swift Current (photographi\u00e9 ici en compagnie d'une chercheuse de l'Australie dans un champ de pois chiche du sud de la Saskatchewan).</p>\n\n<figure class=\"mrgn-bttm-md\">\n<img src=\"https://www.agr.gc.ca/resources/prod/img/pmc/img/fs_ascochyta_fig7.jpg\" alt=\"John Bennett, agriculteur de la region de Biggar, en Saskatchewan\">\n</figure>\n\n<p class=\"mrgn-lft-lg\">\u00ab\u00a0Il n'existe pas de solution magique pour r\u00e9ussir en agriculture. La r\u00e9ussite exige l'int\u00e9gration d'une multitude de strat\u00e9gies. Ces recherches m'ont aid\u00e9 \u00e0 am\u00e9liorer les r\u00e9sultats de mon exploitation en me permettant de me pencher sur la majorit\u00e9 des variables qui entrent en jeu dans les syst\u00e8mes de production. Cette approche syst\u00e9mique optimise de nombreuses phases des cycles de production, depuis la s\u00e9lection et le traitement des semences jusqu'\u00e0 la r\u00e9colte, en passant par la configuration des semis et la gestion de la r\u00e9colte. Apr\u00e8s plus de 20 ans de culture des l\u00e9gumineuses, j'ai \u00e9norm\u00e9ment appris de nombreuses erreurs et des impond\u00e9rables. Le pr\u00e9sent document met en avant la plupart de ces probl\u00e8mes et recommande d'excellentes m\u00e9thodes pour les r\u00e9gler [traduction]\u00a0\u00bb - <b>John Bennett</b>, agriculteur de la r\u00e9gion de Biggar, en Saskatchewan.</p>\n\n\n<h4>Avertissement</h4>\n\n<p>La pr\u00e9sente publication repose sur les r\u00e9sultats des recherches men\u00e9es \u00e0 AAC. Le contenu a \u00e9t\u00e9 pass\u00e9 en revue par des experts des domaines de la pathologie du pois chiche et de la lutte int\u00e9gr\u00e9e contre les maladies. Le but de la pr\u00e9sente publication est de servir de source de renseignements sur les techniques de la lutte contre l'ascochytose. Il faut consulter les guides provinciaux de production v\u00e9g\u00e9tale et les \u00e9tiquettes des fongicides pour obtenir des renseignements sur les utilisations particuli\u00e8res et les pr\u00e9cautions \u00e0 respecter. Les d\u00e9cisions prises en mati\u00e8re de lutte contre les maladies rel\u00e8vent de la responsabilit\u00e9 de chaque producteur.</p>\n\n<h3>Remerciements</h3>\n\n<p>Le Centre pour la lutte antiparasitaire est reconnaissant de la contribution et du soutien de tous les collaborateurs dans la recherche et la r\u00e9alisation de la pr\u00e9sente publication, en particulier Yantai Gan, Ph.D., Bruce Gossen, Ph.D., Tom Wolf, Ph.D., Cal McDonald, Lee Poppy, Greg Ford et Ray Leshures d'AAC; Tom Warkentin, Ph.D., et Sabine Banniza, Ph.D., du Crop Development Centre de l'Universit\u00e9 de la Saskatchewan; Penny Pearse, Faye Dokken et Ray McVicar du minist\u00e8re de l'Agriculture de la Saskatchewan..</p>\n\n<p><b>Pour de plus amples renseignements:</b> Michelle Hubbard, Ph. D.</p>\n\r\n    "
    }
}