{
    "dcr_id": "1542981797606",
    "title": {
        "en": "Adapting the Government of Canada Workplace Charitable Campaign",
        "fr": "Adaptation de la Campagne de charit\u00e9 en milieu de travail du gouvernement du Canada"
    },
    "modified": "2018-11-30",
    "issued": "2018-11-30",
    "templatetype": "content page 1 column",
    "page_type": "0",
    "node_id": "1510840254905",
    "dc_date_created": "2018-11-30",
    "managing_branch": "PAB",
    "parent_node_id": "",
    "short_title": "",
    "exturl": "",
    "teamsite_location": {
        "en": "/default/main/AAFC-AAC/Internet-Internet/Common-Commun/WORKAREA/Common-Commun/templatedata/comm-comm/gene-gene/data/11/adapting_gcwcc_1542981797606_en",
        "fr": "/default/main/AAFC-AAC/Internet-Internet/Common-Commun/WORKAREA/Common-Commun/templatedata/comm-comm/gene-gene/data/11/adapting_gcwcc_1542981797606_fr"
    },
    "type_name": "comm-comm/gene-gene",
    "has_dcr_id": true,
    "label": {
        "en": "Adapting the Government of Canada Workplace Charitable Campaign",
        "fr": "Adaptation de la Campagne de charit\u00e9 en milieu de travail du gouvernement du Canada"
    },
    "breadcrumb": {
        "en": "Adapting the Government of Canada Workplace Charitable Campaign",
        "fr": "Adaptation de la Campagne de charit\u00e9 en milieu de travail du gouvernement du Canada"
    },
    "layout_name": "content page 1 column",
    "lang": "en",
    "refaire": false,
    "meta": {
        "viewport": {
            "en": "width=device-width,initial-scale=1",
            "fr": "width=device-width, initial-scale=1"
        },
        "issued": {
            "en": "2018-11-30",
            "fr": "2018-11-30"
        },
        "modified": {
            "en": "2018-11-30",
            "fr": "2018-11-30"
        },
        "format": {
            "en": "text/html",
            "fr": "text/html"
        },
        "title": {
            "en": "Adapting the Government of Canada Workplace Charitable Campaign",
            "fr": "Adaptation de la Campagne de charit\u00e9 en milieu de travail du gouvernement du Canada"
        },
        "subject": {
            "en": "soil assessement;business risk management;water conservation",
            "fr": "politique agricole;Gestion des risques de l'entreprise;coop\u00e9ratives"
        },
        "dcterms:subject": {
            "en": "statistics;architectural heritage;architecture",
            "fr": "cultures;terre agricole;coop\u00e9rative"
        },
        "description": {
            "en": "November 15, 2017. Office of Audit and Evaluation. The evaluation supports both the Government of Canada accountability of federal-level program expenditures, and the FPT governments in developing the next FPT agricultural policy framework.The evaluation was conducted in accordance with the Growing Forward 2 Multilateral Framework Agreement\u2019s commitments, the Treasury Board. business risk management programs. federally delivered strategic initiatives; and.",
            "fr": "\u00c9valuation des programmes des Initiatives strat\u00e9giques \u00e0 co\u00fbts partag\u00e9s de Cultivons l\u2019avenir\u00a02. 15 novembre 2017. F\u00e9d\u00e9ral-provincial-territorial. ETP. L\u2019analyse consolid\u00e9e de l\u2019efficience n\u2019entrait pas dans la port\u00e9e de l\u2019\u00e9valuation; toutefois, des exemples d\u2019efficience ont \u00e9t\u00e9 rep\u00e9r\u00e9s.Les programmes \u00e0 co\u00fbts partag\u00e9s de Cultivons l\u2019avenir\u00a02 offrent aux provinces et territoires une plus grande souplesse dans leurs choix de programmes; toutefois, les provinces et les territoires jugent qu\u2019un certain nombre de processus administratifs sont contraignants en ce qui a trait \u00e0 l\u2019attribution opportune de capital de financement.Les restrictions concernant la collecte de donn\u00e9es entravent la capacit\u00e9 d\u2019\u00e9valuer l\u2019incidence du programme.Les communications bilat\u00e9rales sont g\u00e9n\u00e9ralement efficaces."
        },
        "language": {
            "en": "eng",
            "fr": "fra"
        },
        "keywords": {
            "en": "Madeline Webber",
            "fr": "lenjeu;d\u00e9tranglement;alimentaire.Priorit\u00e9s"
        },
        "audience": {
            "en": "gcaudience",
            "fr": "gcaudience"
        },
        "type": {
            "en": "presentation",
            "fr": "foire aux questions"
        },
        "creator": {
            "en": "Agriculture and Agri-Food Canada;Government of Canada",
            "fr": "Agriculture et Agroalimentaire Canada;Gouvernement du Canada"
        },
        "spatial": {
            "en": "gcregions",
            "fr": "gcregions"
        },
        "service": {
            "en": "AAFC-AAC",
            "fr": "AAFC-AAC"
        },
        "accessRights": {
            "en": "2",
            "fr": "2"
        },
        "legalName": {
            "en": "agriculture_and_agri_food_canada",
            "fr": "agriculture_et_agroalimentaire_canada"
        },
        "areaServed": {
            "en": "Canada",
            "fr": "Canada"
        }
    },
    "h1": {
        "en": "Adapting the Government of Canada Workplace Charitable Campaign",
        "fr": "Adaptation de la Campagne de charit\u00e9 en milieu de travail du gouvernement du Canada"
    },
    "body": {
        "en": "\r\n    <div class=\"col-md-4 pull-right\" style=\"z-index: 1000\">\n<section class=\"panel panel-default\">\n<header class=\"panel-heading\">\n<h2 class=\"panel-title\">2018 Public service priorities</h2>\n</header>\n<div class=\"panel-body\"><p>Be:</p>\n\n<ul class=\"list-unstyled\">\n<li><span class=\"glyphicon glyphicon-check mrgn-rght-sm\"></span> Agile in delivering results</li>\n<li><span class=\"glyphicon glyphicon-unchecked mrgn-rght-sm\"></span> Inclusive in developing ideas and making decisions</li>\n<li><span class=\"glyphicon glyphicon-unchecked mrgn-rght-sm\"></span> Equipped for excellence</li>\n</ul></div>\n</section>\n</div><p>The Government of Canada Workplace Charitable Campaign (GCWCC) provides employees with an opportunity to step outside of their day-to-day responsibilities and use their talents and creativity in other ways to help Canadians in need.</p>\n\n<p>While Agriculture and Agri-Food Canada (AAFC) has been successful in its campaigns, 2017 participation rates were lowest among young professionals. That\u2019s why in 2018, AAFC had a new focus: how to better engage younger workforce.</p>\n\n<p>In order to do that, the GCWCC planning team needed to figure out what motivates this group to give. The team set up sessions with young professionals and learned that they are more likely to give if:</p>\n\n<ul>\n\t<li>they have choice and personal control in giving</li>\n\t<li>they are able to see measurable results of their gift</li>\n\t<li>they are able to be personally involved and experience the impact of their donation</li>\n</ul>\n\n\n<p>These findings highlighted a need to better communicate the freedom of choice employees can have with their charitable donations. In response, the planning team:</p>\n\n<ul>\n\t<li>redesigned the internal campaign web page to focus on this message</li>\n\t<li>included personal stories of giving in campaign ambassador communications products</li>\n\t<li>developed a Portraits of Giving gallery displayed at events to showcase the various charities employees donate to and their reasons for giving</li>\n</ul>\n\n<img src=\"https://www.agr.gc.ca/resources/prod/img/psrr/1542981797606_gcwcc_cmtgc2018.jpg\" alt=\"\" class=\"mrgn-bttm-md mrgn-rght-md img-responsive pull-left\">\n\t\n<p>Young professionals were also asked how likely they were to participate in various campaign activities like selling 50/50 tickets, canvassing employees for donations, attending special events, or giving monetary donations. Attending special events appealed most, so the campaign team focused on additional promotion of those events.</p>\n\n<p>Lastly, the planning team wanted to build on some of the more general motivations for giving, namely, kindness. In the pre-campaign planning phase, the team launched a \"Pay it Forward\" initiative where 20 kindness batons were circulated, half going to young professionals. The batons prompted the recipient to perform an act of kindness for another employee. Upon completing this act, they would pass along the baton, and encourage the recipient to keep the kindness circulating. While the batons also pointed employees to an internal web page to learn more about the campaign, the intention was to promote a spirit of giving in the Department prior to the campaign launch.</p>\n\n<p>While the GCWCC planning team has to wait until January 2019 to see if the rate of participation among young professionals has increased, they demonstrated the importance of listening to your target audience, evaluating and being agile in planning to address the challenges along the way.</p>\n\r\n    ",
        "fr": "\r\n    <div class=\"col-md-4 pull-right\" style=\"z-index: 1000\">\n<section class=\"panel panel-default\">\n<header class=\"panel-heading\">\n<h2 class=\"panel-title\">Les priorit\u00e9s de la fonction publique en 2018</h2>\n</header>\n<div class=\"panel-body\"><p>\u00catre\u00a0:</p>\n\n<ul class=\"list-unstyled\">\n<li><span class=\"glyphicon glyphicon-check mrgn-rght-sm\"></span> Agile pour obtenir des r\u00e9sultats</li>\n<li><span class=\"glyphicon glyphicon-unchecked mrgn-rght-sm\"></span> Inclusif dans le d\u00e9veloppement des id\u00e9es et la prise de d\u00e9cisions</li>\n<li><span class=\"glyphicon glyphicon-unchecked mrgn-rght-sm\"></span> Pr\u00eat pour l\u2019excellence</li>\n</ul></div>\n</section>\n</div><p>La Campagne de charit\u00e9 en milieu de travail du gouvernement du Canada (CCMTGC) donne aux employ\u00e9s l'occasion d'aller au-del\u00e0 de leurs responsabilit\u00e9s quotidiennes et d'utiliser leurs talents et leur cr\u00e9ativit\u00e9 de mani\u00e8re diff\u00e9rente pour aider les Canadiens dans le besoin.</p>\n\n<p>Bien qu'Agriculture et Agroalimentaire Canada (AAC) ait r\u00e9ussi ses campagnes, les taux de participation les plus faibles en 2017 \u00e9taient parmi les jeunes professionnels. C'est pourquoi, en 2018, AAC s'est fix\u00e9 le nouvel objectif de mieux mobiliser une main-d'\u0153uvre plus jeune.</p>\n\n<p>Afin d'y arriver, l'\u00e9quipe de la planification de la CCMTGC devait d\u00e9terminer ce qui pouvait motiver ce groupe \u00e0 faire des dons. Elle a donc organis\u00e9 des s\u00e9ances avec de jeunes professionnels et y a appris qu'ils sont plus susceptibles de donner lorsqu'ils peuvent\u00a0:</p>\n\n<ul>\n\t<li>choisir et contr\u00f4ler personnellement leurs dons;</li>\n\t<li>constater les r\u00e9sultats tangibles de leur don;</li>\n\t<li>s'impliquer personnellement et ressentir l'impact de leur don.</li>\n</ul>\n\t\n<p>Ces constatations ont fait ressortir la n\u00e9cessit\u00e9 de mieux communiquer la libert\u00e9 de choix dont b\u00e9n\u00e9ficient les employ\u00e9s lorsqu'ils font des dons. Par cons\u00e9quent, l'\u00e9quipe de la planification\u00a0:</p>\n\n<ul>\n\t<li>a remani\u00e9 la page Web de la campagne pour mettre l'accent sur ce message;</li>\n\t<li>a inclus des t\u00e9moignages personnels de donateurs dans les outils de communication des ambassadeurs de la campagne;</li>\n\t<li>a \u00e9labor\u00e9 une galerie de Portraits de donateurs qui peut \u00eatre pr\u00e9sent\u00e9e au cours d'activit\u00e9s afin de mettre en valeur les divers organismes de bienfaisance auxquels les employ\u00e9s font des dons et les raisons pour lesquelles ils les font.</li>\n</ul>\n\n<img src=\"https://www.agr.gc.ca/resources/prod/img/psrr/1542981797606_gcwcc_cmtgc2018.jpg\" alt=\"\" class=\"mrgn-bttm-md mrgn-rght-md img-responsive pull-left\">\n\t\n<p>On a \u00e9galement demand\u00e9 aux jeunes professionnels dans quelle mesure ils \u00e9taient susceptibles de participer \u00e0 diverses activit\u00e9s de la campagne comme la vente de billets 50/50, la sollicitation de dons aupr\u00e8s des employ\u00e9s, la participation \u00e0 des \u00e9v\u00e9nements sp\u00e9ciaux ou les dons en argent. La participation \u00e0 des \u00e9v\u00e9nements sp\u00e9ciaux \u00e9tant l'option qui semblait la plus attrayante, l'\u00e9quipe de la campagne s'est donc concentr\u00e9e sur une promotion encore plus importante de ce type d'\u00e9v\u00e9nements.</p>\n\n<p>Enfin, l'\u00e9quipe de la planification a voulu s'appuyer sur certaines des motivations plus g\u00e9n\u00e9rales du don, notamment, la gentillesse. Au cours de la phase de planification qui a pr\u00e9c\u00e9d\u00e9 la campagne, l'\u00e9quipe a lanc\u00e9 une initiative pour inciter \u00e0 \u00ab\u00a0Donner au suivant\u00a0\u00bb, qui faisait circuler 20 b\u00e2tons t\u00e9moins de gentillesse, dont la moiti\u00e9 parmi les jeunes professionnels. Ces relais incitaient les r\u00e9cipiendaires \u00e0 poser un geste de bont\u00e9 envers un autre employ\u00e9. Apr\u00e8s cette bonne action, ils passaient le b\u00e2ton t\u00e9moin \u00e0 quelqu'un d'autre en l'encourageant \u00e0 faire de m\u00eame. Bien que les b\u00e2tons t\u00e9moins dirigeaient \u00e9galement les employ\u00e9s vers une page Web interne pour en apprendre davantage sur la campagne, l'intention \u00e9tait de promouvoir une vague de g\u00e9n\u00e9rosit\u00e9 au sein du Minist\u00e8re avant le lancement de la campagne.</p>\n\n<p>M\u00eame si l'\u00e9quipe de planification de la CCMTGC doit attendre jusqu'en janvier 2019 pour savoir si le taux de participation des jeunes professionnels a augment\u00e9, elle a d\u00e9montr\u00e9 l'importance d'\u00e9couter le public cible, d'\u00e9valuer la situation et de faire preuve d'agilit\u00e9 au moment de planifier la fa\u00e7on de s'attaquer aux d\u00e9fis.</p>\n\r\n    "
    },
    "js": {
        "en": "",
        "fr": ""
    }
}