{
    "dcr_id": "1549039019722",
    "title": {
        "en": "2019 Corn Inbred Lines Release CO474",
        "fr": "Lign\u00e9es de ma\u00efs autof\u00e9cond\u00e9es mises en circulation en 2019 - CO474"
    },
    "modified": "2019-02-07",
    "issued": "2019-02-07",
    "templatetype": "content page 1 column",
    "page_type": "0",
    "node_id": "1547567752049",
    "dc_date_created": "2019-02-07",
    "managing_branch": "PAB",
    "parent_node_id": "",
    "short_title": "",
    "exturl": "",
    "teamsite_location": {
        "en": "/default/main/AAFC-AAC/Internet-Internet/Common-Commun/WORKAREA/Common-Commun/templatedata/comm-comm/gene-gene/data/02/co474_corn_inbred_lines_1549039019722_en",
        "fr": "/default/main/AAFC-AAC/Internet-Internet/Common-Commun/WORKAREA/Common-Commun/templatedata/comm-comm/gene-gene/data/02/co474_corn_inbred_lines_1549039019722_fr"
    },
    "type_name": "comm-comm/gene-gene",
    "has_dcr_id": true,
    "label": {
        "en": "2019 Corn Inbred Lines Release CO474",
        "fr": "Lign\u00e9es de ma\u00efs autof\u00e9cond\u00e9es mises en circulation en 2019 - CO474"
    },
    "breadcrumb": {
        "en": "2019 Corn Inbred Lines Release CO474",
        "fr": "Lign\u00e9es de ma\u00efs autof\u00e9cond\u00e9es mises en circulation en 2019 - CO474"
    },
    "layout_name": "content page 1 column",
    "lang": "en",
    "refaire": false,
    "meta": {
        "viewport": {
            "en": "width=device-width,initial-scale=1",
            "fr": "width=device-width, initial-scale=1"
        },
        "issued": {
            "en": "2019-02-07",
            "fr": "2019-02-07"
        },
        "modified": {
            "en": "2019-02-07",
            "fr": "2019-02-07"
        },
        "format": {
            "en": "text/html",
            "fr": "text/html"
        },
        "title": {
            "en": "2019 Corn Inbred Lines Release CO474",
            "fr": "Lign\u00e9es de ma\u00efs autof\u00e9cond\u00e9es mises en circulation en 2019 - CO474"
        },
        "subject": {
            "en": "triticale;viral diseases;soil science",
            "fr": "d\u00e9veloppement communautaire;eau souterraine;pommes de terre-producteurs"
        },
        "dcterms:subject": {
            "en": "architecture;statistics;erosion",
            "fr": "champignon;d\u00e9veloppement communautaire;\u00e9conomie agricole"
        },
        "description": {
            "en": "Alternative formats. Derivation: B73 x (B73 x BRCsyn) Mix. Maizex 395x. 22.4. 213.3. \u00a0 9.2. Pioneer P9188AM. 32.6. 121.4. 3.8. Check Mean.",
            "fr": "Contenu archiv\u00e9. Le contenu archiv\u00e9 est fourni aux fins de r\u00e9f\u00e9rence, de recherche ou de tenue de documents. Venturia inaequalis. . Cette maladie affecte \u00e9galement le pommetier. Tr\u00e8s sensibles. 'McIntosh'; 'Vista Bella'. Sensibles."
        },
        "language": {
            "en": "eng",
            "fr": "fra"
        },
        "keywords": {
            "en": null,
            "fr": "asques"
        },
        "audience": {
            "en": "gcaudience",
            "fr": "gcaudience"
        },
        "type": {
            "en": "organizational description",
            "fr": "mat\u00e9riel publicitaire"
        },
        "creator": {
            "en": "Agriculture and Agri-Food Canada;Government of Canada",
            "fr": "Agriculture et Agroalimentaire Canada;Gouvernement du Canada"
        },
        "spatial": {
            "en": "gcregions",
            "fr": "gcregions"
        },
        "service": {
            "en": "AAFC-AAC",
            "fr": "AAFC-AAC"
        },
        "accessRights": {
            "en": "2",
            "fr": "2"
        },
        "legalName": {
            "en": "agriculture_and_agri_food_canada",
            "fr": "agriculture_et_agroalimentaire_canada"
        },
        "areaServed": {
            "en": "Canada",
            "fr": "Canada"
        }
    },
    "h1": {
        "en": "2019 Corn Inbred Lines Release CO474",
        "fr": "Lign\u00e9es de ma\u00efs autof\u00e9cond\u00e9es mises en circulation en 2019 - CO474"
    },
    "js": {
        "en": "",
        "fr": ""
    },
    "mode_html": "no_editor_full",
    "json_found": 1,
    "body": {
        "en": "\r\n    <p><b>Derivation:</b> CO444 \u00d7 CO388<br>\nEuropean flint/Stiff Stalk, BSSS B73</p>\n\n <div class=\"row\">\n<div class=\"col-md-6\">  \n\t<figure>\n<table class=\"table table-responsive table-bordered\">\n<caption class=\"text-left\"><b>Inbred Characteristics</b></caption>\n<thead>\n <tr>\t\t \t \t \t \t \t\t\n  <th scope=\"col\">Characteristic</th>\n  <th scope=\"col\">Detail</th>\n </tr>\n </thead>\n <tbody>\n<tr>\t\t \t \t \t \t \t\t\n  <td>Parent (female or male)</td>\n  <td>Both</td>\n </tr>\n <tr>\t\t\t\t\t\t\t\t\t\t\t\t\n  <td>Emergence</td>\n  <td>1<sup>a</sup></td>\n </tr>\n <tr>\t\t\t\t\t\t\t\t\t\t\t\t\n  <td>Early seedling vigour</td>\n  <td>1<sup>a</sup></td>\n </tr>\n <tr>\t\t\t\t\t\t\t\t\t\t\t\t\n  <td>Plant height</td>\n  <td>190 cm</td>\n </tr>\n <tr>\t\t\t\t\t\t\t\t\t\t\t\t\n  <td>Number of leaves</td>\n  <td>16</td>\n </tr>\n <tr>\t\t\t\t\t\t\t\t\t\t\t\t\n  <td>Leaf angle</td>\n  <td>Semi-erect</td>\n </tr>\n <tr>\t\t\t\t\t\t\t\t\t\t\t\t\n  <td>Ear height</td>\n  <td>80 cm</td>\n </tr>\n <tr>\t\t\t\t\t\t\t\t\t\t\t\t\n  <td>Days to mid pollen</td>\n  <td>75<sup>b</sup></td>\n </tr>\n <tr>\t\t\t\t\t\t\t\t\t\t\t\t\n  <td>Days to mid silk</td>\n  <td>76<sup>b</sup></td>\n </tr>\n <tr>\t\t\t\t\t\t\t\t\t\t\t\t\n  <td>Ear type</td>\n  <td>Cylindrical</td>\n </tr>\n <tr>\t\t\t\t\t\t\t\t\t\t\t\t\n  <td>Ear length</td>\n  <td>12-13 cm</td>\n </tr>\n <tr>\t\t\t\t\t\t\t\t\t\t\t\t\n  <td>Ear diameter</td>\n  <td>4-4.5 cm</td>\n </tr>\n <tr>\t\t\t\t\t\t\t\t\t\t\t\t\n  <td>Cob colour (anthocyanin)</td>\n  <td>Red</td>\n </tr>\n <tr>\t\t\t\t\t\t\t\t\t\t\t\t\n  <td>Kernel rows</td>\n  <td>12-14</td>\n </tr>\n <tr>\t\t\t\t\t\t\t\t\t\t\t\t\n  <td>Kernel shape</td>\n  <td>Wedge</td>\n </tr>\n <tr>\t\t\t\t\t\t\t\t\t\t\t\t\n  <td>Kernel type</td>\n  <td>Semi-dent</td>\n </tr>\n <tr>\t\t\t\t\t\t\t\t\t\t\t\t\n  <td>Kernel colour</td>\n  <td>Yellow</td>\n </tr>\n <tr>\t\t\t\t\t\t\t\t\t\t\t\t\n  <td>Husk cover from ear tip</td>\n  <td>6-7 cm</td>\n </tr>\n </tbody>\n<tfoot>\n<tr>\n<td colspan=\"2\">\na Scale: 1 = Excellent, 5 = Poor<br>\nb Days from planting\n</td>\n</tr>\n</tfoot>\n</table>\n</figure>\n </div>\n \n  <div class=\"col-md-2\">\n\t  \n<img class=\"img-responsive\" src=\"https://www.agr.gc.ca/resources/prod/img/science/images/corn_co474a.jpg\">\n\n<img class=\"mrgn-tp-md img-responsive\" src=\"https://www.agr.gc.ca/resources/prod/img/science/images/corn_co474b.jpg\">\n\n<img class=\"mrgn-tp-md img-responsive\" src=\"https://www.agr.gc.ca/resources/prod/img/science/images/corn_co474c.jpg\">\n\n</div>\n\n  <div class=\"col-md-3\">\n\n<img class=\"img-responsive\" src=\"https://www.agr.gc.ca/resources/prod/img/science/images/corn_co474d.jpg\">\n</div>\n\n\n</div>\n\n\n <div class=\"row\">\n   <div class=\"col-md-6\">  \n\t   <figure>\n<table class=\"table table-responsive table-bordered\">\n<caption class=\"text-left\"><b>Pest Resistance Ratings</b></caption>\n  <thead>\n<tr>\n<th scope=\"col\">Term</th>\n<th scope=\"col\">Detail</th>\n</tr>\n</thead>\n <tbody>\n <tr>\t\t\t\t\t\t\t\t\t\t\t\t\n  <td>Gibberella ear rot</td>\n  <td class=\"align-centre\">S</td>\n </tr>\n  <tr>\t\t\t\t\t\t\t\t\t\t\t\t\n  <td>Smut</td>\n  <td class=\"align-centre\">S</td>\n </tr>\n  <tr>\t\t\t\t\t\t\t\t\t\t\t\t\n  <td>Fusarium stalk rot</td>\n  <td class=\"align-centre\">I</td>\n </tr>\n  <tr>\t\t\t\t\t\t\t\t\t\t\t\t\n  <td>Northern leaf blight</td>\n  <td class=\"align-centre\">I</td>\n </tr>\n  <tr>\t\t\t\t\t\t\t\t\t\t\t\t\n  <td>Eyespot</td>\n  <td class=\"align-centre\">MR</td>\n </tr>\n  <tr>\t\t\t\t\t\t\t\t\t\t\t\t\n  <td>Rust</td>\n  <td class=\"align-centre\">MR</td>\n </tr>\n  <tr>\t\t\t\t\t\t\t\t\t\t\t\t\n  <td>Goss's wilt</td>\n  <td class=\"align-centre\">I</td>\n </tr>\n </tbody>\n<tfoot>\n<tr>\n<td colspan=\"2\">\nMR = Moderately Resistant<br>\nI = Intermediate<br>\nS = Susceptible\n</td>\n</tr>\n</tfoot>\n</table>\n</figure>\n</div>\n     <div class=\"col-md-6\"> \n  \n\t\t <figure>\n<table class=\"table table-responsive table-bordered\">\n <caption class=\"text-left\"><b>Production Information</b></caption>\n<thead>\n<tr>\n<th scope=\"col\">Term</th>\n<th scope=\"col\">Detail</th>\n</tr>\n</thead>\n <tbody>\n <tr>\t\t\t\t\t\t\t\t\t\t\t\t\n  <td>Seed parent yield</td>\n  <td class=\"align-centre\">62 g</td>\n </tr>\n  <tr>\t\t\t\t\t\t\t\t\t\t\t\t\n  <td>Silk emergence</td>\n  <td class=\"align-centre\">1<sup>a</sup></td>\n </tr>\n  <tr>\t\t\t\t\t\t\t\t\t\t\t\t\n  <td>Tassel extension</td>\n  <td class=\"align-centre\">1<sup>a</sup></td>\n </tr>\n  <tr>\t\t\t\t\t\t\t\t\t\t\t\t\n  <td>Pollen shed</td>\n  <td class=\"align-centre\">1<sup>a</sup></td>\n </tr>\n </tbody>\n<tfoot>\n<tr>\n<td colspan=\"2\">\na Scale: 1 = Excellent, 5 = Poor\n</td>\n</tr>\n</tfoot>\n</table>\n</figure>\n\n </div>\n</div>\n\n\n<div class=\"clear\"></div>\n\n<h2>Corn yield data table for C0474</h2>\n\n<div class=\"well well-sm\">\n<form class=\"wb-tables-filter\" data-bind-to=\"products-filter\">\n<div class=\"row\">\n<div class=\"col-md-3\">\n<div class=\"form-group\">\n<label for=\"dt_Year\">Year</label>\n<select class=\"form-control\" id=\"dt_Year\" name=\"dt_Year\" data-column=\"0\">\n<option value=\"\">All years</option>\n<option value=\"2018\">2018</option>\n<option value=\"2017\">2017</option>\n<option value=\"2016\">2016</option>\n</select>\n</div>\n</div>\n\n<div class=\"col-md-3\">\n<div class=\"form-group\">\n<label for=\"dt_chu\">CHU</label>\n<select class=\"form-control\" id=\"dt_chu\" name=\"dt_chu\" data-column=\"2\">\n<option value=\"\">All CHU</option>\n<option value=\"2750\">2750</option>\n<option value=\"2800\">2800</option>\n<option value=\"2850\">2850</option>\n<option value=\"2900\">2900</option>\n<option value=\"2950\">2950</option>\n</select>\n</div>\n</div>\n\n<div class=\"col-md-3\">\n<div class=\"form-group\">\n<label for=\"dt_City\">City</label>\n<select class=\"form-control\" id=\"dt_City\" name=\"dt_City\" data-column=\"1\">\n<option value=\"\">All cities</option>\n<option value=\"Beloeil, QC\">Beloeil, QC</option>\n<option value=\"Blyth, ON\">Blyth, ON</option>\n<option value=\"Ottawa, ON\">Ottawa, ON</option>\n<option value=\"Saint Hyacinthe, QC\">Saint Hyacinthe, QC</option>\n<option value=\"Winchester, ON\">Winchester, ON</option>\n<option value=\"Wingham, ON\">Wingham, ON</option>\n</select>\n</div>\n</div>\n<div class=\"col-md-3\">\n<div class=\"form-group\">\n<label for=\"dt_Hybrid\">Hybrid</label>\n<select class=\"form-control\" id=\"dt_Hybrid\" name=\"dt_Hybrid\" data-column=\"5\">\n<option value=\"\">All hybrids</option>\n<option value=\"CHECK MEAN\">CHECK MEAN</option>\n<option value=\"CO474xMBS1130GT\">CO474xMBS1130GT</option>\n<option value=\"CO474xMBS1130RR\">CO474xMBS1130RR</option>\n<option value=\"CO474xMBS8148\">CO474xMBS8148</option>\n<option value=\"CO474xTR1633HXT\">CO474xTR1633HXT</option>\n<option value=\"CO474xTR2040 RMQZ\">CO474xTR2040 RMQZ</option>\n<option value=\"CO474xTR2040 RR\">CO474xTR2040 RR</option>\n<option value=\"CV\">CV</option>\n<option value=\"DEKALB DKC38-03RIB\">DEKALB DKC38-03RIB</option>\n<option value=\"DKC38-03RIBDEKALB\">DKC38-03RIBDEKALB</option>\n<option value=\"GRAND MEAN\">GRAND MEAN</option>\n<option value=\"MAIZEX MZ 266x\">MAIZEX MZ 266x</option>\n<option value=\"MAIZEX MZ 395x\">MAIZEX MZ 395x</option>\n<option value=\"PIONEER P8542AM\">PIONEER P8542AM</option>\n<option value=\"PIONEER P8622R\">PIONEER P8622R</option>\n<option value=\"PIONEER P8906R\">PIONEER P8906R</option>\n<option value=\"PIONEER P9188AM\">PIONEER P9188AM</option>\n<option value=\"PRIDE A6015\">PRIDE A6015</option>\n<option value=\"PRIDE A6419G2\">PRIDE A6419G2</option>\n<option value=\"REPS\">REPS</option>\n</select>\n</div>\n</div>\n</div>\n<button type=\"submit\" class=\"btn btn-primary\" aria-controls=\"products-filter\">Filter</button>\n<button type=\"reset\" class=\"btn btn-default\">Clear</button>\n</form>\n</div>\n \n<table class=\"wb-tables table table-responsive table-bordered table-striped table-hover\" id=\"products-filter\" aria-live=\"polite\" data-wb-tables='{\n            \"bDeferRender\": true,\n            \"ajaxSource\": \"/resources/prev/doc/science/co474a_2019-eng.json\",\n            \"order\": [8, \"desc\"],\n             \"columns\": [\n                { \"data\": \"Year\", \"visible\": true },\n                { \"data\": \"City\", \"visible\": true },\n                { \"data\": \"CHU\", \"visible\": true },\n                { \"data\": \"FAO\", \"visible\": true },\n                { \"data\": \"GDD\", \"visible\": true },\n                { \"data\": \"Hybrid\", \"visible\": true },\n                { \"data\": \"Moisture %\", \"visible\": true },\n                { \"data\": \"BU-AC\", \"visible\": true },\n                { \"data\": \"Yield-Moisture\", \"visible\": true }\n              ]}'> \n<thead>\n<tr>\n<th>Year</th>\n<th>City</th>\n<th>CHU</th>\n<th>FAO</th>\n<th>GDD</th>\n<th>Hybrid</th>\n<th>Moisture %</th>\n<th>Bu/Ac</th>\n<th>Yield/Moisture</th>\n</tr>\n</thead>\n<tfoot>\n<tr>\n<td colspan=\"9\">\n<ul class=\"list-inline list-unstyled\"><li>AB: Alberta</li>\n <li>MB: Manitoba</li>\n<li>ON: Ontario</li>\n<li>QC: Quebec</li></ul>\n\n<ul class=\"list-inline list-unstyled\">\n<li>-- :  no data</li>\n<li>Bu/Ac: Bushels per acre</li>\n<li>CHU: Corn heat units</li>\n<li>CV: Coefficient of variation</li>\n<li>FAO: Food and Agriculture Organization</li>\n<li>GDD: Growing degree days</li>\n<li>REPS: Replicates</li>\n</ul>\n\n</td>\n</tr>\n</tfoot>\n</table>\n \n\n<h2>Further technical information</h2>\n\n<p>Dr. Lana Reid<br>\nCorn Breeding and Pathology<br>\nOttawa Research and Development Centre <br>\nCentral Experimental Farm<br>\nOttawa, Ontario, K1A OC6</p>\n\n<p>Phone: (613) 759-1619<br> \nFax: (613) 952-9295<br>\nE-Mail: <a href=\"mailto:Lana.Reid@canada.ca\">Lana.Reid@canada.ca</a></p>\n\r\n    ",
        "fr": "\r\n    <p><b>Origine\u00a0:</b> CO444 \u00d7 CO388<br>\nM\u00e9lange, BSSS B73</p>\n\n <div class=\"row\">\n<div class=\"col-md-6\">  \n\t<figure>\n<table class=\"table table-responsive table-bordered\">\n<caption class=\"text-left\"><b>Caract\u00e9ristiques de la lign\u00e9e pure</b></caption>\n<thead>\n <tr>\t\t \t \t \t \t \t\t\n  <th scope=\"col\">Caract\u00e9ristiques</th>\n  <th scope=\"col\">D\u00e9tail</th>\n </tr>\n </thead>\n <tbody>\n<tr>\t\t \t \t \t \t \t\t\n  <td>Parent (femelle ou m\u00e2le)</td>\n  <td>Les deux</td>\n </tr>\n <tr>\t\t\t\t\t\t\t\t\t\t\t\t\n  <td>Lev\u00e9e</td>\n  <td>1<sup>a</sup></td>\n </tr>\n <tr>\t\t\t\t\t\t\t\t\t\t\t\t\n  <td>Vigueur \u00e0 la lev\u00e9e</td>\n  <td>1<sup>a</sup></td>\n </tr>\n <tr>\t\t\t\t\t\t\t\t\t\t\t\t\n  <td>Hauteur de la plante</td>\n  <td>190 cm</td>\n </tr>\n <tr>\t\t\t\t\t\t\t\t\t\t\t\t\n  <td>Nombre de feuilles</td>\n  <td>16</td>\n </tr>\n <tr>\t\t\t\t\t\t\t\t\t\t\t\t\n  <td>Angle de la feuille</td>\n  <td>Demi-dress\u00e9e</td>\n </tr>\n <tr>\t\t\t\t\t\t\t\t\t\t\t\t\n  <td>Hauteur d'insertion des \u00e9pis</td>\n  <td>80 cm</td>\n </tr>\n <tr>\t\t\t\t\t\t\t\t\t\t\t\t\n  <td>50% lib\u00e9ration du pollen en jours</td>\n  <td>75<sup>b</sup></td>\n </tr>\n <tr>\t\t\t\t\t\t\t\t\t\t\t\t\n  <td>50% floraison femelle en jours</td>\n  <td>76<sup>b</sup></td>\n </tr>\n <tr>\t\t\t\t\t\t\t\t\t\t\t\t\n  <td>Type d'\u00e9pi</td>\n  <td>Cylindrique</td>\n </tr>\n <tr>\t\t\t\t\t\t\t\t\t\t\t\t\n  <td>Longueur de l'\u00e9pi</td>\n  <td>12-13 cm</td>\n </tr>\n <tr>\t\t\t\t\t\t\t\t\t\t\t\t\n  <td>Diam\u00e8tre de l'\u00e9pi</td>\n  <td>4-4.5 cm</td>\n </tr>\n <tr>\t\t\t\t\t\t\t\t\t\t\t\t\n  <td>Pigmentation anthocyanique (rafle)</td>\n  <td>Rouge</td>\n </tr>\n <tr>\t\t\t\t\t\t\t\t\t\t\t\t\n  <td>Nombre de rangs de grains</td>\n  <td>12-14</td>\n </tr>\n <tr>\t\t\t\t\t\t\t\t\t\t\t\t\n  <td>Forme du grain</td>\n  <td>Cun\u00e9iforme</td>\n </tr>\n <tr>\t\t\t\t\t\t\t\t\t\t\t\t\n  <td>Type de grain</td>\n  <td>Corn\u00e9dent\u00e9</td>\n </tr>\n <tr>\t\t\t\t\t\t\t\t\t\t\t\t\n  <td>Couleur du grain</td>\n  <td>Jaune</td>\n </tr>\n <tr>\t\t\t\t\t\t\t\t\t\t\t\t\n  <td>Longueur des spathes depuis l'extr\u00e9mit\u00e9 de l'\u00e9pi</td>\n  <td>6-7 cm</td>\n </tr>\n </tbody>\n<tfoot>\n<tr>\n<td colspan=\"2\">\na \u00c9chelle : 1 = Excellent, 5 = M\u00e9diocre<br>\nb Nombre de jours depuis la plantation\n</td>\n</tr>\n</tfoot>\n</table>\n</figure>\n </div>\n \n  <div class=\"col-md-2\">\n<img class=\"img-responsive\" src=\"https://www.agr.gc.ca/resources/prod/img/science/images/corn_co474a.jpg\">\n<img class=\"mrgn-tp-md img-responsive\" src=\"https://www.agr.gc.ca/resources/prod/img/science/images/corn_co474b.jpg\">\n<img class=\"mrgn-tp-md img-responsive\" src=\"https://www.agr.gc.ca/resources/prod/img/science/images/corn_co474c.jpg\">\n</div>\n\n  <div class=\"col-md-3\">\n<img class=\"img-responsive\" src=\"https://www.agr.gc.ca/resources/prod/img/science/images/corn_co474d.jpg\">\n</div>\n\n</div>\n\n\n <div class=\"row\">\n   <div class=\"col-md-6\">  \n\t   <figure>\n<table class=\"table table-responsive table-bordered\">\n<caption class=\"text-left\"><b>R\u00e9sistance (maladies\u2013ravageurs)</b></caption>\n  <thead>\n<tr>\n<th scope=\"col\">Terme</th>\n<th scope=\"col\">D\u00e9tail</th>\n</tr>\n</thead>\n <tbody>\n <tr>\t\t\t\t\t\t\t\t\t\t\t\t\n  <td>Pourriture fusarienne (\u00e9pi)</td>\n  <td class=\"align-centre\">S</td>\n </tr>\n  <tr>\t\t\t\t\t\t\t\t\t\t\t\t\n  <td>Charbon</td>\n  <td class=\"align-centre\">S</td>\n </tr>\n  <tr>\t\t\t\t\t\t\t\t\t\t\t\t\n  <td>Pourriture fusarienne (tige)</td>\n  <td class=\"align-centre\">I</td>\n </tr>\n  <tr>\t\t\t\t\t\t\t\t\t\t\t\t\n  <td>Dess\u00e8chement</td>\n  <td class=\"align-centre\">I</td>\n </tr>\n  <tr>\t\t\t\t\t\t\t\t\t\t\t\t\n  <td>Kabatiellose</td>\n  <td class=\"align-centre\">MR</td>\n </tr>\n  <tr>\t\t\t\t\t\t\t\t\t\t\t\t\n  <td>Rouille</td>\n  <td class=\"align-centre\">MR</td>\n </tr>\n  <tr>\t\t\t\t\t\t\t\t\t\t\t\t\n  <td>Fl\u00e9trissement de goss</td>\n  <td class=\"align-centre\">I</td>\n </tr>\n </tbody>\n<tfoot>\n<tr>\n<td colspan=\"2\">\nHR = Hautement r\u00e9sistant<br>\nI = Interm\u00e9diaire<br>\nS = Sensible\n</td>\n</tr>\n</tfoot>\n</table>\n</figure>\n</div>\n     <div class=\"col-md-6\"> \n  \n\t\t <figure>\n<table class=\"table table-responsive table-bordered\">\n <caption class=\"text-left\"><b>Informations pour la production</b></caption>\n<thead>\n<tr>\n<th scope=\"col\">Terme</th>\n<th scope=\"col\">D\u00e9tail</th>\n</tr>\n</thead>\n <tbody>\n <tr>\t\t\t\t\t\t\t\t\t\t\t\t\n  <td>Rendement du parent femelle</td>\n  <td class=\"align-centre\">62 g</td>\n </tr>\n  <tr>\t\t\t\t\t\t\t\t\t\t\t\t\n  <td>Apparition des soies</td>\n  <td class=\"align-centre\">1<sup>a</sup></td>\n </tr>\n  <tr>\t\t\t\t\t\t\t\t\t\t\t\t\n  <td>D\u00e9velop. panicule m\u00e2le</td>\n  <td class=\"align-centre\">1<sup>a</sup></td>\n </tr>\n  <tr>\t\t\t\t\t\t\t\t\t\t\t\t\n  <td>Lib\u00e9ration du pollen</td>\n  <td class=\"align-centre\">1<sup>a</sup></td>\n </tr>\n </tbody>\n<tfoot>\n<tr>\n<td colspan=\"2\">\n\u00c9chelle : 1 = Excellent, 5 = M\u00e9diocre\n</td>\n</tr>\n</tfoot>\n</table>\n</figure>\n\n </div>\n</div>\n\n\n<div class=\"clear\"></div>\n\n<h2>Tableau des donn\u00e9es de rendement du ma\u00efs C0474</h2>\n\n<div class=\"well well-sm\">\n<form class=\"wb-tables-filter\" data-bind-to=\"products-filter\">\n<div class=\"row\">\n<div class=\"col-md-3\">\n<div class=\"form-group\">\n<label for=\"dt_Year\">Ann\u00e9e</label>\n<select class=\"form-control\" id=\"dt_Year\" name=\"dt_Year\" data-column=\"0\">\n<option value=\"\">Toutes les ann\u00e9es</option>\n<option value=\"2018\">2018</option>\n<option value=\"2017\">2017</option>\n<option value=\"2016\">2016</option>\n</select>\n</div>\n</div>\n\n<div class=\"col-md-3\">\n<div class=\"form-group\">\n<label for=\"dt_chu\">UTM</label>\n<select class=\"form-control\" id=\"dt_chu\" name=\"dt_chu\" data-column=\"2\">\n<option value=\"\">Tous les UTM</option>\n<option value=\"2750\">2750</option>\n<option value=\"2800\">2800</option>\n<option value=\"2850\">2850</option>\n<option value=\"2900\">2900</option>\n<option value=\"2950\">2950</option>\n</select>\n</div>\n</div>\n\n<div class=\"col-md-3\">\n<div class=\"form-group\">\n<label for=\"dt_City\">Ville</label>\n<select class=\"form-control\" id=\"dt_City\" name=\"dt_City\" data-column=\"1\">\n<option value=\"\">Toutes les villes</option>\n<option value=\"Beloeil, QC\">Beloeil, QC</option>\n<option value=\"Blyth, ON\">Blyth, ON</option>\n<option value=\"Ottawa, ON\">Ottawa, ON</option>\n<option value=\"Saint Hyacinthe, QC\">Saint Hyacinthe, QC</option>\n<option value=\"Winchester, ON\">Winchester, ON</option>\n<option value=\"Wingham, ON\">Wingham, ON</option>\n</select>\n</div>\n</div>\n<div class=\"col-md-3\">\n<div class=\"form-group\">\n<label for=\"dt_Hybrid\">Hybride</label>\n<select class=\"form-control\" id=\"dt_Hybrid\" name=\"dt_Hybrid\" data-column=\"5\">\n<option value=\"\">Tous les hybrides</option>\n<option value=\"CHECK MEAN\">CHECK MEAN</option>\n<option value=\"CO474xMBS1130GT\">CO474xMBS1130GT</option>\n<option value=\"CO474xMBS1130RR\">CO474xMBS1130RR</option>\n<option value=\"CO474xMBS8148\">CO474xMBS8148</option>\n<option value=\"CO474xTR1633HXT\">CO474xTR1633HXT</option>\n<option value=\"CO474xTR2040 RMQZ\">CO474xTR2040 RMQZ</option>\n<option value=\"CO474xTR2040 RR\">CO474xTR2040 RR</option>\n<option value=\"CO474xTR2040RMQZ\">CO474xTR2040RMQZ</option>\n<option value=\"CV\">CV</option>\n<option value=\"DEKALB DKC38-03RIB\">DEKALB DKC38-03RIB</option>\n<option value=\"DKC38-03RIBDEKALB\">DKC38-03RIBDEKALB</option>\n<option value=\"GRAND MEAN\">GRAND MEAN</option>\n<option value=\"MAIZEX MZ 266x\">MAIZEX MZ 266x</option>\n<option value=\"MAIZEX MZ 395x\">MAIZEX MZ 395x</option>\n<option value=\"MAIZEX MZ266x\">MAIZEX MZ266x</option>\n<option value=\"MAIZEX MZ395x\">MAIZEX MZ395x</option>\n<option value=\"PIONEER P8542AM\">PIONEER P8542AM</option>\n<option value=\"PIONEER P8622R\">PIONEER P8622R</option>\n<option value=\"PIONEER P8906R\">PIONEER P8906R</option>\n<option value=\"PIONEER P9188AM\">PIONEER P9188AM</option>\n<option value=\"PRIDE A6015\">PRIDE A6015</option>\n<option value=\"PRIDE A6419G2\">PRIDE A6419G2</option>\n<option value=\"REPS\">REPS</option>\n</select>\n</div>\n</div>\n</div>\n<button type=\"submit\" class=\"btn btn-primary\" aria-controls=\"products-filter\">Filtrer</button>\n<button type=\"reset\" class=\"btn btn-default\">Effacer</button>\n</form>\n</div>\n \n<table class=\"wb-tables table-responsive table table-bordered table-striped table-hover\" id=\"products-filter\" aria-live=\"polite\" data-wb-tables='{\n            \"bDeferRender\": true,\n            \"ajaxSource\": \"/resources/prev/doc/science/co474_2019-fra.json\",\n            \"order\": [8, \"desc\"],\n             \"columns\": [\n                { \"data\": \"Year\", \"visible\": true },\n                { \"data\": \"City\", \"visible\": true },\n                { \"data\": \"CHU\", \"visible\": true },\n                { \"data\": \"FAO\", \"visible\": true },\n                { \"data\": \"GDD\", \"visible\": true },\n                { \"data\": \"Hybrid\", \"visible\": true },\n                { \"data\": \"Moisture %\", \"visible\": true },\n                { \"data\": \"BU-AC\", \"visible\": true },\n                { \"data\": \"Yield-Moisture\", \"visible\": true }\n              ]}'> \n<thead>\n<tr>\n<th>Ann\u00e9e</th>\n<th>Ville</th>\n<th>UTM</th>\n<th>ONUAA</th>\n<th>DJ</th>\n<th>Hybride</th>\n<th>Humidit\u00e9 %</th>\n<th>Boiss./acre</th>\n<th>Rendement/Humidit\u00e9</th>\n</tr>\n</thead>\n<tfoot>\n<tr>\n<td colspan=\"9\">\n<ul class=\"list-inline list-unstyled\"><li>AB\u00a0: Alberta</li>\n <li>MB\u00a0: Manitoba</li>\n<li>ON\u00a0: Ontario</li>\n<li>QC\u00a0: Qu\u00e9bec</li></ul>\n\n<ul class=\"list-inline list-unstyled\">\n<li>--\u00a0:  pas de donn\u00e9es</li>\n<li>Ac\u00a0: Acres</li>\n<li>UTM\u00a0: Unit\u00e9 thermique ma\u00efs</li>\n<li>CV\u00a0: Coefficient de variation</li>\n<li>ONUAA\u00a0: Organisation des Nations unies pour l'alimentation et l'agriculture</li>\n<li>DJ\u00a0: Degr\u00e9 jour de croissance</li>\n<li>Reps\u00a0: R\u00e9p\u00e9titions</li>\n</ul>\n\n</td>\n</tr>\n</tfoot>\n</table>\n \n<h2>Pour obtenir d'autres renseignements techniques</h2>\n\n<p>Dr. Lana Reid<br>\nS\u00e9lection et pathologie du ma\u00efs<br>\nCentre de recherche et de d\u00e9veloppement d'Ottawa<br>\nFerme exp\u00e9rimentale centrale<br>\nOttawa, Ontario, K1A OC6</p>\n\n<p>T\u00e9l\u00e9phone\u00a0: (613) 759-1619<br> \nFax\u00a0: (613) 952-9295<br>\nE-Courriel\u00a0: <a href=\"mailto:Lana.Reid@canada.ca\">Lana.Reid@canada.ca</a></p>\n\r\n    "
    }
}