{
    "dcr_id": "1549326243838",
    "title": {
        "en": "Canadian Agricultural Strategic Priorities Program - Step 2.  Who is eligible",
        "fr": "Programme canadien des priorit\u00e9s strat\u00e9giques de l\u2019agriculture - \u00c9tape 2. Qui est admissible"
    },
    "modified": "2020-03-05",
    "issued": "2019-02-12",
    "templatetype": "content page 1 column",
    "page_type": "0",
    "node_id": "1549384482976",
    "dc_date_created": "2019-02-12",
    "managing_branch": "PAB",
    "parent_node_id": "",
    "short_title": "Step 2.   Who is eligible",
    "exturl": "",
    "teamsite_location": {
        "en": "/default/main/AAFC-AAC/Internet-Internet/Group-Ensemble/ProgServ-ProgServ/WORKAREA/ProgServ-ProgServ/templatedata/comm-comm/gene-gene/data/02/caspp_2_eligible_1549326243838_en",
        "fr": "/default/main/AAFC-AAC/Internet-Internet/Group-Ensemble/ProgServ-ProgServ/WORKAREA/ProgServ-ProgServ/templatedata/comm-comm/gene-gene/data/02/caspp_2_eligible_1549326243838_fr"
    },
    "type_name": "comm-comm/gene-gene",
    "has_dcr_id": true,
    "label": {
        "en": "Step 2.   Who is eligible",
        "fr": "\u00c9tape 2. Qui est admissible"
    },
    "breadcrumb": {
        "en": "Step 2.   Who is eligible",
        "fr": "\u00c9tape 2. Qui est admissible"
    },
    "layout_name": "content page 1 column",
    "lang": "en",
    "refaire": false,
    "meta": {
        "viewport": {
            "en": "width=device-width,initial-scale=1",
            "fr": "width=device-width, initial-scale=1"
        },
        "issued": {
            "en": "2019-02-12",
            "fr": "2019-02-12"
        },
        "modified": {
            "en": "2020-03-05",
            "fr": "2020-03-05"
        },
        "format": {
            "en": "text/html",
            "fr": "text/html"
        },
        "title": {
            "en": "Canadian Agricultural Strategic Priorities Program - Step 2.  Who is eligible",
            "fr": "Programme canadien des priorit\u00e9s strat\u00e9giques de l\u2019agriculture - \u00c9tape 2. Qui est admissible"
        },
        "subject": {
            "en": "architectural heritage;technology transfer;soil assessement",
            "fr": "semences-production;syst\u00e8mes de culture;pommes de terre-producteurs"
        },
        "dcterms:subject": {
            "en": "architectural heritage;architecture;statistics",
            "fr": "entreprise;actif;engrais"
        },
        "description": {
            "en": "Applicant Guide. Step 1.What this program offers. Public trust. \u2013 to build a firm foundation for public trust through solid regulations, improving assurance systems and traceability. A cash contribution made by another project participant should be reported as part of your sources of funding, and must be an eligible project cost.What is an in-kind contribution?In-kind means the fair market value attributed for goods and the fair value attributed for services that are contributed to this project and require no outlay of cash during the term of the CA by you or a contributor.",
            "fr": "Guide du demandeur. \u00c9tape 1.Ce qu\u2019offre ce programme. Le Partenariat canadien pour l\u2019agriculture repr\u00e9sente un investissement de trois milliards de dollars r\u00e9parti sur cinq ans r\u00e9alis\u00e9 par les gouvernements f\u00e9d\u00e9ral, provinciaux et territoriaux pour renforcer le secteur de l\u2019agriculture, de l\u2019agroalimentaire et des produits agro-industriels. Elles doivent compter au plus 250\u00a0employ\u00e9s et leur chiffre d\u2019affaires annuel ne doit pas exc\u00e9der 50\u00a0millions de dollars.Toute PME constitu\u00e9e l\u00e9galement de fa\u00e7on ind\u00e9pendante et r\u00e9pondant aux crit\u00e8res d\u2019admissibilit\u00e9 peut pr\u00e9senter une demande; toutefois, lors de l\u2019examen des demandes, la priorit\u00e9 peut \u00eatre accord\u00e9e aux organisations qui ne sont pas des filiales ou des membres d\u2019un groupe d\u2019entreprises plus important.Bien que les d\u00e9cisions soient prises au cas par cas, les repr\u00e9sentants de tierces parties, comme les maisons de commerce, les courtiers en exportation, les agents ou les promoteurs, ne sont g\u00e9n\u00e9ralement pas admissibles au volet\u00a0PME."
        },
        "language": {
            "en": "eng",
            "fr": "fra"
        },
        "keywords": {
            "en": "creation.Demonstrate;costs.What;Pre-Screening",
            "fr": "ajout\u00e9e.Confiance;Agri-innover.vous"
        },
        "audience": {
            "en": "gcaudience",
            "fr": "gcaudience"
        },
        "type": {
            "en": "presentation",
            "fr": "accord"
        },
        "creator": {
            "en": "Agriculture and Agri-Food Canada;Government of Canada",
            "fr": "Agriculture et Agroalimentaire Canada;Gouvernement du Canada"
        },
        "spatial": {
            "en": "gcregions",
            "fr": "gcregions"
        },
        "service": {
            "en": "AAFC-AAC",
            "fr": "AAFC-AAC"
        },
        "accessRights": {
            "en": "2",
            "fr": "2"
        },
        "legalName": {
            "en": "agriculture_and_agri_food_canada",
            "fr": "agriculture_et_agroalimentaire_canada"
        },
        "areaServed": {
            "en": "Canada",
            "fr": "Canada"
        }
    },
    "h1": {
        "en": "Canadian Agricultural Strategic Priorities Program - Step 2. Who is eligible",
        "fr": "Programme canadien des priorit\u00e9s strat\u00e9giques de l\u2019agriculture - \u00c9tape 2. Qui est admissible"
    },
    "js": {
        "en": "",
        "fr": ""
    },
    "body": {
        "en": "\r\n    <div class=\"mrgn-tp-md mrgn-bttm-lg brdr-bttm\">\n\n<div class=\"row\">\n<ul class=\"toc lst-spcd col-md-12 list-unstyled\">\n<li class=\"col-md-4 col-sm-6\"><span class=\"list-group-item\">Step 1. <a href=\"?id=1549325740130\">What this program offers</a></span></li>\n\n<li class=\"col-md-4 col-sm-6\"><span class=\"list-group-item active\">Step 2.  Who is eligible</span></li>\n\n<li class=\"col-md-4 col-sm-6\"><span class=\"list-group-item\">Step 3. <a href=\"?id=1549326775133\">How to apply</a></span></li>\n\n<li class=\"col-md-4 col-sm-6\"><span class=\"list-group-item\">Step 4. <a href=\"?id=1549327137525\">After you apply</a></span></li>\n\n<li class=\"col-md-4 col-sm-6\"><span class=\"list-group-item\"><a href=\"?id=1549327437463\">Applicant guide</a></span></li>\n\n<li class=\"col-md-4 col-sm-6\"><span class=\"list-group-item\"><a href=\"?id=1549382909015\">Frequently Asked Questions</a></span></li> \n\n<li class=\"col-md-4 col-sm-6\"><span class=\"list-group-item\"><a href=\"?id=1549384578563\">Contact information</a></span></li>\n</ul>\n</div>\n</div>\n\n<h2>Step 2.  Who is eligible</h2>\n\n<p>Not-for profit organizations that are incorporated in Canada.</p>\n\n<p>They can include:</p>\n\n<ul>\n<li>not-for profit organizations and associations, cooperatives, marketing boards; and</li>\n<li>Indigenous groups.</li>\n</ul>\n\n<p>Note:  Eligible applicants must be legal entities that are capable of entering into legally binding agreements.</p>\n\n<h3>Scope of Projects</h3>\n\n<p>CASPP will only consider projects that are national or sector-wide in scope.</p>\n\n<p>To demonstrate this scope, applicants must make sure that the project:</p>\n\n<ul>\n<li>involves or is supported by groups or individuals that represent the targeted agriculture and agri-food sector (national or sector-wide); and,</li>\n<li>ultimately benefits the stakeholders of the targeted agriculture and agri-food sector, which includes provision of demonstrable benefit to both public and private participants in the entire sector.</li>\n</ul>\n\n\n<nav>\n  <h2 class=\"wb-inv\">Previous-next document navigation - bottom</h2>\n\n<div class=\"row\">\n<div class=\"col-md-12 mrgn-lft-0 mrgn-rght-0\">\n<ul class=\"pager\">\n<li class=\"previous\"><a href=\"?id=1549325740130\" rel=\"prev\" title=\"What this program offers\">Previous</a></li>\n<li class=\"next\"><a href=\"?id=1549326775133\" rel=\"next\" title=\"How to apply\">Next</a></li>\n</ul>\n</div>\n</div>\n</nav>\n\r\n    ",
        "fr": "\r\n    <div class=\"mrgn-tp-md mrgn-bttm-lg brdr-bttm\">\n<div class=\"row\">\n<ul class=\"toc lst-spcd col-md-12 list-unstyled\">\n<li class=\"col-md-3 col-sm-6\"><span class=\"list-group-item\">\u00c9tape 1. <a href=\"?id=1549325740130\">Ce qu'offre ce programme</a></span></li>\n<li class=\"col-md-3 col-sm-6\"><span class=\"list-group-item active\">\u00c9tape 2.  Qui est admissible</span></li>\n<li class=\"col-md-3 col-sm-6\"><span class=\"list-group-item\">\u00c9tape 3. <a href=\"?id=1549326775133\">Comment pr\u00e9senter une demande</a></span></li>\n\n\n<li class=\"col-md-3 col-sm-6\"><span class=\"list-group-item\">\u00c9tape 4. <a href=\"?id=1549327137525\">Apr\u00e8s avoir pr\u00e9sent\u00e9 votre demande</a></span></li>\n<li class=\"col-md-3 col-sm-6\"><span class=\"list-group-item\"><a href=\"?id=1549327437463\">Guide du demandeur</a></span></li>\n<li class=\"col-md-3 col-sm-6\"><span class=\"list-group-item\"><a href=\"?id=1549382909015\">Foire aux questions</a></span></li> \n\n<li class=\"col-md-3 col-sm-6\"><span class=\"list-group-item\"><a href=\"?id=1549384578563\">Pour nous joindre</a></span></li>\n</ul>\n</div>\n</div>\n\n<h2>\u00c9tape 2. Qui est admissible</h2>\n\n<p>Organisations sans but lucratif constitu\u00e9es en personne morale au Canada.</p>\n\n<p>Elles comprennent notamment :</p>\n<ul>\n<li>les organismes ou associations sans but lucratif, les coop\u00e9ratives, les offices de commercialisation; et</li>\n<li>les groupes autochtones.</li>\n</ul>\n\n<p>Remarque : Pour \u00eatre admissibles, les demandeurs doivent \u00eatre des entit\u00e9s juridiques au Canada en mesure de conclure des ententes juridiquement contraignantes. </p>\n\n<h3>Port\u00e9e des projets</h3>\n\n<p>Seuls les projets nationaux ou sectoriels seront \u00e9tudi\u00e9s au titre du PCPSA.</p>\n\n<p>Pour d\u00e9montrer cette port\u00e9e, les demandeurs doivent s'assurer que le projet\u00a0: </p>\n<ul>\n<li>b\u00e9n\u00e9ficie de la participation ou de l'appui de groupes ou de personnes qui repr\u00e9sentent le secteur agricole et agroalimentaire vis\u00e9 (\u00e0 l'\u00e9chelle nationale ou sectorielle);</li>\n<li>profite ultimement aux intervenants du secteur agricole et agroalimentaire vis\u00e9, ce qui comprend de d\u00e9montrer des avantages pour les intervenants publics et priv\u00e9s \u00e0 l'\u00e9chelle du secteur.</li>\n</ul>\n\n\n<nav>\n<h2 class=\"wb-inv\">Navigation du document - pr\u00e9c\u00e9dente-suivante - bas</h2>\n\n<div class=\"row\">\n<div class=\"col-md-12 mrgn-lft-0 mrgn-rght-0\">\n<ul class=\"pager\">\n<li class=\"previous\"><a href=\"?id=1549325740130\" rel=\"prev\" title=\"Ce qu'offre ce programme\">Pr\u00e9c\u00e9dente</a></li>\n<li class=\"next\"><a href=\"?id=1549326775133\" rel=\"next\" title=\"Comment pr\u00e9senter une demande\">Suivante</a></li>\n</ul>\n</div>\n</div>\n</nav>\n\r\n    "
    }
}