{
    "dcr_id": "1550069113800",
    "title": {
        "en": "2018 Corn Inbred Lines Release CO473",
        "fr": "Lign\u00e9es de ma\u00efs autof\u00e9cond\u00e9es mises en circulation en 2018 - CO473"
    },
    "modified": "2019-03-08",
    "issued": "2019-03-08",
    "templatetype": "content page 1 column",
    "page_type": "0",
    "node_id": "1547567752049",
    "dc_date_created": "2019-03-08",
    "managing_branch": "PAB",
    "parent_node_id": "",
    "short_title": "",
    "exturl": "",
    "teamsite_location": {
        "en": "/default/main/AAFC-AAC/Internet-Internet/Common-Commun/WORKAREA/Common-Commun/templatedata/comm-comm/gene-gene/data/02/co473_corn_inbred_lines_1550069113800_en",
        "fr": "/default/main/AAFC-AAC/Internet-Internet/Common-Commun/WORKAREA/Common-Commun/templatedata/comm-comm/gene-gene/data/02/co473_corn_inbred_lines_1550069113800_fr"
    },
    "type_name": "comm-comm/gene-gene",
    "has_dcr_id": true,
    "label": {
        "en": "2018 Corn Inbred Lines Release CO473",
        "fr": "Lign\u00e9es de ma\u00efs autof\u00e9cond\u00e9es mises en circulation en 2018 - CO473"
    },
    "breadcrumb": {
        "en": "2018 Corn Inbred Lines Release CO473",
        "fr": "Lign\u00e9es de ma\u00efs autof\u00e9cond\u00e9es mises en circulation en 2018 - CO473"
    },
    "layout_name": "content page 1 column",
    "lang": "en",
    "refaire": false,
    "meta": {
        "viewport": {
            "en": "width=device-width,initial-scale=1",
            "fr": "width=device-width, initial-scale=1"
        },
        "issued": {
            "en": "2019-03-08",
            "fr": "2019-03-08"
        },
        "modified": {
            "en": "2019-03-08",
            "fr": "2019-03-08"
        },
        "format": {
            "en": "text/html",
            "fr": "text/html"
        },
        "title": {
            "en": "2018 Corn Inbred Lines Release CO473",
            "fr": "Lign\u00e9es de ma\u00efs autof\u00e9cond\u00e9es mises en circulation en 2018 - CO473"
        },
        "subject": {
            "en": "water;strawberries;triticale",
            "fr": "rotation des cultures;gestion de cultures;ma\u00efs"
        },
        "dcterms:subject": {
            "en": "architecture;statistics;erosion",
            "fr": "g\u00e9omatique;industrie laiti\u00e8re;champignon"
        },
        "description": {
            "en": "CO468 \u2022 DERIVATION: A553N Htn2 \u00d7 CO388^4 (BSSS). CO469 \u2022 DERIVATION: A632 Htn1 \u00d7 CO388^4 (BSSS). CO470 \u2022 DERIVATION: H102 Htm \u00d7 CO388^4 (BSSS). CO471 \u2022 DERIVATION: A619 Ht2 \u00d7 CO428^4 (Lancaster). CO472 \u2022 DERIVATION: A632 Htn \u00d7 CO428^4 (Lancaster). CO473 \u2022 DERIVATION: H102 Htm \u00d7 CO428^4 (Lancaster). Inbred Characteristics. 14. 12-14. 12. Kernel Shape. 2016. CHU. All CHU. 2750. 2850.",
            "fr": "CO468 \u2022 Origine\u00a0: A553N Htn2 \u00d7 CO388^4 (BSSS). CO469 \u2022 Origine\u00a0: A632 Htn1 \u00d7 CO388^4 (BSSS). CO470 \u2022 Origine\u00a0: H102 Htm \u00d7 CO388^4 (BSSS). CO471 \u2022 Origine\u00a0: A619 Ht2 \u00d7 CO428^4 (Lancaster). CO472 \u2022 Origine\u00a0: A632 Htn \u00d7 CO428^4 (Lancaster). CO473 \u2022 Origine\u00a0: H102 Htm \u00d7 CO428^4 (Lancaster). de la lign\u00e9e pure. Cun\u00e9iforme. Cun\u00e9iforme. Cun\u00e9iforme. 2750. 2850. 2900. 3450. Ville."
        },
        "language": {
            "en": "eng",
            "fr": "fra"
        },
        "keywords": {
            "en": "Coefficient;Atwood;Goss's Wilt",
            "fr": null
        },
        "audience": {
            "en": "gcaudience",
            "fr": "gcaudience"
        },
        "type": {
            "en": "geospatial material",
            "fr": "rapport"
        },
        "creator": {
            "en": "Agriculture and Agri-Food Canada;Government of Canada",
            "fr": "Agriculture et Agroalimentaire Canada;Gouvernement du Canada"
        },
        "spatial": {
            "en": "gcregions",
            "fr": "gcregions"
        },
        "service": {
            "en": "AAFC-AAC",
            "fr": "AAFC-AAC"
        },
        "accessRights": {
            "en": "2",
            "fr": "2"
        },
        "legalName": {
            "en": "agriculture_and_agri_food_canada",
            "fr": "agriculture_et_agroalimentaire_canada"
        },
        "areaServed": {
            "en": "Canada",
            "fr": "Canada"
        }
    },
    "h1": {
        "en": "2018 Corn Inbred Lines Release CO473",
        "fr": "Lign\u00e9es de ma\u00efs autof\u00e9cond\u00e9es mises en circulation en 2018 - CO473"
    },
    "js": {
        "en": "",
        "fr": ""
    },
    "mode_html": "no_editor_full",
    "json_found": 1,
    "body": {
        "en": "\r\n    <p>CO473 \u2022 Derivation: H102 Htm \u00d7 CO428^4 (Lancaster)</p>\n\n  <div class=\"row\">\n<div class=\"col-md-6\">  \n\t<figure>\n<table class=\"table table-responsive table-bordered\">\n<caption class=\"text-left\"><b>Inbred Characteristics</b></caption>\n<thead>\n <tr>\t\t \t \t \t \t \t\t\n  <th scope=\"col\">Characteristic</th>\n  <th scope=\"col\">Detail</th>\n  </tr>\n </thead>\n <tbody>\n<tr>\t\t \t \t \t \t \t\t\n  <td>Parent (Female or Male)</td>\n  <td>Both</td>\n  </tr>\n <tr>\t\t\t\t\t\t\t\t\t\t\t\t\n  <td>Emergence</td>\n  <td>Very Good</td>\n  </tr>\n <tr>\t\t\t\t\t\t\t\t\t\t\t\t\n  <td>Early Seedling Vigour</td>\n  <td>Very Good</td>\n  </tr>\n <tr>\t\t\t\t\t\t\t\t\t\t\t\t\n  <td>Plant Height (cm)</td>\n  <td>190</td>\n  </tr>\n <tr>\t\t\t\t\t\t\t\t\t\t\t\t\n  <td>Number of Leaves</td>\n  <td>12-14</td>\n  </tr>\n <tr>\t\t\t\t\t\t\t\t\t\t\t\t\n  <td>Leaf Angle</td>\n  <td>Semi-erect</td>\n  </tr>\n <tr>\t\t\t\t\t\t\t\t\t\t\t\t\n  <td>Ear Height (cm)</td>\n  <td>60-65</td>\n  </tr>\n <tr>\t\t\t\t\t\t\t\t\t\t\t\t\n  <td>Days to Mid Pollen</td>\n  <td>77</td>\n  </tr>\n <tr>\t\t\t\t\t\t\t\t\t\t\t\t\n  <td>Days to Mid Silk</td>\n  <td>80</td>\n  </tr>\n <tr>\t\t\t\t\t\t\t\t\t\t\t\t\n  <td>Ear Type</td>\n  <td>Cylindrical</td>\n  </tr>\n <tr>\t\t\t\t\t\t\t\t\t\t\t\t\n  <td>Ear Length (cm)</td>\n  <td>12-13</td>\n  </tr>\n <tr>\t\t\t\t\t\t\t\t\t\t\t\t\n  <td>Ear Diameter (cm)</td>\n  <td>3.5-4.0</td>\n  </tr>\n <tr>\t\t\t\t\t\t\t\t\t\t\t\t\n  <td>Cob Colour (anthocyanin)</td>\n  <td>White</td>\n  </tr>\n <tr>\t\t\t\t\t\t\t\t\t\t\t\t\n  <td>Kernel Rows</td>\n  <td>12</td>\n  </tr>\n <tr>\t\t\t\t\t\t\t\t\t\t\t\t\n  <td>Kernel Shape</td>\n  <td>Wedge</td>\n  </tr>\n <tr>\t\t\t\t\t\t\t\t\t\t\t\t\n  <td>Kernel Type</td>\n  <td>Semi-dent</td>\n  </tr>\n <tr>\t\t\t\t\t\t\t\t\t\t\t\t\n  <td>Kernel Colour</td>\n  <td>Yellow</td>\n  </tr>\n <tr>\t\t\t\t\t\t\t\t\t\t\t\t\n  <td>Husk Cover from Ear Tip (cm)</td>\n  <td>2-3</td>\n  </tr>\n\n </tbody>\n</table>\n</figure>\n </div>\n \n \n<div class=\"col-md-3\">\n<img src=\"http://multimedia.agr.gc.ca/pack/img/CO473a.jpg\" alt=\"CO473 tassel\" class=\"img-responsive\">\n\n<img src=\"http://multimedia.agr.gc.ca/pack/img/CO473b.jpg\" alt=\"CO473 silk\" class=\"img-responsive\">\n\n<img src=\"http://multimedia.agr.gc.ca/pack/img/CO473c.jpg\" alt=\"CO473 cob\" class=\"img-responsive\">\n</div>\n\n<div class=\"col-md-3\">\n<img src=\"http://multimedia.agr.gc.ca/pack/img/CO473d.jpg\" alt=\"CO473 ear\" class=\"img-responsive\">\n</div>\n</div>\n\n<div class=\"row\">\n   <div class=\"col-md-6\">  \n\t   <figure>\n<table class=\"table table-responsive table-bordered\">\n<caption class=\"text-left\"><b>Pest Resistance Ratings</b></caption>\n  <thead>\n<tr>\n<th scope=\"col\">Term</th>\n<th scope=\"col\">Detail</th>\n</tr>\n</thead>\n <tbody>\n <tr>\t\t\t\t\t\t\t\t\t\t\t\t\n  <td>Gibberella ear rot</td>\n  <td class=\"text-center\">S</td>\n </tr>\n  <tr>\t\t\t\t\t\t\t\t\t\t\t\t\n  <td>Smut</td>\n  <td class=\"text-center\">I</td>\n </tr>\n  <tr>\t\t\t\t\t\t\t\t\t\t\t\t\n  <td>Fusarium stalk rot</td>\n  <td class=\"text-center\">S</td>\n </tr>\n  <tr>\t\t\t\t\t\t\t\t\t\t\t\t\n  <td>Northern leaf blight</td>\n  <td class=\"text-center\">R</td>\n </tr>\n  <tr>\t\t\t\t\t\t\t\t\t\t\t\t\n  <td>Eyespot</td>\n  <td class=\"text-center\">I</td>\n </tr>\n  <tr>\t\t\t\t\t\t\t\t\t\t\t\t\n  <td>Rust</td>\n  <td class=\"text-center\">R</td>\n </tr>\n  <tr>\t\t\t\t\t\t\t\t\t\t\t\t\n  <td>Goss's wilt</td>\n  <td class=\"text-center\">MR</td>\n </tr>\n\t   <tr>\t\t\t\t\t\t\t\t\t\t\t\t\n  <td>Grey leaf spot</td>\n  <td class=\"text-center\">R</td>\n </tr>\n </tbody>\n<tfoot>\n<tr>\n<td colspan=\"2\">\nMR = Moderately resistant<br>\t\nR = Resistant<br>\nI = Intermediate<br>\nS = Susceptible\n</td>\n</tr>\n</tfoot>\n</table>\n</figure>\n</div>\n     <div class=\"col-md-6\"> \n  <figure>\n<table class=\"table table-responsive table-bordered\">\n <caption class=\"text-left\"><b>Production Information</b></caption>\n<thead>\n<tr>\n<th scope=\"col\">Term</th>\n<th scope=\"col\">Detail</th>\n</tr>\n</thead>\n <tbody>\n <tr>\t\t\t\t\t\t\t\t\t\t\t\t\n  <td>Seed parent yield</td>\n  <td class=\"text-center\">65 g</td>\n </tr>\n  <tr>\t\t\t\t\t\t\t\t\t\t\t\t\n  <td>Pollen shed</td>\n  <td class=\"text-center\">1</td>\n </tr>\n </tbody>\n<tfoot>\n<tr>\n<td colspan=\"2\">\nScale: 1 = Excellent, 5 = Poor\n</td>\n</tr>\n</tfoot>\n</table>\n</figure>\n\n </div>\n</div>\n\n  \n\n<div class=\"clear\"></div>\n\n<h2>Yield and northern corn leaf blight resistance data table for C0468, CO469, CO470, CO471, CO472 and CO473</h2>\n\n<div class=\"well well-sm\">\n<form class=\"wb-tables-filter\" data-bind-to=\"products-filter\">\n<div class=\"row\">\n<div class=\"col-md-3\">\n<div class=\"form-group\">\n<label for=\"dt_Year\">Year</label>\n<select class=\"form-control\" id=\"dt_Year\" name=\"dt_Year\" data-column=\"0\">\n<option value=\"\">All years</option>\n<option value=\"2017\">2017</option>\n<option value=\"2016-2017\">2016-2017</option>\n<option value=\"2016\">2016</option>\n</select>\n</div>\n</div>\n\n<div class=\"col-md-3\">\n<div class=\"form-group\">\n<label for=\"dt_chu\">CHU</label>\n<select class=\"form-control\" id=\"dt_chu\" name=\"dt_chu\" data-column=\"2\">\n<option value=\"\">All CHU</option>\n<option value=\"2750\">2750</option>\n<option value=\"2850\">2850</option>\n<option value=\"2900\">2900</option>\n<option value=\"3450\">3450</option>\n</select>\n</div>\n</div>\n\n<div class=\"col-md-3\">\n<div class=\"form-group\">\n<label for=\"dt_City\">City</label>\n<select class=\"form-control\" id=\"dt_City\" name=\"dt_City\" data-column=\"1\">\n<option value=\"\">All cities</option>\n<option value=\"Atwood, QC\">Atwood, QC</option>\n<option value=\"Beloeil, QC\">Beloeil, QC</option>\n<option value=\"Embro, ON\">Embro, ON</option>\n<option value=\"Ottawa, ON\">Ottawa, ON</option>\n<option value=\"Ridgetown, ON\">Ridgetown, ON</option>\n<option value=\"Tavistock, ON\">Tavistock, ON</option>\n</select>\n</div>\n</div>\n<div class=\"col-md-3\">\n<div class=\"form-group\">\n<label for=\"dt_Hybrid\">Hybrid</label>\n<select class=\"form-control\" id=\"dt_Hybrid\" name=\"dt_Hybrid\" data-column=\"5\">\n<option value=\"\">All hybrids</option>\n<option value=\"CHECK MEAN\">CHECK MEAN</option>\n<option value=\"CO468xMBS8148\">CO468xMBS8148</option>\n<option value=\"CO468xTR1921\">CO468xTR1921</option>\n<option value=\"CO469XMBS8148\">CO469XMBS8148</option>\n<option value=\"CO469xTR1921\">CO469xTR1921</option>\n<option value=\"CO470xMBS8148\">CO470xMBS8148</option>\n<option value=\"CO470xTR1921\">CO470xTR1921</option>\n<option value=\"CO471xCO468\">CO471xCO468</option>\n<option value=\"CO471xTR1921\">CO471xTR1921</option>\n<option value=\"CO472xCO469\">CO472xCO469</option>\n<option value=\"CO472xMBS1130GT\">CO472xMBS1130GT</option>\n<option value=\"CO472xMBS9250\">CO472xMBS9250</option>\n\t<option value=\"CO473XCO468\">CO473XCO468</option>\n<option value=\"CO473xCO469\">CO473xCO469</option>\n<option value=\"CO473xCO470\">CO473xCO470</option>\n<option value=\"CO473xMBS8148\">CO473xMBS8148</option>\n<option value=\"CO473xTR1921\">CO473xTR1921</option>\n<option value=\"CO473xTR2040RR\">CO473xTR2040RR</option>\n\t<option value=\"CV\">CV</option>\n<option value=\"DEKALB DKC38-03RIB\">DEKALB DKC38-03RIB</option>\n<option value=\"GRAND MEAN\">GRAND MEAN</option>\n<option value=\"MAIZEX MZ 395x\">MAIZEX MZ 395x</option>\n<option value=\"PIONEER P8622R\">PIONEER P8622R</option>\n<option value=\"PIONEER P9188AM\">PIONEER P9188AM</option>\n\t<option value=\"PRIDE A6015\">PRIDE A6015</option>\n<option value=\"REPS\">REPS</option>\n</select>\n</div>\n</div>\n</div>\n<button type=\"submit\" class=\"btn btn-primary\" aria-controls=\"products-filter\">Filter</button>\n<button type=\"reset\" class=\"btn btn-default\">Clear</button>\n</form>\n</div>\n\n<table class=\"wb-tables table-responsive table table-bordered table-striped table-hover\" id=\"products-filter\" aria-live=\"polite\" data-wb-tables='{\n            \"bDeferRender\": true,\n            \"ajaxSource\": \"/resources/prev/doc/science/co468_co473-eng.json\",\n            \"order\": [9, \"desc\"],\n             \"columns\": [\n                { \"data\": \"Year\", \"visible\": true },\n                { \"data\": \"City\", \"visible\": true },\n                { \"data\": \"CHU\", \"visible\": true },\n                { \"data\": \"FAO\", \"visible\": true },\n                { \"data\": \"GDD\", \"visible\": true },\n                { \"data\": \"Hybrid\", \"visible\": true },\n                { \"data\": \"Moisture %\", \"visible\": true },\n                { \"data\": \"BU-AC\", \"visible\": true },\n                { \"data\": \"Yield-Moisture\", \"visible\": true },\n\t\t\t\t{ \"data\": \"NCLB-Rating\", \"visible\": true }\n              ]}'> \n<thead>\n<tr>\n<th>Year</th>\n<th>City</th>\n<th>CHU</th>\n<th>FAO</th>\n<th>GDD</th>\n<th>Hybrid</th>\n<th>Moisture %</th>\n<th>Bu/Ac</th>\n<th>Yield/Moisture</th>\n<th>NCLB rating [b]</th>\t\n</tr>\n</thead>\n<tfoot>\n<tr>\n<td colspan=\"10\">\n<ul class=\"list-inline list-unstyled\"><li>AB: Alberta</li>\n <li>MB: Manitoba</li>\n<li>ON: Ontario</li>\n<li>QC: Quebec</li></ul>\n\n<ul class=\"list-inline list-unstyled\">\n<li>-- :  no data</li>\n<li>Bu/Ac: Bushels per acre</li>\n<li>CHU: Corn heat units</li>\n<li>CV: Coefficient of variation</li>\n<li>FAO: Food and Agriculture Organization</li>\n<li>GDD: Growing degree days</li>\n<li>REPS: Replicates</li>\n</ul>\n\n</td>\n</tr>\n</tfoot>\n</table>\n \n<h2>Further technical information</h2>\n\n<p>Dr. Lana Reid<br>\nCorn Breeding and Pathology<br>\nOttawa Research and Development Centre <br>\nCentral Experimental Farm<br>\nOttawa, Ontario, K1A OC6</p>\n\n<p>Phone: (613) 759-1619<br> \nFax: (613) 952-9295<br>\nE-Mail: <a href=\"mailto:Lana.Reid@canada.ca\">Lana.Reid@canada.ca</a></p>\n\r\n    ",
        "fr": "\r\n    <p>CO473 \u2022 Origine\u00a0: H102 Htm \u00d7 CO428^4 (Lancaster)</p>\n\n <div class=\"row\">\n<div class=\"col-md-6\">  \n\t<figure>\n<table class=\"table table-responsive table-bordered\">\n<caption class=\"text-left\"><b> de la lign\u00e9e pure</b></caption>\n<thead>\n <tr>\t\t \t \t \t \t \t\t\n  <th scope=\"col\">Caract\u00e9ristiques</th>\n  <th scope=\"col\">Detail</th>\n  </tr>\n </thead>\n <tbody>\n   <tr>\n     <td>Parent (femelle ou m\u00e2le)</td>\n     <td>Les deux</td>\n   </tr>\n   <tr>\n     <td>Lev\u00e9e</td>\n     <td>Tr\u00e8s bien</td>\n   </tr>\n   <tr>\n     <td>Vigueur \u00e0 la lev\u00e9e </td>\n     <td>Tr\u00e8s bien</td>\n   </tr>\n   <tr>\n     <td>Hauteur de la plante (cm)</td>\n     <td>190</td>\n   </tr>\n   <tr>\n     <td>Nombre de feuilles</td>\n     <td>12-14</td>\n   </tr>\n   <tr>\n     <td>Angle de la feuille</td>\n     <td>Demi-Dress\u00e9e</td>\n   </tr>\n   <tr>\n     <td>Hauteur d'insertion des \u00e9pis (cm)</td>\n     <td>60-65</td>\n   </tr>\n   <tr>\n     <td>50% lib\u00e9ration du pollen en jours</td>\n     <td>77</td>\n   </tr>\n   <tr>\n     <td>50% floraison femelle en jours  </td>\n     <td>80</td>\n   </tr>\n   <tr>\n     <td>Type d'\u00e9pi</td>\n     <td>Cylindrique</td>\n   </tr>\n   <tr>\n     <td>Longueur de l'\u00e9pi (cm)</td>\n     <td>12-13</td>\n   </tr>\n   <tr>\n     <td>Diam\u00e8tre de l'\u00e9pi (cm)</td>\n     <td>3.5-4.0</td>\n   </tr>\n   <tr>\n     <td>Pigmentation anthocyanique (rafle) </td>\n     <td>Blanc</td>\n   </tr>\n   <tr>\n     <td>Nombre de rangs de grains </td>\n     <td>12</td>\n   </tr>\n   <tr>\n     <td>Forme du grain </td>\n     <td>Cun\u00e9iforme</td>\n   </tr>\n   <tr>\n     <td>Type de grain </td>\n     <td>Type dent\u00e9</td>\n   </tr>\n   <tr>\n     <td>Couleur du grain </td>\n     <td>Jaune</td>\n   </tr>\n   <tr>\n     <td>Longueur des spathes depuis l'extr\u00e9mit\u00e9 de l'\u00e9pi (cm)</td>\n     <td>2-3</td>\n   </tr>\n </tbody>\n</table>\n</figure>\n  </div>\n\n<div class=\"col-md-3\">\n<img src=\"http://multimedia.agr.gc.ca/pack/img/CO473a.jpg\" alt=\"panicule m\u00e2le de CO473\" class=\"img-responsive\">\n\n<img src=\"http://multimedia.agr.gc.ca/pack/img/CO473b.jpg\" alt=\"Soies de CO473\" class=\"img-responsive\">\n\n<img src=\"http://multimedia.agr.gc.ca/pack/img/CO473c.jpg\" alt=\"grain de CO473\" class=\"img-responsive\">\n</div>\n\n<div class=\"col-md-3\">\n<img src=\"http://multimedia.agr.gc.ca/pack/img/CO473d.jpg\" alt=\"L'\u00e9pi de CO473\" class=\"img-responsive\">\n</div>\n</div>\t\t\n\n<div class=\"row\">\n   <div class=\"col-md-6\">  \n\t   <figure>\n<table class=\"table table-responsive table-bordered\">\n<caption class=\"text-left\"><b>R\u00e9sistance (maladies\u2013ravageurs)</b></caption>\n  <thead>\n<tr>\n<th scope=\"col\">Terme</th>\n<th scope=\"col\">D\u00e9tail</th>\n</tr>\n</thead>\n <tbody>\n <tr>\t\t\t\t\t\t\t\t\t\t\t\t\n  <td>Pourriture fusarienne (\u00e9pi)</td>\n  <td class=\"text-center\">S</td>\n </tr>\n  <tr>\t\t\t\t\t\t\t\t\t\t\t\t\n  <td>Charbon</td>\n  <td class=\"text-center\">I</td>\n </tr>\n  <tr>\t\t\t\t\t\t\t\t\t\t\t\t\n  <td>Pourriture fusarienne (tige)</td>\n  <td class=\"text-center\">S</td>\n </tr>\n  <tr>\t\t\t\t\t\t\t\t\t\t\t\t\n  <td>Dess\u00e8chement</td>\n  <td class=\"text-center\">R</td>\n </tr>\n  <tr>\t\t\t\t\t\t\t\t\t\t\t\t\n  <td>Kabatiellose</td>\n  <td class=\"text-center\">I</td>\n </tr>\n  <tr>\t\t\t\t\t\t\t\t\t\t\t\t\n  <td>Rouille</td>\n  <td class=\"text-center\">R</td>\n </tr>\n  <tr>\t\t\t\t\t\t\t\t\t\t\t\t\n  <td>Fl\u00e9trissement de goss</td>\n  <td class=\"text-center\">R</td>\n </tr>\n\t   <tr>\t\t\t\t\t\t\t\t\t\t\t\t\n  <td>Tache de feuille grise</td>\n  <td class=\"text-center\">R</td>\n </tr>\n </tbody>\n<tfoot>\n<tr>\n<td colspan=\"2\">\nMR = Mod\u00e9r\u00e9ment r\u00e9sistant<br>\t\nR = R\u00e9sistant<br>\nI = Interm\u00e9diaire<br>\nS = Sensible\n</td>\n</tr>\n</tfoot>\n</table>\n</figure>\n</div>\n     <div class=\"col-md-6\"> \n  <figure>\n<table class=\"table table-responsive table-bordered\">\n <caption class=\"text-left\"><b>Informations pour la production</b></caption>\n<thead>\n<tr>\n<th scope=\"col\">Terme</th>\n<th scope=\"col\">D\u00e9tail</th>\n</tr>\n</thead>\n <tbody>\n <tr>\t\t\t\t\t\t\t\t\t\t\t\t\n  <td>Rendement du parent femelle</td>\n  <td class=\"text-center\">65 g</td>\n </tr>\n  <tr>\t\t\t\t\t\t\t\t\t\t\t\t\n  <td>Lib\u00e9ration du pollen</td>\n  <td class=\"text-center\">1</td>\n </tr>\n </tbody>\n<tfoot>\n<tr>\n<td colspan=\"2\">\n\u00c9chelle\u00a0: 1 = Excellent, 5 = M\u00e9diocre\n</td>\n</tr>\n</tfoot>\n</table>\n</figure>\n\n </div>\n</div>\n\n \n\n<div class=\"clear\"></div>\n\n<h2>Donn\u00e9es sur le rendement et la r\u00e9sistance \u00e0 la dess\u00e8chement pour C0468, CO469, CO470, CO471, CO472 et CO473</h2>\n\n<div class=\"well well-sm\">\n<form class=\"wb-tables-filter\" data-bind-to=\"products-filter\">\n<div class=\"row\">\n<div class=\"col-md-3\">\n<div class=\"form-group\">\n<label for=\"dt_Year\">Ann\u00e9e</label>\n<select class=\"form-control\" id=\"dt_Year\" name=\"dt_Year\" data-column=\"0\">\n<option value=\"\">Toutes les annn\u00e9es</option>\n<option value=\"2017\">2017</option>\n<option value=\"2016-2017\">2016-2017</option>\n<option value=\"2016\">2016</option>\n</select>\n</div>\n</div>\n\n<div class=\"col-md-3\">\n<div class=\"form-group\">\n<label for=\"dt_chu\">UTM</label>\n<select class=\"form-control\" id=\"dt_chu\" name=\"dt_chu\" data-column=\"2\">\n<option value=\"\">Tous les UTM</option>\n<option value=\"2750\">2750</option>\n<option value=\"2850\">2850</option>\n<option value=\"2900\">2900</option>\n<option value=\"3450\">3450</option>\n</select>\n</div>\n</div>\n\n<div class=\"col-md-3\">\n<div class=\"form-group\">\n<label for=\"dt_City\">Ville</label>\n<select class=\"form-control\" id=\"dt_City\" name=\"dt_City\" data-column=\"1\">\n<option value=\"\">Toutes les villes</option>\n<option value=\"Atwood, QC\">Atwood, QC</option>\n<option value=\"Beloeil, QC\">Beloeil, QC</option>\n<option value=\"Embro, ON\">Embro, ON</option>\n<option value=\"Ottawa, ON\">Ottawa, ON</option>\n<option value=\"Ridgetown, ON\">Ridgetown, ON</option>\n<option value=\"Tavistock, ON\">Tavistock, ON</option>\n</select>\n</div>\n</div>\n<div class=\"col-md-3\">\n<div class=\"form-group\">\n<label for=\"dt_Hybrid\">Hybride</label>\n<select class=\"form-control\" id=\"dt_Hybrid\" name=\"dt_Hybrid\" data-column=\"5\">\n<option value=\"\">Toutes les hybrides</option>\n<option value=\"CHECK MEAN\">CHECK MEAN</option>\n<option value=\"CO468xMBS8148\">CO468xMBS8148</option>\n<option value=\"CO468xTR1921\">CO468xTR1921</option>\n<option value=\"CO469XMBS8148\">CO469XMBS8148</option>\n<option value=\"CO469xTR1921\">CO469xTR1921</option>\n<option value=\"CO470xMBS8148\">CO470xMBS8148</option>\n<option value=\"CO470xTR1921\">CO470xTR1921</option>\n<option value=\"CO471xCO468\">CO471xCO468</option>\n<option value=\"CO471xTR1921\">CO471xTR1921</option>\n<option value=\"CO472xCO469\">CO472xCO469</option>\n<option value=\"CO472xMBS1130GT\">CO472xMBS1130GT</option>\n<option value=\"CO472xMBS9250\">CO472xMBS9250</option>\n\t<option value=\"CO473XCO468\">CO473XCO468</option>\n<option value=\"CO473xCO469\">CO473xCO469</option>\n<option value=\"CO473xCO470\">CO473xCO470</option>\n<option value=\"CO473xMBS8148\">CO473xMBS8148</option>\n<option value=\"CO473xTR1921\">CO473xTR1921</option>\n<option value=\"CO473xTR2040RR\">CO473xTR2040RR</option>\n\t<option value=\"CV\">CV</option>\n<option value=\"DEKALB DKC38-03RIB\">DEKALB DKC38-03RIB</option>\n<option value=\"GRAND MEAN\">GRAND MEAN</option>\n<option value=\"MAIZEX MZ 395x\">MAIZEX MZ 395x</option>\n<option value=\"PIONEER P8622R\">PIONEER P8622R</option>\n<option value=\"PIONEER P9188AM\">PIONEER P9188AM</option>\n\t<option value=\"PRIDE A6015\">PRIDE A6015</option>\n<option value=\"REPS\">REPS</option>\n</select>\n</div>\n</div>\n</div>\n<button type=\"submit\" class=\"btn btn-primary\" aria-controls=\"products-filter\">Filtrer</button>\n<button type=\"reset\" class=\"btn btn-default\">Effacer</button>\n</form>\n</div>\n\n<table class=\"wb-tables table table-responsive table-bordered table-striped table-hover\" id=\"products-filter\" aria-live=\"polite\" data-wb-tables='{\n            \"bDeferRender\": true,\n            \"ajaxSource\": \"/resources/prev/doc/science/co468_co473-fra.json\",\n            \"order\": [9, \"desc\"],\n             \"columns\": [\n                { \"data\": \"Year\", \"visible\": true },\n                { \"data\": \"City\", \"visible\": true },\n                { \"data\": \"CHU\", \"visible\": true },\n                { \"data\": \"FAO\", \"visible\": true },\n                { \"data\": \"GDD\", \"visible\": true },\n                { \"data\": \"Hybrid\", \"visible\": true },\n                { \"data\": \"Moisture %\", \"visible\": true },\n                { \"data\": \"BU-AC\", \"visible\": true },\n                { \"data\": \"Yield-Moisture\", \"visible\": true },\n{ \"data\": \"NCLB-Rating\", \"visible\": true }\n              ]}'> \n<thead>\n<tr>\n<th>Ann\u00e9e</th>\n<th>Ville</th>\n<th>UTM</th>\n<th>ONUAA</th>\n<th>DJ</th>\n<th>Hybride</th>\n<th>Humidit\u00e9 %</th>\n<th>Boiss./acre</th>\n<th>Rendement/<br>Humidit\u00e9</th>\n<th>Cote \u2013 la dess\u00e8chement [b]</th>\n</tr>\n</thead>\n<tfoot>\n<tr>\n<td colspan=\"10\">\n<ul class=\"list-inline list-unstyled\"><li>AB\u00a0: Alberta</li>\n <li>MB\u00a0: Manitoba</li>\n<li>ON\u00a0: Ontario</li>\n<li>QC\u00a0: Qu\u00e9bec</li></ul>\n\n<ul class=\"list-inline list-unstyled\">\n<li>--\u00a0:  pas de donn\u00e9es</li>\n<li>Ac\u00a0: Acres</li>\n<li>UTM\u00a0: Unit\u00e9 thermique ma\u00efs</li>\n<li>CV\u00a0: Coefficient de variation</li>\n<li>ONUAA\u00a0: Organisation des Nations unies pour l'alimentation et l'agriculture</li>\n<li>DJ\u00a0: Degr\u00e9 jour de croissance</li>\n<li>Reps\u00a0: R\u00e9p\u00e9titions</li>\n</ul>\n\n</td>\n</tr>\n</tfoot>\n</table>\n\n\n<h2>Pour obtenir d'autres renseignements techniques</h2>\n\n<p>Dr. Lana Reid<br>\nS\u00e9lection et pathologie du ma\u00efs<br>\nCentre de recherche et de d\u00e9veloppement d'Ottawa<br>\nFerme exp\u00e9rimentale centrale<br>\nOttawa, Ontario, K1A OC6</p>\n\n<p>T\u00e9l\u00e9phone\u00a0: (613) 759-1619<br> \nFax\u00a0: (613) 952-9295<br>\nE-Courriel\u00a0: <a href=\"mailto:Lana.Reid@canada.ca\">Lana.Reid@canada.ca</a></p>\n\r\n    "
    }
}