{
    "dcr_id": "1550778500730",
    "title": {
        "en": "Animal Genetic Resources of Canada - Trends and Statistics",
        "fr": "Ressources g\u00e9n\u00e9tiques animales du Canada - Tendances et statistiques"
    },
    "modified": "2020-11-24",
    "issued": "2019-02-22",
    "templatetype": "content page 1 column",
    "page_type": "0",
    "node_id": "1550752824954",
    "dc_date_created": "2019-02-22",
    "managing_branch": "PAB",
    "parent_node_id": "",
    "short_title": "Trends and Statistics",
    "exturl": "",
    "teamsite_location": {
        "en": "/default/main/AAFC-AAC/Internet-Internet/Common-Commun/WORKAREA/Common-Commun/templatedata/comm-comm/gene-gene/data/02/cagr_grin_trends_1550778500730_en",
        "fr": "/default/main/AAFC-AAC/Internet-Internet/Common-Commun/WORKAREA/Common-Commun/templatedata/comm-comm/gene-gene/data/02/cagr_grin_trends_1550778500730_fr"
    },
    "type_name": "comm-comm/gene-gene",
    "has_dcr_id": true,
    "label": {
        "en": "Trends and Statistics",
        "fr": "Tendances et statistiques"
    },
    "breadcrumb": {
        "en": "Trends and Statistics",
        "fr": "Tendances et statistiques"
    },
    "layout_name": "content page 1 column",
    "lang": "en",
    "refaire": false,
    "meta": {
        "viewport": {
            "en": "width=device-width,initial-scale=1",
            "fr": "width=device-width, initial-scale=1"
        },
        "issued": {
            "en": "2019-02-22",
            "fr": "2019-02-22"
        },
        "modified": {
            "en": "2020-11-24",
            "fr": "2020-11-24"
        },
        "format": {
            "en": "text/html",
            "fr": "text/html"
        },
        "title": {
            "en": "Animal Genetic Resources of Canada - Trends and Statistics",
            "fr": "Ressources g\u00e9n\u00e9tiques animales du Canada - Tendances et statistiques"
        },
        "subject": {
            "en": "soil assessement;architectural heritage;viral diseases",
            "fr": "pommes de terre-producteurs;pomiculteurs;mauvaises herbes"
        },
        "dcterms:subject": {
            "en": "statistics;architectural heritage;architecture",
            "fr": "aide \u00e0 l'agriculture;b\u00e2timent;d\u00e9veloppement communautaire"
        },
        "description": {
            "en": "The program Canadian Animal Genetic Resources operates a gene bank for livestock, poultry and honey bee insect genetic resources. Services and information. About the Collection. Find out more about Canadian Animal Genetic Resources and how it operates.Explore Inventory. This option allows you to see what percent of the collection goal has been met for a breed or line.Trends and Statistics.",
            "fr": "Le programme des Ressources G\u00e9n\u00e9tiques des Animaux du Canada entretient une banque de g\u00e8nes ax\u00e9e sur le b\u00e9tail, les volailles et les abeilles domestiques. Services and information. About the Collection. Find out more about Canadian Animal Genetic Resources and how it operates.Explorer l\u2019inventaire. This option allows you to see what percent of the collection goal has been met for a breed or line.-->. Tendances et statistiques."
        },
        "language": {
            "en": "eng",
            "fr": "fra"
        },
        "keywords": {
            "en": "science-based.Canada's;risk.We'll",
            "fr": "acupuncture"
        },
        "audience": {
            "en": "gcaudience",
            "fr": "gcaudience"
        },
        "type": {
            "en": "geospatial material",
            "fr": "page administrative"
        },
        "creator": {
            "en": "Agriculture and Agri-Food Canada;Government of Canada",
            "fr": "Agriculture et Agroalimentaire Canada;Gouvernement du Canada"
        },
        "spatial": {
            "en": "gcregions",
            "fr": "gcregions"
        },
        "service": {
            "en": "AAFC-AAC",
            "fr": "AAFC-AAC"
        },
        "accessRights": {
            "en": "2",
            "fr": "2"
        },
        "legalName": {
            "en": "agriculture_and_agri_food_canada",
            "fr": "agriculture_et_agroalimentaire_canada"
        },
        "areaServed": {
            "en": "Canada",
            "fr": "Canada"
        }
    },
    "h1": {
        "en": "Animal Genetic Resources of Canada - Trends and Statistics",
        "fr": "Ressources g\u00e9n\u00e9tiques animales du Canada - Tendances et statistiques"
    },
    "js": {
        "en": "",
        "fr": ""
    },
    "body": {
        "en": "\r\n    <p>Updated information containing charts that describe the germplasm inventory composition, sample sizes, animals, lines, and breeds.  </p>\n\n<h2>Germplasm Inventory Composition</h2>\n \n<iframe src=\"https://agrc-rgac.agr.gc.ca/main_webpage_dev/inv_over_time?language=EN&amp;record_source=CA\" style=\"width:100%;height:825px; border:none;\" scrolling=\"auto\" class=\"iframe-full-height\" title=\"Trends and Statistics - Germplasm Inventory Composition\">\n</iframe>\n \n<h2>Number of Animals Secured in one National Sample Bank</h2>\n\n<iframe src=\"https://agrc-rgac.agr.gc.ca/main_webpage_dev/animals_over_time?language=EN&amp;record_source=CA\" style=\"width:100%;height:825px; border:none;\" scrolling=\"auto\" class=\"iframe-full-height\" title=\"Trends and Statistics - Number of Animals Secured in one National Sample Bank\">\n</iframe>\n \n <h2>Subpopulations Received Over Time</h2>\n\n<iframe src=\"https://agrc-rgac.agr.gc.ca/main_webpage_dev/subpops_over_time?language=EN&amp;record_source=CA\" style=\"width:100%;height:850px; border:none;\" scrolling=\"auto\" class=\"iframe-full-height\" title=\"Trends and Statistics - Subpopulations Received Over Time\">\n</iframe>\n \n<h2>Breeds Received Over Time</h2>\n\n<iframe src=\"https://agrc-rgac.agr.gc.ca/main_webpage_dev/breeds_over_time?language=EN&amp;record_source=CA\" style=\"width:100%;height:900px; border:none;\" scrolling=\"auto\" class=\"iframe-full-height\" title=\"Trends and Statistics - Breeds Received Over Time\">\n</iframe>\n\r\n    ",
        "fr": "\r\n    <p>Informations mises \u00e0 jour contenant des tableaux d\u00e9crivant la composition de l'inventaire de mat\u00e9riel g\u00e9n\u00e9tique, la taille des \u00e9chantillons, \ndu number d'animaux, de lign\u00e9es et de races.</p>\n \n<h2>Composition de l'inventaire de materiel g\u00e9n\u00e9tique des Ressources g\u00e9n\u00e9tiques animales</h2>\n \n<iframe src=\"https://agrc-rgac.agr.gc.ca/main_webpage_dev/inv_over_time?language=FR&amp;record_source=CA\" style=\"width:100%;height:925px; border:none;\" scrolling=\"auto\" class=\"iframe-full-height\" title=\"Tendances et statistiques - Composition de l'inventaire de materiel g\u00e9n\u00e9tique pour la PRGAC\">\n</iframe>\n \n<h2>Nombre d'animaux s\u00e9curis\u00e9 conserv\u00e9s</h2>\n\n<iframe src=\"https://agrc-rgac.agr.gc.ca/main_webpage_dev/animals_over_time?language=FR&amp;record_source=CA\" style=\"width:100%;height:900px; border:none;\" scrolling=\"auto\" class=\"iframe-full-height\" title=\"Tendances et statistiques - d'animaux s\u00e9curis\u00e9 dans notre banque animale nationale\">\n</iframe>\n \n <h2>Nombre de lign\u00e9e s\u00e9curis\u00e9 conserv\u00e9s</h2>\n\n<iframe src=\"https://agrc-rgac.agr.gc.ca/main_webpage_dev/subpops_over_time?language=FR&amp;record_source=CA\" style=\"width:100%;height:900px; border:none;\" scrolling=\"auto\" class=\"iframe-full-height\" title=\"Tendances et statistiques - Lign\u00e9e re\u00e7ues au cours du temps\">\n</iframe>\n \n<h2>Nombre de races conserv\u00e9es depuis la fondation de la banque de g\u00e8nes</h2>\n\n<iframe src=\"https://agrc-rgac.agr.gc.ca/main_webpage_dev/breeds_over_time?language=FR&amp;record_source=CA\" style=\"width:100%;height:925px; border:none;\" scrolling=\"auto\" class=\"iframe-full-height\" title=\"Tendances et statistiques - Races re\u00e7us au fil du temps\">\n</iframe>\n\r\n    "
    }
}