{
    "dcr_id": "1552399479154",
    "title": {
        "en": "Enriching foods with probiotics, thanks to 25 years of leading-edge research",
        "fr": "Enrichir les aliments de probiotiques gr\u00e2ce \u00e0 25 ans de recherche de pointe"
    },
    "modified": "2019-03-15",
    "issued": "2019-03-15",
    "templatetype": "content page 1 column",
    "page_type": "0",
    "node_id": "1378999410478",
    "dc_date_created": "2019-03-15",
    "managing_branch": "PAB",
    "parent_node_id": "",
    "short_title": "",
    "exturl": "",
    "teamsite_location": {
        "en": "/default/main/AAFC-AAC/Internet-Internet/CCB-DGCC/WORKAREA/CCB-DGCC/templatedata/comm-comm/gene-gene/data/article_probiotics_25_years_1552399479154_en",
        "fr": "/default/main/AAFC-AAC/Internet-Internet/CCB-DGCC/WORKAREA/CCB-DGCC/templatedata/comm-comm/gene-gene/data/article_probiotics_25_years_1552399479154_fr"
    },
    "type_name": "comm-comm/gene-gene",
    "has_dcr_id": true,
    "label": {
        "en": "Enriching foods with probiotics, thanks to 25 years of leading-edge research",
        "fr": "Enrichir les aliments de probiotiques gr\u00e2ce \u00e0 25 ans de recherche de pointe"
    },
    "breadcrumb": {
        "en": "Enriching foods with probiotics, thanks to 25 years of leading-edge research",
        "fr": "Enrichir les aliments de probiotiques gr\u00e2ce \u00e0 25 ans de recherche de pointe"
    },
    "layout_name": "content page 1 column",
    "lang": "en",
    "refaire": false,
    "meta": {
        "viewport": {
            "en": "width=device-width,initial-scale=1",
            "fr": "width=device-width, initial-scale=1"
        },
        "issued": {
            "en": "2019-03-15",
            "fr": "2019-03-15"
        },
        "modified": {
            "en": "2019-03-15",
            "fr": "2019-03-15"
        },
        "format": {
            "en": "gcformat",
            "fr": "gcformat"
        },
        "title": {
            "en": "Enriching foods with probiotics, thanks to 25 years of leading-edge research",
            "fr": "Enrichir les aliments de probiotiques gr\u00e2ce \u00e0 25 ans de recherche de pointe"
        },
        "subject": {
            "en": "technology transfer;buckwheat;soil assessement",
            "fr": "air-qualit\u00e9;cultures des c\u00e9r\u00e9ales;industrie de l'eau embouteill\u00e9e"
        },
        "dcterms:subject": {
            "en": "government information;food;imports",
            "fr": "alimentation;coop\u00e9rative;p\u00e2turage"
        },
        "description": {
            "en": "Feedback. about this web site. December 2018. 53,938.5. 65,894.6. 69,844.0. 82,857.3. 5.1. 4.4. Weight management. United States. Cardiovascular health (CH). 5,068.3. 4,716.1. 4,687.0. 4,698.8. \u22123.8. \u22121.5. CH - beverages.",
            "fr": "Septembre 2013. Bureau des marches internationaux. Rapport sur les indicateurs de march\u00e9. Version. de 2,7\u00a0%) de boissons alcoolis\u00e9es devrait \u00eatre modeste. 2 479,9. 2 565,3. 2 580,5. 2 279,7. 2 250,3. 2 344,3. 2 409,5. 2 659,1. Spiritueux."
        },
        "language": {
            "en": "eng",
            "fr": "fra"
        },
        "keywords": {
            "en": "drink.Foods;cool.Method;best.Canada's",
            "fr": "Hans Buchler;Shelley Binch;Amy Argentino"
        },
        "audience": {
            "en": "gcaudience",
            "fr": "gcaudience"
        },
        "type": {
            "en": "media release",
            "fr": "avis"
        },
        "creator": {
            "en": "Agriculture and Agri-Food Canada",
            "fr": "Agriculture et Agroalimentaire Canada"
        },
        "spatial": {
            "en": "gcregions",
            "fr": "gcregions"
        },
        "service": {
            "en": "AAFC-AAC",
            "fr": "AAFC-AAC"
        },
        "accessRights": {
            "en": "2",
            "fr": "2"
        },
        "legalName": {
            "en": "agriculture_and_agri_food_canada",
            "fr": "agriculture_et_agroalimentaire_canada"
        },
        "areaServed": {
            "en": "Canada",
            "fr": "Canada"
        }
    },
    "h1": {
        "en": "Enriching foods with probiotics, thanks to 25 years of leading-edge research",
        "fr": "Enrichir les aliments de probiotiques gr\u00e2ce \u00e0 25 ans de recherche de pointe"
    },
    "body": {
        "en": "\r\n    <div class=\"col-md-4 pull-right\" style=\"z-index: 1000\">\n<section class=\"panel panel-default\">\n<header class=\"panel-heading\">\n<h2 class=\"panel-title\">Set up an interview</h2>\n</header>\n<div class=\"panel-body\"><p><b>Media Relations</b><br>\nAgriculture and Agri-Food Canada<br>\n1-866-345-7972<br>\n<a href=\"mailto:aafc.mediarelations-relationsmedias.aac@canada.ca\">aafc.mediarelations-relationsmedias.aac@canada.ca</a></p></div>\n</section>\n</div><p>The demand for functional foods that  contain health-benefiting compounds such as Omega\u20113s and probiotics continues  to grow. Dr.\u00a0Claude Champagne, a research scientist at the Saint-Hyacinthe  Research and Development Centre (RDC), is a world leader in probiotics research.  A number of his scientific advances have been transferred to Canadian food  companies.</p>\n<p>Since the 1990s, Dr.\u00a0Champagne has  been working to better understand the characteristics of various strains of probiotics  and to uncover effective methods for incorporating them into foods while  limiting impacts on the survival rate of these beneficial bacteria and on the  flavour of enriched foods.</p>\n\n<h2>Which is the right probiotic?</h2>\n\n<p>There are dozens of probiotic strains, each with its own properties and weaknesses. Some strains can multiply during fermentation, a discovery made by Dr. Champagne and put to the test by the Canadian Space Agency. On the menu for astronauts: fermented probiotics in milk or soy beverage containing 10 billion bacteria per serving.</p>\n\n<p>Other strains are better able to withstand storage, with some even able to tolerate up to 30 days in refrigerated storage conditions. This was a key technological advance for Lassonde Industries, a leading food products company, which was looking to enrich its fruit juices and maintain a minimum of 1 billion probiotic bacteria until the juices\u2019 expiration date, in accordance with the regulations.</p>\n\n\n\n<h2>How can probiotics be protected?</h2>\n\n<p>The type of food has an impact on the  survival of probiotics. Simulations of human digestion using the IViDiS, an artificial digestive system developed at the Saint-Hyacinthe  RDC, demonstrated that milk proteins protect probiotics as they move through  the acidic environment of the stomach and allow them to survive until they  reach the intestine.</p>\n<p>The timing of probiotic incorporation is  another factor to consider. For cheddar cheese, it is best to add the probiotic  strains to the milk before the cheddaring and salting process, but for ice  cream, it is better to add them to the soft ice cream directly rather than to  the mixture before freezing.</p>\n<p>In yogurt, to avoid the negative  interactions that can occur between lactic acid bacteria and probiotic  bacteria, probiotics need to be matched with compatible starter cultures or used  in an environment that is enriched to promote probiotic growth.</p>\n<p>Probiotics can be better protected during  manufacturing, freezing or storage by means of encapsulation or microencapsulation.  When microencapsulated cultures are added to small bits of chocolate, the  stability of the cultures in ice cream is 10\u00a0times greater.</p>\n<h2>Where does flavour fit in?</h2>\n\n<p>Probiotic-enriched products have to  taste good in order for Canadian consumers to enjoy them and find them  appealing. To prevent probiotics from changing the flavour of a food, each  serving should generally contain no more than 10\u00a0billion probiotic  bacteria.</p>\n<p>A number of probiotic-enriched products  are already available on grocery store shelves and are meeting consumer  expectations in terms of managing digestive health, thanks in part to the science conducted by Agriculture  and Agri-Food Canada. </p>\n\n<h2>Key Discoveries/Benefits</h2>\n\n<ul>\n  <li>Some strains when combined in a beverage promote fermentation and allow  the number of probiotic bacteria to increase.  Other strains are able to withstand refrigerated storage conditions for longer  periods.</li>\n  <li>It is possible to select the best time for adding probiotics to a food,  to combine probiotics with compatible starter cultures or dairy products, and to  protect probiotics by means of encapsulation or microencapsulation.</li>\n  <li>Above 10\u00a0billion  probiotic bacteria per serving, the flavour of a food may be altered. </li>\n</ul>\n\n<h2>Photo gallery</h2>\n \n<div class=\"row\">\n <div class=\"col-md-4 mrgn-bttm-md\">\n <figure>\n<img class=\"img-responsive\" src=\"https://www.agr.gc.ca/resources/prod/img/cb/images/1552399479154_claude-champagne.jpg\" alt=\"Description of this image follows\"><br>\n<figcaption>Hard at work for more than 25 years, Dr. Claude Champagne is a world leader in probiotics research. In 2012, he was awarded the Queen Elizabeth\u00a0II Diamond Jubilee Medal.</figcaption>\n</figure>\n</div>\n\n <div class=\"col-md-4 mrgn-bttm-md\">\n <figure>\n<img class=\"img-responsive\" src=\"https://www.agr.gc.ca/resources/prod/img/cb/images/1552399479154_probiotiques.jpg\" alt=\"Description of this image follows\"><br>\n<figcaption>Lactobacillus rhamnosus probiotics magnified 1000 times. Determining the viability of probiotics is very important for ensuring that they are effective. Special fluorescent dyes indicate the live bacteria, in green, and the dead bacteria, in red. </figcaption>\n</figure>\n</div>\n\n</div>\n\n<h2>Related information</h2>\n\n<ul>\n  <li><a href=\"https://profils-profiles.science.gc.ca/en/research-centre/saint-hyacinthe-research-and-development-centre\">Saint-Hyacinthe Research and Development Centre</a></li>\n</ul>\n\r\n    ",
        "fr": "\r\n    <div class=\"col-md-4 pull-right\" style=\"z-index: 1000\">\n<section class=\"panel panel-default\">\n<header class=\"panel-heading\">\n<h2 class=\"panel-title\">Organiser une entrevue</h2>\n</header>\n<div class=\"panel-body\"><p><b>Relations avec les m\u00e9dias</b><br>\nAgriculture et Agroalimentaire Canada<br>\n1-866-345-7972<br>\n<a href=\"mailto:aafc.mediarelations-relationsmedias.aac@canada.ca\">aafc.mediarelations-relationsmedias.aac@canada.ca</a></p></div>\n</section>\n</div><p>La  demande pour les aliments fonctionnels qui renferment des compos\u00e9s b\u00e9n\u00e9fiques  pour la sant\u00e9 tel que les Omega-3 et les probiotiques sont toujours en  croissance. Claude Champagne, chercheur au Centre de recherche et de  d\u00e9veloppement (CRD) de Saint-Hyacinthe, est un chef de file mondial de la  recherche sur les probiotiques. Il compte \u00e0 son actif plusieurs avanc\u00e9es  scientifiques transf\u00e9r\u00e9es \u00e0 des entreprises alimentaires canadiennes.</p>\n\n<p>Depuis  les ann\u00e9es 1990, M. Champagne travaille \u00e0 mieux comprendre les caract\u00e9ristiques  de diverses souches de probiotiques et \u00e0 d\u00e9couvrir des m\u00e9thodes efficaces pour les  ins\u00e9rer dans les aliments, tout en limitant l'impact sur leur taux de survie et  sur la saveur des aliments enrichis.</p>\n\n<h2>Quelle probiotique choisir?</h2>\n\n<p>Il  existe des dizaines de souches et chacune a ses propri\u00e9t\u00e9s et ses fragilit\u00e9s.  Certaines peuvent se multiplier par voie de fermentation, une d\u00e9couverte du  chercheur Champagne mise en essai par l'Agence spatiale canadienne. Au  menu\u00a0des astronautes : des probiotiques ferment\u00e9es dans du lait ou un  breuvage de soya en contenant 10 milliards par portion.</p>\n\n<p>D'autres  souches sont plus r\u00e9sistantes \u00e0 l'entreposage, certaines pouvant m\u00eame r\u00e9sister  jusqu'\u00e0 30 jours dans des conditions d'entreposage r\u00e9frig\u00e9r\u00e9. Une avanc\u00e9e  technologique cl\u00e9 pour Industries Lassonde, un leader en produits alimentaires,  voulant enrichir ses jus de fruits et conserver au minimum 1 milliard de  probiotiques jusqu'\u00e0 leur date de p\u00e9remption, conform\u00e9ment \u00e0 la r\u00e9glementation.</p>\n\n<h2>Comment prot\u00e9ger les probiotiques?</h2>\n\n<p>Le  choix du type d'aliment influence la survie des probiotiques. Des simulations  de digestion humaine \u00e0 l'aide de \nl'IViDiS, un syst\u00e8me  digestif artificiel d\u00e9velopp\u00e9 au CRD de Saint-Hyacinthe, ont d\u00e9montr\u00e9 que les  prot\u00e9ines laiti\u00e8res les prot\u00e8gent pendant leur passage dans le milieu acide de  l'estomac et leur permet de survivre jusque dans l'intestin.</p>\n\n<p>Leur  moment d'incorporation est un autre facteur \u00e0 consid\u00e9rer. Pour le cheddar, il  est pr\u00e9f\u00e9rable d'ajouter les souches dans le lait avant le processus de cheddarisation  et salage, alors que pour la cr\u00e8me glac\u00e9e, il vaut mieux les mettre directement  dans la cr\u00e8me glac\u00e9e molle plut\u00f4t que dans le m\u00e9lange avant cong\u00e9lation.</p>\n\n<p>Dans  les yogourts, pour \u00e9viter les interactions n\u00e9gatives qui interviennent entre  les bact\u00e9ries lactiques et les probiotiques, il faut les jumeler \u00e0 des ferments  compatibles ou enrichir leur milieu pour favoriser leur croissance.</p>\n\n<p>Pour  prot\u00e9ger davantage les probiotiques pendant la fabrication, la cong\u00e9lation ou  l'entreposage, il est possible de faire appel \u00e0 l'encapsulation et \u00e0 la  microencapsultation. Lorsque des cultures microencapsul\u00e9es sont ajout\u00e9es dans  de petits capuchons de chocolat, leur stabilit\u00e9 dans la cr\u00e8me glac\u00e9e est  multipli\u00e9e par dix.</p>\n\n<h2>Et le go\u00fbt dans tout cela?</h2>\n\n<p>Pour  \u00eatre attrayants et appr\u00e9ci\u00e9s des consommateurs canadiens, les produits enrichis  de probiotiques doivent avoir bon go\u00fbt. Pour \u00e9viter que les probiotiques ne  changent la saveur d'un aliment, leur nombre ne doit g\u00e9n\u00e9ralement pas d\u00e9passer  10 milliards par portion.</p>\n\n<p>Plusieurs  produits enrichis de probiotiques sont d\u00e9j\u00e0 sur les tablettes des \u00e9piceries et  r\u00e9pondent aux attentes  des consommateurs pour prendre soin de leur sant\u00e9 digestive. Cela est en partie  gr\u00e2ce \u00e0 la science r\u00e9alis\u00e9e par Agriculture et Agroalimentaire Canada. </p>\n\n<h2>Principales d\u00e9couvertes/principaux avantages</h2>\n\n<ul>\n  <li>Certaines souches jumel\u00e9es dans  un breuvage favorisent une fermentation et permettent de multiplier le nombre  de probiotiques. D'autres ont la particularit\u00e9 de r\u00e9sister  plus longtemps aux conditions d'entreposage r\u00e9frig\u00e9r\u00e9.</li>\n  <li>On peut choisir le meilleur  moment pour ajouter les probiotiques \u00e0 un aliment, les combiner \u00e0 des ferments  compatibles ou \u00e0 des produits laitiers, ou encore les prot\u00e9ger par  encapsulation ou microencapsulation.</li>\n\n <li>Au-del\u00e0 de 10 milliards de probiotiques par portion, la saveur de l\u2019aliment pourrait \u00eatre alt\u00e9r\u00e9e. </li>\n</ul>\n\n<h2>Galerie de photos</h2>\n \n<div class=\"row\">\n <div class=\"col-md-4 mrgn-bttm-md\">\n <figure>\n<img class=\"img-responsive\" src=\"https://www.agr.gc.ca/resources/prod/img/cb/images/1552399479154_claude-champagne.jpg\" alt=\"La description de cette image suit\"><br>\n<figcaption>Fid\u00e8le au poste depuis plus de 25 ans, Claude Champagne (Ph.D.) est un chef de file mondial de la recherche sur les probiotiques. En 2012, il a re\u00e7u la \u00ab\u00a0M\u00e9daille comm\u00e9morative du jubil\u00e9 de diamant de Sa Majest\u00e9 la reine Elizabeth\u00a0II\u00a0\u00bb.</figcaption>\n</figure>\n</div>\n\n <div class=\"col-md-4 mrgn-bttm-md\">\n <figure>\n<img class=\"img-responsive\" src=\"https://www.agr.gc.ca/resources/prod/img/cb/images/1552399479154_probiotiques.jpg\" alt=\"La description de cette image suit\"><br>\n<figcaption>Des probiotiques Lactobacillus rhamnosus grossies  1000 fois. D\u00e9terminer la viabilit\u00e9 des probiotiques est tr\u00e8s important pour assurer leur efficacit\u00e9.  Gr\u00e2ce \u00e0 l\u2019utilisation de colorants fluorescents sp\u00e9ciaux, on peut distinguer en vert les bact\u00e9ries vivantes et en rouge les bact\u00e9ries mortes.</figcaption>\n</figure>\n</div>\n\n</div>\n\n<h2>Renseignements connexes</h2>\n\n<ul>\n  <li><a href=\"https://profils-profiles.science.gc.ca/fr/centre-recherche/centre-de-recherche-et-de-developpement-de-saint-hyacinthe\">Centre de recherche et d\u00e9veloppement de Saint-Hyacinthe </a></li>\n</ul>\n\r\n    "
    },
    "js": {
        "en": "",
        "fr": ""
    }
}