{
    "dcr_id": "1557430107968",
    "title": {
        "en": "Major milestones advancing ag",
        "fr": "Jalons cl\u00e9s de l'\u00e9volution de l'agriculture"
    },
    "modified": "2020-05-25",
    "issued": "2019-09-03",
    "templatetype": "content page 1 column",
    "page_type": "0",
    "node_id": "1613744537543",
    "dc_date_created": "2019-09-03",
    "managing_branch": "PAB",
    "parent_node_id": "",
    "short_title": "",
    "exturl": "",
    "teamsite_location": {
        "en": "/default/main/AAFC-AAC/Internet-Internet/CCB-DGCC/WORKAREA/CCB-DGCC/templatedata/comm-comm/gene-gene/data/agri-info_newsletter_2019_02-4_1557430107968_en",
        "fr": "/default/main/AAFC-AAC/Internet-Internet/CCB-DGCC/WORKAREA/CCB-DGCC/templatedata/comm-comm/gene-gene/data/agri-info_newsletter_2019_02-4_1557430107968_fr"
    },
    "type_name": "comm-comm/gene-gene",
    "has_dcr_id": true,
    "label": {
        "en": "Major milestones advancing ag",
        "fr": "Jalons cl\u00e9s de l'\u00e9volution de l'agriculture"
    },
    "breadcrumb": {
        "en": "Major milestones advancing ag",
        "fr": "Jalons cl\u00e9s de l'\u00e9volution de l'agriculture"
    },
    "layout_name": "content page 1 column",
    "lang": "en",
    "refaire": false,
    "meta": {
        "viewport": {
            "en": "width=device-width,initial-scale=1",
            "fr": "width=device-width, initial-scale=1"
        },
        "issued": {
            "en": "2019-09-03",
            "fr": "2019-09-03"
        },
        "modified": {
            "en": "2020-05-25",
            "fr": "2020-05-25"
        },
        "format": {
            "en": "gcformat",
            "fr": "gcformat"
        },
        "title": {
            "en": "Major milestones advancing ag",
            "fr": "Jalons cl\u00e9s de l'\u00e9volution de l'agriculture"
        },
        "subject": {
            "en": "architectural heritage;technology transfer;soil assessement",
            "fr": "biens de consommation;gouvernement f\u00e9d\u00e9ral;syst\u00e8mes de culture"
        },
        "dcterms:subject": {
            "en": "architectural heritage;architecture;government information",
            "fr": "d\u00e9veloppement \u00e9conomique;\u00e9conomie agricole;politique"
        },
        "description": {
            "en": "Agri-Info Newsletter Subscription. Agriculture and Agri-Food Canada. and see practical communications tips to support your own activities.Communicating with consumers is an ongoing goal shared by many, and Canada's Agriculture Day offers a chance to talk about ways to improve awareness year-round. What a wonderful way to prepare the next generation.Read profiles of leading Canadian.",
            "fr": "Les 18 et 19 mars 2019 \u2013 Ottawa (Ontario). Principaux points de d\u00e9cisions. La prochaine \u00e9tape consiste \u00e0 s\u2019assurer que les donn\u00e9es sur la distribution des exploitations biologiques mises au jour par les enqu\u00eates s\u00e9lectionn\u00e9es sont statistiquement significatives. am\u00e9lioration continue vers les pratiques exemplaires. moyens diversifi\u00e9s d\u2019assurer la transparence et l\u2019int\u00e9grit\u00e9. inclusion d\u2019\u00e9l\u00e9ments de durabilit\u00e9 \u00e9largis."
        },
        "language": {
            "en": "eng",
            "fr": "fra"
        },
        "keywords": {
            "en": "agriculture.Major;Canadians.I",
            "fr": "Europe.Introduction"
        },
        "audience": {
            "en": "gcaudience",
            "fr": "gcaudience"
        },
        "type": {
            "en": "assessment",
            "fr": "information sur la personne-ressource"
        },
        "creator": {
            "en": "Agriculture and Agri-Food Canada",
            "fr": "Agriculture et Agroalimentaire Canada"
        },
        "spatial": {
            "en": "gcregions",
            "fr": "gcregions"
        },
        "service": {
            "en": "AAFC-AAC",
            "fr": "AAFC-AAC"
        },
        "accessRights": {
            "en": "2",
            "fr": "2"
        },
        "legalName": {
            "en": "agriculture_and_agri_food_canada",
            "fr": "agriculture_et_agroalimentaire_canada"
        },
        "areaServed": {
            "en": "Canada",
            "fr": "Canada"
        }
    },
    "h1": {
        "en": "Major milestones advancing ag",
        "fr": "Jalons cl\u00e9s de l'\u00e9volution de l'agriculture"
    },
    "js": {
        "en": "",
        "fr": ""
    },
    "body": {
        "en": "\r\n    <p><b>February 11, 2019</b></p> \n\n<p><img src=\"https://www.agr.gc.ca/resources/prod/img/agri-info/2019-02/agriinfo_4.jpg\" alt=\"\" class=\"pull-right mrgn-lft-lg img-responsive thumbnail mrgn-bttm-sm\"></p>\n\n<p>Canada's agriculture and agri-food sector is a key driver of the Canadian economy and a high-performing sector in today's global marketplace. Major initiatives were launched and investments made in 2018 to ensure the sector continues to grow, innovate and prosper. Here are some highlights:</p>\n\n<ul>\n\t<li>Working towards the Government's target of $75 billion in agri-food exports by 2025, Minister of Agriculture and Agri-Food Lawrence MacAulay embarked on many successful trade missions abroad, including Europe, China, South America, Japan, Korea and the U.S.</li>\n\t<li>Continued to pursue a strong trade diversification strategy with the launch of the <a href=\"https://international.gc.ca/trade-commerce/trade-agreements-accords-commerciaux/agr-acc/cptpp-ptpgp/index.aspx?lang=eng\">Comprehensive and Progressive Agreement for Trans-Pacific Partnership</a>,  with estimated new sales for farmers of $1.8 billion a year.</li>\n\n\t<li>First anniversary of the <a href=\"https://www.canada.ca/en/agriculture-agri-food/news/2018/10/minister-macaulay-strengthens-agricultural-trade-with-the-european-union.html\">Comprehensive Economic and Trade Agreement</a> with the European Union, the world's single largest market for food.</li>\n\t<li>Industry's $30 billion in sales with our largest trading partner was secured and stabilized through the successful conclusion of the <a href=\"https://www.canada.ca/en/global-affairs/news/2018/09/joint-statement-from-united-states-trade-representative-robert-lighthizer-and-canadian-foreign-affairs-minister-chrystia-freeland.html\">Canada-U.S.-Mexico Agreement</a>.</li>\n\t<li>Launch of the <a href=\"https://www.canada.ca/en/agriculture-agri-food/news/2018/04/canadian-agricultural-partnership-a-cornerstone-for-the-continued-growth-of-a-key-economic-sector.html\">Canadian Agricultural Partnership</a>, a progressive federal-provincial-territorial $3 billion commitment to keep the industry strong and growing.</li>\n\t<li>Minister MacAulay's two-part \"<a href=\"https://www.canada.ca/en/agriculture-agri-food/news/2018/09/minister-macaulay-concludes-second-growing-canadian-agriculture-tour.html\">Growing Canadian Agriculture Tour</a>\"  meeting with farmers, processors, and industry leaders, and participating in rural agricultural events.</li>\n\t<li>Major investments in innovation, including over $120 million in new agricultural research clusters under the Canadian Agricultural Partnership in key areas of the sector; and a <a href=\"https://www.canada.ca/en/agriculture-agri-food/news/2018/09/government-of-canada-makes-transformative-70-million-investment-in-agricultural-science.html\">$70 million investment</a>, over five years, in agricultural science to help farmers adapt to climate change, and conserve soil and water.</li>\n\t<li>Launch of five SuperClusters, including Protein Innovation Canada, which will add value to Canadian crops, generating an estimated $4.5 billion for the economy and more than 4,500 jobs.</li>\n\t<li>Report of the <a href=\"https://www.ic.gc.ca/eic/site/098.nsf/eng/00022.html\">AgriFood Economic Strategy Table</a> outlining a roadmap to make Canada's agri-food industry a leading global competitor.</li>\n\t<li>The <a href=\"https://www.canada.ca/en/agriculture-agri-food/news/2018/11/support-for-canadas-agriculture-and-agri-food-sector-to-grow-the-middle-class0.html\">Fall Economic Statement</a> boosts the competitiveness of Canadian agriculture and agri-food businesses through tax and investment incentives, trade support, and $800 million investment under the Strategic Innovation Fund, including investments to drive automation and digital technologies in the agri-food sector.</li>\n</ul>\n\n<p>Together these initiatives are positioning Canada's agriculture and food sector to capture exciting opportunities that lie ahead in a global marketplace where demand is growing for the high-quality, sustainable food that our farmers and food processors can deliver.</p>\n\n<div class=\"clearfix\"></div>\n<section class=\"panel panel-success\">\n <header class=\"panel-heading\">\n  <h2 class=\"panel-title\">Get more Agri-info</h2>\n </header>\n <div class=\"panel-body\">\n\t <ul>\n\t \t<li><b>Want more stories like this?</b> Explore what else <a href=\"?id=1419351635969\">Agri-info</a> has to offer.</li>\n\t \t<li><b>Interested in reporting on this story?</b> Contact AAFC Media Relations at <a href=\"mailto:aafc.mediarelations-relationsmedias.aac@canada.ca\">aafc.mediarelations-relationsmedias.aac@canada.ca</a> to arrange an interview with one of our experts.</li>\n\t \t<li><b>Have a story idea or feedback to share?</b> Get in touch at <a href=\"mailto:aafc.agri-info.aac@canada.ca\">aafc.agri-info.aac@canada.ca</a>!</li>\n\t \t<li><b>Never miss an update.</b> <a href=\"https://pab-dgab-aafc-aac.microsoftcrmportals.com/subscription/\">Subscribe</a> to Agri-info today.</li>\n\t </ul>\n </div>\n</section>\n\r\n    ",
        "fr": "\r\n    <p><b>11 f\u00e9vrier 2019</b></p> \n\n<p><img src=\"https://www.agr.gc.ca/resources/prod/img/agri-info/2019-02/agriinfo_4.jpg\" alt=\"\" class=\"pull-right mrgn-lft-lg img-responsive thumbnail mrgn-bttm-sm\"></p>\n\n<p>Le secteur canadien de l'agriculture et de l'agroalimentaire est un moteur important de l'\u00e9conomie canadienne et il repr\u00e9sente un secteur performant sur le march\u00e9 mondial actuel. En 2018, des initiatives importantes ont \u00e9t\u00e9 lanc\u00e9es, et des investissements ont \u00e9t\u00e9 effectu\u00e9s afin d'assurer continuellement la croissance, l'innovation et la prosp\u00e9rit\u00e9 de ce secteur. Voici quelques faits saillants\u00a0:</p>\n\n<ul class=\"lst-spcd\">\n\t<li>En travaillant \u00e0 l'atteinte de l'objectif du gouvernement de 75 milliards de dollars en exportations agroalimentaires d'ici 2025, Lawrence MacAulay, ministre d'Agriculture et Agroalimentaire Canada, a effectu\u00e9 plusieurs missions commerciales r\u00e9ussies \u00e0 l'\u00e9tranger, notamment en Europe, en Chine, en Am\u00e9rique du Sud, au Japon, en Cor\u00e9e et aux \u00c9tats-Unis.</li>\n\n\t<li>La strat\u00e9gie de diversification du commerce est demeur\u00e9e solide, gr\u00e2ce au lancement de l'<a href=\"https://international.gc.ca/trade-commerce/trade-agreements-accords-commerciaux/agr-acc/cptpp-ptpgp/index.aspx?lang=fra\">Accord de partenariat transpacifique global et progressiste</a>; les nouvelles ventes aux agriculteurs sont estim\u00e9es \u00e0 1,8 milliard de dollars par ann\u00e9e.</li>\n\n\t<li>Premier anniversaire de l'<a href=\"https://www.canada.ca/fr/agriculture-agroalimentaire/nouvelles/2018/10/le-ministre-macaulay-renforce-nos-relations-agrocommerciales-avec-lunion-europeenne.html\">Accord \u00e9conomique et commercial global</a> avec l'Union europ\u00e9enne, le plus grand march\u00e9 du monde pour l'alimentation.</li>\n\t<li>Les ventes de l'industrie effectu\u00e9es aupr\u00e8s de notre plus grand partenaire commercial et repr\u00e9sentant 30 milliards de dollars ont \u00e9t\u00e9 assur\u00e9es et stabilis\u00e9es gr\u00e2ce \u00e0 la signature de l'<a href=\"https://www.canada.ca/fr/affaires-mondiales/nouvelles/2018/09/declaration-commune-du-representant-au-commerce-des-etats-unis-robert-lighthizer-et-de-la-ministre-des-affaires-etrangeres-du-canada-chrystia-freeland.html\">Accord Canada\u2013\u00c9tats-Unis\u2013Mexique</a>.</li>\n\t<li>Lancement du <a href=\"https://www.canada.ca/fr/agriculture-agroalimentaire/nouvelles/2018/04/le-partenariat-agricole-canadien--une-pierre-angulaire-de-la-croissance-continue-dans-un-important-secteur-economique.html\">Partenariat canadien pour l'agriculture</a>, un engagement progressif de 3 milliards de dollars des gouvernements f\u00e9d\u00e9ral, provinciaux et territoriaux pour assurer la sant\u00e9 et la croissance de l'industrie.</li>\n\t<li>Le ministre MacAulay a effectu\u00e9 la tourn\u00e9e \u00ab<a href=\"https://www.canada.ca/fr/agriculture-agroalimentaire/nouvelles/2018/09/le-ministre-macaulay-termine-sa-deuxieme-tournee--agriculture-canadienne-en-croissance.html\">\u00a0Agriculture canadienne en croissance\u00a0</a>\u00bb en deux parties, et a rencontr\u00e9 des agriculteurs, des transformateurs et des chefs de file de l'industrie, en plus de participer \u00e0 des activit\u00e9s agricoles en milieu rural.</li>\n\n\t<li>Plusieurs investissements importants ont \u00e9t\u00e9 effectu\u00e9s dans l'innovation, dont plus de 120 millions de dollars en nouvelles grappes de recherche agricole dans le cadre du Partenariat canadien pour l'agriculture pour certains domaines cl\u00e9s du secteur, ainsi qu'un <a href=\"https://www.canada.ca/fr/agriculture-agroalimentaire/nouvelles/2018/09/le-gouvernement-du-canada-fait-un-investissement-transformateur-de-70-millions-de-dollars-dans-les-sciences-agricoles.html\">investissement de 70 millions de dollars</a>, sur cinq ans, en science agricole afin d'aider les cultivateurs \u00e0 s'adapter aux changements climatiques et conserver leurs ressources en sol et en eau.</li>\n\n\t<li>Lancement de cinq supergrappes, dont celle de Protein Innovation Canada, qui ajouteront de la valeur aux cultures canadiennes en g\u00e9n\u00e9rant environ 4,5 milliards de dollars pour l'\u00e9conomie et plus de 4\u00a0500 emplois.</li>\n\t<li>Rapport des <a href=\"https://www.ic.gc.ca/eic/site/098.nsf/fra/00022.html\">tables sectorielles de strat\u00e9gies \u00e9conomiques sur l'agroalimentaire</a>, qui pr\u00e9sente un plan pour faire de l'industrie agroalimentaire du Canada un chef de file mondial.</li>\n\t<li>L'<a href=\"https://www.canada.ca/fr/agriculture-agroalimentaire/nouvelles/2018/11/soutien-du-secteur-agricole-et-agroalimentaire-du-canada-pour-assurer-la-croissance-de-la-classe-moyenne.html\">\u00c9nonc\u00e9 \u00e9conomique de l'automne</a> rehausse la comp\u00e9titivit\u00e9 des entreprises du secteur canadien de l'agriculture et de l'agroalimentaire gr\u00e2ce \u00e0 des incitatifs \u00e0 l'investissement et des incitatifs fiscaux, \u00e0 l'appui au commerce et \u00e0 un investissement de 800 millions de dollars dans le cadre du Fonds strat\u00e9gique pour l'innovation, y compris des investissements pour stimuler l'automatisation et les technologies num\u00e9riques au sein du secteur agroalimentaire.</li>\n</ul>\n\n<p>Ensemble, ces initiatives font en sorte que le secteur agricole et agroalimentaire du Canada est en mesure de profiter de d\u00e9bouch\u00e9s int\u00e9ressants \u00e0 venir au sein d'un march\u00e9 mondial o\u00f9 la demande pour les aliments durables de grande qualit\u00e9 de nos agriculteurs et transformateurs d'aliments est croissante.</p>\n\n<div class=\"clearfix\"></div>\n<section class=\"panel panel-success\">\n <header class=\"panel-heading\">\n  <h2 class=\"panel-title\">Plus d\u2019Agri-info</h2>\n </header>\n <div class=\"panel-body\">\n<ul>\n<li><b>Vous voulez plus d'histoires comme celles-ci?</b> D\u00e9couvrez tout  ce qu'<a href=\"?id=1419351635969\">Agri-info</a> a \u00e0 vous offrir.</li>\n<li><b>Vous souhaitez faire un reportage sur l'une de nos  histoires?</b> Communiquez  avec l\u2019\u00e9quipe des Relations avec les m\u00e9dias d'AAC \u00e0 l'adresse <a href=\"mailto:aafc.mediarelations-relationsmedias.aac@canada.ca\">aafc.mediarelations-relationsmedias.aac@canada.ca</a> pour obtenir une  entrevue avec l'un de nos experts.</li>\n<li><b>Vous avez une id\u00e9e d'histoire ou des commentaires \u00e0  partager?</b> Communiquez  avec nous \u00e0 l'adresse <a href=\"mailto:aafc.agri-info.aac@canada.ca\">aafc.agri-info.aac@canada.ca</a>!</li>\n<li><b>Soyez \u00e0 l'aff\u00fbt.</b> <a href=\"https://pab-dgab-aafc-aac.microsoftcrmportals.com/subscription_F/\">Abonnez-vous</a> \u00e0 Agri-info d\u00e8s  aujourd'hui.</li>\n</ul> \n </div>\n</section>\n\r\n    "
    }
}