{
    "dcr_id": "1557423304031",
    "title": {
        "en": "Strategy for healthy piglets without antibiotics",
        "fr": "Strat\u00e9gie pour des porcelets en sant\u00e9 sans antibiotique"
    },
    "modified": "2020-05-25",
    "issued": "2019-09-03",
    "templatetype": "content page 1 column",
    "page_type": "0",
    "node_id": "1613744537543",
    "dc_date_created": "2019-09-03",
    "managing_branch": "PAB",
    "parent_node_id": "",
    "short_title": "",
    "exturl": "",
    "teamsite_location": {
        "en": "/default/main/AAFC-AAC/Internet-Internet/CCB-DGCC/WORKAREA/CCB-DGCC/templatedata/comm-comm/gene-gene/data/agri-info_newsletter_2019_04-9_1557423304031_en",
        "fr": "/default/main/AAFC-AAC/Internet-Internet/CCB-DGCC/WORKAREA/CCB-DGCC/templatedata/comm-comm/gene-gene/data/agri-info_newsletter_2019_04-9_1557423304031_fr"
    },
    "type_name": "comm-comm/gene-gene",
    "has_dcr_id": true,
    "label": {
        "en": "Strategy for healthy piglets without antibiotics",
        "fr": "Strat\u00e9gie pour des porcelets en sant\u00e9 sans antibiotique"
    },
    "breadcrumb": {
        "en": "Strategy for healthy piglets without antibiotics",
        "fr": "Strat\u00e9gie pour des porcelets en sant\u00e9 sans antibiotique"
    },
    "layout_name": "content page 1 column",
    "lang": "en",
    "refaire": false,
    "meta": {
        "viewport": {
            "en": "width=device-width,initial-scale=1",
            "fr": "width=device-width, initial-scale=1"
        },
        "issued": {
            "en": "2019-09-03",
            "fr": "2019-09-03"
        },
        "modified": {
            "en": "2020-05-25",
            "fr": "2020-05-25"
        },
        "format": {
            "en": "gcformat",
            "fr": "gcformat"
        },
        "title": {
            "en": "Strategy for healthy piglets without antibiotics",
            "fr": "Strat\u00e9gie pour des porcelets en sant\u00e9 sans antibiotique"
        },
        "subject": {
            "en": "trade agreements;technology transfer;soil assessement",
            "fr": "maladie de la vache folle;politique agricole;oeufs-production"
        },
        "dcterms:subject": {
            "en": "statistics;architectural heritage;architecture",
            "fr": "viande;\u00e9conomie agricole;m\u00e9dicament"
        },
        "description": {
            "en": "Subscribe to the Agri-info newsletter. Table of contents. The group is being co-chaired by the Canola Council of Canada and AAFC.Learn more about Minister Bibeau. All producers are now guaranteed at least 70% of their historical reference margin.It now offers a simplified enrolment process for new and rejoining participants, with less paperwork.",
            "fr": "Inscrivez-vous au bulletin Agri-info. Table des mati\u00e8res. La ministre\u00a0Bibeau, qui repr\u00e9sente une circonscription rurale du Qu\u00e9bec, a eu l\u2019occasion de s\u2019entretenir avec un certain nombre d\u2019intervenants cl\u00e9s qui lui ont permis de mieux comprendre l\u2019envergure du secteur agricole prosp\u00e8re du Canada.Au cours de ces rencontres, la ministre\u00a0Bibeau a acquis des connaissances pr\u00e9cieuses sur la meilleure fa\u00e7on pour le Canada de saisir les nombreuses possibilit\u00e9s de croissance dans ce secteur. de. \u00a0. 2,4\u00a0milliards de dollars."
        },
        "language": {
            "en": "eng",
            "fr": "fra"
        },
        "keywords": {
            "en": "business.While;Eichler;China.Newly",
            "fr": "canadien.Afin;Eichler;Chine.Un"
        },
        "audience": {
            "en": "gcaudience",
            "fr": "gcaudience"
        },
        "type": {
            "en": "presentation",
            "fr": "rapport"
        },
        "creator": {
            "en": "Agriculture and Agri-Food Canada",
            "fr": "Agriculture et Agroalimentaire Canada"
        },
        "spatial": {
            "en": "gcregions",
            "fr": "gcregions"
        },
        "service": {
            "en": "AAFC-AAC",
            "fr": "AAFC-AAC"
        },
        "accessRights": {
            "en": "2",
            "fr": "2"
        },
        "legalName": {
            "en": "agriculture_and_agri_food_canada",
            "fr": "agriculture_et_agroalimentaire_canada"
        },
        "areaServed": {
            "en": "Canada",
            "fr": "Canada"
        }
    },
    "h1": {
        "en": "Strategy for healthy piglets without antibiotics",
        "fr": "Strat\u00e9gie pour des porcelets en sant\u00e9 sans antibiotique"
    },
    "js": {
        "en": "",
        "fr": ""
    },
    "body": {
        "en": "\r\n    <p><b>April 15, 2019</b></p> \n\n<p><img src=\"https://www.agr.gc.ca/resources/prod/img/agri-info/2019-04/agriinfo_4-7.jpg\" alt=\"\" class=\"pull-right mrgn-lft-lg img-responsive thumbnail mrgn-bttm-sm\"></p> \n \n<p>A feeding strategy for piglets that does not include antibiotics will reduce veterinary costs and facilitate access to the European market for Canadian hog producers. </p>\n\n<p>Through the research cluster led by <a href=\"http://www.swineinnovationporc.ca/\">Swine Innovation Porc</a>, the federal government and the Canadian hog sector have invested in discovering ways to reduce antibiotic use in piglet production.</p>\n\n<p>A multidisciplinary research program involving scientists at AAFC's research centres in Sherbrooke and Guelph and at universities in three provinces has resulted in the development of feeding strategies that can reduce the amount of antibiotics administered to piglets during and after weaning by improving their intestinal health.</p>\n\n<p>When piglets are weaned, the transition to a new diet disrupts the intestinal microflora (microbiota) and the digestive functions of the intestine. The risk of intestinal infections is also increased. To naturally strengthen piglets' immunity and natural defences, the scientists developed an alternative diet in which nutrients (vitamins, minerals, fatty acids) and functional ingredients (plant extracts, probiotics, prebiotics, bovine colostrum) are added to the piglets' daily ration.</p>\n\n<p>Combining bovine colostrum with an enriched feed containing ingredients that have antimicrobial and prebiotic properties, such as mannans (yeast extract), carvacrol (essential oil of thyme or oregano) and polyphenol-rich cranberry extract, results in varying degrees of improvement to the composition of the microbiota and the digestive and immune functions of the intestine in piglets.</p>\n\n<p>For Canadian hog producers, this alternative to antibiotics for ensuring the health of piglets will reduce veterinary costs and allow producers to be more competitive in the European market, which has banned antibiotics in swine feed.</p>\n\n<div class=\"clearfix\"></div>\n<section class=\"panel panel-success\">\n <header class=\"panel-heading\">\n  <h2 class=\"panel-title\">Get more Agri-info</h2>\n </header>\n <div class=\"panel-body\">\n\t <ul>\n\t \t<li><b>Want more stories like this?</b> Explore what else <a href=\"?id=1419351635969\">Agri-info</a> has to offer.</li>\n\t \t<li><b>Interested in reporting on this story?</b> Contact AAFC Media Relations at <a href=\"mailto:aafc.mediarelations-relationsmedias.aac@canada.ca\">aafc.mediarelations-relationsmedias.aac@canada.ca</a> to arrange an interview with one of our experts.</li>\n\t \t<li><b>Have a story idea or feedback to share?</b> Get in touch at <a href=\"mailto:aafc.agri-info.aac@canada.ca\">aafc.agri-info.aac@canada.ca</a>!</li>\n\t \t<li><b>Never miss an update.</b> <a href=\"https://pab-dgab-aafc-aac.microsoftcrmportals.com/subscription/\">Subscribe</a> to Agri-info today.</li>\n\t </ul>\n </div>\n</section>\n\r\n    ",
        "fr": "\r\n    <p><b>15 avril 2019</b></p>\n\n<p><img src=\"https://www.agr.gc.ca/resources/prod/img/agri-info/2019-04/agriinfo_4-7.jpg\" alt=\"\" class=\"pull-right mrgn-lft-lg img-responsive thumbnail mrgn-bttm-sm\"></p> \n\n<p>Une strat\u00e9gie alimentaire sans antibiotique pour  porcelets , r\u00e9duira les frais v\u00e9t\u00e9rinaires et facilitera l\u2019acc\u00e8s au march\u00e9  europ\u00e9en pour les producteurs porcins canadiens.</p>\n\n<p>Dans le cadre de la grappe de recherche dirig\u00e9e par <a href=\"http://www.innovationporc.ca/\">Swine Innovation Porc</a>,  le gouvernement f\u00e9d\u00e9ral et le secteur porcin canadien ont investi pour  d\u00e9couvrir des fa\u00e7ons de r\u00e9duire l\u2019utilisation d\u2019antibiotiques dans l\u2019\u00e9levage  des porcelets.</p>\n\n<p>Un programme de recherche  multidisciplinaire, impliquant des scientifiques des centres de recherche d\u2019AAC  \u00e0 Sherbrooke et \u00e0 Guelph et d\u2019universit\u00e9s de trois provinces, a permis de  d\u00e9velopper des strat\u00e9gies alimentaires capables   de r\u00e9duire la quantit\u00e9 d\u2019antibiotiques donn\u00e9s aux porcelets pendant et  apr\u00e8s la p\u00e9riode de sevrage en am\u00e9liorant leur sant\u00e9 intestinale.</p>\n\n<p>Lors du sevrage des porcelets, le  passage \u00e0 un nouveau r\u00e9gime alimentaire perturbe la microflore intestinale  (microbiote) et les fonctions digestives de l\u2019intestin. Le risque d\u2019infections  intestinales s\u2019en trouve augment\u00e9. Pour renforcer naturellement l\u2019immunit\u00e9 et  les d\u00e9fenses naturelles des porcelets, les chercheurs ont mis au point un  r\u00e9gime alimentaire alternatif combinant l\u2019ajout de nutriments (vitamines,  min\u00e9raux, acides gras) et d'aliments fonctionnels (extraits de plantes,  probiotiques, pr\u00e9biotiques, colostrum bovin) \u00e0 leur ration quotidienne.</p>\n\n<p>La combinaison du colostrum bovin et d\u2019un aliment enrichi ayant des  propri\u00e9t\u00e9s antimicrobiennes et pr\u00e9biotiques, tels que des mannanes (extrait de  levure), du carvacrol (huile essentielle de thym ou d\u2019origan) et un extrait de  canneberge riche en ph\u00e9nol, am\u00e9liore \u00e0 divers degr\u00e9s la composition du  microbiote et les fonctions digestives et immunitaires des intestins des  porcelets.</p>\n\n<p>Pour les producteurs porcins canadiens, cette alternative aux  antibiotiques pour assurer la sant\u00e9 de leurs porcelets, pourra r\u00e9duire leurs  frais v\u00e9t\u00e9rinaires et leur permettra d\u2019\u00eatre plus comp\u00e9titifs sur le march\u00e9  europ\u00e9en, qui a banni  les antibiotiques  de l\u2019alimentation porcine.</p>\n\n<div class=\"clearfix\"></div>\n<section class=\"panel panel-success\">\n <header class=\"panel-heading\">\n  <h2 class=\"panel-title\">Plus d\u2019Agri-info</h2>\n </header>\n <div class=\"panel-body\">\n<ul>\n<li><b>Vous voulez plus d'histoires comme celles-ci?</b> D\u00e9couvrez tout  ce qu'<a href=\"?id=1419351635969\">Agri-info</a> a \u00e0 vous offrir.</li>\n<li><b>Vous souhaitez faire un reportage sur l'une de nos  histoires?</b> Communiquez  avec l\u2019\u00e9quipe des Relations avec les m\u00e9dias d'AAC \u00e0 l'adresse <a href=\"mailto:aafc.mediarelations-relationsmedias.aac@canada.ca\">aafc.mediarelations-relationsmedias.aac@canada.ca</a> pour obtenir une  entrevue avec l'un de nos experts.</li>\n<li><b>Vous avez une id\u00e9e d'histoire ou des commentaires \u00e0  partager?</b> Communiquez  avec nous \u00e0 l'adresse <a href=\"mailto:aafc.agri-info.aac@canada.ca\">aafc.agri-info.aac@canada.ca</a>!</li>\n<li><b>Soyez \u00e0 l'aff\u00fbt.</b> <a href=\"https://pab-dgab-aafc-aac.microsoftcrmportals.com/subscription_F/\">Abonnez-vous</a> \u00e0 Agri-info d\u00e8s  aujourd'hui.</li>\n</ul> \n </div>\n</section>\n\r\n    "
    }
}