{
    "dcr_id": "1557423099457",
    "title": {
        "en": "Canadian Agricultural Strategic Priorities Program now accepting applications",
        "fr": "Le Programme des priorit\u00e9s strat\u00e9giques de l\u2019agriculture canadienne accepte maintenant les demandes"
    },
    "modified": "2020-05-25",
    "issued": "2019-09-03",
    "templatetype": "content page 1 column",
    "page_type": "0",
    "node_id": "1613744537543",
    "dc_date_created": "2019-09-03",
    "managing_branch": "PAB",
    "parent_node_id": "",
    "short_title": "",
    "exturl": "",
    "teamsite_location": {
        "en": "/default/main/AAFC-AAC/Internet-Internet/CCB-DGCC/WORKAREA/CCB-DGCC/templatedata/comm-comm/gene-gene/data/agri-info_newsletter_2019_04-7_1557423099457_en",
        "fr": "/default/main/AAFC-AAC/Internet-Internet/CCB-DGCC/WORKAREA/CCB-DGCC/templatedata/comm-comm/gene-gene/data/agri-info_newsletter_2019_04-7_1557423099457_fr"
    },
    "type_name": "comm-comm/gene-gene",
    "has_dcr_id": true,
    "label": {
        "en": "Canadian Agricultural Strategic Priorities Program now accepting applications",
        "fr": "Le Programme des priorit\u00e9s strat\u00e9giques de l\u2019agriculture canadienne accepte maintenant les demandes"
    },
    "breadcrumb": {
        "en": "Canadian Agricultural Strategic Priorities Program now accepting applications",
        "fr": "Le Programme des priorit\u00e9s strat\u00e9giques de l\u2019agriculture canadienne accepte maintenant les demandes"
    },
    "layout_name": "content page 1 column",
    "lang": "en",
    "refaire": false,
    "meta": {
        "viewport": {
            "en": "width=device-width,initial-scale=1",
            "fr": "width=device-width, initial-scale=1"
        },
        "issued": {
            "en": "2019-09-03",
            "fr": "2019-09-03"
        },
        "modified": {
            "en": "2020-05-25",
            "fr": "2020-05-25"
        },
        "format": {
            "en": "gcformat",
            "fr": "gcformat"
        },
        "title": {
            "en": "Canadian Agricultural Strategic Priorities Program now accepting applications",
            "fr": "Le Programme des priorit\u00e9s strat\u00e9giques de l\u2019agriculture canadienne accepte maintenant les demandes"
        },
        "subject": {
            "en": "trade agreements;technology transfer;soil assessement",
            "fr": "maladie de la vache folle;politique agricole;oeufs-production"
        },
        "dcterms:subject": {
            "en": "statistics;architectural heritage;architecture",
            "fr": "viande;\u00e9conomie agricole;m\u00e9dicament"
        },
        "description": {
            "en": "Subscribe to the Agri-info newsletter. Table of contents. The group is being co-chaired by the Canola Council of Canada and AAFC.Learn more about Minister Bibeau. All producers are now guaranteed at least 70% of their historical reference margin.It now offers a simplified enrolment process for new and rejoining participants, with less paperwork.",
            "fr": "Inscrivez-vous au bulletin Agri-info. Table des mati\u00e8res. La ministre\u00a0Bibeau, qui repr\u00e9sente une circonscription rurale du Qu\u00e9bec, a eu l\u2019occasion de s\u2019entretenir avec un certain nombre d\u2019intervenants cl\u00e9s qui lui ont permis de mieux comprendre l\u2019envergure du secteur agricole prosp\u00e8re du Canada.Au cours de ces rencontres, la ministre\u00a0Bibeau a acquis des connaissances pr\u00e9cieuses sur la meilleure fa\u00e7on pour le Canada de saisir les nombreuses possibilit\u00e9s de croissance dans ce secteur. de. \u00a0. 2,4\u00a0milliards de dollars."
        },
        "language": {
            "en": "eng",
            "fr": "fra"
        },
        "keywords": {
            "en": "business.While;Eichler;China.Newly",
            "fr": "canadien.Afin;Eichler;Chine.Un"
        },
        "audience": {
            "en": "gcaudience",
            "fr": "gcaudience"
        },
        "type": {
            "en": "presentation",
            "fr": "rapport"
        },
        "creator": {
            "en": "Agriculture and Agri-Food Canada",
            "fr": "Agriculture et Agroalimentaire Canada"
        },
        "spatial": {
            "en": "gcregions",
            "fr": "gcregions"
        },
        "service": {
            "en": "AAFC-AAC",
            "fr": "AAFC-AAC"
        },
        "accessRights": {
            "en": "2",
            "fr": "2"
        },
        "legalName": {
            "en": "agriculture_and_agri_food_canada",
            "fr": "agriculture_et_agroalimentaire_canada"
        },
        "areaServed": {
            "en": "Canada",
            "fr": "Canada"
        }
    },
    "h1": {
        "en": "Canadian Agricultural Strategic Priorities Program now accepting applications",
        "fr": "Le Programme des priorit\u00e9s strat\u00e9giques de l\u2019agriculture canadienne accepte maintenant les demandes"
    },
    "js": {
        "en": "",
        "fr": ""
    },
    "body": {
        "en": "\r\n    <p><b>April 15, 2019</b></p>  \n\n<div class=\"pull-right\">\n<iframe width=\"560\" height=\"315\" src=\"https://www.youtube.com/embed/fduqVxNepFw\" frameborder=\"0\" allow=\"accelerometer; autoplay; encrypted-media; gyroscope; picture-in-picture\" allowfullscreen></iframe> \n</div>\n\n<p>Agriculture and Agri-Food Canada recently launched the Canadian Agricultural Strategic Priorities Program (CASPP), a $50.3-million, five-year program intended to replace the Canadian Agricultural Adaptation Program.</p>\n\n\n\n<p>CASPP focuses on four priority areas: </p>\n\n<ul>\n <li>new technology adoption </li>\n <li>environmental sustainability</li>\n <li>strategic development and capacity building</li>\n <li>emerging issues</li>\n</ul>\n\n<p>Examples of projects the program could support include artificial intelligence technology, tools to assess future labour and skills needs, bio-crops, environmentally sustainable farming techniques, or strategies to help the sector adapt to changes in consumer preferences.</p>\n\n<p>CASPP projects must be national in scope or deal with cross-sectoral issues. Eligible applicants include not-for-profit organizations and associations, cooperatives, marketing boards and Indigenous groups.</p>\n\n<p>Applications will be accepted throughout the life of the program until all available funds have been allocated.</p>\n\n<p>Interested in applying? Read the <a href=\"?id=1549327437463\"> CASPP applicant guide</a> and <a href=\"?id=1549325740130\">submit an application</a> now!</p>\n\n<div class=\"clearfix\"></div>\n<section class=\"panel panel-success\">\n <header class=\"panel-heading\">\n  <h2 class=\"panel-title\">Get more Agri-info</h2>\n </header>\n <div class=\"panel-body\">\n\t <ul>\n\t \t<li><b>Want more stories like this?</b> Explore what else <a href=\"?id=1419351635969\">Agri-info</a> has to offer.</li>\n\t \t<li><b>Interested in reporting on this story?</b> Contact AAFC Media Relations at <a href=\"mailto:aafc.mediarelations-relationsmedias.aac@canada.ca\">aafc.mediarelations-relationsmedias.aac@canada.ca</a> to arrange an interview with one of our experts.</li>\n\t \t<li><b>Have a story idea or feedback to share?</b> Get in touch at <a href=\"mailto:aafc.agri-info.aac@canada.ca\">aafc.agri-info.aac@canada.ca</a>!</li>\n\t \t<li><b>Never miss an update.</b> <a href=\"https://pab-dgab-aafc-aac.microsoftcrmportals.com/subscription/\">Subscribe</a> to Agri-info today.</li>\n\t </ul>\n </div>\n</section>\n\r\n    ",
        "fr": "\r\n    <p><b>15 avril 2019</b></p>\n\n<div class=\"pull-right\">\n<iframe width=\"560\" height=\"315\" src=\"https://www.youtube.com/embed/VFgLryUyDf0\" frameborder=\"0\" allow=\"accelerometer; autoplay; encrypted-media; gyroscope; picture-in-picture\" allowfullscreen></iframe> \n</div>\n\n<p>Agriculture et Agroalimentaire Canada a r\u00e9cemment lanc\u00e9 le Programme des  priorit\u00e9s strat\u00e9giques de l\u2019agriculture canadienne (PPSAC), un programme  quinquennal de\u00a050,3\u00a0millions de dollars destin\u00e9 \u00e0 remplacer le  Programme canadien d\u2019adaptation agricole.</p>\n\n<p>Les quatre domaines prioritaires du PPSAC\u00a0:</p>\n\n<ul>\n  <li>adoption de  nouvelles technologies;</li>\n  <li>durabilit\u00e9 de  l\u2019environnement;</li>\n  <li>planification strat\u00e9gique et renforcement des capacit\u00e9s;</li>\n  <li>nouveaux enjeux.</li>\n</ul>\n\n<p>Parmi les projets qui pourraient faire l\u2019objet d\u2019une aide, mentionnons  ceux qui portent sur la technologie de l\u2019intelligence artificielle, les outils  d\u2019\u00e9valuation des besoins futurs en main-d\u2019\u0153uvre et en comp\u00e9tences, les cultures  biologiques, les techniques agricoles durables sur le plan de l\u2019environnement  ou les strat\u00e9gies visant \u00e0 aider le secteur \u00e0 s\u2019adapter \u00e0 l\u2019\u00e9volution des  pr\u00e9f\u00e9rences des consommateurs.</p>\n\n<p>Dans le cadre du PPSAC, les projets doivent avoir une port\u00e9e nationale  ou s\u2019articuler autour d\u2019enjeux intersectoriels. Les associations et organismes  \u00e0 but non lucratif, les coop\u00e9ratives, les offices de commercialisation et les  groupes autochtones peuvent pr\u00e9senter une demande.</p>\n\n<p>Les demandes seront accept\u00e9es pendant toute la dur\u00e9e du Programme,  jusqu\u2019\u00e0 \u00e9puisement des fonds disponibles.</p>\n\n<p>Vous souhaitez pr\u00e9senter une demande? Consultez le <a href=\"?id=1549327437463\">Guide  du demandeur</a> et <a href=\"?id=1549325740130\">pr\u00e9sentez  une demande</a> d\u00e8s maintenant!</p>\n\n<div class=\"clearfix\"></div>\n<section class=\"panel panel-success\">\n <header class=\"panel-heading\">\n  <h2 class=\"panel-title\">Plus d\u2019Agri-info</h2>\n </header>\n <div class=\"panel-body\">\n<ul>\n<li><b>Vous voulez plus d'histoires comme celles-ci?</b> D\u00e9couvrez tout  ce qu'<a href=\"?id=1419351635969\">Agri-info</a> a \u00e0 vous offrir.</li>\n<li><b>Vous souhaitez faire un reportage sur l'une de nos  histoires?</b> Communiquez  avec l\u2019\u00e9quipe des Relations avec les m\u00e9dias d'AAC \u00e0 l'adresse <a href=\"mailto:aafc.mediarelations-relationsmedias.aac@canada.ca\">aafc.mediarelations-relationsmedias.aac@canada.ca</a> pour obtenir une  entrevue avec l'un de nos experts.</li>\n<li><b>Vous avez une id\u00e9e d'histoire ou des commentaires \u00e0  partager?</b> Communiquez  avec nous \u00e0 l'adresse <a href=\"mailto:aafc.agri-info.aac@canada.ca\">aafc.agri-info.aac@canada.ca</a>!</li>\n<li><b>Soyez \u00e0 l'aff\u00fbt.</b> <a href=\"https://pab-dgab-aafc-aac.microsoftcrmportals.com/subscription_F/\">Abonnez-vous</a> \u00e0 Agri-info d\u00e8s  aujourd'hui.</li>\n</ul> \n </div>\n</section>\n\r\n    "
    }
}