{
    "dcr_id": "1558438580513",
    "title": {
        "en": "Youth Employment and Skills Program: Step 2. Who is eligible",
        "fr": "Programme d\u2019emploi et de comp\u00e9tences des jeunes - \u00c9tape 2. Qui est admissible"
    },
    "modified": "2021-05-05",
    "issued": "2019-06-03",
    "templatetype": "content page 1 column",
    "page_type": "0",
    "node_id": "1559561733224",
    "dc_date_created": "2019-06-03",
    "managing_branch": "PAB",
    "parent_node_id": "",
    "short_title": "Step 2. Who is eligible",
    "exturl": "",
    "teamsite_location": {
        "en": "/default/main/AAFC-AAC/Internet-Internet/Group-Ensemble/ProgServ-ProgServ/WORKAREA/ProgServ-ProgServ/templatedata/comm-comm/gene-gene/data/05/yesp-pecj_2_1558438580513_en",
        "fr": "/default/main/AAFC-AAC/Internet-Internet/Group-Ensemble/ProgServ-ProgServ/WORKAREA/ProgServ-ProgServ/templatedata/comm-comm/gene-gene/data/05/yesp-pecj_2_1558438580513_fr"
    },
    "type_name": "comm-comm/gene-gene",
    "has_dcr_id": true,
    "label": {
        "en": "Step 2. Who is eligible",
        "fr": "\u00c9tape 2. Qui est admissible"
    },
    "breadcrumb": {
        "en": "Step 2. Who is eligible",
        "fr": "\u00c9tape 2. Qui est admissible"
    },
    "layout_name": "content page 1 column",
    "lang": "en",
    "refaire": false,
    "meta": {
        "viewport": {
            "en": "width=device-width,initial-scale=1",
            "fr": "width=device-width, initial-scale=1"
        },
        "issued": {
            "en": "2019-06-03",
            "fr": "2019-06-03"
        },
        "modified": {
            "en": "2021-05-05",
            "fr": "2021-05-05"
        },
        "format": {
            "en": "text/html",
            "fr": "text/html"
        },
        "title": {
            "en": "Youth Employment and Skills Program: Step 2. Who is eligible",
            "fr": "Programme d\u2019emploi et de comp\u00e9tences des jeunes - \u00c9tape 2. Qui est admissible"
        },
        "subject": {
            "en": "technology transfer;architectural heritage;soil assessement",
            "fr": "s\u00e9curit\u00e9 alimentaire;industrie de miel;revenus agricoles"
        },
        "dcterms:subject": {
            "en": "architectural heritage;architecture;agricultural assistance",
            "fr": "d\u00e9veloppement \u00e9conomique;viande;commerce ext\u00e9rieur"
        },
        "description": {
            "en": "Applicant Guide. Step 1.What this program offers. Program Objective. CASPP\u2019s objective is to facilitate the Canadian agricultural sector\u2019s ability to seize opportunities, to respond to new and emerging issues, and to pathfind and pilot solutions to new and ongoing issues in order to remain competitive. This is partly driven by changing tastes (market demands), new market opportunities, and a changing regulatory environment.",
            "fr": "\u00c9tape 2. Qui est admissible. \u00c9tape 1.Ce qu'offre ce programme. Employeurs admissibles. Les employeurs admissibles sont les organismes offrant des projets qui permettront aux employ\u00e9s\u00a0:de vivre des exp\u00e9riences de travail en agriculture au Canada qui sont li\u00e9es \u00e0 leur choix de carri\u00e8re;d'acqu\u00e9rir des comp\u00e9tences \u00e0 l'aide du mentorat et de l'encadrement.Remarque\u00a0. : Pour \u00eatre admissibles, les demandeurs doivent \u00eatre des entit\u00e9s juridiques habilit\u00e9es \u00e0 conclure des ententes ayant force ex\u00e9cutoire.Projets admissibles. Pour \u00eatre admissible, un participant doit\u00a0:\u00eatre \u00e2g\u00e9 de 30 ans ou moins au moment de commencer le stage;\u00eatre sans emploi ou sous-employ\u00e9;avoir obtenu son dipl\u00f4me d'une universit\u00e9, d'un coll\u00e8ge, DEP, ou C\u00c9GEP;n'avoir particip\u00e9 \u00e0 aucune autre Strat\u00e9gie emploi jeunesse (c'est-\u00e0-dire, l'Initiative de stage en agroenvironnement et/ou Programme Objectif Carri\u00e8re);\u00eatre citoyen canadien ou r\u00e9sident permanent.S\u2019il s\u2019agit d\u2019un jeune autochtone, le participant doit\u00a0:\u00eatre \u00e2g\u00e9 entre 15 et 30 ans;\u00eatre sans emploi ou sous-employ\u00e9;n'avoir particip\u00e9 \u00e0 aucune autre Strat\u00e9gie emploi jeunesse (c'est-\u00e0-dire, l'Initiative de stage en agroenvironnement et/ou Programme Objectif Carri\u00e8re);\u00eatre citoyen canadien ou r\u00e9sident permanent.Navigation du document - pr\u00e9c\u00e9dente-suivante - bas."
        },
        "language": {
            "en": "eng",
            "fr": "fra"
        },
        "keywords": {
            "en": "good.Preference;form.Contents",
            "fr": null
        },
        "audience": {
            "en": "gcaudience",
            "fr": "gcaudience"
        },
        "type": {
            "en": "article",
            "fr": "\u00e9valuation"
        },
        "creator": {
            "en": "Agriculture and Agri-Food Canada;Government of Canada",
            "fr": "Agriculture et Agroalimentaire Canada;Gouvernement du Canada"
        },
        "spatial": {
            "en": "gcregions",
            "fr": "gcregions"
        },
        "service": {
            "en": "AAFC-AAC",
            "fr": "AAFC-AAC"
        },
        "accessRights": {
            "en": "2",
            "fr": "2"
        },
        "legalName": {
            "en": "agriculture_and_agri_food_canada",
            "fr": "agriculture_et_agroalimentaire_canada"
        },
        "areaServed": {
            "en": "Canada",
            "fr": "Canada"
        }
    },
    "h1": {
        "en": "Youth Employment and Skills Program: Step 2. Who is eligible",
        "fr": "Programme d\u2019emploi et de comp\u00e9tences des jeunes : \u00c9tape 2. Qui est admissible"
    },
    "js": {
        "en": "",
        "fr": ""
    },
    "body": {
        "en": "\r\n     <div class=\"mrgn-tp-md mrgn-bttm-lg brdr-bttm\">\n\n<div class=\"row\">\n<ul class=\"toc lst-spcd col-md-12 list-unstyled\">\n<li class=\"col-md-4 col-sm-6\"><span class=\"list-group-item\">Step 1. <a href=\"?id=1557778999519\">What this program offers</a></span></li>\n\n<li class=\"col-md-4 col-sm-6\"><span class=\"list-group-item active\">Step 2. Who is eligible</span></li>\n\n<li class=\"col-md-4 col-sm-6 clr-lft-sm\"><span class=\"list-group-item\">Step 3. <a href=\"?id=1558438660663\">How to apply</a></span></li>\n\n<li class=\"col-md-4 col-sm-6\"><span class=\"list-group-item\">Step 4. <a href=\"?id=1558438794234\">After you apply</a></span></li>\n\n<li class=\"col-md-4 col-sm-6\"><span class=\"list-group-item\"><a href=\"?id=1558438957602\">Applicant guide</a></span></li>\n\n<li class=\"col-md-4 col-sm-6\"><span class=\"list-group-item\"><a href=\"?id=1558439096634\">Contact information</a></span></li>\n</ul>\n</div>\n</div>\n\n<h2>Step 2. Who is eligible</h2>\n\n<h3>Eligible employers</h3>\n\n<p>Eligible employers are agricultural related organizations such as farmers, food processors and agricultural related non-governmental organizations (NGOs) who can offer opportunities that will give youth: </p>\n<ul>\n <li>agriculture career-related work experiences and skills in Canada</li>\n</ul>\n\n<div class=\"alert alert-info\">\n<p><b>Note:</b> Eligible applicants must be legal entities capable of entering into legally binding agreements.</p>\n</div>\n\n<h3>Eligible employees</h3>\n\n<p>Eligible employers are responsible for hiring and verifying the eligibility of participants for the Youth Employment and Skills activities. To qualify, the employee must be:</p>\n\n<ul>\n <li>between the ages of 15 and 30 inclusive when the internship started</li>\n <li>unemployed or underemployed\n<ul>\n<li>underemployed will include students who are currently employed and are taking on an expanded role or more hours of work during the internship</li>\n</ul>\n</li>\n <li>a Canadian citizen, permanent resident of Canada or a refugee under the <cite>Immigration and Refugee Protection Act</cite></li>\n</ul>\n\n<!--\n<ul class=\"list-unstyled mrgn-lft-md\">\n<li>Youth facing barriers includes:\n <ul>\n <li>living with a disability</li>\n <li>being Indigenous</li>\n <li><a href=\"https://www150.statcan.gc.ca/t1/tbl1/en/tv.action?pid=1110024101\">living in a low income household</a></li>\n <li>being a single parent</li>\n <li>residing in a remote location</li>\n <li>living with family care responsibilities</li>\n <li>coming out of, or have involvement with the justice system</li>\n <li>other barriers approved on a case by case basis </li>\n</ul>\n</li>\n</ul>\n-->\n\n<h3>Eligible projects</h3>\n\n<p>Projects must offer the employee agricultural work that must be completed by March 31, 2022. </p>\n<p>Examples of typical projects include: </p>\n<ul>\n <li>farmers who wish to hire farm workers for planting and harvesting crops or managing livestock </li>\n <li>agricultural businesses, such as greenhouses, orchards, vineyards, vegetable producers who have labor needs </li>\n <li>small businesses who supply agricultural products or services</li>\n <li>food processors in need of labor</li>\n</ul>\n\n\n <nav>\n <h2 class=\"wb-inv\">Previous-next document navigation - bottom</h2>\n<div class=\"row\">\n<div class=\"col-md-12 mrgn-lft-0 mrgn-rght-0\">\n<ul class=\"pager\">\n\t<li class=\"previous\"><a href=\"?id=1557778999519\" rel=\"prev\" title=\"Step 1. What this program offers\">Previous</a></li>\n<li class=\"next\"><a href=\"?id=1558438660663\" rel=\"next\" title=\"Step 3. How to apply\">Next</a></li>\n</ul>\n</div>\n</div>\n</nav>\n\n\r\n    ",
        "fr": "\r\n    <div class=\"mrgn-tp-md mrgn-bttm-lg brdr-bttm\">\n\n<div class=\"row\">\n<ul class=\"toc lst-spcd col-md-12 list-unstyled\">\n<li class=\"col-md-4 col-sm-6\"><span class=\"list-group-item\">\u00c9tape 1. <a href=\"?id=1557778999519\"> Ce qu'offre ce programme</a></span></li>\n\n<li class=\"col-md-4 col-sm-6\"><span class=\"list-group-item active\">\u00c9tape 2. Qui est admissible</span></li>\n\n<li class=\"col-md-4 col-sm-6 clr-lft-sm\"><span class=\"list-group-item\">\u00c9tape 3. <a href=\"?id=1558438660663\">Comment pr\u00e9senter une demande</a></span></li>\n\n<li class=\"col-md-4 col-sm-6\"><span class=\"list-group-item\">\u00c9tape 4. <a href=\"?id=1558438794234\">Apr\u00e8s avoir pr\u00e9sent\u00e9 votre demande</a></span></li>\n\n<li class=\"col-md-4 col-sm-6\"><span class=\"list-group-item\"><a href=\"?id=1558438957602\">Guide du demandeur</a></span></li>\n\n<li class=\"col-md-4 col-sm-6\"><span class=\"list-group-item\"><a href=\"?id=1558439096634\">Pour nous joindre</a></span></li>\n</ul>\n</div>\n</div>\n\n<h2>\u00c9tape 2. Qui est admissible</h2>\n\n<h3>Employeurs admissibles</h3>\n\n<p>Les employeurs admissibles sont les organisations en lien avec l\u2019agriculture comme les agriculteurs, les transformateurs et les organisations agricoles \u00e0 but non lucratif qui offrent des opportunit\u00e9s pour les jeunes afin\u00a0:</p>\n<ul>\n <li>d\u2019acqu\u00e9rir des exp\u00e9riences de travail et des comp\u00e9tences en agriculture au Canada qui sont li\u00e9es \u00e0 leur choix de carri\u00e8re</li>\n</ul>\n\n<div class=\"alert alert-info\">\n<p><b>Remarque :</b> Pour \u00eatre admissibles, les demandeurs doivent \u00eatre des entit\u00e9s juridiques habilit\u00e9es \u00e0 conclure des ententes ayant force ex\u00e9cutoire.</p>\n</div>\n\n<h3>Employ\u00e9s admissibles</h3>\n\n<p>Il incombe aux employeurs admissibles d'embaucher et de v\u00e9rifier l'admissibilit\u00e9 des participants aux activit\u00e9s du Programme d\u2019emploi et de comp\u00e9tences des jeunes. Pour \u00eatre admissible, un employ\u00e9 doit\u00a0:</p>\n<ul>\n  <li>\u00eatre \u00e2g\u00e9 de 15 \u00e0 30 ans avant de d\u00e9buter le stage;</li>\n  <li>\u00eatre sans emploi ou sous-employ\u00e9;\n<ul>\n  <li>sous-employ\u00e9 comprend les \u00e9tudiants qui sont actuellement employ\u00e9s et qui assumeront un r\u00f4le \u00e9largi ou plus d\u2019heures de travail pendant le stage</li>\n</ul>\n</li>\n  <li>\u00eatre citoyen canadien, r\u00e9sident permanent du Canada ou r\u00e9fugi\u00e9 selon la <cite>Loi sur l\u2019immigration et la protection des r\u00e9fugi\u00e9s</cite>.</li>\n</ul>\n\n<!--\n<ul class=\"list-unstyled\">\n  <li>Les jeunes confront&eacute;s &agrave; des obstacles inclus&nbsp;:\n <ul>\n    <li>vivre avec une invalidit&eacute;</li>\n    <li>autochtone</li>\n    <li><a href=\"https://www150.statcan.gc.ca/t1/tbl1/fr/tv.action?pid=1110024101&request_locale=fr\">m&eacute;nage &agrave; faible revenue</a></li>\n    <li>famille monoparentale</li>\n    <li>vivre dans un endroit &eacute;loign&eacute;</li>\n    <li>avoir des responsabilit&eacute;s familiales</li>\n    <li>en sortir ou &ecirc;tre impliqu&eacute; dans le syst&egrave;me judiciaire</li>\n    <li>Autres obstacles approuv&eacute;s au pr&eacute;alable</li>\n </ul>\n  </li>\n</ul>\n-->\n\n<h3>Projets admissibles</h3>\n\n<p>Les projets doivent offrir \u00e0 l'employ\u00e9 un travail en agriculture qui doit se terminer au plus tard le 31 mars 2022.</p>\n<p>Voici quelques exemples de projets typiques\u00a0:</p>\n<ul>\n  <li>les agriculteurs qui souhaitent  embaucher des travailleurs agricoles pour la plantation et la r\u00e9colte des  cultures ou pour la gestion du b\u00e9tail</li>\n  <li>Les entreprises agricoles, comme les  serres, les vergers, les vignobles, les producteurs de l\u00e9gumes qui ont des  besoins en main-d\u2019\u0153uvre</li>\n  <li>Les petites entreprises qui  fournissent des produits ou des services agricoles</li>\n  <li>Les usines de transformation alimentaire qui ont  besoin de main-d\u2019\u0153uvre</li>\n</ul>\n\n\n<nav>\n <h2 class=\"wb-inv\">Navigation du document - pr\u00e9c\u00e9dente-suivante - bas</h2>\n<div class=\"row\">\n<div class=\"col-md-12 mrgn-lft-0 mrgn-rght-0\">\n<ul class=\"pager\">\n\t<li class=\"previous\"><a href=\"?id=1557778999519\" rel=\"prev\" title=\"\u00c9tape 1. Ce qu'offre ce programme\">Pr\u00e9c\u00e9dente</a></li>\n<li class=\"next\"><a href=\"?id=1558438660663\" rel=\"next\" title=\"\u00c9tape 3. Comment pr\u00e9senter une demande\">Suivante</a></li>\n</ul>\n</div>\n</div>\n</nav>\n\n\r\n    "
    }
}