{
    "dcr_id": "1563291367233",
    "title": {
        "en": "Space: The newest frontier in agriculture",
        "fr": "Espace : La plus r\u00e9cente fronti\u00e8re en agriculture"
    },
    "modified": "2019-07-18",
    "issued": "2019-07-18",
    "templatetype": "content page 1 column",
    "page_type": "0",
    "node_id": "1378999410478",
    "dc_date_created": "2019-07-18",
    "managing_branch": "PAB",
    "parent_node_id": "",
    "short_title": "",
    "exturl": "",
    "teamsite_location": {
        "en": "/default/main/AAFC-AAC/Internet-Internet/CCB-DGCC/WORKAREA/CCB-DGCC/templatedata/comm-comm/gene-gene/data/space_newest_frontier_agriculture_1563291367233_en",
        "fr": "/default/main/AAFC-AAC/Internet-Internet/CCB-DGCC/WORKAREA/CCB-DGCC/templatedata/comm-comm/gene-gene/data/space_newest_frontier_agriculture_1563291367233_fr"
    },
    "type_name": "comm-comm/gene-gene",
    "has_dcr_id": true,
    "label": {
        "en": "Space: The newest frontier in agriculture",
        "fr": "Espace : La plus r\u00e9cente fronti\u00e8re en agriculture"
    },
    "breadcrumb": {
        "en": "Space: The newest frontier in agriculture",
        "fr": "Espace : La plus r\u00e9cente fronti\u00e8re en agriculture"
    },
    "layout_name": "content page 1 column",
    "lang": "en",
    "refaire": false,
    "meta": {
        "viewport": {
            "en": "width=device-width,initial-scale=1",
            "fr": "width=device-width, initial-scale=1"
        },
        "issued": {
            "en": "2019-07-18",
            "fr": "2019-07-18"
        },
        "modified": {
            "en": "2019-07-18",
            "fr": "2019-07-18"
        },
        "format": {
            "en": "gcformat",
            "fr": "gcformat"
        },
        "title": {
            "en": "Space: The newest frontier in agriculture",
            "fr": "Espace : La plus r\u00e9cente fronti\u00e8re en agriculture"
        },
        "subject": {
            "en": "beneficial management;architectural heritage;soil assessement",
            "fr": "animaux-maladie;ginseng d'am\u00e9rique;graines ol\u00e9agineuses"
        },
        "dcterms:subject": {
            "en": "statistics;agriculture;geomatics",
            "fr": "bact\u00e9rie;m\u00e9dicament;\u00e9conomie agricole"
        },
        "description": {
            "en": "Extreme weather conditions and events are frequent during the agricultural growing season. Through working with high performance computers, complex models and large datasets, the collaboration has resulted in these agriculture-specific extreme weather indices.\u201cThis work is a good example of the positive results that can come from collaboration among scientists from different departments with common interests. Extreme Weather Indices.",
            "fr": "Les conditions et \u00e9v\u00e9nements m\u00e9t\u00e9orologiques extr\u00eames sont fr\u00e9quents pendant la saison de croissance agricole. En travaillant avec des ordinateurs de haute performance, des mod\u00e8les complexes et de grands ensembles de donn\u00e9es, la collaboration a permis d\u2019obtenir ces indices de conditions m\u00e9t\u00e9orologiques extr\u00eames propres \u00e0 l\u2019agriculture.\u00ab\u00a0Ce travail est un bon exemple des r\u00e9sultats positifs qui peuvent d\u00e9couler de la collaboration entre scientifiques de diff\u00e9rents minist\u00e8res ayant des int\u00e9r\u00eats communs. Indices de conditions m\u00e9t\u00e9orologiques extr\u00eames et cartes de probabilit\u00e9. Calendrier de production des cartes."
        },
        "language": {
            "en": "eng",
            "fr": "fra"
        },
        "keywords": {
            "en": "Cherneski;Marilee Pregitzer;Aston Chipanshi",
            "fr": "agricole.Par;gel.Marilee Pregitzer;Aston Chipanshi"
        },
        "audience": {
            "en": "gcaudience",
            "fr": "gcaudience"
        },
        "type": {
            "en": "presentation",
            "fr": "description du programme ou du service"
        },
        "creator": {
            "en": "Agriculture and Agri-Food Canada",
            "fr": "Agriculture et Agroalimentaire Canada"
        },
        "spatial": {
            "en": "gcregions",
            "fr": "gcregions"
        },
        "service": {
            "en": "AAFC-AAC",
            "fr": "AAFC-AAC"
        },
        "accessRights": {
            "en": "2",
            "fr": "2"
        },
        "legalName": {
            "en": "agriculture_and_agri_food_canada",
            "fr": "agriculture_et_agroalimentaire_canada"
        },
        "areaServed": {
            "en": "Canada",
            "fr": "Canada"
        }
    },
    "h1": {
        "en": "Space: The newest frontier in agriculture",
        "fr": "Espace : La plus r\u00e9cente fronti\u00e8re en agriculture"
    },
    "body": {
        "en": "\r\n    <div class=\"col-md-4 pull-right\" style=\"z-index: 1000\">\n<section class=\"panel panel-default\">\n<header class=\"panel-heading\">\n<h2 class=\"panel-title\">Set up an interview</h2>\n</header>\n<div class=\"panel-body\"><p><b>Media Relations</b><br>\nAgriculture and Agri-Food Canada<br>\n1-866-345-7972<br>\n<a href=\"mailto:aafc.mediarelations-relationsmedias.aac@canada.ca\">aafc.mediarelations-relationsmedias.aac@canada.ca</a></p></div>\n</section>\n</div><p>When the Canadian Space Agency (CSA)  launched its first Synthetic Aperture Radar (SAR) satellite, RADARSAT-1, in  1995, they weren\u2019t thinking about agriculture. But scientists at Agriculture  and Agri-Food Canada (AAFC) saw data streams from earth-orbiting satellites as  an opportunity to look at agriculture from a stellar new vantage point. Soon,  they were using satellite data steams to run crop models and evaluate the ability  of fields to drain.</p>\n\n<p>Fast forward to June 2019 when the CSA launched  it\u2019s third generation of SAR satellites, the RADARSAT-Constellation, and  agriculture is now one of the primary clients and end-users. </p>\n\n<h2>Using Satellite Technology for Agriculture</h2>\n\n<p>The RADARSAT-Constellation is a series  of three SAR satellites. When linked together, they orbit the earth, providing  more frequent coverage and more advanced imaging of our agricultural resources.</p>\n\n<p>Dr. Andrew Davidson, manager of Earth Observation  Operations at Agriculture and Agri-Food Canada (AAFC), explains that there  is no better way to obtain national-scale information on the state and trends  of agriculture and resource use than from space. </p>\n\n<p>\u201cSatellites can cover way more ground at  a much faster pace than humans, drones or aircraft, and the data can be used to  measure things such as crop type, vegetation cover and productivity and surface  soil moisture conditions,\u201d he says. </p>\n\n<p>These data are correlated with data from  aircrafts, drones, and ground collection networks to produce highly accurate  measurements of crops and conditions, with the ability to detect changes  quickly.</p>\n\n<blockquote>\n  <p>\"Satellites can cover way more ground at a much faster pace than humans, drones or aircraft.  While satellites provide imagery, it is the scientists on the ground who turn it into something useful.\"</p>\n<p>- Dr. Andrew Davidson, Earth Observation, Agriculture and Agri-Food Canada</p>\n</blockquote>\n\n<p>Davidson underlines that satellites  provide the kind of timely, reliable and scientifically validated information  that is necessary to help scientists, farmers, producer groups as well as  policy-makers make good evidence-based decisions to manage their operations while  protecting our natural resources.</p>\n\n<p>AAFC\u2019s Earth Observation Operations is  based at the Ottawa Research and Development Centre. They are small, but mighty  and the amount of data they manage is impressive. </p>\n\n<p>\u201cSatellites provide imagery; but it is  the scientists on the ground who turn it into something useful,\u201d says Davidson.</p>\n\n<p>With other AAFC research scientists, they  also manage international collaborations and together, AAFC is acknowledged as  global experts in optical as well as SAR satellite technology.</p>\n\n<h2>What\u2019s in it for Canadian agriculture?</h2>\n\n<p>Much of what Dr. Davidson\u2019s team  produces are data sets, maps and forecasting tools that can be accessed online  through various AAFC web portals. There are also tools and applications for  analysing these data so that decision makers can make informed agricultural  management decisions.</p>\n\n<p>The <a href=\"https://open.canada.ca/data/en/dataset/ba2645d5-4458-414d-b196-6303ac06c1c9\">Annual  Space-Based Crop Inventory</a>, a product of AAFC research, annually maps the  crop type of every field in Canada and is used to detect trends in crop  planting practices. It is also critical for other applications, such as warning  growers of possible threats such as crop diseases. The inventory is also being  used by provinces, private sector and academia to determine how crop  agriculture is affecting the surrounding environment including lake water  quality and honeybee populations.</p>\n\n<p>\u201cThese data have opened up the  possibility of enhanced decision making in the agriculture sector,\u201d Davidson  says. \u201cAnd it doesn\u2019t stop there; our ability to help meet the informational  needs of the sector is only expected to improve as new satellite sensor  technologies are launched, brought online, and made available.\u201d</p>\n\n<p>All in all, earth observation research is helping the Canadian  agricultural sector thrive and the launch of Canada\u2019s new  RADARSAT-Constellation satellites will continue to benefit future generations  of Canadians by protecting food production systems and the environment.</p>\n\n<p>More information on the RADARSAT-Constellation  Mission can be found on the Canadian Space Agency \u201c<a href=\"http://www.asc-csa.gc.ca/eng/satellites/radarsat/what-is-rcm.asp\">What is  the RADARSAT Constellation Mission</a>\u201d webpage.</p>\n\n<h2>Key Discoveries/Benefits</h2>\n\n<ul>\n  <li>The Canadian Space Agency (CSA) launched its latest  Synthetic Aperture Radar (SAR) satellite, RADARSAT-Constellation, in June 2019. </li>\n  <li>Data from earth-orbiting satellites produce  highly accurate measurements of crops and conditions, with the ability to  detect changes more quickly. </li>\n  <li>Satellites provide timely, reliable, and scientifically  validated information that helps make good, evidence-based decisions to manage  farming operations and protect natural resources. </li>\n</ul>\n\n<h2>Photo gallery</h2>\n \n<div class=\"row\">\n <div class=\"col-md-4 mrgn-bttm-md\">\n <figure>\n<img class=\"img-responsive\" src=\"https://www.agr.gc.ca/resources/prod/img/cb/images/space_fig1.jpg\" alt=\"An upper body portrait of Dr. Andrew Davidson standing in a field.\"><br>\n<figcaption>Dr. Andrew Davidson leads AAFC\u2019s Earth Observation team.</figcaption>\n</figure>\n</div>\n\n <div class=\"col-md-4 mrgn-bttm-md\">\n <figure>\n<img class=\"img-responsive\" src=\"https://www.agr.gc.ca/resources/prod/img/cb/images/space_fig2.jpg\" alt=\"A group of 13 people in blue lab coats stand smiling in front of one of the RCM spacecraft in a warehouse.\"><br>\n<figcaption>Dr. Andrew Davidson and colleagues from Earth Observation Operations in front of a RCM spacecraft.</figcaption>\n</figure>\n</div>\n\n <div class=\"col-md-4 mrgn-bttm-md\">\n <figure>\n<img class=\"img-responsive\" src=\"https://www.agr.gc.ca/resources/prod/img/cb/images/space_fig3.jpg\" alt=\"On the right of the photo, Dr. Andrew Davidson and Dr. Catherine Champagne look down at a computer tablet in his hands while standing in a plowed field with trees in the background.\"><br>\n<figcaption>Dr. Andrew Davidson and Dr. Catherine Champagne reviewing field data.</figcaption>\n</figure>\n</div>\n\n</div>\n\n<h2>Related information</h2>\n\n<ul>\n  <li>Canadian Space Agency - <a href=\"http://www.asc-csa.gc.ca/eng/satellites/radarsat/default.asp\">What is the  RADARSAT Constellation Mission</a> (video)</li>\n  <li>Agriculture and Agri-Food Canada - <a href=\"https://www.google.com/url?sa=t&amp;rct=j&amp;q=&amp;esrc=s&amp;source=web&amp;cd=3&amp;cad=rja&amp;uact=8&amp;ved=2ahUKEwjyvePOqeLiAhWGg-AKHQk3DCsQFjACegQIABAB&amp;url=https%3A%2F%2Fwww.youtube.com%2Fwatch%3Fv%3D0I0p9GAv3hk&amp;usg=AOvVaw1Ea9gYmiB41hmU7vlqUpyt\">RADARSAT Constellation Mission: Agricultural Science from Space</a> (video)</li>\n</ul>\n\n\r\n    ",
        "fr": "\r\n    <div class=\"col-md-4 pull-right\" style=\"z-index: 1000\">\n<section class=\"panel panel-default\">\n<header class=\"panel-heading\">\n<h2 class=\"panel-title\">Organiser une entrevue</h2>\n</header>\n<div class=\"panel-body\"><p><b>Relations avec les m\u00e9dias</b><br>\nAgriculture et Agroalimentaire Canada<br>\n1-866-345-7972<br>\n<a href=\"mailto:aafc.mediarelations-relationsmedias.aac@canada.ca\">aafc.mediarelations-relationsmedias.aac@canada.ca</a></p></div>\n</section>\n</div><p>Lorsque l\u2019Agence  spatiale canadienne (ASC) a lanc\u00e9 son premier satellite radar \u00e0 synth\u00e8se  d\u2019ouverture\u00a0(RSO), RADARSAT-1, en\u00a01995, elle ne pensait pas \u00e0 l\u2019agriculture.  Mais des scientifiques \u00e0 Agriculture et Agroalimentaire Canada\u00a0(AAC) ont  vu dans les flux de donn\u00e9es provenant des satellites en orbite autour de la  Terre la possibilit\u00e9 d\u2019\u00e9tudier l\u2019agriculture d\u2019un nouveau point d\u2019observation  stellaire. Ils n\u2019ont pas tard\u00e9 \u00e0 utiliser les flux de donn\u00e9es provenant des  satellites pour ex\u00e9cuter des mod\u00e8les de cultures et \u00e9valuer la capacit\u00e9 des  champs \u00e0 se drainer.</p>\n\n<p>En juin\u00a02019,  l\u2019ASC a lanc\u00e9 sa troisi\u00e8me g\u00e9n\u00e9ration de satellites RSO, la Constellation  RADARSAT. Le secteur agricole est maintenant l\u2019un de ses principaux clients et  utilisateurs finaux. </p>\n\n<h2>Utilisation de la technologie satellitaire pour l\u2019agriculture</h2>\n\n<p>La Constellation  RADARSAT est un ensemble de trois satellites RSO. Lorsqu\u2019ils seront li\u00e9s  ensemble, ils orbiteront autour de la Terre, offrant une couverture plus  fr\u00e9quente et une imagerie plus avanc\u00e9e de nos ressources agricoles.</p>\n\n<p>Andrew Davidson, gestionnaire de la  Section des observations de la Terre \u00e0 Agriculture et Agroalimentaire Canada\u00a0(AAC),  explique qu\u2019il n\u2019y a pas de meilleur moyen d\u2019obtenir de l\u2019information \u00e0  l\u2019\u00e9chelle nationale sur l\u2019\u00e9tat et les tendances de l\u2019agriculture et de  l\u2019utilisation des ressources que depuis l\u2019espace. </p>\n\n<p>\u00ab\u00a0Les satellites peuvent  couvrir davantage de superficies, et ce, plus rapidement que les humains, les drones  ou les a\u00e9ronefs, et les donn\u00e9es peuvent \u00eatre utilis\u00e9es pour mesurer, par  exemple, la superficie d\u2019un type de culture, la couverture v\u00e9g\u00e9tale et la  productivit\u00e9 ainsi que l\u2019humidit\u00e9 de la couche superficielle du sol\u00a0\u00bb,  pr\u00e9cise-t-il. </p>\n\n<p>Ces donn\u00e9es sont  corr\u00e9l\u00e9es avec les donn\u00e9es recueillies par des a\u00e9ronefs, des drones et des  r\u00e9seaux de collecte de donn\u00e9es au sol pour produire des mesures tr\u00e8s pr\u00e9cises  sur les cultures et les conditions, les satellites ayant la capacit\u00e9 de  d\u00e9tecter rapidement des changements.</p>\n\n<blockquote>\n  <p>\u00ab\u00a0Les satellites peuvent couvrir davantage de superficies, et ce, plus rapidement que les humains, les drones ou les a\u00e9ronefs. M\u00eame si ce sont les satellites qui fournissent l\u2019imagerie, ce sont les scientifiques au sol qui la transforme en quelque chose d\u2019utile\u00a0\u00bb</p>\n<p>- Andrew Davidson, Section des observations de la Terre, Agriculture et Agroalimentaire Canada</p>\n</blockquote>\n\n<p>M.\u00a0Davidson  souligne que les satellites fournissent le type de donn\u00e9es rapides, fiables et  scientifiquement valid\u00e9es qui est n\u00e9cessaire pour aider les scientifiques, les  agriculteurs, les groupes de producteurs et les d\u00e9cideurs \u00e0 prendre des  d\u00e9cisions fond\u00e9es sur la science pour g\u00e9rer leurs activit\u00e9s tout en prot\u00e9geant  nos ressources naturelles.</p>\n\n<p>La section des  observations de la Terre d\u2019AAC est situ\u00e9e au Centre de recherche et de  d\u00e9veloppement d\u2019Ottawa. Elle est petite, mais dynamique, et la quantit\u00e9 de  donn\u00e9es qu\u2019elle traite est impressionnante. </p>\n\n<p>\u00ab\u00a0Les satellites fournissent  l\u2019imagerie, mais ce sont les scientifiques au sol qui la transforme en quelque  chose d\u2019utile\u00a0\u00bb, ajoute M.\u00a0Davidson.</p>\n\n<p>Avec d\u2019autres chercheurs  d\u2019AAC, il a \u00e9galement g\u00e9r\u00e9 des collaborations internationales et, ensemble, ils  sont reconnus comme des sp\u00e9cialistes mondiaux en technologie optique ainsi  qu\u2019en technologie satellitaire RSO.</p>\n\n<h2>Qu\u2019en retire l\u2019agriculture canadienne?</h2>\n\n<p>Une grande partie de ce  que l\u2019\u00e9quipe de M.\u00a0Davidson produit est des ensembles de donn\u00e9es, des  cartes et des outils de pr\u00e9vision auxquels on peut avoir acc\u00e8s en ligne \u00e0  partir de plusieurs portails Web d\u2019AAC. Il existe \u00e9galement des outils et des applications  qui font l\u2019analyse de ces donn\u00e9es, de sorte que les d\u00e9cideurs peuvent prendre  des d\u00e9cisions \u00e9clair\u00e9es en mati\u00e8re de gestion agricole.</p>\n\n<p>L\u2019<a href=\"https://ouvert.canada.ca/data/fr/dataset/ba2645d5-4458-414d-b196-6303ac06c1c9\">Inventaire  annuel des cultures, g\u00e9n\u00e9r\u00e9 par des donn\u00e9es spatiales</a>, un produit de  recherche d\u2019AAC, permet de cartographier chaque ann\u00e9e le type de culture de  chaque champ au Canada et sert \u00e0 d\u00e9gager les tendances dans les pratiques de  plantation des cultures. Il est \u00e9galement essentiel pour d\u2019autres applications  comme pour avertir les producteurs des probl\u00e8mes qui les menacent comme les  maladies des cultures. L\u2019inventaire est aussi utilis\u00e9 par les provinces, le  secteur priv\u00e9 et le secteur universitaire pour d\u00e9terminer de quelle mani\u00e8re les  cultures agricoles touchent l\u2019environnement autour, y compris la qualit\u00e9 de  l\u2019eau des lacs et les populations d\u2019abeilles domestiques.</p>\n\n<p>\u00ab\u00a0Ces donn\u00e9es  offrent la possibilit\u00e9 d\u2019am\u00e9liorer le processus d\u00e9cisionnel dans le secteur agricole\u00a0\u00bb,  dit M.\u00a0Davidson. \u00ab\u00a0Et cela ne s\u2019arr\u00eate pas l\u00e0. Notre capacit\u00e9 d\u2019aider  \u00e0 r\u00e9pondre au besoin de s\u2019informer du secteur ne devrait que s\u2019am\u00e9liorer \u00e0  mesure que de nouvelles technologies de d\u00e9tection satellitaire seront mises en  \u0153uvre, mises en ligne et rendues disponibles\u00a0\u00bb.</p>\n\n<p>Dans l\u2019ensemble, la  recherche en observation de la Terre aide le secteur agricole canadien \u00e0  prosp\u00e9rer, et le lancement des nouveaux satellites de la Constellation RADARSAT  du Canada continue de profiter aux g\u00e9n\u00e9rations futures de Canadiens en  prot\u00e9geant les syst\u00e8mes de production alimentaire et l\u2019environnement.</p>\n\n<p>Pour de plus amples  renseignements sur la mission de la Constellation RADARSAT (MCR), veuillez  consulter la page Web de l\u2019Agence spatiale canadienne intitul\u00e9e <a href=\"http://www.asc-csa.gc.ca/fra/satellites/radarsat/quest-ce-que-mcr.asp\">Qu\u2019est-ce  que la MCR?</a></p>\n\n\n<h2>Principales d\u00e9couvertes (principaux avantages)</h2>\n\n<ul>\n  <li>L\u2019Agence spatiale canadienne  (ASC) a lanc\u00e9 son plus r\u00e9cent satellite radar \u00e0 synth\u00e8se d\u2019ouverture (RSO) de  la mission de la Constellation RADARSAT en juin\u00a02019. </li>\n  <li>Les donn\u00e9es provenant des  satellites mis en orbite autour de la Terre produisent des mesures tr\u00e8s  pr\u00e9cises des cultures et des conditions, et peuvent d\u00e9tecter plus rapidement  les variations. </li>\n  <li>Les satellites fournissent rapidement  des renseignements fiables et valid\u00e9s scientifiquement qui aident  \u00e0 prendre de bonnes d\u00e9cisions, fond\u00e9es sur des donn\u00e9es probantes, pour g\u00e9rer  des activit\u00e9s agricoles et prot\u00e9ger les ressources naturelles. </li>\n</ul>\n\n<h2>Galerie de photos</h2>\n \n<div class=\"row\">\n <div class=\"col-md-4 mrgn-bttm-md\">\n <figure>\n<img class=\"img-responsive\" src=\"https://www.agr.gc.ca/resources/prod/img/cb/images/space_fig1.jpg\" alt=\"Portrait du buste d\u2019Andrew Davidson debout dans un champ.\"><br>\n<figcaption>Andrew Davidson, chef de la Section des observations de la Terre d\u2019AAC.</figcaption>\n</figure>\n</div>\n\n <div class=\"col-md-4 mrgn-bttm-md\">\n <figure>\n<img class=\"img-responsive\" src=\"https://www.agr.gc.ca/resources/prod/img/cb/images/space_fig2.jpg\" alt=\"Groupe de 13 personnes en sarraus bleus, souriant, debout, devant l\u2019un des engins spatiaux de la mission de la Constellation RADARSAT dans un entrep\u00f4t.\"><br>\n<figcaption>Andrew Davidson et des coll\u00e8gues de la section des observations de la Terre devant un engin spatial de la mission de la Constellation RADARSAT.</figcaption>\n</figure>\n</div>\n\n <div class=\"col-md-4 mrgn-bttm-md\">\n <figure>\n<img class=\"img-responsive\" src=\"https://www.agr.gc.ca/resources/prod/img/cb/images/space_fig3.jpg\" alt=\"\u00c0 droite, sur la photo, Andrew Davidson et Catherine Champagne consultent une tablette \u00e9lectronique que ce premier tient dans ses mains, debout, dans un champ labour\u00e9, avec des arbres en arri\u00e8re-plan.\"><br>\n<figcaption>Andrew Davidson et Catherine Champagne examinant des donn\u00e9es sur le terrain.</figcaption>\n</figure>\n</div>\n\n</div>\n\n<h2>Renseignements connexes</h2>\n\n<ul>\n  <li>Agence spatiale canadienne - <a href=\"http://www.asc-csa.gc.ca/fra/satellites/radarsat/quest-ce-que-mcr.asp\">Qu\u2019est-ce  que la MCR?</a> (vid\u00e9o) </li>\n  <li>Agriculture et Agroalimentaire  Canada - <a href=\"https://www.youtube.com/watch?v=ti-fe40rGMY\">Mission de la  Constellation RADARSAT\u00a0: La science agricole \u00e0 l\u2019\u00e8re spatiale</a>\u00a0(vid\u00e9o) </li>\n</ul>\n\r\n    "
    },
    "js": {
        "en": "",
        "fr": ""
    }
}