{
    "dcr_id": "1565720382604",
    "title": {
        "en": "New web portal to help Canadians adapt to climate change",
        "fr": "Un nouveau portail Web aide les Canadiens \u00e0 s\u2019adapter aux changements climatiques"
    },
    "modified": "2020-05-25",
    "issued": "2019-09-03",
    "templatetype": "content page 1 column",
    "page_type": "0",
    "node_id": "1613744537543",
    "dc_date_created": "2019-09-03",
    "managing_branch": "PAB",
    "parent_node_id": "",
    "short_title": "",
    "exturl": "",
    "teamsite_location": {
        "en": "/default/main/AAFC-AAC/Internet-Internet/CCB-DGCC/WORKAREA/CCB-DGCC/templatedata/comm-comm/gene-gene/data/agri-info_newsletter_2019_01-2_1565720382604_en",
        "fr": "/default/main/AAFC-AAC/Internet-Internet/CCB-DGCC/WORKAREA/CCB-DGCC/templatedata/comm-comm/gene-gene/data/agri-info_newsletter_2019_01-2_1565720382604_fr"
    },
    "type_name": "comm-comm/gene-gene",
    "has_dcr_id": true,
    "label": {
        "en": "New web portal to help Canadians adapt to climate change",
        "fr": "Un nouveau portail Web aide les Canadiens \u00e0 s\u2019adapter aux changements climatiques"
    },
    "breadcrumb": {
        "en": "New web portal to help Canadians adapt to climate change",
        "fr": "Un nouveau portail Web aide les Canadiens \u00e0 s\u2019adapter aux changements climatiques"
    },
    "layout_name": "content page 1 column",
    "lang": "en",
    "refaire": false,
    "meta": {
        "viewport": {
            "en": "width=device-width,initial-scale=1",
            "fr": "width=device-width, initial-scale=1"
        },
        "issued": {
            "en": "2019-09-03",
            "fr": "2019-09-03"
        },
        "modified": {
            "en": "2020-05-25",
            "fr": "2020-05-25"
        },
        "format": {
            "en": "gcformat",
            "fr": "gcformat"
        },
        "title": {
            "en": "New web portal to help Canadians adapt to climate change",
            "fr": "Un nouveau portail Web aide les Canadiens \u00e0 s\u2019adapter aux changements climatiques"
        },
        "subject": {
            "en": "american ginseng;architectural heritage;soil assessement",
            "fr": "produits animaux;produits avicoles;pommes de terre-producteurs"
        },
        "dcterms:subject": {
            "en": "architectural heritage;architecture;agriculture",
            "fr": "accord;m\u00e9dicament;engrais"
        },
        "description": {
            "en": "Subscribe to the Agri-info newsletter. Table of contents. Broad measures will also be undertaken to make sure Canada's regulations are as innovative and efficient as possible, helping businesses to stay on the competitive edge and grow. Once the agreement has entered into force for all parties, producers of more than three-quarters of Canada's agriculture and agri-food products will benefit from immediate duty-free access to all member states.These agreements\u2014as well as the Comprehensive and Economic Trade Agreement (CETA)\u2014make Canada the only G7 nation with free trade access to the Americas, Europe and Asia\u2013Pacific.The federal government is also committed to developing strategies to support farmers and processors to help them adjust to impacts resulting from the CUSMA and the CPTPP.",
            "fr": "Inscrivez-vous au bulletin Agri-info. Table des mati\u00e8res. Il s\u2019agit notamment de la mise en place d\u2019importants incitatifs fiscaux et encouragements \u00e0 l\u2019investissement qui stimuleront les affaires et am\u00e9lioreront la comp\u00e9titivit\u00e9 des entreprises agricoles et agroalimentaires canadiennes.Gr\u00e2ce \u00e0 ces nouvelles mesures, les fabricants et les transformateurs de produits alimentaires pourront imm\u00e9diatement passer en charges le co\u00fbt de leurs investissements en immobilisations comme la machinerie et l\u2019\u00e9quipement, y compris les technologies propres. Les Cartes des conditions agroclimatiques, les \u00e9valuations de la s\u00e9cheresse, la surveillance de l\u2019humidit\u00e9 du sol, les rapports d\u2019impact, la gestion des risques et les mises en situation li\u00e9es aux changements climatiques aident tous \u00e0 prendre des d\u00e9cisions dans le domaine agricole, a pr\u00e9cis\u00e9 M.\u00a0Cherneski."
        },
        "language": {
            "en": "eng",
            "fr": "fra"
        },
        "keywords": {
            "en": "added.To;abroad.Innovation;Canadaand one",
            "fr": "accrues.Main-d\u0153uvre;Limp\u00e9ratif;\u00c9difier"
        },
        "audience": {
            "en": "gcaudience",
            "fr": "gcaudience"
        },
        "type": {
            "en": "resource list",
            "fr": "avis"
        },
        "creator": {
            "en": "Agriculture and Agri-Food Canada",
            "fr": "Agriculture et Agroalimentaire Canada"
        },
        "spatial": {
            "en": "gcregions",
            "fr": "gcregions"
        },
        "service": {
            "en": "AAFC-AAC",
            "fr": "AAFC-AAC"
        },
        "accessRights": {
            "en": "2",
            "fr": "2"
        },
        "legalName": {
            "en": "agriculture_and_agri_food_canada",
            "fr": "agriculture_et_agroalimentaire_canada"
        },
        "areaServed": {
            "en": "Canada",
            "fr": "Canada"
        }
    },
    "h1": {
        "en": "New web portal to help Canadians adapt to climate change",
        "fr": "Un nouveau portail Web aide les Canadiens \u00e0 s\u2019adapter aux changements climatiques"
    },
    "js": {
        "en": "",
        "fr": ""
    },
    "body": {
        "en": "\r\n    <p><b>January 8, 2019</b></p> \n\n<p><img src=\"https://www.agr.gc.ca/resources/prod/img/agri-info/2019-01/agriinfo_2.jpg\" alt=\"\" class=\"pull-right mrgn-lft-lg img-responsive thumbnail mrgn-bttm-sm\"></p>\n\n<p>Climate information\u2014including timely, accurate and trusted weather  information\u2014is critical for decisions related to agricultural  production. Farmers and ranchers now have access to more decision-making tools  through a new web portal launched by the Government of Canada in October 2018.  These resources will help farmers take full  advantage of opportunities and reduce risks.</p>\n\n<p>Aimed at helping Canadians understand and adapt to climate change,  the <a href=\"https://www.canada.ca/en/environment-climate-change/services/climate-change/canadian-centre-climate-services.html\">Canadian  Centre for Climate Services</a> offers one-stop access to a variety of  climate data, information and tools. Features include a climate library, a  climate science hub, a data download section and a new climate services support  desk to help users with their climate data questions. The centre also offers  training and support for individuals who want to address local climate-related  risks.</p>\n\n<p>\"The climate services website and support desk are good  complements to Agriculture and Agri-Food Canada (AAFC)'s agroclimate website  pages, like <a href=\"?id=1461263317515\">Drought  Watch</a>\",  explains Patrick Cherneski, manager of AAFC's National  Agroclimate Information Service.</p>\n\n<p>\"For more than 20 years, AAFC has been providing farmers and  decision-makers with agroclimate data, information and tools. Agroclimate conditions maps, drought assessments,  soil-moisture monitoring, impact reporting, risk management, and climate change  scenarios all help in making agricultural decisions,\" said Cherneski. \"The  new portal is more broad. It's an all-government approach that houses a wider variety of sources and sectors, for all Canadians\", he added.</p>\n\n<p>To  learn more about the new portal and how it aims to help Canadians understand  and adapt to climate change, visit the <a href=\"https://www.canada.ca/en/environment-climate-change/services/climate-change/canadian-centre-climate-services.html\">Canadian  Centre for Climate Services</a>.</p>\n\n<div class=\"clearfix\"></div>\n<section class=\"panel panel-success\">\n <header class=\"panel-heading\">\n  <h2 class=\"panel-title\">Get more Agri-info</h2>\n </header>\n <div class=\"panel-body\">\n\t <ul>\n\t \t<li><b>Want more stories like this?</b> Explore what else <a href=\"?id=1419351635969\">Agri-info</a> has to offer.</li>\n\t \t<li><b>Interested in reporting on this story?</b> Contact AAFC Media Relations at <a href=\"mailto:aafc.mediarelations-relationsmedias.aac@canada.ca\">aafc.mediarelations-relationsmedias.aac@canada.ca</a> to arrange an interview with one of our experts.</li>\n\t \t<li><b>Have a story idea or feedback to share?</b> Get in touch at <a href=\"mailto:aafc.agri-info.aac@canada.ca\">aafc.agri-info.aac@canada.ca</a>!</li>\n\t \t<li><b>Never miss an update.</b> <a href=\"https://pab-dgab-aafc-aac.microsoftcrmportals.com/subscription/\">Subscribe</a> to Agri-info today.</li>\n\t </ul>\n </div>\n</section>\n\r\n    ",
        "fr": "\r\n    <p><b>08 janvier 2019</b></p>\n\n<p><img src=\"https://www.agr.gc.ca/resources/prod/img/agri-info/2019-01/agriinfo_2.jpg\" alt=\"\" class=\"pull-right mrgn-lft-lg img-responsive thumbnail mrgn-bttm-sm\"></p>\n\n<p>L\u2019information sur le  climat \u2013 y compris des renseignements \u00e0 jour, exacts et fiables sur la m\u00e9t\u00e9o \u2013  est essentielle pour prendre des d\u00e9cisions relatives  \u00e0 la production agricole. Gr\u00e2ce au nouveau portail Web lanc\u00e9 par le  gouvernement du Canada en octobre\u00a02018, les agriculteurs et les \u00e9leveurs  ont d\u00e9sormais acc\u00e8s \u00e0 davantage d\u2019outils d\u2019aide \u00e0 la d\u00e9cision. Ils  pourront ainsi tirer pleinement parti des possibilit\u00e9s qui s\u2019offrent \u00e0 eux et  r\u00e9duire les risques. </p>\n<p>  Le <a href=\"https://www.canada.ca/fr/environnement-changement-climatique/services/changements-climatiques/centre-canadien-services-climatiques.html\">Centre  canadien des services climatologiques</a>, qui a pour but d\u2019aider les  Canadiens \u00e0 comprendre les changements climatiques et \u00e0 s\u2019y adapter, offre un  acc\u00e8s centralis\u00e9 \u00e0 divers outils, donn\u00e9es et informations sur le climat. Le  portail comporte une biblioth\u00e8que sur le climat, un centre de climatologie, une  section de t\u00e9l\u00e9chargement de donn\u00e9es et un nouveau centre d\u2019aide des Services  climatiques pour r\u00e9pondre aux questions des utilisateurs sur les donn\u00e9es  climatiques. Le Centre offre \u00e9galement de la formation et du soutien aux  personnes qui veulent s\u2019attaquer aux risques li\u00e9s au climat dans leur r\u00e9gion. </p>\n<p>  \u00ab\u00a0Le site Web et  le centre d\u2019aide des Services climatiques compl\u00e8tent bien les pages du site Web  sur l\u2019agroclimat d\u2019Agriculture et Agroalimentaire Canada (AAC), par exemple <a href=\"?id=1461263317515\">Guetter  la s\u00e9cheresse</a>\u00a0\u00bb, a soulign\u00e9 Patrick\u00a0Cherneski, directeur  du Service national d\u2019information sur l\u2019agroclimat d\u2019AAC. </p>\n<p>  \u00ab\u00a0Depuis plus de  20\u00a0ans, AAC fournit aux agriculteurs et aux d\u00e9cideurs des donn\u00e9es, de  l\u2019information et des outils agroclimatiques. Les Cartes  des conditions agroclimatiques, les \u00e9valuations de la s\u00e9cheresse, la  surveillance de l\u2019humidit\u00e9 du sol, les rapports d\u2019impact, la gestion des  risques et les mises en situation li\u00e9es aux changements climatiques aident tous  \u00e0 prendre des d\u00e9cisions dans le domaine agricole, a pr\u00e9cis\u00e9 M.\u00a0Cherneski.  Le nouveau portail est plus vaste. Pangouvernemental, il englobe une plus  grande vari\u00e9t\u00e9 de sources et de secteurs, pour tous les Canadiens.\u00a0\u00bb</p>\n<p>Pour  en savoir plus sur le nouveau portail et sur sa fa\u00e7on d\u2019aider les Canadiens \u00e0  comprendre les changements climatiques et \u00e0 s\u2019y adapter, visitez le site Web du <a href=\"https://www.canada.ca/fr/environnement-changement-climatique/services/changements-climatiques/centre-canadien-services-climatiques.html\">Centre  canadien des services climatiques</a>.</p>\n\n<div class=\"clearfix\"></div>\n<section class=\"panel panel-success\">\n <header class=\"panel-heading\">\n  <h2 class=\"panel-title\">Plus d\u2019Agri-info</h2>\n </header>\n <div class=\"panel-body\">\n<ul>\n<li><b>Vous voulez plus d'histoires comme celles-ci?</b> D\u00e9couvrez tout  ce qu'<a href=\"?id=1419351635969\">Agri-info</a> a \u00e0 vous offrir.</li>\n<li><b>Vous souhaitez faire un reportage sur l'une de nos  histoires?</b> Communiquez  avec l\u2019\u00e9quipe des Relations avec les m\u00e9dias d'AAC \u00e0 l'adresse <a href=\"mailto:aafc.mediarelations-relationsmedias.aac@canada.ca\">aafc.mediarelations-relationsmedias.aac@canada.ca</a> pour obtenir une  entrevue avec l'un de nos experts.</li>\n<li><b>Vous avez une id\u00e9e d'histoire ou des commentaires \u00e0  partager?</b> Communiquez  avec nous \u00e0 l'adresse <a href=\"mailto:aafc.agri-info.aac@canada.ca\">aafc.agri-info.aac@canada.ca</a>!</li>\n<li><b>Soyez \u00e0 l'aff\u00fbt.</b> <a href=\"https://pab-dgab-aafc-aac.microsoftcrmportals.com/subscription_F/\">Abonnez-vous</a> \u00e0 Agri-info d\u00e8s  aujourd'hui.</li>\n</ul> \n </div>\n</section>\n\r\n    "
    }
}