{
    "dcr_id": "1565721216564",
    "title": {
        "en": "\u2018Making hay\u2019 with forages",
        "fr": "\u00ab Faire du foin \u00bb avec les cultures fourrag\u00e8res"
    },
    "modified": "2020-05-25",
    "issued": "2019-09-03",
    "templatetype": "content page 1 column",
    "page_type": "0",
    "node_id": "1613744537543",
    "dc_date_created": "2019-09-03",
    "managing_branch": "PAB",
    "parent_node_id": "",
    "short_title": "",
    "exturl": "",
    "teamsite_location": {
        "en": "/default/main/AAFC-AAC/Internet-Internet/CCB-DGCC/WORKAREA/CCB-DGCC/templatedata/comm-comm/gene-gene/data/agri-info_newsletter_2019_01-6_1565721216564_en",
        "fr": "/default/main/AAFC-AAC/Internet-Internet/CCB-DGCC/WORKAREA/CCB-DGCC/templatedata/comm-comm/gene-gene/data/agri-info_newsletter_2019_01-6_1565721216564_fr"
    },
    "type_name": "comm-comm/gene-gene",
    "has_dcr_id": true,
    "label": {
        "en": "\u2018Making hay\u2019 with forages",
        "fr": "\u00ab Faire du foin \u00bb avec les cultures fourrag\u00e8res"
    },
    "breadcrumb": {
        "en": "\u2018Making hay\u2019 with forages",
        "fr": "\u00ab Faire du foin \u00bb avec les cultures fourrag\u00e8res"
    },
    "layout_name": "content page 1 column",
    "lang": "en",
    "refaire": false,
    "meta": {
        "viewport": {
            "en": "width=device-width,initial-scale=1",
            "fr": "width=device-width, initial-scale=1"
        },
        "issued": {
            "en": "2019-09-03",
            "fr": "2019-09-03"
        },
        "modified": {
            "en": "2020-05-25",
            "fr": "2020-05-25"
        },
        "format": {
            "en": "gcformat",
            "fr": "gcformat"
        },
        "title": {
            "en": "\u2018Making hay\u2019 with forages",
            "fr": "\u00ab Faire du foin \u00bb avec les cultures fourrag\u00e8res"
        },
        "subject": {
            "en": "american ginseng;architectural heritage;soil assessement",
            "fr": "produits animaux;produits avicoles;pommes de terre-producteurs"
        },
        "dcterms:subject": {
            "en": "architectural heritage;architecture;agriculture",
            "fr": "accord;m\u00e9dicament;engrais"
        },
        "description": {
            "en": "Subscribe to the Agri-info newsletter. Table of contents. Broad measures will also be undertaken to make sure Canada's regulations are as innovative and efficient as possible, helping businesses to stay on the competitive edge and grow. Once the agreement has entered into force for all parties, producers of more than three-quarters of Canada's agriculture and agri-food products will benefit from immediate duty-free access to all member states.These agreements\u2014as well as the Comprehensive and Economic Trade Agreement (CETA)\u2014make Canada the only G7 nation with free trade access to the Americas, Europe and Asia\u2013Pacific.The federal government is also committed to developing strategies to support farmers and processors to help them adjust to impacts resulting from the CUSMA and the CPTPP.",
            "fr": "Inscrivez-vous au bulletin Agri-info. Table des mati\u00e8res. Il s\u2019agit notamment de la mise en place d\u2019importants incitatifs fiscaux et encouragements \u00e0 l\u2019investissement qui stimuleront les affaires et am\u00e9lioreront la comp\u00e9titivit\u00e9 des entreprises agricoles et agroalimentaires canadiennes.Gr\u00e2ce \u00e0 ces nouvelles mesures, les fabricants et les transformateurs de produits alimentaires pourront imm\u00e9diatement passer en charges le co\u00fbt de leurs investissements en immobilisations comme la machinerie et l\u2019\u00e9quipement, y compris les technologies propres. Les Cartes des conditions agroclimatiques, les \u00e9valuations de la s\u00e9cheresse, la surveillance de l\u2019humidit\u00e9 du sol, les rapports d\u2019impact, la gestion des risques et les mises en situation li\u00e9es aux changements climatiques aident tous \u00e0 prendre des d\u00e9cisions dans le domaine agricole, a pr\u00e9cis\u00e9 M.\u00a0Cherneski."
        },
        "language": {
            "en": "eng",
            "fr": "fra"
        },
        "keywords": {
            "en": "added.To;abroad.Innovation;Canadaand one",
            "fr": "accrues.Main-d\u0153uvre;Limp\u00e9ratif;\u00c9difier"
        },
        "audience": {
            "en": "gcaudience",
            "fr": "gcaudience"
        },
        "type": {
            "en": "resource list",
            "fr": "avis"
        },
        "creator": {
            "en": "Agriculture and Agri-Food Canada",
            "fr": "Agriculture et Agroalimentaire Canada"
        },
        "spatial": {
            "en": "gcregions",
            "fr": "gcregions"
        },
        "service": {
            "en": "AAFC-AAC",
            "fr": "AAFC-AAC"
        },
        "accessRights": {
            "en": "2",
            "fr": "2"
        },
        "legalName": {
            "en": "agriculture_and_agri_food_canada",
            "fr": "agriculture_et_agroalimentaire_canada"
        },
        "areaServed": {
            "en": "Canada",
            "fr": "Canada"
        }
    },
    "h1": {
        "en": "\u2018Making hay\u2019 with forages",
        "fr": "\u00ab Faire du foin \u00bb avec les cultures fourrag\u00e8res"
    },
    "js": {
        "en": "",
        "fr": ""
    },
    "body": {
        "en": "\r\n    <p><b>January 8, 2019</b></p> \n\n<p><img src=\"https://www.agr.gc.ca/resources/prod/img/agri-info/2019-01/agriinfo_6.jpg\" alt=\"\" class=\"pull-right mrgn-lft-lg img-responsive thumbnail mrgn-bttm-sm\"></p>\n\n<p>Though often overlooked, forage is the third most profitable crop for  Canadian farmers, valued at more than $5\u00a0billion a year. Agriculture and  Agri-Food Canada (AAFC) scientists are researching it in hopes of helping  farmers across the country get more out of it.</p>\n\n<p>By definition, forage is food for animals\u2014a combination of plants,  shrubs and grasses that contain the nutrients animals need for digestive health  and growth.</p>\n\n<p>But forage can be so much more than food, explains Dr. Kathleen Glover,  an AAFC forage agronomist. It also plays a role in animal productivity, farm  profitability and environmental sustainability. \"Its value wasn't always obvious in the  past,\" she says. \"The discussion now is how to maximize its use and improve its  quality.\"</p>\n\n<h3>Environmental  and animal health benefits</h3>\n\n<p>Forages reduce soil erosion and improve soil health and organic matter.  They are considered important for crop rotation on many farms. They also absorb  carbon dioxide as they grow, supporting a net decrease in greenhouse gases. And  the legumes in forages help fix nitrogen (a free fertilizer) in soil.</p>\n\n<p>To increase the legume component of forage mixtures, Glover is  developing a research program at the Nappan Research Farm in Nova Scotia.  Another Nappan scientist, plant breeder Dr. Yousef Papadopoulos, has released a  new alfalfa variety adapted to diverse environments in northern latitudes that  offers better quality and growth and stands up to flooding and drought.</p>\n\n<p>Meanwhile, at the Swift Current Research and Development Centre in  Saskatchewan, Dr. Alan Iwaasa is evaluating the forage quality of native and  tame grasslands together with ruminant nutrition, livestock-grazing production,  grazing behaviour and the environmental footprint of grazing. Another AAFC  scientist at the Centre, Dr. Mike Schellenberg, is working to provide beef  producers with perennial forage plants that can thrive in the extremes of the  Prairie climate. Winterfat\u2014a shrub that offers high nutritive value, drought  resistance and the ability to control soil erosion\u2014is on his radar.</p>\n\n<p>Eventually, AAFC scientists hope to turn their findings into  practical knowledge that farmers can use to make the most of forages. </p>\n\n<p>For more information on AAFC research, visit <a href=\"?id=1379013177194\">Scientific  achievements in agriculture</a>.</p>\n\n<div class=\"clearfix\"></div>\n<section class=\"panel panel-success\">\n <header class=\"panel-heading\">\n  <h2 class=\"panel-title\">Get more Agri-info</h2>\n </header>\n <div class=\"panel-body\">\n\t <ul>\n\t \t<li><b>Want more stories like this?</b> Explore what else <a href=\"?id=1419351635969\">Agri-info</a> has to offer.</li>\n\t \t<li><b>Interested in reporting on this story?</b> Contact AAFC Media Relations at <a href=\"mailto:aafc.mediarelations-relationsmedias.aac@canada.ca\">aafc.mediarelations-relationsmedias.aac@canada.ca</a> to arrange an interview with one of our experts.</li>\n\t \t<li><b>Have a story idea or feedback to share?</b> Get in touch at <a href=\"mailto:aafc.agri-info.aac@canada.ca\">aafc.agri-info.aac@canada.ca</a>!</li>\n\t \t<li><b>Never miss an update.</b> <a href=\"https://pab-dgab-aafc-aac.microsoftcrmportals.com/subscription/\">Subscribe</a> to Agri-info today.</li>\n\t </ul>\n </div>\n</section>\n\r\n    ",
        "fr": "\r\n    <p><b>08 janvier 2019</b></p>\n\n<p><img src=\"https://www.agr.gc.ca/resources/prod/img/agri-info/2019-01/agriinfo_6.jpg\" alt=\"\" class=\"pull-right mrgn-lft-lg img-responsive thumbnail mrgn-bttm-sm\"></p>\n\n<p>Bien que souvent  n\u00e9glig\u00e9e, la culture fourrag\u00e8re est la troisi\u00e8me culture la plus rentable pour  les agriculteurs canadiens, avec une valeur de plus de 5\u00a0milliards de  dollars par ann\u00e9e. Les scientifiques d\u2019Agriculture et Agroalimentaire Canada  (AAC) effectuent des recherches \u00e0 ce sujet dans le but d\u2019aider les agriculteurs  de tout le pays \u00e0 en tirer davantage parti.</p>\n\n<p>Par d\u00e9finition, le  fourrage est un aliment pour les animaux, soit une combinaison de plantes,  d\u2019arbustes et d\u2019herbes qui contiennent les nutriments dont les animaux ont  besoin pour rester en sant\u00e9 et favoriser leur croissance.</p>\n\n<p>Mais le fourrage peut  \u00eatre bien plus que de la nourriture, explique Kathleen\u00a0Glover, agronome  des fourrages \u00e0 AAC. Le fourrage joue \u00e9galement un r\u00f4le dans la productivit\u00e9  des animaux, la rentabilit\u00e9 des exploitations agricoles et la durabilit\u00e9  environnementale. \u00ab\u00a0Sa valeur n\u2019a pas  toujours \u00e9t\u00e9 \u00e9vidente dans le pass\u00e9\u00a0\u00bb, dit-elle. \u00ab\u00a0Les discussions  portent maintenant sur la fa\u00e7on de maximiser son utilisation et d\u2019am\u00e9liorer sa  qualit\u00e9\u00a0\u00bb.</p>\n\n<h3>Avantages pour l\u2019environnement et la sant\u00e9 des animaux </h3>\n\n<p>Les fourrages  r\u00e9duisent l\u2019\u00e9rosion des sols et ils am\u00e9liorent la qualit\u00e9 des sols et de la  mati\u00e8re organique. Ils sont consid\u00e9r\u00e9s comme importants pour la rotation des  cultures dans de nombreuses fermes. Ils absorbent \u00e9galement le dioxyde de  carbone tout au long de leur croissance, ce qui favorise une diminution nette  des gaz \u00e0 effet de serre. En outre, les l\u00e9gumineuses dans les fourrages aident  \u00e0 fixer l\u2019azote (un engrais disponible gratuitement) dans le sol.</p>\n\n<p>Afin d\u2019accro\u00eetre la  composante l\u00e9gumineuse des m\u00e9langes de fourrage, Kathleen\u00a0Glover met au  point un programme de recherche \u00e0 la Nappan Research Farm, en Nouvelle-\u00c9cosse.  Un autre chercheur travaillant \u00e0 la Nappan Research Farm,  Yousef\u00a0Papadopoulos, a mis au point une nouvelle vari\u00e9t\u00e9 de luzerne,  adapt\u00e9e aux divers environnements des latitudes nordiques, qui offre une  meilleure qualit\u00e9 et une meilleure croissance, et qui r\u00e9siste aux inondations  et \u00e0 la s\u00e9cheresse.</p>\n\n<p>Pendant ce temps, au  Centre de recherche et de d\u00e9veloppement de Swift Current, en Saskatchewan,  Alan\u00a0Iwaasa \u00e9value la qualit\u00e9 nutritive des fourrages des prairies  indig\u00e8nes et cultiv\u00e9s pour les ruminants, ainsi que le niveau de production, le  comportement et l\u2019empreinte environnementale des p\u00e2turages. Un autre  scientifique d\u2019AAC de ce m\u00eame Centre, Mike\u00a0Schellenberg, s\u2019emploie \u00e0  fournir aux producteurs de b\u0153uf des plantes fourrag\u00e8res vivaces qui peuvent  prosp\u00e9rer dans les conditions climatiques extr\u00eames des Prairies. L\u2019ans\u00e9rine  laineuse \u2014 un arbuste qui poss\u00e8de une grande valeur nutritive, une r\u00e9sistance \u00e0  la s\u00e9cheresse et la capacit\u00e9 de contr\u00f4ler l\u2019\u00e9rosion des sols - fait partie des  plantes consid\u00e9r\u00e9es dans son projet. </p>\n\n<p>Un jour ou  l\u2019autre, les scientifiques d\u2019AAC esp\u00e8rent pouvoir transformer leurs d\u00e9couvertes  en connaissances pratiques que les agriculteurs pourront utiliser pour tirer le  meilleur parti de leurs fourrages.</p>\n\n<p>Pour obtenir de plus amples renseignements sur  la recherche d\u2019AAC, veuillez consulter le site Web \n<a href=\"?id=1379013177194\">R\u00e9alisations  scientifiques en agriculture</a>. </p>\n\n<div class=\"clearfix\"></div>\n<section class=\"panel panel-success\">\n <header class=\"panel-heading\">\n  <h2 class=\"panel-title\">Plus d\u2019Agri-info</h2>\n </header>\n <div class=\"panel-body\">\n <ul>\n<li><b>Vous voulez plus d'histoires comme celles-ci?</b> D\u00e9couvrez tout  ce qu'<a href=\"?id=1419351635969\">Agri-info</a> a \u00e0 vous offrir.</li>\n<li><b>Vous souhaitez faire un reportage sur l'une de nos  histoires?</b> Communiquez  avec l\u2019\u00e9quipe des Relations avec les m\u00e9dias d'AAC \u00e0 l'adresse <a href=\"mailto:aafc.mediarelations-relationsmedias.aac@canada.ca\">aafc.mediarelations-relationsmedias.aac@canada.ca</a> pour obtenir une  entrevue avec l'un de nos experts.</li>\n<li><b>Vous avez une id\u00e9e d'histoire ou des commentaires \u00e0  partager?</b> Communiquez  avec nous \u00e0 l'adresse <a href=\"mailto:aafc.agri-info.aac@canada.ca\">aafc.agri-info.aac@canada.ca</a>!</li>\n<li><b>Soyez \u00e0 l'aff\u00fbt.</b> <a href=\"https://pab-dgab-aafc-aac.microsoftcrmportals.com/subscription_F/\">Abonnez-vous</a> \u00e0 Agri-info d\u00e8s  aujourd'hui.</li>\n</ul> \n </div>\n</section>\n\r\n    "
    }
}