{
    "dcr_id": "1565908541098",
    "title": {
        "en": "Comprehensive Economic Trade Agreement benefits eager agriculture and agri-food exporters",
        "fr": "L\u2019accord \u00e9conomique et commercial global  avantage les exportateurs motiv\u00e9s de l\u2019agriculture et de l\u2019agroalimentaire"
    },
    "modified": "2020-05-25",
    "issued": "2019-09-03",
    "templatetype": "content page 1 column",
    "page_type": "0",
    "node_id": "1613744537543",
    "dc_date_created": "2019-09-03",
    "managing_branch": "PAB",
    "parent_node_id": "",
    "short_title": "",
    "exturl": "",
    "teamsite_location": {
        "en": "/default/main/AAFC-AAC/Internet-Internet/CCB-DGCC/WORKAREA/CCB-DGCC/templatedata/comm-comm/gene-gene/data/agri-info_newsletter_2017_11-6_1565908541098_en",
        "fr": "/default/main/AAFC-AAC/Internet-Internet/CCB-DGCC/WORKAREA/CCB-DGCC/templatedata/comm-comm/gene-gene/data/agri-info_newsletter_2017_11-6_1565908541098_fr"
    },
    "type_name": "comm-comm/gene-gene",
    "has_dcr_id": true,
    "label": {
        "en": "Comprehensive Economic Trade Agreement benefits eager agriculture and agri-food exporters",
        "fr": "L\u2019accord \u00e9conomique et commercial global  avantage les exportateurs motiv\u00e9s de l\u2019agriculture et de l\u2019agroalimentaire"
    },
    "breadcrumb": {
        "en": "Comprehensive Economic Trade Agreement benefits eager agriculture and agri-food exporters",
        "fr": "L\u2019accord \u00e9conomique et commercial global  avantage les exportateurs motiv\u00e9s de l\u2019agriculture et de l\u2019agroalimentaire"
    },
    "layout_name": "content page 1 column",
    "lang": "en",
    "refaire": false,
    "meta": {
        "viewport": {
            "en": "width=device-width,initial-scale=1",
            "fr": "width=device-width, initial-scale=1"
        },
        "issued": {
            "en": "2019-09-03",
            "fr": "2019-09-03"
        },
        "modified": {
            "en": "2020-05-25",
            "fr": "2020-05-25"
        },
        "format": {
            "en": "gcformat",
            "fr": "gcformat"
        },
        "title": {
            "en": "Comprehensive Economic Trade Agreement benefits eager agriculture and agri-food exporters",
            "fr": "L\u2019accord \u00e9conomique et commercial global  avantage les exportateurs motiv\u00e9s de l\u2019agriculture et de l\u2019agroalimentaire"
        },
        "subject": {
            "en": "harvesting;architectural heritage;trade agreements",
            "fr": "les produits laitiers;aviculture;industrie de miel"
        },
        "dcterms:subject": {
            "en": "architectural heritage;architecture;trade",
            "fr": "rep\u00e8re;m\u00e9dicament;viande"
        },
        "description": {
            "en": "Alternative Formats. About this guide. The Canadian fish and seafood sector is a high-value sector and a major contributor to the Canadian economy, especially in Atlantic Canada, Quebec and British Columbia. Customs duties and tariffs. Animal welfare. The Global Food Safety Initiative (GFSI). Maximum Residue Limits (MRLs) for certain contaminants. The latest trend in the EU points toward the desire to eat more naturally, fuelled by strong consumer interest in healthy eating, environmental preservation, and more sustainable sourcing.",
            "fr": "Nouvelles agroalimentaires de l'Europe - Juillet 2016 (Version. Hanovre, du 15 au 18\u00a0novembre\u00a02016. L'\u00e9quilibre budg\u00e9taire se maintient malgr\u00e9 les d\u00e9penses suppl\u00e9mentaires, bien que."
        },
        "language": {
            "en": "eng",
            "fr": "fra"
        },
        "keywords": {
            "en": "consumption.CETA;checks.Top",
            "fr": "go\u00fbt et la texture;croient que celles-ci pourraient rivaliser;Benoit Bizimungu"
        },
        "audience": {
            "en": "gcaudience",
            "fr": "gcaudience"
        },
        "type": {
            "en": "resource list",
            "fr": "politique"
        },
        "creator": {
            "en": "Agriculture and Agri-Food Canada",
            "fr": "Agriculture et Agroalimentaire Canada"
        },
        "spatial": {
            "en": "gcregions",
            "fr": "gcregions"
        },
        "service": {
            "en": "AAFC-AAC",
            "fr": "AAFC-AAC"
        },
        "accessRights": {
            "en": "2",
            "fr": "2"
        },
        "legalName": {
            "en": "agriculture_and_agri_food_canada",
            "fr": "agriculture_et_agroalimentaire_canada"
        },
        "areaServed": {
            "en": "Canada",
            "fr": "Canada"
        }
    },
    "h1": {
        "en": "Comprehensive Economic Trade Agreement benefits eager agriculture and agri-food exporters",
        "fr": "L\u2019accord \u00e9conomique et commercial global avantage les exportateurs motiv\u00e9s de l\u2019agriculture et de l\u2019agroalimentaire"
    },
    "js": {
        "en": "",
        "fr": ""
    },
    "body": {
        "en": "\r\n    <p><b>November 8, 2017</b></p> \n \n<p><img src=\"https://www.agr.gc.ca/resources/prod/img/agri-info/2017-10/23201_AgriInfo10_Articles_250x250_6.jpg\" alt=\"\" class=\"pull-right mrgn-lft-lg img-responsive thumbnail mrgn-bttm-sm\"></p>\n\n<p>The wait is over  for Canadian producers, processors and exporters looking to take advantage of  opportunities in the Canada\u2013European Union (EU) Comprehensive Economic and  Trade Agreement (CETA). The provisional application of CETA on Sept 21, 2017 is  excellent news for Canada's agriculture sector, which is now enjoying improved  access to the world's largest import market for agriculture and agri-food. One  of Canada's most progressive and ambitious trade initiatives, CETA will offer  significant benefits to exporters for key agricultural products, including  beef, pork, grains, oilseeds, fruits and vegetables and processed products.</p>\n\n<p>Thanks to the  agreement, nearly 94 percent of its agricultural and 96 percent of its fish and  seafood tariffs are now duty-free. This is giving producers and processors an  advantage over competitors in countries that do not have free trade agreements  in force with the EU. Industry has estimated that CETA will increase Canada's  agri-food annual exports by up to $1.5 billion. Minister MacAulay promoted the  benefits of the free-trade deal during a recent agricultural trade mission to  Europe that included a stop in Germany for the <a href=\"http://www.anuga.com/\">ANUGA</a> trade show \u2013 one of the largest food and  beverage fairs in the world.</p>\n\n<p>Agriculture and  Agri-Food Canada (AAFC) has Trade Commissioners strategically placed around the  globe, including the EU, to help producers and processors take advantage of  CETA. These Trade Commissioners are supporting Canadian companies as they  establish or expand their exports. AAFC and Global Affairs Canada have worked  together on a <a href=\"?id=1438010928703\">number of CETA resources</a> to help farmers, processors and exporters  hoping to capitalize on the benefits of the agreement.</p>\n\n<p>Thanks to CETA,  Canadian agri-food industry is poised for unprecedented access to new markets  in the EU.</p>\n\n<h3>Find out more</h3>\n\n<p><a href=\"http://www.international.gc.ca/trade-commerce/trade-agreements-accords-commerciaux/agr-acc/ceta-aecg/index.aspx?lang=eng\">Read more on CETA</a>.</p>\n<p> Find out what the Canadian Trade Commissioner  Service has to say about <a href=\"https://www.tradecommissioner.gc.ca/guides/eu_export-guide_ue.aspx?lang=eng\">exporting to the EU</a>.</p>\n\n<div class=\"clearfix\"></div>\n<section class=\"panel panel-success\">\n <header class=\"panel-heading\">\n  <h2 class=\"panel-title\">Get more Agri-info</h2>\n </header>\n <div class=\"panel-body\">\n\t <ul>\n<li><b>Want more stories like this?</b> Explore what else <a href=\"?id=1419351635969\">Agri-info</a> has to offer.</li>\n<li><b>Interested in reporting on this story?</b> Contact AAFC Media Relations at <a href=\"mailto:aafc.mediarelations-relationsmedias.aac@canada.ca\">aafc.mediarelations-relationsmedias.aac@canada.ca</a> to arrange an interview with one of our experts.</li>\n<li><b>Have a story idea or feedback to share?</b> Get in touch at <a href=\"mailto:aafc.agri-info.aac@canada.ca\">aafc.agri-info.aac@canada.ca</a>!</li>\n<li><b>Never miss an update.</b> <a href=\"https://pab-dgab-aafc-aac.microsoftcrmportals.com/subscription/\">Subscribe</a> to Agri-info today.</li>\n\t </ul>\n </div>\n</section>\n\r\n    ",
        "fr": "\r\n    <p><b>08 novembre 2017</b></p>\n \n<p><img src=\"https://www.agr.gc.ca/resources/prod/img/agri-info/2017-10/23201_AgriInfo10_Articles_250x250_6.jpg\" alt=\"\" class=\"pull-right mrgn-lft-lg img-responsive thumbnail mrgn-bttm-sm\"></p>\n\n<p>Les producteurs, les transformateurs et les exportateurs canadiens qui veulent tirer profit de l\u2019accord \u00e9conomique et commercial global entre le Canada et l\u2019Union europ\u00e9enne (UE), l\u2019AECG, ont fini d\u2019attendre. L\u2019application provisoire de l\u2019AECG le 21 septembre 2017 constitue une excellente nouvelle pour le secteur canadien de l\u2019agriculture, car ce dernier obtient maintenant un meilleur acc\u00e8s au plus important march\u00e9 d\u2019importation en agriculture et en agroalimentaire au monde. L\u2019AECG, une des initiatives commerciales les plus progressistes et ambitieuses au Canada, pr\u00e9sentera des avantages consid\u00e9rables pour les exportateurs de produits agricoles d\u2019importance, dont le b\u0153uf, le porc, les c\u00e9r\u00e9ales, les ol\u00e9agineux, les fruits et l\u00e9gumes et les produits transform\u00e9s.</p>\n<p>Aux termes de cet accord, pr\u00e8s de 94 pour cent des droits de douane sur les produits agricoles et pr\u00e8s de 96 pour cent de ceux applicables au poisson et aux fruits de mer sont \u00e9limin\u00e9s. Voil\u00e0 qui avantage les producteurs et les transformateurs par rapport \u00e0 la concurrence des pays n\u2019ayant pas conclu d\u2019accord de libre-\u00e9change commercial avec l\u2019UE. L\u2019industrie estime qu\u2019avec l\u2019AECG, les exportations de l\u2019agroalimentaire augmenteront pour atteindre 1,5 milliard de dollars. Le ministre MacAulay, lors d\u2019une r\u00e9cente mission commerciale sur l\u2019agriculture en Europe, a fait la promotion des avantages de l\u2019accord de libre-\u00e9change. La mission a fait un bond en Allemagne \u00e0 l\u2019occasion du salon <a href=\"http://www.anuga.com/\">ANUGA (en anglais seulement)</a>, qui est l\u2019une des plus grandes expositions commerciales d\u2019aliments et de boissons au monde.</p>\n\n<p>Agriculture et Agroalimentaire du Canada (AAC) a post\u00e9 des d\u00e9l\u00e9gu\u00e9s commerciaux dans des lieux strat\u00e9giques de par le monde, y compris en UE, afin d\u2019aider les producteurs et les transformateurs \u00e0 tirer profit de l\u2019AECG. Ils soutiennent les entreprises canadiennes \u00e0 \u00e9tablir et accro\u00eetre leurs exportations. Ensemble, AAC et Affaires mondiales Canada ont \u00e9labor\u00e9 de <a href=\"?id=1438010928703\">nombreuses ressources</a> pour soutenir les producteurs, les transformateurs et les exportateurs qui aspirent \u00e0 tirer avantage de l\u2019accord.</p>\n\n<p>Gr\u00e2ce \u00e0 l\u2019AECG, l\u2019industrie canadienne de l\u2019agroalimentaire est sur le point d\u2019obtenir un acc\u00e8s sans pr\u00e9c\u00e9dent \u00e0 de nouveaux march\u00e9s de l\u2019UE.</p>\n\n<h3>Pour en savoir plus</h3>\n\n<p><a href=\"http://www.international.gc.ca/trade-commerce/trade-agreements-accords-commerciaux/agr-acc/ceta-aecg/index.aspx?lang=fra\">Pour en savoir plus sur l\u2019AECG</a>.</p>\n\n<p>Pour savoir ce que le Service des d\u00e9l\u00e9gu\u00e9s commerciaux du Canada recommande au sujet de l\u2019<a href=\"https://www.deleguescommerciaux.gc.ca/guides/eu_export-guide_ue.aspx?lang=fra\">exportation vers l\u2019UE</a>.</p>\n\n<div class=\"clearfix\"></div>\n<section class=\"panel panel-success\">\n <header class=\"panel-heading\">\n  <h2 class=\"panel-title\">Plus d\u2019Agri-info</h2>\n </header>\n <div class=\"panel-body\">\n<ul>\n<li><b>Vous voulez plus d'histoires comme celles-ci?</b> D\u00e9couvrez tout  ce qu'<a href=\"?id=1419351635969\">Agri-info</a> a \u00e0 vous offrir.</li>\n<li><b>Vous souhaitez faire un reportage sur l'une de nos  histoires?</b> Communiquez  avec l\u2019\u00e9quipe des Relations avec les m\u00e9dias d'AAC \u00e0 l'adresse <a href=\"mailto:aafc.mediarelations-relationsmedias.aac@canada.ca\">aafc.mediarelations-relationsmedias.aac@canada.ca</a> pour obtenir une  entrevue avec l'un de nos experts.</li>\n<li><b>Vous avez une id\u00e9e d'histoire ou des commentaires \u00e0  partager?</b> Communiquez  avec nous \u00e0 l'adresse <a href=\"mailto:aafc.agri-info.aac@canada.ca\">aafc.agri-info.aac@canada.ca</a>!</li>\n<li><b>Soyez \u00e0 l'aff\u00fbt.</b> <a href=\"https://pab-dgab-aafc-aac.microsoftcrmportals.com/subscription_F/\">Abonnez-vous</a> \u00e0 Agri-info d\u00e8s  aujourd'hui.</li>\n</ul> \n </div>\n</section>\n\r\n    "
    }
}