{
    "dcr_id": "1566594901322",
    "title": {
        "en": "Budget 2017 supports Canada's agriculture and agri-food sector as an important driver of economic growth",
        "fr": "Le budget de 2017 appuie le secteur agricole et agroalimentaire du Canada, un moteur important de la croissance \u00e9conomique"
    },
    "modified": "2020-05-25",
    "issued": "2019-09-03",
    "templatetype": "content page 1 column",
    "page_type": "0",
    "node_id": "1613744537543",
    "dc_date_created": "2019-09-03",
    "managing_branch": "PAB",
    "parent_node_id": "",
    "short_title": "",
    "exturl": "",
    "teamsite_location": {
        "en": "/default/main/AAFC-AAC/Internet-Internet/CCB-DGCC/WORKAREA/CCB-DGCC/templatedata/comm-comm/gene-gene/data/agri-info_newsletter_2017_05-8_1566594901322_en",
        "fr": "/default/main/AAFC-AAC/Internet-Internet/CCB-DGCC/WORKAREA/CCB-DGCC/templatedata/comm-comm/gene-gene/data/agri-info_newsletter_2017_05-8_1566594901322_fr"
    },
    "type_name": "comm-comm/gene-gene",
    "has_dcr_id": true,
    "label": {
        "en": "Budget 2017 supports Canada's agriculture and agri-food sector as an important driver of economic growth",
        "fr": "Le budget de 2017 appuie le secteur agricole et agroalimentaire du Canada, un moteur important de la croissance \u00e9conomique"
    },
    "breadcrumb": {
        "en": "Budget 2017 supports Canada's agriculture and agri-food sector as an important driver of economic growth",
        "fr": "Le budget de 2017 appuie le secteur agricole et agroalimentaire du Canada, un moteur important de la croissance \u00e9conomique"
    },
    "layout_name": "content page 1 column",
    "lang": "en",
    "refaire": false,
    "meta": {
        "viewport": {
            "en": "width=device-width,initial-scale=1",
            "fr": "width=device-width, initial-scale=1"
        },
        "issued": {
            "en": "2019-09-03",
            "fr": "2019-09-03"
        },
        "modified": {
            "en": "2020-05-25",
            "fr": "2020-05-25"
        },
        "format": {
            "en": "gcformat",
            "fr": "gcformat"
        },
        "title": {
            "en": "Budget 2017 supports Canada's agriculture and agri-food sector as an important driver of economic growth",
            "fr": "Le budget de 2017 appuie le secteur agricole et agroalimentaire du Canada, un moteur important de la croissance \u00e9conomique"
        },
        "subject": {
            "en": "plant physiology;weed control;soil assessement",
            "fr": "semences-production;eau ressource;\u00e9valuation environnementale strat\u00e9gique"
        },
        "dcterms:subject": {
            "en": "entomology;pests;regulations",
            "fr": "sant\u00e9 animale;l\u00e9gislation;m\u00e9dicament"
        },
        "description": {
            "en": "Subscribe to the Agri-info newsletter. Table of contents. But not enough is known about the consequences.Quantifying the value of field boundaries. Non-profits with five or fewer employees may be eligible for funding of up to 80\u00a0per\u00a0cent.For both streams, projects must be no longer than 12 months in length and interns must be between the ages of 15 and 30 inclusive.The internship stream requires that the interns be post-secondary graduates.Applications are being accepted now, and will be approved on a first-come, first-served basis until all funds have been allocated.For more information, visit.",
            "fr": "Inscrivez-vous au bulletin Agri-info. Table des mati\u00e8res. 4. e. \u00e9tude de cas\u00a0:Un producteur de pommes de terre du Nouveau Brunswick est touch\u00e9 par une baisse de la demande sur le march\u00e9. Qu'est-ce qui se cache dans les bordures de vos champs?Agriculture et Agroalimentaire Canada (AAC) travaille sur deux projets qui aideront \u00e0 comprendre les effets des bordures de champs sur leurs environnements avoisinants et sur les r\u00e9sultats nets des agriculteurs.Les bordures de champs sont les zones non cultiv\u00e9es entourant ou avoisinant des terres cultiv\u00e9es, comme les foss\u00e9s, les lignes de cl\u00f4ture, les brise-vent et les emprises de route. Les insectes pollinisateurs indig\u00e8nes et l'agriculture au Canada."
        },
        "language": {
            "en": "eng",
            "fr": "fra"
        },
        "keywords": {
            "en": null,
            "fr": "confidentiel.Il"
        },
        "audience": {
            "en": "gcaudience",
            "fr": "gcaudience"
        },
        "type": {
            "en": "business plan",
            "fr": "page administrative"
        },
        "creator": {
            "en": "Agriculture and Agri-Food Canada",
            "fr": "Agriculture et Agroalimentaire Canada"
        },
        "spatial": {
            "en": "gcregions",
            "fr": "gcregions"
        },
        "service": {
            "en": "AAFC-AAC",
            "fr": "AAFC-AAC"
        },
        "accessRights": {
            "en": "2",
            "fr": "2"
        },
        "legalName": {
            "en": "agriculture_and_agri_food_canada",
            "fr": "agriculture_et_agroalimentaire_canada"
        },
        "areaServed": {
            "en": "Canada",
            "fr": "Canada"
        }
    },
    "h1": {
        "en": "Budget 2017 supports Canada's agriculture and agri-food sector as an important driver of economic growth",
        "fr": "Le budget de 2017 appuie le secteur agricole et agroalimentaire du Canada, un moteur important de la croissance \u00e9conomique"
    },
    "js": {
        "en": "",
        "fr": ""
    },
    "body": {
        "en": "\r\n    <p><b>May 4, 2017</b></p>  \n\n<p><img src=\"https://www.agr.gc.ca/resources/prod/img/agri-info/2017-05/08_budget_2017.jpg\" alt=\"\" class=\"pull-right mrgn-lft-lg img-responsive thumbnail mrgn-bttm-sm\"></p>\n\n<p>The 2017 Federal Budget, tabled in Parliament on March 22, 2017, recognizes Canada's agricultural sector as a trusted global leader in safe, nutritious, and sustainable food.</p>\n\n<p>This budget will help farmers and food processors continue to grow their businesses, create jobs and foster long-term growth for the sector, strengthening its potential to be an even stronger economic engine for the Canadian economy.</p>\n\n<p>To support Canada's farmers and food processors, Budget 2017 sets an ambitious target to <b>grow Canada's agri-food exports to at least $75\u00a0billion annually by 2025</b>, and launches several initiatives, from investments in science and innovation to value-added processing and infrastructure.  It also reaffirmed the Government's commitment to the next federal-provincial-territorial agricultural policy framework. </p>\n\n<p>Budget 2017 also proposes to:</p>\n\n<ul>\n <li class=\"mrgn-bttm-md\">Invest $70\u00a0million in agricultural science and innovation to address emerging priorities such as climate change and soil and water conservation;</li>\n\n <li class=\"mrgn-bttm-md\">Create a new $1.26\u00a0billion Strategic Innovation Fund to attract and support new high-quality business investments, including improving access to support for agri-food value-added processors;</li>\n\n <li class=\"mrgn-bttm-md\">Accelerate innovation by investing $950\u00a0million in superclusters that enhance Canada's global competitiveness by focusing on innovative industries, including agri-food;</li>\n\n <li class=\"mrgn-bttm-md\">Invest $200\u00a0million to support the expanded adoption of clean technology in the natural resources sectors, including by Canadian agricultural producers;</li>\n\n <li class=\"mrgn-bttm-md\">Invest $2\u00a0billion in rural infrastructure, including roads and bridges, as well as investing in gateways and ports to help get agri-food products to market;</li>\n\n <li class=\"mrgn-bttm-md\">Expand employment opportunities for young Canadians, including the creation of new green jobs;</li>\n\n <li class=\"mrgn-bttm-md\">Strengthen trade within Canada, and abroad, including through the Comprehensive Economic and Trade Agreement with the European Union;</li>\n\n <li class=\"mrgn-bttm-md\">Provide new investments of $2\u00a0billion for a new National Trade Corridors Fund to target congestion and inefficiencies at major ports to expand trade abroad;</li>\n\n <li class=\"mrgn-bttm-md\">Support modern federal science infrastructure by investing $80 million over five years to replace the Sidney Centre for Plant Health located in British Columbia;</li>\n\n <li class=\"mrgn-bttm-md\">Provide $149.3\u00a0million to renew core food safety inspection programming to support an effective and reliable food safety system, and; </li>\n\n <li>Improve programs to help Canadian employers hire temporary foreign workers to fill jobs, where labour shortages have been proven.</li>\n</ul>\n\n<p>Visit the <a href=\"http://www.budget.gc.ca/2017/home-accueil-en.html\">Budget 2017</a> website for more information.</p>\n\n<div class=\"clearfix\"></div>\n<section class=\"panel panel-success\">\n <header class=\"panel-heading\">\n  <h2 class=\"panel-title\">Get more Agri-info</h2>\n </header>\n <div class=\"panel-body\">\n\t <ul>\n\t \t<li><b>Want more stories like this?</b> Explore what else <a href=\"?id=1419351635969\">Agri-info</a> has to offer.</li>\n\t \t<li><b>Interested in reporting on this story?</b> Contact AAFC Media Relations at <a href=\"mailto:aafc.mediarelations-relationsmedias.aac@canada.ca\">aafc.mediarelations-relationsmedias.aac@canada.ca</a> to arrange an interview with one of our experts.</li>\n\t \t<li><b>Have a story idea or feedback to share?</b> Get in touch at <a href=\"mailto:aafc.agri-info.aac@canada.ca\">aafc.agri-info.aac@canada.ca</a>!</li>\n\t \t<li><b>Never miss an update.</b> <a href=\"https://pab-dgab-aafc-aac.microsoftcrmportals.com/subscription/\">Subscribe</a> to Agri-info today.</li>\n\t </ul>\n </div>\n</section>\n\r\n    ",
        "fr": "\r\n    <p><b>4 mai 2017</b></p> \n\n<p><img src=\"https://www.agr.gc.ca/resources/prod/img/agri-info/2017-05/08_budget_2017.jpg\" alt=\"\" class=\"pull-right mrgn-lft-lg img-responsive thumbnail mrgn-bttm-sm\"></p>\n\n<p>Le Budget f\u00e9d\u00e9ral de 2017, pr\u00e9sent\u00e9 au Parlement le 22\u00a0mars\u00a02017, reconna\u00eet le secteur agricole canadien comme un chef de file mondial digne de confiance pour obtenir des aliments sains, nutritifs et durables.</p>\n\n<p>Ce budget aidera les agriculteurs et les transformateurs d'aliments \u00e0 continuer de d\u00e9velopper leurs entreprises, \u00e0 cr\u00e9er des emplois et \u00e0 favoriser la croissance \u00e0 long terme du secteur en renfor\u00e7ant son potentiel pour en faire un moteur encore plus fort de l'\u00e9conomie canadienne.</p>\n\n<p>Pour appuyer les agriculteurs et les transformateurs d'aliments du Canada, le Budget 2017 \u00e9tablit un objectif ambitieux pour <b>augmenter les exportations agroalimentaires du Canada \u00e0 75\u00a0milliards de dollars ou plus par ann\u00e9e d'ici 2025</b> et lance plusieurs initiatives, des investissements en science et en innovation, \u00e0 la transformation \u00e0 valeur ajout\u00e9e et l'infrastructure \u00e0 valeur ajout\u00e9e. Il confirme \u00e0 nouveau l'engagement du gouvernement envers le prochain cadre strat\u00e9gique pour l'agriculture f\u00e9d\u00e9ral-provincial-territorial.</p>\n\n<p>De plus, le budget de 2017 propose les mesures suivantes\u00a0:</p>\n\n<ul>\n <li class=\"mrgn-bttm-md\">Investir 70 millions de dollars pour le soutien de la science et de l'innovation en mati\u00e8re d'agriculture en vue de s'attaquer aux priorit\u00e9s \u00e9mergentes, notamment les changements climatiques et la conservation du sol et de l'eau.</li>\n\n <li class=\"mrgn-bttm-md\">Cr\u00e9er un nouveau Fonds strat\u00e9gique quinquennal pour l'innovation de 1,26\u00a0milliard de dollars dans le but d'attirer et de soutenir de nouveaux investissements de qualit\u00e9 par les entreprises, notamment pour am\u00e9liorer l'acc\u00e8s au soutien pour les entreprises de transformation \u00e0 valeur ajout\u00e9e du secteur agroalimentaire.</li>\n\n <li class=\"mrgn-bttm-md\">Acc\u00e9l\u00e9rer l'innovation en investissant 950\u00a0millions de dollars dans des supergrappes qui renforcent la comp\u00e9titivit\u00e9 mondiale du Canada en mettant l'accent sur les industries innovantes, y compris l'agroalimentaire.</li>\n\n <li class=\"mrgn-bttm-md\">Investir 200\u00a0millions de dollars pour soutenir l'adoption \u00e9largie de technologies propres dans les secteurs des ressources naturelles, y compris les producteurs agricoles canadiens.</li>\n\n <li class=\"mrgn-bttm-md\">Investir 2\u00a0milliards de dollars en infrastructures rurales, y compris les routes et les ponts, en plus d'investir dans les portes d'entr\u00e9e et les ports afin d'aider \u00e0 commercialiser les produits agroalimentaires.</li>\n\n <li class=\"mrgn-bttm-md\">Am\u00e9liorer les possibilit\u00e9s d'emploi pour les jeunes Canadiens, en cr\u00e9ant notamment de nouveaux emplois verts.</li>\n\n <li class=\"mrgn-bttm-md\">Renforcer les \u00e9changes internes au Canada et avec l'\u00e9tranger, notamment par l'interm\u00e9diaire de l'Accord \u00e9conomique et commercial global avec l'Union europ\u00e9enne. </li>\n\n <li class=\"mrgn-bttm-md\">Fournir de nouveaux investissements de 2\u00a0milliards de dollars pour un nouveau Fonds national des corridors commerciaux afin de cibler la congestion et les inefficacit\u00e9s dans les grands ports pour accro\u00eetre les \u00e9changes \u00e0 l'\u00e9tranger.</li>\n\n <li class=\"mrgn-bttm-md\">Soutenir l'infrastructure scientifique moderne du gouvernement f\u00e9d\u00e9ral en investissant 80\u00a0millions de dollars sur cinq ans pour le remplacement du Centre de protection des v\u00e9g\u00e9taux de Sidney, qui se trouve en Colombie-Britannique.</li>\n\n <li class=\"mrgn-bttm-md\">Fournir 149,3\u00a0millions de dollars pour renouveler les programmes essentiels de salubrit\u00e9 et d'inspection des aliments afin de soutenir un syst\u00e8me de salubrit\u00e9 des aliments efficace et fiable.</li>\n\n <li>Am\u00e9liorer les programmes visant \u00e0 aider les employeurs canadiens \u00e0 embaucher des travailleurs \u00e9trangers temporaires dans les secteurs touch\u00e9s par des p\u00e9nuries de main-d'\u0153uvre r\u00e9elles.</li>\n</ul>\n\n<p>Pour de plus amples renseignements, consultez le site Web du\n<a href=\"http://www.budget.gc.ca/2017/home-accueil-fr.html\">budget de 2017</a>.</p>\n\n<div class=\"clearfix\"></div>\n<section class=\"panel panel-success\">\n <header class=\"panel-heading\">\n  <h2 class=\"panel-title\">Plus d\u2019Agri-info</h2>\n </header>\n <div class=\"panel-body\">\n<ul>\n<li><b>Vous voulez plus d'histoires comme celles-ci?</b> D\u00e9couvrez tout  ce qu'<a href=\"?id=1419351635969\">Agri-info</a> a \u00e0 vous offrir.</li>\n<li><b>Vous souhaitez faire un reportage sur l'une de nos  histoires?</b> Communiquez  avec l\u2019\u00e9quipe des Relations avec les m\u00e9dias d'AAC \u00e0 l'adresse <a href=\"mailto:aafc.mediarelations-relationsmedias.aac@canada.ca\">aafc.mediarelations-relationsmedias.aac@canada.ca</a> pour obtenir une  entrevue avec l'un de nos experts.</li>\n<li><b>Vous avez une id\u00e9e d'histoire ou des commentaires \u00e0  partager?</b> Communiquez  avec nous \u00e0 l'adresse <a href=\"mailto:aafc.agri-info.aac@canada.ca\">aafc.agri-info.aac@canada.ca</a>!</li>\n<li><b>Soyez \u00e0 l'aff\u00fbt.</b> <a href=\"https://pab-dgab-aafc-aac.microsoftcrmportals.com/subscription_F/\">Abonnez-vous</a> \u00e0 Agri-info d\u00e8s  aujourd'hui.</li>\n</ul>  \n </div>\n</section>\n\r\n    "
    }
}