{
    "dcr_id": "1566407907174",
    "title": {
        "en": "Highlights from the 2016 Census of Agriculture",
        "fr": "Grandes lignes du Recensement de l'agriculture de 2016"
    },
    "modified": "2020-05-25",
    "issued": "2019-09-03",
    "templatetype": "content page 1 column",
    "page_type": "0",
    "node_id": "1613744537543",
    "dc_date_created": "2019-09-03",
    "managing_branch": "PAB",
    "parent_node_id": "",
    "short_title": "",
    "exturl": "",
    "teamsite_location": {
        "en": "/default/main/AAFC-AAC/Internet-Internet/CCB-DGCC/WORKAREA/CCB-DGCC/templatedata/comm-comm/gene-gene/data/agri-info_newsletter_2017_07-10_1566407907174_en",
        "fr": "/default/main/AAFC-AAC/Internet-Internet/CCB-DGCC/WORKAREA/CCB-DGCC/templatedata/comm-comm/gene-gene/data/agri-info_newsletter_2017_07-10_1566407907174_fr"
    },
    "type_name": "comm-comm/gene-gene",
    "has_dcr_id": true,
    "label": {
        "en": "Highlights from the 2016 Census of Agriculture",
        "fr": "Grandes lignes du Recensement de l'agriculture de 2016"
    },
    "breadcrumb": {
        "en": "Highlights from the 2016 Census of Agriculture",
        "fr": "Grandes lignes du Recensement de l'agriculture de 2016"
    },
    "layout_name": "content page 1 column",
    "lang": "en",
    "refaire": false,
    "meta": {
        "viewport": {
            "en": "width=device-width,initial-scale=1",
            "fr": "width=device-width, initial-scale=1"
        },
        "issued": {
            "en": "2019-09-03",
            "fr": "2019-09-03"
        },
        "modified": {
            "en": "2020-05-25",
            "fr": "2020-05-25"
        },
        "format": {
            "en": "gcformat",
            "fr": "gcformat"
        },
        "title": {
            "en": "Highlights from the 2016 Census of Agriculture",
            "fr": "Grandes lignes du Recensement de l'agriculture de 2016"
        },
        "subject": {
            "en": "potato growers;architectural heritage;soil assessement",
            "fr": "volailles-transformation;syst\u00e8mes de culture;Gestion des risques de l'entreprise"
        },
        "dcterms:subject": {
            "en": "architectural heritage;architecture;government information",
            "fr": "travailleur agricole;v\u00e9rification;aide \u00e0 l'agriculture"
        },
        "description": {
            "en": "Subscribe to the Agri-info newsletter. Table of contents. The. Canadian Agricultural Partnership. builds on the success of previous FPT agricultural frameworks, ensuring a balance between existing and emerging priorities to meet the dynamic, changing needs of the sector.The agreement sets the stage for FPT governments to conclude bilateral agreements by April\u00a01,\u00a02018, when the current framework expires. Candidates should also have a solid understanding of the mechanics of BRM programs, the role innovation plays in advancing the agriculture industry, as well as the capacity of producers to manage risks.NPAC members are required to attend up to two face-to-face meetings per year and will be compensated for their time and travel.Eleven positions will be filled using this selection process.",
            "fr": "9 juin 2017. Rapport :Bureau de la v\u00e9rification et de l'\u00e9valuation. BVG. Bureau du v\u00e9rificateur g\u00e9n\u00e9ral. Durant la p\u00e9riode d'\u00e9valuation, les responsables du PAAC avaient commenc\u00e9 \u00e0 \u00e9laborer une m\u00e9thode ax\u00e9e sur les risques pour d\u00e9terminer les crit\u00e8res d'\u00e9valuation, en tenant compte des difficult\u00e9s et des risques habituels li\u00e9s au processus d'\u00e9valuation d'Agri-relance, notamment\u00a0: l'urgence d'aviser les producteurs des r\u00e9sultats de l'\u00e9valuation; la complexit\u00e9 de l'\u00e9v\u00e9nement en question; la disponibilit\u00e9 des donn\u00e9es li\u00e9es \u00e0 l'\u00e9v\u00e9nement et les co\u00fbts potentiels d'une intervention en cas de catastrophe."
        },
        "language": {
            "en": "eng",
            "fr": "fra"
        },
        "keywords": {
            "en": null,
            "fr": null
        },
        "audience": {
            "en": "gcaudience",
            "fr": "gcaudience"
        },
        "type": {
            "en": "educational material",
            "fr": "page administrative"
        },
        "creator": {
            "en": "Agriculture and Agri-Food Canada",
            "fr": "Agriculture et Agroalimentaire Canada"
        },
        "spatial": {
            "en": "gcregions",
            "fr": "gcregions"
        },
        "service": {
            "en": "AAFC-AAC",
            "fr": "AAFC-AAC"
        },
        "accessRights": {
            "en": "2",
            "fr": "2"
        },
        "legalName": {
            "en": "agriculture_and_agri_food_canada",
            "fr": "agriculture_et_agroalimentaire_canada"
        },
        "areaServed": {
            "en": "Canada",
            "fr": "Canada"
        }
    },
    "h1": {
        "en": "Highlights from the 2016 Census of Agriculture",
        "fr": "Grandes lignes du Recensement de l'agriculture de 2016"
    },
    "js": {
        "en": "",
        "fr": ""
    },
    "body": {
        "en": "\r\n    <p><b>July 28, 2017</b></p> \n \n<figure><img src=\"https://www.agr.gc.ca/resources/prod/img/agri-info/2017-07a/23126_agriinfo9_article9b_250x250.jpg\" alt=\"\" class=\"pull-right mrgn-lft-lg img-responsive thumbnail mrgn-bttm-sm\"></figure>\n\n<p>In May 2017, Statistics Canada released <a href=\"http://www.statcan.gc.ca/daily-quotidien/170510/dq170510a-eng.htm\">data from the 2016 Census of Agriculture</a>. </p>\n<p>Statistics Canada conducts the census every five years. The information collected offers a statistical portrait of Canada's farms, and its farm operators. The census gathers detailed data on farms, including crop area, number of livestock, employees, quantity and value of farm machinery, farm expenses and receipts, land management practices, and use of technology.</p> \n<p>Census data help provincial and federal governments and farming organizations make informed decisions about business management strategies and agricultural policies, programs and services that affect farmers and rural communities.</p>\n\n<h3>Key findings from the 2016 census</h3>\n<ul>\n <li>There were 193,492 farms in Canada on Census Day, May\u00a010,\u00a02016. Although the number of farms in Canada has been decreasing over the last 75\u00a0years, the rate of decline from 2011 to 2016 was the lowest it has been in the last 20 years, at 5.9%. </li>\n <li>The average size of farms has increased\u2014to an average of 820\u00a0acres in 2016 from 779\u00a0acres in 2011.</li>\n <li>Canadian farmers are getting older. The average age of a farm operator is 55. There was an increase in the number of farmers under 35. </li>\n <li>The proportion of female farm operators continues to increase. Female farm operators increased from 27.4% in 2011 to 28.7% in 2016.</li>\n <li>The value of land and buildings used by agricultural operations increased by 37.5% from 2011 to 2016\u2014from $311.2 billion to $427.9\u00a0billion.</li>\n <li>Gross farm receipts totaled $69.4\u00a0billion in 2015, while operating expenses reached $57.5\u00a0billion.</li>\n</ul>\n\n<h3 class=\"mrgn-tp-0 mrgn-bttm-sm\">Find out more</h3>\n<p>Visit Statistics Canada's <a href=\"http://www.statcan.gc.ca/eng/ca2016\">2016 Census of Agriculture</a> page. </p>\n\n<div class=\"clearfix\"></div>\n<section class=\"panel panel-success\">\n <header class=\"panel-heading\">\n  <h2 class=\"panel-title\">Get more Agri-info</h2>\n </header>\n <div class=\"panel-body\">\n\t <ul>\n\t \t<li><b>Want more stories like this?</b> Explore what else <a href=\"?id=1419351635969\">Agri-info</a> has to offer.</li>\n\t \t<li><b>Interested in reporting on this story?</b> Contact AAFC Media Relations at <a href=\"mailto:aafc.mediarelations-relationsmedias.aac@canada.ca\">aafc.mediarelations-relationsmedias.aac@canada.ca</a> to arrange an interview with one of our experts.</li>\n\t \t<li><b>Have a story idea or feedback to share?</b> Get in touch at <a href=\"mailto:aafc.agri-info.aac@canada.ca\">aafc.agri-info.aac@canada.ca</a>!</li>\n\t \t<li><b>Never miss an update.</b> <a href=\"https://pab-dgab-aafc-aac.microsoftcrmportals.com/subscription/\">Subscribe</a> to Agri-info today.</li>\n\t </ul>\n </div>\n</section>\n\r\n    ",
        "fr": "\r\n    <p><b>28 juillet 2017</b></p> \n \n<figure><img src=\"https://www.agr.gc.ca/resources/prod/img/agri-info/2017-07a/23126_agriinfo9_article9b_250x250.jpg\" alt=\"\" class=\"pull-right mrgn-lft-lg img-responsive thumbnail mrgn-bttm-sm\"></figure>\n\n<p>En mai 2017, Statistique Canada a rendu publiques les <a href=\"http://www.statcan.gc.ca/daily-quotidien/170510/dq170510a-fra.htm\">donn\u00e9es du Recensement de l'agriculture de 2016</a>. </p>\n\n<p> Statistique Canada tient ce recensement tous les cinq ans. L'information ainsi recueillie permet de livrer un tableau statistique de l'agriculture et de ses exploitants au Canada. Des donn\u00e9es d\u00e9taill\u00e9es sont r\u00e9unies sur les exploitations, y compris leurs superficies, le nombre de t\u00eates de b\u00e9tail, les employ\u00e9s de la ferme, la machinerie agricole en quantit\u00e9 et en valeur, les d\u00e9penses et les revenus des exploitants, les pratiques de gestion du sol et le recours \u00e0 la technologie. </p>\n\n<p> Les donn\u00e9es du recensement aident les autorit\u00e9s provinciales et f\u00e9d\u00e9rales et les organismes agricoles \u00e0 prendre des d\u00e9cisions \u00e9clair\u00e9es en ce qui concerne les strat\u00e9gies de gestion de l'exploitation et les politiques, programmes et services agricoles mis \u00e0 la disposition des producteurs et des collectivit\u00e9s rurales. </p>\n\n<h3>Voici les principaux r\u00e9sultats du Recensement de 2016</h3>\n\n<ul>\n <li>Le 10\u00a0mai\u00a02016, jour du recensement, on d\u00e9nombrait 193\u00a0492\u00a0exploitations au Canada. Le nombre d'exploitations est en baisse au pays depuis 75\u00a0ans, mais le rythme de ce recul de 2011 \u00e0 2016 a \u00e9t\u00e9 le plus faible des 20\u00a0derni\u00e8res ann\u00e9es \u00e0 5,9\u00a0%. </li>\n <li>Les exploitations sont en moyenne d'une plus grande taille, passant de 779\u00a0acres en 2011 \u00e0 820 en 2016.</li>\n <li>Les agriculteurs canadiens prennent de l'\u00e2ge. L'\u00e2ge moyen est de 55\u00a0ans. Cependant, le nombre d'agriculteurs de moins de 35\u00a0ans a augment\u00e9. </li>\n <li>Le pourcentage d'exploitantes continue d'augmenter, passant de 27,4\u00a0% en 2011 \u00e0 28,7\u00a0% en 2016.</li>\n <li>La valeur des terres et des b\u00e2timents affect\u00e9s \u00e0 l'agriculture s'est accrue de 37,5\u00a0% de 2011 \u00e0 2016, passant de 311,2 \u00e0 427,9\u00a0milliards de dollars.</li>\n <li>Les revenus bruts des exploitations ont atteint 69,4\u00a0milliards de dollars en 2015 et leurs d\u00e9penses, 57,5\u00a0milliards.</li>\n</ul>\n\n\n<h3 class=\"mrgn-tp-0 mrgn-bttm-sm\">Pour en savoir plus</h3>\n\n<p>Visitez la page <a href=\"http://www.statcan.gc.ca/fra/ra2016\">Recensement de l'agriculture de 2016</a> de Statistique Canada.</p>\n\n<div class=\"clearfix\"></div>\n<section class=\"panel panel-success\">\n <header class=\"panel-heading\">\n  <h2 class=\"panel-title\">Plus d\u2019Agri-info</h2>\n </header>\n <div class=\"panel-body\">\n<ul>\n<li><b>Vous voulez plus d'histoires comme celles-ci?</b> D\u00e9couvrez tout  ce qu'<a href=\"?id=1419351635969\">Agri-info</a> a \u00e0 vous offrir.</li>\n<li><b>Vous souhaitez faire un reportage sur l'une de nos  histoires?</b> Communiquez  avec l\u2019\u00e9quipe des Relations avec les m\u00e9dias d'AAC \u00e0 l'adresse <a href=\"mailto:aafc.mediarelations-relationsmedias.aac@canada.ca\">aafc.mediarelations-relationsmedias.aac@canada.ca</a> pour obtenir une  entrevue avec l'un de nos experts.</li>\n<li><b>Vous avez une id\u00e9e d'histoire ou des commentaires \u00e0  partager?</b> Communiquez  avec nous \u00e0 l'adresse <a href=\"mailto:aafc.agri-info.aac@canada.ca\">aafc.agri-info.aac@canada.ca</a>!</li>\n<li><b>Soyez \u00e0 l'aff\u00fbt.</b> <a href=\"https://pab-dgab-aafc-aac.microsoftcrmportals.com/subscription_F/\">Abonnez-vous</a> \u00e0 Agri-info d\u00e8s  aujourd'hui.</li>\n</ul> \n </div>\n</section>\n\r\n    "
    }
}