{
    "dcr_id": "1566578767359",
    "title": {
        "en": "Grain safety program gets off the ground",
        "fr": "Lancement du programme de s\u00e9curit\u00e9 avec les grains"
    },
    "modified": "2020-05-25",
    "issued": "2019-09-03",
    "templatetype": "content page 1 column",
    "page_type": "0",
    "node_id": "1613744537543",
    "dc_date_created": "2019-09-03",
    "managing_branch": "PAB",
    "parent_node_id": "",
    "short_title": "",
    "exturl": "",
    "teamsite_location": {
        "en": "/default/main/AAFC-AAC/Internet-Internet/CCB-DGCC/WORKAREA/CCB-DGCC/templatedata/comm-comm/gene-gene/data/agri-info_newsletter_2017_02-3_1566578767359_en",
        "fr": "/default/main/AAFC-AAC/Internet-Internet/CCB-DGCC/WORKAREA/CCB-DGCC/templatedata/comm-comm/gene-gene/data/agri-info_newsletter_2017_02-3_1566578767359_fr"
    },
    "type_name": "comm-comm/gene-gene",
    "has_dcr_id": true,
    "label": {
        "en": "Grain safety program gets off the ground",
        "fr": "Lancement du programme de s\u00e9curit\u00e9 avec les grains"
    },
    "breadcrumb": {
        "en": "Grain safety program gets off the ground",
        "fr": "Lancement du programme de s\u00e9curit\u00e9 avec les grains"
    },
    "layout_name": "content page 1 column",
    "lang": "en",
    "refaire": false,
    "meta": {
        "viewport": {
            "en": "width=device-width,initial-scale=1",
            "fr": "width=device-width, initial-scale=1"
        },
        "issued": {
            "en": "2019-09-03",
            "fr": "2019-09-03"
        },
        "modified": {
            "en": "2020-05-25",
            "fr": "2020-05-25"
        },
        "format": {
            "en": "gcformat",
            "fr": "gcformat"
        },
        "title": {
            "en": "Grain safety program gets off the ground",
            "fr": "Lancement du programme de s\u00e9curit\u00e9 avec les grains"
        },
        "subject": {
            "en": "technology transfer;architectural heritage;soil assessement",
            "fr": "syst\u00e8mes de culture;approvisionnement en eau;biocarburants"
        },
        "dcterms:subject": {
            "en": "air;statistics;forestry",
            "fr": "terre agricole;m\u00e9dicament;politique"
        },
        "description": {
            "en": "Subscribe to the Agri-info newsletter. Table of contents. for more on the announcement.Grain safety program gets off the ground. This will enhance Canada's capacity for science-based decision-making by helping scientists predict new potential threats, better understand the origin, movement and migration patterns of pests and pathogens, and predict new potential pest threats that could emerge.This valuable information will also be shared on open-data platforms so scientists around the world can access it and increase the security of their agricultural systems.",
            "fr": "Inscrivez-vous au bulletin Agri-info. Table des mati\u00e8res. ), alors que nous c\u00e9l\u00e9brons l'agriculture tout au long de\u00a02017.Agriculture et Agroalimentaire Canada rouvre la ferme exp\u00e9rimentale de Frelighsburg. Une des composantes du programme \u00ab\u00a0S\u00e9curigrain\u00a0\u00bb est un salon professionnel con\u00e7u en vue de d\u00e9montrer l'immobilisation dans le grain et de communiquer les dangers li\u00e9s aux espaces clos ainsi que les dangers m\u00e9caniques."
        },
        "language": {
            "en": "eng",
            "fr": "fra"
        },
        "keywords": {
            "en": "CFBMC;casa-acsa.ca",
            "fr": "alarme-incendie;acceptable.Lorsque"
        },
        "audience": {
            "en": "gcaudience",
            "fr": "gcaudience"
        },
        "type": {
            "en": "presentation",
            "fr": "description du programme ou du service"
        },
        "creator": {
            "en": "Agriculture and Agri-Food Canada",
            "fr": "Agriculture et Agroalimentaire Canada"
        },
        "spatial": {
            "en": "gcregions",
            "fr": "gcregions"
        },
        "service": {
            "en": "AAFC-AAC",
            "fr": "AAFC-AAC"
        },
        "accessRights": {
            "en": "2",
            "fr": "2"
        },
        "legalName": {
            "en": "agriculture_and_agri_food_canada",
            "fr": "agriculture_et_agroalimentaire_canada"
        },
        "areaServed": {
            "en": "Canada",
            "fr": "Canada"
        }
    },
    "h1": {
        "en": "Grain safety program gets off the ground",
        "fr": "Lancement du programme de s\u00e9curit\u00e9 avec les grains"
    },
    "js": {
        "en": "",
        "fr": ""
    },
    "body": {
        "en": "\r\n    <p><b>February 15, 2017</b></p>  \n\n<p><img src=\"https://www.agr.gc.ca/resources/prod/img/agri-info/2017-02/grain_safety.jpg\" alt=\"\" class=\"pull-right mrgn-lft-lg img-responsive thumbnail mrgn-bttm-sm\"></p>\n\n<p>Grain is the lifeblood of most farming operations, and the need to grow more of it in response to world demand is good news for Canadian farmers. Unfortunately, this increase in production, handling and storage has been accompanied by a growing number of grain entrapments (workers becoming submerged in grain, which often leads to death by suffocation). According to media reports, in 2015 alone, there were seven deaths and two injuries connected with grain across Canada. To put this in perspective, there were 17 deaths over the 23 years from 1990 to 2012.</p> \n\n<h3>Increased focus on grain safety training</h3>\n\n<p>In the United States, extensive grain safety training is offered to producers, including training in grain extraction, confined spaces, grain dust, and lockout-tagout procedures (to ensure dangerous machines are shut off properly when not in use). But until now, programs like these have not existed in Canada.</p>\n\n<p>The Canadian Agricultural Safety Association (CASA) has responded with a grain safety program known as \"BeGrainSafe\". At its heart is a mobile unit which will be the first in Canada and is modelled after U.S. units. This unit will serve three purposes:</p> \n\n<ul>\n <li><b>Rescue training</b> to help train first responders in grain extrication procedures</li>\n <li><b>General prevention</b> to explain the dangers of grain entrapment and the importance of lockout-tagout procedures to the public</li>\n <li><b>On-site training</b> to provide prevention and emergency plan training to workplaces.</li>\n</ul>\n\n<h3>Coming soon to a trade show near you</h3>\n\n<p>The \"BeGrainSafe\" program includes a trade show component designed to demonstrate grain entrapment and communicate the hazards of confined spaces and mechanical dangers. It also offers interactive table-top displays to engage youth (and their parents).</p>\n\n<p>The program will be supported by a microsite with an online calendar, information, learning materials and more.</p>\n\n<p>CASA launched the program in January 2017 at Manitoba Ag Days in Brandon. It will start in the three Prairie provinces and visit as many major farm shows over the course of the next few years as possible.</p>\n\n<p>CASA receives funding in part through the Fostering Business Development component of <cite>Growing Forward\u00a02</cite>, a federal, provincial, territorial initiative.</p>\n\n<h3>Find out more</h3>\n\n<p>Visit <a href=\"http://casa-acsa.ca/BeGrainSafe\">BeGrainSafe</a> or contact CASA at <a href=\"mailto:info@casa-acsa.ca\">info@casa-acsa.ca</a>.</p>\n\n<div class=\"clearfix\"></div>\n<section class=\"panel panel-success\">\n <header class=\"panel-heading\">\n  <h2 class=\"panel-title\">Get more Agri-info</h2>\n </header>\n <div class=\"panel-body\">\n\t <ul>\n\t \t<li><b>Want more stories like this?</b> Explore what else <a href=\"?id=1419351635969\">Agri-info</a> has to offer.</li>\n\t \t<li><b>Interested in reporting on this story?</b> Contact AAFC Media Relations at <a href=\"mailto:aafc.mediarelations-relationsmedias.aac@canada.ca\">aafc.mediarelations-relationsmedias.aac@canada.ca</a> to arrange an interview with one of our experts.</li>\n\t \t<li><b>Have a story idea or feedback to share?</b> Get in touch at <a href=\"mailto:aafc.agri-info.aac@canada.ca\">aafc.agri-info.aac@canada.ca</a>!</li>\n\t \t<li><b>Never miss an update.</b> <a href=\"https://pab-dgab-aafc-aac.microsoftcrmportals.com/subscription/\">Subscribe</a> to Agri-info today.</li>\n\t </ul>\n </div>\n</section>\n\r\n    ",
        "fr": "\r\n    <p><b>15 f\u00e9vrier 2017</b></p>\n \n<p><img src=\"https://www.agr.gc.ca/resources/prod/img/agri-info/2017-02/grain_safety.jpg\" alt=\"\" class=\"pull-right mrgn-lft-lg img-responsive thumbnail mrgn-bttm-sm\"></p>\n\n<p>Les grains sont l'\u00e9l\u00e9ment vital de la plupart des exploitations agricoles, et la n\u00e9cessit\u00e9 d'en cultiver davantage afin de r\u00e9pondre \u00e0 la demande mondiale est une bonne nouvelle pour les agriculteurs canadiens. Malheureusement, cette augmentation de la production, de la manutention et du stockage des grains a \u00e9t\u00e9 accompagn\u00e9e d'un nombre croissant d'incidents d'immobilisation dans le grain (des travailleurs se retrouvant submerg\u00e9s dans le grain, ce qui entra\u00eene souvent la mort par suffocation). Selon les rapports des m\u00e9dias, en 2015 seulement, il y a eu sept d\u00e9c\u00e8s et deux blessures li\u00e9s aux grains \u00e0 l'\u00e9chelle du Canada. Pour mettre les choses en perspective, il y a eu 17\u00a0d\u00e9c\u00e8s au cours des 23\u00a0ann\u00e9es de 1990 \u00e0 2012.</p> \n\n<h3>Accent accru mis sur la formation sur la s\u00e9curit\u00e9 avec les grains</h3>\n\n<p>Aux \u00c9tats-Unis, on offre aux producteurs une formation pouss\u00e9e sur la s\u00e9curit\u00e9 avec les grains, y compris une formation sur l'extraction des grains, les espaces clos, la poussi\u00e8re de grain et les proc\u00e9dures de verrouillage et d'\u00e9tiquetage afin de s'assurer que les machines dangereuses sont correctement \u00e9teintes lorsqu'elles ne sont pas en usage. Toutefois, il n'y a eu aucun programme de ce genre au Canada jusqu'\u00e0 maintenant.</p>\n\n<p>Pour pallier \u00e0 ce manque, l'Association canadienne de s\u00e9curit\u00e9 agricole (ACSA) a mise en place un programme de s\u00e9curit\u00e9 avec les grains connu sous le nom de \u00ab\u00a0S\u00e9curigrain\u00a0\u00bb. Au c\u0153ur de ce programme se trouve une unit\u00e9 mobile qui sera la premi\u00e8re au Canada et qui s'inspire de celles des \u00c9tats-Unis. Cette unit\u00e9 servira \u00e0 trois fins\u00a0:</p> \n\n<ul>\n <li>une <b>formation sur le sauvetage</b> pour aider \u00e0 former les premiers r\u00e9pondants sur les proc\u00e9dures de d\u00e9gagement du grain;</li>\n <li>une <b>formation g\u00e9n\u00e9rale sur la pr\u00e9vention</b> pour sensibiliser les publics cibles aux dangers de l'immobilisation dans le grain, et \u00e0 l'importance des proc\u00e9dures de verrouillage et d'\u00e9tiquetage;</li>\n <li>une <b>formation sur place</b> pour fournir une formation sur la pr\u00e9vention et la planification d'urgence dans les lieux de travail.</li>\n</ul>\n\n<h3>Bient\u00f4t \u00e0 un salon professionnel pr\u00e8s de chez vous</h3>\n\n<p>Une des composantes du programme \u00ab\u00a0S\u00e9curigrain\u00a0\u00bb est un salon professionnel con\u00e7u en vue de d\u00e9montrer l'immobilisation dans le grain et de communiquer les dangers li\u00e9s aux espaces clos ainsi que les dangers m\u00e9caniques. Il offre aussi des pr\u00e9sentoirs de table interactifs pour les jeunes et leurs parents.</p>\n\n<p>Le programme sera appuy\u00e9 par un microsite en ligne, qui comprend un calendrier, des renseignements, des documents d'apprentissage, etc.</p>\n\n<p>L'ACSA a lanc\u00e9 le programme en janvier\u00a02017 \u00e0 l'exposition agricole du Manitoba, \u00e0 Brandon. Elle commencera dans les trois provinces des Prairies et visitera un aussi grand nombre de salons agricoles importants que possible au cours des prochaines ann\u00e9es.</p>\n\n<p>L'ACSA re\u00e7oit une partie de son financement par l'entremise du programme Favoriser le d\u00e9veloppement des entreprises de <cite>Cultivons l'avenir\u00a02</cite>, une initiative f\u00e9d\u00e9rale-provinciale-territoriale.</p>\n\n<h3>Pour en savoir davantage</h3>\n\n<p>Visitez <a href=\"http://casa-acsa.ca/fr/securigrain\">S\u00e9curiGrain</a> ou contactez <a href=\"mailto:info@casa-acsa.ca\">info@casa-acsa.ca</a>.</p>\n\n<div class=\"clearfix\"></div>\n<section class=\"panel panel-success\">\n <header class=\"panel-heading\">\n  <h2 class=\"panel-title\">Plus d\u2019Agri-info</h2>\n </header>\n <div class=\"panel-body\">\n<ul>\n<li><b>Vous voulez plus d'histoires comme celles-ci?</b> D\u00e9couvrez tout  ce qu'<a href=\"?id=1419351635969\">Agri-info</a> a \u00e0 vous offrir.</li>\n<li><b>Vous souhaitez faire un reportage sur l'une de nos  histoires?</b> Communiquez  avec l\u2019\u00e9quipe des Relations avec les m\u00e9dias d'AAC \u00e0 l'adresse <a href=\"mailto:aafc.mediarelations-relationsmedias.aac@canada.ca\">aafc.mediarelations-relationsmedias.aac@canada.ca</a> pour obtenir une  entrevue avec l'un de nos experts.</li>\n<li><b>Vous avez une id\u00e9e d'histoire ou des commentaires \u00e0  partager?</b> Communiquez  avec nous \u00e0 l'adresse <a href=\"mailto:aafc.agri-info.aac@canada.ca\">aafc.agri-info.aac@canada.ca</a>!</li>\n<li><b>Soyez \u00e0 l'aff\u00fbt.</b> <a href=\"https://pab-dgab-aafc-aac.microsoftcrmportals.com/subscription_F/\">Abonnez-vous</a> \u00e0 Agri-info d\u00e8s  aujourd'hui.</li>\n</ul> \n </div>\n</section>\n\r\n    "
    }
}