{
    "dcr_id": "1573855263217",
    "title": {
        "en": "Price Pooling Program: Contact information",
        "fr": "Programme de mise en commun des prix : Pour nous joindre "
    },
    "modified": "2019-12-09",
    "issued": "2019-12-09",
    "templatetype": "content page 1 column",
    "page_type": "0",
    "node_id": "1574440259412",
    "dc_date_created": "2019-12-09",
    "managing_branch": "PAB",
    "parent_node_id": "",
    "short_title": "Contact information",
    "exturl": "",
    "teamsite_location": {
        "en": "/default/main/AAFC-AAC/Internet-Internet/Group-Ensemble/ProgServ-ProgServ/WORKAREA/ProgServ-ProgServ/templatedata/comm-comm/gene-gene/data/11/ppp_step6_contact_1573855263217_en",
        "fr": "/default/main/AAFC-AAC/Internet-Internet/Group-Ensemble/ProgServ-ProgServ/WORKAREA/ProgServ-ProgServ/templatedata/comm-comm/gene-gene/data/11/ppp_step6_contact_1573855263217_fr"
    },
    "type_name": "comm-comm/gene-gene",
    "has_dcr_id": true,
    "label": {
        "en": "Contact information",
        "fr": "Pour nous joindre"
    },
    "breadcrumb": {
        "en": "Contact information",
        "fr": "Pour nous joindre"
    },
    "layout_name": "content page 1 column",
    "lang": "en",
    "refaire": false,
    "meta": {
        "viewport": {
            "en": "width=device-width,initial-scale=1",
            "fr": "width=device-width, initial-scale=1"
        },
        "issued": {
            "en": "2019-12-09",
            "fr": "2019-12-09"
        },
        "modified": {
            "en": "2019-12-09",
            "fr": "2019-12-09"
        },
        "format": {
            "en": "text/html",
            "fr": "text/html"
        },
        "title": {
            "en": "Price Pooling Program: Contact information",
            "fr": "Programme de mise en commun des prix : Pour nous joindre "
        },
        "subject": {
            "en": "soil assessement;architectural heritage",
            "fr": "revenus agricoles;biocarburants;Gestion des risques de l'entreprise"
        },
        "dcterms:subject": {
            "en": "food safety;architectural heritage;architecture",
            "fr": "m\u00e9dicament;commerce ext\u00e9rieur;viande"
        },
        "description": {
            "en": "Contact information. Step 1.What this program offers. Advance Payments Program. 1341 Baseline Road, Tower 7, 7. th. Or contact one of our. Advance Payment Program Administrators.",
            "fr": "Pour nous joindre. \u00c9tape 1.Ce qu'offre ce programme. Pour nous joindre. Pour nous joindre. Programme de paiements anticip\u00e9s. 1341, chemin Baseline, Tour\u00a07, 7. e. \u00a0\u00e9tage. Ou communiquez avec un de nos. agents d'ex\u00e9cution du Programme de paiements anticip\u00e9s. .Soumettre votre r\u00e9troaction."
        },
        "language": {
            "en": "eng",
            "fr": "fra"
        },
        "keywords": {
            "en": "as;activities.Based",
            "fr": null
        },
        "audience": {
            "en": "gcaudience",
            "fr": "gcaudience"
        },
        "type": {
            "en": "sound",
            "fr": "avis"
        },
        "creator": {
            "en": "Agriculture and Agri-Food Canada;Government of Canada",
            "fr": "Agriculture et Agroalimentaire Canada;Gouvernement du Canada"
        },
        "spatial": {
            "en": "gcregions",
            "fr": "gcregions"
        },
        "service": {
            "en": "AAFC-AAC",
            "fr": "AAFC-AAC"
        },
        "accessRights": {
            "en": "2",
            "fr": "2"
        },
        "legalName": {
            "en": "agriculture_and_agri_food_canada",
            "fr": "agriculture_et_agroalimentaire_canada"
        },
        "areaServed": {
            "en": "Canada",
            "fr": "Canada"
        }
    },
    "h1": {
        "en": "Price Pooling Program: Contact information",
        "fr": "Programme de mise en commun des prix : Pour nous joindre"
    },
    "js": {
        "en": "",
        "fr": ""
    },
    "body": {
        "en": "\r\n    <div class=\"mrgn-tp-md mrgn-bttm-lg brdr-bttm\">\n\n<div class=\"row\">\n<ul class=\"toc lst-spcd col-md-12 list-unstyled\">\n<li class=\"col-md-4 col-sm-6\"><span class=\"list-group-item\">Step 1.  <a href=\"?id=1289934791790\">What this program offers</a></span></li>\n\n<li class=\"col-md-4 col-sm-6\"><span class=\"list-group-item\">Step 2.  <a href=\"?id=1573847726312\">Who is eligible</a></span></li>\n\n<li class=\"col-md-4 col-sm-6 clr-lft-sm\"><span class=\"list-group-item\">Step 3.  <a href=\"?id=1573849605756\">How to apply</a></span></li>\n\n<li class=\"col-md-4 col-sm-6\"><span class=\"list-group-item\">Step 4. <a href=\"?id=1573851062514\">After you apply</a></span></li>\n\n<li class=\"col-md-4 col-sm-6\"><span class=\"list-group-item\"><a href=\"?id=1573855263217\">Frequently asked questions</a></span></li>\n\n<li class=\"col-md-4 col-sm-6\"><span class=\"list-group-item active\">Contact information</span></li>\n</ul>\n</div>\n</div>\n\n<h2>Contact information</h2>\n\n<p>For further information on this program:</p>\n<p>Email: <a href=\"mailto:aafc.fgp-pgf.aac@canada.ca\">aafc.fgp-pgf.aac@canada.ca </a><br> \nToll Free Number: 1-866-367-8506<br>\nTTY: 613-773-2600</p>\n\n<p class=\"mrgn-tp-lg\"><a href=\"?id=1530013156290\"><img src=\"https://www.agr.gc.ca/resources/prod/img/prog/1522073268316-image-eng.jpg\" alt=\"\"><br>\nSubmit your feedback</a></p>\n\n \n\n<nav>\n<h2 class=\"wb-inv\">Previous-next document navigation - bottom</h2>\n\n<div class=\"row\">\n<div class=\"col-md-12 mrgn-lft-0 mrgn-rght-0\">\n<ul class=\"pager\">\n<li class=\"previous\"><a href=\"?id=1573853207096\" rel=\"prev\" title=\"Frequently asked questions\">Previous</a></li>\n</ul>\n</div>\n</div>\n</nav>\n\r\n    ",
        "fr": "\r\n    \n\n<div class=\"mrgn-tp-md mrgn-bttm-lg brdr-bttm\">\n<div class=\"row\">\n<ul class=\"toc lst-spcd col-md-12 list-unstyled\">\n<li class=\"col-md-4 col-sm-6\"><span class=\"list-group-item\">\u00c9tape 1.  <a href=\"?id=1289934791790\">Ce qu\u2019offre ce programme</a></span></li>\n\n<li class=\"col-md-4 col-sm-6\"><span class=\"list-group-item\">\u00c9tape 2.  <a href=\"?id=1573847726312\"> Qui est admissible</a></span></li>\n\n<li class=\"col-md-4 col-sm-6\"><span class=\"list-group-item\">\u00c9tape 3. <a href=\"?id=1573849605756\">Comment pr\u00e9senter une demande</a></span></li>\n\n<li class=\"col-md-4 col-sm-6\"><span class=\"list-group-item\">\u00c9tape 4. <a href=\"?id=1573851062514\">Apr\u00e8s avoir pr\u00e9sent\u00e9 votre demande</a></span></li>\n\n<li class=\"col-md-4 col-sm-6\"><span class=\"list-group-item\"><a href=\"?id=1573853207096\">Foire aux questions</a></span></li>\n\n<li class=\"col-md-4 col-sm-6\"><span class=\"list-group-item active\">Pour nous joindre</span></li>\n</ul>\n</div>\n</div>\n\n\n\n\n<h2>Pour nous joindre</h2>\n\n<p>Pour obtenir de plus amples renseignements sur le Programme :</p>\n<p>Courriel : <a href=\"mailto:aafc.fgp-pgf.aac@canada.ca\">aafc.fgp-pgf.aac@canada.ca</a><br>\nSans frais: 1-866-367-8506<br>\nATS : 613-773-2600</p>\n\n<p class=\"mrgn-tp-lg\"><a href=\"?id=1530013156290\"><img src=\"https://www.agr.gc.ca/resources/prod/img/prog/1522073268316-image-fra.jpg\" alt=\"\"><br>\nSoumettre votre r\u00e9troaction</a></p>\n\n\n<nav>\n<h2 class=\"wb-inv\">Navigation du document - pr\u00e9c\u00e9dente-suivante - bas</h2>\n\n<div class=\"row\">\n<div class=\"col-md-12 mrgn-lft-0 mrgn-rght-0\">\n<ul class=\"pager\">\n <li class=\"previous\"><a href=\"?id=1573853207096\" rel=\"prev\" title=\"Foire aux questions\">Pr\u00e9c\u00e9dente</a></li>\n</ul>\n</div>\n</div>\n</nav>\n\r\n    "
    }
}