{
    "dcr_id": "1577992900073",
    "title": {
        "en": "Swine Registrations in Canada",
        "fr": "Enregistrements des porcs au Canada"
    },
    "modified": "2021-06-15",
    "issued": "2020-01-14",
    "templatetype": "content page 1 column",
    "page_type": "0",
    "node_id": "1502997240524",
    "dc_date_created": "2020-01-14",
    "managing_branch": "DAIRY",
    "parent_node_id": "",
    "short_title": "",
    "exturl": "",
    "teamsite_location": {
        "en": "/default/main/AAFC-AAC/CDIC-CCDL/WORKAREA/CDIC-CCDL/templatedata/comm-comm/gene-gene/data/01/registration_swine_1577992900073_en",
        "fr": "/default/main/AAFC-AAC/CDIC-CCDL/WORKAREA/CDIC-CCDL/templatedata/comm-comm/gene-gene/data/01/registration_swine_1577992900073_fr"
    },
    "type_name": "comm-comm/gene-gene",
    "has_dcr_id": true,
    "label": {
        "en": "Swine Registrations in Canada",
        "fr": "Enregistrements des porcs au Canada"
    },
    "breadcrumb": {
        "en": "Swine Registrations in Canada",
        "fr": "Enregistrements des porcs au Canada"
    },
    "layout_name": "content page 1 column",
    "lang": "en",
    "refaire": false,
    "meta": {
        "viewport": {
            "en": "width=device-width, initial-scale=1",
            "fr": "width=device-width, initial-scale=1"
        },
        "issued": {
            "en": "2020-01-14",
            "fr": "2020-01-14"
        },
        "modified": {
            "en": "2021-06-15",
            "fr": "2021-06-15"
        },
        "format": {
            "en": "gcformat",
            "fr": "gcformat"
        },
        "title": {
            "en": "Swine Registrations in Canada",
            "fr": "Enregistrements des porcs au Canada"
        },
        "subject": {
            "en": "soil assessement;architectural heritage;potato growers",
            "fr": "eau-conservation;statistiques du commerce;pommes de terre-transformation"
        },
        "dcterms.subject": {
            "en": "architectural heritage;architecture;statistics",
            "fr": "l\u00e9gume;\u0153uf;horticulture"
        },
        "description": {
            "en": "Alternative formats. Table of contents. Overview. 1. Number of farms and production. 6.2.4.1. Monthly processed potato exports, value (Canadian dollars). 6.2.4.2. Monthly processed potato exports, quantity (kilograms). 6.2.4.3. Processed potato exports by province, value (Canadian dollars). 6.2.4.4. Processed potato exports by province, quantity (kilograms). 6.2.4.5. Processed potato export destinations, value (Canadian dollars). 6.2.4.6. Processed potato export destinations, quantity (kilograms). 6.2.5. All potato products. Footnote. 3. , exports of Canadian potatoes and potato products were estimated at $1.72\u00a0billion, up 7.6% from the previous crop year and 49.5% over the last five years.",
            "fr": "Formats de rechange. Table de mati\u00e8res. John's. 5. Disponibilit\u00e9 des produits de pommes de terre. 6.3.2.6. Valeur des importations de pommes de terre de semence par pays (dollars canadiens). 6.3.2.7. Volume des importations de pommes de terre de semence par pays (tonnes). 6.3.3. Pommes de terre congel\u00e9es."
        },
        "language": {
            "en": "eng",
            "fr": "fra"
        },
        "keywords": {
            "en": "albumin;re-export program.Source;geese guinea",
            "fr": "Albumen d\u00e9shydrat\u00e9s;oies et pintades;nul ou non diponibles"
        },
        "audience": {
            "en": "gcaudience",
            "fr": "gcaudience"
        },
        "type": {
            "en": "event",
            "fr": "liste de r\u00e9f\u00e9rence"
        },
        "creator": {
            "en": "Agriculture and Agri-Food Canada",
            "fr": "Agriculture et Agroalimentaire Canada"
        },
        "spatial": {
            "en": "gcregions",
            "fr": "gcregions"
        }
    },
    "h1": {
        "en": "Swine Registrations in Canada",
        "fr": "Enregistrements des porcs au Canada"
    },
    "js": {
        "en": "<script>\t\t\t\n  window.dataLayer = window.dataLayer || [];\t\t\t\n  function gtag(){dataLayer.push(arguments);}\t\t\t\n  gtag('js', new Date());\t\t\t\n\t\t\t\n  gtag('config', 'UA-153894949-1');\t\t\t\n</script>",
        "fr": "<script>\t\t\t\n  window.dataLayer = window.dataLayer || [];\t\t\t\n  function gtag(){dataLayer.push(arguments);}\t\t\t\n  gtag('js', new Date());\t\t\t\n\t\t\t\n  gtag('config', 'UA-153894949-1');\t\t\t\n</script>"
    },
    "body": {
        "en": "\r\n    \t\t\t\n\t\t\t\n\t\t\t\n\t\t\t\n<table class=\"table table-hover\">\t\t\t\n<caption>\tSwine Registrations in Canada \tfrom 2015 to 2019\t</caption>\n<thead>\t\t\t\n<tr>\t\t\t\n<th class=\"active\" style=\"text-align: left;\" scope=\"col\">\tBreed\t</th>\t\n<th class=\"active\" style=\"text-align: right;\" scope=\"col\">\t2015\t</th>\t\n<th class=\"active\" style=\"text-align: right;\" scope=\"col\">\t2016\t</th>\t\n<th class=\"active\" style=\"text-align: right;\" scope=\"col\">\t2017\t</th>\t\n<th class=\"active\" style=\"text-align: right;\" scope=\"col\">\t2018\t</th>\t\n<th class=\"active\" style=\"text-align: right;\" scope=\"col\">\t2019\t</th>\t\n  </tr>\t\t\t\n</thead>\t\t\t\n<tbody>\t\t\t\n  <tr>\t\t\t\n<th style=\"text-align: left;\" scope=\"row\">\tBerkshire\t</th>\t\n<td class=\"nowrap\" style=\"text-align: right;\">\t1,910\t</td>\t\n<td class=\"nowrap\" style=\"text-align: right;\">\t519\t</td>\t\n<td class=\"nowrap\" style=\"text-align: right;\">\t71\t</td>\t\n<td class=\"nowrap\" style=\"text-align: right;\">\t313\t</td>\t\n<td class=\"nowrap\" style=\"text-align: right;\">\t250\t</td>\t\n  </tr>\t\t\t\n  <tr>\t\t\t\n<th style=\"text-align: left;\" scope=\"row\">\tDuroc\t</th>\t\n<td class=\"nowrap\" style=\"text-align: right;\">\t32,266\t</td>\t\n<td class=\"nowrap\" style=\"text-align: right;\">\t31,911\t</td>\t\n<td class=\"nowrap\" style=\"text-align: right;\">\t34,297\t</td>\t\n<td class=\"nowrap\" style=\"text-align: right;\">\t28,977\t</td>\t\n<td class=\"nowrap\" style=\"text-align: right;\">\t22,158\t</td>\t\n  </tr>\t\t\t\n  <tr>\t\t\t\n<th style=\"text-align: left;\" scope=\"row\">\tHampshire\t</th>\t\n<td class=\"nowrap\" style=\"text-align: right;\">\t35\t</td>\t\n<td class=\"nowrap\" style=\"text-align: right;\">\t..\t</td>\t\n<td class=\"nowrap\" style=\"text-align: right;\">\t41\t</td>\t\n<td class=\"nowrap\" style=\"text-align: right;\">\t2\t</td>\t\n<td class=\"nowrap\" style=\"text-align: right;\">\t..\t</td>\t\n  </tr>\t\t\t\n  <tr>\t\t\t\n<th style=\"text-align: left;\" scope=\"row\">\tLacombe\t</th>\t\n<td class=\"nowrap\" style=\"text-align: right;\">\t..\t</td>\t\n<td class=\"nowrap\" style=\"text-align: right;\">\t..\t</td>\t\n<td class=\"nowrap\" style=\"text-align: right;\">\t..\t</td>\t\n<td class=\"nowrap\" style=\"text-align: right;\">\t..\t</td>\t\n<td class=\"nowrap\" style=\"text-align: right;\">\t922\t</td>\t\n  </tr>\t\t\t\n  <tr>\t\t\t\n<th style=\"text-align: left;\" scope=\"row\">\tLandrace\t</th>\t\n<td class=\"nowrap\" style=\"text-align: right;\">\t50,347\t</td>\t\n<td class=\"nowrap\" style=\"text-align: right;\">\t30,879\t</td>\t\n<td class=\"nowrap\" style=\"text-align: right;\">\t30,398\t</td>\t\n<td class=\"nowrap\" style=\"text-align: right;\">\t41,682\t</td>\t\n<td class=\"nowrap\" style=\"text-align: right;\">\t22,875\t</td>\t\n</tr>\t\t\t\n  <tr>\t\t\t\n<th style=\"text-align: left;\" scope=\"row\">\tLarge Black\t</th>\t\n<td class=\"nowrap\" style=\"text-align: right;\">\t51\t</td>\t\n<td class=\"nowrap\" style=\"text-align: right;\">\t29\t</td>\t\n<td class=\"nowrap\" style=\"text-align: right;\">\t84\t</td>\t\n<td class=\"nowrap\" style=\"text-align: right;\">\t87\t</td>\t\n<td class=\"nowrap\" style=\"text-align: right;\">\t60\t</td>\t\n  </tr>\t\t\t\n  <tr>\t\t\t\n<th style=\"text-align: left;\" scope=\"row\">\tTamworth\t</th>\t\n<td class=\"nowrap\" style=\"text-align: right;\">\t38\t</td>\t\n<td class=\"nowrap\" style=\"text-align: right;\">\t22\t</td>\t\n<td class=\"nowrap\" style=\"text-align: right;\">\t11\t</td>\t\n<td class=\"nowrap\" style=\"text-align: right;\">\t18\t</td>\t\n<td class=\"nowrap\" style=\"text-align: right;\">\t18\t</td>\t\n  </tr>\t\t\t\n  <tr>\t\t\t\n<th style=\"text-align: left;\" scope=\"row\">\tYorkshire\t</th>\t\n<td class=\"nowrap\" style=\"text-align: right;\">\t67,153\t</td>\t\n<td class=\"nowrap\" style=\"text-align: right;\">\t69,058\t</td>\t\n<td class=\"nowrap\" style=\"text-align: right;\">\t74,824\t</td>\t\n<td class=\"nowrap\" style=\"text-align: right;\">\t58,840\t</td>\t\n<td class=\"nowrap\" style=\"text-align: right;\">\t48,822\t</td>\t\n  </tr>\t\t\t\n  <tr>\t\t\t\n<th style=\"text-align: left;\" scope=\"row\">\tGP1125\t</th>\t\n<td class=\"nowrap\" style=\"text-align: right;\">\t..\t</td>\t\n<td class=\"nowrap\" style=\"text-align: right;\">\t399\t</td>\t\n<td class=\"nowrap\" style=\"text-align: right;\">\t415\t</td>\t\n<td class=\"nowrap\" style=\"text-align: right;\">\t360\t</td>\t\n<td class=\"nowrap\" style=\"text-align: right;\">\t290\t</td>\t\n  </tr>\t\t\t\n  <tr>\t\t\t\n<th style=\"text-align: left;\" scope=\"row\">\tTotal Registrations\t</th>\t\n<td class=\"nowrap\" style=\"text-align: right;\">\t151,800\t</td>\t\n<td class=\"nowrap\" style=\"text-align: right;\">\t132,817\t</td>\t\n<td class=\"nowrap\" style=\"text-align: right;\">\t140,141\t</td>\t\n<td class=\"nowrap\" style=\"text-align: right;\">\t130,279\t</td>\t\n<td class=\"nowrap\" style=\"text-align: right;\">\t95,395\t</td>\t\n  </tr>\t\t\t\n  </tbody>\t\t\t\n</table>\t\t\t\n\t\t\t\n<div class=\"clear\"></div>\t\t\t\n<p>\tSource: Breed associations and Canadian Livestock Records Corporation\t\t\n\t\t\t\n\n</p><p><strong>For your convenience, this report is available in the following formats:</strong><br>\n<a title=\"Upload portable document version\" href=\"http://www5.agr.gc.ca/resources/prod/dairy/pdf/ap_gen_swineregcda_e.pdf\"><abbr title=\" document portable\" lang=\"en\" xmlns:ns1=\"\" ns1:ns1:ns1:xml:lang=\"en\">PDF</abbr> (471 KB) </a></p>\n\n\t\t\t\n <div class=\"well\">                                            \n<p>If you have any questions or require additional information, please send an e-mail to <a href=\"mailto:aafc.cdic-ccil.aac@agr.gc.ca\" title=\"Email: Animal Industry Division - Market Information Section\"> aafc.cdic-ccil.aac@agr.gc.ca</a></p>                                               \n</div>                                   \n<div class=\"clearfix\"></div>        \n\n\r\n    ",
        "fr": "\r\n    \t\t\t\n\t\t\t\n\t\t\t\n\t\t\t\n<table class=\"table table-hover\">\t\t\t\n<caption>\tEnregistrements des porcs au Canada\tde 2015 \u00e0 2019\t</caption>\n<thead>\t\t\t\n<tr>\t\t\t\n<th class=\"active\" style=\"text-align: left;\" scope=\"col\">\tRaces\t</th>\t\n<th class=\"active\" style=\"text-align: right;\" scope=\"col\">\t2015\t</th>\t\n<th class=\"active\" style=\"text-align: right;\" scope=\"col\">\t2016\t</th>\t\n<th class=\"active\" style=\"text-align: right;\" scope=\"col\">\t2017\t</th>\t\n<th class=\"active\" style=\"text-align: right;\" scope=\"col\">\t2018\t</th>\t\n<th class=\"active\" style=\"text-align: right;\" scope=\"col\">\t2019\t</th>\t\n  </tr>\t\t\t\n</thead>\t\t\t\n<tbody>\t\t\t\n  <tr>\t\t\t\n<th style=\"text-align: left;\" scope=\"row\">\tBerkshire\t</th>\t\n<td class=\"nowrap\" style=\"text-align: right;\">\t1 910\t</td>\t\n<td class=\"nowrap\" style=\"text-align: right;\">\t519\t</td>\t\n<td class=\"nowrap\" style=\"text-align: right;\">\t71\t</td>\t\n<td class=\"nowrap\" style=\"text-align: right;\">\t313\t</td>\t\n<td class=\"nowrap\" style=\"text-align: right;\">\t250\t</td>\t\n  </tr>\t\t\t\n  <tr>\t\t\t\n<th style=\"text-align: left;\" scope=\"row\">\tDuroc\t</th>\t\n<td class=\"nowrap\" style=\"text-align: right;\">\t32 266\t</td>\t\n<td class=\"nowrap\" style=\"text-align: right;\">\t31 911\t</td>\t\n<td class=\"nowrap\" style=\"text-align: right;\">\t34 297\t</td>\t\n<td class=\"nowrap\" style=\"text-align: right;\">\t28 977\t</td>\t\n<td class=\"nowrap\" style=\"text-align: right;\">\t22 158\t</td>\t\n  </tr>\t\t\t\n  <tr>\t\t\t\n<th style=\"text-align: left;\" scope=\"row\">\tHampshire\t</th>\t\n<td class=\"nowrap\" style=\"text-align: right;\">\t35\t</td>\t\n<td class=\"nowrap\" style=\"text-align: right;\">\t..\t</td>\t\n<td class=\"nowrap\" style=\"text-align: right;\">\t41\t</td>\t\n<td class=\"nowrap\" style=\"text-align: right;\">\t2\t</td>\t\n<td class=\"nowrap\" style=\"text-align: right;\">\t..\t</td>\t\n  </tr>\t\t\t\n  <tr>\t\t\t\n<th style=\"text-align: left;\" scope=\"row\">\tLacombe\t</th>\t\n<td class=\"nowrap\" style=\"text-align: right;\">\t..\t</td>\t\n<td class=\"nowrap\" style=\"text-align: right;\">\t..\t</td>\t\n<td class=\"nowrap\" style=\"text-align: right;\">\t..\t</td>\t\n<td class=\"nowrap\" style=\"text-align: right;\">\t..\t</td>\t\n<td class=\"nowrap\" style=\"text-align: right;\">\t922\t</td>\t\n  </tr>\t\t\t\n  <tr>\t\t\t\n<th style=\"text-align: left;\" scope=\"row\">\tLandrace\t</th>\t\n<td class=\"nowrap\" style=\"text-align: right;\">\t50 347\t</td>\t\n<td class=\"nowrap\" style=\"text-align: right;\">\t30 879\t</td>\t\n<td class=\"nowrap\" style=\"text-align: right;\">\t30 398\t</td>\t\n<td class=\"nowrap\" style=\"text-align: right;\">\t41 682\t</td>\t\n<td class=\"nowrap\" style=\"text-align: right;\">\t22 875\t</td>\t\n</tr>\t\t\t\n  <tr>\t\t\t\n<th style=\"text-align: left;\" scope=\"row\">\tLarge Black\t</th>\t\n<td class=\"nowrap\" style=\"text-align: right;\">\t51\t</td>\t\n<td class=\"nowrap\" style=\"text-align: right;\">\t29\t</td>\t\n<td class=\"nowrap\" style=\"text-align: right;\">\t84\t</td>\t\n<td class=\"nowrap\" style=\"text-align: right;\">\t87\t</td>\t\n<td class=\"nowrap\" style=\"text-align: right;\">\t60\t</td>\t\n  </tr>\t\t\t\n  <tr>\t\t\t\n<th style=\"text-align: left;\" scope=\"row\">\tTamworth\t</th>\t\n<td class=\"nowrap\" style=\"text-align: right;\">\t38\t</td>\t\n<td class=\"nowrap\" style=\"text-align: right;\">\t22\t</td>\t\n<td class=\"nowrap\" style=\"text-align: right;\">\t11\t</td>\t\n<td class=\"nowrap\" style=\"text-align: right;\">\t18\t</td>\t\n<td class=\"nowrap\" style=\"text-align: right;\">\t18\t</td>\t\n  </tr>\t\t\t\n  <tr>\t\t\t\n<th style=\"text-align: left;\" scope=\"row\">\tYorkshire\t</th>\t\n<td class=\"nowrap\" style=\"text-align: right;\">\t67 153\t</td>\t\n<td class=\"nowrap\" style=\"text-align: right;\">\t69 058\t</td>\t\n<td class=\"nowrap\" style=\"text-align: right;\">\t74 824\t</td>\t\n<td class=\"nowrap\" style=\"text-align: right;\">\t58 840\t</td>\t\n<td class=\"nowrap\" style=\"text-align: right;\">\t48 822\t</td>\t\n  </tr>\t\t\t\n  <tr>\t\t\t\n<th style=\"text-align: left;\" scope=\"row\">\tGP1125\t</th>\t\n<td class=\"nowrap\" style=\"text-align: right;\">\t..\t</td>\t\n<td class=\"nowrap\" style=\"text-align: right;\">\t399\t</td>\t\n<td class=\"nowrap\" style=\"text-align: right;\">\t415\t</td>\t\n<td class=\"nowrap\" style=\"text-align: right;\">\t360\t</td>\t\n<td class=\"nowrap\" style=\"text-align: right;\">\t290\t</td>\t\n  </tr>\t\t\t\n  <tr>\t\t\t\n<th style=\"text-align: left;\" scope=\"row\">\tTotal des enregistrements\t</th>\t\n<td class=\"nowrap\" style=\"text-align: right;\">\t151 800\t</td>\t\n<td class=\"nowrap\" style=\"text-align: right;\">\t132 817\t</td>\t\n<td class=\"nowrap\" style=\"text-align: right;\">\t140 141\t</td>\t\n<td class=\"nowrap\" style=\"text-align: right;\">\t130 279\t</td>\t\n<td class=\"nowrap\" style=\"text-align: right;\">\t95 395\t</td>\t\n  </tr>\t\t\t\n  </tbody>\t\t\t\n</table>\t\t\t\n\t\t\t\n<div class=\"clear\"></div>\t\t\t\n<p>\tSources : Associations de races et Soci\u00e9t\u00e9 canadienne d'enregistrement des animaux\t\t\n\t\t\t\n</p><p><strong>Pour votre convenance, le rapport est disponible dans les formats ci-dessous :</strong><br>\n<a title=\"T\u00e9l\u00e9charger la version document portable\" href=\"http://www5.agr.gc.ca/resources/prod/dairy/pdf/ap_gen_swineregcda_f.pdf\"><abbr title=\" document portable\" lang=\"fr\" xmlns:ns1=\"\" ns1:ns1:ns1:xml:lang=\"fr\">PDF</abbr> (471 KB) </a></p>\t\n\t\t\t\n<div class=\"well\">                                            \n<p>Pour toute question ou information additionnelle, veuillez communiquer avec nous par courriel \u00e0 <a title=\"Courriel : Division de l'industrie animale, Section de l'information sur les march\u00e9s\" href=\"mailto:aafc.cdic-ccil.aac@agr.gc.ca\"> aafc.cdic-ccil.aac@agr.gc.ca</a></p>                                   \n</div>                                   \n<div class=\"clearfix\"></div>\n\n\r\n    "
    }
}