{
    "dcr_id": "1583530434966",
    "title": {
        "en": "AgriMarketing Program: Questionnaire On Diversification",
        "fr": "Programme Agri-marketing : Questionnaire sur la diversification"
    },
    "modified": "2020-11-02",
    "issued": "2020-11-02",
    "templatetype": "content page 1 column",
    "page_type": "0",
    "node_id": "1517246121939",
    "dc_date_created": "2020-11-02",
    "managing_branch": "PAB",
    "parent_node_id": "",
    "short_title": "",
    "exturl": "",
    "teamsite_location": {
        "en": "/default/main/AAFC-AAC/Internet-Internet/Group-Ensemble/ProgServ-ProgServ/WORKAREA/ProgServ-ProgServ/templatedata/comm-comm/gene-gene/data/03/agrimarketing_q_divers_1583530434966_en",
        "fr": "/default/main/AAFC-AAC/Internet-Internet/Group-Ensemble/ProgServ-ProgServ/WORKAREA/ProgServ-ProgServ/templatedata/comm-comm/gene-gene/data/03/agrimarketing_q_divers_1583530434966_fr"
    },
    "type_name": "comm-comm/gene-gene",
    "has_dcr_id": true,
    "label": {
        "en": "AgriMarketing Program: Questionnaire On Diversification",
        "fr": "Programme Agri-marketing : Questionnaire sur la diversification"
    },
    "breadcrumb": {
        "en": "AgriMarketing Program: Questionnaire On Diversification",
        "fr": "Programme Agri-marketing : Questionnaire sur la diversification"
    },
    "layout_name": "content page 1 column",
    "lang": "en",
    "refaire": false,
    "meta": {
        "viewport": {
            "en": "width=device-width,initial-scale=1",
            "fr": "width=device-width, initial-scale=1"
        },
        "issued": {
            "en": "2020-11-02",
            "fr": "2020-11-02"
        },
        "modified": {
            "en": "2020-11-02",
            "fr": "2020-11-02"
        },
        "format": {
            "en": "text/html",
            "fr": "text/html"
        },
        "title": {
            "en": "AgriMarketing Program: Questionnaire On Diversification",
            "fr": "Programme Agri-marketing : Questionnaire sur la diversification"
        },
        "subject": {
            "en": "aafcsubject",
            "fr": "aafcsubject"
        },
        "dcterms:subject": {
            "en": "agreements",
            "fr": "accord commercial"
        },
        "description": {
            "en": null,
            "fr": null
        },
        "language": {
            "en": "eng",
            "fr": "fra"
        },
        "keywords": {
            "en": null,
            "fr": null
        },
        "audience": {
            "en": "gcaudience",
            "fr": "gcaudience"
        },
        "type": {
            "en": "abstract",
            "fr": "accord"
        },
        "creator": {
            "en": "Agriculture and Agri-Food Canada;Government of Canada",
            "fr": "Agriculture et Agroalimentaire Canada;Gouvernement du Canada"
        },
        "spatial": {
            "en": "gcregions",
            "fr": "gcregions"
        },
        "service": {
            "en": "AAFC-AAC",
            "fr": "AAFC-AAC"
        },
        "accessRights": {
            "en": "2",
            "fr": "2"
        },
        "legalName": {
            "en": "agriculture_and_agri_food_canada",
            "fr": "agriculture_et_agroalimentaire_canada"
        },
        "areaServed": {
            "en": "Canada",
            "fr": "Canada"
        }
    },
    "h1": {
        "en": "AgriMarketing Program: Questionnaire On Diversification",
        "fr": "Programme Agri-marketing : Questionnaire sur la diversification"
    },
    "body": {
        "en": "\r\n    \n\n <section class=\"mrgn-tp-lg\" id=\"pdfforms\">\n<div class=\"alert alert-warning\">\n\n<h2>PDF forms</h2>\n\n<p>If you have problems opening a PDF form in your Internet browser, you need to:</p>\n<ul class=\"mrgn-tp-md mrgn-bttm-lg\">\n <li>Use your computer. <strong>The forms may not open on mobile devices (iPads, tablets, mobile phones)</strong>.</li>\n <li>Make sure you have Adobe Reader 11 (or higher) already installed on your computer. If not, download <a href=\"http://get.adobe.com/reader/otherversions/\" rel=\"external\">Adobe Reader 11 or higher</a> for free. Adobe has help for <a href=\"https://helpx.adobe.com/ca/acrobat/kb/cant-view-pdf-web.html\" rel=\"external\">solving common issues</a>.</li>\n <li>You <strong>must save the file on your computer</strong> in a place you can remember.</li>\n<li>Open the file on your computer using <a href=\"http://get.adobe.com/reader/otherversions/\" rel=\"external\">Adobe Reader 11 or higher</a>.</li>\n<li>If you can\u2019t open the form with Adobe Reader 11 or higher, <a href=\"?id=1515092903273\">contact the program</a>.</li>\n</ul>\n\n\n    <h3 class=\"lead mrgn-bttm-0\">How to download and open a PDF form</h3>\n\n\n<ul class=\"list-unstyled\">\n\n\n\t<li>\n<details class=\"mrgn-tp-sm\">\n    <summary>Microsoft Windows Operating System computers using \u201cInternet Explorer\u201d or \u201cMicrosoft Edge\u201d as your browser</summary>\n    <ol>\n      <li>Right-click on the link you want to save</li>\n      <li>Select \u201cSave target as\u201d or \u201cSave link as\u201d</li>\n      <li>Choose the location on your computer where you would like to save the file</li>\n      <li>Select \u201cSave\u201d</li>\n      <li>Open Adobe Reader 11 or higher</li>\n      <li>Select \u201cFile\u201d</li> \n      <li>Select \u201cOpen\u201d</li>\n      <li>Go to the location where you saved the file</li> \n      <li>Select the PDF file</li>\n      <li>Select \u201cOpen\u201d</li>\n    </ol>\n    </details>\n</li>\n\n<li>\n<details class=\"mrgn-tp-sm\">\n<summary>Microsoft Windows Operating System or Apple computers using \u201cChrome\u201d or Firefox\u201d as your browser</summary>\n    <ol>\n      <li>Right-click on the link you want to save</li>\n      <li>When the option menu appears, choose \"Download link file\" or \"Download link file as\"</li>\n      <li>Choose the location on your computer where you would like to save  the file. Your computer will start the download once you have selected a  location.</li>\n<li>Open Adobe Reader 11 or higher</li>\n      <li>Go to the location where you saved the file</li> \n      <li>Select the PDF file</li>\n      <li>Select \u201cOpen\u201d</li>\n    </ol>\n    </details>\n</li>\n</ul>\n</div>\n</section>\n\n<div class=\"alert alert-info\">\n<h2>Instructions for completing this form</h2>\n<p>You can use either the <a href=\"https://www.agr.gc.ca/resources/prod/doc/pdf/A9442-eng.pdf\">Questionnaire (PDF)</a> version of the form or the Web version below.</p>\n\n<p>Please respond to all questions below.</p>\n\n<p>Your responses will assist the AgriMarketing Program to assess whether eligible activities in your project are focused on market diversification. If so, a more favourable cost share of a maximum of 70% AAFC and a minimum of 30% Applicant may be available for these eligible activities.</p>\n\n<p>Please complete, print, sign, scan and save this form. You must then submit it with the <a href=\"http://www.agr.gc.ca/resources/prod/doc/pdf/AMP_14979_eng.pdf\">Project Application Form (PDF)</a>.</p>\n</div>\n\n\n<form action=\"#\" method=\"get\" id=\"print\" role=\"form\">\n\n<div class=\"form-group\">\n        <label for=\"org_name\">Organization name</label>\n        <input size=\"30\" maxlength=\"45\" id=\"org_name\" class=\"form-control\">\n    </div>\n    \n    <div class=\"form-group\">\n        <label for=\"project\">Project title</label>\n        <input size=\"30\" maxlength=\"45\" id=\"project\" class=\"form-control\">\n    </div>\n    \n\n    \n<fieldset class=\"legend-brdr-bttm mrgn-tp-md\">\n<legend>1. For any of the markets listed in your work plan, has Canada exported less than 10% of the product into the target market on average per year over the past three years based on Statistics Canada trade data?</legend>\n\t\n       <div class=\"radio\">\n<label for=\"radio1y\"><input type=\"radio\" name=\"markets\" id=\"radio1y\" value=\"1\">Yes</label>\n        </div>\n        <div class=\"radio\">\n<label for=\"radio1n\"><input type=\"radio\" name=\"markets\" id=\"radio1n\" value=\"2\">No</label>\n        </div>\n    \n<div class=\"form-group\">\n <label for=\"first_q\">(If you answered yes, please list which markets)</label>\n <textarea class=\"form-control\" cols=\"90\" rows=\"6\" id=\"markets\"></textarea>\n</div>\n</fieldset>\n\n<fieldset>\n<legend>2. Are you exporting to markets that have free trade agreements with Canada?</legend>\n\n  <div class=\"radio\">\n<label for=\"radio2y\"><input type=\"radio\" name=\"exporting\" id=\"radio2y\" value=\"1\">Yes</label>\n        </div>\n        <div class=\"radio\">\n<label for=\"radio2n\"><input type=\"radio\" name=\"exporting\" id=\"radio2n\" value=\"2\">No</label>\n        </div>\n\t\n    <div class=\"form-group\">\n  <label for=\"second_q\">(If you answered yes, please list the free trade agreements) </label>\n <textarea class=\"form-control\" cols=\"90\" rows=\"6\" id=\"agreements\"></textarea>\n</div>\n</fieldset>\n\n<fieldset class=\"legend-brdr-bttm mrgn-tp-md\">\n<legend>3. Are you targeting a market or segment of a market to promote a product for alternative or new uses?</legend>        \n \n<div class=\"form-group\">\n   <div class=\"radio\">\n<label for=\"radio3y\"><input type=\"radio\" name=\"targeting\" id=\"radio3y\" value=\"1\">Yes</label>\n        </div>\n        <div class=\"radio\">\n<label for=\"radio3n\"><input type=\"radio\" name=\"targeting\" id=\"radio3n\" value=\"2\">No</label>\n        </div> \n        \n<label for=\"third_q\">(If you answered yes, please describe) </label>\n <textarea class=\"form-control\" cols=\"90\" rows=\"6\" id=\"targeting\"></textarea>\n</div>      \n</fieldset>\n\n\n<fieldset class=\"legend-brdr-bttm mrgn-tp-md\">\n<legend>4. Type of activity \u2013 Does your project include any of the following types of activity (check any that apply)</legend>\n\n<div class=\"checkbox\">\n   <label for=\"defaultCheck1\"><input id=\"defaultCheck1\" type=\"checkbox\" value=\"\">Exploratory missions (e.g. market visits \u2013 meetings with buyers not required)</label><br>\n   <label for=\"defaultCheck1\"><input id=\"defaultCheck1\" type=\"checkbox\" value=\"\">Identify or address market access requirements (e.g. certification/inspection requirements, standards, documentation) </label><br>\n   <label for=\"defaultCheck1\"><input id=\"defaultCheck1\" type=\"checkbox\" value=\"\"> Identifying and/or reaching key influencers in the market</label><br>\n   <label for=\"defaultCheck1\"><input id=\"defaultCheck1\" type=\"checkbox\" value=\"\">Export capacity building</label><br>\n    <label for=\"defaultCheck1\"><input id=\"defaultCheck1\" type=\"checkbox\" value=\"\">Market research</label><br>\n     <label for=\"defaultCheck1\"><input id=\"defaultCheck1\" type=\"checkbox\" value=\"\">Incoming Mission</label><br>\n      <label for=\"defaultCheck1\"><input id=\"defaultCheck1\" type=\"checkbox\" value=\"\">Outgoing Mission </label>\n</div>\n</fieldset>\n\n\n\n\n<input type=\"button\" value=\"Print\" onclick=\"window.print();return false;\">\n<input type=\"submit\" id=\"submit\" hidden=\"hidden\">\n</form>\n\n\n\n\r\n    ",
        "fr": "\r\n     \n \n<section class=\"mrgn-tp-lg\" id=\"pdfforms\">\n<div class=\"alert alert-warning\">\n  <h2>Formulaires en format PDF</h2>\n<p>Si vous avez de la difficult\u00e9 \u00e0 ouvrir un formulaire PDF dans votre navigateur Internet, vous devez\u00a0:</p>\n<ul class=\"mrgn-tp-md\">\n <li>utiliser votre ordinateur. <strong>Il est possible que les formulaires ne s'ouvrent pas sur des appareils mobiles (iPad, tablettes, t\u00e9l\u00e9phones cellulaires)</strong>.</li>\n  <li>vous assurer que la version 11 (ou une version ult\u00e9rieure) d'Adobe Reader est d\u00e9j\u00e0 install\u00e9e sur votre ordinateur. Si ce n'est pas le cas, t\u00e9l\u00e9chargez gratuitement <a href=\"http://get.adobe.com/fr/reader/otherversions/\" rel=\"external\">Adobe Reader 11 ou une version ult\u00e9rieure</a>. Adobe offre des <a href=\"https://helpx.adobe.com/fr/acrobat/kb/cant-view-pdf-web.html\" rel=\"external\">solutions aux principaux probl\u00e8mes d'affichage</a>;</li>\n <li><strong>sauvegarder le fichier sur votre ordinateur</strong> \u00e0 un endroit dont vous vous souviendrez;</li>\n <li>ouvrir le fichier sur votre ordinateur \u00e0 l'aide d'<a href=\"http://get.adobe.com/fr/reader/otherversions/\" rel=\"external\">Adobe Reader 11 ou une version ult\u00e9rieure</a>.</li>\n <li>Si vous ne parvenez pas \u00e0 ouvrir le formulaire avec Adobe Reader 11 ou une version ult\u00e9rieure, <a href=\"?id=1515092903273\">veuillez contacter le programme</a>.</li>\n</ul>\n\n\n    <h3 class=\"lead mrgn-bttm-0\">Comment t\u00e9l\u00e9charger et ouvrir un formulaire au format PDF</h3>\n  \n\n<ul class=\"list-unstyled\">\n\t<li>\n<details class=\"mrgn-tp-sm\">\n    <summary>Les ordinateurs utilisant le syst\u00e8me d'exploitation Microsoft Windows et se servant de  \u201cInternet Explorer\u201d ou \u201cMicrosoft Edge\u201d comme fureteur</summary>\n     <ol>\n      <li>Cliquez sur le lien que vous voulez enregistrer avec le bouton droit de la souris;</li>\n      <li>S\u00e9lectionnez \u00ab\u00a0Enregistrer la cible sous\u00a0\u00bb ou \u00ab\u00a0Enregistrer le lien sous\u00a0\u00bb;</li>\n      <li>Choisissez l'emplacement o\u00f9 vous souhaitez enregistrer le fichier sur votre ordinateur;</li>\n      <li>S\u00e9lectionnez \u00ab\u00a0Enregistrer\u00a0\u00bb;</li>\n      <li>Ouvrissiez Adobe Reader 11 ou une version ult\u00e9rieure;</li>\n      <li>S\u00e9lectionnez \u00ab\u00a0Fichier\u00a0\u00bb;</li>\n      <li>S\u00e9lectionnez \u00ab\u00a0Ouvrez\u00a0\u00bb;</li>\n      <li>Acc\u00e9dez \u00e0 l'emplacement o\u00f9 vous avez enregistr\u00e9 le fichier;</li>\n      <li>Choisissez le formulaire PDF;</li>\n      <li>S\u00e9lectionnez \u00ab\u00a0Ouvrez\u00a0\u00bb.</li>\n    </ol>\n    </details>\n</li>\n\n<li>\n<details class=\"mrgn-tp-sm\">\n<summary>Les ordinateurs utilisant le syst\u00e8me d'exploitation Microsoft Windows ou Apple et se servant de \u201cChrome\u201d ou \"Firefox\u201d comme fureteur</summary>\n        <ol>\n      <li>Cliquez sur le lien que vous voulez enregistrer avec le bouton droit de la souris;</li>\n      <li>Quand le menu d'options s'affiche, s\u00e9lectionnez \"T\u00e9l\u00e9charger le fichier li\u00e9\" ou \"T\u00e9l\u00e9charger le fichier li\u00e9 sous\"</li>\n      <li>Choisissez l'emplacement o\u00f9 vous souhaitez enregistrer le fichier  sur votre ordinateur. Le t\u00e9l\u00e9chargement commencera une fois que vous  aurez choisi un emplacement;</li>\n  <li>Ouvrissiez Adobe Reader 11 ou une version ult\u00e9rieure;</li>\n      <li>Acc\u00e9dez \u00e0 l'emplacement o\u00f9 vous avez enregistr\u00e9 le fichier;</li>\n      <li>Choisissez le formulaire PDF;</li>\n      <li>S\u00e9lectionnez \u00ab\u00a0Ouvrez\u00a0\u00bb.</li>\n    </ol>\n    </details>\n</li>\n</ul>\n\n</div>\n</section>\n\n<div class=\"alert alert-info\">\n<h2> Directives sur la fa\u00e7on de remplir ce formulaire</h2>\n\n<p>Vous pouvez utiliser la version <a href=\"https://www.agr.gc.ca/resources/prod/doc/pdf/A9442-fra.pdf\">Questionnaire (PDF)</a> du formulaire ou le formulaire Web ci-dessous.</p>\n\n<p>Veuillez compl\u00e9ter, imprimer, signer, num\u00e9riser et sauvegarder ce formulaire. Vous devez ensuite le joindre au formulaire de demande.</p>\n\n<p>Veuillez r\u00e9pondre \u00e0 toutes les questions ci-dessous.</p>\n\n<p>Vos r\u00e9ponses aideront le programme Agri-marketing \u00e0 d\u00e9terminer si les activit\u00e9s admissibles de votre projet sont ax\u00e9es sur la diversification des march\u00e9s. Si tel est le cas, vous pourriez avoir droit \u00e0 un ratio de partage des co\u00fbts plus avantageux \u00e0 l\u2019\u00e9gard de ces activit\u00e9s, soit un maximum de 70 % pour AAC et un minimum de 30 % pour votre organisme.</p>\n\n<p>Veuillez compl\u00e9ter, imprimer, signer, num\u00e9riser et sauvegarder ce formulaire. Vous devez ensuite le joindre au <a href=\"http://www.agr.gc.ca/resources/prod/doc/pdf/AMP_14979_fra.pdf\">formulaire de demande (PDF)</a>.</p>\n</div>\n \n\n\n\n<form action=\"#\" method=\"get\" id=\"print\" role=\"form\">\n\n<div class=\"form-group\">\n    <label for=\"org_name\">Nom de l'organisation</label>\n    <input size=\"30\" maxlength=\"45\" id=\"org_name\" class=\"form-control\">\n  </div>\n    \n    <div class=\"form-group\">\n      <label for=\"project\">Titre du projet</label>\n      <input size=\"30\" maxlength=\"45\" id=\"project\" class=\"form-control\">\n    </div>\n    \n    <fieldset class=\"legend-brdr-bttm mrgn-tp-md\">\n\t\n<legend>1. Pour l\u2019un ou l\u2019autre des march\u00e9s \u00e9num\u00e9r\u00e9s dans votre plan de travail, le Canada a t il export\u00e9 annuellement moins de 10 % du produit en moyenne au cours des trois derni\u00e8res ann\u00e9es selon les donn\u00e9es de Statistique Canada sur le commerce?</legend>\n\t\n       <div class=\"radio\">\n<label for=\"radio1y\"><input type=\"radio\" name=\"q1\" id=\"radio1y\" value=\"oui\">Oui</label>\n        </div>\n        <div class=\"radio\">\n<label for=\"radio1n\"><input type=\"radio\" name=\"q1\" id=\"radio1n\" value=\"non\">Non</label>\n        </div>\n    \n<div class=\"form-group\">\n <label for=\"first_q\">(Dans l\u2019affirmative, dresser la liste des march\u00e9s en question.)</label>\n <textarea class=\"form-control\" cols=\"90\" rows=\"6\" id=\"markets\"></textarea>\n</div>      \n</fieldset>\n\n<fieldset class=\"legend-brdr-bttm mrgn-tp-md\">\n\t<legend>2.\tExportez-vous vos produits sur des march\u00e9s vis\u00e9s par un accord de libre \u00e9change avec le Canada?</legend>\n\t\n  <div class=\"radio\">\n<label for=\"radio2y\"><input type=\"radio\" name=\"q2\" id=\"radio2y\" value=\"oui\">Oui</label>\n        </div>\n        <div class=\"radio\">\n<label for=\"radio2n\"><input type=\"radio\" name=\"q2\" id=\"radio2n\" value=\"non\">Non</label>\n        </div>\n\t\n    <div class=\"form-group\">\n  <label for=\"second_q\">(Dans l\u2019affirmative, dressez la liste des accords de libre \u00e9change en question.) </label>\n <textarea class=\"form-control\" cols=\"90\" rows=\"6\" id=\"agreements\"></textarea>\n</div>\n</fieldset>\n\n<fieldset class=\"legend-brdr-bttm mrgn-tp-md\">\n\t<legend>3.\tCiblez-vous un march\u00e9 ou un segment de march\u00e9 en vue de promouvoir une utilisation non conventionnelle ou une nouvelle utilisation d\u2019un produit?</legend>\n        <div class=\"radio\">\n        \t<label><input type=\"radio\" name=\"q3\" id=\"intform.type_oui\" value=\"oui\">Oui</label>\n            </div>\n        <div class=\"radio\">\n        \t<label><input type=\"radio\" name=\"q3\" id=\"intform.type_non\" value=\"non\">Non</label>\n        </div>\n          <div class=\"form-group\">\n  <label for=\"third_q\">(Dans l\u2019affirmative, fournissez une description.) </label>\n <textarea class=\"form-control\" cols=\"90\" rows=\"6\" id=\"agreements\"></textarea>\n</div>   \n        \n</fieldset>\n<fieldset class=\"legend-brdr-bttm mrgn-tp-md\">\n\t<legend>4.\tType d\u2019activit\u00e9 \u2013 Votre projet pr\u00e9voit-il un des types d\u2019activit\u00e9s suivants (cochez toutes les r\u00e9ponses pertinentes)?</legend>\n<div class=\"form-group\">\n <label for=\"rec_market_dev_assistance\" class=\"hidden\">Question 4</label>\n</div>\n<div class=\"checkbox\">\n   <label for=\"defaultCheck1\"><input id=\"defaultCheck1\" type=\"checkbox\" value=\"\"> Mission d\u2019\u00e9tude (p. ex. visites sur place \u2013 rencontres avec les acheteurs non requises)</label><br>\n   <label for=\"defaultCheck1\"><input id=\"defaultCheck1\" type=\"checkbox\" value=\"\"> Recensement des exigences en mati\u00e8re d\u2019acc\u00e8s aux march\u00e9s ou prise de mesures en vue d\u2019y satisfaire (p. ex. exigences en mati\u00e8re de certification/d\u2019inspection, normes, documentation)</label><br>\n   <label for=\"defaultCheck1\"><input id=\"defaultCheck1\" type=\"checkbox\" value=\"\"> \u00c9tablissement des principaux influenceurs sur le march\u00e9 ou prise de contact avec ceux ci</label><br>\n   <label for=\"defaultCheck1\"><input id=\"defaultCheck1\" type=\"checkbox\" value=\"\"> Renforcement des capacit\u00e9s d\u2019exportation</label><br>\n    <label for=\"defaultCheck1\"><input id=\"defaultCheck1\" type=\"checkbox\" value=\"\"> \u00c9tude de march\u00e9</label><br>\n     <label for=\"defaultCheck1\"><input id=\"defaultCheck1\" type=\"checkbox\" value=\"\"> Mission \u00e9trang\u00e8re au Canada</label><br>\n      <label for=\"defaultCheck1\"><input id=\"defaultCheck1\" type=\"checkbox\" value=\"\"> Mission \u00e0 l\u2019\u00e9tranger </label>\n</div>\n</fieldset>\n \n\n<input type=\"button\" value=\"Imprimer\" onclick=\"window.print();return false;\">\n<input type=\"submit\" id=\"submit\" hidden=\"hidden\">\n</form>\n\n \n\n\n\r\n    "
    },
    "js": {
        "en": "",
        "fr": ""
    },
    "mode_html": "no_editor_full"
}