{
    "dcr_id": "1585855025072",
    "title": {
        "en": "Emergency Food Security Fund",
        "fr": "Fonds d'urgence pour la s\u00e9curit\u00e9 alimentaire"
    },
    "modified": "2021-02-04",
    "issued": "2020-04-03",
    "templatetype": "content page 1 column",
    "page_type": "0",
    "node_id": "1354137773676",
    "dc_date_created": "2020-04-03",
    "managing_branch": "PAB",
    "parent_node_id": "",
    "short_title": "",
    "exturl": "",
    "teamsite_location": {
        "en": "/default/main/AAFC-AAC/Internet-Internet/Group-Ensemble/ProgServ-ProgServ/WORKAREA/ProgServ-ProgServ/templatedata/comm-comm/gene-gene/data/04/supporting_people_experiencing_food-insecurity_1585855025072_en",
        "fr": "/default/main/AAFC-AAC/Internet-Internet/Group-Ensemble/ProgServ-ProgServ/WORKAREA/ProgServ-ProgServ/templatedata/comm-comm/gene-gene/data/04/supporting_people_experiencing_food-insecurity_1585855025072_fr"
    },
    "type_name": "comm-comm/gene-gene",
    "has_dcr_id": true,
    "label": {
        "en": "Emergency Food Security Fund",
        "fr": "Fonds d'urgence pour la s\u00e9curit\u00e9 alimentaire"
    },
    "breadcrumb": {
        "en": "Emergency Food Security Fund",
        "fr": "Fonds d'urgence pour la s\u00e9curit\u00e9 alimentaire"
    },
    "layout_name": "content page 1 column",
    "lang": "en",
    "refaire": false,
    "meta": {
        "viewport": {
            "en": "width=device-width,initial-scale=1",
            "fr": "width=device-width, initial-scale=1"
        },
        "issued": {
            "en": "2020-04-03",
            "fr": "2020-04-03"
        },
        "modified": {
            "en": "2021-02-04",
            "fr": "2021-02-04"
        },
        "format": {
            "en": "text/html",
            "fr": "text/html"
        },
        "title": {
            "en": "Emergency Food Security Fund",
            "fr": "Fonds d'urgence pour la s\u00e9curit\u00e9 alimentaire"
        },
        "subject": {
            "en": "technology transfer;architectural heritage;soil assessement",
            "fr": "politique agricole;\u00e9valuation environnementale strat\u00e9gique;gestion de l'exploitation agricole"
        },
        "dcterms:subject": {
            "en": "statistics;architectural heritage;architecture",
            "fr": "maladie;cultures;politique"
        },
        "description": {
            "en": "Binder 3: Who we are and what we do Ministerial Transition Books - Binder 3. Who we are and what we do. and the. Canadian Dairy Commission Act. . The. Plant Breeders Rights Act. governs the intellectual property rights associated with plant breeds and breeding.Authorities for administrative monetary penalties.",
            "fr": "treecodes.length; i++) { var thistree=treecodes[i]; var myvalue=document.treecalc[thistree].value; if (myvalue==\"\") { myvalue=0;} totalRowLength+=parseInt(myvalue); if (document.treecalc.units[1].checked) { //spacing in metres if (thistree==\"ah\";;thistree==\"cc\") { totalTrees+=document.treecalc[thistree+\"x\"].value=Math.round(myvalue/1); } else { totalTrees+=document.treecalc[thistree+\"x\"].value=myvalue/3.5; } } else { //spacing in feet if (thistree==\"ah\";;thistree==\"cc\") { totalTrees+=document.treecalc[thistree+\"x\"].value=Math.round(myvalue/3); } } } document.treecalc.total.value = totalRowLength; document.treecalc.totalx.value = totalTrees; } function myalert() { alert (\"You're not supposed to type anything in Trees Required field.\"); additup(); } function filterNonNumeric(field) { var result = new String(); var numbers = \"0123456789\"; var chars = field.value.split(\"\"); // create array for (i = 0; i. Alternative Formats. Donec ultricies enim vel massa dapibus luctus vel sed odio. The asterisk is to be presented in. plain text."
        },
        "language": {
            "en": "eng",
            "fr": "fra"
        },
        "keywords": {
            "en": null,
            "fr": "daudit;Effacer"
        },
        "audience": {
            "en": "gcaudience",
            "fr": "gcaudience"
        },
        "type": {
            "en": "program-service description",
            "fr": "pr\u00e9sentation"
        },
        "creator": {
            "en": "Agriculture and Agri-Food Canada;Government of Canada",
            "fr": "Agriculture et Agroalimentaire Canada;Gouvernement du Canada"
        },
        "spatial": {
            "en": "gcregions",
            "fr": "gcregions"
        },
        "service": {
            "en": "AAFC-AAC",
            "fr": "AAFC-AAC"
        },
        "accessRights": {
            "en": "2",
            "fr": "2"
        },
        "legalName": {
            "en": "agriculture_and_agri_food_canada",
            "fr": "agriculture_et_agroalimentaire_canada"
        },
        "areaServed": {
            "en": "Canada",
            "fr": "Canada"
        }
    },
    "h1": {
        "en": "Emergency Food Security Fund",
        "fr": "Fonds d'urgence pour la s\u00e9curit\u00e9 alimentaire"
    },
    "js": {
        "en": "",
        "fr": ""
    },
    "body": {
        "en": "\r\n    <h2>Initial funding</h2>\n\n<p>In April 2020, the Government of Canada announced up to $100 million through the Emergency Food Security Fund to Canadian food banks and other national food rescue organizations to help improve access to food for people experiencing food insecurity in Canada due to the COVID-19 pandemic.</p>\n\n<p>Funds were used to:</p>\n\n<ul>\n<li>purchase food and other basic necessities</li>\n<li>buy or rent equipment and materials</li>\n<li>transport and distribute food</li>\n<li>access new distribution centres</li>\n<li>hire temporary help to fill volunteer shortages</li>\n<li>implement biosecurity measures</li>\n</ul>\n\n<h2>How the funds were distributed</h2>\n\n<p>The Government worked with Food Banks Canada, Second Harvest, Community Food Centres Canada, Breakfast Club of Canada, Salvation Army, and La Tabl\u00e9e des Chefs to distribute funding to regional agencies that have an established food aid distribution network for providing food to those in need.</p>\n\n\n<h2>Additional funding</h2>\n\n<p>On October 9, 2020, the Government of Canada announced an additional $100 million to further support food security. Indigenous Services Canada (ISC) was provided with $30 million from this funding to bolster its Indigenous Community Support Fund.   With the remaining funding, the Government will continue to work with the same six organizations to ensure food reaches those in need.</p>\n\n\n<h2>Contact Information</h2>\n\n<p>Organizations seeking assistance should reach out to the organizations below to obtain emergency aid.</p>\n\n<ul>\n<li><a href=\"https://www.foodbankscanada.ca/\">Food Banks Canada</a> provides national leadership to relieve and prevent hunger in collaboration with the food bank network in Canada. For members of the food bank network across Canada that wish to apply for funding, please contact 1-800-986-5280 or <a href=\"mailto:grants@foodbankscanada.ca\">grants@foodbankscanada.ca.</a> </li>\n\n<li><a href=\"https://secondharvest.ca/\">Second Harvest</a> recovers fresh, unsold food to protect the environment and provide immediate hunger relief. Contact: <a href=\"mailto:emergencyfund@secondharvest.ca\">emergencyfund@secondharvest.ca</a></li>\n\n<li><a href=\"https://cfccanada.ca/en/Home\">Community Food Centres Canada</a> works with partners to create Community Food Centres that bring people together to grow, cook, share and advocate for good food. Contact: <a href=\"mailto:grants@cfccanada.ca\">grants@cfccanada.ca</a></li>\n\n<li><a href=\"https://www.breakfastclubcanada.org/\">Breakfast Club of Canada</a> provides food, kitchen equipment, training, and volunteers to school clubs across the country.  Contact: <a href=\"mailto:programs@clubdejeuner.org\">programs@clubdejeuner.org</a> or 1-888-442-1217</li>\n\n<li><a href=\"https://salvationarmy.ca/\">Salvation Army</a> supports food security across Canada through food banks, community meals, and school meals. Contact: 1-800-SAL-ARMY</li>\n\n<li>La Tabl\u00e9e des Chefs distributes meals in Qu\u00e9bec and other large urban centres.\nContact: <a href=\"mailto:info@tableedeschefs.org\">info@tableedeschefs.org</a> or 450-748-1638</li>\n\n<li>Indigenous communities can contact Indigenous Services Canada to access the <a href=\"https://www.sac-isc.gc.ca/eng/1585189335380/1585189357198\">Indigenous Community Support Fund.</a></li>\n</ul>\n\r\n    ",
        "fr": "\r\n    <h2>Financement initial</h2>\n\n<p>En avril 2020, le gouvernement du Canada a vers\u00e9 100 millions de dollars par l\u2019interm\u00e9diaire du Fonds d'urgence pour la s\u00e9curit\u00e9 alimentaire, aux banques alimentaires et \u00e0 d\u2019autres organismes de r\u00e9cup\u00e9ration alimentaire nationaux pour offrir un meilleur acc\u00e8s aux aliments aux personnes en situation d\u2019ins\u00e9curit\u00e9 alimentaire \u00e0 cause de la pand\u00e9mie de COVID-19.</p>\n\n<p>Les fonds ont \u00e9t\u00e9 utilis\u00e9s aux fins suivantes : </p>\n\n<ul>\n\n<li>acheter des denr\u00e9es alimentaires et d'autres produits de premi\u00e8re n\u00e9cessit\u00e9;</li>\n<li>acheter ou louer de l'\u00e9quipement et du mat\u00e9riel;</li>\n<li>assurer le transport et la distribution de denr\u00e9es alimentaires;</li>\n<li>assurer l'acc\u00e8s \u00e0 de nouveaux centres de distribution;</li>\n<li>embaucher des employ\u00e9s temporaires pour combler le manque de b\u00e9n\u00e9voles;</li>\n<li>appliquer des mesures de s\u00fbret\u00e9 biologique.</li>\n\n</ul>\n\n\n<h2>Comment les fonds ont \u00e9t\u00e9 distribu\u00e9s</h2>\n\n<p>Le gouvernement a travaill\u00e9 avec Banques alimentaires Canada, Deuxi\u00e8me R\u00e9colte, Centres communautaires d\u2019alimentation du Canada, le Club des petits d\u00e9jeuners du Canada, l\u2019Arm\u00e9e du Salut et La Tabl\u00e9e des Chefs pour distribuer les fonds aux organisations r\u00e9gionales qui ont des r\u00e9seaux bien \u00e9tablis pour acheminer les aliments \u00e0 ceux qui en ont besoin.</p>\n\n<h2>Financement additionnel</h2>\n\n<p>Le 9 octobre 2020, le gouvernement du Canada a annonc\u00e9 un montant suppl\u00e9mentaire de 100 millions de dollars pour soutenir la s\u00e9curit\u00e9 alimentaire. Services aux Autochtones Canada a re\u00e7u une tranche de 30 millions de dollars de ce montant pour son Fonds de soutien aux communaut\u00e9s autochtones. En collaboration avec les six organismes pr\u00e9cit\u00e9s, le gouvernement utilisera les fonds restants pour continuer d\u2019assurer l\u2019acheminement des aliments aux personnes dans le besoin.</p>\n\n<h2>Coordonn\u00e9es</h2>\n\n<p>Les organisations qui ont besoin d\u2019une aide urgente doivent communiquer avec les organismes ci dessous.</p>\n\n<ul>\n\n<li><a href=\"https://www.foodbankscanada.ca/Home.aspx?lang=fr-CA\">Banques alimentaires Canada</a> assure un leadership national pour soulager et pr\u00e9venir la faim en collaboration avec le r\u00e9seau des banques alimentaires au Canada. Pour pr\u00e9senter une demande d\u2019aide financi\u00e8re, les membres du r\u00e9seau des banques alimentaires au Canada sont pri\u00e9s de composer le 1-800-986-5280 ou d\u2019envoyer un courriel \u00e0 <a href=\"mailto:grants@foodbankscanada.ca\">grants@foodbankscanada.ca.</a></li>\n\n<li><a href=\"https://secondharvest.ca/emergency-funding-2021/\">Deuxi\u00e8me R\u00e9colte</a> r\u00e9cup\u00e8re des aliments frais invendus dans le but de prot\u00e9ger l'environnement et d'offrir une aide imm\u00e9diate pour lutter contre la faim. Coordonn\u00e9es : <a href=\"mailto:emergencyfund@secondharvest.ca\">emergencyfund@secondharvest.ca</a></li>\n\n<li>L'organisme <a href=\"https://cfccanada.ca/fr/Home\">Centres communautaires d'alimentation du Canada</a> collabore avec des partenaires pour cr\u00e9er des centres communautaires d'alimentation r\u00e9unissant des personnes pour cultiver, cuisiner, partager et promouvoir la bonne nourriture. Coordonn\u00e9es : <a href=\"mailto:grants@cfccanada.ca\">grants@cfccanada.ca</a></li>\n\n<li>Le <a href=\"https://www.breakfastclubcanada.org/fr/\">Club des petits d\u00e9jeuners du Canada</a> offre des aliments, de l'\u00e9quipement de cuisine, de la formation et des services de b\u00e9n\u00e9voles aux diff\u00e9rents clubs du pays.    Coordonn\u00e9es : <a href=\"mailto:programs@clubdejeuner.org\">programs@clubdejeuner.org</a> ou 1-888-442-1217</li>\n\n<li>L'<a href=\"https://salvationarmy.ca/?lang=fr\">Arm\u00e9e du Salut</a> favorise la s\u00e9curit\u00e9 alimentaire au Canada gr\u00e2ce \u00e0 des banques alimentaires, des repas communautaires et des repas servis \u00e0 l'\u00e9cole. Coordonn\u00e9es : 1-800-SAL-ARMY</li>\n\n<li><a href=\"https://www.tableedeschefs.org/fr/programmes/les-cuisines-solidaires/\">La Tabl\u00e9e des Chefs</a> distribue des repas au Qu\u00e9bec et dans d\u2019autres grands centres urbains. Coordonn\u00e9es : <a href=\"mailto:info@tableedeschefs.org\">info@tableedeschefs.org</a> ou 450-748-1638</li>\n\n<li>Les communaut\u00e9s autochtones peuvent communiquer avec Services aux Autochtones Canada pour obtenir une aide du Fonds de <a href=\"https://www.sac-isc.gc.ca/fra/1585189335380/1585189357198\">soutien aux communaut\u00e9s autochtones</a>.</li>\n\n</ul>\n\n\n\r\n    "
    }
}