{
    "dcr_id": "1587473200729",
    "title": {
        "en": "Agroclimate Impact Reporter: AIR Survey Assistance",
        "fr": "Rapports sur les impacts agroclimatiques: Aide pour les sondages sur les RIA"
    },
    "modified": "2020-06-29",
    "issued": "2020-04-22",
    "templatetype": "content page 1 column",
    "page_type": "0",
    "node_id": "1463687311552",
    "dc_date_created": "2020-04-22",
    "managing_branch": "PAB",
    "parent_node_id": "",
    "short_title": "Learn about AIR",
    "exturl": "",
    "teamsite_location": {
        "en": "/default/main/AAFC-AAC/Internet-Internet/Group-Ensemble/ProgServ-ProgServ/WORKAREA/ProgServ-ProgServ/templatedata/comm-comm/gene-gene/data/04/air_learn_about_air_1587473200729_en",
        "fr": "/default/main/AAFC-AAC/Internet-Internet/Group-Ensemble/ProgServ-ProgServ/WORKAREA/ProgServ-ProgServ/templatedata/comm-comm/gene-gene/data/04/air_learn_about_air_1587473200729_fr"
    },
    "type_name": "comm-comm/gene-gene",
    "has_dcr_id": true,
    "label": {
        "en": "Learn about AIR",
        "fr": "Aide pour les sondages sur les RIA"
    },
    "breadcrumb": {
        "en": "Learn about AIR",
        "fr": "Aide pour les sondages sur les RIA"
    },
    "layout_name": "content page 1 column",
    "lang": "en",
    "refaire": false,
    "meta": {
        "viewport": {
            "en": "width=device-width,initial-scale=1",
            "fr": "width=device-width, initial-scale=1"
        },
        "issued": {
            "en": "2020-04-22",
            "fr": "2020-04-22"
        },
        "modified": {
            "en": "2020-06-29",
            "fr": "2020-06-29"
        },
        "format": {
            "en": "text/html",
            "fr": "text/html"
        },
        "title": {
            "en": "Agroclimate Impact Reporter: AIR Survey Assistance",
            "fr": "Rapports sur les impacts agroclimatiques: Aide pour les sondages sur les RIA"
        },
        "subject": {
            "en": "organic foods;farm management;community development",
            "fr": "revenus agricoles;carthame;\u00e9valuation environnementale strat\u00e9gique"
        },
        "dcterms:subject": {
            "en": "regulations;community development;wine industry",
            "fr": "commerce ext\u00e9rieur;politique;engrais"
        },
        "description": {
            "en": "Agri-Food News from Europe - July 2016 (. PDF. Berlin, Germany, January 20 \u2013 29, 2017. However the numbers play out, he will make sure that the balance remains there.",
            "fr": "\u00c0 propos de l'application RIA. \u00c9tape 1.Joignez-vous au r\u00e9seau. Mais les revenus et l\u2019\u00e9conomie ne sont pas les seuls \u00e0 \u00eatre touch\u00e9s : les difficult\u00e9s dues aux conditions m\u00e9t\u00e9orologiques ont aussi des effets n\u00e9fastes sur la sant\u00e9 physique et mentale des producteurs et des collectivit\u00e9s agricoles partout au pays. Guetter la s\u00e9cheresse. .Pour consulter les cartes et les autres produits con\u00e7us par Agriculture et Agroalimentaire Canada, veuillez consulter nos."
        },
        "language": {
            "en": "eng",
            "fr": "fra"
        },
        "keywords": {
            "en": "biodiversity.Over;biodi.sdsc.edu;available.by",
            "fr": "Naviguer dans le widget;raccourcis clavier \u00e0 utiliser.Appuyez;sondages sur les RIA"
        },
        "audience": {
            "en": "gcaudience",
            "fr": "gcaudience"
        },
        "type": {
            "en": "presentation",
            "fr": "plan d'activit\u00e9s"
        },
        "creator": {
            "en": "Agriculture and Agri-Food Canada;Government of Canada",
            "fr": "Agriculture et Agroalimentaire Canada;Gouvernement du Canada"
        },
        "spatial": {
            "en": "gcregions",
            "fr": "gcregions"
        },
        "service": {
            "en": "AAFC-AAC",
            "fr": "AAFC-AAC"
        },
        "accessRights": {
            "en": "2",
            "fr": "2"
        },
        "legalName": {
            "en": "agriculture_and_agri_food_canada",
            "fr": "agriculture_et_agroalimentaire_canada"
        },
        "areaServed": {
            "en": "Canada",
            "fr": "Canada"
        }
    },
    "h1": {
        "en": "Agroclimate Impact Reporter: AIR Survey Assistance",
        "fr": "Rapports sur les impacts agroclimatiques: Aide pour les sondages sur les RIA"
    },
    "js": {
        "en": "",
        "fr": ""
    },
    "body": {
        "en": "\r\n    <div class=\"mrgn-tp-md mrgn-bttm-lg brdr-bttm\">\n\n<div class=\"row\">\n<ul class=\"toc lst-spcd col-md-12 list-unstyled\">\n<li class=\"col-md-4 col-sm-6\"><span class=\"list-group-item\"><a href=\"?id=1463575416544\">Join the Network</a></span></li>\n\n<li class=\"col-md-4 col-sm-6\"><span class=\"list-group-item\"><a href=\"?id=1587472882095\">Submit Impacts</a></span></li>\n\n<li class=\"col-md-4 col-sm-6 clr-lft-sm\"><span class=\"list-group-item\"><a href=\"?id=1587473139296\">View Impact Maps</a></span></li>\n\n<li class=\"col-md-4 col-sm-6\"><span class=\"list-group-item\"><a href=\"?id=1516042926178\">Learn about AIR</a></span></li>\n\n<li class=\"col-md-4 col-sm-6\"><span class=\"list-group-item active\">AIR Survey Assistance</span></li>\n\n<li class=\"col-md-4 col-sm-6\"><span class=\"list-group-item\"><a href=\"?id=1587473392817\">Contact Information</a></span></li>\n</ul>\n</div>\n</div>\n\n<h2>AIR Survey Assistance</h2>\n\n<p>Thank you for your interest in participating in the Agroclimate Impact Survey. We welcome all producers, regional reporters, or concerned citizens who want to report about on current weather-related conditions that have had an impact within your region. The information that you provide through this survey is essential to help Agriculture and Agri-Food Canada (AAFC) better understand and assist with weather related challenges facing producers across Canada. Below are some tips to assist with completing the survey. If you have any questions, please contact <a href=\"mailto:aafc.nais-snia.aac@canada.ca\">aafc.nais-snia.aac@canada.ca</a>.</p>\n\n<nav>\n<ul class=\"list-unstyled mrgn-lft-lg\">\n\t<li><a href=\"#how\">How do I select my map location?</a></li>\n\t<li><a href=\"#description\">Description of survey question responses</a></li>\n\t<li><a href=\"#other\">Other ways to complete the survey</a></li>\n</ul>\n</nav>\n\n<h3 id=\"how\">How do I select my map location?</h3>\n\n<p>The Location question lets AAFC know which region you are reporting for. Please position the push-pin over the approximate area of your farm. Approximate location is sufficient. There are several methods to do this.</p>\n\n<ol>\n\t<li>Click on the round circle icon (directly below the little house icon) to allow the survey to access your location automatically.</li>\n\t<li>Type your address or nearest town into the search bar to narrow your search. Then click and drag the map until the push-pin is over the correct location.</li>\n\t<li>Manually zoom and drag the map until the push-pin is located over the correct location.</li>\n\t<li>You can also directly enter Latitude and Longitude coordinates in the boxes at the bottom of the map.</li>\n</ol>\n\n<p><b>Explanation of the tool icons</b> on the left side of the map:</p>\n\n<ul>\n\t<li>The plus and minus buttons will zoom in and out of the map.</li>\n\t<li>The house button will zoom all the way out.</li>\n\t<li>The circle crosshair icon will as for permission to automatically report your location based on your IP address.</li>\n\t<li>The box button will expand the map to full-screen.</li>\n\t<li>To close the full-screen view, click the X in the upper right-hand corner.</li>\n</ul>\n\n<p>Please double check that the push-pin correctly reports your position before moving to the next question.</p>\n \n<h3 id=\"description\">Description of survey question responses</h3>\n\n<h4>Overall Moisture (how dry or wet is it?)</h4>\n\n<dl>\n<dt>Severely Dry</dt>\n<dd>There is no soil moisture Crop or pasture losses are occurring or are imminent. Conditions may be severely impacting livestock health, requiring significant changes to management practices. Ponds, lakes, streams, dugouts, and wells may be significantly reduced. Mandatory water restrictions and fire bans may be in place.</dd>\n\n<dt>Moderately Dry</dt>\n<dd>Soil is much drier than normal. Plants, crops, pastures or livestock are showing signs of damage due to dry conditions. Producers expect crop or pasture reductions or loss. Streams, reservoirs, dugouts or well water levels may below. Voluntary water use restrictions may be in place. There may be water restrictions and fire bans in place.</dd>\t\n \n<dt>Mildly Dry</dt>\n<dd>Soil is somewhat drier than normal.  Plants, crops, pastures or livestock may be showing signs of stress or slowed growth due to dry conditions. Plants, crops, pastures or livestock may also be in a state of recovery if conditions are changing from drier to wetter.</dd>\t\n  \n<dt>Near Normal</dt>\n<dd>What you're seeing is what you expect for this time of year as compared to average conditions over the past ten years.</dd>\t\n \n<dt>Mildly Wet</dt>\n<dd>Soil moisture is above normal. Field accessibility may be a minimal issue. Plants, crops, pastures, and livestock are healthy, recovering from dry conditions or draining from wet conditions. Pastures doing well with adequate moisture. Crops are not being negatively impacted unless seeding or harvest is occurring.</dd>\t\n \n<dt>Moderately Wet</dt>\n<dd>Soil is very damp and the ground may be saturated with water. Field accessibility may be a moderate issue. There may be standing water in low areas and ditches. Water bodies may be fuller than normal. Producers expect some moderate crop or pasture losses and/or quality degradation due to excess moisture-related issues. Excess moisture causing significant delays in seeding or harvest seasons. Livestock health and/or feed supply may be showing signs of stress.</dd>\t\n\n<dt>Severely Wet</dt>\n<dd>Soil is wet and the ground is completely saturated. Field accessibility is likely a significant issue. Standing water covers some areas. Water levels in lakes, streams, dugouts, and ponds are well above normal. Producers expect significant crop or pasture losses and/or quality degradation due to excess moisture. Livestock health and/or feed supply is a significant concern.</dd>\n</dl>\t\n\t\n<h4>Surface Soil Moisture</h4>\n\n<dl>\n<dt>Very Short</dt>\n<dd>Soil is experiencing severe moisture stress.</dd>\n\t\n<dt>Short</dt>\n<dd>Soil is experiencing moisture stress.</dd>\t\n\t\n<dt>Adequate</dt>\n<dd>Soil moisture is sufficient for crop and hay development.</dd>\n\n<dt>Optimal</dt>\n<dd>Soil is saturated.</dd>\t\n\n<dt>Surplus</dt>\n<dd>Soil has reached its field capacity. Any additional precipitation runs off.</dd>\n</dl>\t\n\n<h4>Ranking of Agroclimate Impacts</h4>\n\n<dl>\n<dt>Minimum</dt>\n<dd>An impact that will cause minimal disruption to agricultural operations.</dd>\n\n<dt>Moderate</dt>\n<dd>An impact that will cause a noticeable disruption to agricultural operations.</dd>\t\n\n<dt>Severe</dt>\n<dd>An impact that will cause a significant disruption to agricultural operations. Producers are changing agricultural practices in order to protect operations.</dd>\t\n\t\n<dt>Extreme</dt>\n<dd>A detrimental impact that requires a shift in agricultural practices to save seasonal operations.</dd>\n</dl>\n\n<h3 id=\"other\">Other ways to complete the survey</h3>\n\n<h4>By phone</h4>\n\n<p>Email <a href=\"mailto:aafc.droughtwatch-guetterlasecheresse.aac@canada.ca\">aafc.droughtwatch-guetterlasecheresse.aac@canada.ca</a> with your contact information and NAIS will call you to complete the report survey over the phone.</p>\n\n<h4>By email</h4>\n\n<p>Download an <a href=\"https://www.agr.gc.ca/resources/prod/doc/prog/pdf/AIR_2020_Survey_ENG.pdf\">accessible PDF version of the AIR survey</a> of the survey and email your response to <a href=\"mailto:aafc.droughtwatch-guetterlasecheresse.aac@canada.ca\">aafc.droughtwatch-guetterlasecheresse.aac@canada.ca</a> using the email button at the bottom of the form.</p>\n\t\n<h4>Using the Online Form</h4>\n\n<p>In order to use the online form, you will need <a href=\"https://get.adobe.com/reader/\">Adobe Reader</a> 11.0 or above</p>\n\n<h5>Instructions for PC users</h5>\n\n<ol>\n\t<li>Right-click the PDF and select Save target as or Save as link</li>\n\t<li>Choose the location on your computer where you want to save the PDF form</li>\n\t<li>Go to the file location where you saved the PDF form</li>\n\t<li>Open the PDF form with Adobe Reader\u00ae 11 (or a more recent version)</li>\n\t<li>Fill and save your PDF form</li>\n\t<li>Submit</li>\n</ol>\n\n<h5>Instructions for Mac users</h5>\n\n<ul>\n\t<li>Press the Control key (Ctrl) and click on the PDF</li>\n\t<li>Choose Save link as or Download linked file as</li>\n\t<li>Choose the location on your computer where you want to save the PDF form</li>\n\t<li>Go to the file location where you saved the PDF form</li>\n\t<li>Open the PDF form with Adobe Reader\u00ae 10 (or a more recent version)</li>\n\t<li>Fill and save your PDF form</li>\n\t<li>Submit</li>\n</ul>\n\n<p>The information you provide is valued by Agriculture and Agri-Food Canada, and provides input for decision makers.</p>\n\n<p>If you have not already subscribed to our mailing list, please visit our <a href=\"?id=1429884452980\">AIR subscriber page</a>  and follow the instructions to receive automatic reminders whenever a new survey is ready.</p>\n\n<nav>\n  <h2 class=\"wb-inv\">Previous-next document navigation - bottom</h2>\n\n<div class=\"row\">\n<div class=\"col-md-12 mrgn-lft-0 mrgn-rght-0\">\n<ul class=\"pager\">\t\n<li class=\"previous\"><a href=\"?id=1516042926178\" rel=\"prev\" title=\"Learn about AIR\">Previous</a></li>\t\n<li class=\"next\"><a href=\"?id=1587473392817\" rel=\"next\" title=\"Contact Information\">Next</a></li>\t\n</ul>\n</div>\n</div>\n</nav>\n\r\n    ",
        "fr": "\r\n    <div class=\"mrgn-tp-md mrgn-bttm-lg brdr-bttm\">\n\n<div class=\"row\">\n<ul class=\"toc lst-spcd col-md-12 list-unstyled\">\n<li class=\"col-md-4 col-sm-6\"><span class=\"list-group-item\"><a href=\"?id=1463575416544\">Joignez-vous au r\u00e9seau</a></span></li>\n\n<li class=\"col-md-4 col-sm-6\"><span class=\"list-group-item\"><a href=\"?id=1587472882095\">Soumettre des impacts</a></span></li>\n\n<li class=\"col-md-4 col-sm-6 clr-lft-sm\"><span class=\"list-group-item\"><a href=\"?id=1587473139296\">Voir les cartes d'impact</a></span></li>\n\n<li class=\"col-md-4 col-sm-6\"><span class=\"list-group-item\"><a href=\"?id=1516042926178\">En savoir plus sur RIA</a></span></li>\n\n<li class=\"col-md-4 col-sm-6\"><span class=\"list-group-item  active\">Aide pour les sondages sur les RIA</span></li>\n\n<li class=\"col-md-4 col-sm-6\"><span class=\"list-group-item\"><a href=\"?id=1587473392817\">Coordonn\u00e9es</a></span></li>\n</ul>\n</div>\n</div>\n\n<h2>Aide pour les sondages sur les RIA</h2>\n\n<p>Merci de participer au Sondage sur les impacts agroclimatiques. Bienvenue \u00e0 tous les producteurs, journalistes r\u00e9gionaux ou citoyens int\u00e9ress\u00e9s qui souhaitent nous faire part des conditions m\u00e9t\u00e9orologiques qui ont cours et qui ont des r\u00e9percussions dans leur r\u00e9gion. Les informations que vous fournissez dans le cadre de ce sondage sont essentielles pour aider AAC \u00e0 mieux comprendre et aider les producteurs canadiens \u00e0 relever les d\u00e9fis li\u00e9s aux conditions m\u00e9t\u00e9orologiques. Vous trouverez ci-dessous quelques conseils pour vous aider \u00e0 r\u00e9pondre au sondage. Si vous avez des questions, veuillez contacter <a href=\"mailto:aafc.nais-snia.aac@canada.ca\">aafc.nais-snia.aac@canada.ca</a>.</p>\n\n<nav>\n<ul class=\"list-unstyled mrgn-lft-lg\">\n\t<li><a href=\"#comment\">Comment s\u00e9lectionner mon emplacement sur la carte?</a></li>\n\t<li><a href=\"#description\">Description des r\u00e9ponses aux questions du sondage</a></li>\n\t<li><a href=\"#autres\">Autres fa\u00e7ons de r\u00e9pondre au sondage</a></li>\n</ul>\n</nav>\n\n<h3 id=\"comment\">Comment s\u00e9lectionner mon emplacement sur la carte?</h3>\n\n<p>La question sur l\u2019emplacement g\u00e9ographique permet \u00e0 AAC de savoir pour quelle r\u00e9gion vous faites vos observations. Placez l\u2019ic\u00f4ne de la punaise sur la zone approximative de votre exploitation. Un emplacement approximatif suffit. Il existe plusieurs m\u00e9thodes pour ce faire.</p>\n\n<ol>\n\t<li>Cliquez sur l\u2019ic\u00f4ne ronde (directement sous l\u2019ic\u00f4ne de la petite maison) pour permettre au sondage d\u2019acc\u00e9der automatiquement \u00e0 votre emplacement.</li>\n\t<li>Tapez votre adresse ou la ville la plus proche dans la barre de recherche pour affiner votre recherche. Cliquez ensuite sur la carte et faites-la glisser jusqu\u2019\u00e0 ce que la punaise se trouve au bon endroit.</li>\n\t<li>Zoomez manuellement et faites glisser la carte jusqu\u2019\u00e0 ce que la punaise se trouve au bon endroit.</li>\n\t<li>Vous pouvez \u00e9galement inscrire directement les coordonn\u00e9es de latitude et de longitude dans les cases situ\u00e9es au bas de la carte.</li>\n</ol>\n\n<p><b>Explication des ic\u00f4nes-outils</b> sur le c\u00f4t\u00e9 gauche de la carte : </p>\n\n<ul>\n\t<li>Les boutons plus et moins permettent de zoomer sur la carte.</li>\n\t<li>L\u2019ic\u00f4ne en forme de maison permet de revenir au grossissement normal.</li>\n\t<li>L\u2019ic\u00f4ne circulaire contenant un r\u00e9ticule permet de signaler automatiquement votre emplacement en fonction de votre adresse IP.</li>\n\t<li>L\u2019ic\u00f4ne en forme de bo\u00eete permet de voir la carte en plein \u00e9cran.</li>\n\t<li>Pour fermer la vue plein \u00e9cran, cliquez sur le X se trouvant dans le coin sup\u00e9rieur droit.</li>\n</ul>\n\n<p>Assurez-vous que la punaise indique correctement votre emplacement avant de passer \u00e0 la question suivante.</p>\n \n<h3 id=\"description\">Description des r\u00e9ponses aux questions du sondage</h3>\n\n<h4>Humidit\u00e9 globale du sol (\u00e0 quel point est-il sec ou humide?)</h4>\n\n<dl>\n<dt>Tr\u00e8s sec</dt>\n<dd>Le sol est tr\u00e8s sec, il n\u2019y a aucune trace d\u2019humidit\u00e9. Des r\u00e9coltes ou des p\u00e2turages sont perdus ou les pertes sont imminentes. La s\u00e9cheresse a de graves r\u00e9percussions sur la sant\u00e9 du b\u00e9tail, ce qui requiert des changements majeurs dans les pratiques de gestion. Les \u00e9tangs, lacs, ruisseaux, mares-r\u00e9servoirs et puits peuvent \u00eatre consid\u00e9rablement r\u00e9duits. Des restrictions obligatoires d\u2019utilisation de l\u2019eau peuvent \u00eatre impos\u00e9es de m\u00eame que l\u2019interdiction de faire des feux.</dd>\n\n<dt>Mod\u00e9r\u00e9ment sec</dt>\n<dd>Le sol est beaucoup plus sec qu\u2019\u00e0 la normale. La v\u00e9g\u00e9tation, les cultures, les p\u00e2turages ou le b\u00e9tail pr\u00e9sentent des signes de dommages ou des probl\u00e8mes dus \u00e0 la s\u00e9cheresse. Les producteurs s\u2019attendent \u00e0 une r\u00e9duction ou \u00e0 une perte des r\u00e9coltes ou des p\u00e2turages. Le niveau des cours d\u2019eau, des r\u00e9servoirs, des mares-r\u00e9servoirs ou des puits peut \u00eatre plus bas que la normale. Il peut y avoir des restrictions volontaires de l\u2019utilisation de l\u2019eau et il peut \u00eatre interdit de faire des feux.</dd>\t\n \n<dt>L\u00e9g\u00e8rement sec</dt>\n<dd>Le sol est un peu plus sec qu\u2019\u00e0 la normale. La v\u00e9g\u00e9tation, les cultures, les p\u00e2turages ou le b\u00e9tail peuvent pr\u00e9senter des signes de stress ou un ralentissement de la croissance en raison du temps sec. La v\u00e9g\u00e9tation, les cultures, les p\u00e2turages ou le b\u00e9tail peuvent \u00e9galement \u00eatre dans un \u00e9tat de r\u00e9tablissement si les conditions passent de plus s\u00e8ches \u00e0 plus humides.</dd>\t\n  \n<dt>Humidit\u00e9 quasi normale</dt>\n<dd>Ce que vous voyez est normal pour cette p\u00e9riode de l\u2019ann\u00e9e compte tenu des conditions moyennes des dix derni\u00e8res ann\u00e9es.</dd>\t\n\t\n<dt>L\u00e9g\u00e8rement humide</dt>\n<dd>L\u2019humidit\u00e9 du sol est sup\u00e9rieure \u00e0 la normale. L\u2019acc\u00e8s aux champs peut \u00eatre l\u00e9g\u00e8rement probl\u00e9matique. La v\u00e9g\u00e9tation, les cultures, les p\u00e2turages et le b\u00e9tail sont en bonne sant\u00e9, se remettant du temps sec ou s\u2019ass\u00e8chent apr\u00e8s des conditions humides. Les p\u00e2turages se portent bien avec une humidit\u00e9 ad\u00e9quate. Les cultures tiennent le coup et ne manifestent pas d\u2019effets n\u00e9gatifs, sauf s\u2019il s\u2019agit de la p\u00e9riode d\u2019ensemencement ou de r\u00e9colte.</dd>\t\n \n<dt>Mod\u00e9r\u00e9ment humide</dt>\n<dd>Le sol est tr\u00e8s humide et peut \u00eatre satur\u00e9 d\u2019eau. L\u2019acc\u00e8s aux champs peut \u00eatre probl\u00e9matique. Il peut y avoir de l\u2019eau stagnante dans les zones basses et les foss\u00e9s. Les plans d\u2019eau peuvent \u00eatre plus remplis que la normale. Les producteurs s\u2019attendent \u00e0 des pertes mod\u00e9r\u00e9es de r\u00e9coltes ou de p\u00e2turages et/ou \u00e0 une d\u00e9gradation de la qualit\u00e9 en raison de probl\u00e8mes li\u00e9s \u00e0 l\u2019exc\u00e8s d\u2019humidit\u00e9. L\u2019exc\u00e8s d\u2019humidit\u00e9 entra\u00eene des retards importants dans l\u2019ensemencement ou la r\u00e9colte. La sant\u00e9 du b\u00e9tail et/ou l\u2019approvisionnement en aliments pour animaux peuvent pr\u00e9senter des signes de stress.</dd>\t\n\n<dt>Tr\u00e8s humide</dt>\n<dd>Le sol est mouill\u00e9, compl\u00e8tement satur\u00e9. L\u2019acc\u00e8s aux champs repr\u00e9sente sans doute un probl\u00e8me important. De l\u2019eau stagnante couvre certaines zones. Le niveau d\u2019eau des lacs, des ruisseaux, des mares-r\u00e9servoirs et des \u00e9tangs est bien au-dessus de la normale. Les producteurs s\u2019attendent \u00e0 d\u2019importantes pertes de r\u00e9coltes ou de p\u00e2turages et/ou \u00e0 une d\u00e9gradation de la qualit\u00e9 en raison de l\u2019humidit\u00e9 excessive. La sant\u00e9 du b\u00e9tail et/ou l\u2019approvisionnement en aliments pour animaux sont des pr\u00e9occupations importantes.</dd>\n</dl>\t\n\t\n<h4>Humidit\u00e9 du sol de surface</h4>\n\n<dl>\n<dt>Tr\u00e8s superficielle</dt>\n<dd>Le sol subit un stress hydrique important.</dd>\n\t\n<dt>Superficielle</dt>\n<dd>Le sol subit un stress hydrique.</dd>\t\n\t\n<dt>Ad\u00e9quate</dt>\n<dd>L\u2019humidit\u00e9 du sol est suffisante pour le d\u00e9veloppement des cultures et du foin.</dd>\n\n<dt>Optimale</dt>\n<dd>Le sol est satur\u00e9 d\u2019humidit\u00e9.</dd>\t\n\n<dt>Exc\u00e9dentaire</dt>\n<dd>Le sol est mouill\u00e9. Toute pr\u00e9cipitation suppl\u00e9mentaire s\u2019\u00e9coule sous forme de ruissellement.</dd>\n</dl>\t\n\n<h4>Classement des impacts agroclimatiques</h4>\n\n<dl>\n<dt>Minimal</dt>\n<dd>Un impact qui entra\u00eene une perturbation minimale des activit\u00e9s agricoles.</dd>\n\n<dt>Mod\u00e9r\u00e9</dt>\n<dd>Un impact qui entra\u00eene une perturbation notable des activit\u00e9s agricoles.</dd>\t\n\n<dt>Substantiel</dt>\n<dd>Un impact qui entra\u00eene une perturbation importante des activit\u00e9s agricoles. Les producteurs modifient leurs pratiques agricoles afin de prot\u00e9ger leurs denr\u00e9es.</dd>\t\n\t\n<dt>Extr\u00eame</dt>\n<dd>Un impact n\u00e9gatif qui n\u00e9cessite une modification des pratiques agricoles pour sauver les denr\u00e9es saisonni\u00e8res.</dd>\n</dl>\n\n<h3 id=\"autres\">Autres fa\u00e7ons de r\u00e9pondre au sondage</h3>\n\n<h4>Au t\u00e9l\u00e9phone</h4>\n\n<p>Envoyez vos coordonn\u00e9es par courriel \u00e0 <a href=\"mailto:aafc.droughtwatch-guetterlasecheresse.aac@canada.ca\">aafc.droughtwatch-guetterlasecheresse.aac@canada.ca</a> et le SNIA communiquera avec vous pour que vous r\u00e9pondiez au sondage mensuel au t\u00e9l\u00e9phone.</p>\n\n<h4>Par courriel</h4>\n\n<p>T\u00e9l\u00e9chargez une <a href=\"https://www.agr.gc.ca/resources/prod/doc/prog/pdf/AIR_2020_Survey_FRE.pdf\">version accessible du sondage RIA en PDF</a> et envoyez vos r\u00e9ponses au sondage \u00e0 <a href=\"mailto:aafc.droughtwatch-guetterlasecheresse.aac@canada.ca\">aafc.droughtwatch-guetterlasecheresse.aac@canada.ca</a> en utilisant le bouton courriel au bas du formulaire.</p>\n\n<h4>Utilisation du formulaire en ligne</h4>\n\n<p>Pour utiliser le formulaire en ligne, vous aurez besoin de la version 11.0 d'<a href=\"https://get.adobe.com/reader/?loc=fr\">Adobe Reader</a> ou d'une version ult\u00e9rieure.</p>\n\n<h5>Instructions pour les utilisateurs de PC</h5>\n\n<ol>\n\t<li>Avec le bouton droit de la souris, cliquez sur le PDF et s\u00e9lectionnez Enregistrer le lien sous (Save link as) ou Enregistrer la cible du lien sous (Save target as)</li>\n\t<li>Choisissez l\u2019emplacement sur votre ordinateur o\u00f9 vous souhaitez enregistrer le formulaire PDF et s\u00e9lectionnez Enregistrer (Save)</li>\n\t<li>Rendez-vous \u00e0 l\u2019emplacement o\u00f9 vous avez enregistr\u00e9 le formulaire PDF</li>\n\t<li>Ouvrez le formulaire PDF \u00e0 l\u2019aide d\u2019Adobe Reader\u00ae 10 (ou une version plus r\u00e9cente)</li>\n\t<li>Remplissez et sauvegardez votre formulaire PDF</li>\n\t<li>Soumettre</li>\n</ol>\n\t\n<h5>Instructions pour les utilisateurs de Mac</h5>\n\n<ul>\n\t<li>Appuyez sur la touche Contr\u00f4le (Ctrl) et cliquez sur le PDF</li>\n\t<li>S\u00e9lectionnez T\u00e9l\u00e9charger le fichier (Save link as) ou T\u00e9l\u00e9charger le lien sur le disque (Download linked file as)</li>\n\t<li>Choisissez l\u2019emplacement o\u00f9 vous souhaitez enregistrer le formulaire sur votre ordinateur</li>\n\t<li>Acc\u00e9dez ensuite \u00e0 l\u2019emplacement o\u00f9 vous avez enregistr\u00e9 le formulaire</li>\n\t<li>Ouvrez le formulaire PDF \u00e0 l\u2019aide d\u2019Adobe Reader 10 (ou une version plus r\u00e9cente)</li>\n\t<li>Remplissez et sauvegardez votre formulaire PDF</li>\n\t<li>Soumettre</li>\n</ul>\n\n<p>Les renseignements recueillis sont utiles \u00e0 Agriculture et Agroalimentaire Canada et fournissent des donn\u00e9es essentielles aux d\u00e9cideurs.</p>\n\n<p>Si vous n\u2019\u00eates pas encore inscrit \u00e0 notre liste de diffusion, visiter notre <a href=\"?id=1429884452980\">page des abonn\u00e9s RIA</a> et suivez les instructions pour recevoir des rappels automatiques chaque fois qu\u2019un nouveau sondage est pr\u00eat.</p>\n\n<nav>\n  <h2 class=\"wb-inv\">Navigation du document - pr\u00e9c\u00e9dente-suivante - bas</h2>\n\n<div class=\"row\">\n<div class=\"col-md-12 mrgn-lft-0 mrgn-rght-0\">\n<ul class=\"pager\">\t\n<li class=\"previous\"><a href=\"?id=1516042926178\" rel=\"prev\" title=\"En savoir plus sur RIA\">Pr\u00e9c\u00e9dente</a></li>\t\n<li class=\"next\"><a href=\"?id=1587473392817\" rel=\"next\" title=\"Coordonn\u00e9es\">Suivante</a></li>\t\n</ul>\n</div>\n</div>\n</nav>\n\r\n    "
    }
}