{
    "dcr_id": "1588187049981",
    "title": {
        "en": "Mandatory Isolation Support for Temporary Foreign Workers Program: 14-Day Isolation Period Stream: Step 2. Who is eligible ",
        "fr": "Programme d\u2019aide pour l\u2019isolement obligatoire des travailleurs \u00e9trangers temporaires : Volet P\u00e9riode d\u2019isolement de 14 jours : \u00c9tape 2. Qui est admissible"
    },
    "modified": "2021-05-17",
    "issued": "2020-05-07",
    "templatetype": "content page 1 column",
    "page_type": "0",
    "node_id": "1588248992761",
    "dc_date_created": "2020-05-07",
    "managing_branch": "PAB",
    "parent_node_id": "",
    "short_title": "Step 2. Who is eligible",
    "exturl": "",
    "teamsite_location": {
        "en": "/default/main/AAFC-AAC/Internet-Internet/Group-Ensemble/ProgServ-ProgServ/WORKAREA/ProgServ-ProgServ/templatedata/comm-comm/gene-gene/data/04/misp_2_1588187049981_en",
        "fr": "/default/main/AAFC-AAC/Internet-Internet/Group-Ensemble/ProgServ-ProgServ/WORKAREA/ProgServ-ProgServ/templatedata/comm-comm/gene-gene/data/04/misp_2_1588187049981_fr"
    },
    "type_name": "comm-comm/gene-gene",
    "has_dcr_id": true,
    "label": {
        "en": "Step 2. Who is eligible",
        "fr": "\u00c9tape 2. Qui est admissible"
    },
    "breadcrumb": {
        "en": "Step 2. Who is eligible",
        "fr": "\u00c9tape 2. Qui est admissible"
    },
    "layout_name": "content page 1 column",
    "lang": "en",
    "refaire": false,
    "meta": {
        "viewport": {
            "en": "width=device-width,initial-scale=1",
            "fr": "width=device-width, initial-scale=1"
        },
        "issued": {
            "en": "2020-05-07",
            "fr": "2020-05-07"
        },
        "modified": {
            "en": "2021-05-17",
            "fr": "2021-05-17"
        },
        "format": {
            "en": "text/html",
            "fr": "text/html"
        },
        "title": {
            "en": "Mandatory Isolation Support for Temporary Foreign Workers Program: 14-Day Isolation Period Stream: Step 2. Who is eligible ",
            "fr": "Programme d\u2019aide pour l\u2019isolement obligatoire des travailleurs \u00e9trangers temporaires : Volet P\u00e9riode d\u2019isolement de 14 jours : \u00c9tape 2. Qui est admissible"
        },
        "subject": {
            "en": "architectural heritage;soil assessement;proactive disclosure",
            "fr": "semences-production;\u00e9valuation environnementale strat\u00e9gique;coop\u00e9ratives"
        },
        "dcterms:subject": {
            "en": "trade;architectural heritage;architecture",
            "fr": "s\u00e9curit\u00e9 alimentaire;aliment;coop\u00e9rative"
        },
        "description": {
            "en": "Applicant Guide. Step 1.What this program offers. 7.0 Contact Us. Annex A: Application Process. (This $11 million includes the R&D, Micro Grants and ACB Streams).Cost sharing.",
            "fr": "Guide du demandeur. \u00c9tape 1.En quoi consiste le programme. 5.0\u00a0Facteurs dont il faut tenir compte. Le b\u00e9n\u00e9ficiaire doit \u00eatre une entit\u00e9 juridique en mesure de conclure des ententes juridiquement contraignantes.Le volet de financement de contribution R et D des IAR fournira de l\u2019aide aux b\u00e9n\u00e9ficiaires."
        },
        "language": {
            "en": "eng",
            "fr": "fra"
        },
        "keywords": {
            "en": "disabilities.The;A.Funding",
            "fr": "doutils.Le"
        },
        "audience": {
            "en": "gcaudience",
            "fr": "gcaudience"
        },
        "type": {
            "en": "fact sheet",
            "fr": "avis"
        },
        "creator": {
            "en": "Agriculture and Agri-Food Canada;Government of Canada",
            "fr": "Agriculture et Agroalimentaire Canada;Gouvernement du Canada"
        },
        "spatial": {
            "en": "gcregions",
            "fr": "gcregions"
        },
        "service": {
            "en": "AAFC-AAC",
            "fr": "AAFC-AAC"
        },
        "accessRights": {
            "en": "2",
            "fr": "2"
        },
        "legalName": {
            "en": "agriculture_and_agri_food_canada",
            "fr": "agriculture_et_agroalimentaire_canada"
        },
        "areaServed": {
            "en": "Canada",
            "fr": "Canada"
        }
    },
    "h1": {
        "en": "Mandatory Isolation Support for Temporary Foreign Workers Program: 14-Day Isolation Period Stream: Step 2. Who is eligible",
        "fr": "Programme d\u2019aide pour l\u2019isolement obligatoire des travailleurs \u00e9trangers temporaires : Volet P\u00e9riode d\u2019isolement de 14 jours : \u00c9tape 2. Qui est admissible"
    },
    "js": {
        "en": "",
        "fr": ""
    },
    "body": {
        "en": "\r\n    <div class=\"mrgn-tp-md mrgn-bttm-lg brdr-bttm\">\n\n<div class=\"row\">\n<ul class=\"toc lst-spcd col-md-12 list-unstyled\">\n<li class=\"col-md-4 col-sm-6\"><span class=\"list-group-item\">Step 1. <a href=\"?id=1588186409721\">What this program offers</a></span></li>\n\n<li class=\"col-md-4 col-sm-6\"><span class=\"list-group-item active\">Step 2. Who is eligible</span></li>\n\n<li class=\"col-md-4 col-sm-6\"><span class=\"list-group-item\">Step 3. <a href=\"?id=1588187120150\">How to apply</a></span></li>\n\t\n<li class=\"col-md-4 col-sm-6\"><span class=\"list-group-item\">Step 4. <a href=\"?id=1588187208093\">After you apply</a></span></li>\t\n\n<li class=\"col-md-4 col-sm-6\"><span class=\"list-group-item\"><a href=\"?id=1588187388374\">Applicant guide</a></span></li>\n\n<li class=\"col-md-4 col-sm-6\"><span class=\"list-group-item\"><a href=\"?id=1588245410631\">Contact information</a></span></li>\n</ul>\n</div>\n</div>\n\n<h2>Step 2. Who is eligible</h2>\n\n<p>Eligible recipients are:</p>\n<ul>\n <li>Canadian employers directly involved in the farming, fish harvesting, and food production and processing sectors who have hired workers through the various streams of the Temporary Foreign Workers Program and/or the International Mobility Program and whose workers were subject to the mandatory 14-day isolation period imposed under the <a href=\"https://laws-lois.justice.gc.ca/eng/acts/q-1.1/page-1.html\"><cite>Quarantine Act</cite></a>.</li>\n</ul>\n\n\n<p><b>Eligible activities</b> are of the following nature and type:</p>\n<ul>\n <li>wages and benefits of the temporary foreign workers during the mandatory 14-day isolation period</li>\n <li>off-site accommodations during the mandatory 14-day isolation period</li>\n <li>transportation to and from off-site accommodations required during the mandatory 14-day isolation period</li>\n <li>food or a food allowance during the mandatory 14-day isolation period</li>\n <li>health and safety supplies such as gloves, masks, hand sanitizer, disinfectant cleaners and soaps required for the mandatory 14-day isolation period</li>\n <li>cost of the pre-boarding COVID-19 test as required in support of the <a href=\"https://laws-lois.justice.gc.ca/eng/acts/q-1.1/page-1.html\"><cite>Quarantine Act</cite></a></li>\n <li>other incremental costs directly associated to the 14-day mandatory isolation period imposed on temporary foreign workers under the <cite>Quarantine Act</cite>\n</li></ul>\n\n<p>All eligible activities under the 14-Day Isolation Period Stream must be associated with TFWs who arrive between January 1, 2021 and August 31, 2021 and must take place between January 1, 2021 and September 14, 2021, and within the timeframe specified for pre-entry testing requirements and the mandatory 14-day isolation period imposed under the <a href=\"https://laws-lois.justice.gc.ca/eng/acts/q-1.1/page-1.html\"><cite>Quarantine Act</cite></a>. </p>\n<p>Employers must comply with the mandatory 14-day isolation protocols, any other public health order and the regulations of the Temporary Foreign Workers Program and/or the International Mobility Program for the duration of the 14-day isolation period. Employers must also comply with regulations concerning wages and other employment conditions of the program or stream they hired their temporary foreign workers through (for example, Seasonal Agricultural Worker Program, Temporary Foreign Worker Program) during the mandatory 14-day isolation period.</p>\n<div class=\"well\">\n <p>Should Agriculture and Agri-Food Canada become aware of an employer breaching any part of those requirements, the recipient will no longer be eligible for the funding. Any amounts already paid to the recipient will become repayable debts to the Crown.</p>\n</div>\n\n<nav>\n <h2 class=\"wb-inv\">Previous-next document navigation - bottom</h2>\n\n<div class=\"row\">\n<div class=\"col-md-12 mrgn-lft-0 mrgn-rght-0\">\n<ul class=\"pager\">\t\n<li class=\"previous\"><a href=\"?id=1588186409721\" rel=\"prev\" title=\"What this program offers\">Previous</a></li>\t\n<li class=\"next\"><a href=\"?id=1588187120150\" rel=\"next\" title=\"How to apply\">Next</a></li>\t\n</ul>\n</div>\n</div>\n</nav>\n\r\n    ",
        "fr": "\r\n    <div class=\"mrgn-tp-md mrgn-bttm-lg brdr-bttm\">\n\n<div class=\"row\">\n<ul class=\"toc lst-spcd col-md-12 list-unstyled\">\n<li class=\"col-md-4 col-sm-6\"><span class=\"list-group-item\">\u00c9tape 1. <a href=\"?id=1588186409721\">Ce qu\u2019offre ce programme</a></span></li>\n\n<li class=\"col-md-4 col-sm-6\"><span class=\"list-group-item active\">\u00c9tape 2. Qui est admissible</span></li>\n\n<li class=\"col-md-4 col-sm-6\"><span class=\"list-group-item\">\u00c9tape 3. <a href=\"?id=1588187120150\">Comment pr\u00e9senter une demande</a></span></li>\n\t\n<li class=\"col-md-4 col-sm-6\"><span class=\"list-group-item\">\u00c9tape 4. <a href=\"?id=1588187208093\">Apr\u00e8s avoir pr\u00e9sent\u00e9 votre demande</a></span></li>\t\n\n<li class=\"col-md-4 col-sm-6\"><span class=\"list-group-item\"><a href=\"?id=1588187388374\">Guide du demandeur</a></span></li>\n\n<li class=\"col-md-4 col-sm-6\"><span class=\"list-group-item\"><a href=\"?id=1588245410631\">Pour nous joindre</a></span></li>\n</ul>\n</div>\n</div>\n\n<h2>\u00c9tape 2. Qui est admissible</h2>\n\n<p>Les b\u00e9n\u00e9ficiaires admissibles sont\u00a0:</p>\n\n<ul>\n <li>des employeurs des secteurs de l'agriculture, des p\u00eaches et de la production et transformation alimentaire qui ont embauch\u00e9 des travailleurs par les divers volets du Programme des travailleurs \u00e9trangers temporaires et/ou le Programme de mobilit\u00e9 internationale et dont les travailleurs en cause sont vis\u00e9s par la p\u00e9riode d'isolement obligatoire de 14\u00a0jours en vertu de la <a href=\"https://laws-lois.justice.gc.ca/fra/lois/q-1.1/page-1.html\"><cite>Loi sur la mise en quarantaine</cite></a>. </li>\n</ul>\n\n<p>Voici les types de <b>frais admissibles</b>\u00a0:</p>\n<ul>\n  <li>les salaires et avantages sociaux des travailleurs \u00e9trangers temporaires pendant la p\u00e9riode d'isolement obligatoire de 14\u00a0jours;</li>\n <li>l'h\u00e9bergement hors site pendant la p\u00e9riode d'isolement obligatoire de 14\u00a0jours;</li>\n <li>le transport vers et depuis l'h\u00e9bergement hors site requis pendant la p\u00e9riode d'isolement obligatoire de 14\u00a0jours;</li>\n <li>la nourriture ou une allocation de repas pendant la p\u00e9riode d'isolement obligatoire de 14\u00a0jours;</li>\n <li>des fournitures de sant\u00e9 et de s\u00e9curit\u00e9 tels que des gants, des masques, des nettoyants, des d\u00e9sinfectants pour les mains et des savons pendant la p\u00e9riode d'isolement obligatoire de 14\u00a0jours;</li>\n <li>le co\u00fbt du d\u00e9pistage de la COVID-19 avant l\u2019embarquement comme exig\u00e9 \u00e0 l\u2019appui de la <cite>Loi sur la mise en quarantaine</cite>;</li>\n <li>autres co\u00fbts diff\u00e9rentiels directement associ\u00e9s \u00e0 la p\u00e9riode d'isolement obligatoire de 14\u00a0jours impos\u00e9e aux travailleurs \u00e9trangers temporaires en vertu de la <a href=\"https://laws-lois.justice.gc.ca/fra/lois/q-1.1/page-1.html\"><cite>Loi sur la mise en quarantaine</cite></a>.</li>\n</ul>\n\n\n<p>Toutes les activit\u00e9s admissibles dans le cadre du volet P\u00e9riode d\u2019isolement de 14\u00a0jours doivent \u00eatre associ\u00e9es aux travailleurs \u00e9trangers temporaires qui arrivent entre le 1er\u00a0janvier\u00a02021 et le 31\u00a0ao\u00fbt\u00a02021 et doivent avoir lieu entre le 1er\u00a0janvier\u00a02021 et le 14\u00a0septembre\u00a02021, et se tenir dans les d\u00e9lais prescrits des exigences de test de d\u00e9pistage pr\u00e9alable \u00e0 l\u2019entr\u00e9e et la p\u00e9riode d\u2019isolement obligatoire de 14\u00a0jours impos\u00e9e en vertu de la <a href=\"https://laws-lois.justice.gc.ca/fra/lois/q-1.1/page-1.html\"><cite>Loi sur la mise en quarantaine</cite></a>.</p>\n<p> Les employeurs doivent se conformer aux protocoles d'isolement obligatoire de 14\u00a0jours, \u00e0 tout autre ordre de sant\u00e9 publique et aux r\u00e8glements du Programme des travailleurs \u00e9trangers temporaires et/ou le Programme de mobilit\u00e9 internationale pendant la dur\u00e9e de la p\u00e9riode d'isolement de 14\u00a0jours. Les employeurs doivent \u00e9galement se conformer aux r\u00e9glementations concernant les salaires et les autres conditions d'emploi du programme ou de la fili\u00e8re par laquelle ils ont embauch\u00e9 leurs travailleurs \u00e9trangers temporaires (par exemple, le Programme des travailleurs agricoles saisonniers, le Programme des travailleurs \u00e9trangers temporaires) pendant l'isolement obligatoire de 14\u00a0jours.</p>\n<div class=\"well\">\n <p>Si Agriculture et Agroalimentaire Canada apprend qu'un employeur enfreint une partie de ces exigences, le b\u00e9n\u00e9ficiaire ne sera plus admissible au financement. Tout montant d\u00e9j\u00e0 vers\u00e9 au b\u00e9n\u00e9ficiaire deviendra une dette remboursable \u00e0 l'\u00c9tat.</p>\n</div>\n\n<nav>\n <h2 class=\"wb-inv\">Navigation du document - pr\u00e9c\u00e9dente-suivante - bas</h2>\n\n<div class=\"row\">\n<div class=\"col-md-12 mrgn-lft-0 mrgn-rght-0\">\n<ul class=\"pager\">\t\n<li class=\"previous\"><a href=\"?id=1588186409721\" rel=\"prev\" title=\"Ce qu\u2019offre ce programme\">Pr\u00e9c\u00e9dente</a></li>\t\n<li class=\"next\"><a href=\"?id=1588187120150\" rel=\"next\" title=\"Comment pr\u00e9senter une demande\">Suivante</a></li>\t\n</ul>\n</div>\n</div>\n</nav>\n\r\n    "
    }
}