{
    "dcr_id": "1596026122890",
    "title": {
        "en": "Funding available to help food processors ensure capacity of Canadian made foods ",
        "fr": "Financement pour aider les transformateurs \u00e0 maintenir la capacit\u00e9 de production d\u2019aliments au Canada"
    },
    "modified": "2020-09-28",
    "issued": "2020-07-30",
    "templatetype": "content page 1 column",
    "page_type": "0",
    "node_id": "1613744537543",
    "dc_date_created": "2020-07-30",
    "managing_branch": "PAB",
    "parent_node_id": "",
    "short_title": "",
    "exturl": "",
    "teamsite_location": {
        "en": "/default/main/AAFC-AAC/Internet-Internet/CCB-DGCC/WORKAREA/CCB-DGCC/templatedata/comm-comm/gene-gene/data/funding-available-to-help-food-processors-ensure-capacity-of-canadian-made-foods_1596026122890_en",
        "fr": "/default/main/AAFC-AAC/Internet-Internet/CCB-DGCC/WORKAREA/CCB-DGCC/templatedata/comm-comm/gene-gene/data/funding-available-to-help-food-processors-ensure-capacity-of-canadian-made-foods_1596026122890_fr"
    },
    "type_name": "comm-comm/gene-gene",
    "has_dcr_id": true,
    "label": {
        "en": "Funding available to help food processors ensure capacity of Canadian made foods ",
        "fr": "Financement pour aider les transformateurs \u00e0 maintenir la capacit\u00e9 de production d\u2019aliments au Canada"
    },
    "breadcrumb": {
        "en": "Funding available to help food processors ensure capacity of Canadian made foods ",
        "fr": "Financement pour aider les transformateurs \u00e0 maintenir la capacit\u00e9 de production d\u2019aliments au Canada"
    },
    "layout_name": "content page 1 column",
    "lang": "en",
    "refaire": false,
    "meta": {
        "viewport": {
            "en": "width=device-width,initial-scale=1",
            "fr": "width=device-width, initial-scale=1"
        },
        "issued": {
            "en": "2020-07-30",
            "fr": "2020-07-30"
        },
        "modified": {
            "en": "2020-09-28",
            "fr": "2020-09-28"
        },
        "format": {
            "en": "gcformat",
            "fr": "gcformat"
        },
        "title": {
            "en": "Funding available to help food processors ensure capacity of Canadian made foods ",
            "fr": "Financement pour aider les transformateurs \u00e0 maintenir la capacit\u00e9 de production d\u2019aliments au Canada"
        },
        "subject": {
            "en": "technology transfer;architectural heritage;soil assessement",
            "fr": "graines de l'alpiste des canaries;Gestion des risques de l'entreprise;produits avicoles"
        },
        "dcterms:subject": {
            "en": "statistics;architectural heritage;architecture",
            "fr": "ressources p\u00e9dagogiques;engrais;\u00e9conomie agricole"
        },
        "description": {
            "en": "Binder 3: Who we are and what we do Ministerial Transition Books - Binder 3. Who we are and what we do. and the. Canadian Dairy Commission Act. . The. Plant Breeders Rights Act. governs the intellectual property rights associated with plant breeds and breeding.Authorities for administrative monetary penalties.",
            "fr": "Comit\u00e9 permanent de l'agriculture et de l'agroalimentaire. Les consultations de l\u2019OMC entre le Canada et la Chine ont eu lieu en octobre 2019 \u00e0 Gen\u00e8ve. Les politiques \u00e0 long terme cadreront avec les obligations du Canada en mati\u00e8re de commerce international et elles favoriseront la durabilit\u00e9 du r\u00e9gime de gestion de l\u2019offre.Dans le cadre de ce processus inclusif, des consultations seront men\u00e9es en deux phases (dont une a d\u00e9j\u00e0 \u00e9t\u00e9 r\u00e9alis\u00e9e) aupr\u00e8s des intervenants \u00e0 l\u2019\u00e9chelle de la cha\u00eene de valeur (c\u2019est-\u00e0-dire, transformateurs, distributeurs, transformateurs de second cycle, etc.).Le gouvernement examinera tous les commentaires re\u00e7us et tiendra compte de la conjoncture \u00e9conomique.En cas de questions sur les consultations aupr\u00e8s des intervenants."
        },
        "language": {
            "en": "eng",
            "fr": "fra"
        },
        "keywords": {
            "en": "investments.All",
            "fr": "connexes.Communications;ant\u00e9rieure.Agent;admissibles.Contribution"
        },
        "audience": {
            "en": "gcaudience",
            "fr": "gcaudience"
        },
        "type": {
            "en": "program-service description",
            "fr": "l\u00e9gislation et r\u00e9glements"
        },
        "creator": {
            "en": "Agriculture and Agri-Food Canada",
            "fr": "Agriculture et Agroalimentaire Canada"
        },
        "spatial": {
            "en": "gcregions",
            "fr": "gcregions"
        },
        "service": {
            "en": "AAFC-AAC",
            "fr": "AAFC-AAC"
        },
        "accessRights": {
            "en": "2",
            "fr": "2"
        },
        "legalName": {
            "en": "agriculture_and_agri_food_canada",
            "fr": "agriculture_et_agroalimentaire_canada"
        },
        "areaServed": {
            "en": "Canada",
            "fr": "Canada"
        }
    },
    "h1": {
        "en": "Funding available to help food processors ensure capacity of Canadian made foods",
        "fr": "Financement pour aider les transformateurs \u00e0 maintenir la capacit\u00e9 de production d\u2019aliments au Canada"
    },
    "js": {
        "en": "",
        "fr": ""
    },
    "body": {
        "en": "\r\n    <p><img src=\"http://multimedia.agr.gc.ca/pack/img/EPF-EN-Agri-info%20FeatureButton.jpg\" class=\"pull-right mrgn-lft-lg img-responsive thumbnail mrgn-bttm-sm\" alt=\"\"></p>\n\n<p>The <a href=\"?id=1591291974693\">Emergency Processing Fund</a> was designed to support food companies in Canada as they adapt to the new challenges brought about by Covid-19 to implement measures and make rapid changes to the way they worked to safeguard their employees.</p>\n\n<p>The Emergency Processing Fund provides:</p>\n\n<ul>\n  <li><b>Emergency COVID Response</b> -funding to help food processors implement changes to safeguard the health and safety of workers, their families, and communities. This can include changes to assembly lines, personal protective equipment's and other measures. </li>\n  <li><b>Strategic Investments</b> - funding to help food processors improve, automate and modernize their facilities to increase Canada's food processing capacity.</li>\n</ul>\n\n<p>The program provides funding to agricultural food processing or manufacturing organizations. Up to $5 million can be provided to help enhance worker health and safety and for domestic food processing capacity. </p>\n\n<p>Eligible organizations include:</p>\n\n<ul>\n<li>For profit organizations that are incorporated in Canada (i.e. businesses and/or corporations, cooperatives, Indigenous groups);</li>\n<li>Legal entities capable of entering into a legally binding agreement;</li>\n<li> Companies in operation for at least two (2) years; and who are involved in agricultural food processing or manufacturing in Canada.</li>\n</ul>\n\r\n    ",
        "fr": "\r\n    <p><img src=\"http://multimedia.agr.gc.ca/pack/img/EPF-FR-Agri-info%20FeatureButton.jpg\" class=\"pull-right mrgn-lft-lg img-responsive thumbnail mrgn-bttm-sm\" alt=\"\"></p>\n\n<p>Le <a href=\"?id=1591291974693\">Fonds d'urgence pour la transformation</a> a \u00e9t\u00e9 con\u00e7u pour aider les entreprises alimentaires du Canada \u00e0 s'adapter aux nouveaux d\u00e9fis pos\u00e9s par la COVID-19 en mettant en \u0153uvre des mesures et en apportant rapidement des changements \u00e0 leur fa\u00e7on de travailler afin de prot\u00e9ger leurs employ\u00e9s.</p>\n\n<p>Le Fonds d'urgence pour la transformation comprend\u00a0:</p>\n\n<ul>\n  <li><b>Intervention d'urgence li\u00e9e \u00e0 la COVID</b> - financement pour aider les transformateurs d'aliments \u00e0 apporter des changements afin de prot\u00e9ger la sant\u00e9 et la s\u00e9curit\u00e9 des travailleurs, de leurs familles et de la communaut\u00e9. Il peut s'agir notamment de changements aux cha\u00eenes de montage, d'\u00e9quipement de protection individuelle et d'autres mesures.</li>\n  <li><b>Investissements strat\u00e9giques </b>- financement pour aider les transformateurs d'aliments \u00e0 am\u00e9liorer, \u00e0 automatiser et \u00e0 moderniser leurs installations afin d'accro\u00eetre la capacit\u00e9 de transformation alimentaire du Canada. </li>\n</ul>\n\n<p>Le programme offre une aide financi\u00e8re aux transformateurs et aux fabricants de produits agricoles. Jusqu'\u00e0 5 millions de dollars peuvent \u00eatre vers\u00e9s pour am\u00e9liorer la sant\u00e9 et la s\u00e9curit\u00e9 des travailleurs et accro\u00eetre la capacit\u00e9 de transformation des aliments au Canada.</p>\n\n<ul>\n  <li>Les organisations admissibles sont les suivantes\u00a0:</li>\n  <li>Organisations \u00e0 but lucratif constitu\u00e9es en personne morale au Canada (c.-\u00e0-d. entreprises et soci\u00e9t\u00e9s, coop\u00e9ratives, groupes autochtones);</li>\n  <li>Entit\u00e9s juridiques habilit\u00e9es \u00e0 conclure des ententes ayant force ex\u00e9cutoire;</li>\n  <li>Entreprises en exploitation depuis au moins deux (2) ans qui participent \u00e0 la transformation ou \u00e0 la fabrication de produits agricoles au Canada.</li>\n</ul>\n\r\n    "
    }
}