{
    "dcr_id": "1596147344824",
    "title": {
        "en": "Scale-up and release of Diadromus pulchellus, a biological control agent of leek moth, and knowledge transfer of an Integrated Pest Management toolbox to growers ",
        "fr": "Hausse de la production et des l\u00e2chers de Diadromus pulchellus, agent de lutte biologique contre la teigne du poireau, et transfert d\u2019une trousse d\u2019outils de lutte int\u00e9gr\u00e9e aux producteurs "
    },
    "modified": "2020-07-31",
    "issued": "2020-07-31",
    "templatetype": "content page 1 column",
    "page_type": "0",
    "node_id": "1535122427752",
    "dc_date_created": "2020-07-31",
    "managing_branch": "PAB",
    "parent_node_id": "",
    "short_title": "",
    "exturl": "",
    "teamsite_location": {
        "en": "/default/main/AAFC-AAC/Internet-Internet/Group-Ensemble/ProgServ-ProgServ/WORKAREA/ProgServ-ProgServ/templatedata/comm-comm/gene-gene/data/07/stb19-020_1596147344824_en",
        "fr": "/default/main/AAFC-AAC/Internet-Internet/Group-Ensemble/ProgServ-ProgServ/WORKAREA/ProgServ-ProgServ/templatedata/comm-comm/gene-gene/data/07/stb19-020_1596147344824_fr"
    },
    "type_name": "comm-comm/gene-gene",
    "has_dcr_id": true,
    "label": {
        "en": "Scale-up and release of Diadromus pulchellus, a biological control agent of leek moth, and knowledge transfer of an Integrated Pest Management toolbox to growers ",
        "fr": "Hausse de la production et des l\u00e2chers de Diadromus pulchellus, agent de lutte biologique contre la teigne du poireau, et transfert d\u2019une trousse d\u2019outils de lutte int\u00e9gr\u00e9e aux producteurs "
    },
    "breadcrumb": {
        "en": "Scale-up and release of Diadromus pulchellus, a biological control agent of leek moth, and knowledge transfer of an Integrated Pest Management toolbox to growers ",
        "fr": "Hausse de la production et des l\u00e2chers de Diadromus pulchellus, agent de lutte biologique contre la teigne du poireau, et transfert d\u2019une trousse d\u2019outils de lutte int\u00e9gr\u00e9e aux producteurs "
    },
    "layout_name": "content page 1 column",
    "lang": "en",
    "refaire": false,
    "meta": {
        "viewport": {
            "en": "width=device-width,initial-scale=1",
            "fr": "width=device-width, initial-scale=1"
        },
        "issued": {
            "en": "2020-07-31",
            "fr": "2020-07-31"
        },
        "modified": {
            "en": "2020-07-31",
            "fr": "2020-07-31"
        },
        "format": {
            "en": "text/html",
            "fr": "text/html"
        },
        "title": {
            "en": "Scale-up and release of Diadromus pulchellus, a biological control agent of leek moth, and knowledge transfer of an Integrated Pest Management toolbox to growers ",
            "fr": "Hausse de la production et des l\u00e2chers de Diadromus pulchellus, agent de lutte biologique contre la teigne du poireau, et transfert d\u2019une trousse d\u2019outils de lutte int\u00e9gr\u00e9e aux producteurs "
        },
        "subject": {
            "en": "innovation;soil assessement;isolated communities",
            "fr": "maladie de la vache folle;pommes de terre-producteurs;pois chiches"
        },
        "dcterms:subject": {
            "en": "biological products;biology;isolated communities",
            "fr": "m\u00e9dicament;aide \u00e0 l'agriculture;grain"
        },
        "description": {
            "en": "An Integrated Approach to Management of Leek Moth: 10 years of collaborative research, development and knowledge transfer. Together these tools form a multipronged, reduced risk, integrated pest management approach.Decision Support Tools: Monitoring System. D. pulchellus. adults were released from 2010-2012, from the time of the first generation of leek moth until the end of the season (Figure 7). Recoveries documented survival of.",
            "fr": "Code de projet : PRR10-030. Chef de projet. Des pi\u00e8ges \u00e0 ph\u00e9romone ont \u00e9t\u00e9 utilis\u00e9s pour suivre les d\u00e9placements et les populations de teignes du poireau adultes durant la saison de croissance. ont \u00e9t\u00e9 rel\u00e2ch\u00e9s pendant la dur\u00e9e du projet.Les taux de r\u00e9cup\u00e9ration ont permis de documenter la survie du."
        },
        "language": {
            "en": "eng",
            "fr": "fra"
        },
        "keywords": {
            "en": "products.Biological;minimum-maximum;approach.Decision",
            "fr": "approuv\u00e9e.Cet"
        },
        "audience": {
            "en": "gcaudience",
            "fr": "gcaudience"
        },
        "type": {
            "en": "geospatial material",
            "fr": "accord"
        },
        "creator": {
            "en": "Agriculture and Agri-Food Canada;Government of Canada",
            "fr": "Agriculture et Agroalimentaire Canada;Gouvernement du Canada"
        },
        "spatial": {
            "en": "gcregions",
            "fr": "gcregions"
        },
        "service": {
            "en": "AAFC-AAC",
            "fr": "AAFC-AAC"
        },
        "accessRights": {
            "en": "2",
            "fr": "2"
        },
        "legalName": {
            "en": "agriculture_and_agri_food_canada",
            "fr": "agriculture_et_agroalimentaire_canada"
        },
        "areaServed": {
            "en": "Canada",
            "fr": "Canada"
        }
    },
    "h1": {
        "en": "Scale-up and release of Diadromus pulchellus, a biological control agent of leek moth, and knowledge transfer of an Integrated Pest Management toolbox to growers",
        "fr": "Hausse de la production et des l\u00e2chers de Diadromus pulchellus, agent de lutte biologique contre la teigne du poireau, et transfert d\u2019une trousse d\u2019outils de lutte int\u00e9gr\u00e9e aux producteurs"
    },
    "js": {
        "en": "",
        "fr": ""
    },
    "body": {
        "en": "\r\n    <h2>Project Code STB19-020</h2>\n\n<h3>Project Lead</h3>\n\n<p>Kathryn Makela and Jacob Miall, Agriculture and Agri-Food Canada</p>\n\n<h3>Objective</h3>\n\n<p><b>To improve control of leek moth in Ontario and Quebec allium growing regions by increasing populations of the biological control agent <i>Diadromus pulchellus</i> and disseminating Integrated Pest Management (IPM) information to growers</b></p>\n\n<p>The leek moth, <i>Acrolepiopsis assectella</i>, is an invasive alien species from Europe that causes damage to alliums crops, including onions, leeks and garlic. Allium production in Canada serves an important and growing market. For instance, the farm gate value of garlic increased from $1.67 million (M) to over $15M between 2003 and 2017 and dry onion farm gate value doubled from $45M to $91M over the same time period. Leek moth larva cause damage by burrowing into the leaf, weakening and withering the plant, while also providing the opportunity for secondary infections. Leek moth was first detected in Eastern Ontario in 1993 and has since rapidly expanded its range into some counties in southwestern Ontario, Quebec, on Prince Edward Island, in Nova Scotia and the US. CLIMEX models predict that eastern North America (where it is already present), as well as parts of Mexico, Oregon, Washington, British Columbia, and central Alberta are all suitable for leek moth survival. Furthermore, climate change is expected to intensify the problem, as it has been documented that more generations of the pest within a growing season results in greater damage to the crop, rendering later season crops unmarketable. Through previous work carried out by Agriculture and Agri-Food Canada researchers (PRR03-360 and MU03-ENT2), tools contributing to an IPM approach for leek moth were developed. These include the discovery, and initial release of the biological control agent <i>Diadromus pulchellus</i>, the development of a degree day model, knowledge about the use of row covers, identification and monitoring techniques, as well as testing of biopesticides.</p>\n\n<p>This 2-year project will put into operation a multi-pronged, integrated approach to slowing the spread and reducing damage from leek moth in allium producing areas of Ontario and Quebec. Activities will include: scaled up production and releases of the biological control agent <i>D. pulchellus</i> in Ontario and Quebec; packaging of tools and knowledge about leek moth management into accessible formats; and knowledge transfer and dissemination activities such as presentations at grower meetings, articles in grower publications, online webinars and distribution of USB cards loaded with key elements of an IPM program for leek moth management, to increase awareness within the sector.</p>\n\n<p>It is anticipated that implementation of an effective biological control agent in allium-producing regions before leek moth populations reach economically damaging levels could mitigate their capacity to harm the industry. The availability of a proven IPM program will also reduce risks to the environment, by providing an alternative to a chemical, calendar based spray program while protecting the biodiversity of native alliums. </p>\n\r\n    ",
        "fr": "\r\n    <h2>Code du projet STB19-020</h2>\n\n<h3>Chef de projet</h3>\n\n<p>Kathryn Makela et Jacob Miall, Agriculture et Agroalimentaire Canada</p>\n\n<h3>Objectif</h3>\n\n<p><b>Am\u00e9liorer les mesures de lutte contre la teigne du poireau dans les r\u00e9gions de culture de l'allium en Ontario et au Qu\u00e9bec en augmentant les populations de l'agent de lutte biologique <i>Diadromus pulchellus</i> et en diffusant des informations sur la lutte int\u00e9gr\u00e9e contre les parasites aupr\u00e8s des producteurs</b></p>\n\n<p>La teigne du poireau (<i>Acrolepiopsis assectella</i>) est une esp\u00e8ce exotique envahissante provenant d\u2019Europe. Elle s\u2019attaque aux plantes de la famille des Alliac\u00e9es, dont l\u2019oignon, le poireau et l\u2019ail. Au Canada, la production d\u2019Alliac\u00e9es repr\u00e9sente un march\u00e9 important et en croissance. Par exemple, la valeur \u00e0 la ferme de l\u2019ail est pass\u00e9e de 1,67 millions (M) de dollars ($) en 2003 \u00e0 plus de 15\u00a0M$ en 2017, et celle des oignons de conservation a doubl\u00e9 au cours de la m\u00eame p\u00e9riode, passant de 45 M$ \u00e0 91\u00a0M$. Les chenilles de la teigne du poireau creusent des galeries dans les feuilles, ce qui affaiblit les plantes et entra\u00eene leur d\u00e9p\u00e9rissement, en plus d\u2019ouvrir la porte \u00e0 des infections secondaires. La teigne du poireau a \u00e9t\u00e9 d\u00e9tect\u00e9e pour la premi\u00e8re fois au Canada dans l\u2019est de l\u2019Ontario, en 1993, et s\u2019est ensuite r\u00e9pandue rapidement dans certains comt\u00e9s du sud-ouest de l\u2019Ontario, au Qu\u00e9bec, dans l\u2019\u00cele-du-Prince-\u00c9douard, en Nouvelle-\u00c9cosse et aux \u00c9tats-Unis. Selon les mod\u00e8les CLIMEX, l\u2019est de l\u2019Am\u00e9rique du Nord (o\u00f9 l\u2019esp\u00e8ce est d\u00e9j\u00e0 pr\u00e9sente) ainsi que certaines parties du Mexique, l\u2019Oregon, l\u2019\u00c9tat de Washington, la Colombie-Britannique et le centre le l\u2019Alberta sont des r\u00e9gions propices \u00e0 la survie de la teigne du poireau. En outre, on anticipe que les changements climatiques entra\u00eeneront une intensification du probl\u00e8me, en permettant une hausse du nombre de g\u00e9n\u00e9rations se succ\u00e9dant au cours d\u2019une saison de croissance; l\u2019esp\u00e8ce causera ainsi des dommages accrus aux plantes cultiv\u00e9es et rendra les cultures tardives invendables. Des outils destin\u00e9s \u00e0 une approche de lutte int\u00e9gr\u00e9e contre la teigne du poireau ont \u00e9t\u00e9 \u00e9labor\u00e9s dans le cadre de pr\u00e9c\u00e9dents travaux men\u00e9s par les chercheurs d\u2019Agriculture et Agroalimentaire Canada (PRR03-360 et MU03-ENT2). Ces travaux ont permis la d\u00e9couverte du <i>Diadromus pulchellus</i>, les premiers l\u00e2chers de cet agent de lutte biologique, la mise au point d\u2019un mod\u00e8le de degr\u00e9s-jours, l\u2019acquisition de connaissances sur l\u2019utilisation des couvertures flottantes, la mise au point de techniques d\u2019identification et de suivi ainsi que la mise \u00e0 l\u2019essai de biopesticides.</p>\n\n<p>Dans le cadre du pr\u00e9sent projet de deux ans, une approche int\u00e9gr\u00e9e \u00e0 volets multiples sera mise en \u0153uvre pour ralentir la propagation de la teigne du poireau et r\u00e9duire les dommages que celle-ci cause dans les zones de production d\u2019Alliac\u00e9es en Ontario et au Qu\u00e9bec. Les activit\u00e9s r\u00e9alis\u00e9es seront les suivantes : hausse de la production et des l\u00e2cher de l\u2019agent de lutte biologique <i>D. pulchellus</i> en Ontario et au Qu\u00e9bec; cr\u00e9ation de trousses d\u2019outils et de connaissances sur la lutte contre la teigne du poireau, en formats accessibles; transfert de connaissances et activit\u00e9s de diffusion, notamment des pr\u00e9sentations \u00e0 l\u2019occasion de r\u00e9unions de producteurs, des articles dans des publications destin\u00e9es aux producteurs, des webinaires en ligne et la distribution de cl\u00e9s USB comprenant les principaux \u00e9l\u00e9ments du programme de lutte int\u00e9gr\u00e9e contre la teigne du poireau, pour rehausser le niveau de sensibilisation au sein du secteur.</p>\n\n<p>L\u2019utilisation d\u2019un agent de lutte biologique efficace dans les r\u00e9gions productrices d\u2019Alliac\u00e9es avant que les populations de teigne du poireau y atteignent un niveau causant des pertes \u00e9conomiques pourrait permettre d\u2019att\u00e9nuer les risques que cet organisme nuise \u00e0 l\u2019industrie. De plus, un tel programme de lutte int\u00e9gr\u00e9e \u00e9prouv\u00e9 permettra de r\u00e9duire les risques pour l\u2019environnement, en offrant une m\u00e9thode de remplacement aux programmes de lutte chimique fond\u00e9s sur un calendrier et en prot\u00e9geant la biodiversit\u00e9 des esp\u00e8ces d\u2019Alliac\u00e9es indig\u00e8nes. </p>\n \n\r\n    "
    }
}