{
    "dcr_id": "1596030501388",
    "title": {
        "en": "New web portal points ag businesses to key financial supports ",
        "fr": "Nouveau portail Web pour aider les agroentreprises \u00e0 avoir acc\u00e8s \u00e0 l\u2019information sur les principales mesures de soutien financier "
    },
    "modified": "2020-07-30",
    "issued": "2020-07-30",
    "templatetype": "content page 1 column",
    "page_type": "0",
    "node_id": "1613744537543",
    "dc_date_created": "2020-07-30",
    "managing_branch": "PAB",
    "parent_node_id": "",
    "short_title": "",
    "exturl": "",
    "teamsite_location": {
        "en": "/default/main/AAFC-AAC/Internet-Internet/CCB-DGCC/WORKAREA/CCB-DGCC/templatedata/comm-comm/gene-gene/data/new-web-porta-points-ag-businesses-to-key-financial-supports_1596030501388_en",
        "fr": "/default/main/AAFC-AAC/Internet-Internet/CCB-DGCC/WORKAREA/CCB-DGCC/templatedata/comm-comm/gene-gene/data/new-web-porta-points-ag-businesses-to-key-financial-supports_1596030501388_fr"
    },
    "type_name": "comm-comm/gene-gene",
    "has_dcr_id": true,
    "label": {
        "en": "New web portal points ag businesses to key financial supports ",
        "fr": "Nouveau portail Web pour aider les agroentreprises \u00e0 avoir acc\u00e8s \u00e0 l\u2019information sur les principales mesures de soutien financier "
    },
    "breadcrumb": {
        "en": "New web portal points ag businesses to key financial supports ",
        "fr": "Nouveau portail Web pour aider les agroentreprises \u00e0 avoir acc\u00e8s \u00e0 l\u2019information sur les principales mesures de soutien financier "
    },
    "layout_name": "content page 1 column",
    "lang": "en",
    "refaire": false,
    "meta": {
        "viewport": {
            "en": "width=device-width,initial-scale=1",
            "fr": "width=device-width, initial-scale=1"
        },
        "issued": {
            "en": "2020-07-30",
            "fr": "2020-07-30"
        },
        "modified": {
            "en": "2020-07-30",
            "fr": "2020-07-30"
        },
        "format": {
            "en": "gcformat",
            "fr": "gcformat"
        },
        "title": {
            "en": "New web portal points ag businesses to key financial supports ",
            "fr": "Nouveau portail Web pour aider les agroentreprises \u00e0 avoir acc\u00e8s \u00e0 l\u2019information sur les principales mesures de soutien financier "
        },
        "subject": {
            "en": "poultry farming;architectural heritage;soil assessement",
            "fr": "huile de canola;industrie laiti\u00e8re;gouvernement f\u00e9d\u00e9ral"
        },
        "dcterms:subject": {
            "en": "architectural heritage;architecture;agriculture",
            "fr": "commerce int\u00e9rieur;coop\u00e9rative;viande"
        },
        "description": {
            "en": "Ministerial appearance. May\u00a012, 2020. Table of Contents. provided over $1.5 billion. in support to farmers annually, and will. .Stabilizes. and re-energizes our continental. trading partnership.",
            "fr": "Formats de rechange. Table des mati\u00e8res. \u00a0avril 2012 au 31\u00a0mars 2013.Activit\u00e9s de la Commission. La Commission repr\u00e9sente un processus juridique informel et \u00e9conomique pour les Canadiens qui souhaite avoir acc\u00e8s \u00e0 une institution \u00e9quitable et impartiale pour le traitement de leur cause."
        },
        "language": {
            "en": "eng",
            "fr": "fra"
        },
        "keywords": {
            "en": null,
            "fr": null
        },
        "audience": {
            "en": "gcaudience",
            "fr": "gcaudience"
        },
        "type": {
            "en": "notice",
            "fr": "norme"
        },
        "creator": {
            "en": "Agriculture and Agri-Food Canada",
            "fr": "Agriculture et Agroalimentaire Canada"
        },
        "spatial": {
            "en": "gcregions",
            "fr": "gcregions"
        },
        "service": {
            "en": "AAFC-AAC",
            "fr": "AAFC-AAC"
        },
        "accessRights": {
            "en": "2",
            "fr": "2"
        },
        "legalName": {
            "en": "agriculture_and_agri_food_canada",
            "fr": "agriculture_et_agroalimentaire_canada"
        },
        "areaServed": {
            "en": "Canada",
            "fr": "Canada"
        }
    },
    "h1": {
        "en": "New web portal points ag businesses to key financial supports",
        "fr": "Nouveau portail Web pour aider les agroentreprises \u00e0 avoir acc\u00e8s \u00e0 l\u2019information sur les principales mesures de soutien financier"
    },
    "js": {
        "en": "",
        "fr": ""
    },
    "body": {
        "en": "\r\n    \n<p> <img src=\"http://multimedia.agr.gc.ca/pack/img/FinanceArticle-Agri-infoFeatureButton.jpg\" class=\"pull-right mrgn-lft-lg img-responsive thumbnail mrgn-bttm-sm\" alt=\"\"></p>\n\n<p>There is no doubt that the COVID\u201119 pandemic has caused  an unprecedented shock to our agri-food industry\u2014from farms, to processing  plants, to grocery stores. Changes in health and safety measures, the availability  of the workforce, fluctuations in the food supply chain and in consumer demand,  have all challenged Canada's food suppliers and essential businesses.</p>\n<p>The agriculture industry is adapting, and working tirelessly  on the front lines to ensure we all have safe and affordable food to eat. </p>\n<p>This new information portal highlights new and existing financial resources available to agriculture  and food businesses during the COVID\u201119  pandemic. These programs can help businesses: </p>\n<ul>\n  <li>maintain their workforces,</li>\n  <li>adapt their facilities, </li>\n  <li>provide access to capital, and</li>\n  <li>manage processing slowdowns and surpluses. </li>\n</ul>\n<p>Visit <a href=\"?id=1594301472449\">COVID-19 Financial support for farmers  and food processors</a> to see the programs and services available to  you and your agri\u2011food business, so you can help ensure Canadians continue to  have access to a safe and healthy food supply.  </p>\n\n\r\n    ",
        "fr": "\r\n    \n<p>\n <img src=\"http://multimedia.agr.gc.ca/pack/img/FinanceArticle-Agri-infoFeatureButton.jpg\" class=\"pull-right mrgn-lft-lg img-responsive thumbnail mrgn-bttm-sm\" alt=\"\">\n </p>\n<p>Il ne fait aucun doute que la pand\u00e9mie de COVID-19  a caus\u00e9 un choc sans pr\u00e9c\u00e9dent \u00e0 notre secteur agroalimentaire, qu'il s'agisse  des exploitations agricoles, des \u00e9tablissements de transformation ou des  \u00e9piceries. Les modifications apport\u00e9es aux mesures de sant\u00e9 et de s\u00e9curit\u00e9, la  disponibilit\u00e9 de la main\u2011d'oeuvre, les fluctuations dans la cha\u00eene  d'approvisionnement alimentaire et les variations de la demande \u00e0 la  consommation sont autant de facteurs qui ont pos\u00e9 des d\u00e9fis pour les  fournisseurs d'aliments et les entreprises essentielles du Canada.</p>\n<p>Le secteur agricole s'adapte et travaille sans  rel\u00e2che aux premi\u00e8res lignes pour assurer notre approvisionnement en aliments  salubres et abordables.</p>\n<p>Le nouveau portail fournit des renseignements sur  les ressources financi\u00e8res existantes et nouvelles qui sont mises \u00e0 la  disposition des entreprises agricoles et alimentaires pendant la pand\u00e9mie de  COVID-19. Ces  programmes peuvent aider les entreprises \u00e0 :</p>\n<ul>\n  <li>maintenir leur effectif;</li>\n  <li>adapter leurs installations; </li>\n  <li>avoir acc\u00e8s \u00e0 des capitaux;</li>\n  <li>g\u00e9rer les  exc\u00e9dents et les ralentissements de la cha\u00eene de transformation. </li>\n</ul>\n<p>Consultez le portail d'information sur le  <a href=\"?id=1594301472449\">soutien financier offert aux producteurs et aux transformateurs d'aliments en raison de la COVID-19</a> pour voir les programmes et les services mis \u00e0 la  disposition de votre entreprise agroalimentaire afin qu'elle puisse aider \u00e0 assurer  un approvisionnement en aliments sains et salubres aux Canadiens.</p>\n\n\r\n    "
    }
}