{
    "dcr_id": "1597863906829",
    "title": {
        "en": "Learn more about food policy in Canada",
        "fr": "Apprendre plus sur le syst\u00e8me alimentaire canadien"
    },
    "modified": "2021-06-07",
    "issued": "2020-11-17",
    "templatetype": "content page 1 column",
    "page_type": "0",
    "node_id": "1597936506751",
    "dc_date_created": "2020-11-17",
    "managing_branch": "PAB",
    "parent_node_id": "",
    "short_title": "",
    "exturl": "",
    "teamsite_location": {
        "en": "/default/main/AAFC-AAC/Internet-Internet/CCB-DGCC/WORKAREA/CCB-DGCC/templatedata/comm-comm/gene-gene/data/federal_initiatives_re_fpc_1597863906829_en",
        "fr": "/default/main/AAFC-AAC/Internet-Internet/CCB-DGCC/WORKAREA/CCB-DGCC/templatedata/comm-comm/gene-gene/data/federal_initiatives_re_fpc_1597863906829_fr"
    },
    "type_name": "comm-comm/gene-gene",
    "has_dcr_id": true,
    "label": {
        "en": "Learn more about food policy in Canada",
        "fr": "Apprendre plus sur le syst\u00e8me alimentaire canadien"
    },
    "breadcrumb": {
        "en": "Learn more about food policy in Canada",
        "fr": "Apprendre plus sur le syst\u00e8me alimentaire canadien"
    },
    "layout_name": "content page 1 column",
    "lang": "en",
    "refaire": false,
    "meta": {
        "viewport": {
            "en": "width=device-width,initial-scale=1",
            "fr": "width=device-width, initial-scale=1"
        },
        "issued": {
            "en": "2020-11-17",
            "fr": "2020-11-17"
        },
        "modified": {
            "en": "2021-06-07",
            "fr": "2021-06-07"
        },
        "format": {
            "en": "gcformat",
            "fr": "gcformat"
        },
        "title": {
            "en": "Learn more about food policy in Canada",
            "fr": "Apprendre plus sur le syst\u00e8me alimentaire canadien"
        },
        "subject": {
            "en": "technology transfer;architectural heritage;soil assessement",
            "fr": "eau-conservation;protection des v\u00e9g\u00e9taux;pommes de terre-producteurs"
        },
        "dcterms:subject": {
            "en": "statistics;architectural heritage;architecture",
            "fr": "m\u00e9dicament;transformation des aliments;g\u00e9omatique"
        },
        "description": {
            "en": "Binder 3: Who we are and what we do Ministerial Transition Books - Binder 3. Who we are and what we do. and the. Canadian Dairy Commission Act. . The. Plant Breeders Rights Act. governs the intellectual property rights associated with plant breeds and breeding.Authorities for administrative monetary penalties.",
            "fr": "Les pr\u00e9sents cahiers d\u2019information minist\u00e9riels ont \u00e9t\u00e9 pr\u00e9par\u00e9s pour le ministre de l\u2019Agriculture et de l\u2019Agroalimentaire du Canada. Description de l\u2019image ci-dessus. Contribution du syst\u00e8me agricole et agroalimentaire au PIB, 2017. horticulture. produits laitiers. volaille. \u0153ufs."
        },
        "language": {
            "en": "eng",
            "fr": "fra"
        },
        "keywords": {
            "en": null,
            "fr": null
        },
        "audience": {
            "en": "gcaudience",
            "fr": "gcaudience"
        },
        "type": {
            "en": "program-service description",
            "fr": "fiche de renseignements"
        },
        "creator": {
            "en": "Agriculture and Agri-Food Canada",
            "fr": "Agriculture et Agroalimentaire Canada"
        },
        "spatial": {
            "en": "gcregions",
            "fr": "gcregions"
        },
        "service": {
            "en": "AAFC-AAC",
            "fr": "AAFC-AAC"
        },
        "accessRights": {
            "en": "2",
            "fr": "2"
        },
        "legalName": {
            "en": "agriculture_and_agri_food_canada",
            "fr": "agriculture_et_agroalimentaire_canada"
        },
        "areaServed": {
            "en": "Canada",
            "fr": "Canada"
        }
    },
    "h1": {
        "en": "Learn more about food policy in Canada",
        "fr": "Apprendre plus sur le syst\u00e8me alimentaire canadien"
    },
    "js": {
        "en": "",
        "fr": ""
    },
    "body": {
        "en": "\r\n    <p>The Food Policy for Canada supports collaboration across departments to leverage policy and program successes, and identify new initiatives to address emerging issues and priority gaps in our food systems. The Food Policy also enables greater coherence and coordination among federal policies and programs and considers the entirety of the food system to improve social, health, environmental, and economic <a href=\"?id=1597863791042#a1\">outcomes</a>. As part of implementing the Food Policy for Canada, the Government of Canada invested $134.4 million in near-term <a href=\"https://www.budget.gc.ca/2019/docs/plan/chap-04-en.html#Introducing-a-Food-Policy-for-Canada\">Food Policy initiatives</a> to address food system priorities for 2019-2024. </p>\n\n<h2>Federal initiatives related to The Food Policy for Canada</h2>\n\n<ul>\n\n    <li>Agriculture and Agri-Food Canada\u2019s Food Waste Reduction Challenge\n<ul>\n<li><a href=\"https://impact.canada.ca/en/challenges/food-waste-reduction-challenge/challenge\">Challenge Streams A and B</a></li>\n<li><a href=\"https://impact.canada.ca/en/challenges/food-waste-reduction-challenge-novel-tech/the-challenge\">Challenge Streams C and D</a></li>\n</ul>\n</li>\n<li>Agriculture and Agri-Food Canada\u2019s <a href=\"?id=1461767369849\">Canadian Agricultural Partnership</a></li>\n    <li>Canadian Food Inspection Agency\u2019s <a href=\"http://www.inspection.gc.ca/food/eng/1299092387033/1299093490225\">Safe Food for Canadians Regulations</a></li>\n    <li>Employment and Social Development Canada\u2019s <a href=\"https://www.canada.ca/en/employment-social-development/campaigns/poverty-reduction.html\">Poverty Reduction Strategy </a></li>\n    <li>Health Canada\u2019s <a href=\"https://www.canada.ca/en/services/health/campaigns/vision-healthy-canada/healthy-eating.html?_ga=1.142640561.500057124.1461007692\">Healthy Eating Strategy</a></li>\n    <li>Crown-Indigenous Relations and Northern Affairs Canada\u2019s <a href=\"http://www.nutritionnorthcanada.gc.ca/eng/1415385762263/1415385790537\">Nutrition North</a></li>\n    <li>Crown-Indigenous Relations and Northern Affairs  Canada's <a href=\"https://www.rcaanc-cirnac.gc.ca/eng/1499951681722/1537884604444\">Arctic Policy Framework</a></li>\n    <li>Innovation, Science, and Economic Development's <a href=\"https://www.ic.gc.ca/eic/site/098.nsf/eng/00022.html\">Economic Strategy Table on Agri-Food</a></li>\n    <li>Environment and Climate Change Canada's <a href=\"https://www.canada.ca/en/services/environment/weather/climatechange/pan-canadian-framework.html\">Pan-Canadian Framework on Clean Growth and Climate Change</a></li>\n    <li>Environment and Climate Change Canada's <a href=\"https://www.canada.ca/en/services/environment/conservation/sustainability/federal-sustainable-development-strategy.html\">Federal  Sustainable Development Strategy</a></li>\n    <li>Fisheries and Oceans Canada's <a href=\"http://www.dfo-mpo.gc.ca/aquaculture/programs-programmes/sustainable-durable/index-eng.htm\">Sustainable Aquaculture Program</a></li>\n  </ul>\n\n<h2>Food policy proposals for Canada</h2>\n\n<p>There are also a number of organizations who have done extensive work on food policy. This research and analysis was considered in the development of the Food Policy for Canada:</p>\n\n<ul>\n <li>Food Secure Canada\n\t <ul class=\"list-unstyled mrgn-lft-lg\">\n\t\t <li><a href=\"https://foodsecurecanada.org/patchwork-policy-coherence-principles-and-priorities-canadas-national-food\">From Patchwork to Policy Coherence: Principles and Priorities of Canada's National Food Policy</a> (2017)</li>\n\t\t <li><a href=\"https://foodsecurecanada.org/people-food-policy\">Resetting the Table:  A People's Food Policy for Canada</a> (2015)</li>\n\t </ul>\n\t</li>\n<li>The Canadian Agri-Food Policy Institute\n\t<ul class=\"list-unstyled mrgn-lft-lg\">\n\t\t<li><a href=\"https://capi-icpa.ca/wp-content/uploads/2016/02/Achieving-What_s-Possible-for-Canada_s-Agri-Food-Sector-2016.pdf\">Achieving What\u2019s Possible for Canada\u2019s Agri-Food Sector (PDF)</a> (2016)</li>\n\t\t<li><a href=\"https://capi-icpa.ca/wp-content/uploads/2011/02/Canada_s-Agri-Food-Destination-A-New-Strategic-Approach-2011.pdf\">Canada\u2019s Agri-Food Destination (PDF)</a> (2011)</li>\n\t</ul>\n\t</li>\n<li>The Canadian Federation of Agriculture\n\t<ul class=\"list-unstyled mrgn-lft-lg\">\n\t\t<li><a href=\"https://www.cfa-fca.ca/wp-content/uploads/2017/07/National-Food-Strategy.pdf\">Towards a National Food Strategy (PDF)</a> (2011)</li>\n\t</ul>\n\t</li>\n<li>The Conference Board of Canada\n\t<ul class=\"list-unstyled mrgn-lft-lg\">\n\t\t<li><a href=\"http://www.conferenceboard.ca/e-library/abstract.aspx?did=6091\">From Opportunity to Achievement: Canadian Food Strategy</a> (2014)</li>\n\t</ul>\n\t</li>\n</ul>\n\r\n    ",
        "fr": "\r\n    <p>La Politique alimentaire pour le Canada appuie la collaboration entre minist\u00e8res pour tirer parti des r\u00e9ussites des politiques et des programmes et d\u00e9finir de nouvelles initiatives afin d\u2019aborder les nouveaux enjeux et les lacunes prioritaires de nos syst\u00e8mes alimentaires. La Politique alimentaire permet \u00e9galement plus d\u2019uniformit\u00e9 et de coordination entre les politiques et les programmes f\u00e9d\u00e9raux et tient compte de l\u2019ensemble du syst\u00e8me alimentaire dans le but d\u2019am\u00e9liorer les <a href=\"?id=1597863791042#a1\">r\u00e9sultats</a> sociaux, environnementaux et \u00e9conomiques. Dans le cadre de la mise en \u0153uvre de la Politique alimentaire du Canada, le gouvernement du Canada a investi 134,4 millions de dollars dans des <a href=\"https://www.budget.gc.ca/2019/docs/plan/chap-04-fr.html#instaurer-une-politique-alimentaire-pour-le-canada\">initiatives \u00e0 court terme li\u00e9es \u00e0 la Politique alimentaire</a> pour se pencher sur les priorit\u00e9s du syst\u00e8me alimentaire pour 2019-2024. </p>\n\n<h2>Initiatives f\u00e9d\u00e9rales li\u00e9es \u00e0 la politique alimentaire</h2>\n\n<ul>\n<li>D\u00e9fi de r\u00e9duction du gaspillage alimentaire d'Agriculture et Agroalimentaire Canada\n<ul>\n<li><a href=\"https://impact.canada.ca/fr/defis/defi-reduction-du-gaspillage-alimentaire/defi\">volets A et B du D\u00e9fi</a></li>\n<li><a href=\"https://impact.canada.ca/fr/defis/reduction-du-gaspillage-alimentaire-technologies-novatrices/le-defi\">volets C et D du D\u00e9fi</a></li>\n</ul>\n</li>\n    <li><a href=\"?id=1461767369849\">Partenariat canadien pour l'agriculture</a> d'Agriculture et Agroalimentaire Canada</li>\n    <li><a href=\"http://www.inspection.gc.ca/aliments/fra/1299092387033/1299093490225\">R\u00e8glement sur la salubrit\u00e9 des aliments au Canada</a> de l'Agence canadienne d'inspection des aliments</li>\n    <li><a href=\"https://www.canada.ca/fr/emploi-developpement-social/campagne/reduction-pauvrete.html\">Strat\u00e9gie de r\u00e9duction de la pauvret\u00e9</a> de Ressources humaines et D\u00e9veloppement des comp\u00e9tences Canada</li>\n    <li><a href=\"https://www.canada.ca/fr/services/sante/campagnes/vision-canada-en-sante/saine-alimentation.html\">Strat\u00e9gie en mati\u00e8re de saine alimentation</a> de Sant\u00e9 Canada</li>\n    <li><a href=\"http://www.nutritionnorthcanada.gc.ca/fra/1415385762263/1415385790537\">Nutrition Nord Canada</a> de Relations Couronne-Autochtones et Affaires du Nord Canada</li>\n    <li><a href=\"https://www.aadnc-aandc.gc.ca/fra/1499951681722/1499951703370\">Cadre strat\u00e9gique pour l'Arctique</a> de Relations Couronne-Autochtones et Affaires du Nord Canada</li>\n    <li><a href=\"https://www.ic.gc.ca/eic/site/098.nsf/fra/00006.html\">Tables sectorielles de strat\u00e9gies \u00e9conomiques \u2013 Table sur l'agroalimentaire</a> d'Innovation, Sciences et D\u00e9veloppement \u00e9conomique Canada</li>\n    <li><a href=\"https://www.canada.ca/fr/services/environnement/meteo/changementsclimatiques/cadre-pancanadien.html\">Cadre pancanadien sur la croissance propre et les changements climatiques</a> d'Environnement et Changement climatique Canada</li>\n    <li><a href=\"https://www.canada.ca/fr/services/environnement/conservation/durabilite/strategie-federale-developpement-durable.html\">Strat\u00e9gie f\u00e9d\u00e9rale de d\u00e9veloppement durable</a> d'Environnement et Changement climatique Canada</li>\n    <li><a href=\"http://www.dfo-mpo.gc.ca/aquaculture/programs-programmes/sustainable-durable/index-fra.htm\">Programme d'aquaculture durable du Canada</a> de P\u00eaches et Oc\u00e9ans Canada</li>\n  </ul>\n\n <h2>Propositions relatives \u00e0 la politique alimentaire pour le Canada</h2>\n\n<p>Plusieurs organisations ont \u00e9galement apport\u00e9 leur participation en effectuant un travail consid\u00e9rable de recherche et d\u2019analyse, qui a \u00e9t\u00e9 pris en compte dans l\u2019\u00e9laboration de la Politique alimentaire pour le Canada.</p>\n\n<ul>\n\t<li>R\u00e9seau pour une alimentation durable\n\t\t<ul class=\"list-unstyled mrgn-lft-lg\">\n\t\t\t<li><a href=\"https://foodsecurecanada.org/fr/principes-priorites-politique-alimentaire-nationale\">D'une mosa\u00efque complexe vers une politique coh\u00e9rente : principes et priorit\u00e9s d'une politique alimentaire nationale au Canada</a> (2017)</li>\n\t\t\t<li><a href=\"https://foodsecurecanada.org/fr/dupainsurlaplanche\">Du pain sur la planche : une politique alimentaire populaire pour le Canada</a> (2015)</li>\n\t\t</ul>\n\t</li>\n\t<li>Institut canadien des politiques agroalimentaires\n\t\t<ul class=\"list-unstyled mrgn-lft-lg\">\n\t\t\t<li><a href=\"https://capi-icpa.ca/wp-content/uploads/2016/02/Lavenir-du-secteur-agroalimentaire-canadien-lart-du-possible-2016.pdf\">L'avenir du secteur agroalimentaire canadien : l'art du possible (PDF)</a> (2016)</li>\n\t\t\t<li><a href=\"https://capi-icpa.ca/wp-content/uploads/2011/06/La-destination-du-secteur-agroalimentaire-canadien-mise-a%CC%80-jour-juin-2011.pdf\">La destination du secteur agroalimentaire canadien (PDF)</a> (2011)</li>\n\t\t</ul>\n\t</li>\n\t<li>F\u00e9d\u00e9ration canadienne de l'agriculture\n\t\t<ul class=\"list-unstyled mrgn-lft-lg\">\n\t\t\t<li><a href=\"https://www.cfa-fca.ca/fr/programmes-et-projets/le-canada-a-besoin-dune-strategie-alimentaire-nationale/\">Vers une strat\u00e9gie alimentaire nationale (PDF)</a> (2011)</li>\n\t\t</ul>\n\t</li>\n\t<li>Conference Board du Canada\n\t\t<ul class=\"list-unstyled mrgn-lft-lg\">\n\t\t\t<li><a href=\"http://www.conferenceboard.ca/e-library/abstract.aspx?did=6111\">De la conception \u00e0 la r\u00e9alisation : la Strat\u00e9gie alimentaire canadienne</a> (2014)</li>\n\t\t</ul>\n\t</li>\n</ul>\n\r\n    "
    }
}