{
    "dcr_id": "1598010062016",
    "title": {
        "en": "Food Policy Consultations - What we heard report (Food Policy for Canada) Annex C: Food policy placemat",
        "fr": "Consultation sur une politique alimentaire pour le Canada - Rapport sur ce que nous avons entendu (Une politique alimentaire pour le Canada) Annexe C : Tableau de bord de la politique alimentaire"
    },
    "modified": "2020-11-17",
    "issued": "2020-11-17",
    "templatetype": "content page 1 column",
    "page_type": "0",
    "node_id": "1354137773675",
    "dc_date_created": "2020-11-17",
    "managing_branch": "PAB",
    "parent_node_id": "",
    "short_title": "",
    "exturl": "",
    "teamsite_location": {
        "en": "/default/main/AAFC-AAC/Internet-Internet/CCB-DGCC/WORKAREA/CCB-DGCC/templatedata/comm-comm/gene-gene/data/consulting_canadians_fpc_1598010062016_en",
        "fr": "/default/main/AAFC-AAC/Internet-Internet/CCB-DGCC/WORKAREA/CCB-DGCC/templatedata/comm-comm/gene-gene/data/consulting_canadians_fpc_1598010062016_fr"
    },
    "type_name": "comm-comm/gene-gene",
    "has_dcr_id": true,
    "label": {
        "en": "Food Policy Consultations - What we heard report (Food Policy for Canada) Annex C: Food policy placemat",
        "fr": "Consultation sur une politique alimentaire pour le Canada - Rapport sur ce que nous avons entendu (Une politique alimentaire pour le Canada) Annexe C : Tableau de bord de la politique alimentaire"
    },
    "breadcrumb": {
        "en": "Food Policy Consultations - What we heard report (Food Policy for Canada) Annex C: Food policy placemat",
        "fr": "Consultation sur une politique alimentaire pour le Canada - Rapport sur ce que nous avons entendu (Une politique alimentaire pour le Canada) Annexe C : Tableau de bord de la politique alimentaire"
    },
    "layout_name": "content page 1 column",
    "lang": "en",
    "refaire": false,
    "meta": {
        "viewport": {
            "en": "width=device-width,initial-scale=1",
            "fr": "width=device-width, initial-scale=1"
        },
        "issued": {
            "en": "2020-11-17",
            "fr": "2020-11-17"
        },
        "modified": {
            "en": "2020-11-17",
            "fr": "2020-11-17"
        },
        "format": {
            "en": "gcformat",
            "fr": "gcformat"
        },
        "title": {
            "en": "Food Policy Consultations - What we heard report (Food Policy for Canada) Annex C: Food policy placemat",
            "fr": "Consultation sur une politique alimentaire pour le Canada - Rapport sur ce que nous avons entendu (Une politique alimentaire pour le Canada) Annexe C : Tableau de bord de la politique alimentaire"
        },
        "subject": {
            "en": "isolated communities;architectural heritage;soil assessement",
            "fr": "enc\u00e9phalopathie spongiforme bovine;maladie de la vache folle;semences-production"
        },
        "dcterms:subject": {
            "en": "isolated communities;architectural heritage;architecture",
            "fr": "m\u00e9dicament;ressources p\u00e9dagogiques;engrais"
        },
        "description": {
            "en": "Table of contents. Minister's message. Executive summary. A Food Policy for Canada. . I want to thank each participant in our consultations for making your ideas known. The effort and interest shown by participants in the consultations will have a meaningful impact.",
            "fr": "Tableau des mati\u00e8res. Agrandir tout. R\u00e9duire tout. et je sais que nos producteurs et nos transformateurs mettent l\u2019accent sur l\u2019approvisionnement du march\u00e9 canadien.Message \u00e0 retenir. .L'industrie de la pomme de terre a not\u00e9 l'impact grave que COVID-19 a eu sur la."
        },
        "language": {
            "en": "eng",
            "fr": "fra"
        },
        "keywords": {
            "en": "revisions.Canadian",
            "fr": "Collen"
        },
        "audience": {
            "en": "gcaudience",
            "fr": "gcaudience"
        },
        "type": {
            "en": "meeting material",
            "fr": "r\u00e9sum\u00e9"
        },
        "creator": {
            "en": "Agriculture and Agri-Food Canada",
            "fr": "Agriculture et Agroalimentaire Canada"
        },
        "spatial": {
            "en": "gcregions",
            "fr": "gcregions"
        },
        "service": {
            "en": "AAFC-AAC",
            "fr": "AAFC-AAC"
        },
        "accessRights": {
            "en": "2",
            "fr": "2"
        },
        "legalName": {
            "en": "agriculture_and_agri_food_canada",
            "fr": "agriculture_et_agroalimentaire_canada"
        },
        "areaServed": {
            "en": "Canada",
            "fr": "Canada"
        }
    },
    "h1": {
        "en": "Food Policy Consultations - What we heard report (Food Policy for Canada) Annex C: Food policy placemat",
        "fr": "Consultation sur une politique alimentaire pour le Canada - Rapport sur ce que nous avons entendu (Une politique alimentaire pour le Canada) Annexe C : Tableau de bord de la politique alimentaire"
    },
    "js": {
        "en": "",
        "fr": ""
    },
    "body": {
        "en": "\r\n    <div class=\"row\">\n\t\n<div class=\"col-md-5 pull-right\">\n<a class=\"gc-dwnld-lnk\" href=\"https://multimedia.agr.gc.ca/pack/pdf/20170529-1_en.pdf\">\n<div class=\"well gc-dwnld\">\n<div class=\"row\">\n<div class=\"col-xs-4\"><p><img class=\"img-responsive thumbnail gc-dwnld-img\" src=\"https://multimedia.agr.gc.ca/pack/img/20201804a-en.gif\" alt=\"\"></p></div>\n<div class=\"col-xs-8\"><p>A Food Policy for Canada - Consulting with Canadians (Food policy placemat)<br>[PDF - 40KB]</p></div>\n</div>\n</div>\n</a>\n</div>\t\n\t\n<div class=\"col-md-7\">\n\n<p>Food matters. The decisions we make as individuals and as a country about food have a direct impact on our health, environment, economy, and communities. Working together, we can put more affordable, safe, healthy, food on tables across the country, while protecting the environment.</p>\n</div>\n</div>\n\n<p>The Government of Canada is asking Canadians for their views on what should be included in <b>A Food Policy for Canada</b>.</p>\n\n<h2>What is a food policy</h2>\n\n<p><b>A Food Policy for Canada</b> will set a long-term vision for the health, environmental, social, and economic goals related to food, while identifying actions we can take in the short-term.</p>\n\n<p>A food policy is a way to address issues related to the production, processing, distribution, and consumption of food.</p>\n\n<h2>What areas could the food policy cover</h2>\n\n<p>In order to make healthy eating choices, Canadians depend on sufficient access to affordable, nutritious, and safe food, and require information to make healthy food choices. In turn, having a reliable supply of affordable, nutritious, and safe food, depends on maintaining Canada\u2019s natural resources in a way that supports and grows our agriculture and food sector.</p>\n\n<p>The federal government is consulting Canadians on four closely connected themes that have a direct impact on the food they eat:</p>\n\n<ul>\n<li>increasing access to affordable food;</li>\n<li>improving health and food safety;</li>\n<li>conserving our soil, water, and air; and,</li>\n<li>growing more high-quality food.</li>\n</ul>\n\n<p>As we develop <b>A Food Policy for Canada</b>, the Government of Canada is exploring how best to align and coordinate current and future federal initiatives strongly linked to agriculture and food.</p>\n\n<h2>Why is collaboration important</h2>\n\n<p>There are many actors in Canada\u2019s food system, including farmers, processors, retailers, consumers, academia, nongovernment organizations, and all orders of government.</p>\n\n<p>Collaboration that draws from a variety of experiences and perspectives among Canadians and stakeholders will be critical to the success of developing and implementing <b>A Food Policy for Canada</b>.</p>\n\n<h2>Increasing access to affordable food</h2>\n\n<p><b>Improving Canadians' access to affordable, nutritious, and safe food.</b></p>\n\n<p>Not all Canadians have sufficient access to affordable, nutritious and safe food. We need to do more to improve the affordability and availability of food, particularly among more vulnerable groups, such as children, Canadians living in poverty, Indigenous peoples, and those in remote and Northern communities.</p>\n\n<h2>Improving health and food safety</h2>\n\n<p><b>Increasing Canadians' ability to make healthy and safe food choices.</b></p>\n\n<p>Canada's world class food safety system continues to provide its citizens with safe food to eat. Additional efforts to promote healthy living through nutritious and safe food choices, can improve the overall health of Canadians, while lowering health care costs.</p>\n\n<h2>Conserving our soil, water, and air</h2>\n\n<p><b>Using environmentally sustainable practices to ensure Canadians have a long-term, reliable, and abundant supply of food.</b></p>\n\n<p>The way our food is produced, processed, distributed, and consumed - including the losses and waste of food - can have environmental implications, such as greenhouse gas emissions, soil degradation, water quality and availability, and wildlife loss. While much is being done to conserve our natural resources, further opportunities exist to do more.</p>\n\n<h2>Growing more high-quality food</h2>\n\n<p><b>Ensuring Canadian farmers and food processors are able to adapt to changing conditions to provide more safe and healthy food to consumers in Canada and around the world.</b></p>\n\n<p>Enabling farmers and food processors, large and small, across the country, to grow, will make more high-quality Canadian food available domestically and internationally. Budget 2017 investments clearly recognize the importance of the agriculture and food sector as a driver of economic growth.</p>\n\r\n    ",
        "fr": "\r\n     <div class=\"row\">\n\t\n<div class=\"col-md-5 pull-right\">\n<a class=\"gc-dwnld-lnk\" href=\"https://multimedia.agr.gc.ca/pack/pdf/20170529-fr.pdf\">\n<div class=\"well gc-dwnld\">\n<div class=\"row\">\n<div class=\"col-xs-4\"><p><img class=\"img-responsive thumbnail gc-dwnld-img\" src=\"https://multimedia.agr.gc.ca/pack/img/20200814-1-annexc-placemat-fr.gif\" alt=\"\"></p></div>\n<div class=\"col-xs-8\"><p>Une politique alimentaire pour le Canada : Consultation des Canadien (Tableau de bord de la politique alimentaire)<br>[PDF - 42Ko]</p></div>\n</div>\n</div>\n</a>\n</div>\t\n\t\n<div class=\"col-md-7\">\n\n<p>Les aliments sont importants. Les d\u00e9cisions personnelles et collectives que nous prenons concernant l\u2019alimentation ont une incidence directe sur notre sant\u00e9, notre environnement, notre \u00e9conomie et nos communaut\u00e9s. En travaillant ensemble, nous pouvons offrir une plus grande quantit\u00e9 d\u2019aliments canadiens abordables, salubres et sains aux consommateurs tout en prot\u00e9geant l\u2019environnement.</p>\n</div>\n</div>\n\n<p>Le gouvernement du Canada veut conna\u00eetre les points de vue des Canadiens sur ce qui devrait \u00eatre inclus dans <b>Une politique alimentaire pour le Canada</b>.</p>\n\n<h2>Qu\u2019est-ce qu\u2019une politique alimentaire</h2>\n\n<p>Une politique alimentaire pour le Canada \u00e9tablira une vision \u00e0 long terme pour la r\u00e9alisation des objectifs sanitaires, environnementaux, sociaux et \u00e9conomiques en mati\u00e8re d\u2019alimentation tout en d\u00e9terminant les mesures que nous pouvons prendre \u00e0 court terme.</p>\n\n<p>Une politique alimentaire se veut une fa\u00e7on d\u2019aborder les enjeux li\u00e9s \u00e0 la production, \u00e0 la transformation, \u00e0 la distribution et \u00e0 la consommation des aliments.</p>\n\n<h2>Quels aspects la politique alimentaire pourrait-elle couvrir</h2>\n\n<p>Pour faire des choix alimentaires sains, les Canadiens d\u00e9pendent de l\u2019acc\u00e8s \u00e0 des aliments nutritifs et salubres \u00e0 un co\u00fbt abordable, et ont besoin d\u2019information pour faire des choix alimentaires sains. Par ailleurs, pour assurer un approvisionnement fiable d\u2019aliments nutritifs et salubres \u00e0 un co\u00fbt abordable, il faut conserver les ressources naturelles du Canada de mani\u00e8re \u00e0 soutenir notre secteur agricole et alimentaire et \u00e0 favoriser sa croissance.</p>\n\n<p>Le gouvernement f\u00e9d\u00e9ral consulte les Canadiens au sujet de quatre th\u00e8mes \u00e9troitement li\u00e9s qui touchent directement les aliments que nous consommons :</p>\n\n<ul>\n<li>Am\u00e9liorer l\u2019acc\u00e8s \u00e0 des aliments abordables;</li>\n<li>Am\u00e9liorer la salubrit\u00e9 des aliments et la sant\u00e9;</li>\n<li>Pr\u00e9server la qualit\u00e9 des sols, de l\u2019eau et de l\u2019air; et,</li>\n<li>Produire une plus grande quantit\u00e9 d\u2019aliments de qualit\u00e9 sup\u00e9rieure.</li>\n</ul>\n\n<p>Dans le processus d\u2019\u00e9laboration d\u2019Une politique alimentaire pour le Canada, le gouvernement du Canada examine la fa\u00e7on optimale d\u2019harmoniser et de coordonner les initiatives f\u00e9d\u00e9rales actuelles et futures qui sont li\u00e9es \u00e9troitement \u00e0 l\u2019agriculture et \u00e0 l\u2019alimentation.</p>\n\n<h2>Pourquoi la collaboration est-elle importante</h2>\n\n<p>Il y a de nombreux intervenants dans le syst\u00e8me alimentaire du Canada, notamment les agriculteurs, les transformateurs, les d\u00e9taillants, les consommateurs, le milieu universitaire, les organisations non gouvernementales et tous les ordres de gouvernement.</p>\n\n<p>Une collaboration qui mise sur les exp\u00e9riences vari\u00e9es et les divers points de vue des Canadiens et des intervenants sera essentielle \u00e0 la r\u00e9ussite de l\u2019\u00e9laboration et de la mise en oeuvre d\u2019Une politique alimentaire pour le Canada.</p>\n\n<h2>Am\u00e9liorer l\u2019acc\u00e8s \u00e0 des aliments abordables</h2>\n\n<p><b>Am\u00e9liorer l\u2019acc\u00e8s des Canadiens \u00e0 des aliments abordables, nutritifs et salubres.</b></p>\n\n<p>Ce n\u2019est pas tous les Canadiens qui ont acc\u00e8s \u00e0 une quantit\u00e9 suffisante d\u2019aliments abordables, salubres et nutritifs. Nous devons en faire plus pour assurer un approvisionnement suffisant d\u2019aliments \u00e0 des prix abordables, notamment pour les groupes plus vuln\u00e9rables comme les enfants, les Canadiens vivant dans la pauvret\u00e9, les peuples autochtones et les communaut\u00e9s des r\u00e9gions nordiques et \u00e9loign\u00e9es.</p>\n\n<h2>Am\u00e9liorer la salubrit\u00e9 des aliments et la sant\u00e9</h2>\n\n<p><b>Accro\u00eetre la capacit\u00e9 des Canadiens de faire des choix alimentaires sains.</b></p>\n\n<p>Le syst\u00e8me de salubrit\u00e9 des aliments de calibre mondial du Canada continue de fournir aux Canadiens des aliments sains \u00e0 consommer. La prise d\u2019autres mesures pour faire la promotion d\u2019une vie saine, plus particuli\u00e8rement de choix d\u2019aliments sains et salubres, peut am\u00e9liorer l\u2019\u00e9tat de sant\u00e9 global des Canadiens tout en r\u00e9duisant les co\u00fbts des soins de sant\u00e9.</p>\n\n<h2>Pr\u00e9server la qualit\u00e9 des sols, de l\u2019eau et de l\u2019air</h2>\n\n<p><b>Adopter des pratiques \u00e9cologiques pour que les Canadiens aient acc\u00e8s \u00e0 un approvisionnement fiable et abondant d\u2019aliments \u00e0 long terme.</b></p>\n\n<p>La fa\u00e7on dont nos aliments sont produits, transform\u00e9s, distribu\u00e9s et consomm\u00e9s, ainsi que les pertes et le gaspillage d\u2019aliments, peut avoir des cons\u00e9quences environnementales comme les \u00e9missions de gaz \u00e0 effet de serre, la d\u00e9gradation des sols, les probl\u00e8mes li\u00e9s \u00e0 la qualit\u00e9 de l\u2019eau et \u00e0 l\u2019approvisionnement en eau et la perte de ressources fauniques. Bien que de nombreuses mesures soient prises pour conserver nos ressources naturelles, nous pouvons en faire plus.</p>\n\n<h2>Produire une plus grande quantit\u00e9 d\u2019aliments de qualit\u00e9 sup\u00e9rieure</h2>\n\n<p><b>S\u2019assurer que les agriculteurs et les transformateurs d\u2019aliments du Canada sont capables de s\u2019adapter \u00e0 des conditions changeantes pour fournir des aliments plus sains et salubres aux consommateurs au Canada et ailleurs dans le monde.</b></p>\n\n<p>En favorisant la croissance de toutes les entreprises canadiennes de production agricole et de transformation d\u2019aliments, nous assurerons un approvisionnement plus abondant d\u2019aliments canadiens de qualit\u00e9 sup\u00e9rieure sur les march\u00e9s nationaux et internationaux. Les investissements du Budget 2017 t\u00e9moignent clairement de l\u2019importance du secteur agricole et alimentaire comme moteur de croissance \u00e9conomique.</p>\n\r\n    "
    }
}