{
    "dcr_id": "1604924687747",
    "title": {
        "en": "AgriStability: 2018 update",
        "fr": "Agri-stabilit\u00e9 : mise \u00e0 jour 2018"
    },
    "modified": "2020-11-09",
    "issued": "2020-11-09",
    "templatetype": "content page 1 column",
    "page_type": "0",
    "node_id": "1354137773675",
    "dc_date_created": "2020-11-09",
    "managing_branch": "PAB",
    "parent_node_id": "",
    "short_title": "",
    "exturl": "",
    "teamsite_location": {
        "en": "/default/main/AAFC-AAC/Internet-Internet/Common-Commun/WORKAREA/Common-Commun/templatedata/comm-comm/gene-gene/data/11/agristability_2018_update_1604924687747_en",
        "fr": "/default/main/AAFC-AAC/Internet-Internet/Common-Commun/WORKAREA/Common-Commun/templatedata/comm-comm/gene-gene/data/11/agristability_2018_update_1604924687747_fr"
    },
    "type_name": "comm-comm/gene-gene",
    "has_dcr_id": true,
    "label": {
        "en": "AgriStability: 2018 update",
        "fr": "Agri-stabilit\u00e9 : mise \u00e0 jour 2018"
    },
    "breadcrumb": {
        "en": "AgriStability: 2018 update",
        "fr": "Agri-stabilit\u00e9 : mise \u00e0 jour 2018"
    },
    "layout_name": "content page 1 column",
    "lang": "en",
    "refaire": false,
    "meta": {
        "viewport": {
            "en": "width=device-width,initial-scale=1",
            "fr": "width=device-width, initial-scale=1"
        },
        "issued": {
            "en": "2020-11-09",
            "fr": "2020-11-09"
        },
        "modified": {
            "en": "2020-11-09",
            "fr": "2020-11-09"
        },
        "format": {
            "en": "text/html",
            "fr": "text/html"
        },
        "title": {
            "en": "AgriStability: 2018 update",
            "fr": "Agri-stabilit\u00e9 : mise \u00e0 jour 2018"
        },
        "subject": {
            "en": "proactive disclosure;architectural heritage;soil assessement",
            "fr": "approvisionnement en eau;syst\u00e8mes de culture;coop\u00e9ratives"
        },
        "dcterms:subject": {
            "en": "statistics;architectural heritage;architecture",
            "fr": "finances;m\u00e9dicament;coop\u00e9rative"
        },
        "description": {
            "en": "Agriculture and Agri-Food Canada. Table of Contents. In that year, an Act for the Organization of the Department of Agriculture was passed by Parliament, which established the first Department of Agriculture in the Canadian government structure.The formation of the Experimental Farms System followed in 1886. These cash advances improve producers' cash flow throughout the year, enabling them to meet financial obligations and benefit from the best market conditions.",
            "fr": "Introduction. L\u2019\u00e9valuation initiale des facteurs relatifs \u00e0 la vie priv\u00e9e (EFVP) d\u2019Agri-investissement a \u00e9t\u00e9 r\u00e9alis\u00e9e en 2009 avant la mise en \u0153uvre compl\u00e8te des comptes Agri-investissement d\u00e9tenus dans une institution financi\u00e8re. La port\u00e9e de l\u2019EFVP s\u2019est limit\u00e9e au processus op\u00e9rationnel et au flux de base des renseignements personnels associ\u00e9s au programme Agri-investissement. Il s\u2019agit notamment d\u2019examiner l\u2019EFVP chaque ann\u00e9e pour la mettre \u00e0 jour au besoin et de mettre \u00e0 jour le fichier de renseignements personnels (FRP) en clarifiant les besoins de conservation, en modifiant la cat\u00e9gorie de personnes pour plus de pr\u00e9cision (p. ex., avec des r\u00e9f\u00e9rences aux actionnaires, aux partenariats, etc.) et en assurant que tous les usages compatibles \u00e9nonc\u00e9s dans les formulaires du programme soient inclus dans la description du FRP.Pour obtenir de plus amples renseignements, veuillez contacter le."
        },
        "language": {
            "en": "eng",
            "fr": "fra"
        },
        "keywords": {
            "en": null,
            "fr": "att\u00e9nuer ou \u00e9carter;PIFL nest pas pr\u00e9vue.Conclusion;lacc\u00e8s \u00e0 linformation"
        },
        "audience": {
            "en": "gcaudience",
            "fr": "gcaudience"
        },
        "type": {
            "en": "presentation",
            "fr": "accord"
        },
        "creator": {
            "en": "Agriculture and Agri-Food Canada;Government of Canada",
            "fr": "Agriculture et Agroalimentaire Canada;Gouvernement du Canada"
        },
        "spatial": {
            "en": "gcregions",
            "fr": "gcregions"
        },
        "service": {
            "en": "AAFC-AAC",
            "fr": "AAFC-AAC"
        },
        "accessRights": {
            "en": "2",
            "fr": "2"
        },
        "legalName": {
            "en": "agriculture_and_agri_food_canada",
            "fr": "agriculture_et_agroalimentaire_canada"
        },
        "areaServed": {
            "en": "Canada",
            "fr": "Canada"
        }
    },
    "h1": {
        "en": "AgriStability: 2018 update",
        "fr": "Agri-stabilit\u00e9 : mise \u00e0 jour 2018"
    },
    "js": {
        "en": "",
        "fr": ""
    },
    "body": {
        "en": "\r\n    <h2>Introduction</h2>\n\n<p>The initial AgriStability Privacy Impact Assessment (PIA) was completed in 2009. AgriStability falls under the Growing Forward Campaign, currently funded through 2023, under the Canadian Agricultural Partnership. This PIA is designed to analyze the changes to the AgriStability Program, as well as provide an update to the risk mitigation activities identified in the 2009 AgriStability PIA.</p>\n\n<h2>Objective</h2>\n\n<p>The update was required to help ensure that all significant changes to the program\u2019s activities and business processes occurring over the past 9 years have been assessed for potential privacy impact.</p>\n\n<h2>Description</h2>\n\n<p>The scope of this PIA is to provide an update to the personal information protection afforded to AgriStability participant information. This included Agriculture and Agri-Food Canada's collection, use, retention, disclosure and disposition of personal information in the context of AgriStability and various system updates, or new systems, that have occurred since the 2009 PIA.</p>\n\n<p>Processes specific to the provincial delivery of the Program in those provinces which deliver the Program themselves (that is, British Columbia, Saskatchewan, Alberta, Ontario, Quebec, and Prince Edward Island) were not within the scope of the PIA.</p>\n\n<p>AAFC\u2019s personal information practices related to the AgriStability and the AgriInvest programs are described in AAFC Personal Information Bank AAFC PPU 183.</p>\n\n<h2>Conclusion</h2>\n\n<p>As a result of the PIA, measures have been determined to mitigate any risks associated with the collection of personal information.</p>\n\n<p>These include: strengthening agreements, limiting the collection, access, use and retention of personal information, increasing privacy training for staff and the revision of Personal Information Bank details.</p>\n\n<p>For further information please contact the <a href=\"?id=1180114490359#c\">Access to Information and Privacy Office</a>.</p>\n\r\n    ",
        "fr": "\r\n    <h2>Introduction</h2>\n\n<p>L\u2019\u00e9valuation initiale des facteurs relatifs \u00e0 la vie priv\u00e9e (EFVP) d\u2019Agri-stabilit\u00e9 a \u00e9t\u00e9 r\u00e9alis\u00e9e en 2009. Agri-stabilit\u00e9 s\u2019inscrit dans la campagne Cultivons l\u2019avenir, actuellement financ\u00e9e jusqu\u2019en 2023 dans le cadre du Partenariat canadien pour l\u2019agriculture. La pr\u00e9sente EFVP visait \u00e0 analyser les changements apport\u00e9s au programme Agri-stabilit\u00e9 et \u00e0 mettre \u00e0 jour les activit\u00e9s d\u2019att\u00e9nuation des risques recens\u00e9es dans l\u2019EFVP d\u2019Agri-stabilit\u00e9 de 2009.</p>\n\n<h2>Objectif</h2>\n\n<p>Cette mise \u00e0 jour \u00e9tait n\u00e9cessaire pour s\u2019assurer que tous les changements importants apport\u00e9s aux activit\u00e9s et aux processus op\u00e9rationnels du programme au cours des neuf derni\u00e8res ann\u00e9es ont fait l\u2019objet d\u2019une \u00e9valuation en ce qui concerne les r\u00e9percussions possibles sur la vie priv\u00e9e.</p>\n\n<h2>Description</h2>\n\n<p>Cette EFVP avait pour objet de fournir une mise \u00e0 jour sur la protection des renseignements personnels des participants au programme Agri-stabilit\u00e9. Cela comprenait la collecte, l\u2019utilisation, la conservation, la divulgation et l\u2019\u00e9limination des renseignements personnels par Agriculture et Agroalimentaire Canada (AAC) dans le cadre d\u2019Agri-stabilit\u00e9, ainsi que les mises \u00e0 jour de syst\u00e8mes et la cr\u00e9ation de nouveaux syst\u00e8mes qui ont eu lieu depuis l\u2019EFVP de 2009.</p>\n\n<p>Les processus li\u00e9s \u00e0 la prestation d\u2019Agristabilit\u00e9 dans les provinces qui ex\u00e9cutent elles-m\u00eames le programme (notamment la Colombie-Britannique, la Saskatchewan, l\u2019Alberta, l\u2019Ontario, le Qu\u00e9bec et l\u2019\u00cele-du-Prince-\u00c9douard) ne faisaient pas partie de la port\u00e9e de l\u2019EFVP.</p>\n\n<p>Les pratiques d\u2019AAC en mati\u00e8re de renseignements personnels relatifs aux programmes Agri-stabilit\u00e9 et Agri-investissement sont d\u00e9crites dans le fichier de renseignements personnels d\u2019AAC, AAC PPU 183.</p>\n\n<h2>Conclusion</h2>\n\n<p>Gr\u00e2ce \u00e0 l\u2019EFVP, des mesures permettant d\u2019att\u00e9nuer les risques li\u00e9s \u00e0 la collecte de renseignements personnels ont \u00e9t\u00e9 d\u00e9termin\u00e9es, dont les suivantes\u00a0: renforcer les accords; limiter la collecte, l\u2019utilisation et la conservation des renseignements personnels ainsi que l\u2019acc\u00e8s \u00e0 ceux-ci; augmenter la formation sur la protection des renseignements personnels pour les employ\u00e9s; et r\u00e9viser les d\u00e9tails dans le fichier de renseignements personnels.</p>\n\n<p>Pour obtenir de plus amples renseignements, veuillez contacter le <a href=\"?id=1180114490359#c\">Bureau de l\u2019acc\u00e8s \u00e0 l\u2019information et de la protection des renseignements personnels</a>.</p>\n\r\n    "
    }
}