{
    "dcr_id": "1607105227770",
    "title": {
        "en": "Eyes on the prize: Canada\u2019s Outstanding Young Farmers ",
        "fr": "Pleins feux sur le prix : Jeunes agriculteurs d\u2019\u00e9lite du Canada "
    },
    "modified": "2020-12-07",
    "issued": "2020-12-07",
    "templatetype": "content page 1 column",
    "page_type": "0",
    "node_id": "1613744603471",
    "dc_date_created": "2020-12-07",
    "managing_branch": "PAB",
    "parent_node_id": "",
    "short_title": "",
    "exturl": "",
    "teamsite_location": {
        "en": "/default/main/AAFC-AAC/Internet-Internet/CCB-DGCC/WORKAREA/CCB-DGCC/templatedata/comm-comm/gene-gene/data/eyes_on_the_prize_1607105227770_en",
        "fr": "/default/main/AAFC-AAC/Internet-Internet/CCB-DGCC/WORKAREA/CCB-DGCC/templatedata/comm-comm/gene-gene/data/eyes_on_the_prize_1607105227770_fr"
    },
    "type_name": "comm-comm/gene-gene",
    "has_dcr_id": true,
    "label": {
        "en": "Eyes on the prize: Canada\u2019s Outstanding Young Farmers ",
        "fr": "Pleins feux sur le prix : Jeunes agriculteurs d\u2019\u00e9lite du Canada "
    },
    "breadcrumb": {
        "en": "Eyes on the prize: Canada\u2019s Outstanding Young Farmers ",
        "fr": "Pleins feux sur le prix : Jeunes agriculteurs d\u2019\u00e9lite du Canada "
    },
    "layout_name": "content page 1 column",
    "lang": "en",
    "refaire": false,
    "meta": {
        "viewport": {
            "en": "width=device-width,initial-scale=1",
            "fr": "width=device-width, initial-scale=1"
        },
        "issued": {
            "en": "2020-12-07",
            "fr": "2020-12-07"
        },
        "modified": {
            "en": "2020-12-07",
            "fr": "2020-12-07"
        },
        "format": {
            "en": "gcformat",
            "fr": "gcformat"
        },
        "title": {
            "en": "Eyes on the prize: Canada\u2019s Outstanding Young Farmers ",
            "fr": "Pleins feux sur le prix : Jeunes agriculteurs d\u2019\u00e9lite du Canada "
        },
        "subject": {
            "en": "poultry farming;architectural heritage;soil assessement",
            "fr": "huile de canola;produits animaux;syst\u00e8mes de culture"
        },
        "dcterms:subject": {
            "en": "architectural heritage;architecture;agriculture",
            "fr": "coop\u00e9rative;viande;\u00e9conomie agricole"
        },
        "description": {
            "en": "Ministerial appearance. May\u00a012, 2020. Table of Contents. sign up.The BRM suite of programs. has. Moving forward with implementation now. improves predictability for farmers and food processors in a time of global uncertainty.",
            "fr": "1 column. Laur\u00e9ats des prix de 2019. Marjorie Hercule Gateau. Pascal Laverdure. Luc M. Marchand. \u00c0 titre d\u2019exemple, ses recherches ont contribu\u00e9 \u00e0 l\u2019\u00e9laboration de la strat\u00e9gie de redressement de l\u2019ESB, car elles ont permis de caract\u00e9riser les carcasses des cat\u00e9gories de b\u0153uf canadien D (vache) et d\u2019appuyer la position du Canada sur l\u2019\u00e9tiquetage du pays d\u2019origine.Plus de 200\u00a0articles scientifiques \u00e9valu\u00e9s par des pairs, 280\u00a0actes de conf\u00e9rences, 14\u00a0chapitres de livres et 203\u00a0rapports de transfert de technologie t\u00e9moignent de la contribution de Jennifer.Elle est consid\u00e9r\u00e9e comme une collaboratrice accomplie et entretient des partenariats de recherche \u00e0 l\u2019\u00e9chelle locale, provinciale, nationale et internationale."
        },
        "language": {
            "en": "eng",
            "fr": "fra"
        },
        "keywords": {
            "en": "enrollment.We;CDC.Take",
            "fr": "Marjorie;Laverdure;Canada.Laur\u00e9ats"
        },
        "audience": {
            "en": "gcaudience",
            "fr": "gcaudience"
        },
        "type": {
            "en": "notice",
            "fr": "\u00e9valuation"
        },
        "creator": {
            "en": "Agriculture and Agri-Food Canada",
            "fr": "Agriculture et Agroalimentaire Canada"
        },
        "spatial": {
            "en": "gcregions",
            "fr": "gcregions"
        },
        "service": {
            "en": "AAFC-AAC",
            "fr": "AAFC-AAC"
        },
        "accessRights": {
            "en": "2",
            "fr": "2"
        },
        "legalName": {
            "en": "agriculture_and_agri_food_canada",
            "fr": "agriculture_et_agroalimentaire_canada"
        },
        "areaServed": {
            "en": "Canada",
            "fr": "Canada"
        }
    },
    "h1": {
        "en": "Eyes on the prize: Canada\u2019s Outstanding Young Farmers",
        "fr": "Pleins feux sur le prix : Jeunes agriculteurs d\u2019\u00e9lite du Canada"
    },
    "js": {
        "en": "",
        "fr": ""
    },
    "body": {
        "en": "\r\n    <p>In the face  of a global pandemic, 2020 has been a year like no other for the young farmers  across Canada. </p>\n<p>  It is also  the 40th anniversary of the <a href=\"https://www.oyfcanada.com/language/en/\">Canada's Outstanding Young Farmers Program (OYF)  organization</a>.  Each year since 1980, OYF honours the <a href=\"https://www.canada.ca/en/agriculture-agri-food/news/2019/08/government-of-canada-invests-in-young-farmers.html\">next generation of leaders in the Canadian  agriculture sector</a>, supported in part by Agriculture and Agri-Food Canada,  provinces and territories, and the Canadian Agricultural Partnership. </p>\n<p>We check in  with some of last year's crop of honourees and winners to see how they've  adjusted to the current reality, in ways big and small. </p>\n<p>  Read their  stories:</p>\n<ul>\n  <li><a href=\"#Michaud\">Myl\u00e8ne  Bourque and Simon Michaud (Quebec)</a></li>\n  <li><a href=\"#Bergmann\">Will  and Jen Bergmann (Manitoba)</a></li>\n  <li><a href=\"#Lockwood\">Cammy  and James Lockwood (British Columbia)</a></li>\n  <li><a href=\"#Roos\">Jony  and Jan Roos (Ontario)</a></li>\n  <li><a href=\"#Vert\">Natasha  Pospisil and Dallas Vert (Alberta)</a></li>\n</ul>\n\n<h2 id=\"Michaud\">Myl\u00e8ne Bourque and Simon Michaud \u2013 Kamouraska, Quebec </h2>\n\n<div class=\"pull-right col-md-4\">\n  <figure class=\"thumbnail\">  \n  <img class=\"img-responsive\" src=\"http://multimedia.agr.gc.ca/pack/img/michaud.jpg\" alt=\"\">\n  <figcaption class=\"caption\">Simon Michaud lives with his children and wife Myl\u00e8ne Bourque in Kamouraska, Quebec. <br>\n    <small>(Photo provided by Simon Michaud)</small></figcaption>\n  </figure>\n</div>\n\n<p>Myl\u00e8ne and  Simon still remember their experience at last year's competition. They were one  of two national winners, recognized for the business sense and adaptability  they demonstrated in running their dairy operation in their hometown of  Kamouraska. That adaptability was put to the test in 2020.</p>\n<p>  The  competition win originally gave them a boost of confidence to take on more  diverse projects. They have added potato farming to their operations, as Simon  has begun purchasing his uncle's potato business. </p>\n<p>Things were  going to plan, when COVID-19 suddenly entered the picture. </p>\n<p>\"It came  during a period of intense harvest,\" Simon recalls. \"We weren't hit  full-force,\" Myl\u00e8ne explains. \"The situation wasn't ideal, but I just thought  to myself: \u2018We have enough to eat, even if the variety on our plate sometimes  has changed.\u2019\"</p>\n<p>With four  children enrolled at two different schools, the family had to take stock of  everyone's safety in this new reality. At the same time, Myl\u00e8ne and Simon had  to rethink their operations, which rose as fell along with the intensity of the  virus. </p>\n<p>  At the low  points, they found themselves adjusting to lower local demand for their milk.</p>\n\n<div class=\"pull-left col-md-4\">\n  <figure class=\"thumbnail\">  \n  <img class=\"img-responsive\" src=\"http://multimedia.agr.gc.ca/pack/img/simon_michaud.jpg\" alt=\"\">\n  <figcaption class=\"caption\">When COVID-19 came to the Kamouraska region in the spring, Simon's children spent more time at home. Simon is pictured with one of his daughters on their dairy operation.<br>\n<small>(Photo provided by Simon Michaud)</small></figcaption>\n  </figure>\n</div>\n<p>The farm is  now on track to meet its targets, which Simon credits to the strong interest in  dairy in Quebec as well as representation from dairy organizations and  stakeholders. </p>\n<p>  Personally,  they are also doing well. Having gone through tense and positive moments, the  Qu\u00e9b\u00e9cois farmers are encouraging their colleagues across the country to not  freeze on any single obstacle. \"In difficult moments, remind yourself of the  goal,\" Myl\u00e8ne says. \"The road ahead isn't all blackness. Latch onto positive  moments.\" Simon adds, \"We kept in touch with our social circle through thick  and thin. It helps us get past hardship. If we'd been more isolated, maybe we  wouldn't have done as well.\"  </p>\n\n<div class=\"clearfix\"></div>\n\n\n<h2 id=\"Bergmann\">Will and Jen Bergmann \u2013 Glenlea, Manitoba</h2>\n\n<div class=\"pull-right col-md-4\">\n  <figure class=\"thumbnail\">  \n  <img class=\"img-responsive\" src=\"http://multimedia.agr.gc.ca/pack/img/bergmann_farm.jpg\" alt=\"\">\n  <figcaption class=\"caption\">The entire Bergmann family helps maintain their Community Supported Agriculture garden. <br>\n   <small> (Photo provided by the Bergmann family)</small></figcaption>\n  </figure>\n</div>\n\n<p>Against all  odds, it appears that the pandemic has had a positive effect on last year's  Manitoban honourees, both on their farming operations as well as their business  outlook.\n</p><p>  Before  COVID-19, Will would make the 10-minute drive to the city two or more times a  week to deliver produce from his vegetable garden to Winnipeg restaurants. \n</p><p>\n  Now, the  tables have turned, and Will is welcoming restaurant chefs from the big city to  his community farm. Will enjoys nothing more than sharing his farming knowledge  with others, and says that his reach with chefs has tripled in spite of the  pandemic.\n</p><p>\"Regardless  of how big COVID gets, people will always need to eat,\" Will points out. </p>\n\n<div class=\"pull-left col-md-4\">\n  <figure class=\"thumbnail\">  \n  <img class=\"img-responsive\" src=\"http://multimedia.agr.gc.ca/pack/img/bergmann_family_aug20.jpg\" alt=\"\">\n  <figcaption class=\"caption\">The pandemic has not slowed down the Bergmann family's farming activities. Will, Jen and their children Brooklyn, Cole and Emmett are pictured in their combine. <br>\n<small>(Photo provided by the Bergmann family)</small></figcaption>\n  </figure>\n</div>\n\n<p>Already  active in the Winnipeg food scene, Will has found even more ways to develop  connections after COVID-19's arrival. \n</p><p>\n  Will stays  connected to audiences through social media, where he takes time to explain the  ins and outs of Canadian agriculture from a first-hand perspective. He hears  people's concerns about their food, and regularly fields questions about how it  gets from the farm to the dinner table.\n</p><p>\"If we can  share the stories of these family farms, people connect in a different way,\"  Will says. \"If we share our emotions as well as our thoughts, [audiences] start  listening to whatever is shared. \n</p><p>\"There's  this incredible thirst to bridge the urban and farming communities at either  end of the supply chain, here in Manitoba,\" Will continues. \"People want to  know where their food comes from, who farmers are.\" \n</p><div class=\"clearfix\"></div>\n\n<h2 id=\"Lockwood\">Cammy and James Lockwood \u2013 Cobble Hill, British Columbia</h2>\n\n<div class=\"pull-right col-md-4\">\n  <figure class=\"thumbnail\">  \n  <img class=\"img-responsive\" src=\"http://multimedia.agr.gc.ca/pack/img/lockwood.jpg\" alt=\"\">\n  <figcaption class=\"caption\">Cammy Lockwood stands in front of egg cartons set for delivery. Lockwood Farms has adjusted key aspects of their operations because of the COVID-19 pandemic. <br><small>(Photo provided by Cammy Lockwood)</small>\n</figcaption>\n  </figure>\n</div>\n\n<p>Cammy had  always been on top of her and her husband's egg farm. The property is insured  against forest fires, while computer files are regularly backed up. </p>\n<p>  But along  with the rest of British Columbia's food-service industry, Lockwood Farms  couldn't have known that COVID-19 was coming. </p>\n<p>  When the  pandemic arrived in British Columbia, it had a blanket effect on B.C.'s  food-service industry, including on Lockwood Farms' operations. Within one  week, their last restaurant customer withdrew their business from the farm's  egg sales. </p>\n<p>\"We knew  the change would be bigger than us,\" Cammy recalls. She attempted to go back to  selling her goods at farmer's markets, but very few shoppers turned up. </p>\n<p>  Soon, the  mother of three young children realized that she would have to pivot so that  Lockwood Farms could stay in business.</p>\n<p>As  Canadians flocked to online purchasing, Cammy quickly drew on her software  development skills to build an online ordering platform. Between texting,  emails and phone calls, she gathered enough of a client base to launch the  online service in July. In two short weeks, the home-delivery business jumped  from 30 orders a week to 250 orders. All the deliveries were carried out by  volunteers until mid-September, when restaurants also started filing their  orders. </p>\n<p>  Coming out  of this difficult time, Cammy has new thoughts on what's important in life.  Now, science and safety come before business revenues, especially now that  business is more stable. She has even more appreciation for her community's  support, and also credits government support for helping small businesses  weather the pandemic. </p>\n<p>\"Even if  COVID-19 has changed how we produce food, our community came together during  our time of need,\" Cammy says. If the pandemic initially uprooted her existing  business model, business has bounced back stronger than ever with the  community's backing. </p>\n\n<h2 id=\"Roos\">Jony and Jan Roos \u2013 Brownsville, Ontario</h2>\n\n<div class=\"pull-right col-md-4\">\n  <figure class=\"thumbnail\">  \n  <img class=\"img-responsive\" src=\"http://multimedia.agr.gc.ca/pack/img/fall_2020_roos_kids.jpg\" alt=\"\">\n  <figcaption class=\"caption\">Jony Roos is pictured at the family home with her four children. <br>\n<small>(Photo provided by Jony Roos)</small>\n</figcaption>\n  </figure>\n</div>\n\n\n<p>For the  Roos family, the pandemic has only driven them to work harder on their dairy  farm. Together, Jony and her husband Jan raise their four children and upwards  of 2,500 kids. </p>\n<p>  Perhaps  luckily for them, these \"kids,\" are actually the young goats of the Roos Dairy  Goats herd. </p>\n<p>\"Pandemic  or not, the animals still need to be taken care of,\" Jony points out. \"Jan and  I are down-to-earth people. We think there's no need to feel fear or panic.\"</p>\n<p>  Everything  is continuing as normal on the farmstead, located just over 30 minutes east of  London. It's business as usual: Jan looks after the goats, while Jony handles  roadside produce sales, bookkeeping, and goat-kidding season. </p>\n<p>  For Jony,  the pandemic highlights how central the food industry is to communities during  COVID-19. She salutes the farmers, truckers, processors and food-chain stores  for their role on the front lines of Canada's food supply. \"Food just does not  fall on your plate, just like that,\" Jony says. </p>\n<p>The couple  has also been preoccupied with some side projects. Before COVID-19, Jan had  already been developing a new pellet feed mixture for the goats. He thought to  source some machinery from international suppliers; however, some of the  shipments were delayed recently due to the pandemic.</p>\n<div class=\"pull-left col-md-4\">\n  <figure class=\"thumbnail\">  \n  <img class=\"img-responsive\" src=\"http://multimedia.agr.gc.ca/pack/img/fall_2020_roos_milk.jpg\" alt=\"\">\n  <figcaption class=\"caption\">Jony and her husband Jan set up the goat-milking stations. <br>\n<small>(Photo provided by Jony Roos)</small>\n</figcaption>\n  </figure>\n</div>\n<p>On Jony's  end, as she had already created an app to track her goats' health she has spent  some additional time during the pandemic to refine its features. Currently, the  app records data on feeding, medication and other day-to-day benchmarks. </p>\n<p>  During the  warmer months, Jony also sells roadside produce near the farm. </p>\n<p>\"A lot of  customers are interested in buying local,\" Jony says. \"They don't want to wait  in line at the grocery store.\" </p>\n<p>  Keeping  busy has allowed Jony and Jan to not linger on the effects of COVID-19 on their  lives.</p>\n<p> \"I think of  this as another disease,\" Jony says. \"We try to use our common sense \u2013 that's  our main goal.\"</p>\n<p>  Aside from  a cool attitude, two things help her to power through these months.</p>\n<p> \"I live on  coffee. Since the COVID period started, I take it at the same intensity, maybe  more.\" Jony also adds, \"I take life one day at a time, putting my trust in  God's hands.\" </p>\n\n<div class=\"clearfix\"></div>\n\n<h2 id=\"Vert\">Natasha Pospisil and Dallas Vert \u2013 Kirriemuir, Alberta </h2>\n\n<div class=\"pull-right col-md-4\">\n  <figure class=\"thumbnail\">  \n  <img class=\"img-responsive\" src=\"http://multimedia.agr.gc.ca/pack/img/family_from_last_summer.jpg\" alt=\"\">\n  <figcaption class=\"caption\">During the pandemic, Dallas Vert and Natasha Pospisil are able to continue with their agricultural operations. Their kids help out with simple tasks.<br>\n <small>(Photo provided by Natasha Pospisil) </small> \n</figcaption>\n  </figure>\n</div>\n<p>Northeast  of Calgary and 20 minutes from the border with Saskatchewan, is the hamlet of  Kirriemuir  which last year's Alberta  regional winners call home. While COVID-19 is an evolving situation, they are  focused on doing what they can to prevent the virus from spreading in their  community. </p>\n<p>\"The  biggest hoop to jump through was how to guide our customers during this time,\"  Natasha admits. </p>\n<p>  Natasha and  her husband Dallas enforce physical-distancing measures between their customers  and employees. During normal times, Dallas' fertilizer retail business holds up  to 12 people in the office. Now, customers wait for service in their trucks and  vehicles outside the building. Inside her general store, Natasha also installed  Plexiglass barriers for everyone's added protection. Between them, the couple  also maintains a grain farm and an agricultural insurance advisory service,  while raising three young children. </p>\n<p>\"Our  biggest concern was keeping our team healthy,\" Natasha says. Whether it's a  family member or an employee, \"if we lose one person, it's like losing a leg:  lose a few bricks here, and all of the pieces start falling apart.\"  </p>\n\n<div class=\"pull-leftt col-md-4\">\n  <figure class=\"thumbnail\">  \n  <img class=\"img-responsive\" src=\"http://multimedia.agr.gc.ca/pack/img/aerial_of_kirriemuir.jpg\" alt=\"\">\n  <figcaption class=\"caption\">Much of Kirriemuir is captured in this aerial shot, including Dallas Vert and Natasha Pospisil's agricultural businesses. <br>\n<small>(Photo provided by Natasha Pospisil)  </small>\n</figcaption>\n  </figure>\n</div>\n\n\n<p>The other  part of the balancing act is with keeping up morale, even if the virus's  forecast is uncertain. </p>\n<p>\"If we let  the virus overtake our lives and we get worried, you can't use that as an  excuse to slow you down,\" Dallas says. Whether the restrictions come from the  pandemic or something else, he encourages people to not view hardships as a  death sentence. \"There's always a positive, creative way of getting through  those circumstances.\" To continue growing and preparing for what comes after  the pandemic passes over, he and Natasha are looking to future: behind the  Plexiglass-fitted counter, their kids are already giving service to customers  at the general store. </p>\n\n<div class=\"clearfix\"></div>\n<div class=\"alert alert-info\">\n<p>The <a href=\"?id=1461767369849\">Canadian Agricultural Partnership</a> is a five-year investment by federal, provincial and territorial governments to strengthen the agriculture and agri-food sector. For more information about the next generation of farming professionals, check out <a href=\"?id=1579018139768\">The Canadian Agricultural Youth Council</a>.</p>\n</div>\n\n<section class=\"panel panel-success\">\n  <header class=\"panel-heading\">\n    <h2 class=\"panel-title\">Get more Agri-info</h2>\n    </header>\n  <div class=\"panel-body\">\n    <ul>\n      <li><b>Want more stories like this?</b> Explore what else <a href=\"?id=1419351635969\">Agri-info</a> has to offer.</li>\n      <li><b>Interested in reporting on this story?</b> Contact AAFC Media Relations at <a href=\"mailto:aafc.mediarelations-relationsmedias.aac@canada.ca\">aafc.mediarelations-relationsmedias.aac@canada.ca</a> to arrange an interview with one of our experts.</li>\n      <li><b>Have a story idea or feedback to share?</b> Get in touch at <a href=\"mailto:aafc.agri-info.aac@canada.ca\">aafc.agri-info.aac@canada.ca</a>!</li>\n      <li><b>Never miss an update.</b> <a href=\"https://pab-dgab-aafc-aac.microsoftcrmportals.com/subscription/\">Subscribe</a> to Agri-info today.</li>\n    </ul>\n  </div>\n</section>\n\r\n    ",
        "fr": "\r\n    <p>En raison  de la pand\u00e9mie, 2020 a \u00e9t\u00e9 une ann\u00e9e sans pr\u00e9c\u00e9dent pour les jeunes producteurs  agricoles aux quatre coins du Canada. </p>\n<p>Cette ann\u00e9e  marque \u00e9galement le 40e anniversaire de <a href=\"https://www.oyfcanada.com/language/fr/\">Jeunes agriculteurs d'\u00e9lite (JA\u00c9) du Canada</a>. Chaque ann\u00e9e depuis 1980, JA\u00c9  recherche <a href=\"https://www.canada.ca/fr/agriculture-agroalimentaire/nouvelles/2019/08/le-gouvernement-du-canada-investit-dans-les-jeunes-agriculteurs.html\">la prochaine g\u00e9n\u00e9ration de chefs de file dans le secteur agricole  canadien</a> et est soutenu en partie par Agriculture et Agroalimentaire Canada, par les provinces et les  territoires et  par le Partenariat canadien pour l'agriculture. </p>\n<p>Nous avons  joint des laur\u00e9ats de l'ann\u00e9e derni\u00e8re pour voir comment ils se sont adapt\u00e9s \u00e0  la r\u00e9alit\u00e9 actuelle, par de grands ou de petits gestes. </p>\n<p>  En savoir  plus sur leurs histoires\u00a0: </p>\n<ul>\n  <li><a href=\"#Michaud\">Myl\u00e8ne  Bourque et Simon Michaud (Qu\u00e9bec)</a></li>\n  <li><a href=\"#Bergmann\">Will  et Jen Bergmann (Manitoba)</a></li>\n  <li><a href=\"#Lockwood\">Cammy  et James Lockwood (Colombie-Britannique)</a></li>\n  <li><a href=\"#Roos\">Jony  et Jan Roos (Ontario)</a></li>\n  <li><a href=\"#Vert\">Natasha  Pospisil et Dallas Vert (Alberta)</a></li>\n</ul>\n\n<h2 id=\"Michaud\">Myl\u00e8ne Bourque et Simon Michaud \u2013 Kamouraska (Qu\u00e9bec) </h2>\n\n<div class=\"pull-right col-md-4\">\n  <figure class=\"thumbnail\">  \n  <img class=\"img-responsive\" src=\"http://multimedia.agr.gc.ca/pack/img/michaud.jpg\" alt=\"\"> \n  <figcaption class=\"caption\">Simon Michaud vit \u00e0 Kamouraska (Qu\u00e9bec) avec ses  enfants et sa femme, Myl\u00e8ne Bourque.\n  <br>\n    <small>(Photo fournie par Simon Michaud)</small></figcaption>\n  </figure>\n</div>\n\n<p>Myl\u00e8ne et  Simon se souviennent encore de leur exp\u00e9rience dans le cadre du concours de  l'an dernier. Ils font partie des deux laur\u00e9ats nationaux reconnus pour leur  sens des affaires et pour leur facult\u00e9 d'adaptation dans la gestion de leur  ferme laiti\u00e8re dans leur ville natale de Kamouraska. Cette facult\u00e9 d'adaptation  a \u00e9t\u00e9 mise \u00e0 l'\u00e9preuve en 2020.</p>\n<p>  Le fait de  gagner le concours leur a donn\u00e9 au d\u00e9part la bouff\u00e9e de confiance qu'il leur  fallait pour diversifier leurs projets. Ils ont notamment ajout\u00e9 la culture de  la pomme de terre \u00e0 leurs activit\u00e9s, \u00e9tant donn\u00e9 que Simon \u00e9tait en processus  de racheter l'entreprise de production de pommes de terre de son oncle. </p>\n<p>  Tout  fonctionnait comme pr\u00e9vu\u2026 lorsque la COVID-19 s'est soudainement ajout\u00e9e \u00e0  l'\u00e9quation. </p>\n<p>\u00ab\u00a0C'est  apparu durant une p\u00e9riode de r\u00e9colte intense\u00a0\u00bb, se rappelle Simon.  \u00ab\u00a0Nous n'avons pas \u00e9t\u00e9 frapp\u00e9s de plein fouet, explique Myl\u00e8ne. La situation  n'\u00e9tait pas id\u00e9ale, mais je me suis dit\u00a0: Au moins, nous ne manquons pas  de nourriture, m\u00eame si la vari\u00e9t\u00e9 dans notre assiette changeait parfois.\u00a0\u00bb</p>\n<p>  Avec quatre  enfants inscrits dans deux \u00e9coles diff\u00e9rentes, la famille a d\u00fb faire le point  sur la s\u00e9curit\u00e9 de tous dans cette nouvelle r\u00e9alit\u00e9. Au m\u00eame moment, Myl\u00e8ne et  Simon ont d\u00fb revoir leurs op\u00e9rations, qui fluctuaient au rythme de l'intensit\u00e9  du virus. </p>\n<p>  Aux points  les plus bas, ils ont d\u00fb s'ajuster \u00e0 une baisse de la demande de lait dans leur  r\u00e9gion. </p>\n\n<div class=\"pull-left col-md-4\">\n  <figure class=\"thumbnail\">  \n  <img class=\"img-responsive\" src=\"http://multimedia.agr.gc.ca/pack/img/simon_michaud.jpg\" alt=\"\">\n  <figcaption class=\"caption\">Lorsque la COVID-19 est apparue dans la r\u00e9gion  de Kamouraska au printemps, les enfants de Simon se sont mis \u00e0 passer plus de  temps \u00e0 la maison. Voici une photo de Simon sur sa ferme laiti\u00e8re, en compagnie  d'une de ses filles. <br>\n<small>(Photo offerte par  Simon Michaud)</small></figcaption>\n  </figure>\n</div>\n\n<p>Leur  exploitation agricole est maintenant en voie d'attendre ses objectifs et c'est,  aux dires de Simon, gr\u00e2ce au grand int\u00e9r\u00eat des Qu\u00e9b\u00e9cois pour les produits  laitiers, ainsi qu'aux efforts des organismes et des intervenants du secteur  laitier. </p>\n<p>  Personnellement,  ils se d\u00e9brouillent bien \u00e9galement. Ayant travers\u00e9 des moments difficiles et  des moments plus positifs, ces producteurs agricoles du Qu\u00e9bec encouragent  leurs coll\u00e8gues de tout le pays \u00e0 ne pas s'arr\u00eater devant un obstacle. \u00ab\u00a0Dans  les moments difficiles, souvenez-vous de votre objectif, conseille Myl\u00e8ne. Il  n'y a pas que du noir devant vous. Accrochez-vous \u00e0 tous les moments  positifs.\u00a0\u00bb \u00ab\u00a0Nous restons en contact avec notre cercle social, dans  les bons comme dans les mauvais moments, ajoute Simon. Cela nous aide \u00e0  surmonter les difficult\u00e9s. Si nous avions \u00e9t\u00e9 plus isol\u00e9s, nous ne nous en  serions peut-\u00eatre pas sortis aussi bien.\u00a0\u00bb  </p>\n<div class=\"clearfix\"></div>\n\n<h2 id=\"Bergmann\">Will et Jen Bergmann \u2013 Glenlea (Manitoba)</h2>\n\n<div class=\"pull-right col-md-4\">\n  <figure class=\"thumbnail\">  \n  <img class=\"img-responsive\" src=\"http://multimedia.agr.gc.ca/pack/img/bergmann_farm.jpg\" alt=\"\">\n  <figcaption class=\"caption\">Toute la famille Bergmann participe \u00e0  l'entretien de son jardin cultiv\u00e9 dans le cadre d'un programme d'agriculture  soutenue par la communaut\u00e9. <br>\n   <small> (Photo fournie par la famille Bergmann)</small></figcaption>\n  </figure>\n</div>\n\n<p>Contre  toute attente, il semble que la pand\u00e9mie ait eu un effet positif sur les  laur\u00e9ats manitobains de l'ann\u00e9e derni\u00e8re, tant sur leurs exploitations  agricoles que sur leurs perspectives du march\u00e9.</p>\n<p>  Avant la  COVID-19, Will faisait le trajet de 10\u00a0minutes en voiture jusqu'\u00e0 la ville  au moins deux fois par semaine pour livrer les produits de son potager aux  restaurants de Winnipeg. </p>\n<p>  Aujourd'hui,  les r\u00f4les sont invers\u00e9s et Will accueille dans sa ferme communautaire des chefs  de restaurants de la grande ville. Will n'appr\u00e9cie rien de plus que de partager  ses connaissances en mati\u00e8re d'agriculture et affirme que sa popularit\u00e9 aupr\u00e8s  des chefs a tripl\u00e9 malgr\u00e9 la pand\u00e9mie.</p>\n<p>  \u00ab\u00a0Quelle  que soit l'ampleur de la COVID, les gens auront toujours besoin de  manger\u00a0\u00bb, souligne Will. </p>\n\n<div class=\"pull-left col-md-4\">\n  <figure class=\"thumbnail\">  \n  <img class=\"img-responsive\" src=\"http://multimedia.agr.gc.ca/pack/img/bergmann_family_aug20.jpg\" alt=\"\">\n  <figcaption class=\"caption\">La pand\u00e9mie n'a pas ralenti les activit\u00e9s  agricoles de la famille Bergmann. Will, Jen et leurs enfants Brooklyn, Cole et  Emmett sont photographi\u00e9s dans leur moissonneuse-batteuse.<br>\n   <small> (Photo fournie par la famille Bergmann)</small></figcaption>\n  </figure></div>\n\n<p>D\u00e9j\u00e0 actif  sur la sc\u00e8ne alimentaire de Winnipeg, Will a trouv\u00e9 encore plus de moyens de  d\u00e9velopper des liens apr\u00e8s l'apparition de la COVID-19. </p>\n\n<p>  Will reste  en contact avec le public par le biais des m\u00e9dias sociaux, o\u00f9 il prend le temps  d'expliquer, d'un point de vue direct, les tenants et aboutissants de  l'agriculture canadienne. Il \u00e9coute les pr\u00e9occupations des gens concernant leur  nourriture et r\u00e9pond r\u00e9guli\u00e8rement \u00e0 des questions sur la fa\u00e7on dont elle passe  de la ferme \u00e0 la table.</p>\n\n<p>  \u00ab\u00a0Si  nous pouvons parler des histoires de ces fermes familiales, les gens se  rapprochent d'une diff\u00e9rente mani\u00e8re, affirme Will. Si nous faisons part de nos  \u00e9motions ainsi que de nos pens\u00e9es, le public commence \u00e0 \u00e9couter ce qu'on lui  communique.\u00a0\u00bb </p>\n\n<p>  \u00ab\u00a0Il y  a cette incroyable soif de rapprocher les communaut\u00e9s urbaines et agricoles \u00e0  chaque extr\u00e9mit\u00e9 de la cha\u00eene d'approvisionnement, ici au Manitoba, poursuit  Will. Les gens veulent savoir d'o\u00f9 vient leur nourriture, qui sont les  agriculteurs.\u00a0\u00bb </p>\n\n<div class=\"clearfix\"></div>\n\n<h2 id=\"Lockwood\">Cammy et James Lockwood \u2013 Cobble Hill (Colombie-Britannique)  </h2>\n\n<div class=\"pull-right col-md-4\">\n  <figure class=\"thumbnail\">  \n  <img class=\"img-responsive\" src=\"http://multimedia.agr.gc.ca/pack/img/lockwood.jpg\" alt=\"\"> \n  <figcaption class=\"caption\">Cammy Lockwood se tient devant des bo\u00eetes d'\u0153ufs  pr\u00eates \u00e0 \u00eatre livr\u00e9es. Lockwood Farms a ajust\u00e9 des aspects cl\u00e9s de ses  op\u00e9rations en raison de la pand\u00e9mie de COVID-19.\n  <br><small>(Photo fournie par Cammy Lockwood)</small>\n</figcaption>\n  </figure>\n</div>\n\n<p>Cammy a  toujours \u00e9t\u00e9 au sommet de la ferme avicole dont elle est propri\u00e9taire avec son  mari. Les biens sont assur\u00e9s contre les feux de for\u00eat, tandis que les fichiers  informatiques sont r\u00e9guli\u00e8rement sauvegard\u00e9s. </p>\n<p>  Mais comme  le reste de l'industrie de la restauration de la Colombie-Britannique, Lockwood  Farms ne pouvait pas savoir que la COVID-19 viendrait. </p>\n<p>  Lorsque la  pand\u00e9mie a frapp\u00e9 la Colombie-Britannique, elle a eu un effet important sur  l'industrie de la restauration, y compris sur les activit\u00e9s de Lockwood Farms.  En l'espace d'une semaine, le dernier client du restaurant a retir\u00e9 son  entreprise des ventes d'\u0153ufs de la ferme. </p>\n<p>  \u00ab\u00a0Nous  savions que le changement serait plus important que nous\u00a0\u00bb, se rappelle  Cammy. Elle a tent\u00e9 de recommencer \u00e0 vendre ses produits sur les march\u00e9s  fermiers, mais tr\u00e8s peu de clients se sont pr\u00e9sent\u00e9s. </p>\n<p>Peu apr\u00e8s,  la m\u00e8re de trois jeunes enfants a r\u00e9alis\u00e9 qu'elle devrait faire pivoter son  entreprise pour que Lockwood Farms puisse rester en activit\u00e9. </p>\n<p>  Alors que  les Canadiens affluent vers les achats en ligne, Cammy a rapidement mis \u00e0  profit ses comp\u00e9tences en mati\u00e8re de d\u00e9veloppement de logiciels pour cr\u00e9er une  plateforme de commande en ligne. Gr\u00e2ce aux textos, aux courriels et aux appels  t\u00e9l\u00e9phoniques, elle a r\u00e9uni une client\u00e8le suffisante pour lancer le service en  ligne en juillet. En deux semaines, le nombre de commandes livr\u00e9es \u00e0 domicile  est pass\u00e9 de 30 \u00e0 250 par semaine. Toutes les livraisons ont \u00e9t\u00e9 effectu\u00e9es par  des b\u00e9n\u00e9voles jusqu'\u00e0 la mi-septembre, date \u00e0 laquelle les restaurants ont  \u00e9galement commenc\u00e9 \u00e0 passer leurs commandes. </p>\n<p>Au sortir  de cette p\u00e9riode difficile, Cammy a de nouvelles id\u00e9es sur ce qui est important  dans la vie. Aujourd'hui, la science et la s\u00e9curit\u00e9 passent avant les revenus  de l'entreprise, surtout depuis que l'entreprise est plus stable. Elle appr\u00e9cie  d'autant plus le soutien de sa communaut\u00e9 et reconna\u00eet \u00e9galement que le soutien  gouvernemental a aid\u00e9 les petites entreprises \u00e0 faire face \u00e0 la pand\u00e9mie. </p>\n<p>  \u00ab\u00a0M\u00eame  si la COVID-19 a chang\u00e9 notre fa\u00e7on de produire de la nourriture, notre  communaut\u00e9 s'est rassembl\u00e9e pendant nos moments difficiles\u00a0\u00bb, affirme  Cammy. Si la pand\u00e9mie a initialement d\u00e9racin\u00e9 son mod\u00e8le d'entreprise existant,  les affaires ont rebondi plus fort que jamais avec le soutien de la communaut\u00e9. </p>\n\n<h2 id=\"Roos\">Jony et Jan Roos \u2013 Brownsville (Ontario)</h2>\n\n<div class=\"pull-right col-md-4\">\n  <figure class=\"thumbnail\">  \n  <img class=\"img-responsive\" src=\"http://multimedia.agr.gc.ca/pack/img/fall_2020_roos_kids.jpg\" alt=\"\">\n  <figcaption class=\"caption\">Jony Roos devant la maison familiale avec ses  quatre enfants. <br>\n<small>(Photo fournie par Jony Roos)</small>\n</figcaption>\n  </figure>\n</div>\n\n\n<p>La pand\u00e9mie  a pouss\u00e9 les membres de la famille Roos \u00e0 travailler plus dur sur leur ferme  laiti\u00e8re caprine \u00ab\u00a0Roos Dairy Goats \u00bb. Jony et son mari Jan \u00e9l\u00e8vent leurs  quatre enfants et plus de 2\u00a0500\u00a0b\u00e9b\u00e9s. </p>\n<p>  Heureusement  pour eux, ces \u00ab\u00a0b\u00e9b\u00e9s\u00a0\u00bb sont en fait des chevreaux. </p>\n<p>  \u00ab\u00a0Pand\u00e9mie  ou pas, les animaux ont encore besoin d'\u00eatre soign\u00e9s, souligne Jony. Jan et moi  sommes des gens terre-\u00e0-terre. Nous pensons qu'il n'est pas n\u00e9cessaire de  ressentir de la peur ou de la panique.\u00a0\u00bb </p>\n<p>  Tout se  passe normalement dans la ferme situ\u00e9e \u00e0 un peu plus de 30\u00a0minutes \u00e0 l'est  de London. C'est comme \u00e0 l'habitude\u00a0: Jan s'occupe des ch\u00e8vres, tandis que  Jony s'occupe de la vente des produits en bordure de route, de la comptabilit\u00e9  et de la p\u00e9riode de mise bas des ch\u00e8vres.</p>\n<p>Pour Jony,  la pand\u00e9mie de COVID-19 met en \u00e9vidence l'importance de l'industrie alimentaire  pour les communaut\u00e9s. Elle salue les agriculteurs, les camionneurs, les  pr\u00e9pos\u00e9s au traitement et les magasins de la cha\u00eene alimentaire pour leur r\u00f4le  de premi\u00e8re ligne dans l'approvisionnement alimentaire du Canada. \u00ab\u00a0La  nourriture ne tombe pas dans votre assiette, juste comme \u00e7a\u00a0\u00bb, affirme  Jony. </p>\n<p>  Le couple a  \u00e9galement \u00e9t\u00e9 occup\u00e9 par certains projets parall\u00e8les. Avant la COVID-19, Jan  \u00e9tait d\u00e9j\u00e0 en train de d\u00e9velopper un nouveau m\u00e9lange d'aliments granul\u00e9s pour  les ch\u00e8vres. Il pr\u00e9voyait acheter de la machinerie aupr\u00e8s de fournisseurs  internationaux, mais certaines livraisons ont \u00e9t\u00e9 retard\u00e9es r\u00e9cemment en raison  de la pand\u00e9mie. </p>\n<div class=\"pull-left col-md-4\">\n  <figure class=\"thumbnail\">  \n  <img class=\"img-responsive\" src=\"http://multimedia.agr.gc.ca/pack/img/fall_2020_roos_milk.jpg\" alt=\"\">\n  <figcaption class=\"caption\">Jony et son mari Jan ont mis en place des  stations de traite des ch\u00e8vres. <br>\n<small>(Photo fournie par Jony Roos)</small>\n</figcaption>\n  </figure>\n</div>\n<p>De son  c\u00f4t\u00e9, Jony, qui avait d\u00e9j\u00e0 cr\u00e9\u00e9 une application pour suivre la sant\u00e9 de ses  ch\u00e8vres, a pass\u00e9 un peu plus de temps pendant la pand\u00e9mie pour en affiner les  fonctionnalit\u00e9s. Actuellement, l'application enregistre des donn\u00e9es sur  l'alimentation, les m\u00e9dicaments et d'autres \u00e9l\u00e9ments du quotidien. </p>\n<p>  Pendant les  mois les plus chauds, Jony vend aussi des produits au bord de la route, pr\u00e8s de  la ferme. </p>\n<p>\u00ab\u00a0Beaucoup  de clients sont int\u00e9ress\u00e9s par l'achat local, affirme Jony. Ils ne veulent pas  faire la queue \u00e0 l'\u00e9picerie.\u00a0\u00bb <br>\n  En se  tenant occup\u00e9s, Jony et Jan ne sont pas attard\u00e9s sur les effets de la COVID-19  sur leur vie. </p>\n  <p>\n  \u00ab\u00a0Je  consid\u00e8re cela comme une autre maladie, dit Jony. Nous essayons d'utiliser  notre bon sens\u00a0\u2013 c'est notre principal objectif.\u00a0\u00bb <br>\nEn plus de  son attitude d\u00e9tendue, deux choses l'aident \u00e0 tenir le coup pendant ces mois  difficiles. </p>\n<p>\u00ab\u00a0C'est  le caf\u00e9 qui me tient en vie. Depuis le d\u00e9but de la pand\u00e9mie, j'en consomme avec  la m\u00eame intensit\u00e9, peut-\u00eatre m\u00eame plus\u00a0\u00bb, confie Jony avant  d'ajouter\u00a0: \u00ab\u00a0Je prends la vie un jour \u00e0 la fois, en mettant ma  confiance dans les mains de Dieu.\u00a0\u00bb </p>\n<div class=\"clearfix\"></div>\n\n<h2 id=\"Vert\">Natasha Pospisil et Dallas Vert \u2013 Kirriemuir (Alberta)</h2>\n\n<div class=\"pull-right col-md-4\">\n  <figure class=\"thumbnail\">  \n  <img class=\"img-responsive\" src=\"http://multimedia.agr.gc.ca/pack/img/family_from_last_summer.jpg\" alt=\"\">\n  <figcaption class=\"caption\">Pendant la pand\u00e9mie, Dallas Vert et Natasha  Pospisil sont en mesure de poursuivre leurs activit\u00e9s agricoles. Leurs enfants  les aident \u00e0 accomplir des t\u00e2ches simples. <br>\n <small>(Photo fournie par Natasha Pospisil) </small> \n</figcaption>\n  </figure>\n</div>\n<p>Au nord-est  de Calgary et \u00e0 20\u00a0minutes de la fronti\u00e8re avec la Saskatchewan se trouve  le hameau de Kirriemuir, que les laur\u00e9ats r\u00e9gionaux de l'Alberta de l'ann\u00e9e  derni\u00e8re appellent leur chez-soi. Bien que la situation de la COVID-19 soit en  pleine \u00e9volution, ils s'efforcent de faire de leur mieux pour emp\u00eacher le virus  de se propager dans leur communaut\u00e9. </p>\n<p>  \u00ab\u00a0Le  plus grand obstacle \u00e0 surmonter \u00e9tait de savoir comment guider nos clients  pendant cette p\u00e9riode\u00a0\u00bb, admet Natasha. </p>\n<p>  Natasha et  son mari, Dallas, appliquent des mesures de distanciation physique entre leurs  clients et leurs employ\u00e9s. En temps normal, le commerce de d\u00e9tail d'engrais de  Dallas accueille jusqu'\u00e0 12\u00a0personnes dans ses bureaux. Aujourd'hui, les  clients attendent le service dans leur v\u00e9hicule \u00e0 l'ext\u00e9rieur du b\u00e2timent. Dans  son magasin g\u00e9n\u00e9ral, Natasha a \u00e9galement install\u00e9 des barri\u00e8res en plexiglas  pour une protection accrue de tous. Entre eux, le couple g\u00e8re \u00e9galement une  ferme c\u00e9r\u00e9ali\u00e8re et un service de conseil en assurance agricole, tout en  \u00e9levant trois jeunes enfants. </p>\n<p>\u00ab\u00a0Notre  plus grande pr\u00e9occupation \u00e9tait de maintenir notre \u00e9quipe en bonne  sant\u00e9\u00a0\u00bb, affirme Natasha. Qu'il s'agisse d'un membre de la famille ou d'un  employ\u00e9, \u00ab\u00a0si nous perdons une personne, c'est comme si nous perdions une  jambe\u00a0: perdez quelques briques ici, et tous les morceaux commencent \u00e0  s'effondrer\u00a0\u00bb. </p>\n<div class=\"pull-leftt col-md-4\">\n  <figure class=\"thumbnail\">  \n  <img class=\"img-responsive\" src=\"http://multimedia.agr.gc.ca/pack/img/aerial_of_kirriemuir.jpg\" alt=\"\">\n  <figcaption class=\"caption\">Photo a\u00e9rienne montrant une grande partie de Kirriemuir,  y compris les entreprises agricoles de Dallas Vert et Natasha Pospisil.<br>\n<small>(Photo fournie par Natasha Pospisil)  </small>\n</figcaption>\n  </figure>\n</div>\n\n\n<p>L'autre  partie de cet \u00e9quilibre consiste \u00e0 garder le moral, m\u00eame si les pr\u00e9visions  concernant le virus sont incertaines. </p>\n<p>  \u00ab\u00a0Si  nous laissons le virus prendre le dessus sur nos vies et que nous sommes  inquiets, nous ne pouvons pas utiliser cela comme excuse pour ralentir\u00a0\u00bb,  affirme Dallas. Que les restrictions proviennent de la pand\u00e9mie ou d'autre  chose, il encourage les gens \u00e0 ne pas consid\u00e9rer les difficult\u00e9s comme une  condamnation \u00e0 mort. \u00ab\u00a0Il y a toujours un moyen positif et cr\u00e9atif de  surmonter ces circonstances.\u00a0\u00bb Pour continuer \u00e0 grandir et \u00e0 se pr\u00e9parer \u00e0  ce qui arrivera apr\u00e8s la pand\u00e9mie, Natasha et Dallas se tournent vers l'avenir\u00a0:  derri\u00e8re le comptoir en plexiglas, leurs enfants sont d\u00e9j\u00e0 au service des  clients du magasin g\u00e9n\u00e9ral. </p>\n\n<div class=\"clearfix\"></div>\n\n\n<div class=\"alert alert-info\">\n<p>The <a href=\"?id=1461767369849\">Partenariat canadien pour  l'agriculture</a> est  un investissement sur cinq ans des gouvernements f\u00e9d\u00e9ral, provinciaux et  territoriaux qui vise \u00e0 renforcer le secteur agricole et agroalimentaire. Pour  plus d'information sur la prochaine g\u00e9n\u00e9ration de professionnels de  l'agriculture, consultez le site\u00a0du <a href=\"?id=1579018139768\">Conseil canadien de la jeunesse  agricole.</a></p>\n</div>\n\n<section class=\"panel panel-success\">\n  <header class=\"panel-heading\">\n    <h2 class=\"panel-title\">Plus d'Agri-info</h2>\n </header>\n <div class=\"panel-body\">\n<ul>\n  <li><b>Vous voulez plus d'histoires comme celles-ci?</b> D\u00e9couvrez tout  ce qu'<a href=\"?id=1419351635969\">Agri-info</a> a \u00e0 vous offrir.</li>\n  <li><b>Vous souhaitez faire un reportage sur l'une de nos  histoires?</b> Communiquez  avec l\u2019\u00e9quipe des Relations avec les m\u00e9dias d'AAC \u00e0 l'adresse <a href=\"mailto:aafc.mediarelations-relationsmedias.aac@canada.ca\">aafc.mediarelations-relationsmedias.aac@canada.ca</a> pour obtenir une  entrevue avec l'un de nos experts.</li>\n  <li><b>Vous avez une id\u00e9e d'histoire ou des commentaires \u00e0  partager?</b> Communiquez  avec nous \u00e0 l'adresse <a href=\"mailto:aafc.agri-info.aac@canada.ca\">aafc.agri-info.aac@canada.ca</a>!</li>\n  <li><b>Soyez \u00e0 l'aff\u00fbt.</b> <a href=\"https://pab-dgab-aafc-aac.microsoftcrmportals.com/subscription_F/\">Abonnez-vous</a> \u00e0 Agri-info d\u00e8s  aujourd'hui.</li>\n</ul>\n </div>\n</section>\n\n\n<div class=\"clearfix\"></div>\n\n\r\n    "
    }
}