{
    "dcr_id": "1611581773925",
    "title": {
        "en": "Science Integrity Policy guidelines: Breaches of Scientific Integrity",
        "fr": "Lignes directrices concernant la Politique sur l\u2019int\u00e9grit\u00e9 scientifique : Violations de l\u2019int\u00e9grit\u00e9 scientifique"
    },
    "modified": "2021-04-14",
    "issued": "2021-04-14",
    "templatetype": "content page 1 column",
    "page_type": "0",
    "node_id": "1615576558762",
    "dc_date_created": "2021-04-14",
    "managing_branch": "PAB",
    "parent_node_id": "",
    "short_title": "",
    "exturl": "",
    "teamsite_location": {
        "en": "/default/main/AAFC-AAC/Internet-Internet/CCB-DGCC/WORKAREA/CCB-DGCC/templatedata/comm-comm/gene-gene/data/breaches_scientific_integrity_1611581773925_en",
        "fr": "/default/main/AAFC-AAC/Internet-Internet/CCB-DGCC/WORKAREA/CCB-DGCC/templatedata/comm-comm/gene-gene/data/breaches_scientific_integrity_1611581773925_fr"
    },
    "type_name": "comm-comm/gene-gene",
    "has_dcr_id": true,
    "label": {
        "en": "Science Integrity Policy guidelines: Breaches of Scientific Integrity",
        "fr": "Lignes directrices concernant la Politique sur l\u2019int\u00e9grit\u00e9 scientifique : Violations de l\u2019int\u00e9grit\u00e9 scientifique"
    },
    "breadcrumb": {
        "en": "Science Integrity Policy guidelines: Breaches of Scientific Integrity",
        "fr": "Lignes directrices concernant la Politique sur l\u2019int\u00e9grit\u00e9 scientifique : Violations de l\u2019int\u00e9grit\u00e9 scientifique"
    },
    "layout_name": "content page 1 column",
    "lang": "en",
    "refaire": false,
    "meta": {
        "viewport": {
            "en": "width=device-width,initial-scale=1",
            "fr": "width=device-width, initial-scale=1"
        },
        "issued": {
            "en": "2021-04-14",
            "fr": "2021-04-14"
        },
        "modified": {
            "en": "2021-04-14",
            "fr": "2021-04-14"
        },
        "format": {
            "en": "gcformat",
            "fr": "gcformat"
        },
        "title": {
            "en": "Science Integrity Policy guidelines: Breaches of Scientific Integrity",
            "fr": "Lignes directrices concernant la Politique sur l\u2019int\u00e9grit\u00e9 scientifique : Violations de l\u2019int\u00e9grit\u00e9 scientifique"
        },
        "subject": {
            "en": "soil assessement;architectural heritage;trade negotiations",
            "fr": "industrie du sirop d'\u00e9rable;la grippe aviaire;produits animaux"
        },
        "dcterms:subject": {
            "en": "businesses;architectural heritage;architecture",
            "fr": "sol;d\u00e9veloppement communautaire;\u00e9conomie agricole"
        },
        "description": {
            "en": "Supporting tools. Guidelines:Breaches of scientific integrity. Communication and dissemination of research and scientific information. footnote. 2. , as well as Agriculture and Agri-Food Canada (AAFC)'s. Science Ethics Policy Framework. AAFC recognizes two complementary approaches to fostering a culture of scientific integrity.",
            "fr": "Par\u00a0: Dara Jospe, facult\u00e9 de droit, section common law, Universit\u00e9 d'Ottawa, printemps 2012. Premi\u00e8rement, je d\u00e9crirai les origines de la Commission\u00a0: la mani\u00e8re dont elle est issue de\u00a0deux\u00a0textes l\u00e9gislatifs distincts et comment elle a \u00e9volu\u00e9 depuis\u00a01983. Note de bas de page. 11. .Comme le fait observer la Cour supr\u00eame du Canada, l'ind\u00e9pendance judiciaire est prot\u00e9g\u00e9e par la Constitution."
        },
        "language": {
            "en": "eng",
            "fr": "fra"
        },
        "keywords": {
            "en": null,
            "fr": null
        },
        "audience": {
            "en": "gcaudience",
            "fr": "gcaudience"
        },
        "type": {
            "en": "assessment",
            "fr": "accord"
        },
        "creator": {
            "en": "Agriculture and Agri-Food Canada",
            "fr": "Agriculture et Agroalimentaire Canada"
        },
        "spatial": {
            "en": "gcregions",
            "fr": "gcregions"
        },
        "service": {
            "en": "AAFC-AAC",
            "fr": "AAFC-AAC"
        },
        "accessRights": {
            "en": "2",
            "fr": "2"
        },
        "legalName": {
            "en": "agriculture_and_agri_food_canada",
            "fr": "agriculture_et_agroalimentaire_canada"
        },
        "areaServed": {
            "en": "Canada",
            "fr": "Canada"
        }
    },
    "h1": {
        "en": "Science Integrity Policy guidelines: Breaches of Scientific Integrity",
        "fr": "Lignes directrices concernant la Politique sur l\u2019int\u00e9grit\u00e9 scientifique : Violations de l\u2019int\u00e9grit\u00e9 scientifique"
    },
    "js": {
        "en": "",
        "fr": ""
    },
    "body": {
        "en": "\r\n    <nav>\n<h2>Table of contents</h2>\n\n<ul class=\"list-unstyled mrgn-lft-lg\">\n\t<li>1. <a href=\"#h1\">Effective date</a></li>\n\t<li>2. <a href=\"#h2\">Context</a></li>\n\t<li>3. <a href=\"#h3\">Purpose</a></li>\n\t<li>4. <a href=\"#h4\">Breaches of scientific integrity</a></li>\n\t<li>5. <a href=\"#h5\">Principles of investigation of alleged breaches</a></li>\n\t<li>6. <a href=\"#h6\">Allegations of breach of scientific integrity</a></li>\n\t<li>7. <a href=\"#h7\">Appeals</a></li>\n\t\n\t<li><a href=\"#annex1\">Annex 1: Hierarchy of precedence</a></li>\n\t<li><a href=\"#annex2\">Annex 2: Flow chart for responding to alleged breaches of scientific integrity</a></li>\n</ul>\n</nav>\n\n<h2 id=\"h1\">1. Effective date</h2>\n\n<p>These guidelines take effect on March 11, 2020. This is an evergreen document.</p>\n\n<h2 id=\"h2\">2. Context</h2>\n\n<p>These guidelines are issued pursuant to the Agriculture and Agri-Food Canada (AAFC) <cite><a href=\"?id=1545416557049\">Science Integrity Policy</a></cite> (subsequently referred to as the AAFC SIP), adopted on January 1, 2019. These guidelines are to be read in conjunction with the following AAFC guidelines:</p>\n\n<ul>\n\t<li><a href=\"?id=1611581833362\">Communication and dissemination of research and scientific information</a></li>\n\t<li><a href=\"?id=1611581877547\">Research and scientific contributions to knowledge communities</a></li>\n</ul>\n\n<h2 id=\"h3\">3. Purpose</h2>\n\n<p>These guidelines are intended to assist AAFC employees and applicable non-AAFC employees in understanding the required procedures for investigation of breaches of scientific integrity under s. 7.2.2 (Breaches of scientific integrity) of the AAFC SIP.</p>\n\n<p>These guidelines are intended to support AAFC in:</p>\n\n<ul>\n\t<li>informing employees and others of the procedures available to them for bringing forward allegations of breach of scientific integrity;</li>\n\t<li>explaining and ensuring employees and others understand the process by which allegations are assessed, investigated and adjudicated; and</li>\n\t<li>fostering confidence and trust in the procedures for bringing forward, investigating and adjudicating alleged breaches.</li>\n</ul>\n\n<h2 id=\"h4\">4. Breaches of scientific integrity</h2>\n\n<p>A <b>breach of scientific integrity</b> is behaviour or actions by an employee<sup id=\"fn1-rf\"><a class=\"fn-lnk\" href=\"#fn1\"><span class=\"wb-inv\">endnote </span>1</a></sup> involved in the design, conduct, management, review, communication or use of research or science that could reasonably be construed as inconsistent with or violating one or more of the principles of scientific integrity as described in s. 6 (Scientific integrity principles) of the AAFC SIP.</p>\n\n<p>Breaches may be of two types:</p>\n\n<ul class=\"lst-spcd\">\n\t<li><b>Breaches by researchers or scientists:</b> actions or behaviour of researchers or scientists that could reasonably be construed as inconsistent with or violating applicable sections of the AAFC SIP.</li>\n\t<li><b>Breaches by management:</b> actions or behaviour of managers, supervisors or other relevant personnel that could reasonably be construed as inconsistent with or violating applicable sections of the AAFC SIP.</li>\n</ul>\n\n<p>By contrast, <b>policy non-compliance</b> involves actions or behaviour by AAFC as an organization that could reasonably be construed as inconsistent with or violating applicable sections of the AAFC SIP.</p>  \n\n<p>Allegations of policy non-compliance should not be brought under the AAFC SIP. Rather, any such allegations should be documented and brought to the attention of the AAFC National Union-Management Consultation Committee, which will decide upon the appropriate course of action.</p>\n\n<h2 id=\"h5\">5. Principles of investigation of alleged breaches</h2>\n\n<p>Investigations of alleged breaches of scientific integrity should be conducted competently and expeditiously with full regard for the following principles<sup id=\"fn2-rf\"><a class=\"fn-lnk\" href=\"#fn2\"><span class=\"wb-inv\">endnote </span>2</a></sup>:</p>\n\n<ul class=\"lst-spcd\">\n\t<li><b>Independence and impartiality:</b> All assessments, investigations and adjudication of alleged breaches should be conducted in a manner that is unbiased, impartial and independent of any political, commercial, client or stakeholder interference. In this context, impartiality refers to the absence of both conflicts of interest, consistent with the <cite><a href=\"?id=1448297869529\">Values and Ethics Code for Agriculture and Agri-Food Canada</a></cite>, and bias with respect to a priori beliefs in the truth of the allegation.</li>\n\t<li><b>Confidentiality:</b> Any confidential (including personal) information brought in making an allegation of breach, gathered as part of an investigation of alleged breaches, or considered in assessing and adjudicating alleged breaches, should be maintained in a manner fully consistent with the <cite><a href=\"http://laws-lois.justice.gc.ca/eng/acts/p-21/\">Privacy Act</a></cite>, the <cite><a href=\"https://laws-lois.justice.gc.ca/eng/acts/e-5.401/\">Employment Equity Act</a></cite> and associated regulations, and in keeping with the federal <cite><a href=\"https://www.canada.ca/en/government/publicservice/wellness-inclusion-diversity-public-service/diversity-inclusion-public-service/self-identification/code-confidentiality.html\">Code of Confidentiality</a></cite>.</li>\n\t<li><b>Openness and transparency:</b> All parties involved in allegations of breach, or any assessment, investigation or adjudication of alleged breaches, shall be fully informed of all relevant procedures. All information or evidence brought in making an allegation of breach; gathered as part of the investigation of alleged breaches; or considered in assessing and adjudicating alleged breaches, should be documented. AAFC will ensure that any disclosure of such information or evidence: (i) does not satisfy one or more of the exclusion provisions of the <cite><a href=\"http://laws-lois.justice.gc.ca/eng/acts/A-1/\">Access to Information Act</a></cite> or one or more of the exemption provisions of the <cite><a href=\"http://laws-lois.justice.gc.ca/eng/acts/O-5/page-1.html\">Security of Information Act</a></cite>; (ii) does not contravene the <cite>Privacy Act</cite> or the <cite>Employment Equity Act</cite> and associated regulations; and (iii) does not contravene the federal <cite>Code of Confidentiality</cite>.</li>\n\t<li><b>Good faith and fair dealing:</b> All parties involved in allegations of breach, or any assessment, investigation or adjudication of alleged breaches, shall conduct themselves in a manner consistent with good faith and fair dealing. AAFC should provide the safeguards necessary to instil in employees the confidence to bring forward allegations of breach of scientific integrity or participate in an investigation without fear of reprisal. Absent evidence to the contrary, it is presumed that all parties are indeed acting in good faith.</li>\n\t<li><b>Preference for informal consultation, mediation and dispute resolution:</b> In recommending actions or deciding upon appropriate actions, preference should first be given to early informal consultation, mediation or dispute resolution as a means of fostering scientific integrity among AAFC employees.</li>\n\t<li><b>Right of union, legal or other representation:</b> Any party involved in allegations of breach, or in any assessment, investigation or adjudication of alleged breaches, shall have the right to union, legal or other representation at any stage of the process<sup id=\"fn3-rf\"><a class=\"fn-lnk\" href=\"#fn3\"><span class=\"wb-inv\">endnote </span>3</a></sup>. Further, these guidelines in no way replace or abridge any employee rights pursuant to applicable collective agreements.</li>\n</ul>\n\n<h2 id=\"h6\">6. Allegations of breach of scientific integrity</h2>\n\n<p>Allegations of breach of scientific integrity may originate from any person, be they an AAFC employee, a non-AAFC federal government employee, or a third party from outside the federal government, including anonymous or undisclosed sources. Allegations may concern the conduct of:</p>\n\n<ul>\n\t<li>current or former AAFC employees<sup id=\"fn4-rf\"><a class=\"fn-lnk\" href=\"#fn4\"><span class=\"wb-inv\">endnote </span>4</a></sup>;</li>\n\t<li>non-AAFC federal government employees involved in the design, conduct, management, review, communication or use of AAFC research or science; or</li>\n\t<li>individuals from institutions outside the federal government for which respecting the relevant provisions of the AAFC SIP is an explicit requirement of contracts, grants and contribution agreements and other formal agreements.\n</li>\n</ul>\n\n<h3>6.1 Precedence</h3>\n\n<p>If a complaint regarding an alleged breach of the AAFC SIP is also submitted as a complaint against another Government of Canada or AAFC legislation, directive, policy, regulatory or statutory requirement, or a collective agreement, or is submitted under the AAFC SIP but falls primarily under one of these other policies, the other policy shall take precedence<sup id=\"fn5-rf\"><a class=\"fn-lnk\" href=\"#fn5\"><span class=\"wb-inv\">endnote </span>5</a></sup>, except in the case where the complaint is dismissed under the other policy at which point, it can be addressed by the AAFC SIP if appropriate.</p> \n\n<p>Complaints pertaining to issues that are covered by AAFC\u2019s <cite>Science Ethics Policy Framework</cite> or AAFC\u2019s <cite>Policy on Science and Technology Publications</cite> will be addressed directly under those policies, for which AAFC\u2019s Science Ethics Committee is responsible.</p> \n\n<p>See Annex 1: Hierarchy of precedence.</p>\n\n<h3>6.2 Roles and responsibilities</h3>\n\n<ul class=\"lst-spcd list-unstyled\">\n\t<li><b>Science Integrity Lead</b> \u2014 The AAFC Deputy Minister (DM) appointed the Assistant Deputy Minister (ADM) of the Science and Technology Branch (STB) as AAFC\u2019s Science Integrity Lead (SIL)<sup id=\"fn6-rf\"><a class=\"fn-lnk\" href=\"#fn6\"><span class=\"wb-inv\">endnote </span>6</a></sup>. The SIL:\n\t\t<ul>\n\t\t\t<li>is informed of all allegations of breach of scientific integrity;</li>\n\t\t\t<li>determines whether the alleged breach constitutes a breach of scientific integrity and whether to respond to the allegation(s) of breach(es) under the AAFC SIP, AAFC\u2019s <cite>Science Ethics Policy Framework</cite>, AAFC\u2019s <cite>Policy on Science and Technology Publications</cite> or under some other directive, policy or law; and</li>\n\t\t\t<li>is responsible for ensuring that all allegations, investigations and adjudications of breach, and any actions taken as a result of an allegation, are conducted in a manner consistent with the principles in s. 5 of this document (Principles of investigation of alleged breaches).</li>\n\t\t</ul>\n\t</li>\n\t<li><b>Head of Response</b>\n\t\t<ul>\n\t\t\t<li>a delegate of the SIL who conducts investigations and makes recommendations to the SIL regarding alleged breaches of the AAFC SIP that are not resolved by any other mechanism</li>\n\t\t</ul></li>\n\t<li><b>Science Ethics Committee Chair</b>\n\t\t<ul>\n\t\t\t<li>the SIL\u2019s delegate that conducts investigations and makes recommendations to the SIL regarding allegations against one or more scientists that constitute breaches of the <cite>Science Ethics Policy Framework</cite> or AAFC\u2019s <cite>Policy on Science and Technology Publications</cite></li>\n\t\t</ul>\n\t</li>\n\t<li><b>AAFC DM</b>\n\t\t<ul>\n\t\t\t<li>is responsible for ensuring that AAFC employees know who the SIL is and understand the process for contacting the SIL; and</li>\n\t\t\t<li>is the final adjudicator of appeals under the AAFC SIP.</li>\n\t\t</ul>\n\t</li>\n</ul>\n\n<h3>6.3 Responding to an allegation</h3>\n\n<p>Whenever a possible breach is observed, the observer shall engage in an informal resolution mechanism, such as discussion with the subject of the allegation (henceforth the \"respondent\"), their own supervisor or the respondent\u2019s supervisor. If this action resolves the issue, the case can be closed. If the issue is not resolved by informal mechanisms, the allegation will be submitted to the SIL.</p> \n\n<p>The SIL will then determine if the alleged breach involves any other policies other than the AAFC SIP, AAFC\u2019s <cite>Science Ethics Policy Framework</cite> or AAFC\u2019s <cite>Policy on Science and Technology Publications</cite>. If so, the allegation will be forwarded to the appropriate process owner and the complainant will be informed of the transfer of responsibility for the allegation. If the allegation is rejected under the other policy and therefore not resolved, it may be re-submitted to the SIL for investigation under the AAFC SIP, AAFC\u2019s <cite>Science Ethics Policy Framework</cite> or AAFC\u2019s <cite>Policy on Science and Technology Publications</cite>.</p> \n\n<p>Once the SIL has established that an allegation falls under the AAFC SIP, AAFC\u2019s <cite>Science Ethics Policy Framework</cite> or AAFC\u2019s <cite>Policy on Science and Technology Publications</cite>, the SIL will appoint a Head of Response, who may or may not be chair of AAFC\u2019s Science Ethics Committee. The Head of Response will investigate the evidence related to the allegation (and may convene an investigation committee as required) and will report findings and recommended action(s) to the SIL. The SIL will then decide on action(s) to be taken and will delegate accordingly for implementation. The SIL or delegate will prepare a final report on the investigation and subsequent actions and respondent will be informed. The complainant will be informed that the allegation has been resolved.</p> \n\n<h4>6.3.1 Investigation</h4>\n\n<p>During the investigation, the Head of Response is responsible for:</p>\n\n<ul>\n\t<li>gathering and assembling the relevant evidence (data, information, documents, electronic files, etc., including all documents produced as a result of the allegation prior to the investigation);</li>\n\t<li>taking appropriate measures to secure this evidence;</li>\n\t<li>undertaking, as required, interviews with both the complainant and the respondent<sup id=\"fn7-rf\"><a class=\"fn-lnk\" href=\"#fn7\"><span class=\"wb-inv\">endnote </span>7</a></sup>;</li>\n\t<li>consulting with Labour Relations, Legal Services or other authorities if and as required; and</li>\n\t<li>obtaining a written statement from the respondent as to whether they admit partial or complete responsibility for the alleged breach.</li>\n</ul>\n\n<h4>6.3.2 Report</h4>\n\n<p>The Head of Response will prepare a written report for the SIL that includes:</p>\n\n<ul>\n\t<li>the relevant background information to the case;</li>\n\t<li>a description of the allegation(s);</li>\n\t<li>a description of the steps taken in the investigation;</li>\n\t<li>a description of the evidence gathered during the investigation, including a summary of the interviews with the complainant and the respondent;</li>\n\t<li>an evaluation of the strength of the evidence for (supporting) and against (inconsistent with) the allegation(s) and all mitigating and aggravating factors; and</li>\n\t<li>a recommended course of corrective and/or disciplinary action.</li>\n</ul>\n\n<h4>6.3.3 Decision and communication</h4>\n\n<p>On the basis of the report and any other information deemed appropriate, including consultation with AAFC Legal Services, union representatives, Labour Relations, and other relevant institutions if and as required, the SIL will decide: (a) which, if any, of the allegations they shall consider to be sufficiently well-substantiated; and (b) on subsequent actions, if any.</p> \n\n<p>If the SIL finds that an allegation(s) is not sufficiently well-substantiated, the SIL shall ensure that: (i) all parties involved in the investigation process are advised that the matter has been concluded; and (ii) the respondent is provided with a formal letter to the effect that an allegation was made, a review process was established, that the allegation was found to be not sufficiently substantiated, and that no further action will be taken.</p>\n\n<p>If the SIL finds that one or more allegations are sufficiently well-substantiated, the SIL shall provide the respondent with a letter which explicitly states: (a) which allegation(s) has/have been found to be supported; (b) the reason(s) for this/these determinations; and (c) any further actions that will be undertaken.</p>\n\n<p>If no appeals are filed against the investigation within 30 days, the file can be considered closed.</p>\n\n<p>See Annex 2 for a flow chart depicting the process of responding to an alleged breach.</p>\n\n<h2 id=\"h7\">7. Appeals</h2>\n\n<p>If the complainant, the respondent, or any other affected or concerned party files an appeal against the investigation, they must submit a written request to the DM within 30 days of receiving the letter from the SIL stating the reason for the appeal. Legitimate grounds for appeal include: (i) errors of procedure, or (ii) new or additional evidence that was not available to the Head of Response during the investigation. The letter should provide evidence that: (i) appropriate procedures were not followed and/or (ii) the original investigation was unable to consider significant evidence as described in the appeal letter.</p>\n\n<p>Should the DM decide that an appeal is warranted, they will appoint a Head of Appeals to review the case and report on findings. The DM will then make a decision regarding the appeal and inform all parties of the results and any actions required.</p>\n\n<p>In addition, or as an alternative, and where appropriate, the complainant, respondent or any other affected party may consider filing a grievance under the <cite><a href=\"http://laws-lois.justice.gc.ca/eng/acts/P-33.3/\">Federal Public Sector Labour Relations Act</a></cite>.</p>\n\n<h2 id=\"annex1\">Annex 1: Hierarchy of precedence</h2>\n\n<h3>AAFC Policy and Responsibility Centre</h3>\n\n<p>The Science Integrity Lead, once informed of an incident that may be a breach of scientific integrity, shall determine whether the allegation constitutes a breach of scientific integrity or of any other departmental or Government of Canada policy, and refers it to the appropriate jurisdiction according to the following order of precedence:</p>\n\n<ol class=\"lst-lwr-rmn\">\n\t<li>a Federal act, regulation, law or policy;</li>\n\t<li>an AAFC policy other than the AAFC SIP, AAFC\u2019s Science Ethics Policy Framework, or AAFC\u2019s Policy on Science and Technology Publications;</li>\n\t<li>the AAFC SIP, AAFC\u2019s Science Ethics Policy Framework, AAFC\u2019s Policy on Science and Technology Publications.</li>\n</ol>\n\n<p>If a resolution has not been achieved through a federal or departmental process, it can be addressed by the AAFC SIP process.</p>\n\n<table class=\"table table-bordered table-responsive\">\n\t<thead>\n\t\t<tr>\n\t\t\t<th scope=\"col\">Authority level</th>\n\t\t\t<th scope=\"col\">Breach issue: Values &amp; ethics</th>\n\t\t\t<th scope=\"col\">Breach issue: Intellectual Property</th>\n\t\t\t<th scope=\"col\">Breach issue: Science Integrity</th>\n\t\t\t<th scope=\"col\">Breach issue: Science Ethics</th>\n\t\t\t<th scope=\"col\">Breach issue: Science &amp; Technology Publications</th>\n\t\t\t<th scope=\"col\">Breach issue: Communications</th>\n\t\t\t<th scope=\"col\">Breach issue: Workplace (Labour) Relations</th>\n\t\t\t<th scope=\"col\">Breach issue: Other</th>\n\t\t</tr>\n\t</thead>\n\t<tbody>\n\t\t<tr>\n\t\t\t<th scope=\"row\">Government of Canada Policies, Acts, Regulations</th>\n\t\t\t<td>Values and Ethics Code for the Public Sector</td>\n\t\t\t<td>Public Servants Invention Act</td>\n\t\t\t<td>n/a</td>\n\t\t\t<td>n/a</td>\n\t\t\t<td>n/a</td>\n\t\t\t<td>Policy on Communications and Federal Identity</td>\n\t\t\t<td>Collective Agreements</td>\n\t\t\t<td>Other Regulatory or Statutory Requirements</td>\n\t\t</tr>\n\t\t<tr>\n\t\t\t<th scope=\"row\">AAFC Policies, Regulations</th>\n\t\t\t<td>Values and Ethics Code for AAFC (AAFC)</td>\n\t\t\t<td>n/a</td>\n\t\t\t<td>Science Integrity Policy (AAFC)</td>\n\t\t\t<td>Science Integrity Policy (AAFC)</td>\n\t\t\t<td>Science Integrity Policy (AAFC)</td>\n\t\t\t<td>Directive on Management of Communications (PAB)</td>\n\t\t\t<td>n/a</td>\n\t\t\t<td>n/a</td>\n\t\t</tr>\n\t\t<tr>\n\t\t\t<th scope=\"row\">AAFC Branch Policies</th>\n\t\t\t<td>n/a</td>\n\t\t\t<td>n/a</td>\n\t\t\t<td>n/a</td>\n\t\t\t<td>Science Ethics Policy Framework (STB - SEC)</td>\n\t\t\t<td>Policy on Science &amp; Technology Publications (STB - SEC)</td>\n\t\t\t<td>n/a</td>\n\t\t\t<td>n/a</td>\n\t\t\t<td>n/a</td>\n\t\t</tr>\n\t\t<tr>\n\t\t\t<th scope=\"row\">Responsible Branch / Work Unit</th>\n\t\t\t<td>CMB - V&amp;E Secretariat</td>\n\t\t\t<td>STB - OIPC</td>\n\t\t\t<td>STB - Science Integrity</td>\n\t\t\t<td>STB - Science Ethics Committee</td>\n\t\t\t<td>STB - Science Ethics Committee</td>\n\t\t\t<td>PAB</td>\n\t\t\t<td>CMB - HR</td>\n\t\t\t<td>Other Department / Branch as required</td>\n\t\t</tr>\n\t</tbody>\n</table>\n\n<h2 id=\"annex2\">Annex 2: Flow chart for responding to alleged breaches of scientific integrity</h2>\n\n<img src=\"http://multimedia.agr.gc.ca/pack/img/flowchart_breaches_violations-eng.jpg\" alt=\"Description of this image follows.\" class=\"img-responsive\">\n\n<details>\n<summary>Description of the image above.</summary>\n\n<p>Top of chart begins: \"Possible Breach observed\"</p>\n\n<ol>\n <li>First action: \"Observer engages informal resolution mechanism (discussion with respondent, own supervisor, or respondent's supervisor)\"</li>\n <li>Next Action Q: \"Resolved?\"\n  <ol class=\"lst-lwr-alph\">\n   <li>If \"Yes\" to Resolved \u2013 then \"Case is closed\"</li>\n   <li>If \"No\" to Resolved \u2013 then: \"Science Integrity Lead (SIL) receives notification of an alleged breach\", then Q: \"Does the alleged breach involve any policies other than SIP, SEPF or S&amp;TPP?\"\n    <ol class=\"lst-lwr-rmn\">\n     <li>If \"Yes\" \u2013 then \"SIL informs other process owner and complainant\" \u2013 then \"Other process\"\n      <ol>\t\n       <li>Next Action Q: \"Resolved?\"\n        <ol class=\"lst-lwr-alph\">\n         <li>If \"Yes\" to Resolved \u2013 then \"Case is closed\"</li>\n         <li>If \"No\" to Resolved \u2013 then return to step 2.b. until resolved under 2.b.i.1.a. or the SIL is required to move to step 2.b.ii.</li>\n        </ol>\n       </li>\n      </ol>\n     </li>\t\n     <li>If \"No\" \u2013 then \"SIL appoints a Head of Response (HOR) - SEC chair or other\" (4 actions follow)\n      <ol>\n       <li>Then \"HOR investigates (self or with committee as needed)\";</li>\n       <li>Then \"HOR reports to SIL \u2013 findings and recommendations\";</li>\n       <li>Then \"SIL decides on actions to take and delegates accordingly for implementation\"; and</li>\n       <li>Then \"SIL prepares final report to file\". Then Q: \"Does the Respondent or complainant appeal?\"\n        <ol class=\"lst-lwr-alph\">\n         <li>If \"No\" \u2013 then \"Case is Closed\"</li>\n         <li>If \"Yes\" \u2013 then next action: \"Appellant sends a written request to DM stating cause for appeal\"\n          <ol class=\"lst-lwr-rmn\">\n           <li>Then \"DM appoints Head of Appeals (HOA) to review case and report\"</li>\n           <li>Then \"DM decides on appeal and informs all parties and delegates any action required\"</li>\n           <li>Then \"Case is Closed\"</li>\n          </ol>\n         </li>\n        </ol>\n       </li>\n      </ol>\n     </li>\n    </ol>\n   </li>\n  </ol>\n </li>\n</ol>\n\t</details>\n\n<aside class=\"wb-fnote\" role=\"note\">\n    <h2 id=\"fn\">Endnotes</h2>\n    <dl>\n        <dt>Endnote 1</dt>\n        <dd id=\"fn1\">\n        <p>Or non-AAFC employee as per s. 5.1 (Application) in the AAFC SIP.</p>\n        <p class=\"fn-rtn\"><a href=\"#fn1-rf\"><span class=\"wb-inv\">Return to endnote </span>1</a></p>\n        </dd>\n        <dt>Endnote 2</dt>\n        <dd id=\"fn2\">\n        <p>Investigations of breaches of scientific integrity should also conform to Appendix A of the Treasury Board <a href=\"https://www.tbs-sct.gc.ca/pol/doc-eng.aspx?id=22370\"><cite>Guidelines for Discipline</cite></a>.</p>\n        <p class=\"fn-rtn\"><a href=\"#fn2-rf\"><span class=\"wb-inv\">Return to endnote </span>2</a></p>\n        </dd>\n\t\t\n\t\t\n\t\t<dt>Endnote 3</dt>\n        <dd id=\"fn3\">\n        <p>This right does not oblige AAFC to provide financial support for such representation.</p>\n        <p class=\"fn-rtn\"><a href=\"#fn3-rf\"><span class=\"wb-inv\">Return to endnote </span>3</a></p>\n        </dd>\n\t\t\n\t\t<dt>Endnote 4</dt>\n        <dd id=\"fn4\">\n        <p>Applies to former employees who are subject to post-employment limitations or who remain connected to AAFC, such as Honorary Research Associates.</p>\n        <p class=\"fn-rtn\"><a href=\"#fn4-rf\"><span class=\"wb-inv\">Return to endnote </span>4</a></p>\n        </dd>\n\t\t\n\t\t<dt>Endnote 5</dt>\n        <dd id=\"fn5\">\n        <p>Federal acts, regulations or policies take precedence over departmental policies or directives.</p>\n        <p class=\"fn-rtn\"><a href=\"#fn5-rf\"><span class=\"wb-inv\">Return to endnote </span>5</a></p>\n        </dd>\n\t\t\n\t\t\n\t\t<dt>Endnote 6</dt>\n        <dd id=\"fn6\">\n        <p>This appointment is consistent with the role of the ADM-STB under the <cite>Science Ethics Policy Framework</cite> and overall as the Branch Head for STB.</p>\n        <p class=\"fn-rtn\"><a href=\"#fn6-rf\"><span class=\"wb-inv\">Return to endnote </span>6</a></p>\n        </dd>\n\t\t\n\t\t<dt>Endnote 7</dt>\n        <dd id=\"fn7\">\n        <p>The Head of Response may be accompanied by another person, normally a Labour Relations Advisor, to reduce the risk of conflicting interpretations of the conversations.</p>\n        <p class=\"fn-rtn\"><a href=\"#fn7-rf\"><span class=\"wb-inv\">Return to endnote </span>7</a></p>\n        </dd>\n    </dl>\n</aside>\n\r\n    ",
        "fr": "\r\n    <nav>\n<h2>Table des mati\u00e8res</h2>\n\n<ul class=\"list-unstyled mrgn-lft-lg\">\n\t<li>1. <a href=\"#h1\">Date d\u2019entr\u00e9e en vigueur</a></li>\n\t<li>2. <a href=\"#h2\">Contexte</a></li>\n\t<li>3. <a href=\"#h3\">Objet </a></li>\n\t<li>4. <a href=\"#h4\">Violations de l\u2019int\u00e9grit\u00e9 scientifique</a></li>\n\t<li>5. <a href=\"#h5\">Principes d\u2019enqu\u00eate sur les violations pr\u00e9sum\u00e9es</a></li>\n\t<li>6. <a href=\"#h6\">All\u00e9gations de violation de l\u2019int\u00e9grit\u00e9 scientifique</a></li>\n\t<li>7. <a href=\"#h7\">Appels</a></li>\n\t\n\t<li><a href=\"#annexe1\">Annexe 1. Hi\u00e9rarchie des priorit\u00e9s</a></li>\n\t<li><a href=\"#annexe2\">Annexe 2. Sch\u00e9ma de r\u00e9ponse aux all\u00e9gations de violation de l'int\u00e9grit\u00e9 scientifique</a></li>\n</ul>\n</nav>\n\n<h2 id=\"h1\">1. Date d\u2019entr\u00e9e en vigueur</h2>\n\n<p>Les pr\u00e9sentes lignes directrices entrent en vigueur le 11 mars 2020. Il s\u2019agit d'un document \u00e9volutif.</p>\n\n<h2 id=\"h2\">2. Contexte</h2>\n\n<p>Les pr\u00e9sentes lignes directrices sont \u00e9mises conform\u00e9ment \u00e0 la <cite><a href=\"?id=1545416557049\">Politique sur l\u2019int\u00e9grit\u00e9 scientifique</a></cite> d\u2019Agriculture et Agroalimentaire Canada (AAC), adopt\u00e9e le 1<sup>er</sup> janvier 2019. Elles doivent \u00eatre lues conjointement avec les directives d\u2019AAC suivantes\u00a0:</p>\n\n<ul>\n\t<li><a href=\"?id=1611581833362\">Communication et diffusion de renseignements scientifiques et de recherche</a>; et</li>\n\t<li><a href=\"?id=1611581877547\">Contributions scientifiques et de recherche aux communaut\u00e9s du savoir</a>.</li>\n</ul>\n\n<h2 id=\"h3\">3. Objet</h2>\n\n<p>Ces lignes directrices visent \u00e0 aider les employ\u00e9s d\u2019AAC et les autres employ\u00e9s n\u2019appartenant pas \u00e0 AAC concern\u00e9s \u00e0 comprendre les proc\u00e9dures requises pour les enqu\u00eates sur les violations de l\u2019int\u00e9grit\u00e9 scientifique aux termes de l\u2019article 7.2.2 (Violations de l\u2019int\u00e9grit\u00e9 scientifique) de la <cite>Politique sur l\u2019int\u00e9grit\u00e9 scientifique</cite> d\u2019AAC.</p>\n\n<p>Ces lignes directrices sont destin\u00e9es \u00e0 aider AAC \u00e0\u00a0:</p>\n\n<ul>\n\t<li>informer les employ\u00e9s et autres personnes des proc\u00e9dures \u00e0 leur disposition pour pr\u00e9senter des all\u00e9gations de violation de l\u2019int\u00e9grit\u00e9 scientifique;</li>\n\t<li>expliquer le processus d\u2019\u00e9valuation, d\u2019enqu\u00eate et d\u2019arbitrage des all\u00e9gations et \u00e0 veiller \u00e0 ce que les employ\u00e9s et les autres personnes comprennent ce processus; et</li>\n\t<li>favoriser la confiance dans les proc\u00e9dures de pr\u00e9sentation, d\u2019enqu\u00eate et d\u2019arbitrage des violations pr\u00e9sum\u00e9es.</li>\n</ul>\n\n<h2 id=\"h4\">4. Violations de l\u2019int\u00e9grit\u00e9 scientifique</h2>\n\n<p>Une <b>violation de l\u2019int\u00e9grit\u00e9 scientifique</b> est un comportement ou des actions d\u2019un employ\u00e9<sup id=\"fn1-rf\"><a class=\"fn-lnk\" href=\"#fn1\"><span class=\"wb-inv\">Note de bas de page </span>1</a></sup> qui participe \u00e0 la conception, \u00e0 l\u2019ex\u00e9cution, \u00e0 la gestion, \u00e0 l\u2019analyse, \u00e0 la communication ou \u00e0 l\u2019utilisation d\u2019activit\u00e9s de recherche ou de renseignements scientifiques qui pourraient raisonnablement \u00eatre interpr\u00e9t\u00e9s comme \u00e9tant incompatibles avec un ou plusieurs des principes de l\u2019int\u00e9grit\u00e9 scientifique d\u00e9crits dans l\u2019article 6 (Principes d\u2019int\u00e9grit\u00e9 scientifique) de la <cite>Politique sur l\u2019int\u00e9grit\u00e9 scientifique</cite> d\u2019AAC ou comme violant ces principes.</p>\n\n<p>Il peut y avoir deux types de violations\u00a0:</p>\n\n<ul class=\"lst-spcd\">\n\t<li><b>Violations commises par des chercheurs ou des scientifiques</b>. Actions ou comportements de chercheurs ou de scientifiques qui pourraient raisonnablement \u00eatre consid\u00e9r\u00e9s comme contraires aux articles applicables de la <cite>Politique sur l\u2019int\u00e9grit\u00e9 scientifique</cite> d\u2019AAC ou comme \u00e9tant en violation de ces articles.</li>\n\t<li><b>Violations de la part de la direction</b>. Actions ou comportements des directeurs, des superviseurs ou d\u2019autres membres du personnel concern\u00e9s qui pourraient raisonnablement \u00eatre consid\u00e9r\u00e9s comme contraires aux articles applicables de la <cite>Politique sur l\u2019int\u00e9grit\u00e9 scientifique</cite> d\u2019AAC ou comme \u00e9tant en violation de ces articles.</li>\n</ul>\n\n<p>En revanche, le <b>non-conformit\u00e9 de la politique</b> implique des actions ou un comportement d\u2019AAC en tant qu\u2019organisation qui pourraient raisonnablement \u00eatre interpr\u00e9t\u00e9s comme \u00e9tant contraires aux articles applicables de la <cite>Politique sur l\u2019int\u00e9grit\u00e9 scientifique</cite> d\u2019AAC ou comme \u00e9tant en violation de ces articles.</p>  \n\n<p>Les all\u00e9gations de non-conformit\u00e9 de la politique ne doivent pas \u00eatre pr\u00e9sent\u00e9es aux termes de la <cite>Politique sur l\u2019int\u00e9grit\u00e9 scientifique</cite> d\u2019AAC. Elles doivent plut\u00f4t \u00eatre document\u00e9es et port\u00e9es \u00e0 l\u2019attention du Comit\u00e9 national de consultation patronale syndicale d\u2019AAC, qui d\u00e9cidera de la marche \u00e0 suivre.</p>\n\n<h2 id=\"h5\">5. Principes d\u2019enqu\u00eate sur les violations pr\u00e9sum\u00e9es</h2>\n\n<p>Les enqu\u00eates sur les violations pr\u00e9sum\u00e9es des principes d\u2019int\u00e9grit\u00e9 scientifique doivent \u00eatre men\u00e9es avec comp\u00e9tence et c\u00e9l\u00e9rit\u00e9, en tenant pleinement compte des principes suivants<sup id=\"fn2-rf\"><a class=\"fn-lnk\" href=\"#fn2\"><span class=\"wb-inv\">Note de bas de page </span>2</a></sup>\u00a0:</p>\n\n<ul class=\"lst-spcd\">\n\t<li><b>Ind\u00e9pendance et impartialit\u00e9</b>. Toutes les \u00e9valuations, enqu\u00eates et proc\u00e9dures d\u2019arbitrage relatives aux violations pr\u00e9sum\u00e9es doivent \u00eatre men\u00e9es de mani\u00e8re impartiale et ind\u00e9pendante de toute ing\u00e9rence politique, commerciale, ou d\u2019ing\u00e9rence de la part des clients ou des parties prenantes. Dans ce contexte, l\u2019impartialit\u00e9 signifie l\u2019absence de conflits d\u2019int\u00e9r\u00eats, conform\u00e9ment au <cite><a href=\"?id=1448297869529\">Code de valeurs et d\u2019\u00e9thique d\u2019Agriculture et Agroalimentaire Canada</a></cite>, et de partialit\u00e9 en ce qui concerne les croyances a priori sur la v\u00e9racit\u00e9 de l\u2019all\u00e9gation.</li>\n\t<li><b>Confidentialit\u00e9</b>. Tout renseignement confidentiel (y compris tout renseignement personnel) pr\u00e9sent\u00e9 dans le cadre d\u2019une all\u00e9gation de violation, recueilli dans le cadre d\u2019une enqu\u00eate sur des violations pr\u00e9sum\u00e9es ou pris en compte dans l\u2019\u00e9valuation et la proc\u00e9dure d\u2019arbitrage relatives \u00e0 des violations pr\u00e9sum\u00e9es doit \u00eatre conserv\u00e9 conform\u00e9ment \u00e0 la <cite><a href=\"https://laws-lois.justice.gc.ca/fra/lois/p-21/\">Loi sur la protection des renseignements personnels</a></cite>, \u00e0 la <cite><a href=\"https://laws-lois.justice.gc.ca/fra/lois/e-5.401/\">Loi sur l\u2019\u00e9quit\u00e9 en mati\u00e8re d\u2019emploi</a></cite> et aux r\u00e8glements connexes, et conform\u00e9ment au <cite><a href=\"https://www.canada.ca/fr/gouvernement/fonctionpublique/mieux-etre-inclusion-diversite-fonction-publique/diversite-equite-matiere-emploi/declaration-volontaire/code-confidentialite.html\">Code de confidentialit\u00e9 f\u00e9d\u00e9ral</a></cite>.</li>\n\t<li><b>Ouverture et transparence</b>. Toutes les parties impliqu\u00e9es dans des all\u00e9gations de violation, ou dans une \u00e9valuation, une enqu\u00eate ou une proc\u00e9dure d\u2019arbitrage concernant des violations pr\u00e9sum\u00e9es, doivent \u00eatre pleinement inform\u00e9es de toutes les proc\u00e9dures pertinentes. Tous les renseignements ou \u00e9l\u00e9ments de preuve pr\u00e9sent\u00e9s dans le cadre d\u2019une all\u00e9gation de violation, recueillis dans le cadre de l\u2019enqu\u00eate sur des violations pr\u00e9sum\u00e9es ou pris en compte dans l\u2019\u00e9valuation et la proc\u00e9dure d\u2019arbitrage concernant des violations pr\u00e9sum\u00e9es doivent \u00eatre consign\u00e9s. AAC veillera \u00e0 ce que la divulgation de tels renseignements ou \u00e9l\u00e9ments de preuve\u00a0: i) ne satisfait pas \u00e0 une ou plusieurs des dispositions d\u2019exclusion de la <cite><a href=\"https://laws-lois.justice.gc.ca/fra/lois/A-1/\">Loi sur l\u2019acc\u00e8s \u00e0 l\u2019information</a></cite> ou \u00e0 une ou plusieurs des dispositions d\u2019exemption de la <cite><a href=\"https://laws-lois.justice.gc.ca/fra/lois/O-5/page-1.html\">Loi sur la protection de l\u2019information</a></cite>; ii) ne contrevient pas \u00e0 la <cite>Loi sur la protection des renseignements personnels</cite> ou \u00e0 la <cite>Loi sur l\u2019\u00e9quit\u00e9 en mati\u00e8re d\u2019emploi</cite> et aux r\u00e8glements connexes; iii) ne contrevient pas au <cite>Code de confidentialit\u00e9 f\u00e9d\u00e9ral</cite>.</li>\n\t<li><b>Bonne foi et \u00e9quit\u00e9</b>. Toutes les parties impliqu\u00e9es dans des all\u00e9gations de violation, ou dans une \u00e9valuation, une enqu\u00eate ou une proc\u00e9dure d\u2019arbitrage de violations pr\u00e9sum\u00e9es doivent se comporter de mani\u00e8re conforme \u00e0 la bonne foi et \u00e0 l\u2019\u00e9quit\u00e9. AAC doit fournir les mesures de protection n\u00e9cessaires pour inspirer aux employ\u00e9s la confiance leur permettant de pr\u00e9senter des all\u00e9gations de violation de l\u2019int\u00e9grit\u00e9 scientifique ou de participer \u00e0 une enqu\u00eate sans crainte de repr\u00e9sailles. En l\u2019absence de preuve du contraire, il est pr\u00e9sum\u00e9 que toutes les parties agissent effectivement de bonne foi.</li>\n\t<li><b>Pr\u00e9f\u00e9rence pour les m\u00e9thodes informelles de consultation, de m\u00e9diation et de r\u00e8glement des litiges</b>. En recommandant des mesures ou en d\u00e9cidant des mesures appropri\u00e9es, la pr\u00e9f\u00e9rence doit d\u2019abord \u00eatre accord\u00e9e aux m\u00e9thodes informelles \u00e0 la consultation, \u00e0 la m\u00e9diation ou au r\u00e8glement des litiges d\u00e8s les premiers signes de conflit, comme moyen de favoriser l\u2019int\u00e9grit\u00e9 scientifique des employ\u00e9s d\u2019AAC.</li>\n\t<li><b>Droit de repr\u00e9sentation syndicale, juridique ou autre</b>. Toute partie impliqu\u00e9e dans des all\u00e9gations de violation de l\u2019int\u00e9grit\u00e9 scientifique, ou dans une \u00e9valuation, une enqu\u00eate ou une proc\u00e9dure d\u2019arbitrage de violations pr\u00e9sum\u00e9es, a le droit d\u2019\u00eatre repr\u00e9sent\u00e9e par son syndicat, un avocat ou toute autre personne \u00e0 tout stade de la proc\u00e9dure<sup id=\"fn3-rf\"><a class=\"fn-lnk\" href=\"#fn3\"><span class=\"wb-inv\">Note de bas de page </span>3</a></sup>. En outre, les pr\u00e9sentes lignes directrices ne remplacent ni ne limitent en aucune fa\u00e7on les droits des employ\u00e9s en vertu des conventions collectives applicables.</li>\n</ul>\n\n<h2 id=\"h6\">6. All\u00e9gations de violation de l\u2019int\u00e9grit\u00e9 scientifique</h2>\n\n<p>Une all\u00e9gation de violation de l\u2019int\u00e9grit\u00e9 scientifique peut \u00e9maner de toute personne, qu\u2019il s\u2019agisse d\u2019un employ\u00e9 d\u2019AAC, d\u2019un employ\u00e9 du gouvernement f\u00e9d\u00e9ral n\u2019appartenant pas \u00e0 AAC ou d\u2019un tiers ext\u00e9rieur au gouvernement f\u00e9d\u00e9ral, y compris de sources anonymes ou non divulgu\u00e9es. Une all\u00e9gation peut concerner la conduite\u00a0:</p>\n\n<ul>\n\t<li>d\u2019employ\u00e9s actuels ou d\u2019anciens employ\u00e9s<sup id=\"fn4-rf\"><a class=\"fn-lnk\" href=\"#fn4\"><span class=\"wb-inv\">Note de bas de page </span>4</a></sup> d\u2019AAC;</li>\n\t<li>d\u2019employ\u00e9s du gouvernement f\u00e9d\u00e9ral n\u2019appartenant pas \u00e0 AAC qui participent \u00e0 la conception, \u00e0 l\u2019ex\u00e9cution, \u00e0 la gestion, \u00e0 l\u2019analyse, \u00e0 la communication ou \u00e0 l\u2019utilisation d\u2019activit\u00e9s de recherche ou de renseignements scientifiques d\u2019AAC; ou</li>\n\t<li>de personnes provenant d\u2019institutions ne faisant pas partie du gouvernement f\u00e9d\u00e9ral pour lesquelles le respect des dispositions pertinentes de la <cite>Politique sur l\u2019int\u00e9grit\u00e9 scientifique</cite> d\u2019AAC est une exigence explicite des contrats, des subventions, des accords de contribution et d\u2019autres ententes officielles.</li>\n</ul>\n\n<h3>6.1 Pr\u00e9s\u00e9ance </h3>\n\n<p>Si une plainte concernant une violation pr\u00e9sum\u00e9e de la <cite>Politique sur l\u2019int\u00e9grit\u00e9 scientifique</cite> d\u2019AAC est aussi soumise en tant que plainte contre une autre loi, directive, politique, exigence r\u00e9glementaire ou statutaire du gouvernement du Canada ou d\u2019AAC, ou une convention collective, ou est soumise dans le cadre de la <cite>Politique sur l\u2019int\u00e9grit\u00e9 scientifique</cite> d\u2019AAC mais rel\u00e8ve principalement de l\u2019une de ces autres politiques, l\u2019autre politique aura pr\u00e9s\u00e9ance<sup id=\"fn5-rf\"><a class=\"fn-lnk\" href=\"#fn5\"><span class=\"wb-inv\">Note de bas de page </span>5</a></sup>, sauf dans le cas o\u00f9 la plainte est rejet\u00e9e dans le cadre de l\u2019autre politique, auquel cas elle peut \u00eatre trait\u00e9e par la <cite>Politique sur l\u2019int\u00e9grit\u00e9 scientifique</cite> d\u2019AAC, le cas \u00e9ch\u00e9ant.</p> \n\n<p>Les plaintes relatives \u00e0 des questions couvertes par le <cite><a href=\"?id=1614874999283\">Cadre strat\u00e9gique pour l\u2019\u00e9thique en science (CSES)</a></cite> d\u2019AAC ou par sa <cite><a href=\"?id=1614872666173\">Politique sur les publications en sciences et technologie (PPST)</a></cite> seront trait\u00e9es directement en vertu de ces politiques, qui rel\u00e8vent du Comit\u00e9 d\u2019\u00e9thique en science d\u2019AAC.</p> \n\n<p>Voir l\u2019annexe 1\u00a0: Hi\u00e9rarchie des priorit\u00e9s</p>\n\n<h3>6.2 R\u00f4les et responsabilit\u00e9s</h3>\n\n<ul class=\"lst-spcd list-unstyled\">\n\t<li><b>Responsable de l\u2019int\u00e9grit\u00e9 scientifique</b>. Le sous-ministre (SM) d\u2019AAC a nomm\u00e9 le sous-ministre adjoint (SMA) de la Direction g\u00e9n\u00e9rale des sciences et de la technologie (DGST) responsable de l\u2019int\u00e9grit\u00e9 scientifique d\u2019AAC<sup id=\"fn6-rf\"><a class=\"fn-lnk\" href=\"#fn6\"><span class=\"wb-inv\">Note de bas de page </span>6</a></sup>. Le responsable de l\u2019int\u00e9grit\u00e9 scientifique\u00a0:\n\t\t<ul>\n\t\t\t<li>est inform\u00e9 de toutes les all\u00e9gations de violation de l\u2019int\u00e9grit\u00e9 scientifique;</li>\n\t\t\t<li>d\u00e9termine si la violation pr\u00e9sum\u00e9e constitue une violation de l\u2019int\u00e9grit\u00e9 scientifique et s\u2019il convient de r\u00e9pondre \u00e0 l\u2019all\u00e9gation de violation sous le r\u00e9gime de la <cite>Politique sur l\u2019int\u00e9grit\u00e9 scientifique</cite>, du <cite>Cadre strat\u00e9gique pour l\u2019\u00e9thique en science</cite>, de la <cite>Politique sur les publications en sciences et technologie</cite> d\u2019AAC ou en vertu d\u2019une autre directive, politique ou loi; et</li>\n\t\t\t<li>est charg\u00e9 de veiller \u00e0 ce que toutes les all\u00e9gations, enqu\u00eates et proc\u00e9dures d\u2019arbitrage relatives aux violations, ainsi que toutes les mesures prises \u00e0 la suite d\u2019une all\u00e9gation, soient men\u00e9es conform\u00e9ment aux principes \u00e9nonc\u00e9s \u00e0 l\u2019article 5 du pr\u00e9sent document (Principes d\u2019enqu\u00eate sur les violations pr\u00e9sum\u00e9es).</li>\n\t\t</ul>\n\t</li>\n\t<li><b>Responsable de la r\u00e9ponse</b>\n\t\t<ul>\n\t\t\t<li>D\u00e9l\u00e9gu\u00e9 du responsable de l\u2019int\u00e9grit\u00e9 scientifique qui m\u00e8ne les enqu\u00eates et fait des recommandations au responsable de l\u2019int\u00e9grit\u00e9 scientifique concernant les violations pr\u00e9sum\u00e9es \u00e0 la <cite>Politique sur l\u2019int\u00e9grit\u00e9 scientifique</cite> d\u2019AAC qui ne sont pas r\u00e9solues par un autre m\u00e9canisme.</li>\n\t\t</ul></li>\n\t<li><b>Pr\u00e9sident du comit\u00e9 d\u2019\u00e9thique scientifique</b>\n\t\t<ul>\n\t\t\t<li>D\u00e9l\u00e9gu\u00e9 du responsable de l\u2019int\u00e9grit\u00e9 scientifique qui m\u00e8ne les enqu\u00eates et fait des recommandations au responsable de l\u2019int\u00e9grit\u00e9 scientifique concernant les all\u00e9gations contre un ou plusieurs scientifiques qui constituent des violations du <cite>Cadre strat\u00e9gique pour l\u2019\u00e9thique en science</cite> d\u2019AAC ou de sa <cite>Politique sur les publications en sciences et technologie</cite>.</li>\n\t\t</ul>\n\t</li>\n\t<li><b>SM AAC</b>\n\t\t<ul>\n\t\t\t<li>est charg\u00e9 de veiller \u00e0 ce que les employ\u00e9s d\u2019AAC sachent qui est le responsable de l\u2019int\u00e9grit\u00e9 scientifique et comprennent la proc\u00e9dure \u00e0 suivre pour communiquer avec lui; et</li>\n\t\t\t<li>est l\u2019arbitre final des appels dans le cadre de la <cite>Politique sur l\u2019int\u00e9grit\u00e9 scientifique</cite> d\u2019AAC.</li>\n\t\t</ul>\n\t</li>\n</ul>\n\n<h3>6.3 R\u00e9pondre \u00e0 une all\u00e9gation</h3>\n\n<p>Chaque fois qu\u2019une violation potentielle est observ\u00e9e, l\u2019observateur doit s\u2019engager dans un m\u00e9canisme de r\u00e9solution informel, tel qu\u2019une discussion avec la personne concern\u00e9e par l\u2019all\u00e9gation (ci-apr\u00e8s l\u2019\u00ab\u00a0employ\u00e9 mis en cause\u00a0\u00bb), son propre superviseur ou le superviseur de l\u2019employ\u00e9 mis en cause. Si cette action permet de r\u00e9soudre le probl\u00e8me, l\u2019affaire peut \u00eatre class\u00e9e. Si la question n\u2019est pas r\u00e9solue par des m\u00e9canismes informels, l\u2019all\u00e9gation est soumise au responsable de l\u2019int\u00e9grit\u00e9 scientifique.</p> \n\n<p>Le responsable de l\u2019int\u00e9grit\u00e9 scientifique d\u00e9termine alors si la violation pr\u00e9sum\u00e9e concerne d\u2019autres politiques que celle sur l\u2019int\u00e9grit\u00e9 scientifique d\u2019AAC, son <cite>Cadre strat\u00e9gique pour l\u2019\u00e9thique en science</cite> ou sa <cite>Politique sur les publications en sciences et technologie</cite>. Le cas \u00e9ch\u00e9ant, l\u2019all\u00e9gation est transmise au responsable du processus appropri\u00e9 et le plaignant sera inform\u00e9 du transfert de responsabilit\u00e9 de l\u2019all\u00e9gation. Si l\u2019all\u00e9gation est rejet\u00e9e en vertu de l\u2019autre politique et que, par cons\u00e9quent, elle n\u2019est pas r\u00e9solue, elle peut \u00eatre soumise de nouveau au responsable de l\u2019int\u00e9grit\u00e9 scientifique aux fins d\u2019enqu\u00eate sous le r\u00e9gime de la <cite>Politique sur l\u2019int\u00e9grit\u00e9 scientifique</cite> d\u2019AAC, de son <cite>Cadre strat\u00e9gique pour l\u2019\u00e9thique en science</cite> ou de sa <cite>Politique sur les publications en sciences et technologie</cite>.</p> \n\n<p>Une fois que le responsable de l\u2019int\u00e9grit\u00e9 scientifique a d\u00e9termin\u00e9 qu\u2019une all\u00e9gation rel\u00e8ve de la <cite>Politique sur l\u2019int\u00e9grit\u00e9 scientifique d\u2019AAC</cite>, de son <cite>Cadre strat\u00e9gique pour l\u2019\u00e9thique en science</cite> ou de sa <cite>Politique sur les publications en sciences et technologie</cite>, il nomme un responsable de la r\u00e9ponse, qui peut ou non pr\u00e9sider le Comit\u00e9 d\u2019\u00e9thique scientifique d\u2019AAC. Le responsable de la r\u00e9ponse fait enqu\u00eate sur les \u00e9l\u00e9ments de preuve li\u00e9s \u00e0 l\u2019all\u00e9gation (et peut convoquer un comit\u00e9 d\u2019enqu\u00eate au besoin) et rend compte de ses conclusions et des mesures recommand\u00e9es au responsable de l\u2019int\u00e9grit\u00e9 scientifique. Ce dernier d\u00e9cide ensuite des mesures \u00e0 prendre et en d\u00e9l\u00e8gue la mise en \u0153uvre. Le responsable de l\u2019int\u00e9grit\u00e9 scientifique ou son d\u00e9l\u00e9gu\u00e9 pr\u00e9pare le rapport final sur l\u2019enqu\u00eate et les mesures ult\u00e9rieures, et l\u2019employ\u00e9 mis en cause en est inform\u00e9. Le plaignant sera inform\u00e9 que l\u2019all\u00e9gation a \u00e9t\u00e9 r\u00e9solue.</p>\n\n<h4>6.3.1 Enqu\u00eate</h4>\n\n<p>Au cours de l\u2019enqu\u00eate, le responsable de la r\u00e9ponse doit\u00a0:</p>\n\n<ul>\n\t<li>recueillir et rassembler les \u00e9l\u00e9ments pertinents (donn\u00e9es, renseignements, documents, fichiers \u00e9lectroniques, etc., y compris tous les documents produits avant l\u2019enqu\u00eate par suite de l\u2019all\u00e9gation);</li>\n\t<li>prendre les mesures appropri\u00e9es pour obtenir ces \u00e9l\u00e9ments;</li>\n\t<li>proc\u00e9der, le cas \u00e9ch\u00e9ant, \u00e0 des entretiens avec le plaignant et l\u2019employ\u00e9 mis en cause<sup id=\"fn7-rf\"><a class=\"fn-lnk\" href=\"#fn7\"><span class=\"wb-inv\">Note de bas de page </span>7</a></sup>;</li>\n\t<li>consulter le service des relations de travail, les services juridiques ou d\u2019autres autorit\u00e9s si n\u00e9cessaire; et</li>\n\t<li>obtenir une d\u00e9claration \u00e9crite de l\u2019employ\u00e9 mis en cause indiquant s\u2019il reconna\u00eet sa responsabilit\u00e9 partielle ou totale dans la violation pr\u00e9sum\u00e9e.</li>\n</ul>\n\n<h4>6.3.2 Rapport</h4>\n\n<p>Le responsable de la r\u00e9ponse pr\u00e9pare un rapport \u00e9crit pour le responsable de l\u2019int\u00e9grit\u00e9 scientifique qui comprend\u00a0:</p>\n\n<ul>\n\t<li>les renseignements contextuels pertinents au cas;</li>\n\t<li>la description de la ou des all\u00e9gations;</li>\n\t<li>la description des mesures prises dans le cadre de l\u2019enqu\u00eate;</li>\n\t<li>la description des \u00e9l\u00e9ments recueillis au cours de l\u2019enqu\u00eate, y compris un r\u00e9sum\u00e9 des entretiens avec l\u2019employ\u00e9 mis en cause et le plaignant;</li>\n\t<li>une \u00e9valuation de la solidit\u00e9 des preuves pour (appuyant) et contre (ne cadrant pas avec) l\u2019all\u00e9gation (les all\u00e9gations) ainsi que tous les facteurs att\u00e9nuants et aggravants; et</li>\n\t<li>une recommandation de mesures correctives et/ou disciplinaires.</li>\n</ul>\n\n<h4>6.3.3 D\u00e9cision et communication</h4>\n\n<p>Sur la base du rapport et de toute autre information jug\u00e9e appropri\u00e9e, notamment la consultation des services juridiques d\u2019AAC, des repr\u00e9sentants syndicaux ou des relations de travail et d\u2019autres institutions pertinentes au besoin, le responsable de l\u2019int\u00e9grit\u00e9 scientifique prend une d\u00e9cision\u00a0: (a) sur les all\u00e9gations qu\u2019il consid\u00e8re comme suffisamment fond\u00e9es, le cas \u00e9ch\u00e9ant; et (b) sur les mesures \u00e0 prendre ult\u00e9rieurement, le cas \u00e9ch\u00e9ant.</p> \n\n<p>Si le responsable de l\u2019int\u00e9grit\u00e9 scientifique estime qu\u2019une ou plusieurs all\u00e9gations ne sont pas suffisamment fond\u00e9es, il veille \u00e0 ce que\u00a0: (i) toutes les parties impliqu\u00e9es dans le processus d\u2019enqu\u00eate soient inform\u00e9es que l\u2019affaire a \u00e9t\u00e9 conclue; (ii) l\u2019employ\u00e9 mis en cause re\u00e7oive une lettre officielle indiquant qu\u2019une all\u00e9gation a \u00e9t\u00e9 faite, qu\u2019un processus d\u2019examen a \u00e9t\u00e9 \u00e9tabli, que l\u2019all\u00e9gation a \u00e9t\u00e9 jug\u00e9e insuffisamment fond\u00e9e et qu\u2019aucune autre mesure ne sera prise.</p>\n\n<p>Si le responsable de l\u2019int\u00e9grit\u00e9 scientifique estime qu\u2019une ou plusieurs all\u00e9gations sont suffisamment fond\u00e9es, il envoie au r\u00e9pondant une lettre pr\u00e9cisant explicitement\u00a0: (a) quelle(s) all\u00e9gation(s) a/ont \u00e9t\u00e9 jug\u00e9e(s) fond\u00e9e(s); (b) la/les raison(s) de cette/ces d\u00e9cision(s); et (c) toute autre action qui sera entreprise.</p>\n\n<p>Si aucun appel n\u2019est interjet\u00e9 contre l\u2019enqu\u00eate dans les 30 jours, le dossier peut \u00eatre consid\u00e9r\u00e9 comme clos.</p>\n\n<p>Voir, \u00e0 l\u2019annexe 2, le sch\u00e9ma d\u00e9crivant le processus de r\u00e9ponse \u00e0 une violation pr\u00e9sum\u00e9e.</p>\n\n<h2 id=\"h7\">7. Appels</h2>\n\n<p>Si le plaignant, l\u2019employ\u00e9 mis en cause ou toute autre partie concern\u00e9e ou int\u00e9ress\u00e9e interjette appel contre l\u2019enqu\u00eate, ils doivent soumettre une demande \u00e9crite au SM dans les 30 jours suivant la r\u00e9ception de la lettre du responsable de l\u2019int\u00e9grit\u00e9 scientifique, en indiquant la raison de l\u2019appel. Les motifs l\u00e9gitimes d\u2019appel comprennent les suivants\u00a0: (i) des erreurs de proc\u00e9dure, ou (ii) de nouveaux \u00e9l\u00e9ments ou des \u00e9l\u00e9ments suppl\u00e9mentaires qui n\u2019\u00e9taient pas disponibles pendant l\u2019enqu\u00eate du responsable de la r\u00e9ponse. La lettre doit d\u00e9montrer que\u00a0: (i) la proc\u00e9dure appropri\u00e9e n\u2019a pas \u00e9t\u00e9 suivie et/ou (ii) l\u2019enqu\u00eate initiale n\u2019a pas pu prendre en compte des \u00e9l\u00e9ments importants d\u00e9crits dans la lettre d\u2019appel.</p>\n\n<p>Si le SM d\u00e9cide qu\u2019un appel est justifi\u00e9, il d\u00e9signe un responsable de l\u2019appel pour examiner le cas et faire rapport de ses conclusions. Le SM prend ensuite une d\u00e9cision concernant l\u2019appel et informe toutes les parties des r\u00e9sultats et des mesures requises, le cas \u00e9ch\u00e9ant.</p>\n\n<p>De plus, ou comme solution de rechange, et le cas \u00e9ch\u00e9ant, le plaignant, l\u2019employ\u00e9 mis en cause ou toute autre partie concern\u00e9e peut envisager de d\u00e9poser un grief en vertu de la <cite><a href=\"https://laws-lois.justice.gc.ca/fra/lois/P-33.3/\">Loi sur les relations de travail dans le secteur public f\u00e9d\u00e9ral</a></cite>.</p>\n\n<h2 id=\"annexe1\">Annexe 1. Hi\u00e9rarchie des priorit\u00e9s</h2>\n\n<h3>Centre des politiques et des responsabilit\u00e9s d\u2019AAC</h3>\n\n<p>Une fois inform\u00e9 d'un incident pouvant constituer une violation de l'int\u00e9grit\u00e9 scientifique, le responsable de l'int\u00e9grit\u00e9 scientifique d\u00e9termine si l'all\u00e9gation constitue une violation de l'int\u00e9grit\u00e9 scientifique ou d\u2019une politique d\u2019une autre minist\u00e8re ou du gouvernement du Canada, et la renvoie \u00e0 la juridiction appropri\u00e9e selon l'ordre de pr\u00e9s\u00e9ance suivant\u00a0:</p>\n\n<ol class=\"lst-lwr-rmn\">\n\t<li>une loi, une politique ou un r\u00e8glement f\u00e9d\u00e9rale;</li>\n\t<li>une politique d\u2019AAC autre que la <cite>Politique sur l'int\u00e9grit\u00e9 scientifique</cite>, le <cite>Cadre strat\u00e9gique pour l\u2019\u00e9thique en science</cite> ou la <cite>Politique sur les publications en sciences et technologie d\u2019AAC</cite>;</li>\n\t<li>la <cite>Politique sur l'int\u00e9grit\u00e9 scientifique</cite>, le <cite>Cadre strat\u00e9gique pour l\u2019\u00e9thique en science</cite> ou la <cite>Politique sur les publications en science et technologie d\u2019AAC</cite>.</li>\n</ol>\n\n<p>Si une r\u00e9solution n'est pas obtenue par le biais d'un processus f\u00e9d\u00e9ral ou minist\u00e9riel, la situation peut \u00eatre r\u00e9gl\u00e9e au moyen du processus pr\u00e9vu dans la <cite>Politique sur l'int\u00e9grit\u00e9 scientifique d'AAC</cite>.</p>\n\n<table class=\"table table-bordered table-responsive\">\n\t<thead>\n\t\t<tr>\n\t\t\t<th scope=\"col\">Niveau d\u2019autorit\u00e9</th>\n\t\t\t<th scope=\"col\">Violation\u00a0: Valeurs et d\u2019\u00e9thiques</th>\n\t\t\t<th scope=\"col\">Violation\u00a0: Propri\u00e9t\u00e9 intellectuelle</th>\n\t\t\t<th scope=\"col\">Violation\u00a0: Int\u00e9grit\u00e9 scientifique</th>\n\t\t\t<th scope=\"col\">Violation\u00a0: \u00c9tique en sciences</th>\n\t\t\t<th scope=\"col\">Violation\u00a0: Publications en sciences et technologie</th>\n\t\t\t<th scope=\"col\">Violation\u00a0: Communication</th>\n\t\t\t<th scope=\"col\">Violation\u00a0: Relation de travail</th>\n\t\t\t<th scope=\"col\">Violation\u00a0: Autre</th>\n\t\t</tr>\n\t</thead>\n\t<tbody>\n\t\t<tr>\n\t\t\t<th scope=\"row\">Politiques, lois, et r\u00e8glements du gouvernement du Canada</th>\n\t\t\t<td>Code de valeurs et d\u2019\u00e9thique du secteur public</td>\n\t\t\t<td>Loi sur les inventions des fonctionnaires</td>\n\t\t\t<td>s.o.</td>\n\t\t\t<td>s.o.</td>\n\t\t\t<td>s.o.</td>\n\t\t\t<td>Politique sur les communications et l\u2019image de marque</td>\n\t\t\t<td>Conventions collectives</td>\n\t\t\t<td>Autres exigences r\u00e9glementaires ou l\u00e9gislatives</td>\n\t\t</tr>\n\t\t<tr>\n\t\t\t<th scope=\"row\">Politiques et r\u00e8glements d\u2019 AAC</th>\n\t\t\t<td>Code de valeurs et d\u2019\u00e9thique d\u2019AAFC (AAC)</td>\n\t\t\t<td>s.o.</td>\n\t\t\t<td>Politique sur l\u2019int\u00e9grit\u00e9 scientifique (AAC)</td>\n\t\t\t<td>Politique sur l\u2019int\u00e9grit\u00e9 scientifique (AAC)</td>\n\t\t\t<td>Politique sur l\u2019int\u00e9grit\u00e9 scientifique (AAC)</td>\n\t\t\t<td>Directive sur la gestion des communications (DGAP)</td>\n\t\t\t<td>s.o.</td>\n\t\t\t<td>s.o.</td>\n\t\t</tr>\n\t\t<tr>\n\t\t\t<th scope=\"row\">Politiques des directions g\u00e9n\u00e9rales d\u2019AAC</th>\n\t\t\t<td>s.o.</td>\n\t\t\t<td>s.o.</td>\n\t\t\t<td>s.o.</td>\n\t\t\t<td>Cadre strat\u00e9gique pour l\u2019\u00e9thique en science (DGST - CES)</td>\n\t\t\t<td>Politique sur les publications en science et technologie  (DGST - CES)</td>\n\t\t\t<td>s.o.</td>\n\t\t\t<td>s.o.</td>\n\t\t\t<td>s.o.</td>\n\t\t</tr>\n\t\t<tr>\n\t\t\t<th scope=\"row\">Direction g\u00e9n\u00e9rale ou unit\u00e9 de travail responsable</th>\n\t\t\t<td>DGGI \u2013 Secr\u00e9tariat de valeurs et d\u2019\u00e9thique</td>\n\t\t\t<td>DGST \u2013 BPIC</td>\n\t\t\t<td>DGST - Int\u00e9grit\u00e9 scientifique</td>\n\t\t\t<td>DGST - Int\u00e9grit\u00e9 scientifique</td>\n\t\t\t<td>DGST \u2013 Comit\u00e9 d\u2019\u00e9thique en science</td>\n\t\t\t<td>DGAP</td>\n\t\t\t<td>DGGI \u2013 RH</td>\n\t\t\t<td>Autre minist\u00e8re or direction g\u00e9n\u00e9rale selon le cas</td>\n\t\t</tr>\n\t</tbody>\n</table>\n\n<h2 id=\"annexe2\">Annexe 2. Sch\u00e9ma de r\u00e9ponse aux all\u00e9gations de violation de l'int\u00e9grit\u00e9 scientifique</h2>\n\n<img src=\"http://multimedia.agr.gc.ca/pack/img/flowchart_breaches_violations_v1-fra.jpg\" alt=\"La description de cette image suit.\" class=\"img-responsive\">\n\n<details>\n<summary>Description de l'image ci-dessus.</summary>\n\n<p>D\u00e9but dans le haut du diagramme\u00a0: \u00ab\u00a0Violation possible observ\u00e9e\u00a0\u00bb</p>\n\n<ol>\n <li>Premi\u00e8re \u00e9tape\u00a0: \u00ab\u00a0L\u2019observateur engage un m\u00e9canisme de r\u00e9solution informel (discussion avec l\u2019employ\u00e9 mis en cause, son propre superviseur ou le superviseur de l\u2019employ\u00e9 mis en cause)\u00a0\u00bb</li>\n <li>Prochaine \u00e9tape, Q\u00a0: \u00ab\u00a0Affaire r\u00e9solue?\u00a0\u00bb\n  <ol class=\"lst-lwr-alph\">\n   <li>Si la r\u00e9ponse est \u00ab\u00a0Oui\u00a0\u00bb, alors\u00a0: \u00ab\u00a0L\u2019affaire est close\u00a0\u00bb</li>\n   <li>Si la r\u00e9ponse est \u00ab\u00a0Non\u00a0\u00bb, alors\u00a0: \u00ab\u00a0Le responsable de l\u2019int\u00e9grit\u00e9 scientifique (RIS) re\u00e7oit la notification d\u2019une violation pr\u00e9sum\u00e9e\u00a0\u00bb, puis, Q\u00a0: \u00ab\u00a0La violation pr\u00e9sum\u00e9e concerne-t-elle d\u2019autres politiques que la PIS, le CSES ou la PPST?\u00a0\u00bb\n    <ol class=\"lst-lwr-rmn\">\n     <li>Si la r\u00e9ponse est \u00ab\u00a0Oui\u00a0\u00bb, alors \u00ab\u00a0Le RIS informe les autres responsables du processus et le plaignant\u00a0\u00bb, puis\u00a0: \u00ab\u00a0Autre processus\u00a0\u00bb.\n      <ol>\t\n       <li>Prochaine \u00e9tape\u00a0: Q\u00a0: \u00ab\u00a0Affaire r\u00e9solue?\u00a0\u00bb\n        <ol class=\"lst-lwr-alph\">\n         <li>Si la r\u00e9ponse est \u00ab\u00a0Oui\u00a0\u00bb, alors\u00a0: \u00ab\u00a0L\u2019affaire est close\u00a0\u00bb</li>\n         <li>Si la r\u00e9ponse est \u00ab\u00a0Non\u00a0\u00bb, alors\u00a0: retourner \u00e0 l\u2019\u00e9tape 2.b., jusqu\u2019\u00e0 ce que la situation soit r\u00e9solue \u00e0 l\u2019\u00e9tape 2.b.i.1.a., ou le RIS doit recommencer \u00e0 l\u2019\u00e9tape 2.b.ii.</li>\n        </ol>\n       </li>\n      </ol>\n     </li>\t\n     <li>Si la r\u00e9ponse est \u00ab\u00a0Non\u00a0\u00bb, alors \u00ab\u00a0Le RIS nomme un responsable de la r\u00e9ponse (RR) \u2013pr\u00e9sident du CES ou autre\u00a0\u00bb (4 \u00e9tapes suivent)\n      <ol>\n       <li>Ensuite, \u00ab\u00a0La RR enqu\u00eate (seul ou avec un comit\u00e9 si n\u00e9cessaire)\u00a0\u00bb;</li>\n       <li>Ensuite, \u00ab\u00a0Rapport du RR au RIS \u2013 conclusions et recommandations\u00a0\u00bb;</li>\n       <li>Ensuite, \u00ab\u00a0Le RIS d\u00e9cide des mesures \u00e0 prendre et en d\u00e9l\u00e8gue la mise en \u0153uvre\u00a0\u00bb;</li>\n       <li>Ensuite, \u00ab\u00a0Le RIS pr\u00e9pare le rapport final \u00e0 d\u00e9poser\u00a0\u00bb Puis, Q\u00a0: \u00ab\u00a0L'employ\u00e9 mis en cause ou le plaignant fait-il appel?\u00a0\u00bb \n        <ol class=\"lst-lwr-alph\">\n         <li>Si la r\u00e9ponse est \u00ab\u00a0Non\u00a0\u00bb, alors \u00ab\u00a0L\u2019affaire est close\u00a0\u00bb</li>\n         <li>Si la r\u00e9ponse est \u00ab\u00a0Oui\u00a0\u00bb, alors la prochaine \u00e9tape est la suivante\u00a0: \u00ab\u00a0L\u2019appelant envoie une demande \u00e9crite au SM en indiquant les motifs de l\u2019appel\u00a0\n          <ol class=\"lst-lwr-rmn\">\n           <li>Ensuite, \u00ab\u00a0Le SM nomme un responsable de l\u2019appel (RA) pour examiner le cas et faire rapport.\u00a0\u00bb</li>\n           <li>Ensuite, \u00ab\u00a0Le SM statue sur l\u2019appel et informe toutes les parties et d\u00e9l\u00e8gue toute action requise\u00a0\u00bb</li>\n           <li>Ensuite, \u00ab\u00a0L\u2019affaire est close\u00a0\u00bb</li>\n          </ol>\n         </li>\n        </ol>\n       </li>\n      </ol>\n     </li>\n    </ol>\n   </li>\n  </ol>\n </li>\n</ol>\n\t</details>\n\n<aside class=\"wb-fnote\" role=\"note\">\n    <h2 id=\"fn\">Notes de bas de pages</h2>\n    <dl>\n        <dt>Note de bas de page 1</dt>\n        <dd id=\"fn1\">\n        <p>Ou un employ\u00e9 ne travaillant pas pour AAC, conform\u00e9ment \u00e0 l\u2019article 5.1 (Champ d\u2019application) de la <cite>Politique sur l\u2019int\u00e9grit\u00e9 scientifique</cite> d\u2019AAC.</p>\n        <p class=\"fn-rtn\"><a href=\"#fn1-rf\"><span class=\"wb-inv\">Retour \u00e0 la r\u00e9f\u00e9rence de la note de bas de page </span> 1</a></p>\n        </dd>\n        <dt>Note de bas de page 2</dt>\n        <dd id=\"fn2\">\n        <p>Les enqu\u00eates sur les violations de l\u2019int\u00e9grit\u00e9 scientifique doivent \u00e9galement se conformer \u00e0 l'annexe A des <cite><a href=\"https://www.tbs-sct.gc.ca/pol/doc-fra.aspx?id=22370\"></a>Lignes directrices concernant la discipline</cite> du Conseil du Tr\u00e9sor.</p>\n        <p class=\"fn-rtn\"><a href=\"#fn2-rf\"><span class=\"wb-inv\">Retour \u00e0 la r\u00e9f\u00e9rence de la note de bas de page </span> 2</a></p>\n        </dd>\n\t\t\n\t\t\n\t\t<dt>Note de bas de page 3</dt>\n        <dd id=\"fn3\">\n        <p>Ce droit n\u2019oblige pas AAC \u00e0 fournir un soutien financier pour cette repr\u00e9sentation.</p>\n        <p class=\"fn-rtn\"><a href=\"#fn3-rf\"><span class=\"wb-inv\">Retour \u00e0 la r\u00e9f\u00e9rence de la note de bas de page </span> 3</a></p>\n        </dd>\n\t\t\n\t\t<dt>Note de bas de page 4</dt>\n        <dd id=\"fn4\">\n        <p>S\u2019applique aux anciens employ\u00e9s qui sont soumis \u00e0 des restrictions apr\u00e8s leur emploi ou qui restent li\u00e9s \u00e0 AAC, comme les associ\u00e9s de recherche honoraires.</p>\n        <p class=\"fn-rtn\"><a href=\"#fn4-rf\"><span class=\"wb-inv\">Retour \u00e0 la r\u00e9f\u00e9rence de la note de bas de page </span> 4</a></p>\n        </dd>\n\t\t\n\t\t<dt>Note de bas de page 5</dt>\n        <dd id=\"fn5\">\n        <p>Les lois, les r\u00e8glements et les politiques f\u00e9d\u00e9rales ont pr\u00e9s\u00e9ance sur les politiques ou les directives minist\u00e9rielles.</p>\n        <p class=\"fn-rtn\"><a href=\"#fn5-rf\"><span class=\"wb-inv\">Retour \u00e0 la r\u00e9f\u00e9rence de la note de bas de page </span> 5</a></p>\n        </dd>\n\t\t\n\t\t\n\t\t<dt>Note de bas de page 6</dt>\n        <dd id=\"fn6\">\n        <p>Cette nomination est conforme au r\u00f4le du SMA-DGST dans le <cite>Cadre strat\u00e9gique pour l\u2019\u00e9thique en scienc</cite>e et, de mani\u00e8re g\u00e9n\u00e9rale, \u00e0 celui de responsable de la DGST.</p>\n        <p class=\"fn-rtn\"><a href=\"#fn6-rf\"><span class=\"wb-inv\">Retour \u00e0 la r\u00e9f\u00e9rence de la note de bas de page </span> 6</a></p>\n        </dd>\n\t\t\n\t\t<dt>Note de bas de page 7</dt>\n        <dd id=\"fn7\">\n        <p>Le responsable de la r\u00e9ponse peut \u00eatre accompagn\u00e9 d'une autre personne, habituellement un conseiller en relations de travail, afin de r\u00e9duire le risque d'interpr\u00e9tations contradictoires des conversations.</p>\n        <p class=\"fn-rtn\"><a href=\"#fn7-rf\"><span class=\"wb-inv\">Retour \u00e0 la r\u00e9f\u00e9rence de la note de bas de page </span> 7</a></p>\n        </dd>\n    </dl>\n</aside>\n\r\n    "
    }
}