{
    "dcr_id": "1612197190988",
    "title": {
        "en": "AgriStability - 2021 AgriStability and AgriInvest Additional Information and Adjustment Request",
        "fr": " Agri-stabilit\u00e9  - 2021 Renseignements suppl\u00e9mentaires et de demande de redressement d'Agri-stabilit\u00e9 et d'Agri-investissement"
    },
    "modified": "2021-06-08",
    "issued": "2021-02-12",
    "templatetype": "content page 1 column",
    "page_type": "0",
    "node_id": "1594037384895",
    "dc_date_created": "2021-02-12",
    "managing_branch": "PAB",
    "parent_node_id": "",
    "short_title": "",
    "exturl": "",
    "teamsite_location": {
        "en": "/default/main/AAFC-AAC/Internet-Internet/Group-Ensemble/ProgServ-ProgServ/WORKAREA/ProgServ-ProgServ/templatedata/comm-comm/gene-gene/data/02/as_2021_additional_info_1612197190988_en",
        "fr": "/default/main/AAFC-AAC/Internet-Internet/Group-Ensemble/ProgServ-ProgServ/WORKAREA/ProgServ-ProgServ/templatedata/comm-comm/gene-gene/data/02/as_2021_additional_info_1612197190988_fr"
    },
    "type_name": "comm-comm/gene-gene",
    "has_dcr_id": true,
    "label": {
        "en": "AgriStability - 2021 AgriStability and AgriInvest Additional Information and Adjustment Request",
        "fr": " Agri-stabilit\u00e9  - 2021 Renseignements suppl\u00e9mentaires et de demande de redressement d'Agri-stabilit\u00e9 et d'Agri-investissement"
    },
    "breadcrumb": {
        "en": "AgriStability - 2021 AgriStability and AgriInvest Additional Information and Adjustment Request",
        "fr": " Agri-stabilit\u00e9  - 2021 Renseignements suppl\u00e9mentaires et de demande de redressement d'Agri-stabilit\u00e9 et d'Agri-investissement"
    },
    "layout_name": "content page 1 column",
    "lang": "en",
    "refaire": false,
    "meta": {
        "viewport": {
            "en": "width=device-width,initial-scale=1",
            "fr": "width=device-width, initial-scale=1"
        },
        "issued": {
            "en": "2021-02-12",
            "fr": "2021-02-12"
        },
        "modified": {
            "en": "2021-06-08",
            "fr": "2021-06-08"
        },
        "format": {
            "en": "text/html",
            "fr": "text/html"
        },
        "title": {
            "en": "AgriStability - 2021 AgriStability and AgriInvest Additional Information and Adjustment Request",
            "fr": " Agri-stabilit\u00e9  - 2021 Renseignements suppl\u00e9mentaires et de demande de redressement d'Agri-stabilit\u00e9 et d'Agri-investissement"
        },
        "subject": {
            "en": "architectural heritage;soil assessement;proactive disclosure",
            "fr": "revenus agricoles;syst\u00e8mes de culture;pommes de terre-producteurs"
        },
        "dcterms:subject": {
            "en": "architecture;statistics;government information",
            "fr": "coop\u00e9rative;science \u00e9conomique;diversit\u00e9 biologique"
        },
        "description": {
            "en": "This Web document is. not. a form. Attention:\u00a0_________________________________. Number of pages/attachments including this page:\u00a0___. 1. Identification. For more information about your rights regarding the Privacy Act contact the Access to Information and Privacy Directorate at the Canada Revenue Agency at.",
            "fr": "Ce document Web. n'est pas. un formulaire. 200-1500, rue Hardy. Kelowna BC\u00a0 V1Y 8H2. Assurez-vous d\u2019indiquer l\u2019ann\u00e9e ou les ann\u00e9es auxquelles le redressement s\u2019applique.Remarque\u00a0:Si vous pr\u00e9f\u00e9rez faire \u00e9tat de vos redressements sur une page de l\u2019\u00e9tat A Soci\u00e9t\u00e9, coop\u00e9rative et particulier de cat\u00e9gorie sp\u00e9ciale plut\u00f4t que de remplir la partie 2 de ce formulaire, joignez la ou les page(s) \u00e0 ce formulaire.D\u00e9tails du redressement."
        },
        "language": {
            "en": "eng",
            "fr": "fra"
        },
        "keywords": {
            "en": "ATIP-AIPRP cra-arc.gc.ca",
            "fr": "formulaire.D\u00e9tails du redressement;revenus.Si ce redressement"
        },
        "audience": {
            "en": "gcaudience",
            "fr": "gcaudience"
        },
        "type": {
            "en": "fact sheet",
            "fr": "page administrative"
        },
        "creator": {
            "en": "Agriculture and Agri-Food Canada;Government of Canada",
            "fr": "Agriculture et Agroalimentaire Canada;Gouvernement du Canada"
        },
        "spatial": {
            "en": "gcregions",
            "fr": "gcregions"
        },
        "service": {
            "en": "AAFC-AAC",
            "fr": "AAFC-AAC"
        },
        "accessRights": {
            "en": "2",
            "fr": "2"
        },
        "legalName": {
            "en": "agriculture_and_agri_food_canada",
            "fr": "agriculture_et_agroalimentaire_canada"
        },
        "areaServed": {
            "en": "Canada",
            "fr": "Canada"
        }
    },
    "h1": {
        "en": "AgriStability - 2021 AgriStability and AgriInvest Additional Information and Adjustment Request",
        "fr": "Agri-stabilit\u00e9 - 2021 Renseignements suppl\u00e9mentaires et de demande de redressement d'Agri-stabilit\u00e9 et d'Agri-investissement"
    },
    "js": {
        "en": "",
        "fr": ""
    },
    "body": {
        "en": "\r\n    \n<div class=\"well\">\n<p>This Web document is <b>not</b> a form. Its purpose is to display the information as found on the form for viewing purposes only. If you wish to submit a form, you <b>must</b> use <a href=\"http://multimedia.agr.gc.ca/pack/pdf/as_ai_2021_add_info_06-2021-eng.pdf\">2021 AgriStability and AgriInvest Additional Information and Adjustment Request (PDF Version, 171\u00a0KB)</a></p>\n\n<p>If you cannot access the alternative format, please call <span class=\"nowrap\">1-866-367-8506.</span></p>\n</div>\n\n<p><b>Protected B when complete</b></p>\n\n<p>If you farm in Manitoba, Newfoundland and Labrador,  Nova Scotia, New Brunswick,   or the Yukon, use this form to request an adjustment or to submit additional information to the federal administration for AgriStability and AgriInvest. If you farm in British Columbia use this form to request an adjustment or to submit additional information to the British Columbia administration for AgriStability and to the federal Administration for AgriInvest.</p>\n\n<p>Do not use this form to request an adjustment to your income tax return.</p>\n\n<ul>\n<li>If this adjustment affects your net income, the Administration may require that the adjustment is first accepted by the Canada Revenue Agency (CRA). Requests for adjustments to your tax return should be sent separately to your CRA tax services centre office.</li>\n</ul>\n\n<p>Once complete, fax or send the form and any attachments to the appropriate address listed below:</p>\n\n<p><b>For the Federal Administration:</b><br>\nAgriStability and AgriInvest Administration<br>\nPO Box 3200<br>\nWinnipeg   MB \u00a0  R3C 5R7<br>\nToll free fax: 1-877-949-4885</p>\n\n<p><b>For the British Columbia Administration:</b><br>\nAgriStability Administration<br>\nMinistry of Agriculture, Food and Fisheries<br>\n200-1500 Hardy Street<br>\nKelowna   BC \u00a0  V1Y 8H2<br>\nToll free fax: 1-877-605-8467</p>\n\n\n<p><b>Please identify the information you are sending by checking the applicable box(es) below:</b></p>\n\n<ul>\n<li>Additional information submitted at the same time as your program forms</li>\n<li>An adjustment to information previously submitted on program forms</li>\n<li>A response to a request from the Administration</li>\n</ul>\n\n<p><b>Indicate which program year(s) you are requesting the adjustment be made to:</b></p>\n\n<ul class=\"mrgn-bttm-md\">\n<li>2016</li>\n<li>2017</li>\n<li>2018</li>\n<li>2019</li>\n<li>2020</li>\n<li>2021</li>\n</ul>\n\n\n<div class=\"row\">\n    <div class=\"col-md-5\">\n    <p><b>Attention:</b>\u00a0_____________________________</p>\n    </div>\n    \n    <div class=\"col-md-7\">\n    <p><b>Number of pages/attachments including this page:</b>\u00a0___</p>\n    </div>\n</div>\n\n\n<h2>1. Identification</h2>\n\n<ul>\n<li>Name:</li>\n<li>Participant Identification Number (PIN):</li>\n<li>Telephone number:</li>\n<li>Fax number:</li>\n</ul>\n\n\n\n<h2>2. Adjustment details</h2>\n\n<p>\nIndicate the details of your requested adjustment. Adjustments to information reported on your AgriStability and AgriInvest program forms must be made within the adjustment timeframe indicated on your original Calculation of Program Benefits (COB) or your AgriInvest Deposit Notice. Ensure you indicate the year(s) you are adjusting.</p>\n\n<p>If you would prefer to show your adjustments using a page from the Statement A Corporation/Co-operative and Special Individual rather than filling in part 2 of this form, attach the page(s) to this form.</p>\n \n<table class=\"table table-bordered mrgn-bttm-md\">\n<caption><span class=\"wb-inv\">Adjustment details</span></caption>\n<thead>\n<tr>\n<th scope=\"col\">Section on the form</th>\n<th scope=\"col\">Line code</th>\n<th scope=\"col\">Description of the item to be adjusted</th>\n<th scope=\"col\">Previous amount</th>\n<th scope=\"col\">Revised amount</th>\n</tr>\n</thead>\n<tbody>\n<tr>\n<td></td>\n<td></td>\n<td></td>\n<td></td>\n<td></td>\n</tr>\n<tr>\n<td></td>\n<td></td>\n<td></td>\n<td></td>\n<td></td>\n</tr>\n<tr>\n<td></td>\n<td></td>\n<td></td>\n<td></td>\n<td></td>\n</tr>\n<tr>\n<td></td>\n<td></td>\n\n<td></td>\n<td></td>\n<td></td>\n</tr>\n<tr>\n<td></td>\n<td></td>\n<td></td>\n<td></td>\n<td></td>\n</tr>\n<tr>\n<td></td>\n<td></td>\n<td></td>\n<td></td>\n<td></td>\n</tr>\n</tbody>\n</table>\n \n\n\n<h2>3. Other details or explanations (attach an extra sheet if required)</h2>\n\n\n<div class=\"well well-lg\">\u00a0</div>\n\n<div class=\"mrgn-tp-lg mrgn-bttm-md brdr-bttm\"></div>\n\n<h2>Confidential information and participant consent</h2>\n\n<p>Agriculture and Agri-Food Canada (AAFC) and the Canada Revenue Agency (CRA) are committed to protecting the privacy of your information. The information on this form is collected under the Farm Income Protection Act and will be used exclusively for the following purposes:</p>\n\n<ul>\n<li>administering your participation in the AgriStability and AgriInvest programs</li>\n<li>determining your eligibility for benefits</li>\n<li>verifying the information submitted</li>\n<li>issuing tax receipts</li>\n<li>administering benefits under other farm income and special assistance programs</li>\n<li>audit, analysis, and evaluation of the AgriStability and AgriInvest and other farm income and special assistance programs by the Administration, AAFC, the provincial or territorial governments or third parties engaged for that purpose</li>\n</ul>\n\n<p>By completing this form you authorize the Administration, the provincial and territorial governments, administrators of other farm income and special assistance programs, and third parties possessing information relevant to the administration of, and your participation in, the AgriStability and AgriInvest programs to share such information with AAFC.</p>\n  \n  <p>All applicants except Status Indians and Band farms: by completing this form, you authorize the CRA to share information from this form with AAFC, and you authorize AAFC, where relevant, to share the information on the form and any additional information that is provided as the application is processed, with the CRA, the Administration, provincial and territorial governments and with the administrators of other federal/provincial farm programs.</p>\n  \n  <p>Status Indians and Band farms: AAFC agrees that information provided by Status Indians and Band farms to the AgriStability and AgriInvest programs will not be disclosed to CRA by the Administration, unless disclosure is required by law. By completing and submitting this form you authorize the Administration to share information from this form with AAFC, and authorize AAFC to share the information on the form and any additional information that is provided as the application is processed, with provincial or territorial governments and with the administrators of other federal/provincial farm programs.</p>\n  \n<p>If you do not consent to the sharing of information described herein you may be ineligible to participate in the AgriStability or AgriInvest programs or receive benefits or adjustments to benefits under the AgriStability and AgriInvest programs.</p>\n  \n<p>You have the right to access the personal information held by federal departments and to request changes to incorrect personal information. For more information about your rights regarding the Privacy Act contact the Access to Information and Privacy Directorate at the Canada Revenue Agency at <a href=\"mailto:ATIP-AIPRP@cra-arc.gc.ca\">ATIP-AIPRP@cra-arc.gc.ca</a> or the AAFC Access to Information and Privacy Coordinator at \n<a href=\"mailto:aafc.atip-aiprp.aac@canada.ca\">aafc.atip-aiprp.aac@canada.ca</a> and reference CRA PPU 005, CRA PPU 025 and/or AAFC PPU 183.</p>\n\n<p>In addition, by submitting this form for benefits under the AgriStability and AgriInvest programs, you:</p>\n\n<ol>\n  <li>certify that the information provided is complete and correct</li>\n  <li>declare that the structure of this farming operation has not been altered or created for the purpose of manipulating program benefits or avoiding prescribed maximum limits on program payments</li>\n  <li>understand and agree that any interim or targeted advance payment of AgriStability program funds will be deducted in the calculation of a final AgriStability program payment</li>\n  \n  <li>agree that you will repay any amounts paid to you by the AgriStability and AgriInvest programs that are in excess of the amount calculated under the program rules and understand that any amount you owe to the Crown may be subtracted from any payments to be sent to you by the Crown</li>\n  \n  <li>understand that interest will be charged on overpayments</li>\n  \n  <li>understand and agree that the information you submit may be combined with the information of other participants for the purposes of determining AgriStability and AgriInvest benefits, and consent to the disclosure of information pertaining to you or your financial affairs to the other participants who are being combined with your information</li>\n  \n  <li>understand and certify that where you have provided information about other individuals or entities you have been authorized by those individuals or entities to provide that information</li>\n  \n  <li>understand and agree that where you have provided information about other individuals or entities, if they request to see the information you have submitted about them, the Administration will give them access to that information</li>\n  \n  <li>consent to third parties, CRA and other government programs disclosing to the Administration, upon its request, any information pertaining to you or your financial affairs which the Administration considers necessary for the purpose of verifying the AgriStability and AgriInvest benefit or the information provided on this form</li>\n  \n  <li>understand that it is a criminal offence to make a false statement in application for program benefits and any declarations made are subject to audit</li>\n</ol>\n\n\n<div class=\"mrgn-tp-lg mrgn-bttm-md brdr-bttm\"></div>\n\n\r\n    ",
        "fr": "\r\n      \n\n<div class=\"well\">\n<p>Ce document Web <b>n'est pas</b> un formulaire. Il a pour but d'afficher le contenu du formulaire aux fins de visionnement seulement. Si vous souhaitez soumettre un formulaire, vous <b>devez</b> utiliser la version disponible dans la section <a href=\"http://multimedia.agr.gc.ca/pack/pdf/as_ai_2021_add_info_06-2021-fre.pdf\">2021 Renseignements suppl\u00e9mentaires et de demande de redressement d'Agri-stabilit\u00e9 et d'Agri-investissement (Version PDF, 200\u00a0Ko)</a>.</p>\n\n<p>Si vous avez de la difficult\u00e9 \u00e0 utiliser le format de rechange, veuillez t\u00e9l\u00e9phoner au <span class=\"nowrap\">1-866-367-8506.</span></p>\n</div>\n\n<p><b>Prot\u00e9g\u00e9 B une fois rempli</b></p>\n\n<p>Si vous exploitez une entreprise agricole au Manitoba, \u00e0 Terre-Neuve-et-Labrador, en Nouvelle-\u00c9cosse, au Nouveau-Brunswick ou au Yukon, utilisez ce formulaire pour demander un redressement ou soumettre des renseignements suppl\u00e9mentaires \u00e0 l\u2019Administration f\u00e9d\u00e9rale des programmes Agri-stabilit\u00e9 et Agri-investissement. Si vous exploitez une entreprise agricole en Colombie-Britannique, utilisez ce formulaire pour demander un redressement ousoumettre des renseignements suppl\u00e9mentaires \u00e0 l\u2019Administration du programme Agri-stabilit\u00e9 de la Colombie-Britannique et \u00e0 l\u2019Administration f\u00e9d\u00e9rale du programme Agri-investissement.</p>\n\n<p>N\u2019utilisez pas ce formulaire pour demander un redressement \u00e0 votre d\u00e9claration de revenus.</p>\n\n<ul>\n<li>Si ce redressement modifie votre revenu net, l\u2019Administration des programmes Agri-stabilit\u00e9 et Agri-investissement peut demander que ce redressement soit d\u2019abord accept\u00e9 par l\u2019Agence du revenu du Canada (ARC). Les demandes de redressement concernant votre d\u00e9claration de revenus devraient \u00eatre envoy\u00e9es s\u00e9par\u00e9ment \u00e0 votre bureau des services fiscaux de l\u2019ARC.</li>\n</ul>\n\n<p>Envoyez ce formulaire d\u00fbment rempli, ainsi que tout autre document s\u2019y rattachant, par la poste ou par t\u00e9l\u00e9copieur \u00e0 l\u2019adresse appropri\u00e9e\u00a0:</p>\n\n<p>Pour l\u2019Administration f\u00e9d\u00e9rale<br>\nAdministration des programmes<br>\nAgri-stabilit\u00e9 et Agri-investissement<br>\nCP 3200<br>\nWinnipeg MB\u00a0  R3C 5R7<br>\nNum\u00e9ro de t\u00e9l\u00e9copieur sans frais\u00a0: 1-877-949-4885</p>\n\n<p>Pour l'Administration de la Colombie-Britannique<br>\nAgriStability Administration<br>\nMinistry of Agriculture, Food and Fisheries<br>\n200-1500, rue Hardy<br>\nKelowna BC\u00a0  V1Y 8H2<br>\nNum\u00e9ro de t\u00e9l\u00e9copieur sans frais\u00a0: 1-877-605-8467</p>\n\n\n<p><b>Indiquez le type de renseignements que vous envoyez en cochant les cases appropri\u00e9es\u00a0:</b></p>\n\n<ul>\n<li>Renseignements soumis  en m\u00eame temps que mes formulaires des programmes</li>\n<li>Redressement des  renseignements d\u00e9clar\u00e9s dans mes formulaires originaux des programmes</li>\n<li>Renseignements  demand\u00e9s par l\u2019administration des programmes</li>\n</ul>\n\n<p><b>Indiquez l\u2019ann\u00e9e ou les ann\u00e9es de programme qui s\u2019appliquent \u00e0 votre demande de redressement\u00a0:</b></p>\n\n<ul class=\"mrgn-bttm-md\">\n<li>2016</li>\n<li>2017</li>\n<li>2018</li>\n<li>2019</li>\n<li>2020</li>\n<li>2021</li>\n</ul>\n\n<div class=\"row\">\n<div class=\"col-md-5\">\n<p><b>Destinataire\u00a0:</b>\u00a0_______________________</p>\n</div>\n\n<div class=\"col-md-7\">\n<p><b>Nombre de pages ou de pi\u00e8ces jointes, y compris cette page\u00a0:</b>\u00a0___</p>\n</div>\n</div>\n\n\n<h2>1. Identification</h2>\n\n<ul>\n<li>Nom\u00a0:</li>\n<li>Num\u00e9ro d'identification du participant (NIP)\u00a0:</li>\n<li>Num\u00e9ro de t\u00e9l\u00e9phone\u00a0:</li>\n<li>Num\u00e9ro de t\u00e9l\u00e9copieur\u00a0:</li>\n</ul>\n\n\n\n<h2>2. D\u00e9tails du redressement</h2>\n\n<p>Indiquez les d\u00e9tails du redressement que vous demandez. Les redressements qui s\u2019appliquent aux renseignements d\u00e9clar\u00e9s sur vos formulaires des programmes Agri-stabilit\u00e9 et Agri-investissement doivent \u00eatre effectu\u00e9s dans le d\u00e9lai indiqu\u00e9 sur votre avis initial de calcul des paiements de programme ou votre avis de d\u00e9p\u00f4t d\u2019Agri-investissement. Assurez-vous d\u2019indiquer l\u2019ann\u00e9e ou les ann\u00e9es auxquelles le redressement s\u2019applique.</p>\n\n<p><b>Remarque\u00a0:</b> Si vous pr\u00e9f\u00e9rez faire \u00e9tat de vos redressements sur une page de l\u2019\u00e9tat A Soci\u00e9t\u00e9, coop\u00e9rative et particulier de cat\u00e9gorie sp\u00e9ciale plut\u00f4t que de remplir la partie 2 de ce formulaire, joignez la ou les page(s) \u00e0 ce formulaire.</p>\n\n<figure class=\"mrgn-lft-0\">\n<table class=\"table table-bordered mrgn-bttm-md\">\n<caption><span class=\"hidden\">D\u00e9tails du redressement</span></caption>\n<thead>\n<tr>\n<th scope=\"col\">Partie du formulaire</th>\n<th scope=\"col\">Code de la Ligne\n</th><th scope=\"col\">Description de l'\u00e9l\u00e9ment \u00e0 redresser</th>\n<th scope=\"col\">Montant pr\u00e9c\u00e9dent</th>\n<th scope=\"col\">Montant r\u00e9vis\u00e9</th>\n</tr>\n</thead>\n<tbody>\n<tr>\n<td></td>\n<td></td>\n<td></td>\n<td></td>\n<td></td>\n</tr>\n<tr>\n<td></td>\n<td></td>\n<td></td>\n<td></td>\n<td></td>\n</tr>\n<tr>\n<td></td>\n<td></td>\n<td></td>\n<td></td>\n<td></td>\n</tr>\n<tr>\n<td></td>\n<td></td>\n<td></td>\n<td></td>\n<td></td>\n</tr>\n<tr>\n<td></td>\n<td></td>\n<td></td>\n<td></td>\n<td></td>\n</tr>\n<tr>\n<td></td>\n<td></td>\n<td></td>\n<td></td>\n<td></td>\n</tr>\n</tbody>\n</table>\n \n\n\n<h2 class=\"mrgn-bttm-0\">3. Autres d\u00e9tails ou explications</h2>\n<p class=\"mrgn-tp-0\"> (joignez une feuille suppl\u00e9mentaire si n\u00e9cessaire)</p>\n\n\n\n<div class=\"mrgn-tp-lg mrgn-bttm-md brdr-bttm\"></div>\n\n\n<h2>Renseignements confidentiels et consentement du participant</h2>\n\n<p>Agriculture et Agroalimentaire Canada (AAC) et l\u2019Agence du revenu du Canada (ARC) s\u2019engagent \u00e0 prot\u00e9ger vos renseignements personnels. Les renseignements du pr\u00e9sent formulaire sont recueillis en vertu de la Loi sur la protection du revenu agricole et seront utilis\u00e9s exclusivement pour\u00a0:</p>\n\n\n<ul>\n<li>l\u2019administration relative \u00e0 votre participation aux programmes Agri-stabilit\u00e9 et Agri-investissement;</li>\n<li>la d\u00e9termination de votre admissibilit\u00e9 aux versements;</li>\n<li>la v\u00e9rification des renseignements soumis;</li>\n<li>l\u2019\u00e9mission de re\u00e7us \u00e0 des fins fiscales;</li>\n<li>l\u2019administration de prestations provenant d\u2019autres programmes d\u2019aide pour les revenus agricoles et d\u2019autres programmes d\u2019aide sp\u00e9ciale;</li>\n<li>la v\u00e9rification, l\u2019analyse et l\u2019\u00e9valuation des programmes Agri-stabilit\u00e9 et Agri-investissement ainsi que d\u2019autres programmes d\u2019aide pour les revenus agricoles et d\u2019aide sp\u00e9ciale par l\u2019Administration, par AAC, par les gouvernements provinciaux et territoriaux ou par des tiers embauch\u00e9s \u00e0 cette fin.</li>\n</ul>\n\n<p>En remplissant ce formulaire, vous donnez votre autorisation \u00e0 l\u2019Administration, aux gouvernements provinciaux et territoriaux, aux administrateurs d\u2019autres programmes d\u2019aide pour les revenus agricoles et d\u2019aide sp\u00e9ciale, ainsi qu\u2019aux tiers qui poss\u00e8dent des renseignements pertinents sur votre participation aux programmes Agri-stabilit\u00e9 et Agri-investissement, et sur l\u2019administration de ces programmes, \u00e0 partager ces renseignements avec AAC.</p>\n<p>Tous les demandeurs, \u00e0 l\u2019exception des Indiens inscrits et des exploitations agricoles appartenant \u00e0 une bande : en remplissant ce formulaire, vous autorisez (ARC) \u00e0 partager les renseignements de ce formulaire avec AAC. Vous autorisez aussi, le cas \u00e9ch\u00e9ant, AAC \u00e0 partager les\nrenseignements de ce formulaire, ainsi que tout renseignement suppl\u00e9mentaire fourni lorsque votre demande est trait\u00e9e, avec l\u2019ARC, \u00e0 l\u2019Administration, les gouvernements provinciaux ou territoriaux, ainsi que les administrateurs d\u2019autres programmes agricoles f\u00e9d\u00e9raux ou provinciaux.\n</p>\n<p>Indiens inscrits et exploitations agricoles appartenant \u00e0 une bande : AAC convient que les renseignements fournis par les Indiens inscrits et les exploitations agricoles appartenant \u00e0 une bande pour les programmes Agri-stabilit\u00e9 et Agri-investissement ne seront pas divulgu\u00e9s \u00e0 l\u2019ARC par l\u2019Administration, \u00e0 moins que la divulgation sont requise par la loi. En remplissant et en soumettant ce formulaire, vous autorisez l\u2019Administration \u00e0 partager les renseignements de ce formulaire avec AAC, et autorisez AAC \u00e0 partager ces renseignements sur ce formulaire et tout information suppl\u00e9mentaire qui est fournir lorsque votre demande est trait\u00e9e, avec les ministres provinciaux d\u2019agriculture et avec les administrateurs d\u2019autres\nprogrammes agricoles f\u00e9d\u00e9raux et provinciaux.</p>\n\n<p>Si vous ne consentez pas au partage des renseignements d\u00e9crit dans ce document, vous pourriez ne pas \u00eatre admissible \u00e0 participer aux programmes Agri-stabilit\u00e9 et Agri-investissement ou \u00e0 recevoir des prestations ou des ajustements aux prestations pr\u00e9vues selon les programmes Agri-stabilit\u00e9 et Agri-investissement.</p>\n<p>Vous avez le droit d\u2019acc\u00e9der aux renseignements personnels d\u00e9tenus par les minist\u00e8res f\u00e9d\u00e9ral et de demander des modifications aux renseignements personnels incorrects. Pour en savoir plus sur vos droits en ce qui concerne la Loi sur la protection des renseignements personnels communiquez avec la Direction de l\u2019acc\u00e8s \u00e0 l\u2019information et de la protection des renseignements personnels \u00e0 l\u2019Agence du revenu du Canada \u00e0 <a href=\"mailto:ATIP-AIPRP@cra-arc.gc.ca\">ATIP-AIPRP@cra-arc.gc.ca</a> ou le coordonnateur de l'acc\u00e8s \u00e0 l'information et de la protection des renseignements personnels \u00e0 <a href=\"mailto:aafc.atip-aiprp.aac@canada.ca\">aafc.atip-aiprp.aac@canada.ca</a> et faites r\u00e9f\u00e9rence \u00e0 ARC PPU 005, ARC PPU 025 et/ou AAC PPU 183.</p>\n\n<p>De plus, en soumettant ce formulaire de demande de versement dans le cadre des programmes Agri-stabilit\u00e9 et Agri-investissement, vous\u00a0:</p>\n\n<ol>\n<li>attestez que les renseignements fournis sont complets et exacts;</li>\n<li>d\u00e9clarez que la structure de cette exploitation agricole n\u2019a pas \u00e9t\u00e9 chang\u00e9e ou cr\u00e9\u00e9e dans le but de manipuler les prestations des programmes ou d\u2019\u00e9viter les limites maximales prescrites sur les paiements de programme;</li>\n<li>comprenez et convenez que tout paiement provisoire re\u00e7u au titre du programme Agri-stabilit\u00e9 sera d\u00e9duit dans le calcul du paiement final du programme Agri-stabilit\u00e9;</li>\n<li>convenez de rembourser tout montant pay\u00e9 en trop dans le cadre des programmes Agri-stabilit\u00e9 et Agri-investissement, par rapport au montant calcul\u00e9 conform\u00e9ment aux r\u00e8gles du programme, et comprenez que tout montant d\u00fb \u00e0 l\u2019\u00c9tat pourra \u00eatre d\u00e9duit de tout paiement vers\u00e9 par l\u2019\u00c9tat;</li>\n<li>comprenez que des int\u00e9r\u00eats seront appliqu\u00e9s sur les paiements vers\u00e9s en trop;</li>\n<li>comprenez et convenez que les renseignements que vous fournissez pourront \u00eatre jumel\u00e9s aux renseignements d\u2019autres participants dans le but de d\u00e9terminer les prestations des programmes Agri-stabilit\u00e9 et Agri-investissement, et consentez que les renseignements \u00e0 votre sujet ou au sujet de vos donn\u00e9es financi\u00e8res pourront \u00eatre divulgu\u00e9s \u00e0 d\u2019autres participants dont les renseignements ont \u00e9t\u00e9 regroup\u00e9s avec les v\u00f4tres;</li>\n<li>comprenez et confirmez que, lorsque vous fournissez des renseignements sur d\u2019autres personnes ou entit\u00e9s, vous avez re\u00e7u l\u2019autorisation de ces personnes ou entit\u00e9s de fournir ces renseignements;</li>\n<li>comprenez et convenez que les autres personnes ou entit\u00e9s sur lesquelles vous avez fourni des renseignements pourront avoir acc\u00e8s \u00e0 ces renseignementssur, demande, aupr\u00e8s de l\u2019Administration;</li>\n<li>consentez \u00e0 ce que des tiers, l\u2019ARC ou d\u2019autres programmes gouvernementaux divulguent les renseignements \u00e0 votre sujet ou au sujet de vos donn\u00e9es financi\u00e8res \u00e0 l\u2019Administration, sur demande, si l\u2019Administration les consid\u00e8re comme n\u00e9cessaires \u00e0 la v\u00e9rification des prestations des programmes Agri-stabilit\u00e9 et Agri-investissement ou des renseignements fournis dans ce formulaire;</li>\n<li>comprenez qu\u2019effectuer une fausse d\u00e9claration lorsque vous pr\u00e9sentez une demande pour participer \u00e0 des programmes de prestations est une infraction criminelle et que toutes les d\u00e9clarations effectu\u00e9es peuvent faire l\u2019objet d\u2019une v\u00e9rification.</li>\n</ol>\n\n \n\n\n\r\n    </figure>"
    }
}