{
    "dcr_id": "1613150045534",
    "title": {
        "en": "Nature's Touch Frozen Foods (West) Inc.",
        "fr": "Nature's Touch Frozen Foods (West) Inc."
    },
    "modified": "2021-02-24",
    "issued": "2021-02-15",
    "templatetype": "content page 1 column",
    "page_type": "0",
    "node_id": "1410070965129",
    "dc_date_created": "2021-02-15",
    "managing_branch": "MISB",
    "parent_node_id": "",
    "short_title": "",
    "exturl": "",
    "teamsite_location": {
        "en": "/default/main/AAFC-AAC/Internet-Internet/MISB-DGSIM/ATS-SEA/ATS-SEA-s1/WORKAREA/ATS-SEA-s1/templatedata/comm-comm/gene-gene/data/foodex2021_natures_touch_1613150045534_en",
        "fr": "/default/main/AAFC-AAC/Internet-Internet/MISB-DGSIM/ATS-SEA/ATS-SEA-s1/WORKAREA/ATS-SEA-s1/templatedata/comm-comm/gene-gene/data/foodex2021_natures_touch_1613150045534_fr"
    },
    "type_name": "comm-comm/gene-gene",
    "has_dcr_id": true,
    "label": {
        "en": "Nature's Touch Frozen Foods (West) Inc.",
        "fr": "Nature's Touch Frozen Foods (West) Inc."
    },
    "breadcrumb": {
        "en": "Nature's Touch Frozen Foods (West) Inc.",
        "fr": "Nature's Touch Frozen Foods (West) Inc."
    },
    "layout_name": "content page 1 column",
    "lang": "en",
    "refaire": false,
    "meta": {
        "viewport": {
            "en": "width=device-width,initial-scale=1",
            "fr": "width=device-width, initial-scale=1"
        },
        "issued": {
            "en": "2021-02-15",
            "fr": "2021-02-15"
        },
        "modified": {
            "en": "2021-02-24",
            "fr": "2021-02-24"
        },
        "format": {
            "en": "gcformat",
            "fr": "gcformat"
        },
        "title": {
            "en": "Nature's Touch Frozen Foods (West) Inc.",
            "fr": "Nature's Touch Frozen Foods (West) Inc."
        },
        "subject": {
            "en": "spices;animal products;community development",
            "fr": "oeufs-march\u00e9;produits laitiers;agronomie"
        },
        "dcterms:subject": {
            "en": "edible oils and fats;genetic engineering;community development",
            "fr": "m\u00e9dicament;viande;\u00e9conomie agricole"
        },
        "description": {
            "en": "Agri-Food News from Europe - April 2017 (. PDF. The German economy expanded at the fastest pace in five years in 2016 and the growth momentum is expected to continue this year as rising private and state spending help Germany cement its position as the locomotive of the euro zone.Europe's largest economy expanded by 1.9% last year, a preliminary estimate from the Federal Statistics Office showed on Thursday (January 12, 2017), as an environment of low interest rates and a record influx of refugees fuel household and state spending. Instead of a strict identity aligned with one diet, shoppers embrace the \u201cflexitarian\u201d approach to making conscious choices about what, when and how much to eat.",
            "fr": "Comit\u00e9 permanent de l'agriculture et de l'agroalimentaire. Le Groupe de travail sur la logistique du transport des r\u00e9coltes d'AAC est un forum utile qui rassemble les repr\u00e9sentants de l'industrie et du gouvernement pour identifier des fa\u00e7ons d'am\u00e9liorer le syst\u00e8me de manutention et de transport des grains.Exemples. Parmi les exemples figurent les suivants\u00a0:Agrandissement du pont ferroviaire et pont-chauss\u00e9e Zanardi et am\u00e9liorations de l'infrastructure \u00e0 l'\u00eele Ridley \u00e0 Prince Rupert (110\u00a0millions de dollars);Am\u00e9lioration du corridor ferroviaire de la rive nord et am\u00e9lioration de la route et du chemin de fer de Burrard Inlet \u00e0 Vancouver (145\u00a0millions de dollars).Exportations de graines de canola vers la Chine."
        },
        "language": {
            "en": "eng",
            "fr": "fra"
        },
        "keywords": {
            "en": null,
            "fr": "accost\u00e9s"
        },
        "audience": {
            "en": "gcaudience",
            "fr": "gcaudience"
        },
        "type": {
            "en": "search interface",
            "fr": "article"
        },
        "creator": {
            "en": "Agriculture and Agri-Food Canada",
            "fr": "Agriculture et Agroalimentaire Canada"
        },
        "spatial": {
            "en": "gcregions",
            "fr": "gcregions"
        },
        "service": {
            "en": "AAFC-AAC",
            "fr": "AAFC-AAC"
        },
        "accessRights": {
            "en": "2",
            "fr": "2"
        },
        "legalName": {
            "en": "agriculture_and_agri_food_canada",
            "fr": "agriculture_et_agroalimentaire_canada"
        },
        "areaServed": {
            "en": "Canada",
            "fr": "Canada"
        }
    },
    "h1": {
        "en": "\u30cd\u30a4\u30c1\u30e3\u30fc\u30ba\u30bf\u30c3\u30c1\u51b7\u51cd\u98df\u54c1\uff08\u30a6\u30a7\u30b9\u30c8\uff09 - Nature's Touch Frozen Foods (West) Inc.",
        "fr": "\u30cd\u30a4\u30c1\u30e3\u30fc\u30ba\u30bf\u30c3\u30c1\u51b7\u51cd\u98df\u54c1\uff08\u30a6\u30a7\u30b9\u30c8\uff09 - Nature's Touch Frozen Foods (West) Inc."
    },
    "js": {
        "en": "",
        "fr": ""
    },
    "body": {
        "en": "\r\n    <p><img src=\"https://www.agr.gc.ca/resources/prod/Internet-Internet/MISB-DGSIM/ATS-SEA/images/natures_touch.jpg\" class=\"img-responsive mrgn-rght-md mrgn-tp-lg mrgn-bttm-lg\" alt=\"Nature's Touch Frozen Foods (West) Inc.\"></p>\n\n<p lang=\"ja\">\u30cd\u30a4\u30c1\u30e3\u30fc\u30ba\u30bf\u30c3\u30c1\u306f\u30ab\u30ca\u30c0\u6700\u5927\u306e\u5c0f\u58f2\u5411\u3051\u51b7\u51cd\u679c\u7269\u30b5\u30d7\u30e9\u30a4\u30e4\u30fc\u3067\u3059\u3002\u30d6\u30eb\u30fc\u30d9\u30ea\u30fc\u306b\u3064\u3044\u3066\u306f\u5782\u76f4\u7d71\u5408\u578b\u3067\u4e8b\u696d\u3092\u884c\u3044\u3001\u4fdd\u6709\u3059\u308bSKU\u306f200\u3092\u8d85\u3048\u3066\u3044\u307e\u3059\u3002\u65e5\u672c\u306e\u5c0f\u58f2\u5e02\u5834\u3067\u306f\u6570\u5e74\u306b\u308f\u305f\u308a\u30d7\u30e9\u30a4\u30d9\u30fc\u30c8\u30d6\u30e9\u30f3\u30c9\u304a\u3088\u3073\u30ca\u30b7\u30e7\u30ca\u30eb\u30d6\u30e9\u30f3\u30c9\u5411\u3051\u306b\u88fd\u54c1\u3092\u63d0\u4f9b\u3057\u3066\u304d\u307e\u3057\u305f\u3002</p>\n\n<p>Nature's Touch is Canada's largest frozen fruit supplier in retail. We  are vertically integrated in blueberry and have 200+ SKUs. We have been  supplying Japan retail market for years in private and national brand.</p>\n\n<div class=\"row\">\n<div class=\"col-md-6\">\n<h2><span lang=\"ja\">\u88fd\u54c1\u30ab\u30c6\u30b4\u30ea\u30fc</span> - Product index</h2>\n\n\n<p lang=\"ja\">\u9752\u679c</p>\n\n<p>Fruits and vegetables</p>\n\n</div>\n\n<div class=\"col-md-6\">\n<h2><span lang=\"ja\">\u9023\u7d61\u5148</span> - Contact</h2>\n\n<p>Bonco Tsui<br>\n+852-9858-3819<br>\n<a href=\"mailto:bonco.tsui@naturestouch.ca\">bonco.tsui@naturestouch.ca</a><br>\n<a href=\"https://www.naturestouchfrozenfoods.com\">https://www.naturestouchfrozenfoods.com</a></p>\n</div>\n</div>\n\r\n    ",
        "fr": "\r\n    <p><img src=\"https://www.agr.gc.ca/resources/prod/Internet-Internet/MISB-DGSIM/ATS-SEA/images/natures_touch.jpg\" class=\"img-responsive mrgn-rght-md mrgn-tp-lg mrgn-bttm-lg\" alt=\"Nature's Touch Frozen Foods (West) Inc.\"></p>\n\n\n<p lang=\"ja\">\u30cd\u30a4\u30c1\u30e3\u30fc\u30ba\u30bf\u30c3\u30c1\u306f\u30ab\u30ca\u30c0\u6700\u5927\u306e\u5c0f\u58f2\u5411\u3051\u51b7\u51cd\u679c\u7269\u30b5\u30d7\u30e9\u30a4\u30e4\u30fc\u3067\u3059\u3002\u30d6\u30eb\u30fc\u30d9\u30ea\u30fc\u306b\u3064\u3044\u3066\u306f\u5782\u76f4\u7d71\u5408\u578b\u3067\u4e8b\u696d\u3092\u884c\u3044\u3001\u4fdd\u6709\u3059\u308bSKU\u306f200\u3092\u8d85\u3048\u3066\u3044\u307e\u3059\u3002\u65e5\u672c\u306e\u5c0f\u58f2\u5e02\u5834\u3067\u306f\u6570\u5e74\u306b\u308f\u305f\u308a\u30d7\u30e9\u30a4\u30d9\u30fc\u30c8\u30d6\u30e9\u30f3\u30c9\u304a\u3088\u3073\u30ca\u30b7\u30e7\u30ca\u30eb\u30d6\u30e9\u30f3\u30c9\u5411\u3051\u306b\u88fd\u54c1\u3092\u63d0\u4f9b\u3057\u3066\u304d\u307e\u3057\u305f\u3002</p>\n\n<p>Nature's  Touch est le plus grand fournisseur de fruits surgel\u00e9s au d\u00e9tail au Canada.  Nous sommes int\u00e9gr\u00e9s verticalement dans le secteur des bleuets et disposons de  plus de 200 UGS. Nous approvisionnons le march\u00e9 de d\u00e9tail japonais depuis des  ann\u00e9es, en marques priv\u00e9es et nationales.</p>\n\n\n<div class=\"row\">\n<div class=\"col-md-6\">\n<h2><span lang=\"ja\">\u88fd\u54c1\u30ab\u30c6\u30b4\u30ea\u30fc</span> - Index des produits</h2>\n\n<p lang=\"ja\">\u9752\u679c</p>\n\n<p>Fruits et l\u00e9gumes</p>\n</div>\n\n<div class=\"col-md-6\">\n<h2><span lang=\"ja\">\u9023\u7d61\u5148</span> - Contact</h2>\n\n<p>Bonco Tsui<br>\n+852-9858-3819<br>\n<a href=\"mailto:bonco.tsui@naturestouch.ca\">bonco.tsui@naturestouch.ca</a><br>\n<a href=\"https://www.naturestouchfrozenfoods.com\">https://www.naturestouchfrozenfoods.com</a></p>\n</div>\n</div>\n\r\n    "
    }
}