{
    "dcr_id": "1613400587773",
    "title": {
        "en": "Canadian Honey Council - Honey exporters",
        "fr": "Canadian Honey Council - Exportateurs de miel"
    },
    "modified": "2021-02-24",
    "issued": "2021-02-15",
    "templatetype": "content page 1 column",
    "page_type": "0",
    "node_id": "1410070965129",
    "dc_date_created": "2021-02-15",
    "managing_branch": "MISB",
    "parent_node_id": "",
    "short_title": "",
    "exturl": "",
    "teamsite_location": {
        "en": "/default/main/AAFC-AAC/Internet-Internet/MISB-DGSIM/ATS-SEA/ATS-SEA-s1/WORKAREA/ATS-SEA-s1/templatedata/comm-comm/gene-gene/data/foodex2021_exporter_catalogue_1613400587773_en",
        "fr": "/default/main/AAFC-AAC/Internet-Internet/MISB-DGSIM/ATS-SEA/ATS-SEA-s1/WORKAREA/ATS-SEA-s1/templatedata/comm-comm/gene-gene/data/foodex2021_exporter_catalogue_1613400587773_fr"
    },
    "type_name": "comm-comm/gene-gene",
    "has_dcr_id": true,
    "label": {
        "en": "Canadian Honey Council - Honey exporters",
        "fr": "Canadian Honey Council - Exportateurs de miel"
    },
    "breadcrumb": {
        "en": "Canadian Honey Council - Honey exporters",
        "fr": "Canadian Honey Council - Exportateurs de miel"
    },
    "layout_name": "content page 1 column",
    "lang": "en",
    "refaire": false,
    "meta": {
        "viewport": {
            "en": "width=device-width,initial-scale=1",
            "fr": "width=device-width, initial-scale=1"
        },
        "issued": {
            "en": "2021-02-15",
            "fr": "2021-02-15"
        },
        "modified": {
            "en": "2021-02-24",
            "fr": "2021-02-24"
        },
        "format": {
            "en": "gcformat",
            "fr": "gcformat"
        },
        "title": {
            "en": "Canadian Honey Council - Honey exporters",
            "fr": "Canadian Honey Council - Exportateurs de miel"
        },
        "subject": {
            "en": "architectural heritage;viral diseases;soil assessement",
            "fr": "\u00e9tudes p\u00e9dologiques;air-qualit\u00e9;graines de tournesol"
        },
        "dcterms:subject": {
            "en": "fungi;architectural heritage;architecture",
            "fr": "m\u00e9dicament;programme;horticulture"
        },
        "description": {
            "en": "As a science-based government department, we aspire and are held accountable to the highest standards of scientific excellence. Rochon, D'Ann. Investigation of cucumber necrosis virus induced retrotransposons and the induction of heat tolerance in infected plants and their progeny. Alberta. Lacombe Research and Development Centre. J-001307.",
            "fr": "Alberta. Entreprise\u00a0:Beemaid Honey Limited (en anglais seulement). Contact\u00a0: Greg Mohr. Courriel\u00a0:Pollenpal@gmail.com. Entreprise\u00a0:Scandia Honey Company (en anglais seulement). Contact\u00a0: Tique Chandler. T\u00e9l\u00e9phone\u00a0: 306-862-6776."
        },
        "language": {
            "en": "eng",
            "fr": "fra"
        },
        "keywords": {
            "en": "Inclusiveness.Brian;Department.Andr\u00e9",
            "fr": "Miedema;Greidanus;Apiaries"
        },
        "audience": {
            "en": "gcaudience",
            "fr": "gcaudience"
        },
        "type": {
            "en": "memorandum",
            "fr": "pr\u00e9sentation"
        },
        "creator": {
            "en": "Agriculture and Agri-Food Canada",
            "fr": "Agriculture et Agroalimentaire Canada"
        },
        "spatial": {
            "en": "gcregions",
            "fr": "gcregions"
        },
        "service": {
            "en": "AAFC-AAC",
            "fr": "AAFC-AAC"
        },
        "accessRights": {
            "en": "2",
            "fr": "2"
        },
        "legalName": {
            "en": "agriculture_and_agri_food_canada",
            "fr": "agriculture_et_agroalimentaire_canada"
        },
        "areaServed": {
            "en": "Canada",
            "fr": "Canada"
        }
    },
    "h1": {
        "en": "Canadian Honey Council - Honey exporters",
        "fr": "Canadian Honey Council - Exportateurs de miel"
    },
    "js": {
        "en": "",
        "fr": ""
    },
    "body": {
        "en": "\r\n    <h2>Alberta</h2>\n\n<p>Company: <b><a href=\"https://www.beemaid.com/\">Beemaid Honey Limited</a></b><br>\nContact: Greg Mohr<br>\nPhone: 780-960-8014\u00a0<br>\nEmail: <a href=\"mailto:greg%E2%80%90mohr@beemaid.com\">greg\u2010mohr@beemaid.com</a><br>\nWeb: www.beemaid.com</p>\n\n<p>Company: <b><a href=\"https://bearyberryhoney.com/\">Beary Berry Honey</a></b><br>\nContact: Sandra Thiessen<br>\nPhone: 780-662-3577<br>\nEmail: <a href=\"mailto:sales@bearyberryhoney.com\">sales@bearyberryhoney.com</a><br>\nWeb: bearyberryhoney.com</p>\n\n<p>Company: <b><a href=\"https://www.goodmorninghoney.com/\">Good Morning Honey Ltd</a></b><br>\nContact: Richard Ozero<br>\nPhone: 780-2S7-9060<br>\nEmail: <a href=\"mailto:albertahoney@gmail.com\">albertahoney@gmail.com</a><br>\nWeb: www.goodmorninghoney.ca</p>\n\n<p>Company: <b><a href=\"http://busybeefarm.ca/\">Busy Bee Fard Ltd</a></b><br>\nContact: Mike deJong<br>\nPhone: 780-.995-.8814<br>\nEmail: <a href=\"mailto:busybee@telus.net\">busybee@telus.net</a><br>\nWeb: www.busybeefarm.ca</p>\n\n<p>Company: <b><a href=\"https://www.goldenacreshoney.com/\">Golden Acres Honey Products Ltd.</a></b><br>\nContacts: Kevin Belt/Susan Marusz<br>\nPhone: 403-443-7705<br>\nEmail: <a href=\"mailto:info@goldenacreshoney.com\">info@goldenacreshoney.com</a><br>\nWeb: www.goldenacreshoney.com</p>\n\n<p>Company: <b>Greidanus Farms Inc</b><br>\nContact: Gerrit Greidanus<br>\nPhone: 403-330-5945<br>\nEmail: <a href=\"mailto:ggreidanus@hotmail.com\">ggreidanus@hotmail.com</a></p>\n\n<p>Company: <b><a href=\"https://honeymill.ca/\">Greidanus Honey Mill</a></b><br>\nContact: Graham Strom<br>\nPhone: 403-336-3854<br>\nEmail: <a href=\"mailto:honeymill@honeymill.ca\">honeymill@honeymill.ca</a><br>\nWeb: www.honeymill.ca</p>\n\n<p>Company: <b><a href=\"https://peaceriverhoney.co/\">Honey Bunny Inc.</a></b><br>\nContact: Paige Wolfe<br>\nPhone: 780-925-2282<br>\nEmail: <a href=\"mailto:paige@honeybunny.ca\">paige@honeybunny.ca</a>; <a href=\"mailto:info@peaceriverhoney.co\">info@peaceriverhoney.co</a><br>\nWeb: www.peaceriverhoney.co/</p>\n\n<p>Company: <b>Kiwi Brian's Honey Ltd</b><br>\nContact: Landen Stronks<br>\nPhone: 403-308-8504<br>\nEmail: <a href=\"mailto:landen@witdouckfarms.com\">landen@witdouckfarms.com</a></p>\n\n<p>Company: <b><a href=\"https://www.goodmorninghoney.com/\">Little Mercia Farm</a></b><br>\nContact: Tammie Sharpe<br>\nPhone: 780-515-1694<br>\nEmail: <a href=\"mailto:tammie@telus.net\">tammie@telus.net</a><br>\nWeb: www.goodmorninghoney.ca</p>\n\n<p>Company: <b>Miedema Honey Farm Inc</b><br>\nContact: Curtis Miedema<br>\nPhone: 780-206-4483<br>\nEmail: <a href=\"mailto:miedemahoney@gmail.com\">miedemahoney@gmail.com</a></p>\n\n<p>Company: <b>Nixon Honey Farm</b><br>\nContact: Kevin Nixon<br>\nPhone: 403-227-2719<br>\nEmail: <a href=\"mailto:Info@nixonhoney.ca\">Info@nixonhoney.ca</a></p>\n\n<p>Company: <b><a href=\"https://nixonhoney.ca/\">P &amp; J Apiaries Inc.</a></b><br>\nContact: Danielle Eastman<br>\nPhone: 780-349-6610<br>\nEmail: <a href=\"mailto:dmeastman@shaw.ca\">dmeastman@shaw.ca</a><br>\nWeb: www.nixonhoney.ca</p>\n\n<p>Company: <b><a href=\"https://paradishoney.com/\">Paradis Honey Ltd.</a></b><br>\nContact: Michael Paradis<br>\nPhone: +I.780-323-4183<br>\nEmail: <a href=\"mailto:paradishoney@outlook.com\">paradishoney@outlook.com</a><br>\nWeb: www.paradishoney.com</p>\n\n<p>Company: <b><a href=\"https://paradisvalleyhoney.com/\">Paradis Valley Honey</a></b><br>\nContact: Danny Paradis<br>\nPhone: 866-624-8175<br>\nEmail: <a href=\"mailto:forpollen@gmail.com\">forpollen@gmail.com</a><br>\nWeb: www.paradisvalleyhoney.com</p>\n\n<p>Company: <b>Poelman Apiaries Ltd</b><br>\nContact: Jerry Poelman<br>\nPhone: 403-687-2440<br>\nEmail: <a href=\"mailto:Pollenpal@gmail.com\">Pollenpal@gmail.com</a></p>\n\n<p>Company: <b><a href=\"https://www.scandiahoney.com/\">Scandia Honey Company</a></b><br>\nContact: Tique Chandler<br>\nPhone: 416-992-9052<br>\nEmail: <a href=\"mailto:tique@scandiahoney.\">tique@scandiahoney.</a><br>\nWeb: www.scandiahoney.com</p>\n\n<p>Company: <b><a href=\"https://pleasantvalleyhoney.com/\">Pleasant Valley Honey Producers Ltd.</a></b><br>\nContact: Ryan Olthof<br>\nPhone: 780-352-2266<br>\nEmail: <a href=\"mailto:pvhpbees@gmail.com\">pvhpbees@gmail.com</a><br>\nWeb: pleasantvalleyhoney.com</p>\n\n<p>Company: <b>Severson Honey Farms</b><br>\nContact: Russell Severson<br>\nPhone: 780-608-0076<br>\nEmail: <a href=\"mailto:rads@netkaster.ca\">rads@netkaster.ca</a></p>\n\n<p>Company: <b><a href=\"https://www.spirithillswinery.com/\">Spirit Hills Ltd</a></b><br>\nContact: Hugo Bonjean<br>\nPhone: 403-933-3913<br>\nEmail: <a href=\"mailto:hugo@spirithillswinery.com\">hugo@spirithillswinery.com</a><br>\nWeb: www.spirithillswinery.com</p>\n\n<p>Company: <b>Sweetheart Pollinators / Janeil Enterprises Inc.</b><br>\nContact: Neil Specht<br>\nPhone: 306-463-8864<br>\nEmail: <a href=\"mailto:sweetheart.pollinators@sasktel.net\">sweetheart.pollinators@sasktel.net</a></p>\n\n<p>Company: <b><a href=\"https://truefoodlabs.com/workerbeehoney/\">Worker Bee Honey Company</a></b><br>\nContact: Peter Awram<br>\nPhone: 604-794-331s<br>\nEmail: <a href=\"mailto:peter@workerbeehoney.ca\">peter@workerbeehoney.ca</a><br>\nWeb: truefoodlabs.com/workerbeehoney</p>\n\n<p>Company: <b>Yuan Enterprises</b><br>\nContact: Ron Yu<br>\nPhone: 780-618-6160<br>\nEmail: <a href=\"mailto:ronglinyu@hotmail.com\">ronglinyu@hotmail.com</a></p>\n\n\n<h2>British Columbia</h2>\n\n<p>Company: <b>Golden Ears Apiaries Inc.</b><br>\nContact: Jean\u2010Marc LeDorze<br>\nPhone: 778\u2010882\u20106254<br>\nEmail: <a href=\"mailto:jeanmarcledorze@gmail.com\">jeanmarcledorze@gmail.com</a></p>\n\n<h2>Saskatchewan</h2>\n\n<p>Company: <b>101034244 Sk Ltd. (Glory Bee Honey)</b><br>\nContact: Dennis Glennie<b> </b><br>\nPhone: 306\u2010743\u20105469<br>\nEmail: <a href=\"mailto:dennisglennie@sasktel.net\">dennisglennie@sasktel.net</a></p>\n\n<p>Company: <b>A&amp;E Honey, Inc.</b><br>\nContact: Ashley Gray<br>\nPhone: 306\u2010862\u20102078, 306\u2010862\u20101295<br>\nEmail: <a href=\"mailto:ashley.erin@sasktel.net\">ashley.erin@sasktel.net</a></p>\n\n<p>Company: <b>Big Rose Honey</b><br>\nContacts: David and Ken Walter<br>\nPhone: David - 306\u2010948\u20106119<br>\nEmail: <a href=\"mailto:davidabrc@gmail.com\">davidabrc@gmail.com</a><br>\nPhone: Ken -\u00a0 306\u2010948\u20106528<br>\nEmail: <a href=\"mailto:kenywalt@gmail.com\">kenywalt@gmail.com</a></p>\n\n<p>Company: <b>GC Honey Bees</b><br>\nContact: Grant and Carissa Schmidt<br>\nPhone: 306\u2010276\u20101561<br>\nEmail: <a href=\"mailto:gchoneybees@gmail.com\">gchoneybees@gmail.com</a></p>\n\n<p>Company: <b>Golden West Enterprises Ltd.</b><br>\nContact: Lester Martens<br>\nPhone: 306\u2010230\u20105688<br>\nEmail: <a href=\"mailto:lesmartens@shaw.ca\">lesmartens@shaw.ca</a></p>\n\n<p>Company: <b>Hannigan Honey</b><br>\nContacts: Murray Hannigan and Dave Philp<br>\nPhone: Murray - 306\u2010747\u20107782<br>\nEmail: Murray - <a href=\"mailto:hanniganhoney@sasktel.net\">hanniganhoney@sasktel.net</a><br>\nPhone: Dave - 306\u2010747\u20107777<br>\nE-mail:\u00a0 Dave - <a href=\"mailto:davehanniganhoney@sasktel.net\">davehanniganhoney@sasktel.net</a></p>\n\n<p>Company: <b>Lalonde Honey Farms</b><br>\nContact: Simon LaLonde<br>\nPhone: 306\u2010931\u20100155; 306\u2010931\u20101715<br>\nEmail: <a href=\"mailto:sisimon@tonylalondesales.ca\">sisimon@tonylalondesales.ca</a></p>\n\n<p>Company: <b>Moyen Honey Farms Ltd.</b><br>\nContact: Gerry Moyen<br>\nPhone: 306\u2010873\u20108317<br>\nEmail: <a href=\"mailto:moyenhoneyfarms@gmail.com\">moyenhoneyfarms@gmail.com</a></p>\n\n<p>Company: <b>Norlynn Honey Farm Inc.</b><br>\nContacts: Norm and Marilynn Knudsen<br>\nPhone: 306\u2010862\u20106776<br>\nEmail: <a href=\"mailto:nknudsen@sasktel.net\">nknudsen@sasktel.net</a></p>\n\n<p>Company: <b>Red Deer Hill Honey</b><br>\nContact: Scott Lipsit<br>\nPhone: 306\u2010763\u20100788<br>\nEmail: <a href=\"mailto:Scott.lipsit@saskpolytech.ca\">Scott.lipsit@saskpolytech.ca</a></p>\n\n<p>Company: <b>SJ Beez</b><br>\nContacts: Jake Berg and Stacey Zosel<br>\nPhone: Jake - 306\u2010921\u20108360\u00a0<br>\nEmail: Jake - <a href=\"mailto:sjbeez@hotmail.com\">sjbeez@hotmail.com</a><br>\nPhone: Stacey - 306\u2010921\u20105239<br>\nEmail: Stacey - <a href=\"mailto:staceyzosel@hotmail.com\">staceyzosel@hotmail.com</a></p>\n\n<p>Company: <b>Sun River Honey Inc.</b><br>\nContact: Aaron Comerford<br>\nPhone: 306\u2010292\u20107612<br>\nEmail: <a href=\"mailto:orders@sunriverhoney.com\">orders@sunriverhoney.com</a></p>\n\n<p>Company: <b>Valleau Apiaries</b><br>\nContact: Dan Valleau<br>\nPhone: 306\u2010862\u20104094<br>\nEmail: <a href=\"mailto:valleau.apiaries@sasktel.net\">valleau.apiaries@sasktel.net</a></p>\n\n<p>Company: <b>Wendell Estate Honey</b><br>\nContact: Isobel Wendell<br>\nPhone: 204\u2010564\u20102207<br>\nEmail: <a href=\"mailto:isabel@wendell.ca\">isabel@wendell.ca</a></p>\n\n<p>Company: <b>Calvin Parsons</b><br>\nContact: Calvin Parsons<br>\nPhone: 306\u2010864\u20102632</p>\n\n<p>Company: <b>Big Rose Honey</b><br>\nContacts: David and Ken Walter<br>\nPhone: 306\u2010948\u20106119<br>\nEmail: <a href=\"mailto:davidabrc@gmail.com\">davidabrc@gmail.com</a></p>\n\n<p>Company: <b>Sun River Honey Inc.</b><br>\nContact: Aaron Comerford<br>\nPhone: 306\u2010292\u20107612<br>\nEmail: <a href=\"mailto:orders@sunriverhoney.com\">orders@sunriverhoney.com</a></p>\n\n<h2>Manitoba</h2>\n\n<p>Company: <b>Ash Apiaries Ltd.</b><br>\nContact: Bryan Ash<br>\nPhone: 204\u2010548\u20102036 ext 2221<br>\nEmail: <a href=\"mailto:flash@mymts.net\">flash@mymts.net</a></p>\n\n<p>Company: <b>Durston Honey Farms Ltd.</b><br>\nContact: Allan Campbell<br>\nPhone: 204\u2010638\u20106515; 204\u2010590\u20109441<br>\nEmail: <a href=\"mailto:allan@durstonhoneyfarms.com\">allan@durstonhoneyfarms.com</a></p>\n\n<p>Company: <b>Friesen Prairie Honey</b><br>\nContact: Mark Friesen<br>\nPhone: 204\u2010250\u20103960<br>\nEmail: <a href=\"mailto:mfriesen.bees@gmail.com\">mfriesen.bees@gmail.com</a></p>\n\n<p>Company: <b>Grysiuk Honey Farms Ltd.</b><br>\nContact: Brian Grysiuk<br>\nPhone: 204\u2010799\u20107973<br>\nEmail: <a href=\"mailto:bryang@shaw.ca\">bryang@shaw.ca</a></p>\n\n<p>Company: <b>Mike and Gloria Honey Farm</b><br>\nContact: Mike Grysiuk<br>\nPhone: 204\u2010479\u20102971<br>\nEmail: <a href=\"mailto:mggrysiuk@shaw.ca\">mggrysiuk@shaw.ca</a></p>\n\n<p>Company: <b>Mike Grysiuk Honey Farms Ltd.</b><br>\nContact: Michael Grysiuk<br>\nPhone: 204\u2010899\u20109250<br>\nEmail: <a href=\"mailto:mgrysiuk@mymts.net\">mgrysiuk@mymts.net</a></p>\n\n<p>Company: <b>Rivercrest Honey Farm</b><br>\nContact: Will Clark<br>\nPhone: 204\u2010724\u20102373<br>\nEmail: <a href=\"mailto:willmarthoney@gmail.com\">willmarthoney@gmail.com</a></p>\n\n<p>Company: <b>West 120 Honey Ltd.</b><br>\nContact: Bruce Podolsky<br>\nPhone: 204\u2010742\u20103515<br>\nEmail: <a href=\"mailto:west10honey@gmail.com\">west10honey@gmail.com</a></p>\n\n<h2>Ontario</h2>\n\n<p>Company: <b>Anderkin Foods Inc.</b><br>\nContact: Guy Anderson<br>\nPhone: 1-866\u2010314\u20103529; 519\u2010396\u20103529<br>\nEmail: <a href=\"mailto:lazyj@bmts.com\">lazyj@bmts.com</a></p>\n\n<h2>Quebec</h2>\n\n<p>Company: <b>Miel Abitemis</b><br>\nContact: Marie\u2010Noel Tetreault<br>\nPhone: 819\u2010728\u20102087<br>\nEmail: <a href=\"mailto:mielabitemis@hotmail.com\">mielabitemis@hotmail.com</a></p>\n\r\n    ",
        "fr": "\r\n    <h2>Alberta</h2>\n\n<p>Entreprise\u00a0: <b><a href=\"https://www.beemaid.com/\">Beemaid Honey Limited (en anglais seulement)</a></b><br>\nContacte\u00a0: Greg Mohr<br>\nT\u00e9l\u00e9phone\u00a0: 780-960-8014\u00a0<br>\nCourriel\u00a0: <a href=\"mailto:greg-mohr@beemaid.com\">greg-mohr@beemaid.com</a><br>\nSite web\u00a0: www.beemaid.com</p>\n\n<p>Entreprise\u00a0: <b><a href=\"https://bearyberryhoney.com/\">Beary Berry Honey (en anglais seulement)</a></b><br>\nContacte\u00a0: Sandra Thiessen<br>\nT\u00e9l\u00e9phone\u00a0: 780-662-3577<br>\nCourriel\u00a0: <a href=\"mailto:sales@bearyberryhoney.com\">sales@bearyberryhoney.com</a><br>\nSite web\u00a0: bearyberryhoney.com</p>\n\n<p>Entreprise\u00a0: <b><a href=\"https://www.goodmorninghoney.com/\">Good Morning Honey Ltd (en anglais seulement)</a></b><br>\nContacte\u00a0: Richard Ozero<br>\nT\u00e9l\u00e9phone\u00a0: 780-2S7-9060<br>\nCourriel\u00a0: <a href=\"mailto:albertahoney@gmail.com\">albertahoney@gmail.com</a><br>\nSite web\u00a0: www.goodmorninghoney.ca</p>\n\n<p>Entreprise\u00a0: <b><a href=\"http://busybeefarm.ca/\">Busy Bee Fard Ltd (en anglais seulement)</a></b><br>\nContacte\u00a0: Mike deJong<br>\nT\u00e9l\u00e9phone\u00a0: 780-.995-.8814<br>\nCourriel\u00a0: <a href=\"mailto:busybee@telus.net\">busybee@telus.net</a><br>\nSite web\u00a0: www.busybeefarm.ca</p>\n\n<p>Entreprise\u00a0: <b><a href=\"https://www.goldenacreshoney.com/\">Golden Acres Honey Products Ltd. (en anglais seulement)</a></b><br>\nContacts: Kevin Belt/Susan Marusz<br>\nT\u00e9l\u00e9phone\u00a0: 403-443-7705<br>\nCourriel\u00a0: <a href=\"mailto:info@goldenacreshoney.com\">info@goldenacreshoney.com</a><br>\nSite web\u00a0: www.goldenacreshoney.com</p>\n\n<p>Entreprise\u00a0: <b>Greidanus Farms Inc</b><br>\nContacte\u00a0: Gerrit Greidanus<br>\nT\u00e9l\u00e9phone\u00a0: 403-330-5945<br>\nCourriel\u00a0: <a href=\"mailto:ggreidanus@hotmail.com\">ggreidanus@hotmail.com</a></p>\n\n<p>Entreprise\u00a0: <b><a href=\"https://honeymill.ca/\">Greidanus Honey Mill (en anglais seulement)</a></b><br>\nContacte\u00a0: Graham Strom<br>\nT\u00e9l\u00e9phone\u00a0: 403-336-3854<br>\nCourriel\u00a0: <a href=\"mailto:honeymill@honeymill.ca\">honeymill@honeymill.ca</a><br>\nSite web\u00a0: www.honeymill.ca</p>\n\n<p>Entreprise\u00a0: <b><a href=\"https://peaceriverhoney.co/\">Honey Bunny Inc. (en anglais seulement)</a></b><br>\nContacte\u00a0: Paige Wolfe<br>\nT\u00e9l\u00e9phone\u00a0: 780-925-2282<br>\nCourriel\u00a0: <a href=\"mailto:paige@honeybunny.ca\">paige@honeybunny.ca</a>; <a href=\"mailto:info@peaceriverhoney.co\">info@peaceriverhoney.co</a><br>\nSite web\u00a0: www.peaceriverhoney.co/</p>\n\n<p>Entreprise\u00a0: <b>Kiwi Brian's Honey Ltd</b><br>\nContacte\u00a0: Landen Stronks<br>\nT\u00e9l\u00e9phone\u00a0: 403-308-8504<br>\nCourriel\u00a0: <a href=\"mailto:landen@witdouckfarms.com\">landen@witdouckfarms.com</a></p>\n\n<p>Entreprise\u00a0: <b><a href=\"https://www.goodmorninghoney.com/\">Little Mercia Farm (en anglais seulement)</a></b><br>\nContacte\u00a0: Tammie Sharpe<br>\nT\u00e9l\u00e9phone\u00a0: 780-515-1694<br>\nCourriel\u00a0: <a href=\"mailto:tammie@telus.net\">tammie@telus.net</a><br>\nSite web\u00a0: www.goodmorninghoney.ca</p>\n\n<p>Entreprise\u00a0: <b>Miedema Honey Farm Inc</b><br>\nContacte\u00a0: Curtis Miedema<br>\nT\u00e9l\u00e9phone\u00a0: 780-206-4483<br>\nCourriel\u00a0: <a href=\"mailto:miedemahoney@gmail.com\">miedemahoney@gmail.com</a></p>\n\n<p>Entreprise\u00a0: <b>Nixon Honey Farm</b><br>\nContacte\u00a0: Kevin Nixon<br>\nT\u00e9l\u00e9phone\u00a0: 403-227-2719<br>\nCourriel\u00a0: <a href=\"mailto:Info@nixonhoney.ca\">Info@nixonhoney.ca</a></p>\n\n<p>Entreprise\u00a0: <b><a href=\"https://nixonhoney.ca/\">P &amp; J Apiaries Inc. (en anglais seulement)</a></b><br>\nContacte\u00a0: Danielle Eastman<br>\nT\u00e9l\u00e9phone\u00a0: 780-349-6610<br>\nCourriel\u00a0: <a href=\"mailto:dmeastman@shaw.ca\">dmeastman@shaw.ca</a><br>\nSite web\u00a0: www.nixonhoney.ca</p>\n\n<p>Entreprise\u00a0: <b><a href=\"https://paradishoney.com/\">Paradis Honey Ltd. (en anglais seulement)</a></b><br>\nContacte\u00a0: Michael Paradis<br>\nT\u00e9l\u00e9phone\u00a0: 780-323-4183<br>\nCourriel\u00a0: <a href=\"mailto:paradishoney@outlook.com\">paradishoney@outlook.com</a><br>\nSite web\u00a0: www.paradishoney.com</p>\n\n<p>Entreprise\u00a0: <b><a href=\"https://paradisvalleyhoney.com/\">Paradis Valley Honey (en anglais seulement)</a></b><br>\nContacte\u00a0: Danny Paradis<br>\nT\u00e9l\u00e9phone\u00a0: 866-624-8175<br>\nCourriel\u00a0: <a href=\"mailto:forpollen@gmail.com\">forpollen@gmail.com</a><br>\nSite web\u00a0: www.paradisvalleyhoney.com</p>\n\n<p>Entreprise\u00a0: <b>Poelman Apiaries Ltd</b><br>\nContacte\u00a0: Jerry Poelman<br>\nT\u00e9l\u00e9phone\u00a0: 403-687-2440<br>\nCourriel\u00a0: <a href=\"mailto:Pollenpal@gmail.com\">Pollenpal@gmail.com</a></p>\n\n<p>Entreprise\u00a0: <b><a href=\"https://www.scandiahoney.com/\">Scandia Honey Company (en anglais seulement)</a></b><br>\nContacte\u00a0: Tique Chandler<br>\nT\u00e9l\u00e9phone\u00a0: 416-992-9052<br>\nCourriel\u00a0: <a href=\"mailto:tique@scandiahoney.\">tique@scandiahoney.</a><br>\nSite web\u00a0: www.scandiahoney.com</p>\n\n<p>Entreprise\u00a0: <b><a href=\"https://pleasantvalleyhoney.com/\">Pleasant Valley Honey Producers Ltd. (en anglais seulement)</a></b><br>\nContacte\u00a0: Ryan Olthof<br>\nT\u00e9l\u00e9phone\u00a0: 780-352-2266<br>\nCourriel\u00a0: <a href=\"mailto:pvhpbees@gmail.com\">pvhpbees@gmail.com</a><br>\nSite web\u00a0: pleasantvalleyhoney.com</p>\n\n<p>Entreprise\u00a0: <b>Severson Honey Farms</b><br>\nContacte\u00a0: Russell Severson<br>\nT\u00e9l\u00e9phone\u00a0: 780-608-0076<br>\nCourriel\u00a0: <a href=\"mailto:rads@netkaster.ca\">rads@netkaster.ca</a></p>\n\n<p>Entreprise\u00a0: <b><a href=\"https://www.spirithillswinery.com/\">Spirit Hills Ltd (en anglais seulement)</a></b><br>\nContacte\u00a0: Hugo Bonjean<br>\nT\u00e9l\u00e9phone\u00a0: 403-933-3913<br>\nCourriel\u00a0: <a href=\"mailto:hugo@spirithillswinery.com\">hugo@spirithillswinery.com</a><br>\nSite web\u00a0: www.spirithillswinery.com</p>\n\n<p>Entreprise\u00a0: <b>Sweetheart Pollinators / Janeil Enterprises Inc.</b><br>\nContacte\u00a0: Neil Specht<br>\nT\u00e9l\u00e9phone\u00a0: 306-463-8864<br>\nCourriel\u00a0: <a href=\"mailto:sweetheart.pollinators@sasktel.net\">sweetheart.pollinators@sasktel.net</a></p>\n\n<p>Entreprise\u00a0: <b><a href=\"https://truefoodlabs.com/workerbeehoney/\">Worker Bee Honey Company (en anglais seulement)</a></b><br>\nContacte\u00a0: Peter Awram<br>\nT\u00e9l\u00e9phone\u00a0: 604-794-331s<br>\nCourriel\u00a0: <a href=\"mailto:peter@workerbeehoney.ca\">peter@workerbeehoney.ca</a><br>\nSite web\u00a0: truefoodlabs.com/workerbeehoney</p>\n\n<p>Entreprise\u00a0: <b>Yuan Enterprises</b><br>\nContacte\u00a0: Ron Yu<br>\nT\u00e9l\u00e9phone\u00a0: 780-618-6160<br>\nCourriel\u00a0: <a href=\"mailto:ronglinyu@hotmail.com\">ronglinyu@hotmail.com</a></p>\n\n\n<h2>Colombie britannique</h2>\n\n<p>Entreprise\u00a0: <b>Golden Ears Apiaries Inc.</b><br>\nContacte\u00a0: Jean-Marc LeDorze<br>\nT\u00e9l\u00e9phone\u00a0: 778-882-6254<br>\nCourriel\u00a0: <a href=\"mailto:jeanmarcledorze@gmail.com\">jeanmarcledorze@gmail.com</a></p>\n\n<h2>Saskatchewan</h2>\n\n<p>Entreprise\u00a0: <b>101034244 Sk Ltd. (Glory Bee Honey)</b><br>\nContacte\u00a0: Dennis Glennie<b> </b><br>\nT\u00e9l\u00e9phone\u00a0: 306-743-5469<br>\nCourriel\u00a0: <a href=\"mailto:dennisglennie@sasktel.net\">dennisglennie@sasktel.net</a></p>\n\n<p>Entreprise\u00a0: <b>A&amp;E Honey, Inc.</b><br>\nContacte\u00a0: Ashley Gray<br>\nT\u00e9l\u00e9phone\u00a0: 306-862-2078, 306-862-1295<br>\nCourriel\u00a0: <a href=\"mailto:ashley.erin@sasktel.net\">ashley.erin@sasktel.net</a></p>\n\n<p>Entreprise\u00a0: <b>Big Rose Honey</b><br>\nContacts: David and Ken Walter<br>\nT\u00e9l\u00e9phone\u00a0: David - 306-948-6119<br>\nCourriel\u00a0: <a href=\"mailto:davidabrc@gmail.com\">davidabrc@gmail.com</a><br>\nT\u00e9l\u00e9phone\u00a0: Ken -\u00a0 306-948-6528<br>\nCourriel\u00a0: <a href=\"mailto:kenywalt@gmail.com\">kenywalt@gmail.com</a></p>\n\n<p>Entreprise\u00a0: <b>GC Honey Bees</b><br>\nContacte\u00a0: Grant and Carissa Schmidt<br>\nT\u00e9l\u00e9phone\u00a0: 306-276-1561<br>\nCourriel\u00a0: <a href=\"mailto:gchoneybees@gmail.com\">gchoneybees@gmail.com</a></p>\n\n<p>Entreprise\u00a0: <b>Golden West Enterprises Ltd.</b><br>\nContacte\u00a0: Lester Martens<br>\nT\u00e9l\u00e9phone\u00a0: 306-230-5688<br>\nCourriel\u00a0: <a href=\"mailto:lesmartens@shaw.ca\">lesmartens@shaw.ca</a></p>\n\n<p>Entreprise\u00a0: <b>Hannigan Honey</b><br>\nContacts: Murray Hannigan and Dave Philp<br>\nT\u00e9l\u00e9phone\u00a0: Murray - 306-747-7782<br>\nCourriel\u00a0: Murray - <a href=\"mailto:hanniganhoney@sasktel.net\">hanniganhoney@sasktel.net</a><br>\nT\u00e9l\u00e9phone\u00a0: Dave - 306-747-7777<br>\nE-mail:\u00a0 Dave - <a href=\"mailto:davehanniganhoney@sasktel.net\">davehanniganhoney@sasktel.net</a></p>\n\n<p>Entreprise\u00a0: <b>Lalonde Honey Farms</b><br>\nContacte\u00a0: Simon LaLonde<br>\nT\u00e9l\u00e9phone\u00a0: 306-931-0155; 306-931-1715<br>\nCourriel\u00a0: <a href=\"mailto:sisimon@tonylalondesales.ca\">sisimon@tonylalondesales.ca</a></p>\n\n<p>Entreprise\u00a0: <b>Moyen Honey Farms Ltd.</b><br>\nContacte\u00a0: Gerry Moyen<br>\nT\u00e9l\u00e9phone\u00a0: 306-873-8317<br>\nCourriel\u00a0: <a href=\"mailto:moyenhoneyfarms@gmail.com\">moyenhoneyfarms@gmail.com</a></p>\n\n<p>Entreprise\u00a0: <b>Norlynn Honey Farm Inc.</b><br>\nContacts: Norm and Marilynn Knudsen<br>\nT\u00e9l\u00e9phone\u00a0: 306-862-6776<br>\nCourriel\u00a0: <a href=\"mailto:nknudsen@sasktel.net\">nknudsen@sasktel.net</a></p>\n\n<p>Entreprise\u00a0: <b>Red Deer Hill Honey</b><br>\nContacte\u00a0: Scott Lipsit<br>\nT\u00e9l\u00e9phone\u00a0: 306-763-0788<br>\nCourriel\u00a0: <a href=\"mailto:Scott.lipsit@saskpolytech.ca\">Scott.lipsit@saskpolytech.ca</a></p>\n\n<p>Entreprise\u00a0: <b>SJ Beez</b><br>\nContacts: Jake Berg and Stacey Zosel<br>\nT\u00e9l\u00e9phone\u00a0: Jake - 306-921-8360\u00a0<br>\nCourriel\u00a0: Jake - <a href=\"mailto:sjbeez@hotmail.com\">sjbeez@hotmail.com</a><br>\nT\u00e9l\u00e9phone\u00a0: Stacey - 306-921-5239<br>\nCourriel\u00a0: Stacey - <a href=\"mailto:staceyzosel@hotmail.com\">staceyzosel@hotmail.com</a></p>\n\n<p>Entreprise\u00a0: <b>Sun River Honey Inc.</b><br>\nContacte\u00a0: Aaron Comerford<br>\nT\u00e9l\u00e9phone\u00a0: 306-292-7612<br>\nCourriel\u00a0: <a href=\"mailto:orders@sunriverhoney.com\">orders@sunriverhoney.com</a></p>\n\n<p>Entreprise\u00a0: <b>Valleau Apiaries</b><br>\nContacte\u00a0: Dan Valleau<br>\nT\u00e9l\u00e9phone\u00a0: 306-862-4094<br>\nCourriel\u00a0: <a href=\"mailto:valleau.apiaries@sasktel.net\">valleau.apiaries@sasktel.net</a></p>\n\n<p>Entreprise\u00a0: <b>Wendell Estate Honey</b><br>\nContacte\u00a0: Isobel Wendell<br>\nT\u00e9l\u00e9phone\u00a0: 204-564-2207<br>\nCourriel\u00a0: <a href=\"mailto:isabel@wendell.ca\">isabel@wendell.ca</a></p>\n\n<p>Entreprise\u00a0: <b>Calvin Parsons</b><br>\nContacte\u00a0: Calvin Parsons<br>\nT\u00e9l\u00e9phone\u00a0: 306-864-2632</p>\n\n<p>Entreprise\u00a0: <b>Big Rose Honey</b><br>\nContacts: David and Ken Walter<br>\nT\u00e9l\u00e9phone\u00a0: 306-948-6119<br>\nCourriel\u00a0: <a href=\"mailto:davidabrc@gmail.com\">davidabrc@gmail.com</a></p>\n\n<p>Entreprise\u00a0: <b>Sun River Honey Inc.</b><br>\nContacte\u00a0: Aaron Comerford<br>\nT\u00e9l\u00e9phone\u00a0: 306-292-7612<br>\nCourriel\u00a0: <a href=\"mailto:orders@sunriverhoney.com\">orders@sunriverhoney.com</a></p>\n\n<h2>Manitoba</h2>\n\n<p>Entreprise\u00a0: <b>Ash Apiaries Ltd.</b><br>\nContacte\u00a0: Bryan Ash<br>\nT\u00e9l\u00e9phone\u00a0: 204-548-2036 ext 2221<br>\nCourriel\u00a0: <a href=\"mailto:flash@mymts.net\">flash@mymts.net</a></p>\n\n<p>Entreprise\u00a0: <b>Durston Honey Farms Ltd.</b><br>\nContacte\u00a0: Allan Campbell<br>\nT\u00e9l\u00e9phone\u00a0: 204-638-6515; 204-590-9441<br>\nCourriel\u00a0: <a href=\"mailto:allan@durstonhoneyfarms.com\">allan@durstonhoneyfarms.com</a></p>\n\n<p>Entreprise\u00a0: <b>Friesen Prairie Honey</b><br>\nContacte\u00a0: Mark Friesen<br>\nT\u00e9l\u00e9phone\u00a0: 204-250-3960<br>\nCourriel\u00a0: <a href=\"mailto:mfriesen.bees@gmail.com\">mfriesen.bees@gmail.com</a></p>\n\n<p>Entreprise\u00a0: <b>Grysiuk Honey Farms Ltd.</b><br>\nContacte\u00a0: Brian Grysiuk<br>\nT\u00e9l\u00e9phone\u00a0: 204-799-7973<br>\nCourriel\u00a0: <a href=\"mailto:bryang@shaw.ca\">bryang@shaw.ca</a></p>\n\n<p>Entreprise\u00a0: <b>Mike and Gloria Honey Farm</b><br>\nContacte\u00a0: Mike Grysiuk<br>\nT\u00e9l\u00e9phone\u00a0: 204-479-2971<br>\nCourriel\u00a0: <a href=\"mailto:mggrysiuk@shaw.ca\">mggrysiuk@shaw.ca</a></p>\n\n<p>Entreprise\u00a0: <b>Mike Grysiuk Honey Farms Ltd.</b><br>\nContacte\u00a0: Michael Grysiuk<br>\nT\u00e9l\u00e9phone\u00a0: 204-899-9250<br>\nCourriel\u00a0: <a href=\"mailto:mgrysiuk@mymts.net\">mgrysiuk@mymts.net</a></p>\n\n<p>Entreprise\u00a0: <b>Rivercrest Honey Farm</b><br>\nContacte\u00a0: Will Clark<br>\nT\u00e9l\u00e9phone\u00a0: 204-724-2373<br>\nCourriel\u00a0: <a href=\"mailto:willmarthoney@gmail.com\">willmarthoney@gmail.com</a></p>\n\n<p>Entreprise\u00a0: <b>West 120 Honey Ltd.</b><br>\nContacte\u00a0: Bruce Podolsky<br>\nT\u00e9l\u00e9phone\u00a0: 204-742-3515<br>\nCourriel\u00a0: <a href=\"mailto:west10honey@gmail.com\">west10honey@gmail.com</a></p>\n\n<h2>Ontario</h2>\n\n<p>Entreprise\u00a0: <b>Anderkin Foods Inc.</b><br>\nContacte\u00a0: Guy Anderson<br>\nT\u00e9l\u00e9phone\u00a0: 1-866-314-3529; 519-396-3529<br>\nCourriel\u00a0: <a href=\"mailto:lazyj@bmts.com\">lazyj@bmts.com</a></p>\n\n<h2>Qu\u00e9bec</h2>\n\n<p>Entreprise\u00a0: <b>Miel Abitemis</b><br>\nContacte\u00a0: Marie-Noel Tetreault<br>\nT\u00e9l\u00e9phone\u00a0: 819-728-2087<br>\nCourriel\u00a0: <a href=\"mailto:mielabitemis@hotmail.com\">mielabitemis@hotmail.com</a></p>\n\r\n    "
    }
}