{
    "dcr_id": "1615472324023",
    "title": {
        "en": "Being agri-literate: Canadian Agricultural Literacy Month celebrates its 10th anniversary",
        "fr": "Cultiver des connaissances en agriculture : le Mois de la sensibilisation \u00e0 l\u2019agriculture canadienne c\u00e9l\u00e8bre son 10e anniversaire "
    },
    "modified": "2021-04-01",
    "issued": "2021-03-12",
    "templatetype": "content page 1 column",
    "page_type": "0",
    "node_id": "1613744603471",
    "dc_date_created": "2021-03-12",
    "managing_branch": "PAB",
    "parent_node_id": "",
    "short_title": "",
    "exturl": "",
    "teamsite_location": {
        "en": "/default/main/AAFC-AAC/Internet-Internet/CCB-DGCC/WORKAREA/CCB-DGCC/templatedata/comm-comm/gene-gene/data/gng_ag_literacy_month_1615472324023_en",
        "fr": "/default/main/AAFC-AAC/Internet-Internet/CCB-DGCC/WORKAREA/CCB-DGCC/templatedata/comm-comm/gene-gene/data/gng_ag_literacy_month_1615472324023_fr"
    },
    "type_name": "comm-comm/gene-gene",
    "has_dcr_id": true,
    "label": {
        "en": "Being agri-literate: Canadian Agricultural Literacy Month celebrates its 10th anniversary",
        "fr": "Cultiver des connaissances en agriculture : le Mois de la sensibilisation \u00e0 l\u2019agriculture canadienne c\u00e9l\u00e8bre son 10e anniversaire "
    },
    "breadcrumb": {
        "en": "Being agri-literate: Canadian Agricultural Literacy Month celebrates its 10th anniversary",
        "fr": "Cultiver des connaissances en agriculture : le Mois de la sensibilisation \u00e0 l\u2019agriculture canadienne c\u00e9l\u00e8bre son 10e anniversaire "
    },
    "layout_name": "content page 1 column",
    "lang": "en",
    "refaire": false,
    "meta": {
        "viewport": {
            "en": "width=device-width,initial-scale=1",
            "fr": "width=device-width, initial-scale=1"
        },
        "issued": {
            "en": "2021-03-12",
            "fr": "2021-03-12"
        },
        "modified": {
            "en": "2021-04-01",
            "fr": "2021-04-01"
        },
        "format": {
            "en": "gcformat",
            "fr": "gcformat"
        },
        "title": {
            "en": "Being agri-literate: Canadian Agricultural Literacy Month celebrates its 10th anniversary",
            "fr": "Cultiver des connaissances en agriculture : le Mois de la sensibilisation \u00e0 l\u2019agriculture canadienne c\u00e9l\u00e8bre son 10e anniversaire "
        },
        "subject": {
            "en": "aafcsubject",
            "fr": "aafcsubject"
        },
        "dcterms:subject": {
            "en": "agriculture",
            "fr": "agriculture"
        },
        "description": {
            "en": "Located in the beautiful Outaouais region, in the middle of the forest near Wakefield, Quebec, Ferme L\u00e8ve-t\u00f4t is more than just a farming business. (Photo provided by Ferme L\u00e8ve-t\u00f4t.). Elizabeth describes her encounter with Ferme L\u00e8ve-t\u00f4t as a fluke. \u201cI also intend to continue my studies in politics, because I see a lot of links between this field and my work in agriculture.\u201d She hopes to one day be able to use the knowledge she acquired in the field and at school in a professional career tailor-made based on her two passions.At Ferme L\u00e8ve-t\u00f4t, Charlotte and Richard aspire to develop more-sustainable farming systems and to further diversify their product offering.",
            "fr": "Situ\u00e9e dans la belle r\u00e9gion de l\u2019Outaouais, au milieu de la for\u00eat pr\u00e8s de Wakefield, au Qu\u00e9bec, la Ferme L\u00e8ve-t\u00f4t n\u2019est pas qu\u2019une simple entreprise agricole. C\u2019est en effet gr\u00e2ce \u00e0 l\u2019amie d\u2019une amie qu\u2019elle a entendu parler de cet endroit et qu\u2019elle a rapidement pos\u00e9 sa candidature par l\u2019entremise du Programme d\u2019emploi et de comp\u00e9tences des jeunes. \u00ab\u00a0J\u2019ai aussi l\u2019intention de poursuivre mes \u00e9tudes en politique, car je vois beaucoup de liens entre ce domaine et mon travail en agriculture.\u00a0\u00bb Elle souhaite un jour pouvoir mettre \u00e0 profit ses connaissances acquises sur le terrain et sur les bancs d\u2019\u00e9cole dans une carri\u00e8re professionnelle qui serait construite sur mesure sur ses deux passions.Du c\u00f4t\u00e9 de la Ferme L\u00e8ve-t\u00f4t, Charlotte et Richard aspirent \u00e0 d\u00e9velopper des syst\u00e8mes d\u2019agriculture plus durables et \u00e0 diversifier davantage leur offre de produits."
        },
        "language": {
            "en": "eng",
            "fr": "fra"
        },
        "keywords": {
            "en": "suitcase for Outaouais;L\u00e8ve-t\u00f4t as a fluke;plunge and I was very lucky",
            "fr": "j\u00e9tais adolescente;explique-t-elle avec enthousiasme;j\u00e9tais beaucoup plus \u00e0 laise"
        },
        "audience": {
            "en": "gcaudience",
            "fr": "gcaudience"
        },
        "type": {
            "en": "article",
            "fr": "article"
        },
        "creator": {
            "en": "Agriculture and Agri-Food Canada",
            "fr": "Agriculture et Agroalimentaire Canada"
        },
        "spatial": {
            "en": "gcregions",
            "fr": "gcregions"
        },
        "service": {
            "en": "AAFC-AAC",
            "fr": "AAFC-AAC"
        },
        "accessRights": {
            "en": "2",
            "fr": "2"
        },
        "legalName": {
            "en": "agriculture_and_agri_food_canada",
            "fr": "agriculture_et_agroalimentaire_canada"
        },
        "areaServed": {
            "en": "Canada",
            "fr": "Canada"
        }
    },
    "h1": {
        "en": "Being agri-literate: Canadian Agricultural Literacy Month celebrates its 10th anniversary",
        "fr": "Cultiver des connaissances en agriculture : le Mois de la sensibilisation \u00e0 l\u2019agriculture canadienne c\u00e9l\u00e8bre son 10e anniversaire"
    },
    "js": {
        "en": "",
        "fr": ""
    },
    "body": {
        "en": "\r\n    <div class=\"pull-right col-md-4\">\n  <figure class=\"thumbnail\">  \n  <img class=\"img-responsive\" src=\"http://multimedia.agr.gc.ca/pack/img/gng_ag_literacy_month_fig1.jpg\" alt=\"Dressed in a beekeeper suit, a student pulls dividers from a bee hive.\">\n  <figcaption class=\"caption\"><b>Dressed in a beekeeper suit, a student pulls dividers from a bee hive at Mary Montgomery School in Virden, MB. Photo taken prior to COVID-19 physical distancing requirements.</b> [Photo credit: Agriculture in the Classroom Canada]</figcaption>\n  </figure>\n</div>\n\n<p>Farming is one of the oldest  crafts, with a body of knowledge that has been expanded and refined for  thousands of years. After all, as the old saying goes, \u201ceveryone\u2019s gotta eat.\u201d  Yet many Canadians have never had a chance to learn about our country\u2019s farming  tradition, and the complex system that brings healthy, sustainable food from  the farmer\u2019s field to their plates. </p>\n\n<p>This is where Canadian  Agriculture Literacy Month (CALM) comes in. More precisely, into the classroom,  where every March agriculture comes alive for young Canadians. Guided by sector  professionals, students try hands-on activities like growing plants, tasting  honey samples, or interacting with animals from nearby farms. This year, CALM  is celebrating its 10th anniversary, and has a footprint in all ten provinces,  reaching nearly 60,000 students from kindergarten to Grade 12. </p>\n  \n<h2 id=\"a1\">A Prairie tradition</h2>\n\n<p>In Winnipeg, Victory School has  participated in every year of CALM. Cheryl McQueen has coordinated classroom  visits for her Grade 2/3 classes as well as for the entire school. </p>\n\n<div class=\"pull-right col-md-4\">\n  <figure class=\"thumbnail\">  \n  <img class=\"img-responsive\" src=\"http://multimedia.agr.gc.ca/pack/img/gng_ag_literacy_month_fig2.jpg\" alt=\"Dressed in a beekeeper suit, speaking with children in a class.\">\n  <figcaption class=\"caption\"><b>Located in Winnipeg, Victory School hosts Canadian Agriculture Literacy Month events each year. Photo taken prior to COVID-19 physical distancing requirements.</b> [Photo by Cheryl McQueen]</figcaption>\n  </figure>\n</div>\n\n<p>McQueen is driven by a strong  desire to put kids in touch with the area\u2019s agricultural roots. </p>\n\n\n<p>\u201cIf kids can picture the supply  chain, it will help them make wise choices with what foods they want to eat  and, down the road, what they want to feed their own families,\u201d McQueen says.  \u201cKids are making connections between what they see at school and what they see  at home. Later, they\u2019ll see how that\u2019s linked to the larger community, as a  country, and hopefully to the world as a whole.\u201d </p>\n\n<h2 id=\"a2\">Growing the next generation of farming professionals</h2>\n\n\n<p>Agricultural literacy is a  priority for Canada\u2019s farmers and food processors, who are eager to tell the  story of how they are working to produce safe, nutritious and sustainable food. </p>\n\n<p><a href=\"https://aitc-canada.ca/en-ca/\">Agriculture in the  Classroom Canada</a> provides a national voice for  agriculture education. Through programs such as Canadian Agriculture Literacy  Month, it creates awareness of our  country\u2019s agriculture and food industries, in hopes that the kids of today will  be the agricultural leaders of tomorrow. That  familiarity is exactly what the group hopes kids cultivate, no matter what  careers they pursue. </p>\n\n<p>\u201cOur goal is to make careers in  the agriculture sector tangible,\u201d says Melissa Galay, an education specialist  at Agriculture in the Classroom. \u201cEven if the students don\u2019t want to go into  primary production, there are good careers that tie in with agriculture. For  us, it\u2019s really important to provide that diversity of access to all  provinces.\u201d </p>\n\n<div class=\"pull-right col-md-4\">\n  <figure class=\"thumbnail\">  \n  <img class=\"img-responsive\" src=\"http://multimedia.agr.gc.ca/pack/img/gng_ag_literacy_month_fig3.jpg\" alt=\"Students examining beekeeping objects.\">\n  <figcaption class=\"caption\"><b>Emma Sparks-Areia (foreground) is in Grade 5 at Victory School. She and her classmates look forward to Canadian Agriculture Literacy Month activities each year. Photo taken prior to COVID-19 physical distancing requirements.</b> [Photo by Cheryl McQueen]</figcaption>\n  </figure>\n</div>\n\n<div class=\"well pull-left col-md-8\">\n<p>There is a real sense of  excitement around this year\u2019s milestone Agriculture in the Classroom <a href=\"https://aitc-canada.ca/en-ca/calm2021\">events</a>, which have moved online to  accommodate COVID-19 physical distancing requirements. Minister Bibeau opened  this year\u2019s Canadian Agricultural Literacy Month with a <a href=\"https://www.youtube.com/watch?v=ZA7IwOribvs\">video message</a>,  and participated in a virtual farm tour with students in addition to announcing  $1.6M in funding for Agriculture in the Classroom. </p>\n\n<p>At Canada\u2019s Agriculture Day on  February 23rd, the organization unveiled a new version of its <a href=\"https://www.realdirtonfarming.ca/\">Real Dirt on  Farming</a> publication, specially-tailored for  use in the classroom. This follows their recent <a href=\"https://www.proteinindustriescanada.ca/news/organizations-coming-together-to-introduce-youth-to-careers-across-the-agrifood-sector\">announcement</a> that they will be taking part  in a new program to introduce youth in kindergarten through Grade 12 to the  career opportunities available to them in the plant-protein, agri-food and  digital agriculture sectors. </p>\n</div>\n\n\n<h2 id=\"a3\">A memorable experience</h2>\n\n\n\n<p>Emma Sparks-Areia is in Grade 5  at Victory School. She always looks forward to the month of March, when  agricultural professionals visit her school. She mentions that beekeepers,  graphic designers, even representatives from STEM industries \u2013 those working in  science, technology, engineering and mathematics \u2013 have all showcased the many  faces of agriculture. \u201cThey all talked about how their jobs relate to  agriculture,\u201d Emma says. \u201cThere\u2019s a lot more in common with agriculture than I  thought.\u201d</p>\n\n<p>Even after CALM wraps up each  year, there\u2019s one central word on Emma\u2019s mind: \u201cagriculture.\u201d</p>\n\n<p>\u201cIt\u2019s my favourite word now,\u201d  she says. \u201cI got familiar with it and I like saying it. It\u2019s a juicy word.\u201d </p>\n\n<div class=\"clearfix\"></div>\n\n<div class=\"well\">\n<div class=\"row\">\n<div class=\"col-md-4\">\n  <figure>  \n  <img class=\"img-responsive\" src=\"http://multimedia.agr.gc.ca/pack/img/gng_cap-eng.jpg\" alt=\"Canadian Agricultural Partnership\">\n  </figure>\n</div>  \n\n<div class=\"col-md-8\">\n<p>Agriculture in the  Classroom is funded in part by the <a href=\"?id=1461767369849\">Canadian Agricultural Partnership</a>, a  $3-billion five-year (2018-2023), investment by federal, provincial and territorial  (FPT) governments to strengthen and grow Canada's agriculture and agri-food  sector.</p>\n</div>\n</div>\n</div>\n\n<div class=\"clearfix\"></div>\n\n<section class=\"panel panel-success\">\n  <header class=\"panel-heading\">\n    <h2 class=\"panel-title\">Get more Agri-info</h2>\n    </header>\n  <div class=\"panel-body\">\n    <ul>\n      <li><b>Want more stories like this?</b> Explore what else <a href=\"?id=1419351635969\">Agri-info</a> has to offer.</li>\n      <li><b>Interested in reporting on this story?</b> Contact AAFC Media Relations at <a href=\"mailto:aafc.mediarelations-relationsmedias.aac@canada.ca\">aafc.mediarelations-relationsmedias.aac@canada.ca</a> to arrange an interview with one of our experts.</li>\n      <li><b>Have a story idea or feedback to share?</b> Get in touch at <a href=\"mailto:aafc.agri-info.aac@canada.ca\">aafc.agri-info.aac@canada.ca</a>!</li>\n      <li><b>Never miss an update.</b> <a href=\"?id=1519913793675\">Subscribe</a> to Agri-info today.</li>\n      </ul>\n    </div>\n</section>\n\r\n    ",
        "fr": "\r\n    <div class=\"pull-right col-md-4\">\n  <figure class=\"thumbnail\">  \n  <img class=\"img-responsive\" src=\"http://multimedia.agr.gc.ca/pack/img/gng_ag_literacy_month_fig1.jpg\" alt=\"Rev\u00eatu d\u2019une combinaison d\u2019apiculteur, un \u00e9l\u00e8ve sort un cadre d\u2019une ruche.\">\n  <figcaption class=\"caption\"><b>Rev\u00eatu d\u2019une combinaison d\u2019apiculteur, un \u00e9l\u00e8ve de l\u2019\u00e9cole Mary Montgomery, \u00e0 Virden, au Manitoba, sort une des cloisons d\u2019une ruche. Cette photo a \u00e9t\u00e9 prise avant l\u2019entr\u00e9e en vigueur des exigences d\u2019\u00e9loignement physique li\u00e9es \u00e0 la COVID-19.</b> [Photo\u00a0: Agriculture en classe Canada]</figcaption>\n  </figure>\n</div>\n\n<p>L\u2019agriculture  est l\u2019un des plus anciens m\u00e9tiers, comportant un ensemble de connaissances qui  a \u00e9t\u00e9 \u00e9largi et affin\u00e9 pendant des milliers d\u2019ann\u00e9es. Apr\u00e8s tout, comme le dit  le vieux dicton, \u00ab\u00a0tout le monde doit manger\u00a0\u00bb. Pourtant, de nombreux  Canadiens n\u2019ont jamais eu l\u2019occasion de d\u00e9couvrir la tradition agricole de  notre pays et le syst\u00e8me complexe qui nous permet d\u2019avoir des aliments sains et  durables dans nos assiettes.</p>\n\n<p>\nC\u2019est  l\u00e0 qu\u2019entre en sc\u00e8ne une initiative comme le Mois de sensibilisation \u00e0  l\u2019agriculture canadienne (MSAC). Plus pr\u00e9cis\u00e9ment, chaque mois de mars,  l\u2019agriculture prend vie dans la salle de classe pour les jeunes Canadiens.  Guid\u00e9s par des professionnels du secteur, les \u00e9l\u00e8ves font l\u2019essai de  diff\u00e9rentes activit\u00e9s. Par exemple, ils font pousser des plantes, go\u00fbtent \u00e0 des  \u00e9chantillons de miel ou interagissent avec des animaux de fermes avoisinantes.  Cette ann\u00e9e, le MSAC c\u00e9l\u00e8bre son 10<sup>e</sup> anniversaire et ses activit\u00e9s  s\u2019\u00e9tendent aux dix provinces, profitant \u00e0 60\u00a0000 \u00e9l\u00e8ves de la maternelle \u00e0 la  12<sup>e</sup>\u00a0ann\u00e9e (secondaire\u00a05).</p>\n\n<h2 id=\"a1\">Une tradition des Prairies</h2>\n\n<p>\u00c0 Winnipeg, au Manitoba, l\u2019\u00e9cole Victory participe au MSAC depuis les d\u00e9buts. Cheryl McQueen coordonne des visites en classe pour ses groupes de deuxi\u00e8me et de troisi\u00e8me ann\u00e9e, ainsi que pour tout le reste de l\u2019\u00e9cole.</p>\n\n<div class=\"pull-right col-md-4\">\n  <figure class=\"thumbnail\">  \n  <img class=\"img-responsive\" src=\"http://multimedia.agr.gc.ca/pack/img/gng_ag_literacy_month_fig2.jpg\" alt=\"V\u00eatu d'un costume d'apiculteur, une personne parle avec des enfants dans une classe\">\n  <figcaption class=\"caption\"><b>Situ\u00e9e \u00e0 Winnipeg, au Manitoba, l\u2019\u00e9cole Victory est l\u2019h\u00f4te d\u2019activit\u00e9s r\u00e9alis\u00e9es dans le cadre du Mois de sensibilisation \u00e0 l\u2019agriculture canadienne chaque ann\u00e9e. Cette photo a \u00e9t\u00e9 prise avant l\u2019entr\u00e9e en vigueur des exigences d\u2019\u00e9loignement physique li\u00e9es \u00e0 la COVID-19.</b> [Photo\u00a0: Cheryl McQueen]</figcaption>\n  </figure>\n</div>\n\n<p>Mme\u00a0McQueen  est d\u00e9termin\u00e9e \u00e0 mettre les enfants en contact avec les racines agricoles de  leur r\u00e9gion. </p>\n\n<p>\u00ab\u00a0Si  les enfants peuvent s\u2019imaginer la cha\u00eene d\u2019approvisionnement, cela les aidera \u00e0  faire des choix \u00e9clair\u00e9s par rapport \u00e0 leur alimentation et, plus tard, \u00e0 celle  de leur famille\u00a0\u00bb, dit-elle. \u00ab\u00a0Les enfants associent ce qu\u2019ils apprennent \u00e0  l\u2019\u00e9cole \u00e0 ce qu\u2019ils voient \u00e0 la maison. Avec le temps, ces associations  s\u2019\u00e9tendront \u00e0 leur communaut\u00e9, au pays et, esp\u00e9rons-le, au monde entier.\u00a0\u00bb</p>\n\n<h2 id=\"a2\">Contribuer \u00e0 la croissance de la prochaine g\u00e9n\u00e9ration de professionnels de l\u2019agriculture</h2>\n\n\n<p>La  sensibilisation \u00e0 l\u2019agriculture est une priorit\u00e9 pour les agriculteurs et les  transformateurs d\u2019aliments du Canada, qui sont impatients de raconter comment  ils produisent des aliments salubres, nutritifs et durables.</p>\n\n<p><a href=\"https://aitc-canada.ca/fr-ca/\">Agriculture en classe Canada</a> est la voix nationale de l\u2019enseignement agricole. Les  programmes tels que le Mois de sensibilisation \u00e0 l\u2019agriculture canadienne  aident \u00e0 faire conna\u00eetre le secteur agricole et agroalimentaire de notre pays,  dans l\u2019espoir que les enfants d\u2019aujourd\u2019hui seront les leaders agricoles de  demain. C\u2019est cette notion que le groupe veut inculquer aux enfants, peu  importe la carri\u00e8re qu\u2019ils choisissent.</p>\n\n<p>\u00ab\u00a0Notre  objectif est de donner corps aux carri\u00e8res en agriculture\u00a0\u00bb, explique Melissa  Galay, sp\u00e9cialiste en \u00e9ducation \u00e0 Agriculture en classe. \u00ab\u00a0M\u00eame si les \u00e9l\u00e8ves  ne s\u2019int\u00e9ressent pas \u00e0 une carri\u00e8re en production primaire, il existe  d\u2019excellentes carri\u00e8res rattach\u00e9es \u00e0 l\u2019agriculture. Pour nous, il importe  d\u2019offrir cette diversit\u00e9 \u00e0 l\u2019ensemble des provinces.\u00a0\u00bb</p>\n<div class=\"pull-right col-md-4\">\n  <figure class=\"thumbnail\">  \n  <img class=\"img-responsive\" src=\"http://multimedia.agr.gc.ca/pack/img/gng_ag_literacy_month_fig3.jpg\" alt=\"\u00c9tudiants examinant des objets apicoles.\">\n  <figcaption class=\"caption\"><b>Emma Sparks-Areia (avant) est une \u00e9l\u00e8ve de cinqui\u00e8me ann\u00e9e \u00e0 l\u2019\u00e9cole Victory. Elle et ses camarades de classe ont toujours h\u00e2te au mois de mars pour participer aux activit\u00e9s du Mois de sensibilisation \u00e0 l\u2019agriculture canadienne. Cette photo a \u00e9t\u00e9 prise avant l\u2019entr\u00e9e en vigueur des exigences d\u2019\u00e9loignement physique li\u00e9es \u00e0 la COVID-19.</b> [Photo\u00a0: Cheryl McQueen]</figcaption>\n  </figure>\n</div>\n\n<div class=\"well pull-left col-md-8\">\n<p>Un r\u00e9el  enthousiasme entoure les <a href=\"https://aitc-canada.ca/fr-ca/calm-2021\">\u00e9v\u00e9nements</a> phares d\u2019Agriculture en classe Canada de cette ann\u00e9e,  qui ont \u00e9t\u00e9 d\u00e9plac\u00e9s en ligne, pour s\u2019adapter aux exigences de distanciation  sociale li\u00e9es \u00e0 la COVID-19. La ministre Bibeau a marqu\u00e9 le lancement du Mois  de la litt\u00e9ratie agricole canadienne de cette ann\u00e9e avec un <a href=\"https://www.youtube.com/watch?v=ZA7IwOribvs\">message vid\u00e9o</a>, et elle a accompagn\u00e9 des \u00e9l\u00e8ves pour la visite  virtuelle d\u2019une exploitation agricole, en plus d\u2019annoncer un financement de  1,6\u00a0million de dollars pour Agriculture en classe Canada. </p>\n\u00c0  l\u2019occasion du Jour de l\u2019agriculture canadienne, le 23 f\u00e9vrier, l\u2019organisation a  d\u00e9voil\u00e9 une nouvelle version de sa publication <a href=\"https://www.realdirtonfarming.ca/fr\">La v\u00e9rit\u00e9 au sujet de l\u2019agriculture</a>, sp\u00e9cialement con\u00e7ue pour  \u00eatre utilis\u00e9e en salle de classe. De plus, l\u2019organisation a r\u00e9cemment <a href=\"https://www.proteinindustriescanada.ca/fr\">annonc\u00e9</a> sa participation \u00e0 un  nouveau programme visant \u00e0 pr\u00e9senter aux \u00e9l\u00e8ves de la maternelle \u00e0 la 12<sup>e</sup>\u00a0ann\u00e9e  (secondaire\u00a05) les possibilit\u00e9s de carri\u00e8re qui existent dans les  industries des prot\u00e9ines v\u00e9g\u00e9tales, de l\u2019agroalimentaire et de l\u2019agriculture  num\u00e9rique.</div>\n\n\n<h2 id=\"a3\">Une exp\u00e9rience m\u00e9morable</h2>\n\n\n\n<p>Emma  Sparks-Areia est une \u00e9l\u00e8ve de cinqui\u00e8me ann\u00e9e \u00e0 l\u2019\u00e9cole\u00a0Victory. Elle a toujours  h\u00e2te au mois de mars pour recevoir la visite de professionnels de  l\u2019agriculture. Elle indique que des apiculteurs, des concepteurs graphiques et  m\u00eame des repr\u00e9sentants du secteur des STIM (sciences, technologies, ing\u00e9nierie  et math\u00e9matiques) ont visit\u00e9 les \u00e9l\u00e8ves de son \u00e9cole pour leur pr\u00e9senter les  diverses facettes de l\u2019agriculture. \u00ab\u00a0Ils nous ont tous expliqu\u00e9 que leur  travail avait rapport \u00e0 l\u2019agriculture\u00a0\u00bb, raconte-t-elle. \u00ab\u00a0Il y a beaucoup plus  de choses que je pensais qui ont un lien avec l\u2019agriculture.\u00a0\u00bb </p>\n\n<p>M\u00eame  apr\u00e8s chaque \u00e9dition du MSAC, un mot s\u2019accroche \u00e0 l\u2019esprit d\u2019Emma\u00a0:  agriculture.</p>\n\n<p>\u00ab\u00a0C\u2019est  mon mot pr\u00e9f\u00e9r\u00e9 maintenant\u00a0\u00bb, affirme-t-elle. \u00ab\u00a0J\u2019ai appris \u00e0 le conna\u00eetre et  j\u2019aime le dire. C\u2019est un mot d\u00e9licieux.\u00a0\u00bb</p>\n\n<div class=\"clearfix\"></div>\n\n<div class=\"well\">\n<div class=\"row\">\n<div class=\"col-md-4\">\n  <figure>  \n  <img class=\"img-responsive\" src=\"http://multimedia.agr.gc.ca/pack/img/gng_cap-fra.png\" alt=\"Partenariat canadien pour l\u2019agriculture\">\n  </figure>\n</div>  \n\n<div class=\"col-md-8\">\n<p>Agriculture en classe  Canada est financ\u00e9 en partie par le <a href=\"?id=1511361680577\">Partenariat canadien pour l\u2019agriculture</a>, un investissement f\u00e9d\u00e9ral-provincial-territorial de  3\u00a0milliards de dollars sur cinq ans (2018-2023) visant \u00e0 assurer la croissance  du secteur agricole et agroalimentaire canadien.</p>\n</div>\n</div>\n</div>\n\n<div class=\"clearfix\"></div>\n\n<section class=\"panel panel-success\">\n  <header class=\"panel-heading\">\n  <h2 class=\"panel-title\">Plus d'Agri-info</h2>\n </header>\n <div class=\"panel-body\">\n  <ul>\n   <li><b>Vous-voulez plus d'histoires comme celles-ci?</b> D\u00e9couvrez tout ce qu'<a href=\"?id=1419351635969\">Agri-info</a> a \u00e0 vous offrir.</li>\n   <li><b>\tVous souhaitez faire un reportage sur l'une de nos histoires?</b> Communiquez avec l\u2019\u00e9quipe es relations avec les m\u00e9dias de l'AAFC \u00e0 l'adresse <a href=\"mailto:aafc.mediarelations-relationsmedias.aac@canada.ca\">aafc.mediarelations-relationsmedias.aac@canada.ca</a> pour obtenir une entrevue avec l'un de nos experts.</li>\n   <li><b>Vous avez une id\u00e9e d'histoire ou des commentaires \u00e0 partager?</b> Communiquez avec nous \u00e0 l'adresse <a href=\"mailto:aafc.agri-info.aac@canada.ca\">aafc.agri-info.aac@canada.ca</a>!</li>\n   <li><b>Soyez \u00e0 l'aff\u00fbt.</b> <a href=\"?id=1519913793675\">Inscrivez-vous</a> aux Agri-info d\u00e8s aujourd'hui.</li>\n  </ul>\n </div>\n</section>\n\r\n    "
    }
}