{
    "dcr_id": "1615994616824",
    "title": {
        "en": "Dairy imports: Trade facts",
        "fr": "Importations de produits laitiers : Donn\u00e9es sur les \u00e9changes commerciaux"
    },
    "modified": "2021-05-10",
    "issued": "2021-05-10",
    "templatetype": "content page 1 column",
    "page_type": "0",
    "node_id": "1354137774029",
    "dc_date_created": "2021-05-10",
    "managing_branch": "PAB",
    "parent_node_id": "",
    "short_title": "",
    "exturl": "",
    "teamsite_location": {
        "en": "/default/main/AAFC-AAC/Internet-Internet/Common-Commun/WORKAREA/Common-Commun/templatedata/comm-comm/gene-gene/data/03/dairy_infographic_1615994616824_en",
        "fr": "/default/main/AAFC-AAC/Internet-Internet/Common-Commun/WORKAREA/Common-Commun/templatedata/comm-comm/gene-gene/data/03/dairy_infographic_1615994616824_fr"
    },
    "type_name": "comm-comm/gene-gene",
    "has_dcr_id": true,
    "label": {
        "en": "Dairy imports: Trade facts",
        "fr": "Importations de produits laitiers : Donn\u00e9es sur les \u00e9changes commerciaux"
    },
    "breadcrumb": {
        "en": "Dairy imports: Trade facts",
        "fr": "Importations de produits laitiers : Donn\u00e9es sur les \u00e9changes commerciaux"
    },
    "layout_name": "content page 1 column",
    "lang": "en",
    "refaire": false,
    "meta": {
        "viewport": {
            "en": "width=device-width,initial-scale=1",
            "fr": "width=device-width, initial-scale=1"
        },
        "issued": {
            "en": "2021-05-10",
            "fr": "2021-05-10"
        },
        "modified": {
            "en": "2021-05-10",
            "fr": "2021-05-10"
        },
        "format": {
            "en": "text/html",
            "fr": "text/html"
        },
        "title": {
            "en": "Dairy imports: Trade facts",
            "fr": "Importations de produits laitiers : Donn\u00e9es sur les \u00e9changes commerciaux"
        },
        "subject": {
            "en": "aafcsubject",
            "fr": "aafcsubject"
        },
        "dcterms:subject": {
            "en": "dairy industry",
            "fr": "lait"
        },
        "description": {
            "en": "Through trade agreements, Canada has committed to provide a limited volume of duty-free access to the Canadian dairy market in the form of tariff rate quotas (TRQs).From 1995 to 2017, Canada's dairy TRQ access was limited to commitments under the World Trade Organization (WTO).Since late 2017, Canada has been providing new dairy market access under recent free trade agreements:CETA. 2020. 2021. 2022. 2023. Production. 2024. 2025. 2026. 2027. 2028.",
            "fr": "Chaque ann\u00e9e, le Canada importe et exporte des produits laitiers. 92,39. 95,70. 102,57. 105,83. 2024. 2025. 2026. 2027. 2028."
        },
        "language": {
            "en": "eng",
            "fr": "fra"
        },
        "keywords": {
            "en": null,
            "fr": "directive.Nous;collectivit\u00e9.Mise;amusants.Les"
        },
        "audience": {
            "en": "gcaudience",
            "fr": "gcaudience"
        },
        "type": {
            "en": "promotional material",
            "fr": "mat\u00e9riel publicitaire"
        },
        "creator": {
            "en": "Agriculture and Agri-Food Canada;Government of Canada",
            "fr": "Agriculture et Agroalimentaire Canada;Gouvernement du Canada"
        },
        "spatial": {
            "en": "gcregions",
            "fr": "gcregions"
        },
        "service": {
            "en": "AAFC-AAC",
            "fr": "AAFC-AAC"
        },
        "accessRights": {
            "en": "2",
            "fr": "2"
        },
        "legalName": {
            "en": "agriculture_and_agri_food_canada",
            "fr": "agriculture_et_agroalimentaire_canada"
        },
        "areaServed": {
            "en": "Canada",
            "fr": "Canada"
        }
    },
    "h1": {
        "en": "Dairy imports: Trade facts",
        "fr": "Importations de produits laitiers : Donn\u00e9es sur les \u00e9changes commerciaux"
    },
    "body": {
        "en": "\r\n    <div class=\"col-md-4 pull-right\">  \n<section class=\"panel panel-default\">\n   <header class=\"panel-heading\">\n    <h2 class=\"panel-title\">Related links</h2>\n   </header>\n<div class=\"panel-body\">\n  <ul class=\"list-unstyled lst-spcd\">\n\t<li><a href=\"https://multimedia.agr.gc.ca/pack/pdf/DairyImportInfographic-en.pdf\">Dairy imports: Trade facts (PDF version, 605KB)</a></li>\n  </ul>\n   </div>\n  </section> \n</div>  \n\n\n\n<p>Every year, Canada imports and exports dairy products.  Through trade agreements, Canada has committed to provide a  limited volume of duty-free access to the Canadian dairy market in the form of  tariff rate quotas (TRQs).</p>\n\n<p>From 1995 to 2017, Canada's dairy TRQ access was limited to  commitments under the World Trade Organization (WTO). </p>\n\n<p>Since late 2017, Canada has provided new dairy market  access under recent free trade agreements:</p>\n\n<dl class=\"mrgn-lft-lg\">\n<dt>CETA</dt>\n<dd>The Comprehensive Economic and Trade Agreement  with the European Union has been provisionally applied since<b> September\u00a021, 2017.</b></dd>\n\n<dt>CPTPP</dt>\n\n<dd>The Comprehensive and Progressive Agreement for  Trans-Pacific Partnership came into force on <b>December\u00a030, 2018.</b></dd>\n\n<dt>CUSMA</dt>\n<dd>The Canada\u2013United States\u2013Mexico Agreement  replaced the North American Free Trade Agreement (NAFTA) and came into force on <b>July\u00a01,  2020.</b></dd>\n</dl>\n\n<h2 class=\"h3\">TRQ phase-in</h2>\n<p>Under these three agreements, this new access consists of TRQs, which provide access for <b>fixed volumes</b> of dairy products.</p>\n\n<p>For all three agreements, the final TRQ volumes are <b>phased in</b> over six years, with a  smaller growth for an additional 13 years for the CPTPP and CUSMA TRQs.</p>\n\n<p>Once these agreements are fully implemented, all of <b>Canada's combined dairy market access</b> (under the WTO, CETA, CPTPP and CUSMA TRQs) is estimated to be equivalent to approximately <b>10% of Canada's milk  production</b>.</p>\n\n<figure>\n<figcaption><b>Actual import volumes and granted TRQ access compared to total<br> milk production, millions of standard hectoliters, 2015 to 2031</b>\n<img src=\"https://multimedia.agr.gc.ca/pack/img/DairyImportInfographic-eng.jpg\" alt=\"Description of image follows\" class=\"img-responsive\">\n<p>Production from 2015 to 2020 is actual; production figures from 2021 to 2031 are estimates. </p>\n<details>\n<summary>Description of above image</summary>\n <table class=\"table table-bordered table-responsive small\">\n <caption class=\"text-left\">Actual import volumes and granted TRQ access compared to total milk production, millions of standard hectoliters, 2015 to 2023</caption>\n <thead>\n  <tr>\n    <td></td>\n    <th scope=\"col\">2015</th>\n    <th scope=\"col\">2016</th>\n    <th scope=\"col\">2017</th>\n    <th scope=\"col\">2018</th>\n    <th scope=\"col\">2019</th>\n    <th scope=\"col\">2020</th>\n    <th scope=\"col\">2021</th>\n    <th scope=\"col\">2022</th>\n    <th scope=\"col\">2023</th>\n  </tr>\n  </thead>\n  <tbody>\n <tr class=\"text-right\">\n    <th class=\"text-left\">Production</th>\n    <td>92 </td>\n<td>96 </td>\n<td>103 </td>\n<td>106 </td>\n<td>107 </td>\n<td>107 </td>\n<td>107 </td>\n<td>107 </td>\n<td>108 </td>\n </tr>\n <tr class=\"text-right\">\n    <th class=\"text-left\">TRQ-granted access under trade agreements</th>\n    <td>3.10 </td>\n<td>3.10 </td>\n<td>3.10 </td>\n<td>3.60 </td>\n<td>4.70 </td>\n<td>6.10 </td>\n<td>7.60 </td>\n<td>9.00 </td>\n<td>10.00 </td>\n </tr>\n <tr class=\"text-right\">\n    <th class=\"text-left\">Actual imported volumes</th>\n    <td>3.07</td>\n<td>3.07</td>\n<td>3.14</td>\n<td>3.50</td>\n<td>4.00</td>\n<td>5.25 </td>\n<td>\u2026 </td>\n<td>\u2026 </td>\n<td>\u2026 </td>\n </tr>\n </tbody><tfoot>\n <tr>\n <td colspan=\"10\"><p>Notes</p>\n <p>Data for years 2015 to 2020 are actual: data for 2021 to 2031 are estimates.</p>\n <p>\u2026 not applicable</p>\n</td></tr></tfoot>\n</table>\n\n\n <table class=\"table table-bordered table-responsive small\">\n  <caption class=\"text-left\">Actual import volumes and granted TRQ access compared to total milk production, millions of standard hectoliters, 2024 to 2031</caption>\n   <thead>\n     <tr>\n     <td></td>\n       <th scope=\"col\">2024</th>\n       <th scope=\"col\">2025</th>\n       <th scope=\"col\">2026</th>\n       <th scope=\"col\">2027</th>\n       <th scope=\"col\">2028</th>\n       <th scope=\"col\">2029</th>\n       <th scope=\"col\">2030</th>\n       <th scope=\"col\">2031</th>\n     </tr>\n   </thead>\n   <tbody>\n    <tr class=\"text-right\">\n    <th class=\"text-left\">Production</th>\n\n       <td>108.94 </td>\n       <td>109.89 </td>\n       <td>111.57 </td>\n       <td>112.82 </td>\n       <td>114.61 </td>\n       <td>116.46</td>\n       <td>118.13</td>\n       <td>119.83</td>\n     </tr>\n  <tr class=\"text-right\">\n    <th class=\"text-left\">TRQ-granted access under trade agreements</th>\n       <td>10.80 </td>\n       <td>11.20 </td>\n       <td>11.30 </td>\n       <td>11.40 </td>\n       <td>11.40 </td>\n       <td>11.50</td>\n       <td>11.57</td>\n       <td>11.64</td>\n     </tr>\n <tr class=\"text-right\">\n    <th class=\"text-left\">Actual imported volumes</th>\n       <td>\u2026 </td>\n       <td>\u2026 </td>\n       <td>\u2026 </td>\n       <td>\u2026 </td>\n       <td>\u2026 </td>\n       <td>\u2026 </td>\n       <td>\u2026</td>\n       <td>\u2026</td>\n     </tr>\n   </tbody>\n<tfoot>\n <tr>\n <td colspan=\"9\"><p>Notes</p>\n <p>Data for years 2015 to 2020 are actual: data for 2021 to 2031 are estimates.</p>\n <p>\u2026 not applicable</p>\n</td></tr></tfoot>\n </table>\n \n</details>\n</figcaption></figure>\n\n\n \n\r\n    ",
        "fr": "\r\n    <div class=\"col-md-4 pull-right\">  \n<section class=\"panel panel-default\">\n   <header class=\"panel-heading\">\n    <h2 class=\"panel-title\">Liens connexes</h2>\n   </header>\n<div class=\"panel-body\">\n  <ul class=\"list-unstyled lst-spcd\">\n\t<li><a href=\"https://multimedia.agr.gc.ca/pack/pdf/DairyImportInfographic-fr.pdf\">Importations de produits laitiers : Donn\u00e9es sur les \u00e9changes commerciaux (Version PDF, 637Ko)</a></li>\n  </ul>\n   </div>\n  </section> \n</div>  \n\n\n\n<p>Chaque  ann\u00e9e, le Canada importe et exporte des produits laitiers. Par l\u2019interm\u00e9diaire  d\u2019accords commerciaux, le Canada s\u2019est engag\u00e9 \u00e0 offrir un acc\u00e8s en franchise de  droits au march\u00e9 canadien des produits laitiers pour un volume limit\u00e9 sous  forme de contingents tarifaires\u00a0(CT).</p>\n\n<p>De\u00a01995  \u00e0 la fin de\u00a02017, l\u2019acc\u00e8s du Canada sous contingents tarifaires pour les  produits laitiers \u00e9tait limit\u00e9\u00a0 aux  engagements aupr\u00e8s de l\u2019Organisation mondiale du commerce\u00a0(OMC).</p>\n\n<p>Depuis  la fin de 2017, le Canada a accord\u00e9 un acc\u00e8s suppl\u00e9mentaire au march\u00e9 des  produits laitiers dans le cadre de r\u00e9cents accords de libre-\u00e9change.</p>\n\n<dl class=\"mrgn-lft-lg\">\n  <dt>AECG</dt>\n<dd>L\u2019Accord \u00e9conomique et commercial global avec l\u2019Union europ\u00e9enne est appliqu\u00e9 \u00e0 titre provisoire depuis <b>le 21\u00a0septembre 2017.</b></dd>\n\n<dt>PTPGP</dt>\n\n<dd>L\u2019Accord de partenariat transpacifique global et progressiste est entr\u00e9 en vigueur <b>le 30\u00a0d\u00e9cembre 2018.</b></dd>\n\n<dt>ACEUM</dt>\n<dd>L\u2019Accord Canada\u2013\u00c9tats-Unis\u2013Mexique remplace l\u2019Accord de libre-\u00e9change nord\u2011am\u00e9ricain (ALENA) et est entr\u00e9 en vigueur  <b>le 1er\u00a0juillet 2020.</b></dd>\n</dl>\n\n<h2 class=\"h3\">Mise en \u0153uvre des contingents tarifaires</h2>\n<p>Au  titre de ces trois accords, ce nouvel acc\u00e8s est administr\u00e9 au moyen de  contingents tarifaires, qui permettent l\u2019acc\u00e8s \u00e0 des <b>volumes \u00e9tablis</b> de  produits laitiers.</p>\n\n<p>Pour  chacun de ces accords, les volumes contingentaires finaux sont <b>mis en \u0153uvre</b> sur  une p\u00e9riode de six ans, avec une croissance plus faible sur une p\u00e9riode  suppl\u00e9mentaire de 13\u00a0ans pour les contingents du PTPGP et de l\u2019ACEUM.</p>\n\n<p>Une  fois la mise en \u0153uvre de ces accords compl\u00e9t\u00e9e, on estime que <b>l\u2019ensemble de  l\u2019acc\u00e8s au march\u00e9 laitier du Canada</b> (CT de l\u2019OMC, de l\u2019AECG, du PTPGP et de  l\u2019ACEUM) devrait correspondre \u00e0 environ <b>10\u00a0% de la production canadienne de lait.</b></p>\n\n<figure>\n<figcaption><b>Volumes r\u00e9els des importations et acc\u00e8s au march\u00e9 accord\u00e9 sous CT par rapport<br> \u00e0 la production de lait totale, en millions d'hectolitres standards, 2015 \u00e0 2031</b></figcaption>\n\n  <img src=\"https://multimedia.agr.gc.ca/pack/img/DairyImportInfographic-fra.jpg\" alt=\"La description de cette image suit\" class=\"img-responsive\">\n<p>Les donn\u00e9es de production de 2015 \u00e0 2020 sont r\u00e9elles; les donn\u00e9es de production de 2021 \u00e0 2031 sont estim\u00e9es.</p>\n  <details>\n<summary>Description de l\u2019image ci-dessus</summary>\n <table class=\"table table-bordered table-responsive small\">\n <caption class=\"text-left\">Volumes reels des importations et acc\u00e8s au march\u00e9 accord\u00e9 sous CT par rapport \u00e0 la production de lait totale</caption>\n <thead>\n  <tr>\n    <td></td>\n    <th scope=\"col\">2015</th>\n    <th scope=\"col\">2016</th>\n    <th scope=\"col\">2017</th>\n    <th scope=\"col\">2018</th>\n    <th scope=\"col\">2019</th>\n    <th scope=\"col\">2020</th>\n    <th scope=\"col\">2021</th>\n    <th scope=\"col\">2022</th>\n    <th scope=\"col\">2023</th>\n  </tr>\n  </thead>\n  <tbody>\n <tr class=\"text-right\">\n<th class=\"text-left\">Production</th>\n<td>92 </td>\n<td>96 </td>\n<td>103 </td>\n<td>106 </td>\n<td>107 </td>\n<td>107 </td>\n<td>107 </td>\n<td>107 </td>\n<td>108 </td>\n </tr>\n <tr class=\"text-right\">\n<th class=\"text-left\">Acc\u00e8s accord\u00e9 sous CT dans les accords commerciaux</th>\n<td>3,10</td>\n<td>3,10</td>\n<td>3,10</td>\n<td>3,60</td>\n<td>4,70</td>\n<td>6,10</td>\n<td>7,60</td>\n<td>9,00</td>\n<td>10,00</td>\n </tr>\n <tr class=\"text-right\">\n<th class=\"text-left\">Volumes r\u00e9els des importations</th>\n<td>3,07</td>\n<td>3,07</td>\n<td>3,14</td>\n<td>3,50</td>\n<td>4,00</td>\n<td>5,25 </td>\n<td>\u2026 </td>\n<td>\u2026 </td>\n<td>\u2026 </td>\n </tr>\n </tbody><tfoot>\n <tr>\n <td colspan=\"10\"><p>Notes</p>\n <p>Les donn\u00e9es  de production de 2015 \u00e0 2020 sont r\u00e9elles; les donn\u00e9es de production de 2021 \u00e0  2031 sont estim\u00e9es.</p>\n <p>\u2026 non  applicable.</p>\n</td></tr></tfoot>\n</table>\n\n\n <table class=\"table table-bordered table-responsive small\">\n  <caption class=\"text-left\">Volumes r\u00e9els des importations et acc\u00e8s au march\u00e9 accord\u00e9 sous CT  par rapport \u00e0 la production de lait totale, 2024 \u00e0 2031, millions d\u2019hectolitres standards</caption>\n   <thead>\n     <tr>\n     <td></td>\n       <th scope=\"col\">2024</th>\n       <th scope=\"col\">2025</th>\n       <th scope=\"col\">2026</th>\n       <th scope=\"col\">2027</th>\n       <th scope=\"col\">2028</th>\n       <th scope=\"col\">2029</th>\n       <th scope=\"col\">2030</th>\n       <th scope=\"col\">2031</th>\n     </tr>\n   </thead>\n   <tbody>\n    <tr class=\"text-right\">\n    <th class=\"text-left\">Production</th>\n\n       <td>108,94 </td>\n       <td>109,89 </td>\n       <td>111,57 </td>\n       <td>112,82 </td>\n       <td>114,61 </td>\n       <td>116,46</td>\n       <td>118,13</td>\n       <td>119,83</td>\n     </tr>\n  <tr class=\"text-right\">\n    <th class=\"text-left\">Acc\u00e8s accord\u00e9 sous CT dans les accords commerciaux</th>\n       <td>10,80 </td>\n       <td>11,20 </td>\n       <td>11,30 </td>\n       <td>11,40 </td>\n       <td>11,40 </td>\n       <td>11,50</td>\n       <td>11,57</td>\n       <td>11,64</td>\n     </tr>\n <tr class=\"text-right\">\n    <th class=\"text-left\">Volumes r\u00e9els des importations</th>\n       <td>\u2026 </td>\n       <td>\u2026 </td>\n       <td>\u2026 </td>\n       <td>\u2026 </td>\n       <td>\u2026 </td>\n       <td>\u2026 </td>\n       <td>\u2026</td>\n       <td>\u2026</td>\n     </tr>\n   </tbody>\n<tfoot>\n <tr>\n <td colspan=\"9\"><p>Notes</p>\n <p>Les donn\u00e9es  de production de 2015 \u00e0 2020 sont r\u00e9elles; les donn\u00e9es de production de 2021 \u00e0  2031 sont estim\u00e9es.</p>\n <p>\u2026 non  applicable.</p>\n</td></tr></tfoot>\n </table>\n <p>\u00a0</p>\n</details>\n</figure>\n\n\n \n\r\n    "
    },
    "js": {
        "en": "",
        "fr": ""
    }
}