{
    "dcr_id": "1615223251349",
    "title": {
        "en": "Customized Report Service \u2013 Ingredient Analysis - Quercetin \u2013 in packaged food and drink products",
        "fr": "Services de rapports personnalis\u00e9s \u2013 Analyse d'ingr\u00e9dients - La querc\u00e9tine dans les produits alimentaires emball\u00e9s et dans les boissons"
    },
    "modified": "2021-03-17",
    "issued": "2021-03-17",
    "templatetype": "content page 1 column",
    "page_type": "0",
    "node_id": "1549652534579",
    "dc_date_created": "2021-03-17",
    "managing_branch": "MISB",
    "parent_node_id": "",
    "short_title": "",
    "exturl": "",
    "teamsite_location": {
        "en": "/default/main/AAFC-AAC/Internet-Internet/MISB-DGSIM/ATS-SEA/ATS-SEA-s1/WORKAREA/ATS-SEA-s1/templatedata/comm-comm/gene-gene/data/crs_quercetin_packaged_food_1615223251349_en",
        "fr": "/default/main/AAFC-AAC/Internet-Internet/MISB-DGSIM/ATS-SEA/ATS-SEA-s1/WORKAREA/ATS-SEA-s1/templatedata/comm-comm/gene-gene/data/crs_quercetin_packaged_food_1615223251349_fr"
    },
    "type_name": "comm-comm/gene-gene",
    "has_dcr_id": true,
    "label": {
        "en": "Customized Report Service \u2013 Ingredient Analysis - Quercetin \u2013 in packaged food and drink products",
        "fr": "Services de rapports personnalis\u00e9s \u2013 Analyse d'ingr\u00e9dients - La querc\u00e9tine dans les produits alimentaires emball\u00e9s et dans les boissons"
    },
    "breadcrumb": {
        "en": "Customized Report Service \u2013 Ingredient Analysis - Quercetin \u2013 in packaged food and drink products",
        "fr": "Services de rapports personnalis\u00e9s \u2013 Analyse d'ingr\u00e9dients - La querc\u00e9tine dans les produits alimentaires emball\u00e9s et dans les boissons"
    },
    "layout_name": "content page 1 column",
    "lang": "en",
    "refaire": false,
    "meta": {
        "viewport": {
            "en": "width=device-width,initial-scale=1",
            "fr": "width=device-width, initial-scale=1"
        },
        "issued": {
            "en": "2021-03-17",
            "fr": "2021-03-17"
        },
        "modified": {
            "en": "2021-03-17",
            "fr": "2021-03-17"
        },
        "format": {
            "en": "gcformat",
            "fr": "gcformat"
        },
        "title": {
            "en": "Customized Report Service \u2013 Ingredient Analysis - Quercetin \u2013 in packaged food and drink products",
            "fr": "Services de rapports personnalis\u00e9s \u2013 Analyse d'ingr\u00e9dients - La querc\u00e9tine dans les produits alimentaires emball\u00e9s et dans les boissons"
        },
        "subject": {
            "en": "aafcsubject",
            "fr": "aafcsubject"
        },
        "dcterms:subject": {
            "en": "markets",
            "fr": "march\u00e9"
        },
        "description": {
            "en": "Feedback. about this web site. January 2019. The top trend of consumer preference is for NH products at a sales share of 38.3%, equivalent to US$253.8 billion in 2017. 1. They are found in fruits and vegetables like Acai, mango, guava, papaya, pomegranate, kiwi, passion fruit and star fruit (carambola), berries, sweet potato, carrots, apricot, pumpkin, tomato, watermelon, peaches and apples, along with other plant-based foods such as whole grains, nuts, beans and tea.",
            "fr": "Tableau des mati\u00e8res. Agrandir tout. R\u00e9duire tout. Notre gouvernement a annonc\u00e9 un certain nombre de mesures \u00e9conomiques, y compris une augmentation de la capacit\u00e9 de pr\u00eat, des mesures fiscales et des subventions salariales, qui aideront \u00e0 soutenir les entreprises et les travailleurs du secteur.Le Compte d\u2019urgence pour les entreprises canadiennes offre des pr\u00eats sans int\u00e9r\u00eat aux petites entreprises et aux organismes sans but non lucratif pour les aider \u00e0 assumer leurs co\u00fbts de fonctionnement pendant une p\u00e9riode o\u00f9 leurs revenus connaissent une baisse temporaire. 1\u00a0430\u00a0000. Second Harvest. 11\u00a0007\u00a0295."
        },
        "language": {
            "en": "eng",
            "fr": "fra"
        },
        "keywords": {
            "en": "claims.Weight;billion.Global",
            "fr": "SME.Table"
        },
        "audience": {
            "en": "gcaudience",
            "fr": "gcaudience"
        },
        "type": {
            "en": "report",
            "fr": "rapport"
        },
        "creator": {
            "en": "Agriculture and Agri-Food Canada",
            "fr": "Agriculture et Agroalimentaire Canada"
        },
        "spatial": {
            "en": "gcregions",
            "fr": "gcregions"
        },
        "service": {
            "en": "AAFC-AAC",
            "fr": "AAFC-AAC"
        },
        "accessRights": {
            "en": "2",
            "fr": "2"
        },
        "legalName": {
            "en": "agriculture_and_agri_food_canada",
            "fr": "agriculture_et_agroalimentaire_canada"
        },
        "areaServed": {
            "en": "Canada",
            "fr": "Canada"
        }
    },
    "h1": {
        "en": "Customized Report Service \u2013 Ingredient Analysis - Quercetin \u2013 in packaged food and drink products",
        "fr": "Services de rapports personnalis\u00e9s \u2013 Analyse d'ingr\u00e9dients - La querc\u00e9tine dans les produits alimentaires emball\u00e9s et dans les boissons"
    },
    "js": {
        "en": "",
        "fr": ""
    },
    "mode_html": "no_editor_full",
    "jsres_found": 1,
    "body": {
        "en": "\r\n    <div class=\"row\">\n<div class=\"col-md-3 pull-right hidden-print\"> \n<div class=\"panel panel-default\">\n<div class=\"panel-body\">\n<p><img src=\"https://www.agr.gc.ca/resources/prod/Internet-Internet/MISB-DGSIM/ATS-SEA/images/Global-Analysis.jpg\" class=\"img-responsive\" alt=\"\"></p>\n<p><a href=\"#ratingform\"><span class=\"glyphicon glyphicon-comment mrgn-rght-sm\"></span>Feedback<span class=\"wb-inv\"> about this web site</span></a></p>\n<p class=\"wb-share\" data-wb-share='{\"pnlId\": \"pnl1\"}'></p>\n</div>\n</div> \n</div>\n\n<div class=\"mrgn-lft-md mrgn-rght-md\">\n\n<div class=\"alert alert-info col-md-9\">\n<p><strong>Note:</strong> This report includes forecasting data that is based on baseline historical data.</p>\n</div>\n\n<h2>Market snapshot</h2>\n\n<p>From January 2011 to November 2020, there were 167 quercetin-containing products launched worldwide, including 96 new products in the Asia-Pacific region. The top three markets in the world for products containing quercetin as an ingredient were Japan, the United States (USA), and Germany.</p>\n\n<p>This market for quercetin-containing products increased substantially from 2011 to 2013, with the highest amount of new product launches being in 2013 with 34 new product launches worldwide. Since then, at least 14 products were introduced each year.</p>\n\n<p>From January 2016 to November 2020, the three main food or drink subcategories for products containing quercetin in the top five global markets were cakes, pastries and sweet goods, meal replacements and other drinks, and chilled desserts.</p>\n\n<p>During this same period, Japan saw the most quercetin-containing new product launches, with most being introduced from within two main food subcategories such as cakes, pastries and sweet goods (33), and chilled desserts (7). The USA and Germany launched more drink products that contained quercetin from within both the energy drink and the meal replacement and other drinks subcategories.</p>\n\n<nav>\n  <h2>Contents</h2>\n<ul class=\"list-unstyled mrgn-lft-lg\">\n<li><a href=\"#a\">Product launch analysis</a></li>\n<li><a href=\"#b\">Top companies</a>\n</li><li><a href=\"#c\">Products claims</a></li>\n<li><a href=\"#d\">Market sizes</a></li>\n<li><a href=\"#e\">New product examples</a></li>    \n<li><a href=\"#f\">For more information</a></li>\n<li><a href=\"#g\">Resources</a></li>\n</ul>\n</nav>\n</div></div>\n\n<div class=\"mrgn-tp-lg mrgn-bttm-lg brdr-bttm\"></div>\n\n<h2 id=\"a\">Product launch analysis</h2>\n\n<p>From January 2011 to November 2020, there were 167 quercetin-containing products launched worldwide, including 96 new products in the Asia-Pacific region. The top three markets in the world for products containing quercetin were Japan, the USA, and Germany.</p>\n\n<div class=\"table-responsive\">\n<figure>\n<figcaption class=\"text-center\"><b>New products containing quercetin from January 2011 to November 2020</b></figcaption>\n<table class=\"table table-bordered\">\n<thead>\n<tr>\n<th scope=\"col\">Region</th>\n<th scope=\"col\" class=\"text-right\">Number of products launched</th>\n<th scope=\"col\">Top market in the region</th>\n</tr>\n</thead>\n<tbody>\n<tr>\n<td>Asia-Pacific</td>\n<td class=\"text-right\">96</td>\n<td>Japan (93)</td>\n</tr>\n<tr>\n<td>North America</td>\n<td class=\"text-right\">45</td>\n<td>United States (39)</td>\n</tr>\n<tr>\n<td>Europe</td>\n<td class=\"text-right\">19</td>\n<td>Germany (9)</td>\n</tr>\n<tr>\n<td>Latin America</td>\n<td class=\"text-right\">7</td>\n<td>Mexico (5)</td>\n</tr>\n</tbody>\n<tfoot>\n<tr>\n<td colspan=\"3\"><b>Source:</b> Mintel 2020</td>\n</tr>\n</tfoot>\n</table>\n</figure>\n</div>\n\n<p>The market for quercetin-containing products increased substantially from 2011-2013, with the highest amount of new product launches being in 2013 with 34 new product launches. Since then, at least 14 products were introduced each year.</p>\n\n<figure class=\"mrgn-bttm-lg\">\n<figcaption><b>Number of new products launches with quercetin from January 2011 to November 2020</b></figcaption>\n<img src=\"https://www.agr.gc.ca/resources/prod/Internet-Internet/MISB-DGSIM/ATS-SEA/images/11753/crs_quercetin_packaged_food_drink_products_1-eng.jpg\" alt=\"Description of this image follows.\" class=\"img-responsive\">\n    <details>\n    <summary>Description of above image</summary>\n<div class=\"table-responsive\">\n<table class=\"table table-bordered\">\n<thead>\n<tr>\n<th scope=\"col\">Region</th>\n<th scope=\"col\" class=\"text-right\">2011</th>\n<th scope=\"col\" class=\"text-right\">2012</th>\n<th scope=\"col\" class=\"text-right\">2013</th>\n<th scope=\"col\" class=\"text-right\">2014</th>\n<th scope=\"col\" class=\"text-right\">2015</th>\n<th scope=\"col\" class=\"text-right\">2016</th>\n<th scope=\"col\" class=\"text-right\">2017</th>\n<th scope=\"col\" class=\"text-right\">2018</th>\n<th scope=\"col\" class=\"text-right\">2019</th>\n<th scope=\"col\" class=\"text-right\">2020</th>\n</tr>\n</thead>\n<tbody>\n<tr class=\"text-right\">\n<td class=\"text-left\">Asia Pacific</td>\n<td>0</td>\n<td>0</td>\n<td>22</td>\n<td>16</td>\n<td>5</td>\n<td>5</td>\n<td>10</td>\n<td>14</td>\n<td>11</td>\n<td>13</td>\n</tr>\n<tr class=\"text-right\">\n<td class=\"text-left\">North America</td>\n<td>6</td>\n<td>4</td>\n<td>8</td>\n<td>2</td>\n<td>9</td>\n<td>6</td>\n<td>3</td>\n<td>0</td>\n<td>7</td>\n<td>0</td>\n</tr>\n<tr class=\"text-right\">\n<td class=\"text-left\">Europe</td>\n<td>0</td>\n<td>0</td>\n<td>0</td>\n<td>1</td>\n<td>0</td>\n<td>1</td>\n<td>3</td>\n<td>3</td>\n<td>6</td>\n<td>5</td>\n</tr>\n<tr class=\"text-right\">\n<td class=\"text-left\">Latin America</td>\n<td>0</td>\n<td>0</td>\n<td>4</td>\n<td>0</td>\n<td>0</td>\n<td>2</td>\n<td>0</td>\n<td>0</td>\n<td>0</td>\n<td>1</td>\n</tr>\n</tbody>\n</table>\n</div>\n    </details>\n    <p><b>Source:</b> Mintel 2020</p>\n</figure>\n\n\n<p>From January 2016 to November 2020, the three main food or drink subcategories for products containing quercetin as an ingredient within the top 5 global markets were:</p>\n\n<ol>\n<li>cakes, pastries and sweet goods</li>\n<li>meal replacements and other drinks, and</li>\n<li>chilled desserts</li>\n</ol>\n\n<div class=\"table-responsive\">\n<figure>\n<figcaption class=\"text-center\"><b>New packaged food and beverage containing quercetin, ranked by top 5 countries with associated categories and subcategories, January 2016 to November 2020</b></figcaption>\n<table class=\"table table-bordered\">\n<thead>\n<tr>\n<th id=\"tbl5\">Market</th>\n<th id=\"tbl6\">Category</th>\n<th id=\"tbl7\">Sub-category</th>\n<th id=\"tbl8\" class=\"text-right\">Number of products</th>\n</tr>\n</thead>\n<tbody>\n<tr>\n<th rowspan=\"6\" id=\"tbl12\" headers=\"tbl5\">Japan</th>\n<td rowspan=\"2\" headers=\"tbl6 tbl12\">Bakery</td>\n<td headers=\"tbl7 tbl12\">Cakes, pastries and sweet goods</td>\n<td headers=\"tbl8 tbl12\" class=\"text-right\">33</td>\n</tr>\n<tr>\n<td headers=\"tbl7 tbl12\">Sweet biscuits/cookies</td>\n<td headers=\"tbl8 tbl12\" class=\"text-right\">3</td>\n</tr>\n<tr>\n<td rowspan=\"2\" headers=\"tbl6 tbl12\">Desserts and ice cream</td>\n<td headers=\"tbl7 tbl12\">Chilled desserts</td>\n<td headers=\"tbl8 tbl12\" class=\"text-right\">7</td>\n</tr>\n<tr>\n<td headers=\"tbl7 tbl12\">Frozen desserts</td>\n<td headers=\"tbl8 tbl12\" class=\"text-right\">1</td>\n</tr>\n<tr>\n<td headers=\"tbl6 tbl12\">Soup</td>\n<td headers=\"tbl7 tbl12\">Dry soup</td>\n<td headers=\"tbl8 tbl12\" class=\"text-right\">4</td>\n</tr>\n<tr>\n<td headers=\"tbl6 tbl12\">Sugar and gum confectionery</td>\n<td headers=\"tbl7 tbl12\">Medicated confectionery</td>\n<td headers=\"tbl8 tbl12\" class=\"text-right\">3</td>\n</tr>\n<tr>\n<th rowspan=\"3\" id=\"tbl53\" headers=\"tbl5\">United States</th>\n<td rowspan=\"2\" headers=\"tbl6 tbl53\">Sports and energy drinks</td>\n<td headers=\"tbl7 tbl53\">Energy drinks</td>\n<td headers=\"tbl8 tbl53\" class=\"text-right\">6</td>\n</tr>\n<tr>\n<td headers=\"tbl7 tbl53\">Sports drinks</td>\n<td headers=\"tbl8 tbl53\" class=\"text-right\">2</td>\n</tr>\n<tr>\n<td headers=\"tbl6 tbl53\">Other beverages</td>\n<td headers=\"tbl7 tbl53\">Meal replacements and other drinks</td>\n<td headers=\"tbl8 tbl53\" class=\"text-right\">3</td>\n</tr>\n<tr>\n<th id=\"tbl71\" headers=\"tbl5\">Germany</th>\n<td headers=\"tbl6 tbl71\">Other beverages</td>\n<td headers=\"tbl7 tbl71\">Meal replacements and other drinks</td>\n<td headers=\"tbl8 tbl71\" class=\"text-right\">8</td>\n</tr>\n<tr>\n<th rowspan=\"2\" id=\"tbl78\" headers=\"tbl5\">Canada</th>\n<td headers=\"tbl6 tbl78\">Sports and energy drinks</td>\n<td headers=\"tbl7 tbl78\">Sports drinks</td>\n<td headers=\"tbl8 tbl78\" class=\"text-right\">3</td>\n</tr>\n<tr>\n<td headers=\"tbl6 tbl78\">Other beverages</td>\n<td headers=\"tbl7 tbl78\">Meal replacements and other drinks</td>\n<td headers=\"tbl8 tbl78\" class=\"text-right\">2</td>\n</tr>\n<tr>\n<th rowspan=\"2\" id=\"tbl91\" headers=\"tbl5\">Spain</th>\n<td headers=\"tbl6 tbl91\">Other beverages</td>\n<td headers=\"tbl7 tbl91\">Meal replacements and other drinks</td>\n<td headers=\"tbl8 tbl91\" class=\"text-right\">3</td>\n</tr>\n<tr>\n<td headers=\"tbl6 tbl91\">Sports and energy drinks</td>\n<td headers=\"tbl7 tbl91\">Sports drinks</td>\n<td headers=\"tbl8 tbl91\" class=\"text-right\">1</td>\n</tr>\n</tbody>\n<tfoot>\n<tr>\n<td colspan=\"4\"><b>Source:</b> Mintel 2020</td>\n</tr>\n</tfoot>\n</table>\n</figure>\n</div>\n\n<h2 id=\"b\">Top companies</h2>\n\n<p>From January 2016 to November 2020, Japan saw the most quercetin-containing new product launches, with most being introduced from two main food sub-categories such as cakes, pastries and sweet goods (33) and chilled desserts(7). The USA and Germany launched more drink products that contained quercetin from within both the energy drink and the meal replacement and other drinks sub-categories.</p>\n\n<div class=\"table-responsive\">\n<figure>\n<figcaption class=\"text-center\"><b>New product launches containing q uercetin , by major companies in top five markets, January 2016 to November 2020</b></figcaption>\n<table class=\"table table-bordered\">\n<thead>\n<tr>\n<th id=\"tcl5\">Market</th>\n<th id=\"tcl6\">Top companies</th>\n<th id=\"tcl7\">Sub-category</th>\n<th id=\"tcl8\" class=\"text-right\">Number of products</th>\n</tr>\n</thead>\n<tbody>\n<tr>\n<th rowspan=\"6\" id=\"tcl12\" headers=\"tcl5\">Japan</th>\n<td rowspan=\"4\" headers=\"tcl6 tcl12\">Lawson</td>\n<td headers=\"tcl7 tcl12\">Cakes, pastries and sweet goods</td>\n<td headers=\"tcl8 tcl12\" class=\"text-right\">32</td>\n</tr>\n<tr>\n<td headers=\"tcl7 tcl12\">Chilled desserts</td>\n<td headers=\"tcl8 tcl12\" class=\"text-right\">6</td>\n</tr>\n<tr>\n<td headers=\"tcl7 tcl12\">Sweet biscuits/cookies</td>\n<td headers=\"tcl8 tcl12\" class=\"text-right\">3</td>\n</tr>\n<tr>\n<td headers=\"tcl7 tcl12\">Frozen desserts</td>\n<td headers=\"tcl8 tcl12\" class=\"text-right\">1</td>\n</tr>\n<tr>\n<td headers=\"tcl6 tcl12\">Nagatanien</td>\n<td headers=\"tcl7 tcl12\">Dry soup</td>\n<td headers=\"tcl8 tcl12\" class=\"text-right\">4</td>\n</tr>\n<tr>\n<td headers=\"tcl6 tcl12\">Mundipharma</td>\n<td headers=\"tcl7 tcl12\">Medicated confectionery</td>\n<td headers=\"tcl8 tcl12\" class=\"text-right\">2</td>\n</tr>\n<tr>\n<th rowspan=\"3\" id=\"tcl52\" headers=\"tcl5\">United States</th>\n<td headers=\"tcl6 tcl52\">Arizona Beverages</td>\n<td headers=\"tcl7 tcl52\">Energy drinks</td>\n<td headers=\"tcl8 tcl52\" class=\"text-right\">4</td>\n</tr>\n<tr>\n<td headers=\"tcl6 tcl52\">Controlled Labs</td>\n<td headers=\"tcl7 tcl52\">Sports drinks</td>\n<td headers=\"tcl8 tcl52\" class=\"text-right\">1</td>\n</tr>\n<tr>\n<td headers=\"tcl6 tcl52\">Kaged Muscle</td>\n<td headers=\"tcl7 tcl52\">Meal replacements and other drinks</td>\n<td headers=\"tcl8 tcl52\" class=\"text-right\">1</td>\n</tr>\n<tr>\n<th rowspan=\"3\" id=\"tcl71\" headers=\"tcl5\">Germany</th>\n<td headers=\"tcl6 tcl71\">Body Attack</td>\n<td headers=\"tcl7 tcl71\">Meal replacements and other drinks</td>\n<td headers=\"tcl8 tcl71\" class=\"text-right\">5</td>\n</tr>\n<tr>\n<td headers=\"tcl6 tcl71\">GN Laboratories</td>\n<td headers=\"tcl7 tcl71\">Meal replacements and other drinks</td>\n<td headers=\"tcl8 tcl71\" class=\"text-right\">1</td>\n</tr>\n<tr>\n<td headers=\"tcl6 tcl71\">Iovate Health Sciences</td>\n<td headers=\"tcl7 tcl71\">Meal replacements and other drinks</td>\n<td headers=\"tcl8 tcl71\" class=\"text-right\">1</td>\n</tr>\n<tr>\n<th rowspan=\"2\" id=\"tcl90\" headers=\"tcl5\">Canada</th>\n<td headers=\"tcl6 tcl90\">Biosteel Sports Supplements</td>\n<td headers=\"tcl7 tcl90\">Sports drinks</td>\n<td headers=\"tcl8 tcl90\" class=\"text-right\">3</td>\n</tr>\n<tr>\n<td headers=\"tcl6 tcl90\">Body Plus</td>\n<td headers=\"tcl7 tcl90\">Meal replacements and other drinks</td>\n<td headers=\"tcl8 tcl90\" class=\"text-right\">2</td>\n</tr>\n<tr>\n<th id=\"tcl103\" headers=\"tcl5\">Spain</th>\n<td headers=\"tcl6 tcl103\">GoldNutrition</td>\n<td headers=\"tcl7 tcl103\">Meal replacements and other drinks</td>\n<td headers=\"tcl8 tcl103\" class=\"text-right\">3</td>\n</tr>\n</tbody>\n<tfoot>\n<tr>\n<td colspan=\"4\"><b>Source:</b> Mintel 2020</td>\n</tr>\n</tfoot>\n</table>\n</figure>\n</div>\n\n<h2 id=\"c\">Product claims</h2>\n\n<p>Within the positioning claim-category, 37 were food products and 20 were drinks. In the functional claim-category, 2 were food and 34 were drink products. Both the 'plus' and 'suitable for' categorical claims had more drink products launched compared to food products.</p>\n\n<div class=\"table-responsive\">\n<figure>\n<figcaption class=\"text-center\"><b>New quercetin-containing products by top five claims in major categories, January 2016 to November 2020</b></figcaption>\n<table class=\"table table-bordered\">\n<thead>\n<tr>\n<th id=\"tdl5\">Claim</th>\n<th id=\"tdl6\">Category</th>\n<th id=\"tdl7\">Number of products</th>\n</tr>\n</thead>\n<tbody>\n<tr>\n<th rowspan=\"5\" id=\"tdl11\" headers=\"tdl5\">Positioning</th>\n<td headers=\"tdl6 tdl11\">Bakery</td>\n<td headers=\"tdl7 tdl11\">28</td>\n</tr>\n<tr>\n<td headers=\"tdl6 tdl11\">Sports and energy drinks</td>\n<td headers=\"tdl7 tdl11\">12</td>\n</tr>\n<tr>\n<td headers=\"tdl6 tdl11\">Other beverages</td>\n<td headers=\"tdl7 tdl11\">8</td>\n</tr>\n<tr>\n<td headers=\"tdl6 tdl11\">Desserts and ice cream</td>\n<td headers=\"tdl7 tdl11\">6</td>\n</tr>\n<tr>\n<td headers=\"tdl6 tdl11\">Sugar and gum confectionery</td>\n<td headers=\"tdl7 tdl11\">3</td>\n</tr>\n<tr>\n<th colspan=\"2\" id=\"tdl42\" headers=\"tdl5 tdl11\">Subtotal - positioning claim</th>\n<td headers=\"tdl7 tdl42\"><b>57</b></td>\n</tr>\n<tr>\n<th rowspan=\"4\" id=\"tdl48\" headers=\"tdl5\">Functional*</th>\n<td headers=\"tdl6 tdl48\">Other beverages</td>\n<td headers=\"tdl7 tdl48\">19</td>\n</tr>\n<tr>\n<td headers=\"tdl6 tdl48\">Sports and energy drinks</td>\n<td headers=\"tdl7 tdl48\">14</td>\n</tr>\n<tr>\n<td headers=\"tdl6 tdl48\">Sugar and gum confectionery</td>\n<td headers=\"tdl7 tdl48\">2</td>\n</tr>\n<tr>\n<td headers=\"tdl6 tdl48\">Soup</td>\n<td headers=\"tdl7 tdl48\">1</td>\n</tr>\n<tr>\n<th colspan=\"2\" id=\"tdl69\" headers=\"tdl5 tdl48\">Subtotal - functional</th>\n<td headers=\"tdl7 tdl69\"><b>36</b></td>\n</tr>\n<tr>\n<th rowspan=\"3\" id=\"tdl74\" headers=\"tdl5\">Plus</th>\n<td headers=\"tdl6 tdl74\">Other beverages</td>\n<td headers=\"tdl7 tdl74\">13</td>\n</tr>\n<tr>\n<td headers=\"tdl6 tdl74\">Sports and energy drinks</td>\n<td headers=\"tdl7 tdl74\">4</td>\n</tr>\n<tr>\n<td headers=\"tdl6 tdl74\">Sugar and gum confectionery</td>\n<td headers=\"tdl7 tdl74\">2</td>\n</tr>\n<tr>\n<th colspan=\"2\" id=\"tdl90\" headers=\"tdl5 tdl74\">Total - plus</th>\n<td headers=\"tdl7 tdl90\"><b>19</b></td>\n</tr>\n<tr>\n<th rowspan=\"2\" id=\"tdl95\" headers=\"tdl5\">Suitable for</th>\n<td headers=\"tdl6 tdl95\">Sports and energy drinks</td>\n<td headers=\"tdl7 tdl95\">8</td>\n</tr>\n<tr>\n<td headers=\"tdl6 tdl95\">Other beverages</td>\n<td headers=\"tdl7 tdl95\">8</td>\n</tr>\n<tr>\n<th colspan=\"2\" id=\"tdl106\" headers=\"tdl5 tdl95\">Subtotal - plus</th>\n<td headers=\"tdl7 tdl106\"><b>16</b></td>\n</tr>\n<tr>\n<th rowspan=\"5\" id=\"tdl111\" headers=\"tdl5\">Not specified</th>\n<td headers=\"tdl6 tdl111\">Bakery</td>\n<td headers=\"tdl7 tdl111\">8</td>\n</tr>\n<tr>\n<td headers=\"tdl6 tdl111\">Desserts and ice cream</td>\n<td headers=\"tdl7 tdl111\">2</td>\n</tr>\n<tr>\n<td headers=\"tdl6 tdl111\">Soup</td>\n<td headers=\"tdl7 tdl111\">2</td>\n</tr>\n<tr>\n<td headers=\"tdl6 tdl111\">Snacks</td>\n<td headers=\"tdl7 tdl111\">1</td>\n</tr>\n<tr>\n<td headers=\"tdl6 tdl111\">Other beverages</td>\n<td headers=\"tdl7 tdl111\">1</td>\n</tr>\n<tr>\n<th colspan=\"2\" id=\"tdl137\" headers=\"tdl5 tdl111\">Subtotal - not specified</th>\n<td headers=\"tdl7 tdl137\"><b>14</b></td>\n</tr>\n<tr>\n<th colspan=\"2\" id=\"tdl142\" headers=\"tdl5\">Total</th>\n<td headers=\"tdl7 tdl142\"><b>142</b></td>\n</tr>\n</tbody>\n<tfoot>\n<tr>\n<td colspan=\"3\"><p><b>Source:</b> Mintel, 2020</p>\n<p><b>*Functional</b>: Products claiming benefits beyond their nutritional value</p></td>\n</tr>\n</tfoot>\n</table>\n</figure>\n</div>\n\n<h2 id=\"d\">Market sizes</h2>\n\n<p>Of the five countries with the most product launches containing quercetin from 2015-2019, Japan had the largest market for overall products. Germany had the fastest growing market in energy drinks (not necessarily containing quercetin).</p>\n\n<div class=\"table-responsive\">\n<figure>\n<figcaption class=\"text-center\"><b>Market size, packaged food and beverage for select countries and categories, retail value sales in US$\u00a0millions</b></figcaption>\n<table class=\"table table-bordered\">\n<thead>\n<tr>\n<th id=\"tel5\">Market</th>\n<th id=\"tel6\">Category</th>\n<th id=\"tel7\" class=\"text-right\">2015</th>\n<th id=\"tel8\" class=\"text-right\">2019</th>\n<th id=\"tel9\" class=\"text-right\">CAGR* % 2015-2019</th>\n<th id=\"tel10\" class=\"text-right\">2020</th>\n<th id=\"tel11\" class=\"text-right\">2024</th>\n<th id=\"tel12\" class=\"text-right\">CAGR* % 2020-2024</th>\n</tr>\n</thead>\n<tbody>\n<tr class=\"text-right\">\n<th class=\"text-left\" rowspan=\"4\" id=\"tel16\" headers=\"tel5\">Japan</th>\n<td class=\"text-left\" headers=\"tel6 tel16\">Bakery and cereals</td>\n<td headers=\"tel7 tel16\">23,461.3</td>\n<td headers=\"tel8 tel16\">25,449.9</td>\n<td headers=\"tel9 tel16\">2.1</td>\n<td headers=\"tel10 tel16\">26,349.2</td>\n<td headers=\"tel11 tel16\">28,394.0</td>\n<td headers=\"tel12 tel16\">1.9</td>\n</tr>\n<tr class=\"text-right\">\n<td class=\"text-left\" headers=\"tel6 tel16\">Confectionery</td>\n<td headers=\"tel7 tel16\">7,619.6</td>\n<td headers=\"tel8 tel16\">7,997.9</td>\n<td headers=\"tel9 tel16\">1.2</td>\n<td headers=\"tel10 tel16\">7,775.4</td>\n<td headers=\"tel11 tel16\">7,693.8</td>\n<td headers=\"tel12 tel16\">\u22120.3</td>\n</tr>\n<tr class=\"text-right\">\n<td class=\"text-left\" headers=\"tel6 tel16\">Ice cream</td>\n<td headers=\"tel7 tel16\">4,620.1</td>\n<td headers=\"tel8 tel16\">5,041.1</td>\n<td headers=\"tel9 tel16\">2.2</td>\n<td headers=\"tel10 tel16\">4,698.5</td>\n<td headers=\"tel11 tel16\">4,945.2</td>\n<td headers=\"tel12 tel16\">1.3</td>\n</tr>\n<tr class=\"text-right\">\n<td class=\"text-left\" headers=\"tel6 tel16\">Soups</td>\n<td headers=\"tel7 tel16\">2,058.6</td>\n<td headers=\"tel8 tel16\">2,519.3</td>\n<td headers=\"tel9 tel16\">5.2</td>\n<td headers=\"tel10 tel16\">2,641.9</td>\n<td headers=\"tel11 tel16\">3,033.7</td>\n<td headers=\"tel12 tel16\">3.5</td>\n</tr>\n<tr class=\"text-right\">\n<th class=\"text-left\" rowspan=\"2\" id=\"tel67\" headers=\"tel5\">Untied States</th>\n<td class=\"text-left\" headers=\"tel6 tel67\">Energy drinks</td>\n<td headers=\"tel7 tel67\">15,355.1</td>\n<td headers=\"tel8 tel67\">18,696.5</td>\n<td headers=\"tel9 tel67\">5.0</td>\n<td headers=\"tel10 tel67\">15,620.7</td>\n<td headers=\"tel11 tel67\">19,735.3</td>\n<td headers=\"tel12 tel67\">6.0</td>\n</tr>\n<tr class=\"text-right\">\n<td class=\"text-left\" headers=\"tel6 tel67\">Sports drinks</td>\n<td headers=\"tel7 tel67\">7,956.4</td>\n<td headers=\"tel8 tel67\">9,567.6</td>\n<td headers=\"tel9 tel67\">4.7</td>\n<td headers=\"tel10 tel67\">8,327.4</td>\n<td headers=\"tel11 tel67\">10,143.3</td>\n<td headers=\"tel12 tel67\">5.1</td>\n</tr>\n<tr class=\"text-right\">\n<th class=\"text-left\" rowspan=\"2\" id=\"tel88\" headers=\"tel5\">Germany</th>\n<td class=\"text-left\" headers=\"tel6 tel88\">Energy drinks</td>\n<td headers=\"tel7 tel88\">2,928.7</td>\n<td headers=\"tel8 tel88\">3,771.7</td>\n<td headers=\"tel9 tel88\">6.5</td>\n<td headers=\"tel10 tel88\">3,329.0</td>\n<td headers=\"tel11 tel88\">4,529.1</td>\n<td headers=\"tel12 tel88\">8.0</td>\n</tr>\n<tr class=\"text-right\">\n<td class=\"text-left\" headers=\"tel6 tel88\">Sports drinks</td>\n<td headers=\"tel7 tel88\">313.9</td>\n<td headers=\"tel8 tel88\">336.7</td>\n<td headers=\"tel9 tel88\">1.8</td>\n<td headers=\"tel10 tel88\">317.3</td>\n<td headers=\"tel11 tel88\">341.5</td>\n<td headers=\"tel12 tel88\">1.9</td>\n</tr>\n<tr class=\"text-right\">\n<th class=\"text-left\" rowspan=\"2\" id=\"tel109\" headers=\"tel5\">Canada</th>\n<td class=\"text-left\" headers=\"tel6 tel109\">Energy drinks</td>\n<td headers=\"tel7 tel109\">673.6</td>\n<td headers=\"tel8 tel109\">789.0</td>\n<td headers=\"tel9 tel109\">4.0</td>\n<td headers=\"tel10 tel109\">772.0</td>\n<td headers=\"tel11 tel109\">832.0</td>\n<td headers=\"tel12 tel109\">1.9</td>\n</tr>\n<tr class=\"text-right\">\n<td class=\"text-left\" headers=\"tel6 tel109\">Sports drinks</td>\n<td headers=\"tel7 tel109\">357.4</td>\n<td headers=\"tel8 tel109\">448.1</td>\n<td headers=\"tel9 tel109\">5.8</td>\n<td headers=\"tel10 tel109\">463.0</td>\n<td headers=\"tel11 tel109\">536.0</td>\n<td headers=\"tel12 tel109\">3.7</td>\n</tr>\n<tr class=\"text-right\">\n<th class=\"text-left\" rowspan=\"2\" id=\"tel130\" headers=\"tel5\">Spain</th>\n<td class=\"text-left\" headers=\"tel6 tel130\">Energy drinks</td>\n<td headers=\"tel7 tel130\">369.3</td>\n<td headers=\"tel8 tel130\">455.2</td>\n<td headers=\"tel9 tel130\">5.4</td>\n<td headers=\"tel10 tel130\">412.2</td>\n<td headers=\"tel11 tel130\">493.0</td>\n<td headers=\"tel12 tel130\">4.6</td>\n</tr>\n<tr class=\"text-right\">\n<td class=\"text-left\" headers=\"tel6 tel130\">Sports drinks</td>\n<td headers=\"tel7 tel130\">487.5</td>\n<td headers=\"tel8 tel130\">539.1</td>\n<td headers=\"tel9 tel130\">2.6</td>\n<td headers=\"tel10 tel130\">459.2</td>\n<td headers=\"tel11 tel130\">499.4</td>\n<td headers=\"tel12 tel130\">2.1</td>\n</tr>\n</tbody>\n<tfoot>\n<tr>\n<td colspan=\"8\"><p><b>Source:</b> GlobalData, 2020</p>\n<p><b>*CAGR</b>: Compound annual growth rate</p>\n<p><b>Forecast period (2020-2024)</b>: pre-COVID-19 estimates</p></td>\n</tr>\n</tfoot>\n</table>\n</figure>\n</div>\n\n<h2 id=\"e\">New product examples</h2>\n\n<div class=\"wb-tabs ignore-session\">\n<div class=\"tabpanels\">\n<details id=\"details-panel2a\">\n<summary id=\"product-example-description-2a\">Miso Soup with Onion</summary>\n<div class=\"col-md-5 pull-right\">\n<img src=\"https://www.agr.gc.ca/resources/prod/Internet-Internet/MISB-DGSIM/ATS-SEA/images/11753/crs_quercetin_packaged_food_drink_products_2a.jpg\" class=\"img-responsive mrgn-lft-md\" alt=\"\">\n<b>Source:</b> Mintel, 2020</div>\n\n<div class=\"col-md-7 table-responsive\">\n<table aria-labelledby=\"product-example-description-2a\" class=\"table table-bordered\">\n<tr>\n  <th scope=\"row\">Company</th>\n  <td>Nagatanien</td>\n</tr> \n <tr>\n   <th scope=\"row\">Brand</th>\n   <td>Nagatanien Tamanegi No Chikara</td>\n </tr>\n  <tr>\n   <th scope=\"row\">Category</th>\n   <td>Soup</td>\n </tr>\n <tr>\n  <th scope=\"row\">Market</th>\n  <td>Japan</td>\n </tr>\n <tr>\n  <th scope=\"row\">Store name</th>\n  <td>Sokai Drug</td>\n </tr>\n <tr>\n  <th scope=\"row\">Date published</th>\n  <td>June 2018</td>\n </tr> \n <tr>\n  <th scope=\"row\">Launch type</th>\n  <td>New variety/range extension</td>\n </tr>\n<tr>\n  <th scope=\"row\">Price in local currency</th>\n  <td>JPY128.0</td>\n</tr> \n<tr>\n  <th scope=\"row\">Price in US dollars</th>\n  <td>1.17</td>\n</tr>  \n</table>\n</div>\n\n<div class=\"clearfix\"></div>\n\n<p>Nagatanien Tamanegi No Chikara Miso Soup with Onion is now available. The instant soup features sweet onion slices and contains 21milligrams quercetin, equivalent to half an onion, which is said to be good for the health. It retails in a 46.8\u00a0gram pack with 3 \u00d7 13.5\u00a0grams miso and 3 \u00d7 2.1\u00a0grams topping. Launched on March 12, 2018 with an RRP of 131 yen.</p>\n</details>\n\n<details id=\"details-panel2b\">\n<summary id=\"product-example-description-2b\">Wild Canadian Tart Cherry Juice</summary>\n<div class=\"col-md-5 pull-right\">\n<img src=\"https://www.agr.gc.ca/resources/prod/Internet-Internet/MISB-DGSIM/ATS-SEA/images/11753/crs_quercetin_packaged_food_drink_products_2b.jpg\" class=\"img-responsive mrgn-lft-md\" alt=\"\">\n<b>Source:</b> Mintel, 2020</div>\n\n<div class=\"col-md-7 table-responsive\">\n<table aria-labelledby=\"product-example-description-2b\" class=\"table table-bordered\">\n<tr>\n  <th scope=\"row\">Company</th>\n  <td>Urban Platter / iStoreDirect Trading</td>\n</tr> \n <tr>\n   <th scope=\"row\">Brand</th>\n   <td>Urban Platter</td>\n </tr>\n  <tr>\n   <th scope=\"row\">Category</th>\n   <td>Juice drinks</td>\n </tr>\n <tr>\n  <th scope=\"row\">Market</th>\n  <td>India</td>\n </tr>\n <tr>\n  <th scope=\"row\">Store name</th>\n  <td>Amazon.in</td>\n </tr>\n <tr>\n  <th scope=\"row\">Date published</th>\n  <td>January 2020</td>\n </tr> \n <tr>\n  <th scope=\"row\">Launch type</th>\n  <td>New product</td>\n </tr>\n<tr>\n  <th scope=\"row\">Price in local currency</th>\n  <td>INR999.0</td>\n</tr> \n<tr>\n  <th scope=\"row\">Price in US dollars</th>\n  <td>14.13</td>\n</tr>    \n</table>\n</div>\n\n<div class=\"clearfix\"></div>\n\n<p>Urban Platter Wild Canadian Tart Cherry Juice is made from 100% pure cold-pressed wild tart cherries grown in Canada and contains the juice of at least 58 tart cherries per 100\u00a0millilitres. It is all natural without any added sugar, water or preservatives of any kind and is never from concentrate. According to the manufacturer, tart cherry juice contains one of the most powerful antioxidants that exists, namely quercetin, and is a natural source of melatonin, a hormone that helps regulate sleep-wake cycle. It is claimed to offer more than anthocyanins as it is loaded with three disease-fighting chemicals that may be beneficial for halting cell transformation. This premium quality product is suitable for vegetarians and retails in a 375ml pack.</p>\n</details>\n\n<details id=\"details-panel2c\">\n<summary id=\"product-example-description-2c\">Orange Lime Flavoured Electrolyte Drink</summary>\n<div class=\"col-md-5 pull-right\">\n<img src=\"https://www.agr.gc.ca/resources/prod/Internet-Internet/MISB-DGSIM/ATS-SEA/images/11753/crs_quercetin_packaged_food_drink_products_2c.jpg\" class=\"img-responsive mrgn-lft-md\" alt=\"\">\n<b>Source:</b> Mintel, 2020</div>\n\n<div class=\"col-md-7 table-responsive\">\n<table aria-labelledby=\"product-example-description-2c\" class=\"table table-bordered\">\n<tr>\n  <th scope=\"row\">Company</th>\n  <td>Amway Iberia</td>\n</tr> \n <tr>\n   <th scope=\"row\">Brand</th>\n   <td>XS Recharge</td>\n </tr>\n  <tr>\n   <th scope=\"row\">Category</th>\n   <td>Sports and Energy Drinks</td>\n </tr>\n <tr>\n  <th scope=\"row\">Market</th>\n  <td>Spain</td>\n </tr>\n <tr>\n  <th scope=\"row\">Date published</th>\n  <td>October 2018</td>\n </tr> \n <tr>\n  <th scope=\"row\">Launch type</th>\n  <td>New product</td>\n </tr>\n<tr>\n  <th scope=\"row\">Price in local currency</th>\n  <td>\u20ac20.85</td>\n</tr> \n<tr>\n  <th scope=\"row\">Price in US dollars</th>\n  <td>24.47</td>\n</tr>    \n</table>\n</div>\n\n<div class=\"clearfix\"></div>\n\n<p>XS Recharge Orange Lime Flavoured Electrolyte Drink is claimed to provide users with energy for exercise. The instant powder with sugars and sweeteners is said to be developed with a balanced mixture of electrolyte carbon hydrates to replenish the electrolytes. It is also claimed to improve the absorption of water, enhance the resistance during special long exercise and help to maintain maximum performance.</p>\n</details>\n\n<details id=\"details-panel2d\">\n<summary id=\"product-example-description-2d\">Organic Gingermade Drink</summary>\n<div class=\"col-md-5 pull-right\">\n<img src=\"https://www.agr.gc.ca/resources/prod/Internet-Internet/MISB-DGSIM/ATS-SEA/images/11753/crs_quercetin_packaged_food_drink_products_2d.jpg\" class=\"img-responsive mrgn-lft-md\" alt=\"\">\n<b>Source:</b> Mintel, 2020</div>\n\n<div class=\"col-md-7 table-responsive\">\n<table aria-labelledby=\"product-example-description-2d\" class=\"table table-bordered\">\n<tr>\n  <th scope=\"row\">Company</th>\n  <td>JuiceDelivery</td>\n</tr> \n <tr>\n   <th scope=\"row\">Brand</th>\n   <td>Sol-ti SuperAde</td>\n </tr>\n  <tr>\n   <th scope=\"row\">Category</th>\n   <td>Juice Drinks</td>\n </tr>\n <tr>\n  <th scope=\"row\">Market</th>\n  <td>United States</td>\n </tr>\n <tr>\n  <th scope=\"row\">Store name</th>\n  <td>Target</td>\n </tr>\n <tr>\n  <th scope=\"row\">Date published</th>\n  <td>October 2019</td>\n </tr> \n <tr>\n  <th scope=\"row\">Launch type</th>\n  <td>New product</td>\n </tr>\n<tr>\n  <th scope=\"row\">Price in local currency</th>\n  <td>$3.99</td>\n</tr> \n<tr>\n  <th scope=\"row\">Price in Euros</th>\n  <td>3.65</td>\n</tr>    \n</table>\n</div>\n\n<div class=\"clearfix\"></div>\n\n<p>Sol-ti SuperAde Organic Gingermade Drink is raw, vegan, non-GMO, cold pressed, light filtered and contains 27% juice. The product is made with the following ingredients: apple, which provides natural energy boost, digestive aid, vitamin A and K, potassium and quercetin; ginger for circulation and lung support, cleansing, arthritis support and digestive aid; and lemon, which is said to be alkalizing, cleansing and purifying. It is described as an alchemy of fresh ingredients with very real benefits for well-being, including energy, positivity and health. The product is made with UV Light Filtration System, which uses light rays to preserve liquid without pasteurizing, with minimally invasive effects, eliminating spoilers while boosting chlorophyll and antioxidant properties. It is free from gluten and retails in a recyclable and reusable 15.5\u00a0fluid ounce pack, featuring the 1% for Permaculture Planet for Fruit Tree Reforestation logo.</p>\n</details>\n\n<details id=\"details-panel2e\">\n<summary id=\"product-example-description-2e\">Energy Drink</summary>\n<div class=\"col-md-5 pull-right\">\n<img src=\"https://www.agr.gc.ca/resources/prod/Internet-Internet/MISB-DGSIM/ATS-SEA/images/11753/crs_quercetin_packaged_food_drink_products_2e.jpg\" class=\"img-responsive mrgn-lft-md\" alt=\"\">\n<b>Source:</b> Mintel, 2020</div>\n\n<div class=\"col-md-7 table-responsive\">\n<table aria-labelledby=\"product-example-description-2e\" class=\"table table-bordered\">\n<tr>\n  <th scope=\"row\">Company</th>\n  <td>The FRS Company</td>\n</tr> \n <tr>\n   <th scope=\"row\">Brand</th>\n   <td>FRS Healthy Energy</td>\n </tr>\n  <tr>\n   <th scope=\"row\">Category</th>\n   <td>Sports and Energy Drinks</td>\n </tr>\n <tr>\n  <th scope=\"row\">Market</th>\n  <td>Canada</td>\n </tr>\n <tr>\n  <th scope=\"row\">Store name</th>\n  <td>Urban Fare</td>\n </tr>\n <tr>\n  <th scope=\"row\">Date published</th>\n  <td>February 2011</td>\n </tr> \n <tr>\n  <th scope=\"row\">Launch type</th>\n  <td>New product</td>\n </tr>\n<tr>\n  <th scope=\"row\">Price in local currency</th>\n  <td>Can$3.49</td>\n</tr> \n<tr>\n  <th scope=\"row\">Price in US Dollars</th>\n  <td>3.48</td>\n</tr>    \n</table>\n</div>\n\n<div class=\"clearfix\"></div>\n\n<p>FRS Healthy Energy Energy Drink is an all-natural non-carbonated drink, which contains only 90 calories. This apricot and nectarine flavoured product is formulated with Quercetin, which is a powerful all natural antioxidant. It contains no artificial sweeteners, colours or flavours, and retails in an 11.5\u00a0fluid ounce recyclable can. Also available are: Orange; Citrus Pomegranate; and Wild Berry. The Citrus Pomegranate and Wild Berry varieties are low in calories.</p>\n</details>\n</div>\n</div>\n\n<h2 id=\"f\">For more information</h2>\n\n<p><b>The Canadian Trade Commissioner Service:</b></p>\n\n<p>International Trade Commissioners can provide  Canadian industry with on-the-ground expertise regarding market potential,  current conditions and local business contacts, and are an excellent point of  contact for export advice.</p>\n\n<ul class=\"lst-spcd\">\n<li><a href=\"https://tradecommissioner.gc.ca/trade-commissioner-delegue-commercial/search-recherche.aspx?lang=eng\">Find a Trade Commissioner</a></li>\n</ul>\n\n<p><b>More agri-food market intelligence:</b></p>\n\n<p><a href=\"?id=1410083148447\">International agri-food market intelligence</a><br>\nDiscover global agriculture and food  opportunities, the complete library of Global Analysis reports, market trends  and forecasts, and information on Canada's free trade agreements.</p>\n\n<p><a href=\"?id=1581602925012\">Agri-food market intelligence service</a><br>\nCanadian agri-food and seafood businesses can take advantage of a customized service of reports and analysis, and join our email subscription service to have the latest reports delivered directly to their inbox.</p>\n\n<p><b>More on Canada's agriculture and agri-food sectors:</b></p>\n\n<p><a href=\"?id=1361290241756\">Canada's agriculture sectors</a><br>\nInformation on the  agriculture industry by sector. Data on international markets. Initiatives to  support awareness of the industry in Canada. How the department engages with  the industry.</p>\n\n<section>\n  <h2 id=\"g\">Resources</h2>\n\n<ul class=\"list-unstyled lst-spcd\">\n<li>Mintel Global New Products Database, 2020</li>\n\n<li>GlobalData, 2020</li>\n</ul>\n</section>\n\n<p>Customized Report Service \u2013 Ingredient Analysis - Quercetin \u2013 in packaged food and drink products<br>\nGlobal Analysis Report</p>\n\n<p>Prepared by: Zhiduo Wang, Market Analyst</p>\n\n<p>\u00a9 Her Majesty the Queen in Right of Canada, represented by the Minister of Agriculture and Agri-Food (2021).</p>\n\n<p><b>Photo credits</b><br>\nAll photographs reproduced in this publication are used by permission of the rights holders.<br>\nAll images, unless otherwise noted, are copyright Her Majesty the Queen in Right of Canada.</p>\n\n<p>To join our distribution list or to suggest additional report topics or markets, please contact:</p>\n\n<address>Agriculture and Agri-Food Canada, Global Analysis<br>\n1341 Baseline Rd, Tower\u00a05,\u00a03rd floor<br>\nOttawa ON \u00a0K1A\u00a00C5<br>\nCanada<br>\nEmail:\u00a0<a href=\"mailto:aafc.mas-sam.aac@canada.ca\">aafc.mas-sam.aac@canada.ca</a></address>\n\n<p>The Government of Canada has prepared this report based on primary and secondary sources of information. Although every effort has been made to ensure that the information is accurate, Agriculture and Agri-Food Canada (AAFC) assumes no liability for any actions taken based on the information contained herein.</p>\n\n<p>Reproduction or  redistribution of this document, in whole or in part, must include acknowledgement  of agriculture and agri-food Canada as the owner of the copyright in the  document, through a reference citing AAFC, the title of the document and the  year. Where the reproduction or redistribution includes data from this  document, it must also include an acknowledgement of the specific data  source(s), as noted in this document.</p>\n\n<p>Agriculture and Agri-Food Canada provides this document and other report services to agriculture and food industry clients free of charge.</p>\n\n<div class=\"mrgn-tp-lg mrgn-bttm-lg brdr-bttm\"></div>\n\n<div id=\"rating\" class=\"mrgn-tp-lg\"></div>\n<script src=\"/res/aafc-aac4/js/mac_feedback-eng.js\"></script>\n\r\n    ",
        "fr": "\r\n    <div class=\"row\">\n<div class=\"col-md-3 pull-right hidden-print\"> \n<div class=\"panel panel-default\">\n<div class=\"panel-body\">\n<p><img src=\"https://www.agr.gc.ca/resources/prod/Internet-Internet/MISB-DGSIM/ATS-SEA/images/Global-Analysis.jpg\" class=\"img-responsive\" alt=\"\"></p>\n<p><a href=\"#rating\"><span class=\"glyphicon glyphicon-comment mrgn-rght-sm\"></span>R\u00e9troaction<span class=\"wb-inv\"> sur ce site Web</span></a></p>\n<p class=\"wb-share\" data-wb-share='{\"pnlId\": \"pnl1\"}'></p>\n</div>\n</div> \n</div>\n\n<div class=\"mrgn-lft-md mrgn-rght-md\">\n\n<div class=\"alert alert-info col-md-9\">\n<p><strong>Note\u00a0:</strong> Ce rapport contient des donn\u00e9es pr\u00e9visionnelles bas\u00e9es sur les chiffres historiques.</p>\n</div>\n\n<h2>Aper\u00e7u du march\u00e9</h2>\n\n<p>De janvier\u00a02011 \u00e0 novembre\u00a02020, 167\u00a0produits contenant de la querc\u00e9tine ont \u00e9t\u00e9 lanc\u00e9s dans le monde, dont 96\u00a0nouveaux dans la r\u00e9gion Asie-Pacifique. Les trois plus importants march\u00e9s de produits contenant de la querc\u00e9tine comme ingr\u00e9dient dans le monde \u00e9taient le Japon, les \u00c9tats-Unis et l'Allemagne.</p>\n\n<p>La taille du march\u00e9 des produits contenant de la querc\u00e9tine a consid\u00e9rablement augment\u00e9 de\u00a02011 \u00e0\u00a02013, et c'est en\u00a02013 qu'on a lanc\u00e9 le plus grand nombre de nouveaux produits (34\u00a0nouveaux produits ont \u00e9t\u00e9 lanc\u00e9s \u00e0 l'\u00e9chelle mondiale). Depuis lors, au moins 14 produits ont \u00e9t\u00e9 lanc\u00e9s chaque ann\u00e9e.</p>\n\n<p>De janvier\u00a02016 \u00e0 novembre\u00a02020, les trois principales sous-cat\u00e9gories de produits alimentaires ou de boissons contenant de la querc\u00e9tine dans les cinq principaux march\u00e9s mondiaux \u00e9taient les g\u00e2teaux, p\u00e2tisseries et produits sucr\u00e9s, les substituts de repas et autres boissons et\u00a0les desserts r\u00e9frig\u00e9r\u00e9s.</p>\n\n<p>Au cours de la m\u00eame p\u00e9riode, le Japon a lanc\u00e9 le plus grand nombre de nouveaux produits contenant de la querc\u00e9tine, et la plupart de ces produits faisaient partie des deux principales sous-cat\u00e9gories de produits alimentaires suivantes\u00a0: les g\u00e2teaux, p\u00e2tisseries et produits sucr\u00e9s\u00a0(32) et les desserts r\u00e9frig\u00e9r\u00e9s\u00a0(6). Les \u00c9tats-Unis et l'Allemagne ont lanc\u00e9 davantage de boissons contenant de la querc\u00e9tine dans les sous-cat\u00e9gories des boissons \u00e9nergisantes et des substituts de repas et autres boissons.</p>\n\n<nav>\n  <h2>Tables des mati\u00e8res</h2>\n<ul class=\"list-unstyled mrgn-lft-lg\">\n<li><a href=\"#a\">Analyse des produits lanc\u00e9s</a></li>\n<li><a href=\"#b\">Principales soci\u00e9t\u00e9s</a></li>\n<li><a href=\"#c\">All\u00e9gations relatives aux produits</a></li>\n<li><a href=\"#d\">Taille des march\u00e9s</a></li>\n<li><a href=\"#e\">Exemples de nouveaux produits</a></li>\n<li><a href=\"#f\">Pour plus de renseignements</a></li>\n<li><a href=\"#g\">Ressources</a></li>\n</ul>\n</nav>\n</div></div>\n\n<div class=\"mrgn-tp-lg mrgn-bttm-lg brdr-bttm\"></div>\n\n<h2 id=\"a\">Analyse des produits lanc\u00e9s</h2>\n\n<p>De janvier\u00a02011 \u00e0 novembre\u00a02020, 167\u00a0produits contenant de la querc\u00e9tine ont \u00e9t\u00e9 lanc\u00e9s dans le monde, dont 96\u00a0nouveaux dans la r\u00e9gion Asie-Pacifique. Les trois plus importants march\u00e9s de produits contenant de la querc\u00e9tine dans le monde \u00e9taient le Japon, les \u00c9tats-Unis et l'Allemagne.</p>\n\n<div class=\"table-responsive\">\n<figure>\n<figcaption class=\"text-center\"><b>Nouveaux produits contenant de la querc\u00e9tine, de janvier\u00a02011 \u00e0 novembre\u00a02020</b></figcaption>\n<table class=\"table table-bordered\">\n<thead>\n<tr>\n<th scope=\"col\">R\u00e9gion</th>\n<th scope=\"col\" class=\"text-right\">Nombre de produits lanc\u00e9s</th>\n<th scope=\"col\">Principal march\u00e9 de la r\u00e9gion</th>\n</tr>\n</thead>\n<tbody>\n<tr>\n<td>Asie-Pacifique</td>\n<td class=\"text-right\">96</td>\n<td>Japon (93)</td>\n</tr>\n<tr>\n<td>Am\u00e9rique du Nord</td>\n<td class=\"text-right\">45</td>\n<td>\u00c9tats-Unis (39)</td>\n</tr>\n<tr>\n<td>Europe</td>\n<td class=\"text-right\">19</td>\n<td>Allemagne (9)</td>\n</tr>\n<tr>\n<td>Am\u00e9rique latine</td>\n<td class=\"text-right\">7</td>\n<td>Mexique (5)</td>\n</tr>\n</tbody>\n<tfoot>\n<tr>\n<td colspan=\"3\"><b>Source\u00a0:</b> Mintel, 2020</td>\n</tr>\n</tfoot>\n</table>\n</figure>\n</div>\n\n<p>La taille du march\u00e9 des produits contenant de la querc\u00e9tine a consid\u00e9rablement augment\u00e9 de\u00a02011 \u00e0\u00a02013, et c'est en\u00a02013 qu'on a lanc\u00e9 le plus grand nombre de nouveaux produits (34\u00a0nouveaux produits ont \u00e9t\u00e9 lanc\u00e9s). Depuis lors, au moins 14\u00a0produits sont lanc\u00e9s chaque ann\u00e9e.</p>\n\n<figure class=\"mrgn-bttm-lg\">\n<figcaption><b>Nombre de nouveaux produits lanc\u00e9s contenant de la querc\u00e9tine entre janvier\u00a02011 et novembre\u00a02020</b></figcaption>\n<img src=\"https://www.agr.gc.ca/resources/prod/Internet-Internet/MISB-DGSIM/ATS-SEA/images/11753/crs_quercetin_packaged_food_drink_products_1-fra.jpg\" alt=\"La description de cette image suit.\" class=\"img-responsive\">\n    <details>\n    <summary>Description de l'image ci-dessus</summary>\n<div class=\"table-responsive\">\n<table class=\"table table-bordered\">\n<thead>\n<tr>\n<th scope=\"col\">R\u00e9gion</th>\n<th scope=\"col\" class=\"text-right\">2011</th>\n<th scope=\"col\" class=\"text-right\">2012</th>\n<th scope=\"col\" class=\"text-right\">2013</th>\n<th scope=\"col\" class=\"text-right\">2014</th>\n<th scope=\"col\" class=\"text-right\">2015</th>\n<th scope=\"col\" class=\"text-right\">2016</th>\n<th scope=\"col\" class=\"text-right\">2017</th>\n<th scope=\"col\" class=\"text-right\">2018</th>\n<th scope=\"col\" class=\"text-right\">2019</th>\n<th scope=\"col\" class=\"text-right\">2020</th>\n</tr>\n</thead>\n<tbody>\n<tr class=\"text-right\">\n<td class=\"text-left\">Asie-Pacifique</td>\n<td>0</td>\n<td>0</td>\n<td>22</td>\n<td>16</td>\n<td>5</td>\n<td>5</td>\n<td>10</td>\n<td>14</td>\n<td>11</td>\n<td>13</td>\n</tr>\n<tr class=\"text-right\">\n<td class=\"text-left\">Am\u00e9rique du Nord</td>\n<td>6</td>\n<td>4</td>\n<td>8</td>\n<td>2</td>\n<td>9</td>\n<td>6</td>\n<td>3</td>\n<td>0</td>\n<td>7</td>\n<td>0</td>\n</tr>\n<tr class=\"text-right\">\n<td class=\"text-left\">Europe</td>\n<td>0</td>\n<td>0</td>\n<td>0</td>\n<td>1</td>\n<td>0</td>\n<td>1</td>\n<td>3</td>\n<td>3</td>\n<td>6</td>\n<td>5</td>\n</tr>\n<tr class=\"text-right\">\n<td class=\"text-left\">Am\u00e9rique latine</td>\n<td>0</td>\n<td>0</td>\n<td>4</td>\n<td>0</td>\n<td>0</td>\n<td>2</td>\n<td>0</td>\n<td>0</td>\n<td>0</td>\n<td>1</td>\n</tr>\n</tbody>\n</table>\n</div>\n    </details>\n    <p><b>Source\u00a0:</b> Mintel, 2020</p>\n</figure>\n\n\n<p>De janvier\u00a02016 \u00e0 novembre\u00a02020, les trois principales sous-cat\u00e9gories de produits alimentaires ou de boissons contenant de la querc\u00e9tine comme ingr\u00e9dient dans les cinq principaux march\u00e9s mondiaux \u00e9taient\u00a0:</p>\n\n<ol>\n<li>les g\u00e2teaux, p\u00e2tisseries et produits sucr\u00e9s,</li>\n<li>les substituts de repas et autres boissons et</li>\n<li>les desserts r\u00e9frig\u00e9r\u00e9s.</li>\n</ol>\n\n<div class=\"table-responsive\">\n<figure>\n<figcaption class=\"text-center\"><b>Nouveaux produits alimentaires emball\u00e9s et boissons contenant de la querc\u00e9tine class\u00e9s selon les cinq principaux pays, et cat\u00e9gories et sous-cat\u00e9gories connexes, de janvier\u00a02016 \u00e0 novembre\u00a02020</b></figcaption>\n<table class=\"table table-bordered\">\n<thead>\n<tr>\n<th id=\"tbl5\">March\u00e9</th>\n<th id=\"tbl6\">Cat\u00e9gorie</th>\n<th id=\"tbl7\">Sous-cat\u00e9gorie</th>\n<th id=\"tbl8\">Nombre de produits</th>\n</tr>\n</thead>\n<tbody>\n<tr>\n<th rowspan=\"6\" id=\"tbl12\" headers=\"tbl5\">Japon</th>\n<td rowspan=\"2\" headers=\"tbl6 tbl12\">Boulangerie-p\u00e2tisserie</td>\n<td headers=\"tbl7 tbl12\">G\u00e2teaux, p\u00e2tisseries et produits sucr\u00e9s</td>\n<td headers=\"tbl8 tbl12\" class=\"text-right\">33</td>\n</tr>\n<tr>\n<td headers=\"tbl7 tbl12\">Biscuits sucr\u00e9s</td>\n<td headers=\"tbl8 tbl12\" class=\"text-right\">3</td>\n</tr>\n<tr>\n<td rowspan=\"2\" headers=\"tbl6 tbl12\">Desserts et cr\u00e8me glac\u00e9e</td>\n<td headers=\"tbl7 tbl12\">Desserts r\u00e9frig\u00e9r\u00e9s</td>\n<td headers=\"tbl8 tbl12\" class=\"text-right\">7</td>\n</tr>\n<tr>\n<td headers=\"tbl7 tbl12\">Desserts glac\u00e9s</td>\n<td headers=\"tbl8 tbl12\" class=\"text-right\">1</td>\n</tr>\n<tr>\n<td headers=\"tbl6 tbl12\">Soupe</td>\n<td headers=\"tbl7 tbl12\">Soupe en poudre</td>\n<td headers=\"tbl8 tbl12\" class=\"text-right\">4</td>\n</tr>\n<tr>\n<td headers=\"tbl6 tbl12\">Sucreries et gomme \u00e0 m\u00e2cher</td>\n<td headers=\"tbl7 tbl12\">Confiseries m\u00e9dicament\u00e9es</td>\n<td headers=\"tbl8 tbl12\" class=\"text-right\">3</td>\n</tr>\n<tr>\n<th rowspan=\"3\" id=\"tbl53\" headers=\"tbl5\">\u00c9tats-Unis</th>\n<td rowspan=\"2\" headers=\"tbl6 tbl53\">Boissons pour sportifs et \u00e9nergisantes</td>\n<td headers=\"tbl7 tbl53\">Boissons \u00e9nergisantes</td>\n<td headers=\"tbl8 tbl53\" class=\"text-right\">6</td>\n</tr>\n<tr>\n<td headers=\"tbl7 tbl53\">Boissons pour sportifs</td>\n<td headers=\"tbl8 tbl53\" class=\"text-right\">2</td>\n</tr>\n<tr>\n<td headers=\"tbl6 tbl53\">Autres boissons</td>\n<td headers=\"tbl7 tbl53\">Substituts de repas et autres boissons</td>\n<td headers=\"tbl8 tbl53\" class=\"text-right\">3</td>\n</tr>\n<tr>\n<th id=\"tbl71\" headers=\"tbl5\">Allemagne</th>\n<td headers=\"tbl6 tbl71\">Autres boissons</td>\n<td headers=\"tbl7 tbl71\">Substituts de repas et autres boissons</td>\n<td headers=\"tbl8 tbl71\" class=\"text-right\">8</td>\n</tr>\n<tr>\n<th rowspan=\"2\" id=\"tbl78\" headers=\"tbl5\">Canada</th>\n<td headers=\"tbl6 tbl78\">Boissons pour sportifs et \u00e9nergisantes</td>\n<td headers=\"tbl7 tbl78\">Boissons pour sportifs</td>\n<td headers=\"tbl8 tbl78\" class=\"text-right\">3</td>\n</tr>\n<tr>\n<td headers=\"tbl6 tbl78\">Autres boissons</td>\n<td headers=\"tbl7 tbl78\">Substituts de repas et autres boissons</td>\n<td headers=\"tbl8 tbl78\" class=\"text-right\">2</td>\n</tr>\n<tr>\n<th rowspan=\"2\" id=\"tbl91\" headers=\"tbl5\">Espagne</th>\n<td headers=\"tbl6 tbl91\">Autres boissons</td>\n<td headers=\"tbl7 tbl91\">Substituts de repas et autres boissons</td>\n<td headers=\"tbl8 tbl91\" class=\"text-right\">3</td>\n</tr>\n<tr>\n<td headers=\"tbl6 tbl91\">Boissons pour sportifs et \u00e9nergisantes</td>\n<td headers=\"tbl7 tbl91\">Boissons pour sportifs</td>\n<td headers=\"tbl8 tbl91\" class=\"text-right\">1</td>\n</tr>\n</tbody>\n<tfoot>\n<tr>\n<td colspan=\"4\"><b>Source\u00a0:</b> Mintel, 2020</td>\n</tr>\n</tfoot>\n</table>\n</figure>\n</div>\n\n<h2 id=\"b\">Principales soci\u00e9t\u00e9s</h2>\n\n<p>De janvier\u00a02016 \u00e0 novembre\u00a02020, le Japon a lanc\u00e9 le plus grand nombre de nouveaux produits contenant de la querc\u00e9tine, et la plupart de ces produits faisaient partie des deux principales sous-cat\u00e9gories de produits alimentaires suivantes\u00a0: les g\u00e2teaux, p\u00e2tisseries et produits sucr\u00e9s\u00a0(33) et les desserts r\u00e9frig\u00e9r\u00e9s\u00a0(7). Les \u00c9tats-Unis et l'Allemagne ont lanc\u00e9 davantage de boissons contenant de la querc\u00e9tine dans les sous-cat\u00e9gories des boissons \u00e9nergisantes et des substituts de repas et autres boissons.</p>\n\n<div class=\"table-responsive\">\n<figure>\n<figcaption class=\"text-center\"><b>Nouveaux produits lanc\u00e9s contenant de la querc\u00e9tine, selon les principales soci\u00e9t\u00e9s dans les cinq principaux march\u00e9s, de janvier\u00a02016 \u00e0 novembre\u00a02020</b></figcaption>\n<table class=\"table table-bordered\">\n<thead>\n<tr>\n<th id=\"tcl5\">March\u00e9</th>\n<th id=\"tcl6\">Principales soci\u00e9t\u00e9s</th>\n<th id=\"tcl7\">Sous-cat\u00e9gorie</th>\n<th id=\"tcl8\" class=\"text-right\">Nombre de produits</th>\n</tr>\n</thead>\n<tbody>\n<tr>\n<th rowspan=\"6\" id=\"tcl12\" headers=\"tcl5\">Japon</th>\n<td rowspan=\"4\" headers=\"tcl6 tcl12\">Lawson</td>\n<td headers=\"tcl7 tcl12\">G\u00e2teaux, p\u00e2tisseries et produits sucr\u00e9s</td>\n<td headers=\"tcl8 tcl12\" class=\"text-right\">32</td>\n</tr>\n<tr>\n<td headers=\"tcl7 tcl12\">Desserts r\u00e9frig\u00e9r\u00e9s</td>\n<td headers=\"tcl8 tcl12\" class=\"text-right\">6</td>\n</tr>\n<tr>\n<td headers=\"tcl7 tcl12\">Biscuits sucr\u00e9s</td>\n<td headers=\"tcl8 tcl12\" class=\"text-right\">3</td>\n</tr>\n<tr>\n<td headers=\"tcl7 tcl12\">Desserts glac\u00e9s</td>\n<td headers=\"tcl8 tcl12\" class=\"text-right\">1</td>\n</tr>\n<tr>\n<td headers=\"tcl6 tcl12\">Nagatanien</td>\n<td headers=\"tcl7 tcl12\">Soupe en poudre</td>\n<td headers=\"tcl8 tcl12\" class=\"text-right\">4</td>\n</tr>\n<tr>\n<td headers=\"tcl6 tcl12\">Mundipharma</td>\n<td headers=\"tcl7 tcl12\">Confiseries m\u00e9dicament\u00e9es</td>\n<td headers=\"tcl8 tcl12\" class=\"text-right\">2</td>\n</tr>\n<tr>\n<th rowspan=\"3\" id=\"tcl52\" headers=\"tcl5\">\u00c9tats-Unis</th>\n<td headers=\"tcl6 tcl52\">Arizona Beverages</td>\n<td headers=\"tcl7 tcl52\">Boissons \u00e9nergisantes</td>\n<td headers=\"tcl8 tcl52\" class=\"text-right\">4</td>\n</tr>\n<tr>\n<td headers=\"tcl6 tcl52\">Laboratoires contr\u00f4l\u00e9s</td>\n<td headers=\"tcl7 tcl52\">Boissons pour sportifs</td>\n<td headers=\"tcl8 tcl52\" class=\"text-right\">1</td>\n</tr>\n<tr>\n<td headers=\"tcl6 tcl52\">Kaged Muscle</td>\n<td headers=\"tcl7 tcl52\">Substituts de repas et autres boissons</td>\n<td headers=\"tcl8 tcl52\" class=\"text-right\">1</td>\n</tr>\n<tr>\n<th rowspan=\"3\" id=\"tcl71\" headers=\"tcl5\">Allemagne</th>\n<td headers=\"tcl6 tcl71\">Body Attack</td>\n<td headers=\"tcl7 tcl71\">Substituts de repas et autres boissons</td>\n<td headers=\"tcl8 tcl71\" class=\"text-right\">5</td>\n</tr>\n<tr>\n<td headers=\"tcl6 tcl71\">GN Laboratories</td>\n<td headers=\"tcl7 tcl71\">Substituts de repas et autres boissons</td>\n<td headers=\"tcl8 tcl71\" class=\"text-right\">1</td>\n</tr>\n<tr>\n<td headers=\"tcl6 tcl71\">Iovate Health Sciences</td>\n<td headers=\"tcl7 tcl71\">Substituts de repas et autres boissons</td>\n<td headers=\"tcl8 tcl71\" class=\"text-right\">1</td>\n</tr>\n<tr>\n<th rowspan=\"2\" id=\"tcl90\" headers=\"tcl5\">Canada</th>\n<td headers=\"tcl6 tcl90\">Suppl\u00e9ments pour sportifs Biosteel</td>\n<td headers=\"tcl7 tcl90\">Boissons pour sportifs</td>\n<td headers=\"tcl8 tcl90\" class=\"text-right\">3</td>\n</tr>\n<tr>\n<td headers=\"tcl6 tcl90\">Body Plus</td>\n<td headers=\"tcl7 tcl90\">Substituts de repas et autres boissons</td>\n<td headers=\"tcl8 tcl90\" class=\"text-right\">2</td>\n</tr>\n<tr>\n<th id=\"tcl103\" headers=\"tcl5\">Espagne</th>\n<td headers=\"tcl6 tcl103\">GoldNutrition</td>\n<td headers=\"tcl7 tcl103\">Substituts de repas et autres boissons</td>\n<td headers=\"tcl8 tcl103\" class=\"text-right\">3</td>\n</tr>\n</tbody>\n<tfoot>\n<tr>\n<td colspan=\"4\"><b>Source\u00a0:</b> Mintel, 2020</td>\n</tr>\n</tfoot>\n</table>\n</figure>\n</div>\n\n<h2 id=\"c\">All\u00e9gations relatives aux produits</h2>\n\n<p>Pour ce qui est de l'all\u00e9gation de positionnement, on comptait 37\u00a0produits alimentaires et 20\u00a0boissons. Pour ce qui est de l'all\u00e9gation fonctionnelle, on comptait 2\u00a0aliments et 34\u00a0boissons. Pour ce qui est de l'all\u00e9gation relative \u00e0 la cat\u00e9gorie, on a lanc\u00e9 plus de boissons que de produits alimentaires avec les all\u00e9gations \u00ab\u00a0Plus\u00a0\u00bb et \u00ab\u00a0Convient \u00e0\u00a0\u00bb.</p>\n\n<div class=\"table-responsive\">\n<figure>\n<figcaption class=\"text-center\"><b>Nouveaux produits contenant de la querc\u00e9tine, selon les cinq principales all\u00e9gations dans les grandes cat\u00e9gories, de janvier\u00a02016 \u00e0 novembre\u00a02020</b></figcaption>\n<table class=\"table table-bordered\">\n<thead>\n<tr>\n<th id=\"tdl5\">All\u00e9gation</th>\n<th id=\"tdl6\">Cat\u00e9gorie</th>\n<th id=\"tdl7\" class=\"text-right\">Nombre de produits</th>\n</tr>\n</thead>\n<tbody>\n<tr>\n<th rowspan=\"5\" id=\"tdl11\" headers=\"tdl5\">Positionnement</th>\n<td headers=\"tdl6 tdl11\">Boulangerie-p\u00e2tisserie</td>\n<td headers=\"tdl7 tdl11\" class=\"text-right\">28</td>\n</tr>\n<tr>\n<td headers=\"tdl6 tdl11\">Boissons pour sportifs et \u00e9nergisantes</td>\n<td headers=\"tdl7 tdl11\" class=\"text-right\">12</td>\n</tr>\n<tr>\n<td headers=\"tdl6 tdl11\">Autres boissons</td>\n<td headers=\"tdl7 tdl11\" class=\"text-right\">8</td>\n</tr>\n<tr>\n<td headers=\"tdl6 tdl11\">Desserts et cr\u00e8me glac\u00e9e</td>\n<td headers=\"tdl7 tdl11\" class=\"text-right\">6</td>\n</tr>\n<tr>\n<td headers=\"tdl6 tdl11\">Sucreries et gomme \u00e0 m\u00e2cher</td>\n<td headers=\"tdl7 tdl11\" class=\"text-right\">3</td>\n</tr>\n<tr>\n<th colspan=\"2\" id=\"tdl42\" headers=\"tdl5 tdl11\">Sous-total - All\u00e9gation de positionnement</th>\n<td headers=\"tdl7 tdl42\" class=\"text-right\"><b>57</b></td>\n</tr>\n<tr>\n<th rowspan=\"4\" id=\"tdl48\" headers=\"tdl5\">Fonctionnelle*</th>\n<td headers=\"tdl6 tdl48\">Autres boissons</td>\n<td headers=\"tdl7 tdl48\" class=\"text-right\">19</td>\n</tr>\n<tr>\n<td headers=\"tdl6 tdl48\">Boissons pour sportifs et \u00e9nergisantes</td>\n<td headers=\"tdl7 tdl48\" class=\"text-right\">14</td>\n</tr>\n<tr>\n<td headers=\"tdl6 tdl48\">Sucreries et gomme \u00e0 m\u00e2cher</td>\n<td headers=\"tdl7 tdl48\" class=\"text-right\">2</td>\n</tr>\n<tr>\n<td headers=\"tdl6 tdl48\">Soupe</td>\n<td headers=\"tdl7 tdl48\" class=\"text-right\">1</td>\n</tr>\n<tr>\n<th colspan=\"2\" id=\"tdl69\" headers=\"tdl5 tdl48\">Sous-total - Fonctionnelle</th>\n<td headers=\"tdl7 tdl69\" class=\"text-right\"><b>36</b></td>\n</tr>\n<tr>\n<th rowspan=\"3\" id=\"tdl74\" headers=\"tdl5\">Plus</th>\n<td headers=\"tdl6 tdl74\">Autres boissons</td>\n<td headers=\"tdl7 tdl74\" class=\"text-right\">13</td>\n</tr>\n<tr>\n<td headers=\"tdl6 tdl74\">Boissons pour sportifs et \u00e9nergisantes</td>\n<td headers=\"tdl7 tdl74\" class=\"text-right\">4</td>\n</tr>\n<tr>\n<td headers=\"tdl6 tdl74\">Sucreries et gomme \u00e0 m\u00e2cher</td>\n<td headers=\"tdl7 tdl74\" class=\"text-right\">2</td>\n</tr>\n<tr>\n<th colspan=\"2\" id=\"tdl90\" headers=\"tdl5 tdl74\">Total - Plus</th>\n<td headers=\"tdl7 tdl90\" class=\"text-right\"><b>19</b></td>\n</tr>\n<tr>\n<th rowspan=\"2\" id=\"tdl95\" headers=\"tdl5\">Convient \u00e0</th>\n<td headers=\"tdl6 tdl95\">Boissons pour sportifs et \u00e9nergisantes</td>\n<td headers=\"tdl7 tdl95\" class=\"text-right\">8</td>\n</tr>\n<tr>\n<td headers=\"tdl6 tdl95\">Autres boissons</td>\n<td headers=\"tdl7 tdl95\" class=\"text-right\">8</td>\n</tr>\n<tr>\n<th colspan=\"2\" id=\"tdl106\" headers=\"tdl5 tdl95\">Sous-total - Plus</th>\n<td headers=\"tdl7 tdl106\" class=\"text-right\"><b>16</b></td>\n</tr>\n<tr>\n<th rowspan=\"5\" id=\"tdl111\" headers=\"tdl5\">Non\u00a0pr\u00e9cis\u00e9</th>\n<td headers=\"tdl6 tdl111\">Boulangerie-p\u00e2tisserie</td>\n<td headers=\"tdl7 tdl111\" class=\"text-right\">8</td>\n</tr>\n<tr>\n<td headers=\"tdl6 tdl111\">Desserts et cr\u00e8me glac\u00e9e</td>\n<td headers=\"tdl7 tdl111\" class=\"text-right\">2</td>\n</tr>\n<tr>\n<td headers=\"tdl6 tdl111\">Soupe</td>\n<td headers=\"tdl7 tdl111\" class=\"text-right\">2</td>\n</tr>\n<tr>\n<td headers=\"tdl6 tdl111\">Collations</td>\n<td headers=\"tdl7 tdl111\" class=\"text-right\">1</td>\n</tr>\n<tr>\n<td headers=\"tdl6 tdl111\">Autres boissons</td>\n<td headers=\"tdl7 tdl111\" class=\"text-right\">1</td>\n</tr>\n<tr>\n<th colspan=\"2\" id=\"tdl137\" headers=\"tdl5 tdl111\">Sous-total - Non\u00a0pr\u00e9cis\u00e9</th>\n<td headers=\"tdl7 tdl137\" class=\"text-right\"><b>14</b></td>\n</tr>\n<tr>\n<th colspan=\"2\" id=\"tdl142\" headers=\"tdl5\">Total</th>\n<td headers=\"tdl7 tdl142\" class=\"text-right\"><b>142</b></td>\n</tr>\n</tbody>\n<tfoot>\n<tr>\n<td colspan=\"3\"><p><b>Source\u00a0:</b> Mintel, 2020</p>\n<p><b>*Fonctionnelle</b>\u00a0: Produits faisant mention de bienfaits allant au-del\u00e0 de leur valeur nutritionnelle.</p></td>\n</tr>\n</tfoot>\n</table>\n</figure>\n</div>\n\n<h2 id=\"d\">Taille des march\u00e9s</h2>\n\n<p>Parmi les cinq pays qui ont lanc\u00e9 le plus grand nombre de produits contenant de la querc\u00e9tine de\u00a02015 \u00e0\u00a02019, le Japon constituait le premier march\u00e9 pour l'ensemble des produits. L'Allemagne repr\u00e9sente le march\u00e9 ayant connu la croissance la plus rapide dans la cat\u00e9gorie des boissons \u00e9nergisantes</p>\n<p>(ne contenant pas n\u00e9cessairement de querc\u00e9tine).</p>\n\n<div class=\"table-responsive\">\n<figure>\n<figcaption class=\"text-center\"><b>Taille des march\u00e9s, aliments emball\u00e9s et boissons selon certains pays et certaines cat\u00e9gories, valeur des ventes au d\u00e9tail (en M$\u00a0US)</b></figcaption>\n<table class=\"table table-bordered\">\n<thead>\n<tr>\n<th id=\"tel5\">March\u00e9</th>\n<th id=\"tel6\">Cat\u00e9gorie</th>\n<th id=\"tel7\" class=\"text-right\">2015</th>\n<th id=\"tel8\" class=\"text-right\">2019</th>\n<th id=\"tel9\" class=\"text-right\">TCAC* 2015-2019 (%)</th>\n<th id=\"tel10\" class=\"text-right\">2020</th>\n<th id=\"tel11\" class=\"text-right\">2024</th>\n<th id=\"tel12\" class=\"text-right\">TCAC* 2020-2024 (%)</th>\n</tr>\n</thead>\n<tbody>\n<tr class=\"text-right\">\n<th class=\"text-left\" rowspan=\"4\" id=\"tel16\" headers=\"tel5\">Japon</th>\n<td class=\"text-left\" headers=\"tel6 tel16\">Produits de boulangerie-p\u00e2tisserie et c\u00e9r\u00e9ales</td>\n<td headers=\"tel7 tel16\">23\u00a0461,3</td>\n<td headers=\"tel8 tel16\">25\u00a0449,9</td>\n<td headers=\"tel9 tel16\">2,1</td>\n<td headers=\"tel10 tel16\">26\u00a0349,2</td>\n<td headers=\"tel11 tel16\">28\u00a0394,0</td>\n<td headers=\"tel12 tel16\">1,9</td>\n</tr>\n<tr class=\"text-right\">\n<td class=\"text-left\" headers=\"tel6 tel16\">Confiseries</td>\n<td headers=\"tel7 tel16\">7\u00a0619,6</td>\n<td headers=\"tel8 tel16\">7\u00a0997,9</td>\n<td headers=\"tel9 tel16\">1,2</td>\n<td headers=\"tel10 tel16\">7\u00a0775,4</td>\n<td headers=\"tel11 tel16\">7\u00a0693,8</td>\n<td headers=\"tel12 tel16\">\u22120,3</td>\n</tr>\n<tr class=\"text-right\">\n<td class=\"text-left\" headers=\"tel6 tel16\">Cr\u00e8me glac\u00e9e</td>\n<td headers=\"tel7 tel16\">4\u00a0620,1</td>\n<td headers=\"tel8 tel16\">5\u00a0041,1</td>\n<td headers=\"tel9 tel16\">2,2</td>\n<td headers=\"tel10 tel16\">4\u00a0698,5</td>\n<td headers=\"tel11 tel16\">4\u00a0945,2</td>\n<td headers=\"tel12 tel16\">1,3</td>\n</tr>\n<tr class=\"text-right\">\n<td class=\"text-left\" headers=\"tel6 tel16\">Soupes</td>\n<td headers=\"tel7 tel16\">2\u00a0058,6</td>\n<td headers=\"tel8 tel16\">2\u00a0519,3</td>\n<td headers=\"tel9 tel16\">5,2</td>\n<td headers=\"tel10 tel16\">2\u00a0641,9</td>\n<td headers=\"tel11 tel16\">3\u00a0033,7</td>\n<td headers=\"tel12 tel16\">3,5</td>\n</tr>\n<tr class=\"text-right\">\n<th class=\"text-left\" rowspan=\"2\" id=\"tel67\" headers=\"tel5\">\u00c9tats-Unis</th>\n<td class=\"text-left\" headers=\"tel6 tel67\">Boissons \u00e9nergisantes</td>\n<td headers=\"tel7 tel67\">15\u00a0355,1</td>\n<td headers=\"tel8 tel67\">18\u00a0696,5</td>\n<td headers=\"tel9 tel67\">5,0</td>\n<td headers=\"tel10 tel67\">15\u00a0620,7</td>\n<td headers=\"tel11 tel67\">19\u00a0735,3</td>\n<td headers=\"tel12 tel67\">6,0</td>\n</tr>\n<tr class=\"text-right\">\n<td class=\"text-left\" headers=\"tel6 tel67\">Boissons pour sportifs</td>\n<td headers=\"tel7 tel67\">7\u00a0956,4</td>\n<td headers=\"tel8 tel67\">9\u00a0567,6</td>\n<td headers=\"tel9 tel67\">4,7</td>\n<td headers=\"tel10 tel67\">8\u00a0327,4</td>\n<td headers=\"tel11 tel67\">10\u00a0143,3</td>\n<td headers=\"tel12 tel67\">5,1</td>\n</tr>\n<tr class=\"text-right\">\n<th class=\"text-left\" rowspan=\"2\" id=\"tel88\" headers=\"tel5\">Allemagne</th>\n<td class=\"text-left\" headers=\"tel6 tel88\">Boissons \u00e9nergisantes</td>\n<td headers=\"tel7 tel88\">2\u00a0928,7</td>\n<td headers=\"tel8 tel88\">3\u00a0771,7</td>\n<td headers=\"tel9 tel88\">6,5</td>\n<td headers=\"tel10 tel88\">3\u00a0329,0</td>\n<td headers=\"tel11 tel88\">4\u00a0529,1</td>\n<td headers=\"tel12 tel88\">8,0</td>\n</tr>\n<tr class=\"text-right\">\n<td class=\"text-left\" headers=\"tel6 tel88\">Boissons pour sportifs</td>\n<td headers=\"tel7 tel88\">313,9</td>\n<td headers=\"tel8 tel88\">336,7</td>\n<td headers=\"tel9 tel88\">1,8</td>\n<td headers=\"tel10 tel88\">317,3</td>\n<td headers=\"tel11 tel88\">341,5</td>\n<td headers=\"tel12 tel88\">1,9</td>\n</tr>\n<tr class=\"text-right\">\n<th class=\"text-left\" rowspan=\"2\" id=\"tel109\" headers=\"tel5\">Canada</th>\n<td class=\"text-left\" headers=\"tel6 tel109\">Boissons \u00e9nergisantes</td>\n<td headers=\"tel7 tel109\">673,6</td>\n<td headers=\"tel8 tel109\">789,0</td>\n<td headers=\"tel9 tel109\">4,0</td>\n<td headers=\"tel10 tel109\">772,0</td>\n<td headers=\"tel11 tel109\">832,0</td>\n<td headers=\"tel12 tel109\">1,9</td>\n</tr>\n<tr class=\"text-right\">\n<td class=\"text-left\" headers=\"tel6 tel109\">Boissons pour sportifs</td>\n<td headers=\"tel7 tel109\">357,4</td>\n<td headers=\"tel8 tel109\">448,1</td>\n<td headers=\"tel9 tel109\">5,8</td>\n<td headers=\"tel10 tel109\">463,0</td>\n<td headers=\"tel11 tel109\">536,0</td>\n\n<td headers=\"tel12 tel109\">3,7</td>\n</tr>\n<tr class=\"text-right\">\n<th class=\"text-left\" rowspan=\"2\" id=\"tel130\" headers=\"tel5\">Espagne</th>\n<td class=\"text-left\" headers=\"tel6 tel130\">Boissons \u00e9nergisantes</td>\n<td headers=\"tel7 tel130\">369,3</td>\n<td headers=\"tel8 tel130\">455,2</td>\n<td headers=\"tel9 tel130\">5,4</td>\n<td headers=\"tel10 tel130\">412,2</td>\n<td headers=\"tel11 tel130\">493,0</td>\n<td headers=\"tel12 tel130\">4,6</td>\n</tr>\n<tr class=\"text-right\">\n<td class=\"text-left\" headers=\"tel6 tel130\">Boissons pour sportifs</td>\n<td headers=\"tel7 tel130\">487,5</td>\n<td headers=\"tel8 tel130\">539,1</td>\n<td headers=\"tel9 tel130\">2,6</td>\n<td headers=\"tel10 tel130\">459,2</td>\n<td headers=\"tel11 tel130\">499,4</td>\n<td headers=\"tel12 tel130\">2,1</td>\n</tr>\n</tbody>\n<tfoot>\n<tr>\n<td colspan=\"8\"><p><b>Source\u00a0:</b> GlobalData,\u00a02020</p>\n<p><b>*TCAC</b>\u00a0: Taux de croissance annuel compos\u00e9</p>\n<p><b>P\u00e9riode de pr\u00e9vision (2020-2024)</b>\u00a0: estimations r\u00e9alis\u00e9es avant la COVID-19</p></td>\n</tr>\n</tfoot>\n</table>\n</figure>\n</div>\n\n<h2 id=\"e\">Exemples de nouveaux produits</h2>\n\n<div class=\"wb-tabs ignore-session\">\n<div class=\"tabpanels\">\n<details id=\"details-panel2a\">\n<summary id=\"product-example-description-2a\">Soupe miso avec oignons</summary>\n<div class=\"col-md-5 pull-right\">\n<img src=\"https://www.agr.gc.ca/resources/prod/Internet-Internet/MISB-DGSIM/ATS-SEA/images/11753/crs_quercetin_packaged_food_drink_products_2a.jpg\" class=\"img-responsive mrgn-lft-md\" alt=\"\">\n<b>Source:</b> Mintel, 2020</div>\n\n<div class=\"col-md-7 table-responsive\">\n<table aria-labelledby=\"product-example-description-2a\" class=\"table table-bordered\">\n<tr>\n  <th scope=\"row\">Entreprise</th>\n  <td>Nagatanien</td>\n</tr> \n <tr>\n   <th scope=\"row\">Marque</th>\n   <td>Nagatanien Tamanegi No Chikara</td>\n </tr>\n  <tr>\n   <th scope=\"row\">Cat\u00e9gorie</th>\n   <td>Soupe</td>\n </tr>\n <tr>\n  <th scope=\"row\">March\u00e9</th>\n  <td>Japon</td>\n </tr>\n <tr>\n  <th scope=\"row\">Nom du commerce</th>\n  <td>Sokai Drug</td>\n </tr>\n <tr>\n  <th scope=\"row\">Date de lancement</th>\n  <td>Juin 2018</td>\n </tr> \n <tr>\n  <th scope=\"row\">Type de lancement</th>\n  <td>Nouvelle vari\u00e9t\u00e9/\u00e9largissement de gamme</td>\n </tr>\n<tr>\n  <th scope=\"row\">Prix en monnaie locale</th>\n  <td>128 yen</td>\n</tr> \n<tr>\n  <th scope=\"row\">Prix en dollars am\u00e9ricains</th>\n  <td>1,17</td>\n</tr>  \n</table>\n</div>\n\n<div class=\"clearfix\"></div>\n\n<p>La soupe miso avec oignons Nagatanien Tamanegi No Chikara est maintenant offerte. Cette soupe instantan\u00e9e est compos\u00e9e de tranches d'oignon doux et contient 21\u00a0milligrammes de querc\u00e9tine, soit l'\u00e9quivalent d'un demi-oignon, ce qui serait bon pour la sant\u00e9. Elle se vend en emballage de 46,8\u00a0grammes (3\u00a0\u00d7\u00a013,5\u00a0g de miso et 3\u00a0\u00d7\u00a02,1\u00a0grammes de garniture). Le produit a \u00e9t\u00e9 lanc\u00e9 le 12\u00a0mars\u00a02018 au prix de d\u00e9tail recommand\u00e9 de 131\u00a0yen.</p>\n</details>\n\n<details id=\"details-panel2b\">\n<summary id=\"product-example-description-2b\">Jus de cerise sauvage sure canadienne</summary>\n<div class=\"col-md-5 pull-right\">\n<img src=\"https://www.agr.gc.ca/resources/prod/Internet-Internet/MISB-DGSIM/ATS-SEA/images/11753/crs_quercetin_packaged_food_drink_products_2b.jpg\" class=\"img-responsive mrgn-lft-md\" alt=\"\">\n<b>Source:</b> Mintel, 2020</div>\n\n<div class=\"col-md-7 table-responsive\">\n<table aria-labelledby=\"product-example-description-2b\" class=\"table table-bordered\">\n<tr>\n  <th scope=\"row\">Entreprise</th>\n  <td>Urban Platter / iStoreDirect Trading</td>\n</tr> \n <tr>\n   <th scope=\"row\">Marque</th>\n   <td>Urban Platter</td>\n </tr>\n  <tr>\n   <th scope=\"row\">Cat\u00e9gorie</th>\n   <td>Boissons \u00e0 base de jus</td>\n </tr>\n <tr>\n  <th scope=\"row\">March\u00e9</th>\n  <td>Inde</td>\n </tr>\n <tr>\n  <th scope=\"row\">Nom du commerce</th>\n  <td>Amazon.in</td>\n </tr>\n <tr>\n  <th scope=\"row\">Date de lancement</th>\n  <td>Janvier 2020</td>\n </tr> \n <tr>\n  <th scope=\"row\">Type de lancement</th>\n  <td>Nouveau produit</td>\n </tr>\n<tr>\n  <th scope=\"row\">Prix en monnaie locale</th>\n  <td>999 roupies indiennes</td>\n</tr> \n<tr>\n  <th scope=\"row\">Prix en dollars am\u00e9ricains</th>\n  <td>14,13</td>\n</tr>    \n</table>\n</div>\n\n<div class=\"clearfix\"></div>\n\n<p>Le jus de cerise sauvage sure canadienne d'Urban Platter est fait de cerises sauvages sures pures press\u00e9es \u00e0 froid cultiv\u00e9es au Canada, et chaque 100\u00a0millilitres contient le jus d'au moins 58\u00a0cerises sures. Il est enti\u00e8rement naturel, sans sucre ajout\u00e9, eau ou tout type d'agent de conservation et n'est jamais fabriqu\u00e9 \u00e0 partir de concentr\u00e9. Selon le fabricant, le jus de cerise sure contient de la querc\u00e9tine, l'un des antioxydants les plus puissants, et constitue une source naturelle de m\u00e9latonine, une hormone qui aide \u00e0 r\u00e9guler le cycle veille-sommeil. On pr\u00e9tend qu'il offre plus que des anthocyanes en raison de sa forte teneur en trois produits chimiques aidant \u00e0 combattre les maladies qui peuvent \u00eatre favorables \u00e0 l'interruption de la transformation des cellules. Ce produit de qualit\u00e9 sup\u00e9rieure convient aux v\u00e9g\u00e9tariens et se vend dans un contenant de 375\u00a0grammes.</p>\n</details>\n\n<details id=\"details-panel2c\">\n<summary id=\"product-example-description-2c\">Boisson contenant des \u00e9lectrolytes \u00e0 saveur d'orange et de lime</summary>\n<div class=\"col-md-5 pull-right\">\n<img src=\"https://www.agr.gc.ca/resources/prod/Internet-Internet/MISB-DGSIM/ATS-SEA/images/11753/crs_quercetin_packaged_food_drink_products_2c.jpg\" class=\"img-responsive mrgn-lft-md\" alt=\"\">\n<b>Source:</b> Mintel, 2020</div>\n\n<div class=\"col-md-7 table-responsive\">\n<table aria-labelledby=\"product-example-description-2c\" class=\"table table-bordered\">\n<tr>\n  <th scope=\"row\">Entreprise</th>\n  <td>Amway Iberia</td>\n</tr> \n <tr>\n   <th scope=\"row\">Marque</th>\n   <td>XS Recharge</td>\n </tr>\n  <tr>\n   <th scope=\"row\">Cat\u00e9gorie</th>\n   <td>Boissons pour sportifs et \u00e9nergisantes</td>\n </tr>\n <tr>\n  <th scope=\"row\">March\u00e9</th>\n  <td>Espagne</td>\n </tr>\n <tr>\n  <th scope=\"row\">Date de lancement</th>\n  <td>Octobre 2018</td>\n </tr> \n <tr>\n  <th scope=\"row\">Type de lancement</th>\n  <td>Nouveau produit</td>\n </tr>\n<tr>\n  <th scope=\"row\">Prix en monnaie locale</th>\n  <td>20,85\u00a0\u20ac</td>\n</tr> \n<tr>\n  <th scope=\"row\">Prix en dollars am\u00e9ricains</th>\n  <td>24,47</td>\n</tr>    \n</table>\n</div>\n\n<div class=\"clearfix\"></div>\n\n<p>La boisson contenant des \u00e9lectrolytes \u00e0 saveur d'orange et de lime XS\u00a0Recharge fournirait de l'\u00e9nergie aux consommateurs pour faire de l'exercice. Cette poudre instantan\u00e9e contenant des sucres et des \u00e9dulcorants serait le produit d'un m\u00e9lange \u00e9quilibr\u00e9 d'\u00e9lectrolytes et de glucides permettant de refaire le plein d'\u00e9lectrolytes. Elle permettrait \u00e9galement d'am\u00e9liorer l'absorption de l'eau et d'am\u00e9liorer la r\u00e9sistance, particuli\u00e8rement lors des longs exercices, et contribuerait \u00e0 maintenir une performance optimale.</p>\n</details>\n\n<details id=\"details-panel2d\">\n<summary id=\"product-example-description-2d\">Boisson biologique au gingembre</summary>\n<div class=\"col-md-5 pull-right\">\n<img src=\"https://www.agr.gc.ca/resources/prod/Internet-Internet/MISB-DGSIM/ATS-SEA/images/11753/crs_quercetin_packaged_food_drink_products_2d.jpg\" class=\"img-responsive mrgn-lft-md\" alt=\"\">\n<b>Source:</b> Mintel, 2020</div>\n\n<div class=\"col-md-7 table-responsive\">\n<table aria-labelledby=\"product-example-description-2d\" class=\"table table-bordered\">\n<tr>\n  <th scope=\"row\">Entreprise</th>\n  <td>JuiceDelivery</td>\n</tr> \n <tr>\n   <th scope=\"row\">Marque</th>\n   <td>Sol-ti SuperAde</td>\n </tr>\n  <tr>\n   <th scope=\"row\">Cat\u00e9gorie</th>\n   <td>Boissons \u00e0 base de jus</td>\n </tr>\n <tr>\n  <th scope=\"row\">March\u00e9</th>\n  <td>\u00c9tats-Unis</td>\n </tr>\n <tr>\n  <th scope=\"row\">Nom du commerce</th>\n  <td>Target</td>\n </tr>\n <tr>\n  <th scope=\"row\">Date de lancement</th>\n  <td>Octobre 2019</td>\n </tr> \n <tr>\n  <th scope=\"row\">Type de lancement</th>\n  <td>Nouveau produit</td>\n </tr>\n<tr>\n  <th scope=\"row\">Prix en monnaie locale</th>\n  <td>3,99\u00a0$</td>\n</tr> \n<tr>\n  <th scope=\"row\">Prix en euros</th>\n  <td>3,65</td>\n</tr>    \n</table>\n</div>\n\n<div class=\"clearfix\"></div>\n\n<p>La boisson biologique au gingembre Sol-ti SuperAde est crue, v\u00e9g\u00e9talienne, press\u00e9e \u00e0 froid, filtr\u00e9e \u00e0 la lumi\u00e8re, ne contient pas d'organismes g\u00e9n\u00e9tiquement modifi\u00e9s et contient 27\u00a0% de jus. Ce produit est compos\u00e9 des ingr\u00e9dients suivants\u00a0: des pommes, qui procurent un regain d'\u00e9nergie naturel; une aide digestive; des vitamines\u00a0A et\u00a0K; du potassium et de la querc\u00e9tine; du gingembre (circulation et soutien pulmonaire, nettoyage, favorable pour l'arthrite, et facilite la digestion); du citron, qui est r\u00e9put\u00e9 pour \u00eatre alcalinisant, nettoyant et purifiant. On dit de ce produit qu'il constitue une alchimie d'ingr\u00e9dients frais et qu'il apporte de r\u00e9els bienfaits pour le bien-\u00eatre, notamment l'\u00e9nergie, la positivit\u00e9 et la sant\u00e9. Cette boisson est issue d'un syst\u00e8me de filtration de lumi\u00e8re UV, qui utilise les rayons lumineux pour pr\u00e9server le liquide sans pasteurisation, a des effets peu invasifs et \u00e9limine les microorganismes contaminateurs tout en renfor\u00e7ant le taux de chlorophylle et les propri\u00e9t\u00e9s antioxydantes. Elle ne contient pas de gluten et se vend dans un contenant recyclable et r\u00e9utilisable de 15,5\u00a0onces liquide et porte un logo mentionnant le 1\u00a0% remis \u00e0 Permaculture Planet pour la reforestation des arbres fruitiers.</p>\n</details>\n\n<details id=\"details-panel2e\">\n<summary id=\"product-example-description-2e\">Boisson \u00e9nergisante</summary>\n<div class=\"col-md-5 pull-right\">\n<img src=\"https://www.agr.gc.ca/resources/prod/Internet-Internet/MISB-DGSIM/ATS-SEA/images/11753/crs_quercetin_packaged_food_drink_products_2e.jpg\" class=\"img-responsive mrgn-lft-md\" alt=\"\">\n<b>Source:</b> Mintel, 2020</div>\n\n<div class=\"col-md-7 table-responsive\">\n<table aria-labelledby=\"product-example-description-2e\" class=\"table table-bordered\">\n<tr>\n  <th scope=\"row\">Entreprise</th>\n  <td>The FRS Company</td>\n</tr> \n <tr>\n   <th scope=\"row\">Marque</th>\n   <td>FRS Healthy Energy</td>\n </tr>\n  <tr>\n   <th scope=\"row\">Cat\u00e9gorie</th>\n   <td>Boissons pour sportifs et \u00e9nergisantes</td>\n </tr>\n <tr>\n  <th scope=\"row\">March\u00e9</th>\n  <td>Canada</td>\n </tr>\n <tr>\n  <th scope=\"row\">Nom du commerce</th>\n  <td>Urban Fare</td>\n </tr>\n <tr>\n  <th scope=\"row\">Date de lancement</th>\n  <td>F\u00e9vrier 2011</td>\n </tr> \n <tr>\n  <th scope=\"row\">Type de lancement</th>\n  <td>Nouveau produit</td>\n </tr>\n<tr>\n  <th scope=\"row\">Prix en monnaie locale</th>\n  <td>3,49\u00a0$\u00a0CA</td>\n</tr> \n<tr>\n  <th scope=\"row\">Prix en dollars am\u00e9ricains</th>\n  <td>3,48\u00a0$</td>\n</tr>    \n</table>\n</div>\n\n<div class=\"clearfix\"></div>\n\n<p>La boisson \u00e9nergisante FRS Healthy Energy est une boisson non\u00a0gaz\u00e9ifi\u00e9e enti\u00e8rement naturelle qui contient seulement 90\u00a0calories. Ce produit \u00e0 saveur d'abricot et de nectarine contient de la querc\u00e9tine, un puissant antioxydant enti\u00e8rement naturel. Il ne contient aucun \u00e9dulcorant, colorant ou ar\u00f4me artificiel et se vend dans une canette recyclable de 11,5\u00a0onces liquide. D'autres saveurs sont offertes, soit orange, agrumes et grenade, et baies sauvages. Les saveurs d'agrumes et grenade et de baies sauvages sont faibles en calories.</p>\n</details>\n</div>\n</div>\n\n<h2 id=\"f\">Pour de plus amples renseignements</h2>\n\n<p><b>Le Service des d\u00e9l\u00e9gu\u00e9s commerciaux du Canada\u00a0:</b></p>\n\n<p>Les d\u00e9l\u00e9gu\u00e9s commerciaux internationaux  peuvent fournir \u00e0 l'industrie canadienne une expertise de terrain concernant  les potentiels de march\u00e9, les conditions actuelles et les contacts d'affaires  locaux, et sont un excellent point de contact pour obtenir des conseils \u00e0  l'exportation.</p>\n\n<ul class=\"lst-spcd\">\n<li><a href=\"https://deleguescommerciaux.gc.ca/trade-commissioner-delegue-commercial/search-recherche.aspx?lang=fra\">Trouvez un d\u00e9l\u00e9gu\u00e9 commercial</a></li>\n</ul>\n\n<p><b>Plus de renseignements sur  les march\u00e9s agroalimentaires\u00a0:</b></p>\n\n<p><a href=\"?id=1410083148447\">Renseignements sur les march\u00e9s internationaux de l'agroalimentaire</a><br>\nD\u00e9couvrez l'agriculture  mondiale et les d\u00e9bouch\u00e9s agroalimentaires, consultez la liste compl\u00e8te des  analyses des march\u00e9s mondiaux, les tendances des march\u00e9s et les pr\u00e9visions, et renseignez-vous sur les accords de libre-\u00e9change du Canada.</p>\n\n<p><a href=\"?id=1581602925012\">Service  d'information sur les march\u00e9s agroalimentaires</a><br>\nLes entreprises  canadiennes du secteur des produits agroalimentaires et des produits de la mer  peuvent profiter d'un service personnalis\u00e9 de rapports et d'analyses, et s'inscrire  \u00e0 notre liste de distribution pour recevoir les plus r\u00e9cents rapports  directement dans leur bo\u00eete de r\u00e9ception.</p>\n\n<p><b>Pour en savoir plus sur les industries agroalimentaires du Canada\u00a0:</b></p>\n\n<p><a href=\"?id=1361290241756\">Secteurs agricoles du Canada</a><br>\nAliments transform\u00e9s et  boissons, aide relative aux exigences r\u00e9glementaires, processus d'approbation  r\u00e9glementaire, r\u00e9glementation du secteur, Loi sur le commerce des spiritueux</p>\n\n<section>\n<h2 id=\"g\">Ressources</h2>\n\n<ul class=\"list-unstyled lst-spcd\">\n\n<li>Base de donn\u00e9es sur les nouveaux produits dans le monde de Mintel, 2020</li>\n<li>GlobalData, 2020</li>\n</ul>\n</section>\n\n<p>Services de rapports personnalis\u00e9s \u2013 Analyse d'ingr\u00e9dients - La querc\u00e9tine dans les produits alimentaires emball\u00e9s et dans les boissons<br>\nRapport d'analyse mondiale</p>\n\n<p>Pr\u00e9par\u00e9 par\u00a0: Zhiduo Wang, analyste de march\u00e9</p>\n\n<p>\u00a9 Sa Majest\u00e9 la Reine du chef du Canada, repr\u00e9sent\u00e9e par le ministre de l'Agriculture et de l'Agroalimentaire (2021).</p>\n\n<p><b>Photos</b><br>\nLes images figurant dans la pr\u00e9sente publication sont reproduites avec la permission des titulaires des droits s'y rattachant. \u00c0 moins d'avis contraire, Sa Majest\u00e9 la Reine du chef du Canada est titulaire des droits d'auteur sur ces images.</p>\n\n<p>Pour vous inscrire \u00e0 notre liste de distribution ou pour sugg\u00e9rer d'autres sujets ou march\u00e9s de recherche, vous pouvez vous adresser \u00e0\u00a0:</p>\n\n<address>Agriculture et Agroalimentaire Canada, Analyses des march\u00e9s mondiaux<br>\n1341, chemin Baseline, Tour 5, 3e \u00e9tage<br>\nOttawa ON \u00a0K1A\u00a00C5<br>\nCanada<br>\nCourriel\u00a0: <a href=\"mailto:aafc.mas-sam.aac@canada.ca\">aafc.mas-sam.aac@canada.ca</a></address>\n\n\n<p>Le gouvernement du Canada a pr\u00e9par\u00e9 le pr\u00e9sent document en se fondant sur des sources d'information primaires et secondaires. M\u00eame s'il n'a m\u00e9nag\u00e9 aucun effort pour pr\u00e9senter des donn\u00e9es exactes, Agriculture et Agroalimentaire Canada (AAC) n'assume aucune responsabilit\u00e9 \u00e0 l'\u00e9gard de toute d\u00e9cision qui pourrait \u00eatre prise sur la base de ces renseignements.</p>\n\n<p>Toute  reproduction ou redistribution du pr\u00e9sent document, en totalit\u00e9 ou en partie,  doit \u00e9noncer clairement qu'Agriculture et Agroalimentaire Canada est le  titulaire du droit d'auteur du document selon le mod\u00e8le suivant\u00a0: AAC,  titre du document, ann\u00e9e. Si le document reproduit ou redistribu\u00e9 reprend des  donn\u00e9es du pr\u00e9sent document, il y a lieu d'y indiquer les sources telles  qu'elles sont inscrites dans le pr\u00e9sent document.</p>\n\n<p>Agriculture et Agroalimentaire Canada fournit le pr\u00e9sent document ainsi que d'autres services de production de rapports gratuitement \u00e0 ses clients des industries agricole et alimentaire.</p>\n\n<div class=\"mrgn-tp-lg mrgn-bttm-lg brdr-bttm\"></div>\n\n<div id=\"rating\" class=\"mrgn-tp-lg\"></div>\n<script src=\"/res/aafc-aac4/js/mac_feedback-fra.js\"></script>\n\r\n    "
    }
}