{
    "dcr_id": "1616612443584",
    "title": {
        "en": "Good food starts with good research!",
        "fr": "Les bonnes recherches font les bons aliments"
    },
    "modified": "2021-03-24",
    "issued": "2021-03-24",
    "templatetype": "content page 1 column",
    "page_type": "0",
    "node_id": "1613744537543",
    "dc_date_created": "2021-03-24",
    "managing_branch": "PAB",
    "parent_node_id": "",
    "short_title": "",
    "exturl": "",
    "teamsite_location": {
        "en": "/default/main/AAFC-AAC/Internet-Internet/CCB-DGCC/WORKAREA/CCB-DGCC/templatedata/comm-comm/gene-gene/data/agri-info_good-food_good-research_1616612443584_en",
        "fr": "/default/main/AAFC-AAC/Internet-Internet/CCB-DGCC/WORKAREA/CCB-DGCC/templatedata/comm-comm/gene-gene/data/agri-info_good-food_good-research_1616612443584_fr"
    },
    "type_name": "comm-comm/gene-gene",
    "has_dcr_id": true,
    "label": {
        "en": "Good food starts with good research!",
        "fr": "Les bonnes recherches font les bons aliments"
    },
    "breadcrumb": {
        "en": "Good food starts with good research!",
        "fr": "Les bonnes recherches font les bons aliments"
    },
    "layout_name": "content page 1 column",
    "lang": "en",
    "refaire": false,
    "meta": {
        "viewport": {
            "en": "width=device-width,initial-scale=1",
            "fr": "width=device-width, initial-scale=1"
        },
        "issued": {
            "en": "2021-03-24",
            "fr": "2021-03-24"
        },
        "modified": {
            "en": "2021-03-24",
            "fr": "2021-03-24"
        },
        "format": {
            "en": "gcformat",
            "fr": "gcformat"
        },
        "title": {
            "en": "Good food starts with good research!",
            "fr": "Les bonnes recherches font les bons aliments"
        },
        "subject": {
            "en": "aafcsubject",
            "fr": "aafcsubject"
        },
        "dcterms:subject": {
            "en": "agriculture",
            "fr": "agriculture"
        },
        "description": {
            "en": "April 15, 2019. Extreme weather events, a changing climate, potentially devastating animal disease outbreaks and cyber threats are the types of risks that can affect Canada's growing agricultural and agri-food sector.As the 100-year flood happens more and more often, and as more and more people travel around the world, the risks to Canada's agricultural sector grow. Emergency Management. at AAFC. The bulletin will be issued bimonthly.Do you know about additional resources that might be useful to others in the sector? to Agri-info today.Get more Agri-info. Want more stories like this?Explore what else.",
            "fr": "15 avril 2019. Les ph\u00e9nom\u00e8nes m\u00e9t\u00e9orologiques extr\u00eames, les changements climatiques, les \u00e9closions de maladies animales potentiellement d\u00e9vastatrices et les cybermenaces sont les types de risques qui peuvent toucher la croissance du secteur agricole et agroalimentaire du Canada.Les risques pour le secteur agricole canadien augmentent avec les crues centenaires qui se produisent de plus en plus souvent et le nombre croissant de personnes qui voyagent partout dans le monde. Le bulletin sera diffus\u00e9 tous les deux mois.Y a-t-il d\u2019autres ressources qui pourraient \u00eatre utiles au secteur? aafc.mediarelations-relationsmedias.aac@canada.ca. pour obtenir une entrevue avec l'un de nos experts.Vous avez une id\u00e9e d'histoire ou des commentaires \u00e0 partager?Communiquez avec nous \u00e0 l'adresse."
        },
        "language": {
            "en": "eng",
            "fr": "fra"
        },
        "keywords": {
            "en": "flood happens more and more often;fallout when something goes wrongcan",
            "fr": "d\u00e9vastatrices et les cybermenaces;crues centenaires qui se produisent;catastrophe ou pour en att\u00e9nuer"
        },
        "audience": {
            "en": "gcaudience",
            "fr": "gcaudience"
        },
        "type": {
            "en": "article",
            "fr": "article"
        },
        "creator": {
            "en": "Agriculture and Agri-Food Canada",
            "fr": "Agriculture et Agroalimentaire Canada"
        },
        "spatial": {
            "en": "gcregions",
            "fr": "gcregions"
        },
        "service": {
            "en": "AAFC-AAC",
            "fr": "AAFC-AAC"
        },
        "accessRights": {
            "en": "2",
            "fr": "2"
        },
        "legalName": {
            "en": "agriculture_and_agri_food_canada",
            "fr": "agriculture_et_agroalimentaire_canada"
        },
        "areaServed": {
            "en": "Canada",
            "fr": "Canada"
        }
    },
    "h1": {
        "en": "Good food starts with good research!",
        "fr": "Les bonnes recherches font les bons aliments"
    },
    "js": {
        "en": "",
        "fr": ""
    },
    "body": {
        "en": "\r\n    <p><img src=\"https://multimedia.agr.gc.ca/pack/img/agri-info_good-food_good-research_sm-eng.jpg\" alt=\"From the Field to Your basket.  We cover a lot of ground.\" class=\"pull-right img-responsive mrgn-bttm-sm\"></p> \n  \n<p>Do you know how Agriculture and Agri-Food    Canada (AAFC) agricultural scientists make sure the food you eat is safe, high quality, and produced in    sustainable ways? </p>\n      <p>Our talented and dedicated scientists are    proudly contributing to Canadian food and agriculture in many different ways.    The Fields of Science campaign showcases some of our scientists and their    work in AAFC\u2019s 20 research centres across the country. We explore how    our scientists help farmers    improve and protect their crops and produce food for Canadians. </p>\n      <ul>\n        <li>Meet a plant doctor    who is making sure Canadians    can \u201clift their glass of wine and say this is the best wine they ever    tasted.\u201d </li>\n        <li>Learn about new technology that gives pigs a    personalized meal plan to meet their nutritional needs.</li>\n        <li>Meet the scientists    that are combining potato traits to repel beetles without the help of    pesticides.\u00a0 </li>\n      </ul>\n\n<p>Get to know our scientists and explore the work they do on a daily basis!</p>\n\n<div class=\"well\">\n<div class=\"row\">\n<div class=\"col-md-4\">\n  <figure> <img src=\"https://multimedia.agr.gc.ca/pack/img/agri_info_fig1-eng.jpg\" class=\"img-responsive pull-left\" alt=\"Canadian Agricultural Partnership. Innovate. Grow. Prosper. AgriAssurance Program\"></figure>\n</div>\n<div class=\"col-md-8\">\n<p>The AgriAssurance program is funded in part by the <a href=\"?id=1461767369849\">Canadian Agricultural Partnership</a>, a $3-billion five-year (2018-2023), investment by federal, provincial and territorial (FPT) governments to strengthen and grow Canada's agriculture and agri-food sector.</p>\n</div>\n</div>\n</div>\n\n<div class=\"clearfix\"></div>\n\n<p>Check out <a href=\"?id=1411999466585\">Fields  of Science</a> for videos, articles and to test your knowledge with our quiz!</p>\n<div class=\"clearfix\"></div>\n<section class=\"panel panel-success\">\n <header class=\"panel-heading\">\n  <h2 class=\"panel-title\">Get more Agri-info</h2>\n </header>\n <div class=\"panel-body\">\n\t <ul>\n<li><b>Want more stories like this?</b> Explore what else <a href=\"?id=1419351635969\">Agri-info</a> has to offer.</li>\n<li><b>Interested in reporting on this story?</b> Contact AAFC Media Relations at <a href=\"mailto:aafc.mediarelations-relationsmedias.aac@canada.ca\">aafc.mediarelations-relationsmedias.aac@canada.ca</a> to arrange an interview with one of our experts.</li>\n<li><b>Have a story idea or feedback to share?</b> Get in touch at <a href=\"mailto:aafc.agri-info.aac@canada.ca\">aafc.agri-info.aac@canada.ca</a>!</li>\n<li><b>Never miss an update.</b> <a href=\"https://pab-dgab-aafc-aac.microsoftcrmportals.com/subscription/\">Subscribe</a> to Agri-info today.</li>\n\t </ul>\n </div>\n</section>\n\r\n    ",
        "fr": "\r\n    <p><img src=\"https://multimedia.agr.gc.ca/pack/img/agri-info_good-food_good-research_sm-fra.jpg\" alt=\"\" class=\"pull-right img-responsive\"></p> \n \n<p>Savez-vous comment les scientifiques  d\u2019Agriculture et Agroalimentaire Canada (AAC) s\u2019assurent que les aliments que  vous consommez sont salubres, de haute qualit\u00e9 et produits de mani\u00e8re durable?</p>\n\n<p>Nos scientifiques talentueux et  d\u00e9vou\u00e9s sont fiers de contribuer au secteur canadien de l\u2019agriculture et de  l\u2019agroalimentaire de diff\u00e9rentes fa\u00e7ons. La campagne Champs scientifiques met  en vedette le travail de quelques-uns de nos scientifiques \u0153uvrant dans les 20  centres de recherche d\u2019AAC \u00e0 travers le pays. Voyez comment ils aident les agriculteurs  \u00e0 am\u00e9liorer et \u00e0 prot\u00e9ger leurs cultures et \u00e0 produire des aliments pour les  Canadiens.</p>\n\n<ul>\n     <li>Rencontrez  un phytopathologiste qui s\u2019assure que les Canadiens puissent \u00ab\u00a0lever leur  verre de vin et dire que c\u2019est le meilleur vin qu\u2019ils n\u2019aient jamais go\u00fbt\u00e9\u00a0\u00bb.</li>\n     <li>D\u00e9couvrez  une nouvelle technologie qui permet d\u2019\u00e9laborer un plan de repas personnalis\u00e9  pour r\u00e9pondre aux besoins nutritionnels des porcs.</li>\n     <li>Rencontrez  les scientifiques qui combinent les caract\u00e9ristiques des pommes de terre pour  repousser les doryphores sans l\u2019aide de pesticides.</li>\n</ul>\n     \n<p>Renseignez-vous  sur nos scientifiques et le travail qu\u2019ils accomplissent tous les jours!</p>\n\n<p>Visitez <a href=\"?id=1411999466585\">Champs scientifiques</a> pour voir des vid\u00e9os et des articles ou pour mettre \u00e0 l\u2019\u00e9preuve vos connaissances gr\u00e2ce \u00e0 notre questionnaire!</p>\n\n\n<div class=\"well\">\n<div class=\"row\">\n<div class=\"col-md-4\">\n  <figure> \n<img src=\"https://multimedia.agr.gc.ca/pack/img/agri_info_fig1-fra.jpg\" lat=\"Innover. Cro\u00eetre. Prosp\u00e9rer. Programme Agri-assurance\" class=\"img-responsive\"></figure>\n</div>\n<div class=\"col-md-8\">\n<p>Le programme Agri-assurance est financ\u00e9 en partie par le Partenariat canadien pour l\u2019agriculture, un investissement f\u00e9d\u00e9ral-provincial-territorial de 3 milliards de dollars sur cinq ans (2018-2023) visant \u00e0 assurer la croissance du secteur agricole et agroalimentaire canadien.</p>\n</div>\n</div>\n</div>\n\n<div class=\"clearfix\"></div>\n\n\n<div class=\"clearfix\"></div>\n<section class=\"panel panel-success\">\n <header class=\"panel-heading\">\n  <h2 class=\"panel-title\">Plus d\u2019Agri-info</h2>\n </header>\n <div class=\"panel-body\">\n<ul>\n<li><b>Vous voulez plus d'histoires comme celles-ci?</b> D\u00e9couvrez tout  ce qu'<a href=\"?id=1419351635969\">Agri-info</a> a \u00e0 vous offrir.</li>\n<li><b>Vous souhaitez faire un reportage sur l'une de nos  histoires?</b> Communiquez  avec l\u2019\u00e9quipe des Relations avec les m\u00e9dias d'AAC \u00e0 l'adresse <a href=\"mailto:aafc.mediarelations-relationsmedias.aac@canada.ca\">aafc.mediarelations-relationsmedias.aac@canada.ca</a> pour obtenir une  entrevue avec l'un de nos experts.</li>\n<li><b>Vous avez une id\u00e9e d'histoire ou des commentaires \u00e0  partager?</b> Communiquez  avec nous \u00e0 l'adresse <a href=\"mailto:aafc.agri-info.aac@canada.ca\">aafc.agri-info.aac@canada.ca</a>!</li>\n<li><b>Soyez \u00e0 l'aff\u00fbt.</b> <a href=\"https://pab-dgab-aafc-aac.microsoftcrmportals.com/subscription_F/\">Abonnez-vous</a> \u00e0 Agri-info d\u00e8s  aujourd'hui.</li>\n</ul>\n </div>\n</section>\n\r\n    "
    }
}