{
    "dcr_id": "1618596142938",
    "title": {
        "en": "Raise a glass to the success of the west coast wine industry for BC Wine  Month",
        "fr": "Levez votre verre \u00e0 la sant\u00e9 de l\u2019industrie vinicole de la c\u00f4te Ouest en ce mois du vin de la Colombie-Britannique!"
    },
    "modified": "2021-04-27",
    "issued": "2021-04-27",
    "templatetype": "content page 1 column",
    "page_type": "0",
    "node_id": "1613744537543",
    "dc_date_created": "2021-04-27",
    "managing_branch": "PAB",
    "parent_node_id": "",
    "short_title": "",
    "exturl": "",
    "teamsite_location": {
        "en": "/default/main/AAFC-AAC/Internet-Internet/CCB-DGCC/WORKAREA/CCB-DGCC/templatedata/comm-comm/gene-gene/data/agri-info_bc-wine_month_1618596142938_en",
        "fr": "/default/main/AAFC-AAC/Internet-Internet/CCB-DGCC/WORKAREA/CCB-DGCC/templatedata/comm-comm/gene-gene/data/agri-info_bc-wine_month_1618596142938_fr"
    },
    "type_name": "comm-comm/gene-gene",
    "has_dcr_id": true,
    "label": {
        "en": "Raise a glass to the success of the west coast wine industry for BC Wine  Month",
        "fr": "Levez votre verre \u00e0 la sant\u00e9 de l\u2019industrie vinicole de la c\u00f4te Ouest en ce mois du vin de la Colombie-Britannique!"
    },
    "breadcrumb": {
        "en": "Raise a glass to the success of the west coast wine industry for BC Wine  Month",
        "fr": "Levez votre verre \u00e0 la sant\u00e9 de l\u2019industrie vinicole de la c\u00f4te Ouest en ce mois du vin de la Colombie-Britannique!"
    },
    "layout_name": "content page 1 column",
    "lang": "en",
    "refaire": false,
    "meta": {
        "viewport": {
            "en": "width=device-width,initial-scale=1",
            "fr": "width=device-width, initial-scale=1"
        },
        "issued": {
            "en": "2021-04-27",
            "fr": "2021-04-27"
        },
        "modified": {
            "en": "2021-04-27",
            "fr": "2021-04-27"
        },
        "format": {
            "en": "gcformat",
            "fr": "gcformat"
        },
        "title": {
            "en": "Raise a glass to the success of the west coast wine industry for BC Wine  Month",
            "fr": "Levez votre verre \u00e0 la sant\u00e9 de l\u2019industrie vinicole de la c\u00f4te Ouest en ce mois du vin de la Colombie-Britannique!"
        },
        "subject": {
            "en": "aafcsubject",
            "fr": "aafcsubject"
        },
        "dcterms:subject": {
            "en": "wine industry",
            "fr": "vin"
        },
        "description": {
            "en": "Like the land where the grapes are grown, each bottle of British Columbia wine serves an extraordinary and unique experience. BC wineries manufacturing sales have grown by 50% since 2015 and were valued at $736 million in 2020. has to offer.Interested in reporting on this story?Contact AAFC Media Relations at.",
            "fr": "Comme les terres o\u00f9 est cultiv\u00e9 le raisin, chaque bouteille de vin de la Colombie-Britannique procure une exp\u00e9rience unique et extraordinaire. Vous voulez plus d'histoires comme celles-ci?D\u00e9couvrez tout ce qu'. Agri-info. \u00e0 Agri-info d\u00e8s aujourd'hui."
        },
        "language": {
            "en": "eng",
            "fr": "fra"
        },
        "keywords": {
            "en": "cool-climate;VinItaly.Vintage;Merlots",
            "fr": "accroupi;Skaha;Bodganoff"
        },
        "audience": {
            "en": "gcaudience",
            "fr": "gcaudience"
        },
        "type": {
            "en": "article",
            "fr": "article"
        },
        "creator": {
            "en": "Agriculture and Agri-Food Canada",
            "fr": "Agriculture et Agroalimentaire Canada"
        },
        "spatial": {
            "en": "gcregions",
            "fr": "gcregions"
        },
        "service": {
            "en": "AAFC-AAC",
            "fr": "AAFC-AAC"
        },
        "accessRights": {
            "en": "2",
            "fr": "2"
        },
        "legalName": {
            "en": "agriculture_and_agri_food_canada",
            "fr": "agriculture_et_agroalimentaire_canada"
        },
        "areaServed": {
            "en": "Canada",
            "fr": "Canada"
        }
    },
    "h1": {
        "en": "Raise a glass to the success of the west coast wine industry for BC Wine Month",
        "fr": "Levez votre verre \u00e0 la sant\u00e9 de l\u2019industrie vinicole de la c\u00f4te Ouest en ce mois du vin de la Colombie-Britannique!"
    },
    "js": {
        "en": "",
        "fr": ""
    },
    "body": {
        "en": "\r\n    <p><img src=\"https://multimedia.agr.gc.ca/pack/img/agri-info_BCWine_Month2sm.jpg\" alt=\"\" class=\"pull-right mrgn-lft-lg img-responsive thumbnail mrgn-bttm-sm\"></p> \n\n <p>Like the  land where the grapes are grown, each bottle of British Columbia wine serves an  extraordinary and unique experience. In recognition of April being BC Wine  Month, it is important to note that\u00a0 most of the grapes for Canada's wineries are grown in the southern parts of British  Columbia and Ontario, where sun-drenched summers give way to warm, lingering  autumns. </p>\n\n<p>Like the  cool-climate wine districts of New Zealand, Germany, and parts of France, these  Canadian regions enjoy an ideal climate for the slow maturing of the grapes, a leisurely ripening that ensures just the right balance of acidity and sweetness in the finished wines.</p>\n\n<p>The  beautiful lands of British Columbia are home to over 900 vineyards and over 300  licensed wineries. Decades of producing quality local wines has served to  greatly make an impact on the province's economy for the better. </p>\n\n<div class=\"well well-sm\">\n<p>Here are  some more interesting facts about the British Columbia wine industry.</p>\n\n<ul>\n<li>There are 3,905 hectares of wine  grapes grown in BC</li>\n<li>Over 60 grape varietals are produced  in the province including Pinot Gris, Merlot, Pinot Noir, and Chardonnay</li>\n<li>The BC wineries manufacturing sales  alone accounted for 47% of all of Canada's wineries manufacturing sales</li>\n<li>BC wineries manufacturing sales have grown by 50% since 2015 and were valued at $736 million in 2020 </li>\n<li>The BC wine industry employs over 12,000 people</li>\n</ul>\n</div>\n<p>So, honour BC Wine Month and foster the  growth of this flourishing sector of the Canadian economy by shopping locally  for your favourite British Columbia produced wine.</p>\n\n<p>Learn more about <a href=\"?id=1449859691976\">Canada's wine industry</a> and its contribution to our economy.</p> \n\n<div class=\"clearfix\"></div>\n\n<section class=\"panel panel-success\">\n<header class=\"panel-heading\">\n<h2 class=\"panel-title\">Get more Agri-info</h2>\n</header>\n \n <div class=\"panel-body\">\n\t <ul>\n<li><b>Want more stories like this?</b> Explore what else <a href=\"\">Agri-info</a> has to offer.</li>\n<li><b>Interested in reporting on this story?</b> Contact AAFC Media Relations at <a href=\"mailto:aafc.mediarelations-relationsmedias.aac@canada.ca\">aafc.mediarelations-relationsmedias.aac@canada.ca</a> to arrange an interview with one of our experts.</li>\n<li><b>Have a story idea or feedback to share?</b> Get in touch at <a href=\"mailto:aafc.agri-info.aac@canada.ca\">aafc.agri-info.aac@canada.ca</a>!</li>\n<li><b>Never miss an update.</b> <a href=\"https://pab-dgab-aafc-aac.microsoftcrmportals.com/subscription/\">Subscribe</a> to Agri-info today.</li>\n\t </ul>\n </div>\n</section>\n\r\n    ",
        "fr": "\r\n    <p><img src=\"https://multimedia.agr.gc.ca/pack/img/agri-info_BCWine_Month2sm.jpg\" alt=\"\" class=\"pull-right mrgn-lft-lg img-responsive thumbnail mrgn-bttm-sm\"></p> \n\n <p>Comme les terres o\u00f9 est cultiv\u00e9 le raisin, chaque bouteille de vin de la  Colombie-Britannique procure une exp\u00e9rience unique et extraordinaire. En ce  mois du vin de la Colombie-Britannique, il est  important de savoir que la majeure partie du raisin utilis\u00e9 dans les  \u00e9tablissements vinicoles du Canada vient du sud de la Colombie-Britannique et  de l\u2019Ontario, o\u00f9 les \u00e9t\u00e9s ensoleill\u00e9s c\u00e8dent la place \u00e0 de longs automnes  chauds.</p>\n <p>Comme dans les r\u00e9gions vinicoles \u00e0 climat frais de la Nouvelle-Z\u00e9lande,  de l\u2019Allemagne et de certaines parties de la France, ces r\u00e9gions du Canada  jouissent d\u2019un climat id\u00e9al pour assurer une lente maturation du raisin, un  long m\u00fbrissement qui cr\u00e9e un go\u00fbt acide-sucr\u00e9 parfaitement \u00e9quilibr\u00e9 dans le  produit fini.</p>\n <p>La magnifique province de la Colombie-Britannique compte plus de 900 vignobles et plus de 300 \u00e9tablissements vinicoles  autoris\u00e9s. La production de vins locaux de qualit\u00e9 pendant des dizaines  d\u2019ann\u00e9es a eu d\u2019importantes retomb\u00e9es pour l\u2019\u00e9conomie de la province.</p>\n\n<div class=\"well well-sm\">\n  <p>Voici d\u2019autres faits int\u00e9ressants sur l\u2019industrie vinicole de la  Colombie-Britannique.</p>\n  <ul>\n    <li>3\u00a0905  hectares de raisins de cuve sont cultiv\u00e9s dans la province.</li>\n    <li>Plus de  60\u00a0vari\u00e9t\u00e9s de raisin sont produites, dont le pinot gris, le merlot, le pinot  noir et le chardonnay.</li>\n    <li>Les ventes de  produits manufacturiers des \u00e9tablissements vinicoles de la province comptent \u00e0  elles seules pour 47\u00a0% de toutes les ventes de produits manufacturiers des  \u00e9tablissements vinicoles de tout le Canada.</li>\n    <li>Les  ventes de produits manufacturiers des \u00e9tablissements vinicoles britanno-colombiens ont augment\u00e9 de 50\u00a0% depuis\u00a02015.  Elles ont \u00e9t\u00e9 \u00e9valu\u00e9es \u00e0 736\u00a0millions de dollars en 2020. </li>\n  <li>L\u2019industrie vinicole de la Colombie-Britannique emploie plus de 12\u00a0000\u00a0personnes.</li>\n  </ul>\n</div>\n\n<p>C\u00e9l\u00e9brez le  mois du vin de la Colombie-Britannique et contribuez \u00e0 la croissance de ce secteur  florissant de l\u2019\u00e9conomie canadienne en allant acheter votre vin  britanno-colombien favori dans un magasin local.</p>\n\n<p>Apprenez-en plus sur l\u2019<a href=\"?id=1449859691976\">industrie canadienne du  vin</a> et sa  contribution \u00e0 notre \u00e9conomie.</p>\n\n\n\n<section class=\"panel panel-success\">\n  <header class=\"panel-heading\">\n  <h2 class=\"panel-title\">Plus d\u2019Agri-info</h2>\n </header>\n <div class=\"panel-body\">\n<ul>\n<li><b>Vous voulez plus d'histoires comme celles-ci?</b> D\u00e9couvrez tout  ce qu'<a href=\"?id=1419351635969\">Agri-info</a> a \u00e0 vous offrir.</li>\n<li><b>Vous souhaitez faire un reportage sur l'une de nos  histoires?</b> Communiquez  avec l\u2019\u00e9quipe des Relations avec les m\u00e9dias d'AAC \u00e0 l'adresse <a href=\"mailto:aafc.mediarelations-relationsmedias.aac@canada.ca\">aafc.mediarelations-relationsmedias.aac@canada.ca</a> pour obtenir une  entrevue avec l'un de nos experts.</li>\n<li><b>Vous avez une id\u00e9e d'histoire ou des commentaires \u00e0  partager?</b> Communiquez  avec nous \u00e0 l'adresse <a href=\"mailto:aafc.agri-info.aac@canada.ca\">aafc.agri-info.aac@canada.ca</a>!</li>\n<li><b>Soyez \u00e0 l'aff\u00fbt.</b> <a href=\"https://pab-dgab-aafc-aac.microsoftcrmportals.com/subscription_F/\">Abonnez-vous</a> \u00e0 Agri-info d\u00e8s  aujourd'hui.</li>\n</ul>\n </div>\n</section>\n\r\n    "
    }
}