{
    "dcr_id": "1620074360851",
    "title": {
        "en": "Mandatory Isolation Support for Temporary Foreign Workers Program: 3-Day Hotel Quarantine Stream: Annex A: How to complete the application form",
        "fr": "Programme d\u2019aide pour l\u2019isolement obligatoire des travailleurs \u00e9trangers temporaires : Volet P\u00e9riode d\u2019isolement de 3 jours dans un h\u00f4tel : Annexe A : Comment remplir le formulaire de demande"
    },
    "modified": "2021-05-17",
    "issued": "2021-05-17",
    "templatetype": "content page 1 column",
    "page_type": "0",
    "node_id": "1620734297596",
    "dc_date_created": "2021-05-17",
    "managing_branch": "PAB",
    "parent_node_id": "",
    "short_title": "Annex A: How to complete the application form",
    "exturl": "",
    "teamsite_location": {
        "en": "/default/main/AAFC-AAC/Internet-Internet/Group-Ensemble/ProgServ-ProgServ/WORKAREA/ProgServ-ProgServ/templatedata/comm-comm/gene-gene/data/05/mistfwp_stream2_5-annex_1620074360851_en",
        "fr": "/default/main/AAFC-AAC/Internet-Internet/Group-Ensemble/ProgServ-ProgServ/WORKAREA/ProgServ-ProgServ/templatedata/comm-comm/gene-gene/data/05/mistfwp_stream2_5-annex_1620074360851_fr"
    },
    "type_name": "comm-comm/gene-gene",
    "has_dcr_id": true,
    "label": {
        "en": "Annex A: How to complete the application form",
        "fr": "Annexe A : Comment remplir le formulaire de demande"
    },
    "breadcrumb": {
        "en": "Annex A: How to complete the application form",
        "fr": "Annexe A : Comment remplir le formulaire de demande"
    },
    "layout_name": "content page 1 column",
    "lang": "en",
    "refaire": false,
    "meta": {
        "viewport": {
            "en": "width=device-width,initial-scale=1",
            "fr": "width=device-width, initial-scale=1"
        },
        "issued": {
            "en": "2021-05-17",
            "fr": "2021-05-17"
        },
        "modified": {
            "en": "2021-05-17",
            "fr": "2021-05-17"
        },
        "format": {
            "en": "text/html",
            "fr": "text/html"
        },
        "title": {
            "en": "Mandatory Isolation Support for Temporary Foreign Workers Program: 3-Day Hotel Quarantine Stream: Annex A: How to complete the application form",
            "fr": "Programme d\u2019aide pour l\u2019isolement obligatoire des travailleurs \u00e9trangers temporaires : Volet P\u00e9riode d\u2019isolement de 3 jours dans un h\u00f4tel : Annexe A : Comment remplir le formulaire de demande"
        },
        "subject": {
            "en": "aafcsubject",
            "fr": "aafcsubject"
        },
        "dcterms:subject": {
            "en": "labour;agricultural workers",
            "fr": "information gouvernementale"
        },
        "description": {
            "en": "Annex A: How to complete the application form. To download and open a PDF form, you need to have. Your application cannot be processed without it.Note: when entering the Business Number, ensure to enter all 15 characters of the Business Number.",
            "fr": "Annexe A : Comment remplir le formulaire de demande. . Adobe offre des. solutions aux principaux probl\u00e8mes d'affichage. Le formulaire n\u2019accepte pas les formats de num\u00e9ro d\u2019entreprise non valides.S\u00e9lectionnez l\u2019identifiant d\u2019industrie du demandeur en utilisant le menu d\u00e9roulant.Section 2 : D\u00e9tails du projet."
        },
        "language": {
            "en": "eng",
            "fr": "fra"
        },
        "keywords": {
            "en": "Quarantine;process.Only one",
            "fr": "Chrome;Canada.Si;valides.S\u00e9lectionnez lidentifiant dindustrie"
        },
        "audience": {
            "en": "gcaudience",
            "fr": "gcaudience"
        },
        "type": {
            "en": "program-service description",
            "fr": "description du programme ou du service"
        },
        "creator": {
            "en": "Agriculture and Agri-Food Canada;Government of Canada",
            "fr": "Agriculture et Agroalimentaire Canada;Gouvernement du Canada"
        },
        "spatial": {
            "en": "gcregions",
            "fr": "gcregions"
        },
        "service": {
            "en": "AAFC-AAC",
            "fr": "AAFC-AAC"
        },
        "accessRights": {
            "en": "2",
            "fr": "2"
        },
        "legalName": {
            "en": "agriculture_and_agri_food_canada",
            "fr": "agriculture_et_agroalimentaire_canada"
        },
        "areaServed": {
            "en": "Canada",
            "fr": "Canada"
        }
    },
    "h1": {
        "en": "Mandatory Isolation Support for Temporary Foreign Workers Program: 3-Day Hotel Quarantine Stream: Annex A: How to complete the application form",
        "fr": "Programme d\u2019aide pour l\u2019isolement obligatoire des travailleurs \u00e9trangers temporaires : Volet P\u00e9riode d\u2019isolement de 3 jours dans un h\u00f4tel : Annexe A : Comment remplir le formulaire de demande"
    },
    "js": {
        "en": "",
        "fr": ""
    },
    "body": {
        "en": "\r\n    <h2>Annex A: How to complete the application form</h2>\n\n<p>If you wish to apply for funding for costs associated to both the <a href=\"?id=1588186409721#toc4\">14-Day Isolation Period Stream</a> and the 3-Day Hotel Quarantine Stream, you must complete a separate application form under each stream.  The application process is the same for each stream.</p>\n\n<section class=\"alert alert-info\">\n\t<h4>Applying in Prince Edward Island</h4>\n\t<p>Details on applications for the 3-Day Hotel Quarantine Stream will be available in the coming weeks.</p>\n</section>\n\n\n<nav>\n<h2>Table of contents</h2>\n\n<ul class=\"list-unstyled\">\n<li><a href=\"#toc1\">Application deadline</a></li>\n<li><a href=\"#toc2\">Eligibility criteria</a></li>\n<li><a href=\"#toc3\">Application form instructions</a>\n<ul>\n <li><a href=\"#toc3.1\">Section 1: Applicant information</a></li>\n <li><a href=\"#toc3.2\">Section 2: Project details</a></li>\n <li><a href=\"#toc3.3\">Section 3: Other project information</a></li>\n <li><a href=\"#toc3.4\">Section 4: Declaration and signature page</a></li>\n</ul>\n</li>\n</ul>\n</nav>\n\n<h2 id=\"toc1\">Application deadline</h2>\n\n<p>Applications to the program will be accepted until 6:00\u00a0p.m.\u00a0EST, August\u00a031, 2021.</p>\n\n<h2 id=\"toc2\">Eligibility criteria</h2>\n<p>Before you begin your application form, decide if you meet the eligibility criteria detailed in <a href=\"?id=1620074352659#toc2\">Section 2</a> of the Mandatory Isolation Support for Temporary Foreign Workers Program: 3-Day Quarantine Stream <a href=\"?id=1620074352659\">Applicant guide</a>.</p>\n\n<section>\n<h2 id=\"toc3\">Application form instructions</h2>\n\n<section class=\"mrgn-tp-lg\" id=\"pdfforms\">\n<div class=\"alert alert-warning\">\n\n<h3>PDF forms</h3>\n\n<p>If you have problems opening a PDF form in your Internet browser, you need to:</p>\n<ul class=\"mrgn-tp-md\">\n <li>Use your computer. <strong>The forms may not open on mobile devices (iPads, tablets, mobile phones)</strong>.</li>\n <li>Make sure you have Adobe Reader 11 (or higher) already installed on your computer. If not, download <a href=\"http://get.adobe.com/reader/otherversions/\" rel=\"external\">Adobe Reader 11 or higher</a> for free. Adobe has help for <a href=\"https://helpx.adobe.com/ca/acrobat/kb/cant-view-pdf-web.html\" rel=\"external\">solving common issues</a>.</li>\n <li>You <strong>must save the file on your computer</strong> in a place you can remember.</li>\n<li>Open the file on your computer using <a href=\"http://get.adobe.com/reader/otherversions/\" rel=\"external\">Adobe Reader 11 or higher</a>.</li>\n<li>If you can\u2019t open the form with Adobe Reader 11 or higher, <a href=\"?id=1620074367356\">contact the program</a>.</li>\n</ul>\n\n\n  <h6 class=\"lead mrgn-bttm-0\">How to download and open a PDF form</h6>\n\n\n<ul class=\"list-unstyled\">\n\n\n\t<li>\n<details class=\"mrgn-tp-sm\">\n  <summary>Microsoft Windows Operating System computers using \u201cInternet Explorer\u201d or \u201cMicrosoft Edge\u201d as your browser</summary>\n  <ol>\n   <li>Right-click on the link you want to save</li>\n   <li>Select \u201cSave target as\u201d or \u201cSave link as\u201d</li>\n   <li>Choose the location on your computer where you would like to save the file</li>\n   <li>Select \u201cSave\u201d</li>\n   <li>Open Adobe Reader 11 or higher</li>\n   <li>Select \u201cFile\u201d</li> \n   <li>Select \u201cOpen\u201d</li>\n   <li>Go to the location where you saved the file</li> \n   <li>Select the PDF file</li>\n   <li>Select \u201cOpen\u201d</li>\n  </ol>\n  </details>\n</li>\n\n<li>\n<details class=\"mrgn-tp-sm\">\n<summary>Microsoft Windows Operating System or Apple computers using \u201cChrome\u201d or Firefox\u201d as your browser</summary>\n  <ol>\n   <li>Right-click on the link you want to save</li>\n   <li>When the option menu appears, choose \"Download link file\" or \"Download link file as\"</li>\n   <li>Choose the location on your computer where you would like to save the file. Your computer will start the download once you have selected a location.</li>\n<li>Open Adobe Reader 11 or higher</li>\n   <li>Go to the location where you saved the file</li> \n   <li>Select the PDF file</li>\n   <li>Select \u201cOpen\u201d</li>\n  </ol>\n  </details>\n</li>\n</ul>\n\n</div>\n</section>\n\n<div class=\"well\">\n\n<h3 class=\"mrgn-tp-0\">Form instructions</h3>\n<ul class=\"list-unstyled\">\n<li>All mandatory fields must be completed and all questions must be answered in order for the form to be considered complete.</li>\n<li class=\"mrgn-tp-md\"><b>Ensure your application can be processed as quickly as possible</b>\n<ul>\n<li>fill in the form electronically (enter your answers into the fields)</li>\n<li>email the form to Agriculture and Agri-Food Canada</li>\n</ul>\n</li>\n\n<li class=\"mrgn-tp-md\">Hand written and/or mailed or faxed forms will take longer to process.</li>\n<li class=\"mrgn-tp-md\">Only one (1) application can be submitted per applicant. </li>\n<li class=\"mrgn-tp-md\"><strong>If changes are required to an already submitted application, or you wish to withdraw an application, do not resubmit a new application form</strong>, please <a href=\"?id=1620074367356\">contact the program</a>.</li>\n<li class=\"mrgn-tp-md\">Applicants will receive an acknowledgement within three (3) business days for email applications. If you choose to submit your <a href=\"https://multimedia.agr.gc.ca/pack/pdf/a9467-eng.pdf\">application form (PDF)</a> by mail or fax, it could take longer to receive your confirmation.</li>\n</ul>\n</div>\n\n<h3 id=\"toc3.1\">Section 1: Applicant information</h3>\n<h4>Applicant type, name, mailing address and email address</h4>\n<p>Select the applicable Applicant Type. The Applicant Type will affect some of the selections available in other fields.</p>\n<h4>Name and address of signing authority </h4>\n<p>Enter the name and address of signing authority if different from applicant name and address above. Use the checkbox to use the same address as the Applicant.</p>\n<h4>Additional Applicant information</h4>\n<p>Enter the Business Number or Trust Number.</p>\n\n<p><strong>The Business Number is mandatory for all applicants other than Trusts. Your application cannot be processed without it.</strong></p>\n<p>Note: when entering the Business Number, ensure to enter all 15 characters of the Business Number. The form will not accept invalid Business Number formats. </p>\n<p>Enter the Applicant Industry group using the drop down options.</p>\n\n\n<h3 id=\"toc3.2\">Section 2: Project details</h3>\n<p>Provide responses to all questions in this section.</p>\n<h4>Eligible activities</h4>\n\n<p>Select all  incremental costs that you incurred associated with the temporary foreign  worker\u2019s mandatory 3-day hotel quarantine period.</p>\n<p>Indicate if the  Applicant is submitting a separate application for incremental costs associated  with the mandatory 14-isolation period and provide responses to all questions  in this section.</p>\n<h4>Temporary Foreign Worker information</h4>\n<p>Enter the total  number of temporary foreign workers hired or who will be hired between March  21, 2021 and August 31, 2021.</p>\n<p>The maximum 3-Day Hotel Quarantine Stream contribution will be automatically  calculated. If the anticipated expenses related to the mandatory 3-day hotel  quarantine of temporary foreign workers will be less than the maximum  contribution calculated, enter the anticipated expenses. </p>\n<p>Indicate if the  Applicant anticipates having expenses greater than or equal to the Maximum  Benefit Request.</p>\n<h3 id=\"toc3.3\">Section 3: Other project information </h3>\n<p>Enter any  unpaid debts to the Government of Canada in this section. If there are no  unpaid debts to the Government of Canada, select 'no'.</p>\n<p>Enter details  of any paid lobbyists working on the applicant\u2019s behalf in this section. If  there are no lobbyists working on the applicant\u2019s behalf, select 'no'.</p>\n<h4>Voluntary information</h4>\n<p>This section is voluntary and will not impact the processing of the application.</p>\n\n<h3 id=\"toc3.4\">Section 4: Declaration and signature page</h3>\n<p>Please read the declaration and check the three (3) mandatory declaration checkboxes. The applicant should complete the name and date fields.</p>\n<p>Once the application has been completed, select the submit button. An email should automatically generate with the program\u2019s email address and the application as an attachment. If the email does not automatically generate, please save the form on your computer and email the completed form to <a href=\"mailto:aafc.misp3-dayquaratinepaioquarantainede3jours.aac@canada.ca\">aafc.misp3-dayquaratinepaioquarantainede3jours.aac@canada.ca</a>.</p>\n</section>\n\n <h2>Contact information</h2>\n<p>For more information on the Mandatory Isolation Support for Temporary  Foreign Workers Program: 3-Day Hotel Quarantine Stream, please contact the  program by:</p>\n<dl>\n  <dt>Mail</dt>\n<dd>Agriculture and Agri-Food Canada<br>\nMandatory Isolation Support for Temporary Foreign Workers Program<br>\n1341 Baseline Road<br>\nTower 7, 7th floor<br>\nOttawa ON K1A 0C5</dd>\n\n<dt>Email:</dt> <dd><a href=\"mailto:aafc.misp3-dayquaratinepaioquarantainede3jours.aac@canada.ca\">aafc.misp3-dayquaratinepaioquarantainede3jours.aac@canada.ca</a></dd>\n<dt>Telephone:</dt> <dd>1-877-246-4682</dd>\n<dt>Fax:</dt> <dd>1-877-949-4885</dd>\n</dl>\n\r\n    ",
        "fr": "\r\n    <h2>Annexe A : Comment remplir le formulaire de demande</h2>\n\n<p>Si vous souhaitez demander du financement pour  les frais li\u00e9s \u00e0 la fois \u00e0 la p\u00e9riode d\u2019isolement de 3 jours dans un h\u00f4tel et \u00e0  la <a href=\"?id=1588186409721#toc4\">p\u00e9riode d\u2019isolement de 14\u00a0jours</a>, vous devrez remplir un formulaire de demande distinct  pour chaque volet. Le processus de demande reste le m\u00eame pour chaque volet.</p>\n\n<section class=\"alert alert-info\">\n  <h4>Pr\u00e9senter une demande dans la province de l\u2019\u00cele-du-Prince-\u00c9douard</h4>\n<p>Des d\u00e9tails suppl\u00e9mentaires concernant les demandes au titre du volet P\u00e9riode d\u2019isolement de 3 jours dans un h\u00f4tel seront disponibles dans les semaines \u00e0 venir.</p>\n</section>\n\n\n<nav>\n<h2>Table des mati\u00e8res</h2>\n\n<ul class=\"list-unstyled\">\n<li><a href=\"#toc1\">Dates limites de r\u00e9ception des demandes</a></li>\n<li><a href=\"#toc2\">Crit\u00e8res d\u2019admissibilit\u00e9</a></li>\n<li><a href=\"#toc3\">Demande d\u2019\u00e9valuation : instructions </a>\n<ul>\n <li><a href=\"#toc3.1\">Section 1 : Renseignements sur le demandeur</a></li>\n <li><a href=\"#toc3.2\">Section 2 : D\u00e9tails du projet</a></li>\n <li><a href=\"#toc3.3\">Section 3 : Autres renseignements sur le projet</a></li>\n <li><a href=\"#toc3.4\">Section 4 : D\u00e9clarations et page de signature</a></li>\n</ul>\n</li>\n</ul>\n</nav>\n\n<h2 id=\"toc1\">Dates limites de r\u00e9ception des demandes</h2>\n\n<p>Les demandes de participation au titre du programme seront accept\u00e9es jusqu'\u00e0 18:00 h (HAE) le 31 ao\u00fbt 2021.</p>\n\n<h2 id=\"toc2\">Crit\u00e8res d\u2019admissibilit\u00e9</h2>\n<p>Commencez par d\u00e9terminer si votre  organisme et les activit\u00e9s qui y sont men\u00e9es satisfont aux crit\u00e8res  d\u2019admissibilit\u00e9 d\u00e9taill\u00e9s aux <a href=\"?id=1620074352659#toc2\">section 2</a> du <a href=\"?id=1620074352659\">Guide du demandeur</a> du Programme d\u2019aide pour l\u2019isolement  obligatoire des travailleurs \u00e9trangers temporaires\u00a0: volet P\u00e9riode d\u2019isolement de 3  jours dans un h\u00f4tel. </p>\n<section>\n  <h2 id=\"toc3\">Demande d\u2019\u00e9valuation : instructions</h2>\n\n\n<section class=\"mrgn-tp-lg\" id=\"pdfforms\">\n<div class=\"alert alert-warning\">\n <h5>Formulaires en format PDF</h5>\n<p>Si vous avez de la difficult\u00e9 \u00e0 ouvrir un formulaire PDF dans votre navigateur Internet, vous devez\u00a0:</p>\n<ul class=\"mrgn-tp-md\">\n <li>utiliser votre ordinateur. <strong>Il est possible que les formulaires ne s'ouvrent pas sur des appareils mobiles (iPad, tablettes, t\u00e9l\u00e9phones cellulaires)</strong>.</li>\n <li>vous assurer que la version 11 (ou une version ult\u00e9rieure) d'Adobe Reader est d\u00e9j\u00e0 install\u00e9e sur votre ordinateur. Si ce n'est pas le cas, t\u00e9l\u00e9chargez gratuitement <a href=\"http://get.adobe.com/fr/reader/otherversions/\" rel=\"external\">Adobe Reader 11 ou une version ult\u00e9rieure</a>. Adobe offre des <a href=\"https://helpx.adobe.com/fr/acrobat/kb/cant-view-pdf-web.html\" rel=\"external\">solutions aux principaux probl\u00e8mes d'affichage</a>;</li>\n <li><strong>sauvegarder le fichier sur votre ordinateur</strong> \u00e0 un endroit dont vous vous souviendrez;</li>\n <li>ouvrir le fichier sur votre ordinateur \u00e0 l'aide d'<a href=\"http://get.adobe.com/fr/reader/otherversions/\" rel=\"external\">Adobe Reader 11 ou une version ult\u00e9rieure</a>.</li>\n <li>Si vous ne parvenez pas \u00e0 ouvrir le formulaire avec Adobe Reader 11 ou une version ult\u00e9rieure, <a href=\"?id=1620074367356\">veuillez contacter le programme</a>.</li>\n</ul>\n\n\n  <h6 class=\"lead mrgn-bttm-0\">Comment t\u00e9l\u00e9charger et ouvrir un formulaire au format PDF</h6>\n \n\n<ul class=\"list-unstyled\">\n\t<li>\n<details class=\"mrgn-tp-sm\">\n  <summary>Les ordinateurs utilisant le syst\u00e8me d'exploitation Microsoft Windows et se servant de \"Internet Explorer\" ou \"Microsoft Edge\" comme fureteur</summary>\n   <ol>\n   <li>Cliquez sur le lien que vous voulez enregistrer avec le bouton droit de la souris;</li>\n   <li>S\u00e9lectionnez \u00ab\u00a0Enregistrer la cible sous\u00a0\u00bb ou \u00ab\u00a0Enregistrer le lien sous\u00a0\u00bb;</li>\n   <li>Choisissez l'emplacement o\u00f9 vous souhaitez enregistrer le fichier sur votre ordinateur;</li>\n   <li>S\u00e9lectionnez \u00ab\u00a0Enregistrer\u00a0\u00bb;</li>\n   <li>Ouvrissiez Adobe Reader 11 ou une version ult\u00e9rieure;</li>\n   <li>S\u00e9lectionnez \u00ab\u00a0Fichier\u00a0\u00bb;</li>\n   <li>S\u00e9lectionnez \u00ab\u00a0Ouvrez\u00a0\u00bb;</li>\n   <li>Acc\u00e9dez \u00e0 l'emplacement o\u00f9 vous avez enregistr\u00e9 le fichier;</li>\n   <li>Choisissez le formulaire PDF;</li>\n   <li>S\u00e9lectionnez \u00ab\u00a0Ouvrez\u00a0\u00bb.</li>\n  </ol>\n  </details>\n</li>\n\n<li>\n<details class=\"mrgn-tp-sm\">\n<summary>Les ordinateurs utilisant le syst\u00e8me d'exploitation Microsoft Windows ou Apple et se servant de \"Chrome\" ou \"Firefox\" comme fureteur</summary>\n    <ol>\n   <li>Cliquez sur le lien que vous voulez enregistrer avec le bouton droit de la souris;</li>\n   <li>Quand le menu d'options s'affiche, s\u00e9lectionnez \"T\u00e9l\u00e9charger le fichier li\u00e9\" ou \"T\u00e9l\u00e9charger le fichier li\u00e9 sous\"</li>\n   <li>Choisissez l'emplacement o\u00f9 vous souhaitez enregistrer le fichier sur votre ordinateur. Le t\u00e9l\u00e9chargement commencera une fois que vous aurez choisi un emplacement;</li>\n <li>Ouvrissiez Adobe Reader 11 ou une version ult\u00e9rieure;</li>\n   <li>Acc\u00e9dez \u00e0 l'emplacement o\u00f9 vous avez enregistr\u00e9 le fichier;</li>\n   <li>Choisissez le formulaire PDF;</li>\n   <li>S\u00e9lectionnez \u00ab\u00a0Ouvrez\u00a0\u00bb.</li>\n  </ol>\n  </details>\n</li>\n</ul>\n\n</div>\n</section>\n<div class=\"well\">\n\n<h3 class=\"mrgn-tp-0\">Demande : instructions</h3>\n<ul class=\"list-unstyled\">\n   <li>Il faut remplir tous les champs obligatoires       et r\u00e9pondre \u00e0 toutes les questions pour que le formulaire soit consid\u00e9r\u00e9       comme complet.</li>\n   <li><strong>Assurez-vous que votre demande peut \u00eatre     trait\u00e9e le plus rapidement possible\u00a0:</strong>\n   <ul>\n     <li>remplissez le formulaire par voie        \u00e9lectronique (entrez vos r\u00e9ponses dans les champs);</li>\n     <li>envoyer le formulaire par courriel \u00e0        Agriculture et Agroalimentaire Canada.</li>\n   </ul>\n   </li>\n   <li>Si vous choisissez d\u2019envoyer votre formulaire       par la poste ou par t\u00e9l\u00e9copieur, votre formulaire pourrait prendre plus de       temps \u00e0 \u00eatre trait\u00e9.</li>\n\n   <li>Vous ne pouvez pr\u00e9senter qu\u2019une (1) seule       demande.</li>\n\n   <li><strong>Si vous souhaitez modifier ou retirer une       demande d\u00e9j\u00e0 transmise, ne remplissez pas un nouveau formulaire de demande</strong> et <a href=\"?id=1620074367356\">contactez le programme</a>.</li>\n\n   <li>Si vous envoyez votre formulaire par courriel, vous recevrez un accus\u00e9 de r\u00e9ception dans un d\u00e9lai de trois (3)  jours ouvrables. Si vous choisissez d\u2019envoyer votre <a href=\"https://multimedia.agr.gc.ca/pack/pdf/a9467-fra.pdf\">formulaire de demande (PDF)</a> par la poste    ou par t\u00e9l\u00e9copieur, la confirmation pourrait prendre plus de temps.</li>\n</ul>\n \n</div>\n\n<h3 id=\"toc3.1\">Section 1 : Renseignements sur le demandeur</h3>\n<h4>Type de demandeur, nom, adresse postale et adresse \u00e9lectronique</h4>\n<p>S\u00e9lectionnez le type de demandeur qui s\u2019applique. Le type de demandeur d\u00e9terminera les choix disponibles dans les autres champs.</p>\n<h4>Nom et adresse du signataire autoris\u00e9</h4>\n<p>Indiquez le nom et l\u2019adresse du signataire autoris\u00e9 s\u2019ils sont diff\u00e9rents du nom et de l\u2019adresse du demandeur. Cochez la case pour utiliser la m\u00eame adresse que celle du demandeur.</p>\n\n<h4>Autres renseignements sur le demandeur</h4>\n<p>Indiquez le num\u00e9ro d\u2019entreprise ou le num\u00e9ro de fiducie.</p>\n\n<p><strong>Le num\u00e9ro d\u2019entreprise est obligatoire pour tous les demandeurs autres que les fiducies. Votre demande ne peut pas \u00eatre trait\u00e9e sans le num\u00e9ro d\u2019entreprise.</strong></p>\n<p>Remarque\u00a0: lorsque vous entrez le  num\u00e9ro d\u2019entreprise, assurez-vous d\u2019entrer tous les 15 caract\u00e8res. Le  formulaire n\u2019accepte pas les formats de num\u00e9ro d\u2019entreprise non valides.</p>\n\n<p>S\u00e9lectionnez l\u2019identifiant d\u2019industrie du  demandeur en utilisant le menu d\u00e9roulant.</p>\n\n<h3 id=\"toc3.2\">Section 2 : D\u00e9tails du projet</h3>\n<p>Veuillez r\u00e9pondre \u00e0 toutes les questions de cette section.</p>\n<h4>Activit\u00e9s admissibles</h4>\n\n<p>S\u00e9lectionnez tous les co\u00fbts  suppl\u00e9mentaires engag\u00e9s en raison de la p\u00e9riode d\u2019isolement obligatoire de 3  jours dans un h\u00f4tel impos\u00e9e aux travailleurs \u00e9trangers temporaires.</p>\n<p>Indiquez si le demandeur pr\u00e9sente  une demande distincte pour les frais suppl\u00e9mentaires li\u00e9s \u00e0 la p\u00e9riode  obligatoire d\u2019isolement de 14 jours et r\u00e9pondez \u00e0 toutes les questions de cette  section.</p>\n\n<h4>Information sur les travailleurs \u00e9trangers temporaires</h4>\n<p>Indiquez le nombre total de travailleurs  \u00e9trangers temporaires qui ont \u00e9t\u00e9 embauch\u00e9s ou qui le seront entre le 21 mars  2021 et le 31 ao\u00fbt 2021.</p>\n<p>La contribution maximale au titre du PAIOTET\u00a0:  Volet P\u00e9riode d\u2019isolement de 3 jours dans un h\u00f4tel sera calcul\u00e9e  automatiquement. Si les d\u00e9penses pr\u00e9vues li\u00e9es \u00e0 l\u2019isolement obligatoire de 3  jours dans un h\u00f4tel des travailleurs \u00e9trangers temporaires sont inf\u00e9rieures \u00e0  la contribution maximale calcul\u00e9e, indiquez les d\u00e9penses pr\u00e9vues.</p>\n\n<p>Indiquez si  le demandeur pr\u00e9voit avoir des d\u00e9penses sup\u00e9rieures ou \u00e9gales \u00e0 la demande de  prestation maximale.</p>\n<h3 id=\"toc3.3\">Section 3 : Autres renseignements sur le projet</h3>\n<p>Inscrivez dans cette section toute dette  non rembours\u00e9e au gouvernement du Canada. S\u2019il n\u2019y a aucune dette non  rembours\u00e9e au gouvernement du Canada, s\u00e9lectionnez non.<br>\n  Inscrivez dans cette section les d\u00e9tails  de tout lobbyiste r\u00e9mun\u00e9r\u00e9 qui travaille au nom du demandeur. Si aucun  lobbyiste ne travaille pour le compte du demandeur, s\u00e9lectionnez non.</p>\n<h4>Renseignements volontaires</h4>\n<p>Cette section est facultative et n\u2019aura aucune incidence sur le traitement de la demande.</p>\n\n<h3 id=\"toc3.4\">Section 4 : D\u00e9clarations et page de signature</h3>\n<p>Veuillez lire la d\u00e9claration et cocher les  trois (3) cases obligatoires. Le signataire autoris\u00e9 du demandeur doit indiquer  son nom et la date.<br>\n  Une fois la demande remplie, cliquez sur  le bouton \u00ab\u00a0soumettre\u00a0\u00bb. Un courriel devrait \u00eatre g\u00e9n\u00e9r\u00e9  automatiquement avec l\u2019adresse \u00e9lectronique du programme dans le champ du  destinataire et le formulaire de demande en pi\u00e8ce jointe. Si le courriel n\u2019est  pas g\u00e9n\u00e9r\u00e9 automatiquement, veuillez envoyer le formulaire d\u00fbment rempli par courriel  \u00e0 l\u2019adresse <a href=\"mailto:aafc.misp3-dayquaratinepaioquarantainede3jours.aac@canada.ca\">aafc.misp3-dayquaratinepaioquarantainede3jours.aac@canada.ca</a></p>\n</section>\n\n <h2>Pour nous joindre</h2>\n\n<p>For more information on the Mandatory Isolation Support for Temporary  Foreign Workers Program: 3-Day Hotel Quarantine Stream, please contact the  program by:</p>\n\n<p><b>Mail</b>\n\n</p><p>Agriculture et Agroalimentaire Canada<br>\nProgramme d'aide pour l'isolement obligatoire des travailleurs \u00e9trangers temporaires<br>\n1341 chemin Baseline<br>\nTour 7, 7e \u00e9tage<br>\nOttawa (Ontario) K1A 0C5</p>\n\n<p><b>Email:</b> <a href=\"mailto:aafc.misp3-dayquaratinepaioquarantainede3jours.aac@canada.ca\">aafc.misp3-dayquaratinepaioquarantainede3jours.aac@canada.ca</a></p>\n\n<p><b>Telephone:</b> 1-877-246-4682</p>\n<p><b>Fax:</b> 1-877-949-4885</p>\n\r\n    "
    }
}