{
    "dcr_id": "1621967613357",
    "title": {
        "en": "2021 priority \u2013 Integrated Pest Management",
        "fr": "Lutte antiparasitaire int\u00e9gr\u00e9e \u2013 Priorit\u00e9s pour 2021"
    },
    "modified": "2021-05-26",
    "issued": "2021-05-26",
    "templatetype": "content page 1 column",
    "page_type": "0",
    "node_id": "1535050365039",
    "dc_date_created": "2021-05-26",
    "managing_branch": "PAB",
    "parent_node_id": "",
    "short_title": "",
    "exturl": "",
    "teamsite_location": {
        "en": "/default/main/AAFC-AAC/Internet-Internet/Group-Ensemble/ProgServ-ProgServ/WORKAREA/ProgServ-ProgServ/templatedata/comm-comm/gene-gene/data/05/integrated_pest_management_2021_1621967613357_en",
        "fr": "/default/main/AAFC-AAC/Internet-Internet/Group-Ensemble/ProgServ-ProgServ/WORKAREA/ProgServ-ProgServ/templatedata/comm-comm/gene-gene/data/05/integrated_pest_management_2021_1621967613357_fr"
    },
    "type_name": "comm-comm/gene-gene",
    "has_dcr_id": true,
    "label": {
        "en": "2021 priority \u2013 Integrated Pest Management",
        "fr": "Lutte antiparasitaire int\u00e9gr\u00e9e \u2013 Priorit\u00e9s pour 2021"
    },
    "breadcrumb": {
        "en": "2021 priority \u2013 Integrated Pest Management",
        "fr": "Lutte antiparasitaire int\u00e9gr\u00e9e \u2013 Priorit\u00e9s pour 2021"
    },
    "layout_name": "content page 1 column",
    "lang": "en",
    "refaire": false,
    "meta": {
        "viewport": {
            "en": "width=device-width,initial-scale=1",
            "fr": "width=device-width, initial-scale=1"
        },
        "issued": {
            "en": "2021-05-26",
            "fr": "2021-05-26"
        },
        "modified": {
            "en": "2021-05-26",
            "fr": "2021-05-26"
        },
        "format": {
            "en": "text/html",
            "fr": "text/html"
        },
        "title": {
            "en": "2021 priority \u2013 Integrated Pest Management",
            "fr": "Lutte antiparasitaire int\u00e9gr\u00e9e \u2013 Priorit\u00e9s pour 2021"
        },
        "subject": {
            "en": "aafcsubject",
            "fr": "aafcsubject"
        },
        "dcterms:subject": {
            "en": "agriculture",
            "fr": "agriculture"
        },
        "description": {
            "en": "The. Pest Management Centre. (PMC) is pleased to announce that the new Integrated Pest Management (IPM) priority project has been selected as the result of the merit analyses conducted on the six proposed candidates prioritized by stakeholders at the 2021 Canadian Pest Management Priority Setting Workshops. Entomology. Ontario and. Saskatchewan. Root maggots (. Delia. Integrated Pest Management System. The IPM project will be implemented as a pilot in 2022 and will be jointly coordinated by the PMC\u2019s Pesticide Risk Reduction and the Minor Use Pesticide teams.This project aims to co-develop, evaluate and demonstrate a promising integrated system that combines a variety of available pest control options in the toolbox, including conventional and non-conventional products and practices, into an environmentally sound and economically viable management approach for the target pest and crop.We look forward to collaborate with our provincial partners and grower representatives as we move forward onto the project development stage in the coming months.",
            "fr": "Le. Centre de la lutte antiparasitaire. (CLA) est heureux d\u2019annoncer que le nouveau projet aff\u00e9rent \u00e0 la priorit\u00e9 de lutte antiparasitaire int\u00e9gr\u00e9e\u00a0(LAI) a \u00e9t\u00e9 s\u00e9lectionn\u00e9 \u00e0 la suite d\u2019analyses du bien\u2011fond\u00e9 effectu\u00e9es pour les six candidats propos\u00e9s dont l\u2019ordre de priorit\u00e9 a \u00e9t\u00e9 \u00e9tabli par les intervenants lors des ateliers sur l\u2019\u00e9tablissement des priorit\u00e9s en mati\u00e8re de lutte antiparasitaire au Canada de 2021. Ravageur cibl\u00e9. (Nom scientifique). Culture(s) cibl\u00e9(es). Type de projet. ,D.\u00a0platura. et. D.\u00a0florilega."
        },
        "language": {
            "en": "eng",
            "fr": "fra"
        },
        "keywords": {
            "en": "spp.Entomology;spp.apple",
            "fr": "B.Mot"
        },
        "audience": {
            "en": "gcaudience",
            "fr": "gcaudience"
        },
        "type": {
            "en": "article",
            "fr": "article"
        },
        "creator": {
            "en": "Agriculture and Agri-Food Canada;Government of Canada",
            "fr": "Agriculture et Agroalimentaire Canada;Gouvernement du Canada"
        },
        "spatial": {
            "en": "gcregions",
            "fr": "gcregions"
        },
        "service": {
            "en": "AAFC-AAC",
            "fr": "AAFC-AAC"
        },
        "accessRights": {
            "en": "2",
            "fr": "2"
        },
        "legalName": {
            "en": "agriculture_and_agri_food_canada",
            "fr": "agriculture_et_agroalimentaire_canada"
        },
        "areaServed": {
            "en": "Canada",
            "fr": "Canada"
        }
    },
    "h1": {
        "en": "2021 priority \u2013 Integrated Pest Management",
        "fr": "Lutte antiparasitaire int\u00e9gr\u00e9e \u2013 Priorit\u00e9s pour 2021"
    },
    "js": {
        "en": "",
        "fr": ""
    },
    "body": {
        "en": "\r\n    <p>The <a href=\"?id=1466083437376\">Pest Management Centre</a> (PMC) is pleased to announce that the new  Integrated Pest Management (IPM) priority project has been selected as the  result of the merit analyses conducted on the six proposed candidates  prioritized by stakeholders at the 2021 Canadian Pest Management Priority Setting Workshops. This year marked the first time that the PMC  introduced an additional priority selection opportunity inviting stakeholders  to include pest issues in need of a systems based, integrated management  solution approach as part of the national lists and nominate IPM proposals to  address these. The new IPM A project marks the 30<sup>th</sup> priority  selected for support by PMC in 2021.</p>\n\n<p>The merit of the proposed candidates was assessed  by using seven pre-set criteria, including:</p>\n\n<ol class=\"lst-lwr-rmn\">\n\t<li>available tools suitable for  IPM;</li>\n\t<li>scientific capacity within Agriculture and Agri-food Canada to lead  development;</li>\n    <li>economic margins to implement a potential IPM toolkit;</li>\n\t<li>alignment with IR-4 priorities;</li>\n\t<li>relevance of crop and pest;</li>\n\t<li>feasibility and cost of trials; and</li>\n\t<li>likelihood of success for the  project.</li>\n</ol>\n\n<p>In consideration of the results of the merit  analysis conducted by PMC and in consultation with a panel of Provincial Minor  Use Coordinators, we have reached a consensus decision to support the following  project: </p>\n\n<table class=\"table table-bordered\">\n<thead>\n  <tr>\n    <th scope=\"col\">Discipline</th>\n    <th scope=\"col\">Submitting Province(s)</th>\n    <th scope=\"col\">Target Pest<br>(Scientific Name)</th>\n    <th scope=\"col\">Target <span class=\"nowrap\">Crop(s)</span></th>\n    <th scope=\"col\">Project Type</th>\n  </tr>\n</thead>\n<tbody>  \n  <tr>\n    <td>Entomology</td>\n    <td>Ontario and<br>Saskatchewan</td>\n    <td>Root maggots (<i>Delia radicum</i>, <i>D.\u00a0floralis</i>, <i>D.\u00a0planipalpis</i>, <i>D.\u00a0platura</i>, and <i>D.\u00a0florilega</i>)</td>\n    <td>Brassica vegetables</td>\n    <td>Integrated Pest Management System</td>\n  </tr>\n  </tbody>\n</table>\n\n<p>The IPM project will be implemented as a pilot in  2022 and will be jointly coordinated by the PMC\u2019s Pesticide Risk Reduction and  the Minor Use Pesticide teams. </p>\n\n<p>This project aims to co-develop, evaluate and  demonstrate a promising integrated system that combines a variety of available  pest control options in the toolbox, including conventional and  non-conventional products and practices, into an environmentally sound and  economically viable management approach for the target pest and crop.</p>\n\n<p>We look forward to collaborate with our provincial  partners and grower representatives as we move forward onto the project  development stage in the coming months. </p>\n\r\n    ",
        "fr": "\r\n    <p>Le <a href=\"?id=1466083437376\">Centre de la lutte  antiparasitaire</a> (CLA)  est heureux d\u2019annoncer que le nouveau projet aff\u00e9rent \u00e0 la priorit\u00e9 de lutte  antiparasitaire int\u00e9gr\u00e9e\u00a0(LAI) a \u00e9t\u00e9 s\u00e9lectionn\u00e9 \u00e0 la suite d\u2019analyses du  bien\u2011fond\u00e9 effectu\u00e9es pour les six candidats propos\u00e9s dont l\u2019ordre de priorit\u00e9  a \u00e9t\u00e9 \u00e9tabli par les intervenants lors des ateliers sur l\u2019\u00e9tablissement des  priorit\u00e9s en mati\u00e8re de lutte antiparasitaire au Canada de 2021. Cette ann\u00e9e  pour la premi\u00e8re fois, le CLA a offert une occasion suppl\u00e9mentaire de s\u00e9lection  de priorit\u00e9 en invitant les intervenants \u00e0 inclure dans les listes nationales  les probl\u00e8mes li\u00e9s aux ravageurs n\u00e9cessitant une solution de lutte int\u00e9gr\u00e9e  bas\u00e9e sur les syst\u00e8mes et \u00e0 nommer des projets propos\u00e9s de LAI pour les r\u00e9gler.  Le nouveau projet A relatif \u00e0 la LAI constitue la 30<sup>e</sup>\u00a0priorit\u00e9  s\u00e9lectionn\u00e9e aux fins de soutien par le CLA en 2021.</p>\n\n<p>Le  bien fond\u00e9 des candidats propos\u00e9s a \u00e9t\u00e9 \u00e9valu\u00e9 selon sept crit\u00e8res pr\u00e9\u00e9tablis,  soit les suivants\u00a0:</p>\n\n<ol class=\"lst-lwr-rmn\">\n\t<li>les outils disponibles convenant \u00e0 la LAI;</li>\n    <li>la  capacit\u00e9 scientifique pour diriger l\u2019\u00e9laboration au sein d\u2019Agriculture et  Agroalimentaire Canada;</li>\n    <li>les marges \u00e9conomiques pour mettre en \u0153uvre une  \u00e9ventuelle bo\u00eete \u00e0 outils de LAI;</li>\n    <li>la concordance avec les priorit\u00e9s IR 4;</li>\n    <li>la pertinence de la culture et du  ravageur;</li>\n    <li>la faisabilit\u00e9 et le co\u00fbt des essais;</li>\n    <li>la probabilit\u00e9 de  r\u00e9ussite du projet.</li>\n</ol>    \n\n<p>Compte  tenu des r\u00e9sultats de l\u2019analyse du bien\u2011fond\u00e9 r\u00e9alis\u00e9e par le CLA et en consultation  avec un groupe de coordonnateurs provinciaux du Programme des pesticides \u00e0  usage limit\u00e9, nous avons d\u00e9cid\u00e9 par consensus de soutenir le projet  suivant\u00a0: </p>\n\n<table class=\"table table-bordered\">\n<thead>\n  <tr>\n    <th scope=\"col\">Discipline</th>\n    <th scope=\"col\">Province(s)    ayant pr\u00e9sent\u00e9 le projet</th>\n    <th scope=\"col\">Ravageur    cibl\u00e9<br>(Nom    scientifique)</th>\n    <th scope=\"col\"><span class=\"nowrap\">Culture(s)</span> <span class=\"nowrap\">cibl\u00e9(es)</span></th>\n    <th scope=\"col\">Type    de projet</th>\n  </tr>\n</thead>\n<tbody>  \n  <tr>\n    <td>Entomologie</td>\n    <td>Ontario    et<br>Saskatchewan</td>\n    <td>Mouche    des racines (<i>Delia\u00a0radicum</i>, <i>D.\u00a0floralis</i>, <i>D.\u00a0planipalpis</i>, <i>D.\u00a0platura</i> et <i>D.\u00a0florilega</i>)</td>\n    <td>L\u00e9gumes    du genre <i>Brassica</i></td>\n    <td>Syst\u00e8me    de lutte antiparasitaire int\u00e9gr\u00e9e</td>\n  </tr>\n  </tbody>\n</table>\n\n<p>Le  projet de LAI sera mis en \u0153uvre en tant que projet pilote en 2022 et sera  coordonn\u00e9 conjointement par l\u2019\u00e9quipe de r\u00e9duction des risques li\u00e9s aux  pesticides et l\u2019\u00e9quipe responsable des pesticides \u00e0 usage limit\u00e9 du CLA. </p>\n\n<p>Le  projet vise \u00e0 mettre au point conjointement un syst\u00e8me int\u00e9gr\u00e9 prometteur  combinant une vari\u00e9t\u00e9 d\u2019options de lutte antiparasitaire accessibles dans la  bo\u00eete \u00e0 outils, y compris des pratiques et des produits conventionnels et  non\u00a0conventionnels, s\u2019inscrivant dans une approche de lutte respectueuse  de l\u2019environnement et \u00e9conomiquement viable visant l\u2019organisme nuisible et la  culture cibl\u00e9s, ainsi qu\u2019\u00e0 \u00e9valuer ce syst\u00e8me et \u00e0 en faire la d\u00e9monstration.</p>\n\n<p>Nous  sommes impatients de collaborer avec nos partenaires provinciaux ainsi qu\u2019avec  les repr\u00e9sentants des producteurs alors que nous passerons \u00e0 l\u2019\u00e9tape de  l\u2019\u00e9laboration du projet au cours des prochains mois. </p>\n\r\n    "
    }
}