{
    "dcr_id": "1360876327795",
    "title": {
        "en": "Agricultural practices",
        "fr": "Pratiques agricoles"
    },
    "modified": "2020-02-18",
    "issued": "2013-02-21",
    "templatetype": "content page 1 column",
    "page_type": "1",
    "node_id": "1354137773725",
    "dc_date_created": "2013-02-21",
    "managing_branch": "PAB",
    "parent_node_id": "1579021667014",
    "label": {
        "en": "Agricultural Practices",
        "fr": "Pratiques agricoles"
    },
    "exturl": "",
    "teamsite_location": {
        "en": "/default/main/AAFC-AAC/Internet-Internet/CCB-DGCC/WORKAREA/CCB-DGCC/templatedata/comm-comm/gene-gene/data/farm_management_1360876327795_en",
        "fr": "/default/main/AAFC-AAC/Internet-Internet/CCB-DGCC/WORKAREA/CCB-DGCC/templatedata/comm-comm/gene-gene/data/farm_management_1360876327795_fr"
    },
    "type_name": "sitemapinit",
    "has_dcr_id": true,
    "breadcrumb": {
        "en": "Agricultural Practices",
        "fr": "Pratiques agricoles"
    },
    "layout_name": "content page 1 column",
    "lang": "en",
    "meta": {
        "issued": {
            "en": "2013-02-21",
            "fr": "2013-02-21"
        },
        "modified": {
            "en": "2020-02-18",
            "fr": "2020-02-18"
        },
        "format": {
            "en": "gcformat",
            "fr": "gcformat"
        },
        "title": {
            "en": "Agricultural practices",
            "fr": "Pratiques agricoles"
        },
        "subject": {
            "en": "air;soil;water",
            "fr": "air;eau"
        },
        "description": {
            "en": "Agroforestry Benefits of agroforestry practices best practices for growing trees and how to plan and establish wind breaks.",
            "fr": "Eau Renseignements sur l\u2019abreuvement du b\u00e9tail les \u00e9tangs et les \u00e9tangs-r\u00e9servoirs la protection des bassins hydrographiques les puits et l\u2019eau souterraine."
        },
        "language": {
            "en": "eng",
            "fr": "fra"
        },
        "keywords": {
            "en": "Land Soil protection;Agroforestry Benefits of agroforestry practices;wind breaks;livestock watering ponds;best possible food",
            "fr": "abreuvement du b\u00e9tail;agroforesti\u00e8res pratiques;approvisionnement alimentaire du Canada;\u00e9tablissement de brise-vent;meilleurs produits alimentaires et agricoles"
        },
        "audience": {
            "en": "gcaudience",
            "fr": "gcaudience"
        },
        "type": {
            "en": "promotional material",
            "fr": "transcription"
        },
        "creator": {
            "en": "Agriculture and Agri-Food Canada;Government of Canada",
            "fr": "Agriculture et Agroalimentaire Canada;Gouvernement du Canada"
        },
        "spatial": {
            "en": "gcregions",
            "fr": "gcregions"
        },
        "service": {
            "en": "AAFC-AAC",
            "fr": "AAFC-AAC"
        },
        "accessRights": {
            "en": "2",
            "fr": "2"
        },
        "legalName": {
            "en": "agriculture_and_agri_food_canada",
            "fr": "agriculture_et_agroalimentaire_canada"
        },
        "areaServed": {
            "en": "Canada",
            "fr": "Canada"
        }
    },
    "body": {
        "en": "tart --&gt;\r\n    <!-- D&eacute;but du contenu -->\r\n    <noscript>\n<div class=\"row profile\">\n<div class=\"col-md-6\">\n     \n        <p>Soil, water and climate conditions across Canada. Farming practices to preserve land and water.</p>\n\n\n <!-- START Social Buttons -->\n<div class=\"pull-left\">\n<section class=\"followus mrgn-tp-0\"> \n   <h2>Follow:</h2> \n   <ul> \n    <li><a href=\"https://www.facebook.com/CanadianAgriculture/\" class=\"facebook gl-follow\" rel=\"external\"> <span class=\"wb-inv\">Facebook</span></a></li> \n    <li><a href=\"https://twitter.com/AAFC_Canada\" class=\"twitter gl-follow\" rel=\"external\"> <span class=\"wb-inv\">Twitter</span></a></li> \n    \n    <li><a href=\"https://www.linkedin.com/company/aafc-aac/?viewAsMember=true\" class=\"linkedin gl-follow\" rel=\"external\"><span class=\"wb-inv\">LinkedIn</span></a></li>    \n    \n    <li><a href=\"https://www.youtube.com/user/AgricultureCanadaEng\" class=\"youtube gl-follow\" rel=\"external\"><span class=\"wb-inv\">YouTube</span></a></li> \n   </ul> \n  </section>\n</div>\n<!-- END Social Buttons -->\n</div>\n<div class=\"col-md-6 mrgn-tp-sm hidden-sm hidden-xs\">\n        <figure>\n<img src=\"https://www.agr.gc.ca/resources/prod/img/agricultural_practices_topic.jpg\" class=\"img-responsive\" alt=\"\"><br>\n</figure> \n</div></div></noscript>\n        \n\n\n<script src=\"https://ajax.googleapis.com/ajax/libs/jquery/2.2.4/jquery.js\"></script>\n<script>\n$( document ).ready( function() {\nvar h1 = document.getElementsByTagName(\"h1\")[0];\nh1.parentNode.removeChild(h1);\ndocument.getElementsByTagName(\"main\")[0].innerHTML = \n'<div class=\"row profile\"><div class=\"col-md-6\"><h1>Agricultural practices<p>Soil, water and climate conditions across Canada. Farming practices to preserve land and water. <!-- START Social Buttons --> <div class=\"pull-left\"> <section class=\"followus mrgn-tp-0\"> <h2>Follow: <ul> <li><a href=\"https://www.facebook.com/CanadianAgriculture/\" class=\"facebook gl-follow\" rel=\"external\"> <span class=\"wb-inv\">Facebook <li><a href=\"https://twitter.com/AAFC_Canada\" class=\"twitter gl-follow\" rel=\"external\"> <span class=\"wb-inv\">Twitter <li><a href=\"https://www.linkedin.com/company/aafc-aac/?viewAsMember=true\" class=\"linkedin gl-follow\" rel=\"external\"><span class=\"wb-inv\">LinkedIn <li><a href=\"https://www.youtube.com/user/AgricultureCanadaEng\" class=\"youtube gl-follow\" rel=\"external\"><span class=\"wb-inv\">YouTube  <!-- END Social Buttons --> <div class=\"col-md-6 mrgn-tp-sm hidden-sm hidden-xs\"><figure> <img src=\"https://www.agr.gc.ca/resources/prod/img/agricultural_practices_topic.jpg\" class=\"pull-right img-responsive thumbnail\" alt=\"\"/><br/>'\n+ document.getElementsByTagName(\"main\")[0].innerHTML;\n})\n</script>\n\n\n\n<div class=\"clearfix\"></div>\n\n\n<div class=\"row\">\n<section class=\"col-md-4 col-xs-12 pull-right lnkbx\">\n<h2>Most requested</h2>\n<ul>\n  <li><a href=\"?id=1346179616865\">Pruning trees and shrubs</a></li>\n  <li><a href=\"?id=1189695164631\">Filtration: how does it work?</a></li>\n  <li><a href=\"?id=1329321981630#c\">Impact of climate change on Canadian agriculture</a></li>\n  <li><a href=\"?id=1329321969842\">Greenhouse gases</a></li>  \n  <li><a href=\"?id=1435157592921\">Significant agricultural soils across Canada</a></li>\n</ul>\n</section>\n\n<section class=\"col-md-8 col-xs-12 pull-left\">\n\n<div class=\"wb-eqht row wb-init wb-eqht-inited\" id=\"wb-auto-1\">\n\n<h2 class=\"col-md-6 nowrap\">Services and information</h2>\n\n<div class=\"clearfix\"></div>\n\n\n<section class=\"col-md-6\">\n<h3 class=\"h5\"><a href=\"?id=1177431400694\">Agroforestry</a></h3>\n<p>Benefits of growing trees or shrubs in fields and establishing wind breaks</p>\n</section>\n\n<section class=\"col-md-6\">\n<h3 class=\"h5\"><a href=\"?id=1329321967651\">Climate change and agriculture</a></h3>\n<p>Greenhouse gases, climate change scenarios, weather effects on agriculture</p>\n</section>\n\n<div class=\"clearfix\"></div>\n\n\n<section class=\"col-md-6\">\n<h3 class=\"h5\"><a href=\"?id=1370345323701\">Soil and land</a></h3>\n<p>Improvement of soil quality and crop yield, effective management of water and nutrients</p>\n</section>\n\n\n<section class=\"col-md-6\">\n<h3 class=\"h5\"><a href=\"?id=1187702145201\">Agriculture and water</a></h3>\n<p>Farming practices to protect groundwater, ponds and watersheds quality</p>\n</section>\n</div>\n</section>\n\n\n\n<div class=\"pull-right col-xs-12 col-md-4\">\n<section class=\"lnkbx\">\n<h2>Contributors</h2>\n<ul>\n    <li><a href=\"?id=1395690825741\">Agriculture and Agri-Food Canada</a></li>\n</ul>\n</section>\n\n</div>\n\n\n\n<!-- HERE -->\n<div class=\"clearfix\"></div>\n\n\n\n<section class=\"col-md-8 col-xs-12 pull-left\">\n\n    <h2>What we are doing</h2>\n    <div class=\"row wb-eght\">\n        \n                <section class=\"col-md-6\">\n\n        \n<div class=\"clearfix\"></div>\n\n    <h3>Publications</h3>\n\n    <ul>     \n            <li><a href=\"?id=1176728972381\">Agricultural Pest Management Resources</a></li>            \n            <li><a href=\"?id=1196363731573\">Agricultural research results</a></li>\n            <li><a href=\"?id=1467307820931\">Environmental Sustainability of Canadian Agriculture: Agri-Environmental Indicator Report Series \u2013 Report #4 </a></li>\n     </ul>\n\t\t\t\n</section>\n\n                <section class=\"col-md-6\">\n    <h3>Open data</h3>\n    <ul>        \n            <li><a href=\"http://open.canada.ca/en/apps/biomass-inventory-mapping-and-analysis-tool?_ga=1.123395459.907347264.1477511162\">Biomass Inventory Mapping and Analysis Tool </a></li>\n\n            <li><a href=\"http://open.canada.ca/en/apps/soils-canada?_ga=1.129285636.907347264.1477511162\">Soils of Canada </a></li>\n\n            <li><a href=\"http://open.canada.ca/en/apps/plant-hardiness-zones-canada?_ga=1.129285636.907347264.1477511162\">Plant Hardiness Zones of Canada </a></li>\n\n            <li><a href=\"http://open.canada.ca/en/apps/agrimap?_ga=1.129285636.907347264.1477511162\">AgriMap </a></li>    \n     </ul>\n\t\t\t<p class=\"text-left\"><a href=\"http://open.canada.ca/data/en/dataset?organization=aafc-aac&amp;_ga=2.72860243.1764260954.1495727627-1052300347.1494593010&amp;_subject_limit=0\"><strong>All related open data</strong></a></p>\n\n</section>\n        \n   </div>\n    \n</section>\n\n\n\n\n\n\n\n\n\n\n<!-- HERE -->\n\n\n<section class=\"col-md-8 col-xs-12 pull-left gc-prtts\">\n\n<div class=\"wb-eqht row wb-init wb-eqht-inited\" id=\"wb-auto-2\">\n\n<h2 class=\"col-md-6\">Features</h2>\n\n<div class=\"clearfix\"></div>\n\n<section class=\"col-md-6\">\n<a href=\"?id=1453155829678\">\n<figure>\n<figcaption>Ahead of the Herd in Cutting Cattle Carbon</figcaption>\n<img src=\"http://canada.ca/content/canadasite/en/services/environment/agricultural-practices/_jcr_content/par/mwscolumns-row6/colpar-1/mwsfeatureimage0.img.jpg/1550687891680.jpg\" alt=\"\" class=\"img-responsive thumbnail mrgn-bttm-sm\">\n<p>A new study led by an\u00a0Agriculture and Agri-Food Canada researcher has revealed that Canada's beef sector has reduced its environmental footprint over the past 30 years.</p>\n</figure></a>\n</section>\n\n<section class=\"col-md-6\">\n<a href=\"?id=1430827483590\">\n<figure>\n<figcaption>Healthier Soil May Mean Healthier Yield</figcaption>\n<img src=\"http://canada.ca/content/canadasite/en/services/environment/agricultural-practices/_jcr_content/par/mwscolumns-row6/colpar-2/mwsfeatureimage1.img.jpg/1504217630314.jpg\" alt=\"\" class=\"img-responsive thumbnail mrgn-bttm-sm\">\n<p>Agriculture and Agri-Food Canada has joined forces with McCain Foods Canada and the province\u2019s potato growers in a major project to improve potato yields in New Brunswick by improving soil health.</p>\n</figure></a>\n</section>\n\n\n</div></section>\n\n\n\n</div>\n\n<div class=\"clearfix\"></div>\n\r\n    <!-- Fin du contenu -->\r\n  \r\n  <div class=\"pagedetails\" id=\"pgft\">\r\n    <div class=\"row\">\r\n\t  <div class=\"col-sm-6 col-md-5 col-lg-4\">\r\n\t    <details class=\"brdr-0\">\r\n\t\t<summary class=\"btn btn-default text-center\" onclick=\"getAntiSpamSeq('/eng/mail-handler/?anti-spam-sequence=true')\">Report a problem on this page</summary>\r\n\t\t<div class=\"clearfix\"></div>\r\n\t\t<div class=\"well row\">\r\n\t\t<div>\r\n\t\t  <div class=\"gc-rprt-prblm\">\r\n\t\t    <div class=\"gc-rprt-prblm-frm gc-rprt-prblm-tggl\">\r\n\t\t\t  \r\n\t\t\t<form id=\"report_a_problem_form\" action=\"/eng/mail-handler/#report_a_problem_form\" method=\"post\">\t\t\t\t   \t\t\t\r\n\r\n\t            \t <input type=\"hidden\" name=\"lang\" value=\"eng\">\r\n\t            \t <input type=\"hidden\" name=\"pageId\" value=\"1360876327795\">\r\n\t            \t <input type=\"hidden\" name=\"pageUrl\" value=\"http://agr.gc.ca/eng/agriculture-and-the-environment/agricultural-practices/?id=1360876327795\">\r\n\t\t\t\t\t <div id=\"report_a_problem_form_error\"></div>\r\n\t\t             <fieldset>\t\t\t\t\t    \r\n\t\t                <legend><span class=\"field-name\">Please select all that apply:</span></legend>\t\t                                 \r\n\t\t\t\t\t\t<div class=\"checkbox\">\r\n\t\t\t\t\t\t\t<label for=\"problem1\"><input name=\"problem1\" id=\"problem1\" type=\"checkbox\" value=\"Yes\">A link, button or video is not working</label>\r\n\t\t\t\t\t\t\t<input name=\"problem1\" type=\"hidden\" value=\"No\">\r\n\t\t\t\t\t\t</div>\r\n\t\t\t\t\t\t<div class=\"checkbox\">\r\n\t\t\t\t\t\t\t<label for=\"problem2\"><input name=\"problem2\" id=\"problem2\" type=\"checkbox\" value=\"Yes\">It has a spelling mistake</label>\r\n\t\t\t\t\t\t\t<input name=\"problem2\" type=\"hidden\" value=\"No\">\r\n\t\t\t\t\t\t</div>\r\n\t\t\t\t\t\t<div class=\"checkbox\">\r\n\t\t\t\t\t\t\t<label for=\"problem3\"><input name=\"problem3\" id=\"problem3\" type=\"checkbox\" value=\"Yes\">Information is missing</label>\r\n\t\t\t\t\t\t\t<input name=\"problem3\" type=\"hidden\" value=\"No\">\r\n\t\t\t\t\t   </div>\r\n\t\t\t\t\t\t<div class=\"checkbox\">\r\n\t\t\t\t\t\t\t<label for=\"problem4\"><input name=\"problem4\" id=\"problem4\" type=\"checkbox\" value=\"Yes\">Information is outdated or wrong</label>\r\n\t\t\t\t\t\t\t<input name=\"problem4\" type=\"hidden\" value=\"No\">\r\n\t\t\t\t\t\t</div>\r\n\t\t\t\t\t\t<div class=\"checkbox\">\r\n\t\t\t\t\t\t\t<label for=\"problem5\"><input name=\"problem5\" id=\"problem5\" type=\"checkbox\" value=\"Yes\">Login error when trying to access an account (e.g. My Service Canada Account)</label>\r\n\t\t\t\t\t\t\t<input name=\"problem5\" type=\"hidden\" value=\"No\">\r\n\t\t\t\t\t\t</div>\r\n\t\t\t\t\t\t\t<ul>\r\n\t\t\t\t\t\t\t<li class=\"checkbox\">\r\n\t\t\t\t\t\t\t\t<label for=\"problem6a\"><input name=\"problem6\" id=\"problem6a\" type=\"checkbox\" value=\"Yes\">GC Key access</label>\r\n\t\t\t\t\t\t\t\t<input name=\"problem6\" type=\"hidden\" value=\"No\">\r\n\t\t\t\t\t\t\t </li>\r\n\t\t\t\t\t\t\t<li class=\"checkbox\">\r\n\t\t\t\t\t\t\t\t<label for=\"problem7\"><input name=\"problem7\" id=\"problem7\" type=\"checkbox\" value=\"Yes\">SecureKey Concierge (Banking Credential) access </label>\r\n\t\t\t\t\t\t\t\t<input name=\"problem7\" type=\"hidden\" value=\"No\">\r\n\t\t\t\t\t\t\t </li>\r\n\t\t\t\t\t\t\t<li class=\"checkbox\">\r\n\t\t\t\t\t\t\t\t<label for=\"problem8\"><input name=\"problem8\" id=\"problem8\" type=\"checkbox\" value=\"Yes\">Personal Access Code (PAC) problems or EI Access Code (AC) problems</label>\r\n\t\t\t\t\t\t\t\t<input name=\"problem8\" type=\"hidden\" value=\"No\">\r\n\t\t\t\t\t\t\t </li>\t\r\n\t\t\t\t\t\t\t<li class=\"checkbox\">\r\n\t\t\t\t\t\t\t\t<label for=\"problem9\"><input name=\"problem9\" id=\"problem9\" type=\"checkbox\" value=\"Yes\">Social Insurance Number (SIN) validation problems</label>\r\n\t\t\t\t\t\t\t\t<input name=\"problem9\" type=\"hidden\" value=\"No\">\r\n\t\t\t\t\t\t\t </li>\t\t\t\t\t\t\t\t\r\n\t\t\t\t\t\t\t<li class=\"checkbox\">\r\n\t\t\t\t\t\t\t\t<label for=\"problem10\"><input name=\"problem10\" id=\"problem10\" type=\"checkbox\" value=\"Yes\">Other login error not in this list</label>\r\n\t\t\t\t\t\t\t\t<input name=\"problem10\" type=\"hidden\" value=\"No\">\r\n\t\t\t\t\t\t\t </li>\t\t \r\n\t\t\t\t\t\t\t </ul>\r\n\t\t\t\t\t\t<div class=\"checkbox\">\r\n\t\t\t\t\t\t\t<label for=\"problem11\"><input name=\"problem11\" id=\"problem11\" type=\"checkbox\" value=\"Yes\">I can't find what I'm looking for</label>\r\n\t\t\t\t\t\t\t<input name=\"problem11\" type=\"hidden\" value=\"No\">\r\n\t\t\t\t\t\t</div>\r\n\t\t\t\t\t\t<div class=\"checkbox\">\r\n\t\t\t\t\t\t\t<label for=\"problem12\"><input name=\"problem12\" id=\"problem12\" type=\"checkbox\" value=\"Yes\">Other issue not in this list</label>\r\n\t\t\t\t\t\t\t<input name=\"problem12\" type=\"hidden\" value=\"No\">\r\n\t\t\t\t\t\t</div>\t\t\t\t\t\t \t\t\t\t\t\t\t\t\t\t\t\t \r\n\t\t             </fieldset>\r\n\t\t\t\t\t <div>\r\n\t\t\t\t\t   <label for=\"aafc_ranstr\"><span id=\"fbch\"><br>Enter these characters <strong class=\"required\">(required)</strong>: </span><span id=\"ranstr\">U5S</span></label>\r\n\t\t\t           <input name=\"anti-spam-sequence\" id=\"aafc_ranstr\" size=\"4\" maxlength=\"3\" type=\"text\">\r\n\t\t\t\t\t </div>\t\r\n\r\n\t\t\t\t\t <br><input type=\"submit\" class=\"btn btn-primary\" value=\"Submit\">\r\n\t\t\t\t  </form>\r\n\t\t\t\t</div>\r\n\t\t\t</div>\t\t\t\r\n\t\t  </div>\r\n\t\t</div>\r\n\t\t</details>\r\n\t  </div>\r\n\t  <div class=\"wb-share col-sm-4 col-md-3 col-sm-offset-2 col-md-offset-4 col-lg-offset-5\" data-wb-share='{\"lnkClass\": \"btn btn-default btn-block\"}'></div>\r\n\t</div>\r\n\t<dl id=\"wb-dtmd\">\r\n\t  <dt>Date modified: </dt>\r\n\t  <dd><time property=\"dateModified\">2020-02-18</time></dd></dl></div>",
        "fr": "\r\n    \r\n    <!-- MainContentStart -->\r\n    <!-- D&eacute;but du contenu -->\r\n    <noscript>\n<div class=\"row profile\">\n<div class=\"col-md-6\">\n     \n        <p>Sols, eau et conditions climatiques au Canada. Pratiques agricoles qui visent \u00e0 prot\u00e9ger les terres et l'eau.</p>\n\n\n<!-- START Social Buttons -->\n<div class=\"pull-left\">\n<section class=\"followus mrgn-tp-0\"> \n <h2>Suivez\u00a0:</h2> \n <ul> \n    <li><a href=\"https://www.facebook.com/AgricultureCanadienne\" class=\"facebook gl-follow\" rel=\"external\"> <span class=\"wb-inv\">Facebook</span></a></li> \n    <li><a href=\"https://twitter.com/AAC_Canada\" class=\"twitter gl-follow\" rel=\"external\"> <span class=\"wb-inv\">Twitter</span></a></li> \n    \n    <li><a href=\"https://www.linkedin.com/company/aafc-aac/?viewAsMember=true\" class=\"linkedin gl-follow\" rel=\"external\"><span class=\"wb-inv\">LinkedIn</span></a></li>\n    \n    <li><a href=\"https://www.youtube.com/user/AgricultureCanadaFra\" class=\"youtube gl-follow\" rel=\"external\"><span class=\"wb-inv\">YouTube</span></a></li> \n </ul> \n  </section> \n  </div>\n<!-- END Social Buttons -->    \n</div>\n<div class=\"col-md-6 mrgn-tp-sm hidden-sm hidden-xs\">\n        <figure>\n<img src=\"https://www.agr.gc.ca/resources/prod/img/agricultural_practices_topic.jpg\" class=\"img-responsive\" alt=\"\"><br>\n</figure> \n</div></div></noscript>\n        \n<script src=\"https://ajax.googleapis.com/ajax/libs/jquery/2.2.4/jquery.js\"></script>\n<script>\n$( document ).ready( function() {\nvar h1 = document.getElementsByTagName(\"h1\")[0];\nh1.parentNode.removeChild(h1);\ndocument.getElementsByTagName(\"main\")[0].innerHTML = \n'<div class=\"row profile\"><div class=\"col-md-6\"><h1>Pratiques agricoles<p>Sols, eau et conditions climatiques au Canada. Pratiques agricoles qui visent &agrave; prot&eacute;ger les terres et l&apos;eau. <!-- START Social Buttons --> <div class=\"pull-left\"> <section class=\"followus mrgn-tp-0\"> <h2>Suivez&nbsp;: <ul> <li><a href=\"https://www.facebook.com/AgricultureCanadienne\" class=\"facebook gl-follow\" rel=\"external\"> <span class=\"wb-inv\">Facebook <li><a href=\"https://twitter.com/AAC_Canada\" class=\"twitter gl-follow\" rel=\"external\"> <span class=\"wb-inv\">Twitter <li><a href=\"https://www.linkedin.com/company/aafc-aac/?viewAsMember=true\" class=\"linkedin gl-follow\" rel=\"external\"><span class=\"wb-inv\">LinkedIn <li><a href=\"https://www.youtube.com/user/AgricultureCanadaFra\" class=\"youtube gl-follow\" rel=\"external\"><span class=\"wb-inv\">YouTube    <!-- END Social Buttons -->  <div class=\"col-md-6 mrgn-tp-sm hidden-sm hidden-xs\"> <figure> <img src=\"https://www.agr.gc.ca/resources/prod/img/agricultural_practices_topic.jpg\" class=\"pull-right img-responsive thumbnail\" alt=\"\"/><br/>  '\n+ document.getElementsByTagName(\"main\")[0].innerHTML;\n})\n</script>\n\n\n<div class=\"clearfix\"></div>\n\n\n\n<div class=\"clearfix\"></div>\n\n\n<div class=\"row\">\n<section class=\"col-md-4 col-xs-12 pull-right lnkbx\">\n<h2>En demande</h2>\n<ul>\n  <li><a href=\"?id=1346179616865\">\u00c9lagage des arbres et arbustes</a></li>\n  <li><a href=\"?id=1197483793077\">Texture du sol et qualit\u00e9 de l'eau</a></li>\n  <li><a href=\"?id=1199732202622\">Lutte contre les perce-bois pr\u00e9sents dans les plantations d'arbres\u2026</a></li>\n  <li><a href=\"?id=1344633257343\">Les avantages de l'agroforesterie</a></li>\n  <li><a href=\"?id=1345841401925\">\u00c9rable \u00e0 Gigu\u00e8re</a></li>\n</ul>\n</section>\n\n<section class=\"col-md-8 col-xs-12 pull-left\">\n\n<div class=\"wb-eqht row wb-init wb-eqht-inited\" id=\"wb-auto-1\">\n\n<h2 class=\"col-md-6 nowrap\">Services et renseignements</h2>\n\n<div class=\"clearfix\"></div>\n\n<section class=\"col-md-6\">\n<h3 class=\"h5\"><a href=\"?id=1177431400694\">Agroforesterie</a></h3>\n<p>Avantages li\u00e9s \u00e0 la culture des arbres ou arbustes dans les champs et \u00e0 l\u2019\u00e9tablissement de brise-vent</p>\n</section>\n\n<section class=\"col-md-6\">\n<h3 class=\"h5\"><a href=\"?id=1329321967651\">Agriculture et climat</a></h3>\n<p>Gaz \u00e0 effet de serre, sc\u00e9narios de changements climatiques, les effets de la m\u00e9t\u00e9o sur l'agriculture</p>\n</section>\n\n<div class=\"clearfix\"></div>\n\n<section class=\"col-md-6\">\n<h3 class=\"h5\"><a href=\"?id=1370345323701\">Sol et terre</a></h3>\n<p>Am\u00e9lioration de la qualit\u00e9 du sol et du rendement des cultures, et bonne gestion de l'eau et des \u00e9l\u00e9ments nutritifs</p>\n</section>\n\n<section class=\"col-md-6\">\n<h3 class=\"h5\"><a href=\"?id=1187702145201\">Agriculture et eau</a></h3>\n<p>Pratiques agricoles pour prot\u00e9ger la qualit\u00e9 des eaux souterraines, des \u00e9tangs et des bassins hydrographiques</p>\n</section>\n\n</div>\n</section>\n\n<div class=\"pull-right col-xs-12 col-md-4\">\n<section class=\"lnkbx\">\n<h2>Collaborateurs</h2>\n<ul>\n    <li><a href=\"?id=1395690825741\">Agriculture et Agroalimentaire Canada</a></li>\n</ul>\n</section>\n\n</div>\n\n\n\n\n<section class=\"col-md-8 col-xs-12 pull-left\">\n\n    <h2>Ce que nous faisons</h2>\n    <div class=\"row wb-eght\">\n        \n                <section class=\"col-md-6\">\n\n        \n<div class=\"clearfix\"></div>\n\n    <h3>Publications</h3>\n\n    <ul>     \n            <li><a href=\"?id=1176728972381\">Ressources en mati\u00e8re de lutte antiparasitaire en agriculture</a></li>\n          <li><a href=\"?id=1196363731573\">R\u00e9sultats de recherches en agriculture</a></li>\n          <li><a href=\"?id=1467307820931\">L'agriculture \u00e9cologiquement durable au Canada\u00a0: S\u00e9rie sur les indicateurs agroenvironnementaux \u2013 Rapport num\u00e9ro 4</a></li>\n     </ul>\n\t\t\t\n</section>\n\n                <section class=\"col-md-6\">\n    <h3>Donn\u00e9es ouvertes</h3>\n    <ul>\n      <li><a href=\"http://ouvert.canada.ca/fr/apps/outil-cartographique-dinventaire-biomasse?_ga=1.155457843.907347264.1477511162\">Outil cartographique d\u2019inventaire de la biomasse</a></li>\n      <li><a href=\"http://ouvert.canada.ca/fr/apps/sols-du-canada?_ga=1.155457843.907347264.1477511162\">Les sols du Canada</a></li>\n      <li><a href=\"http://ouvert.canada.ca/fr/apps/zones-de-rusticite-des-plantes-au-canada?_ga=1.155457843.907347264.1477511162\">Zones de rusticit\u00e9 des plantes au Canada</a></li>\n      <li><a href=\"http://ouvert.canada.ca/fr/apps/agricarte?_ga=1.155457843.907347264.1477511162\">AgriCarte</a></li>\n     </ul>\n\t\t\t<p class=\"text-left\"><a href=\"http://ouvert.canada.ca/data/fr/dataset?organization%253Daafc-aac%2526_ga%253D2.72860243.1764260954.1495727627-1052300347.1494593010%2526_subject_limit%253D0=&amp;organization=aafc-aac\"><strong>Toutes les donn\u00e9es ouvertes connexes</strong></a></p>\n\n</section>\n        \n   </div>\n    \n</section>\n\n\n\n\n\n\n\n\n\n\n<section class=\"col-md-8 col-xs-12 pull-left gc-prtts\">\n\n<div class=\"wb-eqht row wb-init wb-eqht-inited\" id=\"wb-auto-2\">\n\n<h2 class=\"col-md-6\">En vedette</h2>\n\n<div class=\"clearfix\"></div>\n\n<section class=\"col-md-6\">\n<a href=\"?id=1453155829678\">\n<figure>\n<figcaption>Nous prenons les devants en r\u00e9duisant l'empreinte carbone des bovins</figcaption>\n<img src=\"http://canada.ca/content/canadasite/en/services/environment/agricultural-practices/_jcr_content/par/mwscolumns-row6/colpar-1/mwsfeatureimage0.img.jpg/1550687891680.jpg\" alt=\"\" class=\"img-responsive thumbnail mrgn-bttm-sm\">\n<p>Une nouvelle \u00e9tude r\u00e9alis\u00e9e par un chercheur d\u2019Agriculture et Agroalimentaire a r\u00e9v\u00e9l\u00e9 que l\u2019industrie du b\u0153uf a r\u00e9duit son empreinte environnementale au cours des 30 derni\u00e8res ann\u00e9es.</p>\n</figure></a>\n</section>\n\n<section class=\"col-md-6\">\n<a href=\"?id=1430827483590\">\n<figure>\n<figcaption><br>Un sol sain pour un rendement \u00e9lev\u00e9</figcaption>\n<img src=\"http://canada.ca/content/canadasite/en/services/environment/agricultural-practices/_jcr_content/par/mwscolumns-row6/colpar-2/mwsfeatureimage1.img.jpg/1504217630314.jpg\" alt=\"\" class=\"img-responsive thumbnail mrgn-bttm-sm\">\n<p>Agriculture et Agroalimentaire Canada fait \u00e9quipe avec McCain Foods Canada et les producteurs de pommes de terre du Nouveau-Brunswick dans le cadre d\u2019un important projet visant \u00e0 accro\u00eetre le rendement des cultures par l\u2019am\u00e9lioration de la sant\u00e9 des sols dans la province.</p>\n</figure></a>\n</section>\n\n\n</div></section>\n\n</div>\n\n<div class=\"clearfix\"></div>\n\n\n\r\n    <!-- Fin du contenu -->\r\n\t\r\n\t<div class=\"pagedetails\" id=\"pgft\">\r\n\t\t<div class=\"row\">\r\n\t\t  <div class=\"col-sm-6 col-md-5 col-lg-4\">\r\n\t\t    <details class=\"brdr-0\">\r\n\t\t\t<summary class=\"btn btn-default text-center\" onclick=\"getAntiSpamSeq('/fra/mail-handler/?anti-spam-sequence=true')\">Signaler un probl\u00e8me sur cette page</summary>\r\n\t\t\t<div class=\"well row\">\r\n\t\t\t  <div class=\"gc-rprt-prblm\">\r\n\t\t\t    <div class=\"gc-rprt-prblm-frm gc-rprt-prblm-tggl\">\r\n\t\t\t\t   <form id=\"report_a_problem_form\" action=\"/fra/mail-handler/\" method=\"post\">\r\n\t            \t <input type=\"hidden\" name=\"lang\" value=\"fra\">\r\n\t            \t <input type=\"hidden\" name=\"pageId\" value=\"1360876327795\">\r\n\t            \t <input type=\"hidden\" name=\"pageUrl\" value=\"http://agr.gc.ca/fra/agriculture-et-environnement/pratiques-agricoles/?id=1360876327795\">\r\n\t\t\t\t\t <div id=\"report_a_problem_form_error\"></div>\r\n\t\t             <fieldset>\t\t\t\t\t    \r\n\t\t                <legend><span class=\"field-name\">Veuillez cocher toutes les r\u00e9ponses pertinentes\u00a0:</span></legend>\r\n\t\t                 <div class=\"checkbox\">\r\n\t\t                    <label for=\"problem1\"><input name=\"problem1\" id=\"problem1\" type=\"checkbox\" value=\"Yes\">Un lien, un bouton ou une vid\u00e9o ne fonctionne pas</label>\r\n\t\t                    <input name=\"problem1\" type=\"hidden\" value=\"No\">\r\n\t\t                </div>\r\n\t\t                <div class=\"checkbox\">\r\n\t\t                    <label for=\"problem2\"><input name=\"problem2\" id=\"problem2\" type=\"checkbox\" value=\"Yes\">Il y a une erreur d'orthographe ou de grammaire</label>\r\n\t\t                    <input name=\"problem2\" type=\"hidden\" value=\"No\">\r\n\t\t                </div>\r\n\t\t   \t\t\t\t <div class=\"checkbox\">\r\n\t\t                    <label for=\"problem3\"><input name=\"problem3\" id=\"problem3\" type=\"checkbox\" value=\"Yes\">Les renseignements sont incomplets</label>\r\n\t\t                    <input name=\"problem3\" type=\"hidden\" value=\"No\">\r\n\t\t                </div>\r\n\t\t             \t\t<div class=\"checkbox\">\r\n\t\t                    <label for=\"problem4\"><input name=\"problem4\" id=\"problem4\" type=\"checkbox\" value=\"Yes\">L'information n'est plus \u00e0 jour ou est erron\u00e9e</label>\r\n\t\t                    <input name=\"problem4\" type=\"hidden\" value=\"No\">\r\n\t\t                </div>\t\t\t\t\t\t\r\n\t\t\t\t\t\t<div class=\"checkbox\">\r\n\t\t\t\t\t\t\t<label for=\"problem5\"><input name=\"problem5\" id=\"problem5\" type=\"checkbox\" value=\"Yes\">Message d'erreur \u00e0 l'ouverture de la session lorsque je tente d'acc\u00e9der \u00e0 un compte (ex. Mon dossier Service Canada)</label>\r\n\t\t\t\t\t\t\t<input name=\"problem5\" type=\"hidden\" value=\"No\">\r\n\t\t\t\t\t\t</div>\r\n\t\t\t\t\t\t\t<ul>\r\n\t\t\t\t\t\t\t<li class=\"checkbox\">\r\n\t\t\t\t\t\t\t\t<label for=\"problem6a\"><input name=\"problem6\" id=\"problem6a\" type=\"checkbox\" value=\"Yes\">Acc\u00e8s Cl\u00e9GC</label>\r\n\t\t\t\t\t\t\t\t<input name=\"problem6\" type=\"hidden\" value=\"No\">\r\n\t\t\t\t\t\t\t </li>\r\n\t\t\t\t\t\t\t<li class=\"checkbox\">\r\n\t\t\t\t\t\t\t\t<label for=\"problem7\"><input name=\"problem7\" id=\"problem7\" type=\"checkbox\" value=\"Yes\">Acc\u00e8s SecureKey Service de Concierge (justificatifs d'identit\u00e9 bancaires)</label>\r\n\t\t\t\t\t\t\t\t<input name=\"problem7\" type=\"hidden\" value=\"No\">\r\n\t\t\t\t\t\t\t </li>\r\n\t\t\t\t\t\t\t<li class=\"checkbox\">\r\n\t\t\t\t\t\t\t\t<label for=\"problem8\"><input name=\"problem8\" id=\"problem8\" type=\"checkbox\" value=\"Yes\">Probl\u00e8me avec le Code d'acc\u00e8s personnel (CAP) ou avec le Code d'acc\u00e8s (CA) de l'assurance emploi</label>\r\n\t\t\t\t\t\t\t\t<input name=\"problem8\" type=\"hidden\" value=\"No\">\r\n\t\t\t\t\t\t\t </li>\t\r\n\t\t\t\t\t\t\t<li class=\"checkbox\">\r\n\t\t\t\t\t\t\t\t<label for=\"problem9\"><input name=\"problem9\" id=\"problem9\" type=\"checkbox\" value=\"Yes\">Probl\u00e8me li\u00e9 \u00e0 la validation du num\u00e9ro d'assurance sociale (NAS)</label>\r\n\t\t\t\t\t\t\t\t<input name=\"problem9\" type=\"hidden\" value=\"No\">\r\n\t\t\t\t\t\t\t </li>\t\t\t\t\t\t\t\t\r\n\t\t\t\t\t\t\t<li class=\"checkbox\">\r\n\t\t\t\t\t\t\t\t<label for=\"problem10\"><input name=\"problem10\" id=\"problem10\" type=\"checkbox\" value=\"Yes\">Autre erreur lors de l'ouverture de session qui ne figure pas sur cette liste</label>\r\n\t\t\t\t\t\t\t\t<input name=\"problem10\" type=\"hidden\" value=\"No\">\r\n\t\t\t\t\t\t\t </li>\t\t \r\n\t\t\t\t\t\t\t </ul>\r\n\t\t\t\t\t\t<div class=\"checkbox\">\r\n\t\t\t\t\t\t\t<label for=\"problem11\"><input name=\"problem11\" id=\"problem11\" type=\"checkbox\" value=\"Yes\">Je n'arrive pas \u00e0 trouver ce que je cherche</label>\r\n\t\t\t\t\t\t\t<input name=\"problem11\" type=\"hidden\" value=\"No\">\r\n\t\t\t\t\t\t</div>\r\n\t\t\t\t\t\t<div class=\"checkbox\">\r\n\t\t\t\t\t\t\t<label for=\"problem12\"><input name=\"problem12\" id=\"problem12\" type=\"checkbox\" value=\"Yes\">Autre probl\u00e8me qui ne figure pas sur cette liste</label>\r\n\t\t\t\t\t\t\t<input name=\"problem12\" type=\"hidden\" value=\"No\">\r\n\t\t\t\t\t\t</div>\t\t\t\t\t\t\t\t\t\t\t\t\t\t\t\t\t\t\t\r\n\t\t             </fieldset>\r\n\t\t\t\t\t <div>\r\n\t\t\t\t        <label for=\"aafc_ranstr\"><span id=\"fbch\">Veuillez inscrire les caract\u00e8res suivants  <strong class=\"required\">(obligatoire)</strong>\u00a0: </span><span id=\"ranstr\">XXX</span></label>\r\n\t\t\t            <input name=\"anti-spam-sequence\" id=\"aafc_ranstr\" size=\"4\" maxlength=\"3\" type=\"text\">\r\n\t\t\t\t\t </div>\r\n\t\t\t\t\t <input type=\"submit\" class=\"btn btn-primary\" value=\"Soumettre\">\r\n\t\t\t\t  </form>\r\n\t\t\t\t</div>\r\n\t\t\t  </div>\r\n\t\t\t</div>\r\n\t\t</details>\r\n\t    </div>\r\n\t  <div class=\"wb-share col-sm-4 col-md-3 col-sm-offset-2 col-md-offset-4 col-lg-offset-5\" data-wb-share='{\"lnkClass\": \"btn btn-default btn-block\"}'></div>\r\n\t  </div>\r\n\t  <dl id=\"wb-dtmd\">\r\n\t    <dt>Date de modification\u00a0: </dt>\r\n\t      <dd><time property=\"dateModified\">2020-02-18</time></dd>\r\n\t  </dl>\r\n\t</div>\r\n\t\r\n  "
    }
}