{
    "dcr_id": "1371245022134",
    "title": {
        "en": "Wells and groundwater",
        "fr": "Puits et eau souterraine"
    },
    "modified": "2020-01-24",
    "issued": "2014-07-18",
    "templatetype": "content page 1 column",
    "page_type": "1",
    "node_id": "1354137773764",
    "dc_date_created": "2014-07-18",
    "managing_branch": "PAB",
    "parent_node_id": "1354137773758",
    "label": {
        "en": "Wells and Groundwater",
        "fr": "Puits et eaux souterraines"
    },
    "exturl": "",
    "teamsite_location": {
        "en": "/default/main/AAFC-AAC/Internet-Internet/Common-Commun/WORKAREA/Common-Commun/templatedata/comm-comm/gene-gene/data/06/water-eau_wells_grndwtr_1371245022134_en",
        "fr": "/default/main/AAFC-AAC/Internet-Internet/Common-Commun/WORKAREA/Common-Commun/templatedata/comm-comm/gene-gene/data/06/water-eau_wells_grndwtr_1371245022134_fr"
    },
    "type_name": "sitemapinit",
    "has_dcr_id": true,
    "breadcrumb": {
        "en": "Wells and Groundwater",
        "fr": "Puits et eaux souterraines"
    },
    "layout_name": "content page 1 column",
    "lang": "en",
    "meta": {
        "issued": {
            "en": "2014-07-18",
            "fr": "2014-07-18"
        },
        "modified": {
            "en": "2020-01-24",
            "fr": "2020-01-24"
        },
        "format": {
            "en": "text/html",
            "fr": "text/html"
        },
        "title": {
            "en": "Wells and groundwater",
            "fr": "Puits et eau souterraine"
        },
        "subject": {
            "en": "water management;groundwater",
            "fr": "gestion de l'eau;eau souterraine"
        },
        "description": {
            "en": "Shallow ground water supplies (15 metres deep or less) are generally less mineralized but are more susceptible to bacteriological contamination from surface sources and in some cases contaminants such as nitrates can accumulate in the groundwater supply overtime.",
            "fr": "Les r\u00e9serves d'eau enfouies peu profond\u00e9ment dans le sol (\u00e0 15 m\u00e8tres ou moins) ont une teneur en min\u00e9raux g\u00e9n\u00e9ralement moins \u00e9lev\u00e9e mais sont davantage expos\u00e9es \u00e0 la contamination bact\u00e9riologique provenant des sources de surface et dans certains cas les contaminants tels que les nitrates peuvent s'accumuler dans les r\u00e9serves d'eau souterraine avec le temps."
        },
        "language": {
            "en": "eng",
            "fr": "fra"
        },
        "keywords": {
            "en": "high mineral concentrations;Proper well design;usable amount;groundwater supply overtime;biological factors",
            "fr": "qualit\u00e9 de l'eau;eau potable;r\u00e9serves d'eau;eau souterraine;puits d'eau"
        },
        "audience": {
            "en": "gcaudience",
            "fr": "gcaudience"
        },
        "type": {
            "en": "resource list",
            "fr": "fiche de renseignements"
        },
        "creator": {
            "en": "Agriculture and Agri-Food Canada;Government of Canada",
            "fr": "Agriculture et Agroalimentaire Canada;Gouvernement du Canada"
        },
        "spatial": {
            "en": "gcregions",
            "fr": "gcregions"
        },
        "service": {
            "en": "AAFC-AAC",
            "fr": "AAFC-AAC"
        },
        "accessRights": {
            "en": "2",
            "fr": "2"
        },
        "legalName": {
            "en": "agriculture_and_agri_food_canada",
            "fr": "agriculture_et_agroalimentaire_canada"
        },
        "areaServed": {
            "en": "Canada",
            "fr": "Canada"
        }
    },
    "body": {
        "en": "tart --&gt;\r\n    <!-- D&eacute;but du contenu -->\r\n    <p>Water quality is a key environmental issue facing the agricultural sector. Groundwater provides water for rural domestic use, industrial use, livestock watering, irrigation and aquaculture.</p>\n\n<p>It is important to understand the relationship between groundwater water sources and how water wells are utilized by the agriculture sector.</p>\n\n<h2>Aquifers</h2>\n\n<p><a href=\"/eng/?id=1371508148903\">Aquifers</a> are geologic formations that hold the water below the surface of the ground. As water infiltrates into the ground and begins to seep downward it collects in porous spaces, fractures and voids of sediments and/or rock formations. It can return to the ground surface through springs and streams. This is part of the continuous circulation of water between ocean, atmosphere and land termed the hydrologic cycle.</p>\n\n<p>Contrary to popular belief, groundwater does not exist in underground lakes or rivers, but rather in fractures and pore spaces of rocks and sediments beneath the earth's surface.</p>\n\n<p>When the supply of the underground water is large enough to produce a usable amount when tapped by a well, the deposit is called an aquifer. Aquifers can vary greatly in thickness and area and can occur at virtually any depth.</p>\n\n<h2>Groundwater quality</h2>\n\n<p><a href=\"/eng/?id=1371508979896\">Groundwater quality</a> is affected by physical, chemical and biological factors. All water must meet the quality requirements for its intended use, whether for livestock, irrigation or drinking water.  Some agricultural water requirements demand very high quality water, such as water used in dairy production or food processing.  Drinking water must meet certain standards for health-related parameters, and should also be aesthetically acceptable with respect to taste, odour and colour. For other rural uses, non-potable water should be of sufficient quality to ensure it does not negatively affect quality of life, such as staining of fixtures or clothing, and should be acceptable for livestock and crop-spraying purposes.</p>\n\n<p>Deep groundwater supplies typically have high mineral concentrations. Shallow ground water supplies (15 metres deep or less) are generally less mineralized, but are more susceptible to bacteriological contamination from surface sources, and in some cases contaminants, such as nitrates, can accumulate in the groundwater supply overtime.</p>\n\n<h2>Water wells</h2>\n\n<p>Water wells are structures constructed in the ground that economically and efficiently withdraw groundwater from a water-bearing formation.</p>\n\n<p>The design and installation of water wells is dependent upon a wide variety of factors, but mainly upon the underground geologic environment in which the water well is completed.  Proper well design and construction is essential to ensure aquifers to not become contaminated by surface water sources or nearby land use practices. All wells should be designed and constructed by qualified experienced professionals. </p>\n\n<p>Learn more on:</p>\n<ul>\n<li><a href=\"/eng/?id=1371564950593\">Well design and wellhead protection</a></li>\n<li><a href=\"/eng/?id=1371571333366\">Well rehabilitation</a></li>\n<li><a href=\"/eng/?id=1371576110525\">Well monitoring</a></li>\n</ul>\n\n<div class=\"alert alert-info\">\n<p>Visit <a href=\"/eng/?id=1404484907267\">Farm water well management</a> to learn how to construct and maintain a well.</p>\n</div>\n\n\n\n\r\n    <!-- Fin du contenu -->\r\n  \r\n  <div class=\"pagedetails\" id=\"pgft\">\r\n    <div class=\"row\">\r\n\t  <div class=\"col-sm-6 col-md-5 col-lg-4\">\r\n\t    <details class=\"brdr-0\">\r\n\t\t<summary class=\"btn btn-default text-center\" onclick=\"getAntiSpamSeq('/eng/mail-handler/?anti-spam-sequence=true')\">Report a problem on this page</summary>\r\n\t\t<div class=\"clearfix\"></div>\r\n\t\t<div class=\"well row\">\r\n\t\t<div>\r\n\t\t  <div class=\"gc-rprt-prblm\">\r\n\t\t    <div class=\"gc-rprt-prblm-frm gc-rprt-prblm-tggl\">\r\n\t\t\t  \r\n\t\t\t<form id=\"report_a_problem_form\" action=\"/eng/mail-handler/#report_a_problem_form\" method=\"post\">\t\t\t\t   \t\t\t\r\n\r\n\t            \t <input type=\"hidden\" name=\"lang\" value=\"eng\">\r\n\t            \t <input type=\"hidden\" name=\"pageId\" value=\"1371245022134\">\r\n\t            \t <input type=\"hidden\" name=\"pageUrl\" value=\"http://www.agr.gc.ca/eng/agriculture-and-the-environment/agricultural-practices/agriculture-and-water/wells-and-groundwater/?id=1371245022134\">\r\n\t\t\t\t\t <div id=\"report_a_problem_form_error\"></div>\r\n\t\t             <fieldset>\t\t\t\t\t    \r\n\t\t                <legend><span class=\"field-name\">Please select all that apply:</span></legend>\t\t                                 \r\n\t\t\t\t\t\t<div class=\"checkbox\">\r\n\t\t\t\t\t\t\t<label for=\"problem1\"><input name=\"problem1\" id=\"problem1\" type=\"checkbox\" value=\"Yes\">A link, button or video is not working</label>\r\n\t\t\t\t\t\t\t<input name=\"problem1\" type=\"hidden\" value=\"No\">\r\n\t\t\t\t\t\t</div>\r\n\t\t\t\t\t\t<div class=\"checkbox\">\r\n\t\t\t\t\t\t\t<label for=\"problem2\"><input name=\"problem2\" id=\"problem2\" type=\"checkbox\" value=\"Yes\">It has a spelling mistake</label>\r\n\t\t\t\t\t\t\t<input name=\"problem2\" type=\"hidden\" value=\"No\">\r\n\t\t\t\t\t\t</div>\r\n\t\t\t\t\t\t<div class=\"checkbox\">\r\n\t\t\t\t\t\t\t<label for=\"problem3\"><input name=\"problem3\" id=\"problem3\" type=\"checkbox\" value=\"Yes\">Information is missing</label>\r\n\t\t\t\t\t\t\t<input name=\"problem3\" type=\"hidden\" value=\"No\">\r\n\t\t\t\t\t   </div>\r\n\t\t\t\t\t\t<div class=\"checkbox\">\r\n\t\t\t\t\t\t\t<label for=\"problem4\"><input name=\"problem4\" id=\"problem4\" type=\"checkbox\" value=\"Yes\">Information is outdated or wrong</label>\r\n\t\t\t\t\t\t\t<input name=\"problem4\" type=\"hidden\" value=\"No\">\r\n\t\t\t\t\t\t</div>\r\n\t\t\t\t\t\t<div class=\"checkbox\">\r\n\t\t\t\t\t\t\t<label for=\"problem5\"><input name=\"problem5\" id=\"problem5\" type=\"checkbox\" value=\"Yes\">Login error when trying to access an account (e.g. My Service Canada Account)</label>\r\n\t\t\t\t\t\t\t<input name=\"problem5\" type=\"hidden\" value=\"No\">\r\n\t\t\t\t\t\t</div>\r\n\t\t\t\t\t\t\t<ul>\r\n\t\t\t\t\t\t\t<li class=\"checkbox\">\r\n\t\t\t\t\t\t\t\t<label for=\"problem6a\"><input name=\"problem6\" id=\"problem6a\" type=\"checkbox\" value=\"Yes\">GC Key access</label>\r\n\t\t\t\t\t\t\t\t<input name=\"problem6\" type=\"hidden\" value=\"No\">\r\n\t\t\t\t\t\t\t </li>\r\n\t\t\t\t\t\t\t<li class=\"checkbox\">\r\n\t\t\t\t\t\t\t\t<label for=\"problem7\"><input name=\"problem7\" id=\"problem7\" type=\"checkbox\" value=\"Yes\">SecureKey Concierge (Banking Credential) access </label>\r\n\t\t\t\t\t\t\t\t<input name=\"problem7\" type=\"hidden\" value=\"No\">\r\n\t\t\t\t\t\t\t </li>\r\n\t\t\t\t\t\t\t<li class=\"checkbox\">\r\n\t\t\t\t\t\t\t\t<label for=\"problem8\"><input name=\"problem8\" id=\"problem8\" type=\"checkbox\" value=\"Yes\">Personal Access Code (PAC) problems or EI Access Code (AC) problems</label>\r\n\t\t\t\t\t\t\t\t<input name=\"problem8\" type=\"hidden\" value=\"No\">\r\n\t\t\t\t\t\t\t </li>\t\r\n\t\t\t\t\t\t\t<li class=\"checkbox\">\r\n\t\t\t\t\t\t\t\t<label for=\"problem9\"><input name=\"problem9\" id=\"problem9\" type=\"checkbox\" value=\"Yes\">Social Insurance Number (SIN) validation problems</label>\r\n\t\t\t\t\t\t\t\t<input name=\"problem9\" type=\"hidden\" value=\"No\">\r\n\t\t\t\t\t\t\t </li>\t\t\t\t\t\t\t\t\r\n\t\t\t\t\t\t\t<li class=\"checkbox\">\r\n\t\t\t\t\t\t\t\t<label for=\"problem10\"><input name=\"problem10\" id=\"problem10\" type=\"checkbox\" value=\"Yes\">Other login error not in this list</label>\r\n\t\t\t\t\t\t\t\t<input name=\"problem10\" type=\"hidden\" value=\"No\">\r\n\t\t\t\t\t\t\t </li>\t\t \r\n\t\t\t\t\t\t\t </ul>\r\n\t\t\t\t\t\t<div class=\"checkbox\">\r\n\t\t\t\t\t\t\t<label for=\"problem11\"><input name=\"problem11\" id=\"problem11\" type=\"checkbox\" value=\"Yes\">I can't find what I'm looking for</label>\r\n\t\t\t\t\t\t\t<input name=\"problem11\" type=\"hidden\" value=\"No\">\r\n\t\t\t\t\t\t</div>\r\n\t\t\t\t\t\t<div class=\"checkbox\">\r\n\t\t\t\t\t\t\t<label for=\"problem12\"><input name=\"problem12\" id=\"problem12\" type=\"checkbox\" value=\"Yes\">Other issue not in this list</label>\r\n\t\t\t\t\t\t\t<input name=\"problem12\" type=\"hidden\" value=\"No\">\r\n\t\t\t\t\t\t</div>\t\t\t\t\t\t \t\t\t\t\t\t\t\t\t\t\t\t \r\n\t\t             </fieldset>\r\n\t\t\t\t\t <div>\r\n\t\t\t\t\t   <label for=\"aafc_ranstr\"><span id=\"fbch\"><br>Enter these characters <strong class=\"required\">(required)</strong>: </span><span id=\"ranstr\">U5S</span></label>\r\n\t\t\t           <input name=\"anti-spam-sequence\" id=\"aafc_ranstr\" size=\"4\" maxlength=\"3\" type=\"text\">\r\n\t\t\t\t\t </div>\t\r\n\r\n\t\t\t\t\t <br><input type=\"submit\" class=\"btn btn-primary\" value=\"Submit\">\r\n\t\t\t\t  </form>\r\n\t\t\t\t</div>\r\n\t\t\t</div>\t\t\t\r\n\t\t  </div>\r\n\t\t</div>\r\n\t\t</details>\r\n\t  </div>\r\n\t  <div class=\"wb-share col-sm-4 col-md-3 col-sm-offset-2 col-md-offset-4 col-lg-offset-5\" data-wb-share='{\"lnkClass\": \"btn btn-default btn-block\"}'></div>\r\n\t</div>\r\n\t<dl id=\"wb-dtmd\">\r\n\t  <dt>Date modified: </dt>\r\n\t  <dd><time property=\"dateModified\">2020-01-24</time></dd></dl></div>",
        "fr": "\r\n    \r\n    <!-- MainContentStart -->\r\n    <!-- D&eacute;but du contenu -->\r\n    <p>La qualit\u00e9 de l'eau est un aspect important des pr\u00e9occupations environnementales de l'industrie agricole. La nappe d'eau souterraine apporte de l'eau \u00e0 des fins d'utilisation domestique et industrielle; elle est aussi une source d'eau pour le b\u00e9tail, l'irrigation et l'aquaculture.</p>\n\n<p>Il est important de comprendre le lien entre les sources d'eau souterraine et la mani\u00e8re dont les puits d'eau sont utilis\u00e9s par le secteur agricole.</p>\n\n\n<h2>Aquif\u00e8res</h2>\n\n<p>Les <a href=\"/fra/?id=1371508148903\">aquif\u00e8res</a> sont des formations g\u00e9ologiques qui retiennent l'eau en dessous de la surface du sol. Lorsque l'eau s'infiltre dans le sol et qu'elle commence \u00e0 s'\u00e9couler peu \u00e0 peu vers le bas, elle s'accumule dans les espaces poreux, les fissures et les espaces ouverts des s\u00e9diments ou des formations rocheuses. Cette eau peut remonter \u00e0 la surface du sol par les sources et les ruisseaux. Cela fait partie du sch\u00e9ma de circulation continu de l'eau entre l'oc\u00e9an, l'atmosph\u00e8re et la terre, que l'on appelle le cycle de l'eau.</p>\n\n<p>Contrairement \u00e0 la croyance populaire, l'eau souterraine n'est pas pr\u00e9sente dans les rivi\u00e8res et les lacs souterrains, mais plut\u00f4t dans les fissures et les espaces poreux des roches et des s\u00e9diments situ\u00e9s au-dessous de la surface de la Terre.</p>\n\n<p>Lorsque l'apport en eau souterraine est suffisant pour produire une quantit\u00e9 utilisable lorsqu'elle est reli\u00e9e par un puits, le d\u00e9p\u00f4t prend le nom d'aquif\u00e8re. Les aquif\u00e8res peuvent fortement varier en \u00e9paisseur et en surface, et peuvent se former \u00e0 presque n'importe quelle profondeur.</p>\n\n<h2>Qualit\u00e9 de l'eau souterraine</h2>\n\n<p>La <a href=\"/fra/?id=1371508979896\">qualit\u00e9 de l'eau souterraine</a> est alt\u00e9r\u00e9e par des facteurs physiques, chimiques et biologiques. Toutes les eaux doivent r\u00e9pondre aux exigences de qualit\u00e9 associ\u00e9es \u00e0 leur utilisation pr\u00e9vue, que ce soit pour le b\u00e9tail, l'irrigation ou l'eau potable. Certaines exigences relatives \u00e0 l'eau exigent que cette derni\u00e8re soit de tr\u00e8s haute qualit\u00e9, telle que l'eau utilis\u00e9e dans la production de produits laitiers ou la transformation des aliments. L'eau potable doit respecter certaines normes relatives aux param\u00e8tres li\u00e9s \u00e0 la sant\u00e9, et devrait satisfaire \u00e0 certaines conditions pour ce qui est du go\u00fbt, de l'odeur et de la couleur. Pour d'autres utilisations rurales, la qualit\u00e9 de l'eau non potable devrait \u00eatre suffisante pour s'assurer qu'elle n'a pas d'effets n\u00e9fastes sur la qualit\u00e9 de vie, comme des taches sur les appareils ou les v\u00eatements, et devrait \u00eatre acceptable aux fins d'\u00e9levage du b\u00e9tail et de pulv\u00e9risation des cultures.</p>\n\n<p>Les r\u00e9serves d'eau enfouies profond\u00e9ment dans le sol ont g\u00e9n\u00e9ralement des concentrations \u00e9lev\u00e9es de min\u00e9raux. Les r\u00e9serves d'eau enfouies peu profond\u00e9ment dans le sol (\u00e0 15 m\u00e8tres ou moins) ont une teneur en min\u00e9raux g\u00e9n\u00e9ralement moins \u00e9lev\u00e9e, mais sont davantage expos\u00e9es \u00e0 la contamination bact\u00e9riologique provenant des sources de surface et, dans certains cas, les contaminants, tels que les nitrates, peuvent s'accumuler dans les r\u00e9serves d'eau souterraine avec le temps.</p>\n\n<h2>Puits d'eau</h2>\n\n<p>Les puits d'eau sont des structures cr\u00e9\u00e9es dans le sol, qui extraient, de mani\u00e8re \u00e9conomique et efficace, l'eau souterraine provenant d'une formation aquif\u00e8re.</p>\n\n<p>La conception et l'installation des puits d'eau d\u00e9pendent d'une grande vari\u00e9t\u00e9 de facteurs, mais surtout de l'environnement g\u00e9ologique souterrain dans lequel le puits d'eau est r\u00e9alis\u00e9. Une conception et une construction appropri\u00e9es du puits sont essentielles pour s'assurer que les aquif\u00e8res ne soient pas contamin\u00e9s par les sources d'eau de surface ou par les pratiques li\u00e9es \u00e0 l'utilisation des terres \u00e0 proximit\u00e9. Tous les puits devraient \u00eatre con\u00e7us et construits par des professionnels chevronn\u00e9s et comp\u00e9tents.</p>\n\n<p>Pour en savoir advantage\u00a0:</p>\n<ul>\n<li><a href=\"/fra/?id=1371564950593\">Conception du puits et protection de la t\u00eate de puits</a></li>\n<li><a href=\"/fra/?id=1371571333366\">R\u00e9habilitation du puits</a></li>\n<li><a href=\"/fra/?id=1371576110525\">Surveillance du puits</a></li>\n</ul>\n\n<div class=\"alert alert-info\">\n<p> Visitez la <a href=\"/fra/?id=1404484907267\">gestion de l'eau de puits en zone rurale</a> pour apprendre \u00e0 construire et \u00e0 entretenir un puits.</p>\n</div>\n\n\n\r\n    <!-- Fin du contenu -->\r\n\t\r\n\t<div class=\"pagedetails\" id=\"pgft\">\r\n\t\t<div class=\"row\">\r\n\t\t  <div class=\"col-sm-6 col-md-5 col-lg-4\">\r\n\t\t    <details class=\"brdr-0\">\r\n\t\t\t<summary class=\"btn btn-default text-center\" onclick=\"getAntiSpamSeq('/fra/mail-handler/?anti-spam-sequence=true')\">Signaler un probl\u00e8me sur cette page</summary>\r\n\t\t\t<div class=\"well row\">\r\n\t\t\t  <div class=\"gc-rprt-prblm\">\r\n\t\t\t    <div class=\"gc-rprt-prblm-frm gc-rprt-prblm-tggl\">\r\n\t\t\t\t   <form id=\"report_a_problem_form\" action=\"/fra/mail-handler/\" method=\"post\">\r\n\t            \t <input type=\"hidden\" name=\"lang\" value=\"fra\">\r\n\t            \t <input type=\"hidden\" name=\"pageId\" value=\"1371245022134\">\r\n\t            \t <input type=\"hidden\" name=\"pageUrl\" value=\"http://www.agr.gc.ca/fra/agriculture-et-environnement/pratiques-agricoles/eau-et-agriculture/puits-et-eau-souterraine/?id=1371245022134\">\r\n\t\t\t\t\t <div id=\"report_a_problem_form_error\"></div>\r\n\t\t             <fieldset>\t\t\t\t\t    \r\n\t\t                <legend><span class=\"field-name\">Veuillez cocher toutes les r\u00e9ponses pertinentes\u00a0:</span></legend>\r\n\t\t                 <div class=\"checkbox\">\r\n\t\t                    <label for=\"problem1\"><input name=\"problem1\" id=\"problem1\" type=\"checkbox\" value=\"Yes\">Un lien, un bouton ou une vid\u00e9o ne fonctionne pas</label>\r\n\t\t                    <input name=\"problem1\" type=\"hidden\" value=\"No\">\r\n\t\t                </div>\r\n\t\t                <div class=\"checkbox\">\r\n\t\t                    <label for=\"problem2\"><input name=\"problem2\" id=\"problem2\" type=\"checkbox\" value=\"Yes\">Il y a une erreur d'orthographe ou de grammaire</label>\r\n\t\t                    <input name=\"problem2\" type=\"hidden\" value=\"No\">\r\n\t\t                </div>\r\n\t\t   \t\t\t\t <div class=\"checkbox\">\r\n\t\t                    <label for=\"problem3\"><input name=\"problem3\" id=\"problem3\" type=\"checkbox\" value=\"Yes\">Les renseignements sont incomplets</label>\r\n\t\t                    <input name=\"problem3\" type=\"hidden\" value=\"No\">\r\n\t\t                </div>\r\n\t\t             \t\t<div class=\"checkbox\">\r\n\t\t                    <label for=\"problem4\"><input name=\"problem4\" id=\"problem4\" type=\"checkbox\" value=\"Yes\">L'information n'est plus \u00e0 jour ou est erron\u00e9e</label>\r\n\t\t                    <input name=\"problem4\" type=\"hidden\" value=\"No\">\r\n\t\t                </div>\t\t\t\t\t\t\r\n\t\t\t\t\t\t<div class=\"checkbox\">\r\n\t\t\t\t\t\t\t<label for=\"problem5\"><input name=\"problem5\" id=\"problem5\" type=\"checkbox\" value=\"Yes\">Message d'erreur \u00e0 l'ouverture de la session lorsque je tente d'acc\u00e9der \u00e0 un compte (ex. Mon dossier Service Canada)</label>\r\n\t\t\t\t\t\t\t<input name=\"problem5\" type=\"hidden\" value=\"No\">\r\n\t\t\t\t\t\t</div>\r\n\t\t\t\t\t\t\t<ul>\r\n\t\t\t\t\t\t\t<li class=\"checkbox\">\r\n\t\t\t\t\t\t\t\t<label for=\"problem6a\"><input name=\"problem6\" id=\"problem6a\" type=\"checkbox\" value=\"Yes\">Acc\u00e8s Cl\u00e9GC</label>\r\n\t\t\t\t\t\t\t\t<input name=\"problem6\" type=\"hidden\" value=\"No\">\r\n\t\t\t\t\t\t\t </li>\r\n\t\t\t\t\t\t\t<li class=\"checkbox\">\r\n\t\t\t\t\t\t\t\t<label for=\"problem7\"><input name=\"problem7\" id=\"problem7\" type=\"checkbox\" value=\"Yes\">Acc\u00e8s SecureKey Service de Concierge (justificatifs d'identit\u00e9 bancaires)</label>\r\n\t\t\t\t\t\t\t\t<input name=\"problem7\" type=\"hidden\" value=\"No\">\r\n\t\t\t\t\t\t\t </li>\r\n\t\t\t\t\t\t\t<li class=\"checkbox\">\r\n\t\t\t\t\t\t\t\t<label for=\"problem8\"><input name=\"problem8\" id=\"problem8\" type=\"checkbox\" value=\"Yes\">Probl\u00e8me avec le Code d'acc\u00e8s personnel (CAP) ou avec le Code d'acc\u00e8s (CA) de l'assurance emploi</label>\r\n\t\t\t\t\t\t\t\t<input name=\"problem8\" type=\"hidden\" value=\"No\">\r\n\t\t\t\t\t\t\t </li>\t\r\n\t\t\t\t\t\t\t<li class=\"checkbox\">\r\n\t\t\t\t\t\t\t\t<label for=\"problem9\"><input name=\"problem9\" id=\"problem9\" type=\"checkbox\" value=\"Yes\">Probl\u00e8me li\u00e9 \u00e0 la validation du num\u00e9ro d'assurance sociale (NAS)</label>\r\n\t\t\t\t\t\t\t\t<input name=\"problem9\" type=\"hidden\" value=\"No\">\r\n\t\t\t\t\t\t\t </li>\t\t\t\t\t\t\t\t\r\n\t\t\t\t\t\t\t<li class=\"checkbox\">\r\n\t\t\t\t\t\t\t\t<label for=\"problem10\"><input name=\"problem10\" id=\"problem10\" type=\"checkbox\" value=\"Yes\">Autre erreur lors de l'ouverture de session qui ne figure pas sur cette liste</label>\r\n\t\t\t\t\t\t\t\t<input name=\"problem10\" type=\"hidden\" value=\"No\">\r\n\t\t\t\t\t\t\t </li>\t\t \r\n\t\t\t\t\t\t\t </ul>\r\n\t\t\t\t\t\t<div class=\"checkbox\">\r\n\t\t\t\t\t\t\t<label for=\"problem11\"><input name=\"problem11\" id=\"problem11\" type=\"checkbox\" value=\"Yes\">Je n'arrive pas \u00e0 trouver ce que je cherche</label>\r\n\t\t\t\t\t\t\t<input name=\"problem11\" type=\"hidden\" value=\"No\">\r\n\t\t\t\t\t\t</div>\r\n\t\t\t\t\t\t<div class=\"checkbox\">\r\n\t\t\t\t\t\t\t<label for=\"problem12\"><input name=\"problem12\" id=\"problem12\" type=\"checkbox\" value=\"Yes\">Autre probl\u00e8me qui ne figure pas sur cette liste</label>\r\n\t\t\t\t\t\t\t<input name=\"problem12\" type=\"hidden\" value=\"No\">\r\n\t\t\t\t\t\t</div>\t\t\t\t\t\t\t\t\t\t\t\t\t\t\t\t\t\t\t\r\n\t\t             </fieldset>\r\n\t\t\t\t\t <div>\r\n\t\t\t\t        <label for=\"aafc_ranstr\"><span id=\"fbch\">Veuillez inscrire les caract\u00e8res suivants  <strong class=\"required\">(obligatoire)</strong>\u00a0: </span><span id=\"ranstr\">XXX</span></label>\r\n\t\t\t            <input name=\"anti-spam-sequence\" id=\"aafc_ranstr\" size=\"4\" maxlength=\"3\" type=\"text\">\r\n\t\t\t\t\t </div>\r\n\t\t\t\t\t <input type=\"submit\" class=\"btn btn-primary\" value=\"Soumettre\">\r\n\t\t\t\t  </form>\r\n\t\t\t\t</div>\r\n\t\t\t  </div>\r\n\t\t\t</div>\r\n\t\t</details>\r\n\t    </div>\r\n\t  <div class=\"wb-share col-sm-4 col-md-3 col-sm-offset-2 col-md-offset-4 col-lg-offset-5\" data-wb-share='{\"lnkClass\": \"btn btn-default btn-block\"}'></div>\r\n\t  </div>\r\n\t  <dl id=\"wb-dtmd\">\r\n\t    <dt>Date de modification\u00a0: </dt>\r\n\t      <dd><time property=\"dateModified\">2020-01-24</time></dd>\r\n\t  </dl>\r\n\t</div>\r\n\t\r\n  "
    }
}