{
    "dcr_id": "1180360778454",
    "title": {
        "en": "Submit an access to information or personal information request \u2013 Agriculture",
        "fr": "Pr\u00e9senter une demande d\u2019acc\u00e8s \u00e0 l\u2019information ou \u00e0 vos renseignements personnels \u2013 Agriculture"
    },
    "modified": "2020-03-24",
    "issued": "2009-01-26",
    "templatetype": "content page 1 column",
    "page_type": "1",
    "node_id": "1365605504194",
    "dc_date_created": "2009-01-26",
    "managing_branch": "PAB",
    "parent_node_id": "1354137774044",
    "label": {
        "en": "Submit a Request for Information",
        "fr": "Pr\u00e9senter une demande d'acc\u00e8s \u00e0 l'information"
    },
    "exturl": "",
    "teamsite_location": {
        "en": "/default/main/AAFC-AAC/Internet-Internet/Common-Commun/WORKAREA/Common-Commun/templatedata/comm-comm/gene-gene/data/05/proact_procc-atip-req_1180360778454_en",
        "fr": "/default/main/AAFC-AAC/Internet-Internet/Common-Commun/WORKAREA/Common-Commun/templatedata/comm-comm/gene-gene/data/05/proact_procc-atip-req_1180360778454_fr"
    },
    "type_name": "sitemapinit",
    "has_dcr_id": true,
    "breadcrumb": {
        "en": "Submit a Request for Information",
        "fr": "Pr\u00e9senter une demande d'acc\u00e8s \u00e0 l'information"
    },
    "layout_name": "content page 1 column",
    "lang": "en",
    "meta": {
        "issued": {
            "en": "2009-01-26",
            "fr": "2009-01-26"
        },
        "modified": {
            "en": "2020-03-24",
            "fr": "2020-03-24"
        },
        "format": {
            "en": "text/html",
            "fr": "text/html"
        },
        "title": {
            "en": "Submit an access to information or personal information request \u2013 Agriculture",
            "fr": "Pr\u00e9senter une demande d\u2019acc\u00e8s \u00e0 l\u2019information ou \u00e0 vos renseignements personnels \u2013 Agriculture"
        },
        "subject": {
            "en": "legislation",
            "fr": "emploi;politique"
        },
        "description": {
            "en": "2.2 the administration and coordination of all activities related to the atip acts are carried out by the departmental atip division 3.0 definitions excluded records: excluded records include published material, material available for purchase by the public, library or museum material made or acquired and preserved solely for public reference or exhibition purposes, material placed in public archives, the national library or the national museum of canada by or on behalf of persons or organizations other than government institutions and confidences of the queen's privy council for canada.",
            "fr": "1.0 politique la politique d'agriculture et agroalimentaire canada (aac) est de : 1.1 s'assurer que toutes les demandes d'acc\u00e8s \u00e0 l'information pr\u00e9sent\u00e9es en vertu de la loi sur l'acc\u00e8s \u00e0 l'information et de la loi sur la protection des renseignements personnels (aiprp) sont trait\u00e9es par le coordonnateur minist\u00e9riel de l'acc\u00e8s \u00e0 l'information et de la protection des renseignements personnels."
        },
        "language": {
            "en": "eng",
            "fr": "fra"
        },
        "keywords": {
            "en": " formal request; this policy; atip acts; privacy act;information act",
            "fr": " vertu de ces lois; vertu des lois; institutions f\u00e9d\u00e9rales; manuel du conseil du tr\u00e9sor;protection des renseignements personnels"
        },
        "audience": {
            "en": "general public",
            "fr": "grand public"
        },
        "type": {
            "en": "program-service description",
            "fr": "description du programme ou du service"
        },
        "creator": {
            "en": "Corporate Management;Agriculture and Agri-Food Canada;Government of Canada",
            "fr": "Gestion Int\u00e9gr\u00e9e;Agriculture et Agroalimentaire Canada;Gouvernement du Canada"
        },
        "spatial": {
            "en": "gcregions",
            "fr": "gcregions"
        },
        "service": {
            "en": "AAFC-AAC",
            "fr": "AAFC-AAC"
        },
        "accessRights": {
            "en": "2",
            "fr": "2"
        },
        "legalName": {
            "en": "agriculture_and_agri_food_canada",
            "fr": "agriculture_et_agroalimentaire_canada"
        },
        "areaServed": {
            "en": "Canada",
            "fr": "Canada"
        }
    },
    "body": {
        "en": "tart --&gt;\r\n    <!-- D&eacute;but du contenu -->\r\n    <div class=\"mwstext section\">\n\n<aside class=\"col-md-4 mrgn-tp-lg pull-right\"> \n <section class=\"alert alert-info\"> \n  <h2 class=\"h3\">Did you know?</h2> \n  <p><strong>The information you are looking for may have already been released?</strong></p> \n  <p>Using our online application, you can search our database of summaries of already released ATI requests from all government institutions. If you find information of interest, you can request the previously released documents directly from your search results. <strong>There is no fee for such requests, and the service standard for response is 30 days. </strong></p> \n  <p><a href=\"https://open.canada.ca/en/search/ati?ati%5B0%5D=%3AAgriculture%20and%20Agri-Food%20Canada&amp;ati%5B1%5D=ati_organization_en%3AAgriculture%20and%20Agri-Food%20Canada\">Search previously released information</a></p> \n </section> \n <div class=\"well\"> \n  <h2 class=\"mrgn-tp-0\">Contact us</h2> \n  <p><a href=\"?id=1180114490359#c\">Contact our Access to Information and Privacy Office</a>.</p> \n </div> \n</aside> \n<section> \n <h2>Who can make a request </h2> \n <p>Any Canadian citizen, permanent resident or any person or corporation residing in Canada has the right to request access to records of government institutions that are subject to the <cite>Access to Information Act</cite>. </p> \n <p>Any Canadian citizen, permanent resident or individual present in Canada has the right to access their personal information held by government institutions that are subject to the <cite>Privacy Act</cite>.</p> \n</section> \n<section> \n <h2>Make a request online</h2> \n <p>There are several options when making an access to information or personal information request. Using the Access to Information and Privacy (ATIP) Online Request service is a fast, easy and convenient way to submit a request. This service allows individuals to make online requests for information instead of having to print, scan, email or mail a paper form.</p> \n <section> \n  <h3>Service standard</h3> \n  <p>You may be contacted about your request by the Access to Information and Privacy Office.</p> \n  <p>If a request is received after business hours, it will be dated the next business day.</p> \n  <p>We have up to 30 days to respond to your request, either by providing the records or explaining why more time is needed.</p>\n </section> \n <section> \n  <h3>What you will need</h3> \n  <p>What type of request are you making?</p> \n  <section> \n   <h4>Access to information for general government records (<a class=\"wb-lbx\" title=\"More information about Access to Information for general government records\" href=\"#inline_content\">not sure what this includes?<span class=\"sr-only\">not sure what this includes?</span></a>)</h4> \n   <details class=\"brdr-tp brdr-rght brdr-bttm brdr-lft\"> \n    <summary class=\"wb-toggle\" data-toggle='{\"print\":\"on\"}'>Things you need</summary> \n    <ul> \n     <li>Access to a <strong>valid email account</strong>;</li> \n     <li>Electronic <strong>copies of any documents</strong> you wish to attach to your request (accepted formats are DOC, DOCX, PDF, TIFF, JPG, or PNG); \n      <ul> \n       <li>Proof that you have the right to make an access to information request, such as proof of Canadian citizenship (a copy of your passport or citizenship certificate); proof of your status as a permanent resident (a copy of your permanent resident card); or proof of temporary status in Canada (a work, study and/or visitor permit).</li> \n      </ul> </li> \n     <li><strong>Credit card</strong> information to pay the $5 application fee (VISA, MasterCard or American Express are accepted. Payments cannot be made through debit or prepaid credit cards).</li> \n    </ul> \n   </details> \n  </section> \n  <section> \n   <h4>Access to personal information (<a class=\"wb-lbx\" title=\"More information about Access to personal Information\" href=\"#inline_content2\">not sure what this includes?<span class=\"sr-only\">not sure what this includes?</span></a>)</h4> \n   <details class=\"brdr-tp brdr-rght brdr-bttm brdr-lft\"> \n    <summary class=\"wb-toggle\" data-toggle='{\"print\":\"on\"}'>Things you need</summary> \n    <details class=\"brdr-tp brdr-rght brdr-bttm brdr-lft\"> \n     <summary class=\"wb-toggle\" data-toggle='{\"print\":\"on\"}'>Information about yourself</summary> \n     <ul> \n      <li>Access to a <strong>valid email account</strong></li> \n      <li>Electronic <strong>copies of any documents</strong> you wish to attach to your request (accepted formats are DOC, DOCX, PDF, TIFF, JPG, or PNG) \n       <ul> \n        <li>Proof that you have the right to make a personal information request, such as proof of Canadian citizenship (a copy of your passport or citizenship certificate); proof of your status as a permanent resident, (a copy of your permanent resident card); or proof of temporary status in Canada (a work, study and/or visitor permit)</li> \n       </ul> </li> \n     </ul> \n    </details> \n    <details class=\"brdr-tp brdr-rght brdr-bttm brdr-lft\"> \n     <summary class=\"wb-toggle\" data-toggle='{\"print\":\"on\"}'>Information about another individual with their consent</summary> \n     <ul> \n      <li>Access to a <strong>valid email account</strong></li> \n      <li>Electronic <strong>copies of any documents</strong> you wish to attach to your request (accepted formats are DOC, DOCX, PDF, TIFF, JPG, or PNG)</li> \n      <li>Proof that the individual on whose behalf you are making the request has the right to make a request for their personal information, such as proof of their Canadian citizenship (a copy of their passport or citizenship certificate); or proof of their status as a permanent resident (a copy of their permanent resident card); or proof of temporary status in Canada (a work, study, and/or visitor permit) OR</li> \n      <li>If the individual does not have a right to apply for their own personal information, then the request must be made under the <cite>Access to Information Act</cite>. You will need to provide: \n       <ul> \n        <li>Proof that you have the right to make an access to information request, such as \u00a0proof of Canadian citizenship (a copy of your passport or citizenship certificate); proof of your status as a permanent resident, (a copy of your permanent resident card);or proof of temporary status in Canada (a work, study and/or visitor permit)</li> \n        <li>Credit card information to pay the $5 application fee (VISA, MasterCard or American Express are accepted. Payments cannot be made through debit or prepaid credit cards)</li> \n        <li>Information about the individual about whom you are making the request, including name and date of birth.</li> \n       </ul> </li> \n      <li>If you are making a request on behalf of someone else, you must include consent to release their information. The consent must be signed and dated by the person authorizing the disclosure of his/her information.</li> \n     </ul> \n    </details> \n    <details class=\"brdr-tp brdr-rght brdr-bttm brdr-lft\"> \n     <summary class=\"wb-toggle\" data-toggle='{\"print\":\"on\"}'>Information about an individual who has been deceased for less than 20 years</summary> \n     <ul> \n      <li>Access to a <strong>valid email account</strong></li> \n      <li>Electronic <strong>copies of any documents</strong> you wish to attach to your request (accepted formats are DOC, DOCX, PDF, TIFF, JPG, or PNG) \n       <ul> \n        <li>Proof that the deceased person was a Canadian citizen (such as a copy of the person's passport or citizenship certificate); proof of the person's status as a permanent resident, (such as a copy of the person's permanent resident card); or proof of temporary status in Canada (such as a work, study and/or visitor permit)</li> \n        <li>Proof of your status as executor</li> \n       </ul> </li> \n     </ul> \n    </details> \n    <details class=\"brdr-tp brdr-rght brdr-bttm brdr-lft\"> \n     <summary class=\"wb-toggle\" data-toggle='{\"print\":\"on\"}'>Information about an individual who has been deceased for more than 20 years</summary> \n     <ul> \n      <li>Access to a <strong>valid email account</strong></li> \n      <li>Electronic <strong>copies of any documents</strong> you wish to attach to your request (accepted formats are DOC, DOCX, PDF, TIFF, JPG, or PNG) \n       <ul> \n        <li>Proof that you have the right to make an access to information request, such as proof of Canadian citizenship (a copy of your passport or citizenship certificate); proof of your status as a permanent resident (a copy of your permanent resident card); or proof of temporary status in Canada (a work, study and/or visitor permit)</li> \n        <li>Proof of <strong>death documentation</strong>, such as a copy of an obituary notice, a death certificate, or a photo of a tombstone</li> \n       </ul> </li> \n      <li><strong>Credit card</strong> information to pay the $5 application fee (VISA, MasterCard or American Express are accepted. Payments cannot be made through debit or prepaid credit cards)</li> \n     </ul> \n    </details> \n   </details> \n  </section> \n  <section> \n   <h4>Where do you go if you have questions?</h4> \n   <p>For any questions about the status of an existing request, or what to include in a request, (such as the type of documents or proof of identity) please <a href=\"?id=1180114490359#c\">contact our Access to Information and Privacy Office</a>.</p> \n   <p>If you require technical assistance with the ATIP Online service, please confirm your browser settings, then contact the <a href=\"/en/treasury-board-secretariat/services/access-information-privacy/access-information/contact-atip-online-client-support-team.html\">ATIP Online technical support team</a> if needed.</p> \n   <section id=\"inline_content\" class=\"mfp-hide modal-dialog modal-content overlay-def\"> \n    <header class=\"modal-header\"> \n     <!--h2 class=\"modal-title\">Note</h2--> \n    </header> \n    <div class=\"modal-body\"> \n     <p>For general records related to government operations.</p> \n     <p>If you are seeking access to government records generally, you can submit an access to information request under the <cite>Access to Information Act</cite>.</p> \n    </div> \n   </section> \n   <section id=\"inline_content2\" class=\"mfp-hide modal-dialog modal-content overlay-def\"> \n    <header class=\"modal-header\"> \n     <!--h2 class=\"modal-title\">Note</h2--> \n    </header> \n    <div class=\"modal-body\"> \n     <p>For information about you or someone else.</p> \n     <p>If you are seeking access to personal information held by a government institution, you can submit a request for personal information under the <cite>Privacy Act</cite>. </p> \n    </div> \n   </section> \n  </section> \n </section> \n <!--button for requests --> \n <p><a href=\"https://atip-aiprp.tbs-sct.gc.ca/\" type=\"button\" class=\"btn btn-primary mrgn-tp-md\"><strong>Proceed to ATIP online request</strong></a></p> \n <!-- --> \n</section> \n\n<section class=\"alert alert-info\"> \n  <h2 class=\"h3\">Notice on ATIP Online Request Service website:</h2> \n  <p><strong>Possible delays in processing your request</strong></p> \n  <p>Openness, transparency and accountability are guiding principles of the Government of Canada.\nHowever, our ability to respond to requests within the timelines mandated by the Access to\nInformation Act and the Privacy Act may be affected by the exceptional measures put in place to\ncurb the spread of the novel coronavirus (COVID-19) and protect the health and safety of\nCanadians. Access to information and personal information requests received from the public\ncontinue to be important to us. We will continue to make reasonable efforts to respond to\nrequests, in accordance with operational realities. Thank you in advance for your patience and\nunderstanding during this period as we all navigate these unprecedented challenges.</p> \n</section> \n\n<section> \n <h2>Make a request by mail or email </h2> \n <details class=\"brdr-tp brdr-rght brdr-bttm brdr-lft\"> \n  <summary class=\"wb-toggle\" data-toggle='{\"print\":\"on\"}'><strong>Step 1</strong>. Search existing summaries for the information you are requesting</summary> \n  <p>The first step in making an Access to Information request is to determine if the information you want has already been released. Please refer to <a href=\"?id=1347308413430\">Info Source</a> to find out what we do and what information we hold.</p> \n    \n  <p>Before making an access to information request, you can <a href=\"https://open.canada.ca/en/search/ati?ati%5B0%5D=%3AAgriculture%20and%20Agri-Food%20Canada&amp;ati%5B1%5D=ati_organization_en%3AAgriculture%20and%20Agri-Food%20Canada\">search previously released information</a> for records that have already been released by Agriculture and Agri-Food Canada to see if you can find what you are looking for there. </p> \n  \n  <p>Make note of the file number(s) of the completed requests you would like to see.</p> \n    \n  <p>You may also be interested in visiting the Government's <a href=\"http://open.canada.ca/en\">Open Government Portal</a>.</p> \n </details> \n <details class=\"brdr-tp brdr-rght brdr-bttm brdr-lft\"> \n  <summary class=\"wb-toggle\" data-toggle='{\"print\":\"on\"}'><strong>Step 2</strong>. Fill in the form</summary> \n  <p>Download the forms here:</p> \n  <ul class=\"list-unstyled lst-spcd mrgn-lft-lg\"> \n   <li>The <a href=\"http://www.tbs-sct.gc.ca/tbsf-fsct/350-57-eng.asp\">Access to Information Request Form</a> </li> \n   <li>The <a href=\"http://www.tbs-sct.gc.ca/tbsf-fsct/350-58-eng.asp\">Personal Information Request Form</a> </li> \n   <li>The <a href=\"http://www.tbs-sct.gc.ca/tbsf-fsct/350-11-eng.asp\">Record Correction Request Form</a></li> \n  </ul> \n  <p>Can't download or print the form?</p> \n  <p>You may also submit a letter clearly indicating that your request is being made under either the <cite>Access to Information Act</cite> or the <cite>Privacy Act</cite>, and describe the following:</p> \n  <ul> \n   <li>The records you are seeking. Be as specific as possible. For example, you could give a date range and detailed subject matter.</li> \n   <li>Your preferred method of receiving the records (copies sent electronically or by mail, or to view the records in person).</li> \n   <li>Your email address or telephone number in case there are questions.</li> \n   <li>Your name, street address, city or town, province or territory and postal code.</li> \n   <li>The date of your request.</li> \n  </ul> \n  <p>Other tips for submitting by mail or email:</p> \n  <ul> \n   <li>To assist in processing your request quickly, you could include details, such as a date range, that would assist us in finding the relevant records.</li> \n   <li>For personal information requests, we may ask for additional information to verify your identity.</li> \n  </ul> \n  <p><b>Mail your request and your application fee to</b><br>\nAccess to Information and Privacy Office<br>\nAgriculture and Agri-Food Canada<br>\nTower 4, 5<sup>th</sup> Floor, Room 264<br>\n1341 Baseline Road<br>\nOttawa, Ontario K1A 0C5</p>\n </details> \n <details class=\"brdr-tp brdr-rght brdr-bttm brdr-lft\"> \n  <summary class=\"wb-toggle\" data-toggle='{\"print\":\"on\"}'><strong>Step 3</strong>. Send the request and payment</summary> \n  <p><a href=\"?id=1180114490359#c\">Contact our Access to Information and Privacy Office</a>.</p> \n  <p>Be sure to include the appropriate fee with your request:</p> \n  <ul> \n   <li>There is no fee for <strong>personal information</strong> requests. </li> \n   <li>There is no fee for <strong>correcting your personal information</strong>.</li> \n   <li>For <strong>access to information</strong> requests, include the $5 application fee. </li> \n   <li>Generally, cheques or money orders can be made payable to the Receiver General of Canada. </li> \n  </ul> \n </details> \n <section> \n  <h3>You have sent in a request. Now what? </h3> \n  <p>Learn more about <a href=\"http://www.canada.ca/en/treasury-board-secretariat/services/access-information-privacy/access-information/how-access-information-personal-information-requests-work.html\">how access to information and personal information requests work</a>.</p> \n </section> \n</section>\n\n</div>\n\r\n    <!-- Fin du contenu -->\r\n  \r\n  <div class=\"pagedetails\" id=\"pgft\">\r\n    <div class=\"row\">\r\n\t  <div class=\"col-sm-6 col-md-5 col-lg-4\">\r\n\t    <details class=\"brdr-0\">\r\n\t\t<summary class=\"btn btn-default text-center\" onclick=\"getAntiSpamSeq('/eng/mail-handler/?anti-spam-sequence=true')\">Report a problem on this page</summary>\r\n\t\t<div class=\"clearfix\"></div>\r\n\t\t<div class=\"well row\">\r\n\t\t<div>\r\n\t\t  <div class=\"gc-rprt-prblm\">\r\n\t\t    <div class=\"gc-rprt-prblm-frm gc-rprt-prblm-tggl\">\r\n\t\t\t  \r\n\t\t\t<form id=\"report_a_problem_form\" action=\"/eng/mail-handler/#report_a_problem_form\" method=\"post\">\t\t\t\t   \t\t\t\r\n\r\n\t            \t <input type=\"hidden\" name=\"lang\" value=\"eng\">\r\n\t            \t <input type=\"hidden\" name=\"pageId\" value=\"1180360778454\">\r\n\t            \t <input type=\"hidden\" name=\"pageUrl\" value=\"http://www.agr.gc.ca/eng/about-our-department/offices-and-locations/access-to-information-and-protection-of-privacy-agriculture/submit-an-access-to-information-or-personal-information-request-agriculture/?id=1180360778454\">\r\n\t\t\t\t\t <div id=\"report_a_problem_form_error\"></div>\r\n\t\t             <fieldset>\t\t\t\t\t    \r\n\t\t                <legend><span class=\"field-name\">Please select all that apply:</span></legend>\t\t                                 \r\n\t\t\t\t\t\t<div class=\"checkbox\">\r\n\t\t\t\t\t\t\t<label for=\"problem1\"><input name=\"problem1\" id=\"problem1\" type=\"checkbox\" value=\"Yes\">A link, button or video is not working</label>\r\n\t\t\t\t\t\t\t<input name=\"problem1\" type=\"hidden\" value=\"No\">\r\n\t\t\t\t\t\t</div>\r\n\t\t\t\t\t\t<div class=\"checkbox\">\r\n\t\t\t\t\t\t\t<label for=\"problem2\"><input name=\"problem2\" id=\"problem2\" type=\"checkbox\" value=\"Yes\">It has a spelling mistake</label>\r\n\t\t\t\t\t\t\t<input name=\"problem2\" type=\"hidden\" value=\"No\">\r\n\t\t\t\t\t\t</div>\r\n\t\t\t\t\t\t<div class=\"checkbox\">\r\n\t\t\t\t\t\t\t<label for=\"problem3\"><input name=\"problem3\" id=\"problem3\" type=\"checkbox\" value=\"Yes\">Information is missing</label>\r\n\t\t\t\t\t\t\t<input name=\"problem3\" type=\"hidden\" value=\"No\">\r\n\t\t\t\t\t   </div>\r\n\t\t\t\t\t\t<div class=\"checkbox\">\r\n\t\t\t\t\t\t\t<label for=\"problem4\"><input name=\"problem4\" id=\"problem4\" type=\"checkbox\" value=\"Yes\">Information is outdated or wrong</label>\r\n\t\t\t\t\t\t\t<input name=\"problem4\" type=\"hidden\" value=\"No\">\r\n\t\t\t\t\t\t</div>\r\n\t\t\t\t\t\t<div class=\"checkbox\">\r\n\t\t\t\t\t\t\t<label for=\"problem5\"><input name=\"problem5\" id=\"problem5\" type=\"checkbox\" value=\"Yes\">Login error when trying to access an account (e.g. My Service Canada Account)</label>\r\n\t\t\t\t\t\t\t<input name=\"problem5\" type=\"hidden\" value=\"No\">\r\n\t\t\t\t\t\t</div>\r\n\t\t\t\t\t\t\t<ul>\r\n\t\t\t\t\t\t\t<li class=\"checkbox\">\r\n\t\t\t\t\t\t\t\t<label for=\"problem6a\"><input name=\"problem6\" id=\"problem6a\" type=\"checkbox\" value=\"Yes\">GC Key access</label>\r\n\t\t\t\t\t\t\t\t<input name=\"problem6\" type=\"hidden\" value=\"No\">\r\n\t\t\t\t\t\t\t </li>\r\n\t\t\t\t\t\t\t<li class=\"checkbox\">\r\n\t\t\t\t\t\t\t\t<label for=\"problem7\"><input name=\"problem7\" id=\"problem7\" type=\"checkbox\" value=\"Yes\">SecureKey Concierge (Banking Credential) access </label>\r\n\t\t\t\t\t\t\t\t<input name=\"problem7\" type=\"hidden\" value=\"No\">\r\n\t\t\t\t\t\t\t </li>\r\n\t\t\t\t\t\t\t<li class=\"checkbox\">\r\n\t\t\t\t\t\t\t\t<label for=\"problem8\"><input name=\"problem8\" id=\"problem8\" type=\"checkbox\" value=\"Yes\">Personal Access Code (PAC) problems or EI Access Code (AC) problems</label>\r\n\t\t\t\t\t\t\t\t<input name=\"problem8\" type=\"hidden\" value=\"No\">\r\n\t\t\t\t\t\t\t </li>\t\r\n\t\t\t\t\t\t\t<li class=\"checkbox\">\r\n\t\t\t\t\t\t\t\t<label for=\"problem9\"><input name=\"problem9\" id=\"problem9\" type=\"checkbox\" value=\"Yes\">Social Insurance Number (SIN) validation problems</label>\r\n\t\t\t\t\t\t\t\t<input name=\"problem9\" type=\"hidden\" value=\"No\">\r\n\t\t\t\t\t\t\t </li>\t\t\t\t\t\t\t\t\r\n\t\t\t\t\t\t\t<li class=\"checkbox\">\r\n\t\t\t\t\t\t\t\t<label for=\"problem10\"><input name=\"problem10\" id=\"problem10\" type=\"checkbox\" value=\"Yes\">Other login error not in this list</label>\r\n\t\t\t\t\t\t\t\t<input name=\"problem10\" type=\"hidden\" value=\"No\">\r\n\t\t\t\t\t\t\t </li>\t\t \r\n\t\t\t\t\t\t\t </ul>\r\n\t\t\t\t\t\t<div class=\"checkbox\">\r\n\t\t\t\t\t\t\t<label for=\"problem11\"><input name=\"problem11\" id=\"problem11\" type=\"checkbox\" value=\"Yes\">I can't find what I'm looking for</label>\r\n\t\t\t\t\t\t\t<input name=\"problem11\" type=\"hidden\" value=\"No\">\r\n\t\t\t\t\t\t</div>\r\n\t\t\t\t\t\t<div class=\"checkbox\">\r\n\t\t\t\t\t\t\t<label for=\"problem12\"><input name=\"problem12\" id=\"problem12\" type=\"checkbox\" value=\"Yes\">Other issue not in this list</label>\r\n\t\t\t\t\t\t\t<input name=\"problem12\" type=\"hidden\" value=\"No\">\r\n\t\t\t\t\t\t</div>\t\t\t\t\t\t \t\t\t\t\t\t\t\t\t\t\t\t \r\n\t\t             </fieldset>\r\n\t\t\t\t\t <div>\r\n\t\t\t\t\t   <label for=\"aafc_ranstr\"><span id=\"fbch\"><br>Enter these characters <strong class=\"required\">(required)</strong>: </span><span id=\"ranstr\">U5S</span></label>\r\n\t\t\t           <input name=\"anti-spam-sequence\" id=\"aafc_ranstr\" size=\"4\" maxlength=\"3\" type=\"text\">\r\n\t\t\t\t\t </div>\t\r\n\r\n\t\t\t\t\t <br><input type=\"submit\" class=\"btn btn-primary\" value=\"Submit\">\r\n\t\t\t\t  </form>\r\n\t\t\t\t</div>\r\n\t\t\t</div>\t\t\t\r\n\t\t  </div>\r\n\t\t</div>\r\n\t\t</details>\r\n\t  </div>\r\n\t  <div class=\"wb-share col-sm-4 col-md-3 col-sm-offset-2 col-md-offset-4 col-lg-offset-5\" data-wb-share='{\"lnkClass\": \"btn btn-default btn-block\"}'></div>\r\n\t</div>\r\n\t<dl id=\"wb-dtmd\">\r\n\t  <dt>Date modified: </dt>\r\n\t  <dd><time property=\"dateModified\">2020-03-24</time></dd></dl></div>",
        "fr": "\r\n    \r\n    <!-- MainContentStart -->\r\n    <!-- D&eacute;but du contenu -->\r\n    <div class=\"mwstext section\">\n\n<aside class=\"col-md-4 mrgn-tp-lg pull-right\"> \n <section class=\"alert alert-info\"> \n  <h2 class=\"h3\">Le saviez-vous?</h2> \n  <p><strong>Saviez-vous que les renseignements que vous cherchez ont peut-\u00eatre d\u00e9j\u00e0 \u00e9t\u00e9 divulgu\u00e9s?</strong></p> \n  <p>\u00c0 l'aide de notre application en ligne, vous pouvez consulter notre base de donn\u00e9es qui permet de faire une recherche dans les sommaires des demandes d'acc\u00e8s \u00e0 l'information d\u00e9j\u00e0 publi\u00e9es de toutes les institutions gouvernementales. Si vous trouvez des renseignements utiles, vous pouvez demander d'obtenir les documents d\u00e9j\u00e0 publi\u00e9s directement \u00e0 partir de vos r\u00e9sultats de recherche. <strong>Ces demandes sont gratuites, et la norme relative aux services ayant trait au d\u00e9lai de r\u00e9ponse est de 30\u00a0jours.</strong></p> \n  <p><a href=\"https://ouvert.canada.ca/fr/search/ati?ati%5B0%5D=%3AAgriculture%20and%20Agri-Food%20Canada&amp;ati%5B1%5D=ati_organization_en%3AAgriculture%20and%20Agri-Food%20Canada\">Recherche de renseignements publi\u00e9s ant\u00e9rieurement</a></p> \n </section> \n <div class=\"well\"> \n  <h2 class=\"mrgn-tp-0\">Contactez-nous</h2> \n  <p><a href=\"?id=1180114490359#c\">Communiquez avec notre Bureau de l'acc\u00e8s \u00e0 l'information et de la protection des renseignements personnels</a>.</p> \n </div> \n</aside> \n<section> \n <h2>Qui peut pr\u00e9senter une demande</h2> \n <p>Tout citoyen canadien, tout r\u00e9sident permanent ou toute autre personne physique ou morale \u00e9tablie au Canada a le droit de demander l'acc\u00e8s aux documents des institutions f\u00e9d\u00e9rales assujetties \u00e0 la <cite>Loi sur l'acc\u00e8s \u00e0 l'information</cite>. </p> \n <p>Tout citoyen canadien, tout r\u00e9sident permanent ou toute autre personne physique pr\u00e9sente au Canada a le droit d'acc\u00e9der aux renseignements personnels d\u00e9tenus \u00e0 son sujet par les institutions f\u00e9d\u00e9rales assujetties \u00e0 la <cite>Loi sur la protection des renseignements personnels</cite>.</p> \n</section> \n<section> \n <h2>Pr\u00e9senter une demande en ligne </h2> \n <p>Il existe plusieurs moyens par lesquels on peut pr\u00e9senter une demande d'acc\u00e8s \u00e0 l'information ou de renseignements personnels de fa\u00e7on s\u00e9curis\u00e9e. L'utilisation du service de demande d'AIPRP en ligne est une fa\u00e7on rapide, facile et pratique de le faire. Ce service permet aux particuliers de pr\u00e9senter des demandes en ligne de renseignements au lieu d'avoir \u00e0 imprimer, \u00e0 num\u00e9riser et \u00e0 envoyer un formulaire par courriel ou encore par courrier.</p> \n <section> \n  <h3>Norme de service</h3> \n  <p>Il est possible que le bureau de l'acc\u00e8s \u00e0 l'information et de protection des renseignements personnels communique avec vous \u00e0 cet \u00e9gard. </p> \n  <p>Si une demande est re\u00e7ue apr\u00e8s les heures d'ouverture, elle sera dat\u00e9e du jour ouvrable suivant.</p> \n  <p>Nous disposons de 30 jours pour r\u00e9pondre \u00e0 votre demande, soit en fournissant les documents, soit en expliquant pourquoi un d\u00e9lai suppl\u00e9mentaire est requis.</p>\n </section> \n <section> \n  <h3>Liste des \u00e9l\u00e9ments dont vous aurez besoin</h3> \n  <p>Quel type de demande pr\u00e9sentez-vous?</p> \n  <section> \n   <h4>Acc\u00e8s \u00e0 l'information pour des documents gouvernementaux g\u00e9n\u00e9raux (<a class=\"wb-lbx\" title=\"Plus d'informations sur acc\u00e8s \u00e0 l'information pour des documents gouvernementaux g\u00e9n\u00e9raux\" href=\"#inline_content\">vous n'\u00eates pas certain de ce que cela comprend?<span class=\"sr-only\">vous n'\u00eates pas certain de ce que cela comprend?</span></a>)</h4> \n   <details class=\"brdr-tp brdr-rght brdr-bttm brdr-lft\"> \n    <summary class=\"wb-toggle\" data-toggle='{\"print\":\"on\"}'>Ce qu'il vous faut\u00a0:</summary> \n    <ul> \n     <li>l'acc\u00e8s \u00e0 un <strong>compte de courriel valide</strong>;</li> \n     <li>les copies \u00e9lectroniques <strong>de tout document</strong> que vous souhaitez joindre \u00e0 votre demande (les formats accept\u00e9s sont DOC, DOCX, PDF, TIFF, JPG ou PNG); \n      <ul> \n       <li>la preuve que vous avez le droit de pr\u00e9senter une demande d'acc\u00e8s \u00e0 l'information, soit une preuve de citoyennet\u00e9 canadienne (copie de votre passeport ou de votre certificat de citoyennet\u00e9), une preuve de votre statut de r\u00e9sident permanent (copie de votre carte de r\u00e9sident permanent), ou encore une preuve de votre statut temporaire au Canada (un permis de travail ou d'\u00e9tudes ou un visa de visiteur);</li> \n      </ul> </li> \n     <li>les renseignements relatifs \u00e0 votre <strong>carte de cr\u00e9dit</strong> afin d'acquitter les frais de demande de 5\u00a0$ (les cartes VISA, MasterCard ou American Express sont accept\u00e9es; les paiements ne peuvent pas \u00eatre effectu\u00e9s par carte de d\u00e9bit ou par carte de cr\u00e9dit pr\u00e9pay\u00e9e).</li> \n    </ul> \n   </details> \n  </section> \n  <section> \n   <h4>Acc\u00e8s aux renseignements personnels (<a class=\"wb-lbx\" title=\"Plus d'informations sur acc\u00e8s aux renseignements personnels\" href=\"#inline_content2\">vous n'\u00eates pas certain(e) de ce que cela comprend?<span class=\"sr-only\">vous n'\u00eates pas certain(e) de ce que cela comprend?</span></a>)</h4> \n   <details class=\"brdr-tp brdr-rght brdr-bttm brdr-lft\"> \n    <summary class=\"wb-toggle\" data-toggle='{\"print\":\"on\"}'>Ce qu'il vous faut</summary> \n    <details class=\"brdr-tp brdr-rght brdr-bttm brdr-lft\"> \n     <summary class=\"wb-toggle\" data-toggle='{\"print\":\"on\"}'>Ce qu'il vous faut (renseignements personnels)\u00a0:</summary> \n     <ul> \n      <li>l'acc\u00e8s \u00e0 un <strong>compte de courriel valide</strong>;</li> \n      <li>les copies \u00e9lectroniques <strong>de tout document</strong> que vous souhaitez joindre \u00e0 votre demande (les formats accept\u00e9s sont DOC, DOCX, PDF, TIFF, JPG ou PNG); \n       <ul> \n        <li>la preuve que vous avez le droit de pr\u00e9senter une demande d'acc\u00e8s \u00e0 vos renseignements personnels, soit une preuve de citoyennet\u00e9 canadienne (copie de votre passeport ou de votre certificat de citoyennet\u00e9), une preuve de votre statut de r\u00e9sident permanent (copie de votre carte de r\u00e9sident permanent), ou encore une preuve de statut temporaire au Canada (un permis de travail ou d'\u00e9tudes ou un visa de visiteur).</li> \n       </ul> </li> \n     </ul> \n    </details> \n    <details class=\"brdr-tp brdr-rght brdr-bttm brdr-lft\"> \n     <summary class=\"wb-toggle\" data-toggle='{\"print\":\"on\"}'>Demande de renseignements sur une autre personne avec son consentement\u00a0:</summary> \n     <ul> \n      <li>l'acc\u00e8s \u00e0 un <strong>compte de courriel valide</strong>;</li> \n      <li>les copies \u00e9lectroniques <strong>de tout document</strong> que vous souhaitez joindre \u00e0 votre demande (les formats accept\u00e9s sont DOC, DOCX, PDF, TIFF, JPG ou PNG);</li> \n      <li>la preuve que la personne pour laquelle vous pr\u00e9sentez la demande a le droit de produire une demande d'acc\u00e8s \u00e0 ses renseignements personnels, soit une preuve de sa citoyennet\u00e9 canadienne (copie de son passeport ou de son certificat de citoyennet\u00e9), une preuve de son statut de r\u00e9sident permanent (copie de sa carte de r\u00e9sident permanent), ou encore une preuve de son statut temporaire au Canada (un permis de travail ou d'\u00e9tudes ou un visa de visiteur); OU</li> \n      <li>si la personne n'a pas le droit demander l'acc\u00e8s \u00e0 ses propres renseignements personnels, la demande doit \u00eatre formul\u00e9e au titre de la <cite>Loi sur l'acc\u00e8s \u00e0 l'information</cite>. Vous devrez alors fournir\u00a0: \n       <ul> \n        <li>la preuve que vous avez le droit de pr\u00e9senter une demande d'acc\u00e8s \u00e0 l'information, soit une preuve de citoyennet\u00e9 canadienne (copie du passeport ou du certificat de citoyennet\u00e9), une preuve du statut de r\u00e9sident permanent (copie de la carte de r\u00e9sident permanent), ou encore une preuve du statut temporaire au Canada (un permis de travail ou d'\u00e9tudes ou un visa de visiteur);</li> \n        <li>les renseignements relatifs \u00e0 une carte de cr\u00e9dit afin d'acquitter les frais de demande de 5\u00a0$ (les cartes VISA, MasterCard ou American Express sont accept\u00e9es; les paiements ne peuvent pas \u00eatre effectu\u00e9s par carte de d\u00e9bit ou par carte de cr\u00e9dit pr\u00e9pay\u00e9e);</li> \n        <li>les renseignements sur la personne pour laquelle vous pr\u00e9sentez la demande, notamment son nom et sa date de naissance.</li> \n       </ul> </li> \n      <li>Si vous pr\u00e9sentez une demande au nom d'une autre personne, vous devez y inclure son consentement \u00e0 la divulgation de ses renseignements. Le consentement doit \u00eatre sign\u00e9 et dat\u00e9 par la personne qui autorise la divulgation de ses renseignements personnels.</li> \n     </ul> \n    </details> \n    <details class=\"brdr-tp brdr-rght brdr-bttm brdr-lft\"> \n     <summary class=\"wb-toggle\" data-toggle='{\"print\":\"on\"}'>Demande de renseignements sur une personne d\u00e9c\u00e9d\u00e9e depuis moins de 20\u00a0ans\u00a0:</summary> \n     <ul> \n      <li>l'acc\u00e8s \u00e0 un <strong>compte de courriel valide</strong>;</li> \n      <li>les copies \u00e9lectroniques <strong>de tout document</strong> que vous souhaitez joindre \u00e0 votre demande (les formats accept\u00e9s sont DOC, DOCX, PDF, TIFF, JPG ou PNG); \n       <ul> \n        <li>la preuve que la personne d\u00e9c\u00e9d\u00e9e poss\u00e9dait la citoyennet\u00e9 canadienne (telle qu'une copie de son passeport ou de son certificat de citoyennet\u00e9) ou une preuve de son statut de r\u00e9sident permanent (copie de sa carte de r\u00e9sident permanent), ou encore une preuve de son statut temporaire au Canada (un permis de travail ou d'\u00e9tudes ou un visa de visiteur);</li> \n        <li>la preuve de votre statut d'ex\u00e9cuteur testamentaire.</li> \n       </ul> </li> \n     </ul> \n    </details> \n    <details class=\"brdr-tp brdr-rght brdr-bttm brdr-lft\"> \n     <summary class=\"wb-toggle\" data-toggle='{\"print\":\"on\"}'>Demande de renseignements sur une personne d\u00e9c\u00e9d\u00e9e depuis plus de 20\u00a0ans\u00a0:</summary> \n     <ul> \n      <li>l'acc\u00e8s \u00e0 un <strong>compte de courriel valide</strong>;</li> \n      <li>les copies \u00e9lectroniques <strong>de tout document</strong> que vous souhaitez joindre \u00e0 votre demande (les formats accept\u00e9s sont DOC, DOCX, PDF, TIFF, JPG ou PNG); \n       <ul> \n        <li>la preuve que vous avez le droit de pr\u00e9senter une demande d'acc\u00e8s \u00e0 l'information, soit une preuve de citoyennet\u00e9 canadienne (copie de votre passeport ou de votre certificat de citoyennet\u00e9), une preuve de votre statut de r\u00e9sident permanent (copie de votre carte de r\u00e9sident permanent), ou encore une preuve de votre statut temporaire au Canada (un permis de travail ou d'\u00e9tudes ou un visa de visiteur);</li> \n        <li>une <strong>preuve de d\u00e9c\u00e8s</strong>, telle qu'une copie de notice n\u00e9crologique ou de certificat de d\u00e9c\u00e8s ou une photo de pierre tombale;</li> \n       </ul> </li> \n      <li>les renseignements relatifs \u00e0 votre <strong>carte de cr\u00e9dit</strong> afin d'acquitter les frais de demande de 5\u00a0$ (les cartes VISA, MasterCard ou American Express sont accept\u00e9es; les paiements ne peuvent pas \u00eatre effectu\u00e9s par carte de d\u00e9bit ou par carte de cr\u00e9dit pr\u00e9pay\u00e9e).</li> \n     </ul> \n    </details> \n   </details> \n  </section> \n  <section> \n   <h4>\u00c0 qui s'adresser en cas de questions?</h4> \n   <p>Si vous avez des questions au sujet de l'\u00e9tat d'une demande existante ou de ce qu'il faut inclure dans une demande (comme le type de documents ou une preuve d'identit\u00e9), <a href=\"?id=1180114490359#c\">communiquez avec notre Bureau de l'acc\u00e8s \u00e0 l'information et de la protection des renseignements personnels</a>.</p> \n   <p>Si vous avez besoin d'aide technique pour utiliser le service AIPRP en ligne, veuillez confirmer les param\u00e8tres de votre navigateur et contacter l<a href=\"https://canada-preview.adobecqms.net/fr/secretariat-conseil-tresor/services/acces-information-protection-reseignements-personnels/acces-information/contacter-equipe-service-clientele-aiprp-en-ligne.html\">'\u00e9quipe de soutien technique de l'AIPRP en ligne</a>, au besoin. </p> \n   <section id=\"inline_content\" class=\"mfp-hide modal-dialog modal-content overlay-def\"> \n    <header class=\"modal-header\"> \n     <!--h2 class=\"modal-title\">Note</h2--> \n    </header> \n    <div class=\"modal-body\"> \n     <p>Pour des documents de nature g\u00e9n\u00e9rale au sujet des activit\u00e9s du gouvernement. </p> \n     <p>Si vous d\u00e9sirez avoir acc\u00e8s aux documents du gouvernement en g\u00e9n\u00e9ral, vous pouvez pr\u00e9senter une demande d'acc\u00e8s \u00e0 l'information au titre de la <cite>Loi sur l'acc\u00e8s \u00e0 l'information</cite>. </p> \n    </div> \n   </section> \n   <section id=\"inline_content2\" class=\"mfp-hide modal-dialog modal-content overlay-def\"> \n    <header class=\"modal-header\"> \n     <!--h2 class=\"modal-title\">Note</h2--> \n    </header> \n    <div class=\"modal-body\"> \n     <p>Pour obtenir des renseignements \u00e0 votre propre sujet ou celui de quelqu'un d'autre. </p> \n     <p>Si vous d\u00e9sirez obtenir des renseignements personnels qu'une institution du gouvernement a en sa possession, vous pouvez pr\u00e9senter une demande de renseignements personnels au titre de la <cite>Loi sur la protection des renseignements personnels</cite>.</p> \n    </div> \n   </section> \n  </section> \n </section> \n <!--button for requests --> \n <p><a href=\"https://atip-aiprp.tbs-sct.gc.ca/fr/\" type=\"button\" class=\"btn btn-primary mrgn-tp-md\"><strong>Passer \u00e0 la demande d'AIPRP en ligne</strong></a></p> \n <!-- --> \n</section>\n\n<section class=\"alert alert-info\"> \n  <h2 class=\"h3\">Avis sur le site Web du Service de demande en ligne de l'AIPRP\u00a0:</h2> \n  <p><strong>Retards possibles dans le traitement de votre demande</strong></p> \n  <p>L\u2019ouverture, la transparence et la responsabilit\u00e9 sont des principes directeurs du gouvernement du Canada. Toutefois, notre capacit\u00e9 \u00e0 respecter les d\u00e9lais prescrits pour les demandes pr\u00e9sent\u00e9es en vertu de la Loi sur l\u2019acc\u00e8s \u00e0 l\u2019information et de la Loi sur la protection des\nrenseignements personnels pourrait \u00eatre affect\u00e9e par les mesures exceptionnelles mises en place pour freiner la propagation du nouveau coronavirus (COVID-19), prot\u00e9ger la sant\u00e9 des Canadiens et assurer leur s\u00e9curit\u00e9. Les demandes d\u2019acc\u00e8s \u00e0 l\u2019information ou \u00e0 des renseignements personnels que nous recevons du public continuent d\u2019\u00eatre importantes pour nous. Nous continuerons de faire des efforts raisonnables pour r\u00e9pondre aux demandes, en tenant compte des r\u00e9alit\u00e9s op\u00e9rationnelles. Nous vous remercions \u00e0 l\u2019avance de votre patience et de votre compr\u00e9hension alors que nous relevons tous ces d\u00e9fis sans pr\u00e9c\u00e9dent.</p> \n</section> \n \n<section> \n <h2>Envoyer une demande par la poste ou par courriel </h2> \n <details class=\"brdr-tp brdr-rght brdr-bttm brdr-lft\"> \n  <summary class=\"wb-toggle\" data-toggle='{\"print\":\"on\"}'><strong>\u00c9tape 1.</strong> Recherche dans les sommaires pour les renseignements que vous demandez</summary> \n  <p>La premi\u00e8re \u00e9tape d'une demande d'acc\u00e8s \u00e0 l'information consiste \u00e0 d\u00e9terminer si les renseignements que vous cherchez ont d\u00e9j\u00e0 \u00e9t\u00e9 divulgu\u00e9es. Veuillez consulter <a href=\"?id=1347308413430\">Info Source</a> afin de savoir ce que nous faisons et quels renseignements nous d\u00e9tenons.</p> \n  \n  <p>Avant de pr\u00e9senter une demande d'acc\u00e8s \u00e0 l'information, vous pouvez faire une <a href=\"https://ouvert.canada.ca/fr/search/ati?ati%5B0%5D=%3AAgriculture%20and%20Agri-Food%20Canada&amp;ati%5B1%5D=ati_organization_en%3AAgriculture%20and%20Agri-Food%20Canada\">recherche de renseignements publi\u00e9s ant\u00e9rieurement</a> afin de trouver les documents que vous souhaitez obtenir et qui ont d\u00e9j\u00e0 \u00e9t\u00e9 publi\u00e9s par Agriculture et Agroalimentaire Canada. </p> \n  \n    <p>Prendre en note les num\u00e9ros de dossier des demandes compl\u00e9t\u00e9es que vous aimeriez consulter.</p> \n    \n  <p>Le <a href=\"http://ouvert.canada.ca/fr\">Portail du gouvernement ouvert</a> pourrait \u00e9galement vous int\u00e9resser. </p> \n </details> \n\n <details class=\"brdr-tp brdr-rght brdr-bttm brdr-lft\"> \n  <summary class=\"wb-toggle\" data-toggle='{\"print\":\"on\"}'><strong>\u00c9tape 2.</strong> Remplir le formulaire</summary> \n  <p>T\u00e9l\u00e9charger les formulaires ici\u00a0:</p> \n  <ul> \n   <li>Le <a href=\"http://www.tbs-sct.gc.ca/tbsf-fsct/350-57-fra.asp\">Formulaire de demande d'acc\u00e8s \u00e0 l'information</a> </li> \n   <li>Le <a href=\"http://www.tbs-sct.gc.ca/tbsf-fsct/350-58-fra.asp\">Formulaire de demande d'acc\u00e8s \u00e0 des renseignements personnels</a> </li> \n   <li>Le <a href=\"http://www.tbs-sct.gc.ca/tbsf-fsct/350-11-fra.asp\">Formulaire de demande de correction de dossier</a> </li> \n  </ul> \n  <p>Impossible de t\u00e9l\u00e9charger ou d'imprimer le formulaire? </p> \n  <p>Vous avez \u00e9galement la possibilit\u00e9 d'envoyer une lettre indiquant clairement que votre demande est faite au titre de la <cite>Loi sur l'acc\u00e8s \u00e0 l'information</cite> ou de la <cite>Loi sur la protection des renseignements personnels</cite>, en d\u00e9crivant ce qui suit\u00a0:</p> \n  <ul> \n   <li>les documents que vous cherchez; soyez aussi pr\u00e9cis que possible (p.\u00a0ex., vous pourriez fournir une plage de dates et des sp\u00e9cifications d\u00e9taill\u00e9es);</li> \n   <li>la m\u00e9thode que vous pr\u00e9f\u00e9rez pour recevoir les documents (soit des copies envoy\u00e9es par voie \u00e9lectronique ou par la poste, soit consult\u00e9es en personne);</li> \n   <li>votre adresse \u00e9lectronique ou votre num\u00e9ro de t\u00e9l\u00e9phone en cas de questions;</li> \n   <li>vos nom, adresse, ville, province ou territoire et code postal;</li> \n   <li>la date de votre demande.</li> \n  </ul> \n  <p>Autres conseils pour l'envoi d'une demande par la poste ou par courriel\u00a0:</p> \n  <ul> \n   <li>Afin que nous puissions traiter votre demande rapidement, vous pourriez inclure des d\u00e9tails, tels qu'une plage de dates, qui nous aideraient \u00e0 trouver les documents pertinents.</li> \n   <li>Pour les demandes d'acc\u00e8s \u00e0 des renseignements personnels, nous pouvons demander des renseignements suppl\u00e9mentaires afin de v\u00e9rifier votre identit\u00e9.</li> \n  </ul> \n  <p><b>Postez votre demande et le paiement des frais \u00e0</b><br>\nBureau de l'acc\u00e8s \u00e0 l'information et de la protection des renseignements personnels<br>\nAgriculture et Agroalimentaire Canada<br>\n1341, chemin Baseline<br>\nTour 4, 5<sup>i\u00e8me</sup> \u00e9tage, pi\u00e8ce 264<br>\nOttawa (Ontario) K1A 0C5</p>\n </details> \n <details class=\"brdr-tp brdr-rght brdr-bttm brdr-lft\"> \n  <summary class=\"wb-toggle\" data-toggle='{\"print\":\"on\"}'><strong>\u00c9tape 3.</strong> Envoyer la demande et le paiement</summary> \n  <p><a href=\"?id=1180114490359#c\">Communiquez avec notre Bureau de l'acc\u00e8s \u00e0 l'information et de la protection des renseignements personnels</a>.</p> \n  <p>Assurez-vous d'inclure les frais applicables dans votre demande\u00a0:</p> \n  <ul> \n   <li>Il n'y a aucuns frais pour les demandes d'acc\u00e8s \u00e0 des renseignements personnels.</li> \n   <li>Il n'y a pas de frais pour les demandes de renseignements personnels.</li> \n   <li>En ce qui concerne les demandes d'acc\u00e8s \u00e0 l'information, il faut payer des frais de demande de cinq dollars.</li> \n   <li>De fa\u00e7on g\u00e9n\u00e9rale, les ch\u00e8ques ou les mandats-poste peuvent \u00eatre faits \u00e0 l'ordre du receveur g\u00e9n\u00e9ral du Canada.</li> \n  </ul> \n </details> \n</section> \n<h2>Vous avez envoy\u00e9 une demande. Et maintenant?</h2> \n<p>Apprenez-en davantage sur le <a href=\"http://www.canada.ca/fr/secretariat-conseil-tresor/services/acces-information-protection-reseignements-personnels/acces-information/fonctionnement-demandes-acces-information-renseignements-personnels.html\">fonctionnement des demandes d'acc\u00e8s \u00e0 l'information et de renseignements personnels</a>.</p>\n\n</div>\n\r\n    <!-- Fin du contenu -->\r\n\t\r\n\t<div class=\"pagedetails\" id=\"pgft\">\r\n\t\t<div class=\"row\">\r\n\t\t  <div class=\"col-sm-6 col-md-5 col-lg-4\">\r\n\t\t    <details class=\"brdr-0\">\r\n\t\t\t<summary class=\"btn btn-default text-center\" onclick=\"getAntiSpamSeq('/fra/mail-handler/?anti-spam-sequence=true')\">Signaler un probl\u00e8me sur cette page</summary>\r\n\t\t\t<div class=\"well row\">\r\n\t\t\t  <div class=\"gc-rprt-prblm\">\r\n\t\t\t    <div class=\"gc-rprt-prblm-frm gc-rprt-prblm-tggl\">\r\n\t\t\t\t   <form id=\"report_a_problem_form\" action=\"/fra/mail-handler/\" method=\"post\">\r\n\t            \t <input type=\"hidden\" name=\"lang\" value=\"fra\">\r\n\t            \t <input type=\"hidden\" name=\"pageId\" value=\"1180360778454\">\r\n\t            \t <input type=\"hidden\" name=\"pageUrl\" value=\"http://www.agr.gc.ca/fra/a-propos-de-notre-ministere/bureaux-et-emplacements/acces-a-linformation-et-protection-des-renseignements-personnels-agriculture/presenter-une-demande-dacces-a-linformation-ou-a-vos-renseignements-personnels-agriculture/?id=1180360778454\">\r\n\t\t\t\t\t <div id=\"report_a_problem_form_error\"></div>\r\n\t\t             <fieldset>\t\t\t\t\t    \r\n\t\t                <legend><span class=\"field-name\">Veuillez cocher toutes les r\u00e9ponses pertinentes\u00a0:</span></legend>\r\n\t\t                 <div class=\"checkbox\">\r\n\t\t                    <label for=\"problem1\"><input name=\"problem1\" id=\"problem1\" type=\"checkbox\" value=\"Yes\">Un lien, un bouton ou une vid\u00e9o ne fonctionne pas</label>\r\n\t\t                    <input name=\"problem1\" type=\"hidden\" value=\"No\">\r\n\t\t                </div>\r\n\t\t                <div class=\"checkbox\">\r\n\t\t                    <label for=\"problem2\"><input name=\"problem2\" id=\"problem2\" type=\"checkbox\" value=\"Yes\">Il y a une erreur d'orthographe ou de grammaire</label>\r\n\t\t                    <input name=\"problem2\" type=\"hidden\" value=\"No\">\r\n\t\t                </div>\r\n\t\t   \t\t\t\t <div class=\"checkbox\">\r\n\t\t                    <label for=\"problem3\"><input name=\"problem3\" id=\"problem3\" type=\"checkbox\" value=\"Yes\">Les renseignements sont incomplets</label>\r\n\t\t                    <input name=\"problem3\" type=\"hidden\" value=\"No\">\r\n\t\t                </div>\r\n\t\t             \t\t<div class=\"checkbox\">\r\n\t\t                    <label for=\"problem4\"><input name=\"problem4\" id=\"problem4\" type=\"checkbox\" value=\"Yes\">L'information n'est plus \u00e0 jour ou est erron\u00e9e</label>\r\n\t\t                    <input name=\"problem4\" type=\"hidden\" value=\"No\">\r\n\t\t                </div>\t\t\t\t\t\t\r\n\t\t\t\t\t\t<div class=\"checkbox\">\r\n\t\t\t\t\t\t\t<label for=\"problem5\"><input name=\"problem5\" id=\"problem5\" type=\"checkbox\" value=\"Yes\">Message d'erreur \u00e0 l'ouverture de la session lorsque je tente d'acc\u00e9der \u00e0 un compte (ex. Mon dossier Service Canada)</label>\r\n\t\t\t\t\t\t\t<input name=\"problem5\" type=\"hidden\" value=\"No\">\r\n\t\t\t\t\t\t</div>\r\n\t\t\t\t\t\t\t<ul>\r\n\t\t\t\t\t\t\t<li class=\"checkbox\">\r\n\t\t\t\t\t\t\t\t<label for=\"problem6a\"><input name=\"problem6\" id=\"problem6a\" type=\"checkbox\" value=\"Yes\">Acc\u00e8s Cl\u00e9GC</label>\r\n\t\t\t\t\t\t\t\t<input name=\"problem6\" type=\"hidden\" value=\"No\">\r\n\t\t\t\t\t\t\t </li>\r\n\t\t\t\t\t\t\t<li class=\"checkbox\">\r\n\t\t\t\t\t\t\t\t<label for=\"problem7\"><input name=\"problem7\" id=\"problem7\" type=\"checkbox\" value=\"Yes\">Acc\u00e8s SecureKey Service de Concierge (justificatifs d'identit\u00e9 bancaires)</label>\r\n\t\t\t\t\t\t\t\t<input name=\"problem7\" type=\"hidden\" value=\"No\">\r\n\t\t\t\t\t\t\t </li>\r\n\t\t\t\t\t\t\t<li class=\"checkbox\">\r\n\t\t\t\t\t\t\t\t<label for=\"problem8\"><input name=\"problem8\" id=\"problem8\" type=\"checkbox\" value=\"Yes\">Probl\u00e8me avec le Code d'acc\u00e8s personnel (CAP) ou avec le Code d'acc\u00e8s (CA) de l'assurance emploi</label>\r\n\t\t\t\t\t\t\t\t<input name=\"problem8\" type=\"hidden\" value=\"No\">\r\n\t\t\t\t\t\t\t </li>\t\r\n\t\t\t\t\t\t\t<li class=\"checkbox\">\r\n\t\t\t\t\t\t\t\t<label for=\"problem9\"><input name=\"problem9\" id=\"problem9\" type=\"checkbox\" value=\"Yes\">Probl\u00e8me li\u00e9 \u00e0 la validation du num\u00e9ro d'assurance sociale (NAS)</label>\r\n\t\t\t\t\t\t\t\t<input name=\"problem9\" type=\"hidden\" value=\"No\">\r\n\t\t\t\t\t\t\t </li>\t\t\t\t\t\t\t\t\r\n\t\t\t\t\t\t\t<li class=\"checkbox\">\r\n\t\t\t\t\t\t\t\t<label for=\"problem10\"><input name=\"problem10\" id=\"problem10\" type=\"checkbox\" value=\"Yes\">Autre erreur lors de l'ouverture de session qui ne figure pas sur cette liste</label>\r\n\t\t\t\t\t\t\t\t<input name=\"problem10\" type=\"hidden\" value=\"No\">\r\n\t\t\t\t\t\t\t </li>\t\t \r\n\t\t\t\t\t\t\t </ul>\r\n\t\t\t\t\t\t<div class=\"checkbox\">\r\n\t\t\t\t\t\t\t<label for=\"problem11\"><input name=\"problem11\" id=\"problem11\" type=\"checkbox\" value=\"Yes\">Je n'arrive pas \u00e0 trouver ce que je cherche</label>\r\n\t\t\t\t\t\t\t<input name=\"problem11\" type=\"hidden\" value=\"No\">\r\n\t\t\t\t\t\t</div>\r\n\t\t\t\t\t\t<div class=\"checkbox\">\r\n\t\t\t\t\t\t\t<label for=\"problem12\"><input name=\"problem12\" id=\"problem12\" type=\"checkbox\" value=\"Yes\">Autre probl\u00e8me qui ne figure pas sur cette liste</label>\r\n\t\t\t\t\t\t\t<input name=\"problem12\" type=\"hidden\" value=\"No\">\r\n\t\t\t\t\t\t</div>\t\t\t\t\t\t\t\t\t\t\t\t\t\t\t\t\t\t\t\r\n\t\t             </fieldset>\r\n\t\t\t\t\t <div>\r\n\t\t\t\t        <label for=\"aafc_ranstr\"><span id=\"fbch\">Veuillez inscrire les caract\u00e8res suivants  <strong class=\"required\">(obligatoire)</strong>\u00a0: </span><span id=\"ranstr\">XXX</span></label>\r\n\t\t\t            <input name=\"anti-spam-sequence\" id=\"aafc_ranstr\" size=\"4\" maxlength=\"3\" type=\"text\">\r\n\t\t\t\t\t </div>\r\n\t\t\t\t\t <input type=\"submit\" class=\"btn btn-primary\" value=\"Soumettre\">\r\n\t\t\t\t  </form>\r\n\t\t\t\t</div>\r\n\t\t\t  </div>\r\n\t\t\t</div>\r\n\t\t</details>\r\n\t    </div>\r\n\t  <div class=\"wb-share col-sm-4 col-md-3 col-sm-offset-2 col-md-offset-4 col-lg-offset-5\" data-wb-share='{\"lnkClass\": \"btn btn-default btn-block\"}'></div>\r\n\t  </div>\r\n\t  <dl id=\"wb-dtmd\">\r\n\t    <dt>Date de modification\u00a0: </dt>\r\n\t      <dd><time property=\"dateModified\">2020-03-24</time></dd>\r\n\t  </dl>\r\n\t</div>\r\n\t\r\n  "
    }
}