{
    "dcr_id": "1480968240072",
    "title": {
        "en": "Service Standards for Red Meat and Livestock Reports",
        "fr": "Normes de service relatives aux rapports sur les animaux \u00e0 viande rouge et le b\u00e9tail"
    },
    "modified": "2017-05-19",
    "issued": "2016-12-06",
    "templatetype": "content page 1 column",
    "page_type": "1",
    "node_id": "1367497539894",
    "dc_date_created": "2016-12-06",
    "managing_branch": "PAB",
    "parent_node_id": "1354137773862",
    "label": {
        "en": "Meat and Livestock - Foreign and Domestic Market Opportunities",
        "fr": "Viande et b\u00e9tail - Opportunit\u00e9s dans les march\u00e9s nationaux et \u00e0 l\u2019\u00e9tranger"
    },
    "exturl": "",
    "teamsite_location": {
        "en": "/default/main/AAFC-AAC/Internet-Internet/CCB-DGCC/WORKAREA/CCB-DGCC/templatedata/comm-comm/gene-gene/data/red_meat_serv_stand_1480968240072_en",
        "fr": "/default/main/AAFC-AAC/Internet-Internet/CCB-DGCC/WORKAREA/CCB-DGCC/templatedata/comm-comm/gene-gene/data/red_meat_serv_stand_1480968240072_fr"
    },
    "type_name": "sitemapinit",
    "has_dcr_id": true,
    "breadcrumb": {
        "en": "Meat and Livestock - Foreign and Domestic Market Opportunities",
        "fr": "Viande et b\u00e9tail - Opportunit\u00e9s dans les march\u00e9s nationaux et \u00e0 l\u2019\u00e9tranger"
    },
    "layout_name": "content page 1 column",
    "lang": "en",
    "meta": {
        "issued": {
            "en": "2016-12-06",
            "fr": "2016-12-06"
        },
        "modified": {
            "en": "2021-02-04",
            "fr": "2021-02-04"
        },
        "format": {
            "en": "gcformat",
            "fr": "gcformat"
        },
        "title": {
            "en": "Service standards for red meat and livestock reports",
            "fr": "Normes de service relatives aux rapports sur les animaux \u00e0 viande rouge et le b\u00e9tail"
        },
        "subject": {
            "en": "architectural heritage;architecture;statistics",
            "fr": "horticulture;maladie;m\u00e9dicament"
        },
        "description": {
            "en": "Canada's red meat and livestock industry is composed of the following sectors: cattle, hogs, sheep/lamb, goats, bison, rabbits, equine (horses), cervid (deer, elk, wild boar and caribou).Red meat market information \u2013 Canadian Industry. st. with January 1 inventory.Canada and United States supply comparison by species report is updated on the website by. publishes the. monthly. Bison market and supply update report on its website.Canadian Meat Goat Association.",
            "fr": "L'industrie canadienne de la viande rouge et du b\u00e9tail comprend les secteurs suivants\u00a0: les bovins, les porcins, le mouton et l'agneau, la ch\u00e8vre, le bison, le lapin, le cheval, les cervid\u00e9s (cerf, \u00e9lan, sanglier et caribou).Information sur le march\u00e9 des viandes rouges \u2013 Industrie canadienne. de chaque ann\u00e9e.Le rapport \u00ab\u00a0Cervid\u00e9s \u00e9lev\u00e9s en captivit\u00e9 au Canada par esp\u00e8ce et par zone\u00a0\u00bb est mis \u00e0 jour sur le site Web d'ici le. publie le rapport. mensuel. \u00ab\u00a0Mise \u00e0 jour du march\u00e9 du bison\u00a0\u00bb sur son site Web.L'. Association canadienne de la ch\u00e8vre de boucherie."
        },
        "language": {
            "en": "eng",
            "fr": "fra"
        },
        "keywords": {
            "en": null,
            "fr": "donn\u00e9.Ann\u00e9e"
        },
        "audience": {
            "en": "gcaudience",
            "fr": "gcaudience"
        },
        "type": {
            "en": "form",
            "fr": "rapport"
        },
        "creator": {
            "en": "Agriculture and Agri-Food Canada;Government of Canada",
            "fr": "Agriculture et Agroalimentaire Canada;Gouvernement du Canada"
        },
        "spatial": {
            "en": "gcregions",
            "fr": "gcregions"
        },
        "service": {
            "en": "AAFC-AAC",
            "fr": "AAFC-AAC"
        },
        "accessRights": {
            "en": "2",
            "fr": "2"
        },
        "legalName": {
            "en": "agriculture_and_agri_food_canada",
            "fr": "agriculture_et_agroalimentaire_canada"
        },
        "areaServed": {
            "en": "Canada",
            "fr": "Canada"
        }
    },
    "body": {
        "en": "tart --&gt;\r\n    <!-- D&eacute;but du contenu -->\r\n    <p>Agriculture and Agri-Food Canada's goal is to achieve its service standards a minimum of 80% of the time under normal circumstances</p>\n\n<h2>Red meat and livestock reports</h2>\n\n<p>Red meat and livestock reports are updated by <b>8:00\u00a0a.m. Eastern time every Friday</b> and reports include most current data unless otherwise specified.</p>\n\n<h2>Annual red meat and livestock reports</h2>\n\n<p>Annual red meat and livestock reports are updated on the website by no later than <b>April\u00a030</b> of each year.</p>\n\n<h2>Animal genetics and registrations reports</h2>\n\n<p>The majority of animal genetics and registrations reports are updated annually and are completed by <b>May 31</b> of each year, with the exception of reports</p>\n\n<ul>\n<li><cite>Canada\u2019s Animal Genetics Industry Statistics Report</cite> is updated by <b>July\u00a015</b> of each year; and</li>\n<li><cite>Overview of Canadian Dairy Genetics Export Report</cite> is updated by the 15<sup>th</sup> of each month with the most recent data available.</li>\n</ul>\n\n<h2>Links to various reports provided by Statistics Canada</h2>\n\n<p>Statistics Canada is responsible for generating and updating various reports under these links.</p>\n\n<h2>Inventories</h2>\n\n<p>Red Meat and Livestock Inventory report is bi-annual. It is updated by <b>September\u00a030</b> with July 1 inventory and by <b>March 31</b> with January 1 inventory.</p>\n\n<p>Canada and United States supply comparison by species report is updated on the website by <b>April\u00a030</b> of each year.</p>\n\n<p>Farmed Deer in Canada by species and area report is updated by <b>June\u00a030</b> of each year.</p>\n\n<h2>Farming revenues and expenses</h2>\n\n<p>Farm Cash Receipts and Farm Input Price Index reports are updated by <b>June\u00a015</b> of each year.</p>\n\n<h2>Condemnations</h2>\n\n<p>Condemnation reports are updated no later than 2 months after the reporting month ends. For example, red meat condemnation for the month of June should be released no later than <b>August\u00a031</b> of the same year.</p>\n\n<h2>Supply sheets by species</h2>\n\n<p><a href=\"http://www.cpc-ccp.com/hog_statistics.php\">Canadian Pork Council</a> publishes the <b>weekly</b> hog statistics at a glance report on its website.</p>\n\n<p><a href=\"http://www.cmc-cvc.com/en/about-us/industry-statistics/beef-supply-glance\">Canadian Meat Council</a> and Alberta Beef Producers publish the <b>weekly</b> beef statistics at a glance report on their websites.</p>\n\n<p><a href=\"http://ontarioveal.on.ca/producer-information/market-information/\">Veal Farmers of Ontario</a> publishes the <b>weekly</b> veal statistics at a glance report on its website.</p>\n\n<p><a href=\"http://www.cansheep.ca/cms/en/Resources/Markets/MarketReports/MarketReports.aspx\">Canadian Sheep Federation</a> and <a href=\"https://www.ontariosheep.org/ontario-markets\">Ontario Sheep Marketing Agency</a> publish the <b>monthly</b> sheep statistics at a glance report on their respective websites.</p>\n\n<p><a href=\"http://www.canadianbison.ca\">Canadian Bison Association</a> publishes the <b>monthly</b> bison market and supply update report on its website.</p>\n\n<p><a href=\"https://canadianmeatgoat.com/article/970\">Canadian Meat Goat Association</a> and <a href=\"http://ontariogoat.ca/producer-info/market-report/goat-supply-at-a-glance-archive/\">Ontario Goat</a> publish the <b>quarterly</b> goat statistics at a glance report on their respective websites.</p>\n\n<p>Rabbit industry at a glance is updated on AAFC Online by <b>April\u00a030</b> of each year, except for Census of Agriculture data which are updated every 5 years.</p>\n\n<h2>Exports</h2>\n\n<p><i>Live animal exports</i><br>\nAnnual Live animal exports to the United States \u2013 through ports of entry report is updated on the website by <b>January\u00a031</b> of each year.</p>\n\n<h2>Other resources</h2>\n\n<p>Weekly livestock report schedule/calendar is updated by <b>December 15</b> of each year.</p>\n\r\n    <!-- Fin du contenu -->\r\n  \r\n  <div class=\"pagedetails\" id=\"pgft\">\r\n    <div class=\"row\">\r\n\t  <div class=\"col-sm-6 col-md-5 col-lg-4\">\r\n\t    <details class=\"brdr-0\">\r\n\t\t<summary class=\"btn btn-default text-center\" onclick=\"getAntiSpamSeq('/eng/mail-handler/?anti-spam-sequence=true')\">Report a problem on this page</summary>\r\n\t\t<div class=\"clearfix\"></div>\r\n\t\t<div class=\"well row\">\r\n\t\t<div>\r\n\t\t  <div class=\"gc-rprt-prblm\">\r\n\t\t    <div class=\"gc-rprt-prblm-frm gc-rprt-prblm-tggl\">\r\n\t\t\t  \r\n\t\t\t<form id=\"report_a_problem_form\" action=\"/eng/mail-handler/#report_a_problem_form\" method=\"post\">\t\t\t\t   \t\t\t\r\n\r\n\t            \t <input type=\"hidden\" name=\"lang\" value=\"eng\">\r\n\t            \t <input type=\"hidden\" name=\"pageId\" value=\"1480968240072\">\r\n\t            \t <input type=\"hidden\" name=\"pageUrl\" value=\"http://agr.gc.ca/eng/animal-industry/red-meat-and-livestock-market-information/service-standards-for-red-meat-and-livestock-reports/?id=1480968240072\">\r\n\t\t\t\t\t <div id=\"report_a_problem_form_error\"></div>\r\n\t\t             <fieldset>\t\t\t\t\t    \r\n\t\t                <legend><span class=\"field-name\">Please select all that apply:</span></legend>\t\t                                 \r\n\t\t\t\t\t\t<div class=\"checkbox\">\r\n\t\t\t\t\t\t\t<label for=\"problem1\"><input name=\"problem1\" id=\"problem1\" type=\"checkbox\" value=\"Yes\">A link, button or video is not working</label>\r\n\t\t\t\t\t\t\t<input name=\"problem1\" type=\"hidden\" value=\"No\">\r\n\t\t\t\t\t\t</div>\r\n\t\t\t\t\t\t<div class=\"checkbox\">\r\n\t\t\t\t\t\t\t<label for=\"problem2\"><input name=\"problem2\" id=\"problem2\" type=\"checkbox\" value=\"Yes\">It has a spelling mistake</label>\r\n\t\t\t\t\t\t\t<input name=\"problem2\" type=\"hidden\" value=\"No\">\r\n\t\t\t\t\t\t</div>\r\n\t\t\t\t\t\t<div class=\"checkbox\">\r\n\t\t\t\t\t\t\t<label for=\"problem3\"><input name=\"problem3\" id=\"problem3\" type=\"checkbox\" value=\"Yes\">Information is missing</label>\r\n\t\t\t\t\t\t\t<input name=\"problem3\" type=\"hidden\" value=\"No\">\r\n\t\t\t\t\t   </div>\r\n\t\t\t\t\t\t<div class=\"checkbox\">\r\n\t\t\t\t\t\t\t<label for=\"problem4\"><input name=\"problem4\" id=\"problem4\" type=\"checkbox\" value=\"Yes\">Information is outdated or wrong</label>\r\n\t\t\t\t\t\t\t<input name=\"problem4\" type=\"hidden\" value=\"No\">\r\n\t\t\t\t\t\t</div>\r\n\t\t\t\t\t\t<div class=\"checkbox\">\r\n\t\t\t\t\t\t\t<label for=\"problem5\"><input name=\"problem5\" id=\"problem5\" type=\"checkbox\" value=\"Yes\">Login error when trying to access an account (e.g. My Service Canada Account)</label>\r\n\t\t\t\t\t\t\t<input name=\"problem5\" type=\"hidden\" value=\"No\">\r\n\t\t\t\t\t\t</div>\r\n\t\t\t\t\t\t\t<ul>\r\n\t\t\t\t\t\t\t<li class=\"checkbox\">\r\n\t\t\t\t\t\t\t\t<label for=\"problem6a\"><input name=\"problem6\" id=\"problem6a\" type=\"checkbox\" value=\"Yes\">GC Key access</label>\r\n\t\t\t\t\t\t\t\t<input name=\"problem6\" type=\"hidden\" value=\"No\">\r\n\t\t\t\t\t\t\t </li>\r\n\t\t\t\t\t\t\t<li class=\"checkbox\">\r\n\t\t\t\t\t\t\t\t<label for=\"problem7\"><input name=\"problem7\" id=\"problem7\" type=\"checkbox\" value=\"Yes\">SecureKey Concierge (Banking Credential) access </label>\r\n\t\t\t\t\t\t\t\t<input name=\"problem7\" type=\"hidden\" value=\"No\">\r\n\t\t\t\t\t\t\t </li>\r\n\t\t\t\t\t\t\t<li class=\"checkbox\">\r\n\t\t\t\t\t\t\t\t<label for=\"problem8\"><input name=\"problem8\" id=\"problem8\" type=\"checkbox\" value=\"Yes\">Personal Access Code (PAC) problems or EI Access Code (AC) problems</label>\r\n\t\t\t\t\t\t\t\t<input name=\"problem8\" type=\"hidden\" value=\"No\">\r\n\t\t\t\t\t\t\t </li>\t\r\n\t\t\t\t\t\t\t<li class=\"checkbox\">\r\n\t\t\t\t\t\t\t\t<label for=\"problem9\"><input name=\"problem9\" id=\"problem9\" type=\"checkbox\" value=\"Yes\">Social Insurance Number (SIN) validation problems</label>\r\n\t\t\t\t\t\t\t\t<input name=\"problem9\" type=\"hidden\" value=\"No\">\r\n\t\t\t\t\t\t\t </li>\t\t\t\t\t\t\t\t\r\n\t\t\t\t\t\t\t<li class=\"checkbox\">\r\n\t\t\t\t\t\t\t\t<label for=\"problem10\"><input name=\"problem10\" id=\"problem10\" type=\"checkbox\" value=\"Yes\">Other login error not in this list</label>\r\n\t\t\t\t\t\t\t\t<input name=\"problem10\" type=\"hidden\" value=\"No\">\r\n\t\t\t\t\t\t\t </li>\t\t \r\n\t\t\t\t\t\t\t </ul>\r\n\t\t\t\t\t\t<div class=\"checkbox\">\r\n\t\t\t\t\t\t\t<label for=\"problem11\"><input name=\"problem11\" id=\"problem11\" type=\"checkbox\" value=\"Yes\">I can't find what I'm looking for</label>\r\n\t\t\t\t\t\t\t<input name=\"problem11\" type=\"hidden\" value=\"No\">\r\n\t\t\t\t\t\t</div>\r\n\t\t\t\t\t\t<div class=\"checkbox\">\r\n\t\t\t\t\t\t\t<label for=\"problem12\"><input name=\"problem12\" id=\"problem12\" type=\"checkbox\" value=\"Yes\">Other issue not in this list</label>\r\n\t\t\t\t\t\t\t<input name=\"problem12\" type=\"hidden\" value=\"No\">\r\n\t\t\t\t\t\t</div>\t\t\t\t\t\t \t\t\t\t\t\t\t\t\t\t\t\t \r\n\t\t             </fieldset>\r\n\t\t\t\t\t <div>\r\n\t\t\t\t\t   <label for=\"aafc_ranstr\"><span id=\"fbch\"><br>Enter these characters <strong class=\"required\">(required)</strong>: </span><span id=\"ranstr\">U5S</span></label>\r\n\t\t\t           <input name=\"anti-spam-sequence\" id=\"aafc_ranstr\" size=\"4\" maxlength=\"3\" type=\"text\">\r\n\t\t\t\t\t </div>\t\r\n\r\n\t\t\t\t\t <br><input type=\"submit\" class=\"btn btn-primary\" value=\"Submit\">\r\n\t\t\t\t  </form>\r\n\t\t\t\t</div>\r\n\t\t\t</div>\t\t\t\r\n\t\t  </div>\r\n\t\t</div>\r\n\t\t</details>\r\n\t  </div>\r\n\t  <div class=\"wb-share col-sm-4 col-md-3 col-sm-offset-2 col-md-offset-4 col-lg-offset-5\" data-wb-share='{\"lnkClass\": \"btn btn-default btn-block\"}'></div>\r\n\t</div>\r\n\t<dl id=\"wb-dtmd\">\r\n\t  <dt>Date modified: </dt>\r\n\t  <dd><time property=\"dateModified\">2021-02-04</time></dd></dl></div>",
        "fr": "\r\n    \r\n    <!-- MainContentStart -->\r\n    <!-- D&eacute;but du contenu -->\r\n    <p>L'objectif d'AAC est de respecter ses normes de service dans une proportion d'au moins 80\u00a0% dans des circonstances normales.</p>\n\n<h2>Rapports sur les animaux \u00e0 viande rouge et le b\u00e9tail</h2>\n\n<p>Les rapports sur les animaux \u00e0 viande rouge et le b\u00e9tail sont mis \u00e0 jour au plus tard \u00e0 <b>8\u00a0h (heure normale de l'Est) tous les vendredis</b> et comprennent les donn\u00e9es les plus r\u00e9centes, sauf indications contraires.</p>\n\n<h2>Rapports annuels sur les animaux \u00e0 viande rouge et le b\u00e9tail</h2>\n\n<p>Les rapports annuels sur les animaux \u00e0 viande rouge et le b\u00e9tail sont mis \u00e0 jour sur le site Web au plus tard le <b>30\u00a0avril</b> de chaque ann\u00e9e.</p>\n\n\n<h2>Rapports sur la g\u00e9n\u00e9tique animale et les enregistrements</h2>\n\n<p>La majorit\u00e9 des rapports sur la g\u00e9n\u00e9tique animale et les enregistrements sont mis \u00e0 jour annuellement et sont produits au plus tard le <b>31\u00a0mai</b> de chaque ann\u00e9e, \u00e0 l\u2019exception des rapports suivants\u00a0:</p>\n\n<ul>\n<li>Le rapport <cite>Statistiques canadiennes du secteur de la g\u00e9n\u00e9tique animale</cite> est mis \u00e0 jour au plus tard le <b>15\u00a0juillet</b> de chaque ann\u00e9e;</li>\n<li>Le rapport <cite>Aper\u00e7u des exportations de la g\u00e9n\u00e9tique laiti\u00e8re</cite> est mis \u00e0 jour au plus tard le 15 de chaque mois au moyen des donn\u00e9es les plus r\u00e9centes.</li>\n</ul>\n\n\n<h2>Liens menant vers divers rapports fournis par Statistique Canada</h2>\n\n<p>Il incombe \u00e0 Statistique Canada de produire et de mettre \u00e0 jour divers rapports correspondant \u00e0 ces liens.</p>\n\n<h2>Stocks</h2>\n\n<p>Les \u00ab\u00a0Rapports d'inventaire pour le march\u00e9 des viandes rouges\u00a0\u00bb sont semestriels. Ils sont mis \u00e0 jour au plus tard le\u00a0<b>30\u00a0septembre</b> en fonction de l'inventaire au 1er\u00a0juillet et au plus tard le\u00a0<b>31\u00a0mars</b> en fonction de l'inventaire au\u00a01er\u00a0janvier.</p>\n\n<p>Le rapport \u00ab\u00a0Comparaison par esp\u00e8ces entre le Canada et les \u00c9tats-Unis\u00a0\u00bb est mis \u00e0 jour au plus tard le\u00a0<b>30\u00a0avril</b> de chaque ann\u00e9e.</p>\n\n<p>Le rapport \u00ab\u00a0Cervid\u00e9s \u00e9lev\u00e9s en captivit\u00e9 au Canada par esp\u00e8ce et par zone\u00a0\u00bb est mis \u00e0 jour le <b>30\u00a0juin</b> de chaque ann\u00e9e.</p>\n\n<h2>Revenus et d\u00e9penses agricoles</h2>\n\n<p>Les rapports \u00ab\u00a0Recettes mon\u00e9taires agricoles\u00a0\u00bb et \u00ab\u00a0Indices de prix\u00a0\u00bb sont mis \u00e0 jour au plus tard le\u00a0<b>15\u00a0juin</b> de chaque ann\u00e9e.</p>\n\n<h2>Condamnations</h2>\n\n<p>Les rapports de condamnation sont mis \u00e0 jour au plus tard deux mois apr\u00e8s la fin du mois de r\u00e9f\u00e9rence. Par exemple, le rapport sur la condamnation d'animaux \u00e0 viande rouge pour le mois de juin doit \u00eatre publi\u00e9 au plus tard le\u00a0<b>31\u00a0ao\u00fbt</b> de la m\u00eame ann\u00e9e.</p>\n\n<h2>Rapport sur les stocks par esp\u00e8ce</h2>\n\n<p>Le <a href=\"http://www.cpc-ccp.com/hog_statistics.php\">Conseil canadien du porc</a> publie le rapport <b>hebdomadaire</b> \u00ab\u00a0Aper\u00e7u statistique sur les porcs\u00a0\u00bb sur son site Web.</p>\n\n<p>Le <a href=\"http://www.cmc-cvc.com/fr/coup-doeil-sur-le-boeuf\">Conseil des viandes du Canada</a> et l'association Alberta Beef Producers publient le rapport <b>hebdomadaire</b> \u00ab\u00a0Coup d'\u0153il sur le b\u0153uf\u00a0\u00bb sur leurs sites Web.</p>\n\n<p>L'association <a href=\"http://ontarioveal.on.ca/producer-information/market-information/\"><i>Veal Farmers of Ontario</i> (en anglais seulement) </a> publie le rapport <b>hebdomadaire</b> \u00ab\u00a0Veal statistics at a glance\u00a0\u00bb sur son site Web.</p>\n\n<p>La <a href=\"http://www.cansheep.ca/cms/fr/MarketReports.aspx\">F\u00e9d\u00e9ration canadienne du mouton</a> et l'association <a href=\"https://www.ontariosheep.org/ontario-markets\"><i>Ontario Sheep Marketing Agency</i> (en anglais seulement) </a> publient le rapport <b>mensuel</b> \u00ab\u00a0Aper\u00e7u statistique sur les moutons et les agneaux au Canada\u00a0\u00bb sur leurs sites Web respectifs.</p>\n\n<p>L'<a href=\"http://www.canadianbison.ca\">Association canadienne du bison (en anglais seulement)</a> publie le rapport <b>mensuel</b> \u00ab\u00a0Mise \u00e0 jour du march\u00e9 du bison\u00a0\u00bb sur son site Web.</p>\n\n<p>L'<a href=\"https://canadianmeatgoat.com/article/970\">Association canadienne de la ch\u00e8vre de boucherie</a> et l'association <a href=\"http://ontariogoat.ca/producer-info/market-report/goat-supply-at-a-glance-archive/\"><i>Ontario Goat</i> (en anglais seulement) </a> publient le rapport <b>trimestriel</b> \u00ab\u00a0Coup d'\u0153il sur la ch\u00e8vre\u00a0\u00bb sur leurs sites Web respectifs.</p>\n\n<p>Le rapport \u00ab\u00a0Aper\u00e7u de l'industrie cunicole au Canada\u00a0\u00bb est mis \u00e0 jour au plus tard le\u00a0<b>30\u00a0avril</b> de chaque ann\u00e9e, sauf en ce qui concerne les donn\u00e9es du Recensement de l'agriculture, qui sont mises \u00e0 jour tous les cinq ans.</p>\n\n<h2>Exportations</h2>\n\n<p><i>Exportations d'animaux vivants</i><br>\nLe rapport \u00ab\u00a0Bestiaux vivants export\u00e9s aux \u00c9tats-Unis \u2013 \u00e0 travers les ports d'entr\u00e9e\u00a0\u00bb est mis \u00e0 jour sur le site Web au plus tard le\u00a0<b>31\u00a0janvier</b> de chaque ann\u00e9e.</p>\n\n<h2>Autres ressources</h2>\n\n<p>Le \u00ab\u00a0Calendrier des rapports hebdomadaires\u00a0\u00bb est mis \u00e0 jour au plus tard le\u00a0<b>15\u00a0d\u00e9cembre</b> de chaque ann\u00e9e.</p>\n\r\n    <!-- Fin du contenu -->\r\n\t\r\n\t<div class=\"pagedetails\" id=\"pgft\">\r\n\t\t<div class=\"row\">\r\n\t\t  <div class=\"col-sm-6 col-md-5 col-lg-4\">\r\n\t\t    <details class=\"brdr-0\">\r\n\t\t\t<summary class=\"btn btn-default text-center\" onclick=\"getAntiSpamSeq('/fra/mail-handler/?anti-spam-sequence=true')\">Signaler un probl\u00e8me sur cette page</summary>\r\n\t\t\t<div class=\"well row\">\r\n\t\t\t  <div class=\"gc-rprt-prblm\">\r\n\t\t\t    <div class=\"gc-rprt-prblm-frm gc-rprt-prblm-tggl\">\r\n\t\t\t\t   <form id=\"report_a_problem_form\" action=\"/fra/mail-handler/\" method=\"post\">\r\n\t            \t <input type=\"hidden\" name=\"lang\" value=\"fra\">\r\n\t            \t <input type=\"hidden\" name=\"pageId\" value=\"1480968240072\">\r\n\t            \t <input type=\"hidden\" name=\"pageUrl\" value=\"http://agr.gc.ca/fra/production-animale/information-sur-le-marche-des-viandes-rouges/normes-de-service-relatives-aux-rapports-sur-les-animaux-a-viande-rouge-et-le-betail/?id=1480968240072\">\r\n\t\t\t\t\t <div id=\"report_a_problem_form_error\"></div>\r\n\t\t             <fieldset>\t\t\t\t\t    \r\n\t\t                <legend><span class=\"field-name\">Veuillez cocher toutes les r\u00e9ponses pertinentes\u00a0:</span></legend>\r\n\t\t                 <div class=\"checkbox\">\r\n\t\t                    <label for=\"problem1\"><input name=\"problem1\" id=\"problem1\" type=\"checkbox\" value=\"Yes\">Un lien, un bouton ou une vid\u00e9o ne fonctionne pas</label>\r\n\t\t                    <input name=\"problem1\" type=\"hidden\" value=\"No\">\r\n\t\t                </div>\r\n\t\t                <div class=\"checkbox\">\r\n\t\t                    <label for=\"problem2\"><input name=\"problem2\" id=\"problem2\" type=\"checkbox\" value=\"Yes\">Il y a une erreur d'orthographe ou de grammaire</label>\r\n\t\t                    <input name=\"problem2\" type=\"hidden\" value=\"No\">\r\n\t\t                </div>\r\n\t\t   \t\t\t\t <div class=\"checkbox\">\r\n\t\t                    <label for=\"problem3\"><input name=\"problem3\" id=\"problem3\" type=\"checkbox\" value=\"Yes\">Les renseignements sont incomplets</label>\r\n\t\t                    <input name=\"problem3\" type=\"hidden\" value=\"No\">\r\n\t\t                </div>\r\n\t\t             \t\t<div class=\"checkbox\">\r\n\t\t                    <label for=\"problem4\"><input name=\"problem4\" id=\"problem4\" type=\"checkbox\" value=\"Yes\">L'information n'est plus \u00e0 jour ou est erron\u00e9e</label>\r\n\t\t                    <input name=\"problem4\" type=\"hidden\" value=\"No\">\r\n\t\t                </div>\t\t\t\t\t\t\r\n\t\t\t\t\t\t<div class=\"checkbox\">\r\n\t\t\t\t\t\t\t<label for=\"problem5\"><input name=\"problem5\" id=\"problem5\" type=\"checkbox\" value=\"Yes\">Message d'erreur \u00e0 l'ouverture de la session lorsque je tente d'acc\u00e9der \u00e0 un compte (ex. Mon dossier Service Canada)</label>\r\n\t\t\t\t\t\t\t<input name=\"problem5\" type=\"hidden\" value=\"No\">\r\n\t\t\t\t\t\t</div>\r\n\t\t\t\t\t\t\t<ul>\r\n\t\t\t\t\t\t\t<li class=\"checkbox\">\r\n\t\t\t\t\t\t\t\t<label for=\"problem6a\"><input name=\"problem6\" id=\"problem6a\" type=\"checkbox\" value=\"Yes\">Acc\u00e8s Cl\u00e9GC</label>\r\n\t\t\t\t\t\t\t\t<input name=\"problem6\" type=\"hidden\" value=\"No\">\r\n\t\t\t\t\t\t\t </li>\r\n\t\t\t\t\t\t\t<li class=\"checkbox\">\r\n\t\t\t\t\t\t\t\t<label for=\"problem7\"><input name=\"problem7\" id=\"problem7\" type=\"checkbox\" value=\"Yes\">Acc\u00e8s SecureKey Service de Concierge (justificatifs d'identit\u00e9 bancaires)</label>\r\n\t\t\t\t\t\t\t\t<input name=\"problem7\" type=\"hidden\" value=\"No\">\r\n\t\t\t\t\t\t\t </li>\r\n\t\t\t\t\t\t\t<li class=\"checkbox\">\r\n\t\t\t\t\t\t\t\t<label for=\"problem8\"><input name=\"problem8\" id=\"problem8\" type=\"checkbox\" value=\"Yes\">Probl\u00e8me avec le Code d'acc\u00e8s personnel (CAP) ou avec le Code d'acc\u00e8s (CA) de l'assurance emploi</label>\r\n\t\t\t\t\t\t\t\t<input name=\"problem8\" type=\"hidden\" value=\"No\">\r\n\t\t\t\t\t\t\t </li>\t\r\n\t\t\t\t\t\t\t<li class=\"checkbox\">\r\n\t\t\t\t\t\t\t\t<label for=\"problem9\"><input name=\"problem9\" id=\"problem9\" type=\"checkbox\" value=\"Yes\">Probl\u00e8me li\u00e9 \u00e0 la validation du num\u00e9ro d'assurance sociale (NAS)</label>\r\n\t\t\t\t\t\t\t\t<input name=\"problem9\" type=\"hidden\" value=\"No\">\r\n\t\t\t\t\t\t\t </li>\t\t\t\t\t\t\t\t\r\n\t\t\t\t\t\t\t<li class=\"checkbox\">\r\n\t\t\t\t\t\t\t\t<label for=\"problem10\"><input name=\"problem10\" id=\"problem10\" type=\"checkbox\" value=\"Yes\">Autre erreur lors de l'ouverture de session qui ne figure pas sur cette liste</label>\r\n\t\t\t\t\t\t\t\t<input name=\"problem10\" type=\"hidden\" value=\"No\">\r\n\t\t\t\t\t\t\t </li>\t\t \r\n\t\t\t\t\t\t\t </ul>\r\n\t\t\t\t\t\t<div class=\"checkbox\">\r\n\t\t\t\t\t\t\t<label for=\"problem11\"><input name=\"problem11\" id=\"problem11\" type=\"checkbox\" value=\"Yes\">Je n'arrive pas \u00e0 trouver ce que je cherche</label>\r\n\t\t\t\t\t\t\t<input name=\"problem11\" type=\"hidden\" value=\"No\">\r\n\t\t\t\t\t\t</div>\r\n\t\t\t\t\t\t<div class=\"checkbox\">\r\n\t\t\t\t\t\t\t<label for=\"problem12\"><input name=\"problem12\" id=\"problem12\" type=\"checkbox\" value=\"Yes\">Autre probl\u00e8me qui ne figure pas sur cette liste</label>\r\n\t\t\t\t\t\t\t<input name=\"problem12\" type=\"hidden\" value=\"No\">\r\n\t\t\t\t\t\t</div>\t\t\t\t\t\t\t\t\t\t\t\t\t\t\t\t\t\t\t\r\n\t\t             </fieldset>\r\n\t\t\t\t\t <div>\r\n\t\t\t\t        <label for=\"aafc_ranstr\"><span id=\"fbch\">Veuillez inscrire les caract\u00e8res suivants  <strong class=\"required\">(obligatoire)</strong>\u00a0: </span><span id=\"ranstr\">XXX</span></label>\r\n\t\t\t            <input name=\"anti-spam-sequence\" id=\"aafc_ranstr\" size=\"4\" maxlength=\"3\" type=\"text\">\r\n\t\t\t\t\t </div>\r\n\t\t\t\t\t <input type=\"submit\" class=\"btn btn-primary\" value=\"Soumettre\">\r\n\t\t\t\t  </form>\r\n\t\t\t\t</div>\r\n\t\t\t  </div>\r\n\t\t\t</div>\r\n\t\t</details>\r\n\t    </div>\r\n\t  <div class=\"wb-share col-sm-4 col-md-3 col-sm-offset-2 col-md-offset-4 col-lg-offset-5\" data-wb-share='{\"lnkClass\": \"btn btn-default btn-block\"}'></div>\r\n\t  </div>\r\n\t  <dl id=\"wb-dtmd\">\r\n\t    <dt>Date de modification\u00a0: </dt>\r\n\t      <dd><time property=\"dateModified\">2021-02-04</time></dd>\r\n\t  </dl>\r\n\t</div>\r\n\t\r\n  "
    }
}