{
    "dcr_id": "1385742632592",
    "title": {
        "en": "Food Processing Industry Roundtable",
        "fr": "Table ronde de l'industrie de la transformation des aliments"
    },
    "modified": "2020-12-10",
    "issued": "2011-01-14",
    "templatetype": "content page 1 column",
    "page_type": "1",
    "node_id": "1384803975326",
    "dc_date_created": "2011-01-14",
    "managing_branch": "MISB",
    "parent_node_id": "1384803392547",
    "label": {
        "en": "Food Processing",
        "fr": "Transformation des aliments"
    },
    "exturl": "",
    "teamsite_location": {
        "en": "/default/main/AAFC-AAC/Internet-Internet/MISB-DGSIM/VCR-TCV/WORKAREA/VCR-TCV/templatedata/comm-comm/gene-gene/data/ir_food_processing_index_1385742632592_en",
        "fr": "/default/main/AAFC-AAC/Internet-Internet/MISB-DGSIM/VCR-TCV/WORKAREA/VCR-TCV/templatedata/comm-comm/gene-gene/data/ir_food_processing_index_1385742632592_fr"
    },
    "type_name": "sitemapinit",
    "has_dcr_id": true,
    "breadcrumb": {
        "en": "Food Processing",
        "fr": "Transformation des aliments"
    },
    "layout_name": "content page 1 column",
    "lang": "en",
    "meta": {
        "issued": {
            "en": "2011-01-14",
            "fr": "2011-01-14"
        },
        "modified": {
            "en": "2020-12-10",
            "fr": "2020-12-10"
        },
        "format": {
            "en": "gcformat",
            "fr": "gcformat"
        },
        "title": {
            "en": "Food Processing Industry Roundtable",
            "fr": "Table ronde de l'industrie de la transformation des aliments"
        },
        "subject": {
            "en": "agri-food industry",
            "fr": "agriculture"
        },
        "description": {
            "en": "It is also the single largest market for Canadian agricultural products (44% of its output) and provides 77% of processed foods and beverages consumed in Canada In June 2008 Agriculture and Agri-Food Canada established a Food Processors Competitiveness Working Group (FPCWG) comprising industry and departmental officials to examine the challenges affecting the growth of the industry as a result of a stronger Canadian dollar rising input costs a tightening credit market and increasing offshore competition.",
            "fr": "En juin 2008 Agriculture et Agroalimentaire Canada a cr\u00e9\u00e9 un Groupe de travail sur la comp\u00e9titivit\u00e9 dans le secteur de la transformation des aliments (GTCSTA) form\u00e9s par des d\u00e9cideurs de l'industrie et du minist\u00e8re et dont le mandat est d'examiner les enjeux ayant une incidence sur la croissance de l'industrie r\u00e9sultant de la valeur plus \u00e9lev\u00e9e du dollar canadien de la hausse du co\u00fbt des intrants du resserrement du march\u00e9 du cr\u00e9dit et de la plus forte concurrence de la part des pays \u00e9trangers."
        },
        "language": {
            "en": "eng",
            "fr": "fra"
        },
        "keywords": {
            "en": "Canadian agricultural products;Minister of State;large food processing companies;Objectives Success Stories Members Bulletins Research Contacts Links A;Action Plan",
            "fr": "Table ronde de l'industrie de la transformation des aliments;\u00e9t\u00e9 pris;r\u00e9solution des enjeux du secteur;Table ronde;plan d'action"
        },
        "audience": {
            "en": "gcaudience",
            "fr": "gcaudience"
        },
        "type": {
            "en": "meeting material",
            "fr": "documentation de r\u00e9union"
        },
        "creator": {
            "en": "International Policy and Coordination Division;Multilateral Relations;Market and Industry Services Branch;Agriculture and Agri-Food Canada;Government of Canada",
            "fr": "Division de la coordination et des politiques internationales;Relations multilat\u00e9rales;Direction g\u00e9n\u00e9rale des services \u00e0 l'industrie et aux march\u00e9s;Agriculture et agroalimentaire Canada;Gouvernement du Canada"
        },
        "spatial": {
            "en": "gcregions",
            "fr": "gcregions"
        },
        "service": {
            "en": "AAFC-AAC",
            "fr": "AAFC-AAC"
        },
        "accessRights": {
            "en": "2",
            "fr": "2"
        },
        "legalName": {
            "en": "agriculture_and_agri_food_canada",
            "fr": "agriculture_et_agroalimentaire_canada"
        },
        "areaServed": {
            "en": "Canada",
            "fr": "Canada"
        }
    },
    "body": {
        "en": "tart --&gt;\r\n    <!-- D&eacute;but du contenu -->\r\n    <p><a href=\"#roundtable\">Learn more about each roundtable </a></p>\n\n<p>The food processing industry is one of the largest manufacturing industries in Canada, providing employment for 290,000 Canadians and producing shipments worth $117.8  billion in 2019. It accounts for 17% of total manufacturing shipments and 2% of the national Gross Domestic Product (GDP).</p> \n\n<p>The food processing industry is an integral part of the Canadian food supply chain as it purchases about 40% of the Canadian agricultural production and sells over 70% of its output to Canadian retailers and foodservice providers.</p>\n\n<p>Key objectives:</p>\n  \n<ul>\n<li>understand the challenges and opportunities facing the industry as well as the state of the business environment in Canada</li>\n<li>develop industry-government actions to improve the competitiveness, profitability and growth of the industry</li>\n</ul>\n\n<h2>Contact us</h2>\n\n<p>If you have any questions or would like more information, please email us at <a href=\"mailto:roundtable-tableronde@canada.ca\">roundtable-tableronde@canada.ca</a>.</p> \n\n<h2>Upcoming meeting</h2>\n\n<p>The next Roundtable meeting will take place in 2021.</p>\n\n\n<h2>Meeting summary</h2>\n<ul>\n<li><a href=\"?id=1569960432268\">June 11 to 12, 2019</a></li>\n<li><a href=\"?id=1544211026381\">October 3 to 4, 2018</a></li>\n<li><a href=\"?id=1520976057780\">December 7 to 8, 2017</a></li>\n</ul>\n\n<h2>Executive Steering Committee Members</h2>\n\n<h3>Co-chairs</h3>\n\n<ul>\n <li>Daniel Vielfaure\u00a0\u2013 Bonduelle Americas</li>\n <li>Annette Gibbons\u00a0\u2013 Agriculture and Agri-Food Canada</li>\n</ul>\n\n<h3>Industry</h3>\n\n<ul>\n<li>Sylvie Cloutier\u00a0\u2013 Conseil de la transformation alimentaire du Qu\u00e9bec</li>\n<li>Irving Teper\u00a0\u2013 Concord Premium Meats</li>\n<li>Mark Pickard\u00a0\u2013 InfraReady Products (1998) Limited</li>\n<li>John Nishidate\u00a0\u2013 Grand Hale Marine Products</li>\n  <li>Dominique Benoit\u00a0\u2013 Agropur</li>\n</ul>\n\n\n<h3>Federal government</h3>\n\n<ul>\n <li>Marco Valicenti - Agriculture and Agri-Food Canada</li>\n <li>Sylvie Millette LeDuc\u00a0\u2013 Agriculture and Agri-Food Canada</li>\n <li>Joann Perron\u00a0\u2013 Agriculture and Agri-Food Canada</li>\n</ul>\n\n<h3>Resource</h3>\n\n<p>The <a href=\"?id=1512156517513\">list of innovation organizations</a> is a list of Canadian organizations that lists a wide variety of universities, research centres and institutes that specialize in food innovation.</p> \n\n<h2 id=\"roundtable\">Learn more about each roundtable:</h2> \n\n<ul> \n <li><a href=\"?id=1385752573698\">Agri-Subcommittee on Food Safety</a></li> \n <li><a href=\"?id=1385491202669\">All Chairs Forum</a></li> \n <li><a href=\"?id=1409832956249\">Bee Health</a></li> \n <li><a href=\"?id=1385491900787\">Beef</a></li> \n <li><a href=\"?id=1385742632592\">Food Processing</a></li> \n <li><a href=\"?id=1385582114523\">Grains</a></li> \n <li><a href=\"?id=1385585397604\">Horticulture</a></li>\n <li><a href=\"?id=1385568234264\">Industrial Bioproducts</a></li>\n <li><a href=\"?id=1481809401467\">Neonicotinoids</a></li> \n <li><a href=\"?id=1385666883750\">Organics</a></li> \n <li><a href=\"?id=1385740744721\">Pork</a></li> \n <li><a href=\"?id=1492806638190\">Poultry</a></li> \n <li><a href=\"?id=1385733134280\">Pulses</a></li>\n <li><a href=\"?id=1385755866700\">Seafood</a></li> \n <li><a href=\"?id=1385757253931\">Seed</a></li> \n <li><a href=\"?id=1385758986961\">Sheep</a></li> \n <li><a href=\"?id=1385995694580\">Special Crops</a></li> \n</ul> \n\n\n\r\n    <!-- Fin du contenu -->\r\n  \r\n  <div class=\"pagedetails\" id=\"pgft\">\r\n    <div class=\"row\">\r\n\t  <div class=\"col-sm-6 col-md-5 col-lg-4\">\r\n\t    <details class=\"brdr-0\">\r\n\t\t<summary class=\"btn btn-default text-center\" onclick=\"getAntiSpamSeq('/eng/mail-handler/?anti-spam-sequence=true')\">Report a problem on this page</summary>\r\n\t\t<div class=\"clearfix\"></div>\r\n\t\t<div class=\"well row\">\r\n\t\t<div>\r\n\t\t  <div class=\"gc-rprt-prblm\">\r\n\t\t    <div class=\"gc-rprt-prblm-frm gc-rprt-prblm-tggl\">\r\n\t\t\t  \r\n\t\t\t<form id=\"report_a_problem_form\" action=\"/eng/mail-handler/#report_a_problem_form\" method=\"post\">\t\t\t\t   \t\t\t\r\n\r\n\t            \t <input type=\"hidden\" name=\"lang\" value=\"eng\">\r\n\t            \t <input type=\"hidden\" name=\"pageId\" value=\"1385742632592\">\r\n\t            \t <input type=\"hidden\" name=\"pageUrl\" value=\"http://agr.gc.ca/eng/canadas-agriculture-sectors/engagement-with-the-crops-industry/food-processing/?id=1385742632592\">\r\n\t\t\t\t\t <div id=\"report_a_problem_form_error\"></div>\r\n\t\t             <fieldset>\t\t\t\t\t    \r\n\t\t                <legend><span class=\"field-name\">Please select all that apply:</span></legend>\t\t                                 \r\n\t\t\t\t\t\t<div class=\"checkbox\">\r\n\t\t\t\t\t\t\t<label for=\"problem1\"><input name=\"problem1\" id=\"problem1\" type=\"checkbox\" value=\"Yes\">A link, button or video is not working</label>\r\n\t\t\t\t\t\t\t<input name=\"problem1\" type=\"hidden\" value=\"No\">\r\n\t\t\t\t\t\t</div>\r\n\t\t\t\t\t\t<div class=\"checkbox\">\r\n\t\t\t\t\t\t\t<label for=\"problem2\"><input name=\"problem2\" id=\"problem2\" type=\"checkbox\" value=\"Yes\">It has a spelling mistake</label>\r\n\t\t\t\t\t\t\t<input name=\"problem2\" type=\"hidden\" value=\"No\">\r\n\t\t\t\t\t\t</div>\r\n\t\t\t\t\t\t<div class=\"checkbox\">\r\n\t\t\t\t\t\t\t<label for=\"problem3\"><input name=\"problem3\" id=\"problem3\" type=\"checkbox\" value=\"Yes\">Information is missing</label>\r\n\t\t\t\t\t\t\t<input name=\"problem3\" type=\"hidden\" value=\"No\">\r\n\t\t\t\t\t   </div>\r\n\t\t\t\t\t\t<div class=\"checkbox\">\r\n\t\t\t\t\t\t\t<label for=\"problem4\"><input name=\"problem4\" id=\"problem4\" type=\"checkbox\" value=\"Yes\">Information is outdated or wrong</label>\r\n\t\t\t\t\t\t\t<input name=\"problem4\" type=\"hidden\" value=\"No\">\r\n\t\t\t\t\t\t</div>\r\n\t\t\t\t\t\t<div class=\"checkbox\">\r\n\t\t\t\t\t\t\t<label for=\"problem5\"><input name=\"problem5\" id=\"problem5\" type=\"checkbox\" value=\"Yes\">Login error when trying to access an account (e.g. My Service Canada Account)</label>\r\n\t\t\t\t\t\t\t<input name=\"problem5\" type=\"hidden\" value=\"No\">\r\n\t\t\t\t\t\t</div>\r\n\t\t\t\t\t\t\t<ul>\r\n\t\t\t\t\t\t\t<li class=\"checkbox\">\r\n\t\t\t\t\t\t\t\t<label for=\"problem6a\"><input name=\"problem6\" id=\"problem6a\" type=\"checkbox\" value=\"Yes\">GC Key access</label>\r\n\t\t\t\t\t\t\t\t<input name=\"problem6\" type=\"hidden\" value=\"No\">\r\n\t\t\t\t\t\t\t </li>\r\n\t\t\t\t\t\t\t<li class=\"checkbox\">\r\n\t\t\t\t\t\t\t\t<label for=\"problem7\"><input name=\"problem7\" id=\"problem7\" type=\"checkbox\" value=\"Yes\">SecureKey Concierge (Banking Credential) access </label>\r\n\t\t\t\t\t\t\t\t<input name=\"problem7\" type=\"hidden\" value=\"No\">\r\n\t\t\t\t\t\t\t </li>\r\n\t\t\t\t\t\t\t<li class=\"checkbox\">\r\n\t\t\t\t\t\t\t\t<label for=\"problem8\"><input name=\"problem8\" id=\"problem8\" type=\"checkbox\" value=\"Yes\">Personal Access Code (PAC) problems or EI Access Code (AC) problems</label>\r\n\t\t\t\t\t\t\t\t<input name=\"problem8\" type=\"hidden\" value=\"No\">\r\n\t\t\t\t\t\t\t </li>\t\r\n\t\t\t\t\t\t\t<li class=\"checkbox\">\r\n\t\t\t\t\t\t\t\t<label for=\"problem9\"><input name=\"problem9\" id=\"problem9\" type=\"checkbox\" value=\"Yes\">Social Insurance Number (SIN) validation problems</label>\r\n\t\t\t\t\t\t\t\t<input name=\"problem9\" type=\"hidden\" value=\"No\">\r\n\t\t\t\t\t\t\t </li>\t\t\t\t\t\t\t\t\r\n\t\t\t\t\t\t\t<li class=\"checkbox\">\r\n\t\t\t\t\t\t\t\t<label for=\"problem10\"><input name=\"problem10\" id=\"problem10\" type=\"checkbox\" value=\"Yes\">Other login error not in this list</label>\r\n\t\t\t\t\t\t\t\t<input name=\"problem10\" type=\"hidden\" value=\"No\">\r\n\t\t\t\t\t\t\t </li>\t\t \r\n\t\t\t\t\t\t\t </ul>\r\n\t\t\t\t\t\t<div class=\"checkbox\">\r\n\t\t\t\t\t\t\t<label for=\"problem11\"><input name=\"problem11\" id=\"problem11\" type=\"checkbox\" value=\"Yes\">I can't find what I'm looking for</label>\r\n\t\t\t\t\t\t\t<input name=\"problem11\" type=\"hidden\" value=\"No\">\r\n\t\t\t\t\t\t</div>\r\n\t\t\t\t\t\t<div class=\"checkbox\">\r\n\t\t\t\t\t\t\t<label for=\"problem12\"><input name=\"problem12\" id=\"problem12\" type=\"checkbox\" value=\"Yes\">Other issue not in this list</label>\r\n\t\t\t\t\t\t\t<input name=\"problem12\" type=\"hidden\" value=\"No\">\r\n\t\t\t\t\t\t</div>\t\t\t\t\t\t \t\t\t\t\t\t\t\t\t\t\t\t \r\n\t\t             </fieldset>\r\n\t\t\t\t\t <div>\r\n\t\t\t\t\t   <label for=\"aafc_ranstr\"><span id=\"fbch\"><br>Enter these characters <strong class=\"required\">(required)</strong>: </span><span id=\"ranstr\">U5S</span></label>\r\n\t\t\t           <input name=\"anti-spam-sequence\" id=\"aafc_ranstr\" size=\"4\" maxlength=\"3\" type=\"text\">\r\n\t\t\t\t\t </div>\t\r\n\r\n\t\t\t\t\t <br><input type=\"submit\" class=\"btn btn-primary\" value=\"Submit\">\r\n\t\t\t\t  </form>\r\n\t\t\t\t</div>\r\n\t\t\t</div>\t\t\t\r\n\t\t  </div>\r\n\t\t</div>\r\n\t\t</details>\r\n\t  </div>\r\n\t  <div class=\"wb-share col-sm-4 col-md-3 col-sm-offset-2 col-md-offset-4 col-lg-offset-5\" data-wb-share='{\"lnkClass\": \"btn btn-default btn-block\"}'></div>\r\n\t</div>\r\n\t<dl id=\"wb-dtmd\">\r\n\t  <dt>Date modified: </dt>\r\n\t  <dd><time property=\"dateModified\">2020-12-10</time></dd></dl></div>",
        "fr": "\r\n    \r\n    <!-- MainContentStart -->\r\n    <!-- D&eacute;but du contenu -->\r\n    <p><a href=\"#roundtable\">Apprenez-en plus sur chaque table ronde</a></p>\n\n<p>L'industrie de la transformation des aliments, qui emploie 290 000 Canadiens, figure parmi les plus importantes industries manufacturi\u00e8res au Canada. En 2019, la valeur de ses exp\u00e9ditions \u00e9tait de 117,8\u00a0milliards de dollars. Elle repr\u00e9sente 17\u00a0% de toutes les exp\u00e9ditions manufacturi\u00e8res et 2\u00a0% du produit int\u00e9rieur brut (PIB) national.</p> \n\n<p>L'industrie de la transformation des aliments fait partie int\u00e9grante de la cha\u00eene d'approvisionnement alimentaire du Canada. Elle ach\u00e8te environ 40\u00a0% de la production agricole canadienne et vend plus de 70\u00a0% de ses produits transform\u00e9s aux d\u00e9taillants et aux fournisseurs de services alimentaires canadiens.</p>\n\n<p>Objectifs cl\u00e9s\u00a0:</p>\n  \n<ul>\n<li>bien comprendre les d\u00e9fis et les occasions qui se pr\u00e9sentent \u00e0 l'industrie et l'\u00e9tat du milieu des affaires au Canada</li>\n<li>\u00e9laborer des mesures industrie-gouvernement pour am\u00e9liorer la comp\u00e9titivit\u00e9, accro\u00eetre la rentabilit\u00e9 et stimuler la croissance de l'industrie</li>\n</ul>\n\n<h2>Contactez-nous</h2>\n\n<p>Si vous avez des questions ou voulez en savoir plus, veuillez nous envoyer un courriel \u00e0 <a href=\"mailto:roundtable-tableronde@canada.ca\">roundtable-tableronde@canada.ca</a>.</p> \n\n<h2>Prochaine r\u00e9union</h2>\n\n<p>La prochaine r\u00e9union de la Table ronde sur la  cha\u00eene de valeur aura lieu en 2021.</p>\n\n<h2>R\u00e9sum\u00e9 des r\u00e9unions</h2>\n<ul>\n<li><a href=\"?id=1569960432268\">11 \u00e0 12 juin 2019</a></li>\n<li><a href=\"?id=1544211026381\">3 \u00e0 4 octobre 2018</a></li>\n<li><a href=\"?id=1520976057780\">7 \u00e0 8 d\u00e9cembre 2017</a></li>\n</ul>\n\n<h2>Membres du Comit\u00e9 directeur</h2>\n\n<h3>Copr\u00e9sidents</h3>\n\n<ul>\n <li>Daniel Vielfaure\u00a0\u2013 Bonduelle Am\u00e9riques </li>\n <li>Annette Gibbons\u00a0\u2013 Agriculture et Agroalimentaire Canada</li>\n</ul>\n\n<h3>Industrie</h3>\n\n<ul>\n<li>Sylvie Cloutier\u00a0\u2013 Conseil de la transformation alimentaire du Qu\u00e9bec</li>\n<li>Irving Teper\u00a0\u2013 Concord Premium Meats</li>\n<li>Mark Pickard\u00a0\u2013 InfraReady Products (1998) Limited</li>\n<li>John Nishidate\u00a0\u2013 Grand Hale Marine Products</li>\n  <li>Dominique Benoit\u00a0\u2013 Agropur</li>\n</ul>\n\n\n<h3>Gouvernement f\u00e9d\u00e9ral</h3>\n\n<ul>\n<li>Marco Valicenti\u00a0\u2013 Agriculture et Agroalimentaire Canada</li>\n <li>Sylvie Millette LeDuc\u00a0\u2013 Agriculture et Agroalimentaire Canada</li>\n <li>Joann Perron\u00a0\u2013 Agriculture et Agroalimentaire Canada</li>\n</ul>\n\n<h3>Ressource</h3>\n\n<p>Une <a href=\"?id=1512156517513\">liste d'organisations canadiennes</a> op\u00e9rant dans le domaine de l'innovation en alimentaire a \u00e9t\u00e9 cr\u00e9\u00e9e. Cette liste inclut une large gamme d'institutions et de centres de recherche ainsi que des universit\u00e9s.</p>\n\n<h2 id=\"roundtable\">Apprenez-en plus sur chaque table ronde\u00a0:</h2> \n\n<ul> \n <li><a href=\"?id=1385568234264\">Bioproduits industriels</a></li> \n <li><a href=\"?id=1385491900787\">B\u0153uf</a></li> \n <li><a href=\"?id=1385995694580\">Cultures sp\u00e9ciales</a></li> \n <li><a href=\"?id=1385582114523\">Grains</a></li> \n <li><a href=\"?id=1385585397604\">Horticulture</a></li> \n <li><a href=\"?id=1385733134280\">L\u00e9gumineuses</a></li> \n <li><a href=\"?id=1481809401467\">N\u00e9onicotino\u00efdes</a></li> \n <li><a href=\"?id=1385758986961\">Ovin</a></li> \n <li><a href=\"?id=1385740744721\">Porc</a></li> \n <li><a href=\"?id=1385666883750\">Produits biologiques</a></li> \n <li><a href=\"?id=1385755866700\">Produits de la mer</a></li> \n <li><a href=\"?id=1409832956249\">Sant\u00e9 des abeilles</a></li> \n <li><a href=\"?id=1385757253931\">Semences</a></li> \n <li><a href=\"?id=1385752573698\">Sous-comit\u00e9 sur la salubrit\u00e9 des aliments de l'agriculture et de l'agroalimentaire</a></li> \n <li><a href=\"?id=1385742632592\">Transformation des aliments</a></li> \n <li><a href=\"?id=1385491202669\">Tribune de tous les pr\u00e9sidents</a></li> \n <li><a href=\"?id=1492806638190\">Volaille</a></li> \n</ul> \n\r\n    <!-- Fin du contenu -->\r\n\t\r\n\t<div class=\"pagedetails\" id=\"pgft\">\r\n\t\t<div class=\"row\">\r\n\t\t  <div class=\"col-sm-6 col-md-5 col-lg-4\">\r\n\t\t    <details class=\"brdr-0\">\r\n\t\t\t<summary class=\"btn btn-default text-center\" onclick=\"getAntiSpamSeq('/fra/mail-handler/?anti-spam-sequence=true')\">Signaler un probl\u00e8me sur cette page</summary>\r\n\t\t\t<div class=\"well row\">\r\n\t\t\t  <div class=\"gc-rprt-prblm\">\r\n\t\t\t    <div class=\"gc-rprt-prblm-frm gc-rprt-prblm-tggl\">\r\n\t\t\t\t   <form id=\"report_a_problem_form\" action=\"/fra/mail-handler/\" method=\"post\">\r\n\t            \t <input type=\"hidden\" name=\"lang\" value=\"fra\">\r\n\t            \t <input type=\"hidden\" name=\"pageId\" value=\"1385742632592\">\r\n\t            \t <input type=\"hidden\" name=\"pageUrl\" value=\"http://agr.gc.ca/fra/secteurs-agricoles-du-canada/collaboration-avec-le-secteur-des-cultures/transformation-des-aliments/?id=1385742632592\">\r\n\t\t\t\t\t <div id=\"report_a_problem_form_error\"></div>\r\n\t\t             <fieldset>\t\t\t\t\t    \r\n\t\t                <legend><span class=\"field-name\">Veuillez cocher toutes les r\u00e9ponses pertinentes\u00a0:</span></legend>\r\n\t\t                 <div class=\"checkbox\">\r\n\t\t                    <label for=\"problem1\"><input name=\"problem1\" id=\"problem1\" type=\"checkbox\" value=\"Yes\">Un lien, un bouton ou une vid\u00e9o ne fonctionne pas</label>\r\n\t\t                    <input name=\"problem1\" type=\"hidden\" value=\"No\">\r\n\t\t                </div>\r\n\t\t                <div class=\"checkbox\">\r\n\t\t                    <label for=\"problem2\"><input name=\"problem2\" id=\"problem2\" type=\"checkbox\" value=\"Yes\">Il y a une erreur d'orthographe ou de grammaire</label>\r\n\t\t                    <input name=\"problem2\" type=\"hidden\" value=\"No\">\r\n\t\t                </div>\r\n\t\t   \t\t\t\t <div class=\"checkbox\">\r\n\t\t                    <label for=\"problem3\"><input name=\"problem3\" id=\"problem3\" type=\"checkbox\" value=\"Yes\">Les renseignements sont incomplets</label>\r\n\t\t                    <input name=\"problem3\" type=\"hidden\" value=\"No\">\r\n\t\t                </div>\r\n\t\t             \t\t<div class=\"checkbox\">\r\n\t\t                    <label for=\"problem4\"><input name=\"problem4\" id=\"problem4\" type=\"checkbox\" value=\"Yes\">L'information n'est plus \u00e0 jour ou est erron\u00e9e</label>\r\n\t\t                    <input name=\"problem4\" type=\"hidden\" value=\"No\">\r\n\t\t                </div>\t\t\t\t\t\t\r\n\t\t\t\t\t\t<div class=\"checkbox\">\r\n\t\t\t\t\t\t\t<label for=\"problem5\"><input name=\"problem5\" id=\"problem5\" type=\"checkbox\" value=\"Yes\">Message d'erreur \u00e0 l'ouverture de la session lorsque je tente d'acc\u00e9der \u00e0 un compte (ex. Mon dossier Service Canada)</label>\r\n\t\t\t\t\t\t\t<input name=\"problem5\" type=\"hidden\" value=\"No\">\r\n\t\t\t\t\t\t</div>\r\n\t\t\t\t\t\t\t<ul>\r\n\t\t\t\t\t\t\t<li class=\"checkbox\">\r\n\t\t\t\t\t\t\t\t<label for=\"problem6a\"><input name=\"problem6\" id=\"problem6a\" type=\"checkbox\" value=\"Yes\">Acc\u00e8s Cl\u00e9GC</label>\r\n\t\t\t\t\t\t\t\t<input name=\"problem6\" type=\"hidden\" value=\"No\">\r\n\t\t\t\t\t\t\t </li>\r\n\t\t\t\t\t\t\t<li class=\"checkbox\">\r\n\t\t\t\t\t\t\t\t<label for=\"problem7\"><input name=\"problem7\" id=\"problem7\" type=\"checkbox\" value=\"Yes\">Acc\u00e8s SecureKey Service de Concierge (justificatifs d'identit\u00e9 bancaires)</label>\r\n\t\t\t\t\t\t\t\t<input name=\"problem7\" type=\"hidden\" value=\"No\">\r\n\t\t\t\t\t\t\t </li>\r\n\t\t\t\t\t\t\t<li class=\"checkbox\">\r\n\t\t\t\t\t\t\t\t<label for=\"problem8\"><input name=\"problem8\" id=\"problem8\" type=\"checkbox\" value=\"Yes\">Probl\u00e8me avec le Code d'acc\u00e8s personnel (CAP) ou avec le Code d'acc\u00e8s (CA) de l'assurance emploi</label>\r\n\t\t\t\t\t\t\t\t<input name=\"problem8\" type=\"hidden\" value=\"No\">\r\n\t\t\t\t\t\t\t </li>\t\r\n\t\t\t\t\t\t\t<li class=\"checkbox\">\r\n\t\t\t\t\t\t\t\t<label for=\"problem9\"><input name=\"problem9\" id=\"problem9\" type=\"checkbox\" value=\"Yes\">Probl\u00e8me li\u00e9 \u00e0 la validation du num\u00e9ro d'assurance sociale (NAS)</label>\r\n\t\t\t\t\t\t\t\t<input name=\"problem9\" type=\"hidden\" value=\"No\">\r\n\t\t\t\t\t\t\t </li>\t\t\t\t\t\t\t\t\r\n\t\t\t\t\t\t\t<li class=\"checkbox\">\r\n\t\t\t\t\t\t\t\t<label for=\"problem10\"><input name=\"problem10\" id=\"problem10\" type=\"checkbox\" value=\"Yes\">Autre erreur lors de l'ouverture de session qui ne figure pas sur cette liste</label>\r\n\t\t\t\t\t\t\t\t<input name=\"problem10\" type=\"hidden\" value=\"No\">\r\n\t\t\t\t\t\t\t </li>\t\t \r\n\t\t\t\t\t\t\t </ul>\r\n\t\t\t\t\t\t<div class=\"checkbox\">\r\n\t\t\t\t\t\t\t<label for=\"problem11\"><input name=\"problem11\" id=\"problem11\" type=\"checkbox\" value=\"Yes\">Je n'arrive pas \u00e0 trouver ce que je cherche</label>\r\n\t\t\t\t\t\t\t<input name=\"problem11\" type=\"hidden\" value=\"No\">\r\n\t\t\t\t\t\t</div>\r\n\t\t\t\t\t\t<div class=\"checkbox\">\r\n\t\t\t\t\t\t\t<label for=\"problem12\"><input name=\"problem12\" id=\"problem12\" type=\"checkbox\" value=\"Yes\">Autre probl\u00e8me qui ne figure pas sur cette liste</label>\r\n\t\t\t\t\t\t\t<input name=\"problem12\" type=\"hidden\" value=\"No\">\r\n\t\t\t\t\t\t</div>\t\t\t\t\t\t\t\t\t\t\t\t\t\t\t\t\t\t\t\r\n\t\t             </fieldset>\r\n\t\t\t\t\t <div>\r\n\t\t\t\t        <label for=\"aafc_ranstr\"><span id=\"fbch\">Veuillez inscrire les caract\u00e8res suivants  <strong class=\"required\">(obligatoire)</strong>\u00a0: </span><span id=\"ranstr\">XXX</span></label>\r\n\t\t\t            <input name=\"anti-spam-sequence\" id=\"aafc_ranstr\" size=\"4\" maxlength=\"3\" type=\"text\">\r\n\t\t\t\t\t </div>\r\n\t\t\t\t\t <input type=\"submit\" class=\"btn btn-primary\" value=\"Soumettre\">\r\n\t\t\t\t  </form>\r\n\t\t\t\t</div>\r\n\t\t\t  </div>\r\n\t\t\t</div>\r\n\t\t</details>\r\n\t    </div>\r\n\t  <div class=\"wb-share col-sm-4 col-md-3 col-sm-offset-2 col-md-offset-4 col-lg-offset-5\" data-wb-share='{\"lnkClass\": \"btn btn-default btn-block\"}'></div>\r\n\t  </div>\r\n\t  <dl id=\"wb-dtmd\">\r\n\t    <dt>Date de modification\u00a0: </dt>\r\n\t      <dd><time property=\"dateModified\">2020-12-10</time></dd>\r\n\t  </dl>\r\n\t</div>\r\n\t\r\n  "
    }
}