{
    "dcr_id": "1384971854403",
    "title": {
        "en": "Import and export reports",
        "fr": "Rapports d'importations et exportations"
    },
    "modified": "2021-01-26",
    "issued": "2011-01-30",
    "templatetype": "content page 1 column",
    "page_type": "1",
    "node_id": "1384971799961",
    "dc_date_created": "2011-01-30",
    "managing_branch": "MISB",
    "parent_node_id": "1354137773899",
    "label": {
        "en": "Imports and Exports",
        "fr": "Importations et exportation"
    },
    "exturl": "",
    "teamsite_location": {
        "en": "/default/main/AAFC-AAC/Internet-Internet/MISB-DGSIM/SDAD-DDAS/PE-VO/WORKAREA/PE-VO/templatedata/comm-comm/gene-gene/data/by_type_imports_exports_1384971854403_en",
        "fr": "/default/main/AAFC-AAC/Internet-Internet/MISB-DGSIM/SDAD-DDAS/PE-VO/WORKAREA/PE-VO/templatedata/comm-comm/gene-gene/data/by_type_imports_exports_1384971854403_fr"
    },
    "type_name": "sitemapinit",
    "has_dcr_id": true,
    "breadcrumb": {
        "en": "Imports and Exports",
        "fr": "Importations et exportation"
    },
    "layout_name": "content page 1 column",
    "lang": "en",
    "meta": {
        "issued": {
            "en": "2011-01-30",
            "fr": "2003-02-24"
        },
        "modified": {
            "en": "2021-01-26",
            "fr": "2021-01-26"
        },
        "format": {
            "en": "gcformat",
            "fr": "gcformat"
        },
        "title": {
            "en": "Import and export reports",
            "fr": "Rapports d'importations et exportations"
        },
        "subject": {
            "en": "architectural heritage;architecture;statistics",
            "fr": "alimentation animale;\u0153uf;transformation des aliments"
        },
        "description": {
            "en": "Monthly Breakdown with Prior Year Comparison Report displays monthly imports or exports of chicken turkey or mature chicken with a prior year to date comparison for a selected year and week ending date.",
            "fr": "Importations et exportations13849717999611 Importations et exportations de volaille Importations et exportations des oeufs Commerce international de la volaille et des oeufs Statistique Canada R\u00e9gime canadien d'importation de la volaille Importations et exportations de volaille 066 Rapport annuel d'importations/exportations de volaille - comparaison mensuelle avec l'ann\u00e9e pr\u00e9c\u00e9dente Ce rapport affiche les importations ou exportations mensuelles de poulet dindon ou poulet adulte en comparaison avec l'ann\u00e9e pr\u00e9c\u00e9dente pour l'ann\u00e9e s\u00e9lectionn\u00e9e."
        },
        "language": {
            "en": "eng",
            "fr": "fra"
        },
        "keywords": {
            "en": "week reporting lag;exports of chicken turkey;Import/Export Report;mature chicken;selected year",
            "fr": "p\u00e9riode d'allocation;exportations mensuelles de poulet;rapport cumulatif;jour constantes;poulet adulte"
        },
        "audience": {
            "en": "gcaudience",
            "fr": "gcaudience"
        },
        "type": {
            "en": "presentation",
            "fr": "liste de r\u00e9f\u00e9rence"
        },
        "creator": {
            "en": "Market and Industry Services Branch;Agriculture and Agri-Food Canada;Government of Canada",
            "fr": "Direction g\u00e9n\u00e9rale des services \u00e0 l'industrie et aux march\u00e9s;Agriculture et Agroalimentaire Canada;Gouvernement du Canada"
        },
        "spatial": {
            "en": "gcregions",
            "fr": "gcregions"
        },
        "service": {
            "en": "AAFC-AAC",
            "fr": "AAFC-AAC"
        },
        "accessRights": {
            "en": "2",
            "fr": "2"
        },
        "legalName": {
            "en": "agriculture_and_agri_food_canada",
            "fr": "agriculture_et_agroalimentaire_canada"
        },
        "areaServed": {
            "en": "Canada",
            "fr": "Canada"
        }
    },
    "body": {
        "en": "tart --&gt;\r\n    <!-- D&eacute;but du contenu -->\r\n    <!-- Start content --><!-- InstanceBeginEditable name=\"ContentTitle\" --><!-- InstanceEndEditable --><!-- InstanceBeginEditable name=\"Content\" -->\n<ul>\n<li><a href=\"#poultryexp\">Poultry Imports and Exports</a></li>\n</ul>\n<ul>\n<li><a href=\"#eggie\">Eggs Imports and Exports</a></li>\n</ul>\n<ul>\n<li><a href=\"#scimpexp\">Statistics Canada Poultry and Egg Trade Reports</a></li>\n</ul>\n<ul>\n<li><a href=\"/eng/industry-markets-and-trade/statistics-and-market-information/by-product-sector/poultry-and-eggs/poultry-and-egg-market-information-canadian-industry/imports-and-exports/canada-s-poultry-import-regime/?id=1384971854404\">Canada's Poultry Import Regime</a> </li>\n</ul>\n\n<h2><a id=\"poultryexp\"></a>Poultry Imports and Exports </h2>\n\n<ul>\n<li><a href=\"http://aimis-simia.agr.gc.ca/rp/index-eng.cfm?action=pR&amp;r=188&amp;pdctc=\">066 Annual Poultry Import/Export Report - Monthly Breakdown with Prior Year Comparison</a><br>\n<p>Report displays monthly imports or exports of chicken, turkey or mature chicken, with a prior year comparison, for a selected year.</p>\n</li>\n<li><a href=\"http://aimis-simia.agr.gc.ca/rp/index-eng.cfm?action=pR&amp;r=190&amp;pdctc=\">066 Week-to-date Poultry Import/Export Report - Monthly Breakdown with Prior Year Comparison</a>\n<p>Report displays monthly imports or exports of chicken, turkey or mature chicken, with a prior year to date comparison, for a selected year and week ending date.<em> (Please note that this data set has a minimum four week reporting lag. Revisions are continuous.)</em></p>\n</li>\n<li><a href=\"http://aimis-simia.agr.gc.ca/rp/index-eng.cfm?action=pR&amp;r=177&amp;pdctc=\">067 Annual Canadian Chicken Imports by Port of Entry, HS Chapter and Allocation Period</a>\n<p>Report displays year-to-date Canadian chicken imports by port of entry, HS chapter and allocation period, for a selected year.</p>\n</li>\n<li><a href=\"http://aimis-simia.agr.gc.ca/rp/index-eng.cfm?action=pR&amp;r=178&amp;pdctc=\">067 Week-to-date Canadian Chicken Imports by Port of Entry, HS Chapter and Allocation Period</a>\n<p>Report displays year-to-date Canadian chicken imports by port of entry, HS chapter and allocation period, for a selected year. </p>\n</li>\n<li><a href=\"http://aimis-simia.agr.gc.ca/rp/index-eng.cfm?action=pR&amp;r=180&amp;pdctc=\">068 Annual Poultry Import/Export Report - Prior Year Comparison</a>\n<p>Report displays annual imports or exports of chicken, turkey, mature chicken and ducks/geese, with a prior year comparison, for a selected year.</p>\n</li>\n<li><a href=\"http://aimis-simia.agr.gc.ca/rp/index-eng.cfm?action=pR&amp;r=186&amp;pdctc=\">068 Week-to-date Poultry Import/Export Report - YTD with Prior Year Comparison</a>\n<p>Report displays year-to-date imports or exports of chicken, turkey, mature chicken and ducks/geese, with a prior year comparison, for a selected year and week ending date. <em>(Please note that this data set has a minimum four week reporting lag. Revisions are continuous.)</em></p>\n</li>\n<li><a href=\"http://aimis-simia.agr.gc.ca/rp/index-eng.cfm?action=pR&amp;r=181&amp;pdctc=\">069 Annual Poultry Import/Export Report - Monthly Breakdown</a>\n<p>Report displays monthly imports or exports of chicken, turkey or mature chicken, for a selected year.</p>\n</li>\n<li><a href=\"http://aimis-simia.agr.gc.ca/rp/index-eng.cfm?action=pR&amp;r=183&amp;pdctc=\">069 Monthly Poultry Import/Export Report - Monthly Breakdown</a>\n<p>Report displays monthly imports or exports of chicken, turkey or mature chicken, for a selected year and month. <em>(Please note that this data set has a minimum four week reporting lag. Revisions are continuous.)</em></p>\n</li>\n<li><a href=\"http://aimis-simia.agr.gc.ca/rp/index-eng.cfm?action=pR&amp;r=185&amp;pdctc=\">069 Week-to-date Poultry Import/Export Report - Monthly Breakdown</a>\n<p>Report displays monthly imports or exports of chicken, turkey or mature chicken, for a selected year and week ending date. <em>(Please note that this data set has a minimum four week reporting lag. Revisions are continuous.)</em></p>\n</li>\n<li><a href=\"http://aimis-simia.agr.gc.ca/rp/index-eng.cfm?action=pR&amp;r=195&amp;pdctc=\">070 Annual Poultry Import/Export Report - By Country</a>\n<p>Report displays either summary or comparison imports or exports of chicken, turkey or mature chicken, by country, for a selected year.</p>\n</li>\n<li><a href=\"http://aimis-simia.agr.gc.ca/rp/index-eng.cfm?action=pR&amp;r=197&amp;pdctc=\">070 Monthly Poultry Import/Export Report - By Country</a>\n<p>Report displays either summary or comparison imports or exports of chicken, turkey or mature chicken, by country, for a selected year and months. <em>(Please note that this data set has a minimum four week reporting lag. Revisions are continuous.)</em></p>\n</li>\n<li><a href=\"http://aimis-simia.agr.gc.ca/rp/index-eng.cfm?action=pR&amp;r=199&amp;pdctc=\">070 Week-to-date Monthly Poultry Import/Export Report - By Country\n</a>\n<p>Report displays either summary or comparison imports or exports of chicken, turkey or mature chicken, by country, for a selected year and week ending date. <em>(Please note that this data set has a minimum four week reporting lag. Revisions are continuous.)</em></p>\n</li>\n<li><a href=\"http://aimis-simia.agr.gc.ca/rp/index-eng.cfm?action=pR&amp;r=201&amp;pdctc=\">075 Canadian Poultry Trade Balance by country and commodity</a><br>\n<p>Report displays trade balance of chicken, turkey or mature chicken, by country, for a selected year.</p>\n</li>\n</ul>\n\n<h2><a id=\"eggie\"></a>Eggs Imports and Exports</h2>\n<ul>\n<li><a href=\"http://aimis-simia.agr.gc.ca/rp/index-eng.cfm?action=pR&amp;r=175&amp;pdctc=\">072 Imports/Exports of Processed Eggs</a>\n<p>Report displays imports or exports of processed eggs, broken down by week and product category, with an annual comparison to the previous year.</p>\n</li>\n<li><a href=\"http://aimis-simia.agr.gc.ca/rp/index-eng.cfm?action=pR&amp;r=174&amp;pdctc=\">073 Imports of Shell Eggs by Province</a>\n<p>Report displays imports of shell eggs, broken down by week and province, with an annual comparison to the previous year.</p>\n</li>\n<li><a href=\"http://aimis-simia.agr.gc.ca/rp/index-eng.cfm?action=pR&amp;r=173&amp;pdctc=\">074 Imports of Shell Eggs by Grade</a>\n<p>Report displays imports of shell eggs, broken down by week and grade, with an annual comparison to the previous year.</p>\n</li>\n</ul>\n\n<h2><a id=\"scimpexp\"></a>Statistics Canada Poultry and Egg Trade Reports</h2>\n<ul>\n<li><a href=\"/eng/animal-industry/poultry-and-egg-market-information/imports-and-exports/statistics-canada-poultry-and-egg-trade-reports/?id=1384971854405\">Statistics Canada Trade Report on Poultry and Egg</a><br>\n<p>Report displays Statistics Canada trade data and balance, in quantity and value, for live poultry, chicken and mature chicken meat, turkey meat, ducks and geese meat, hatching eggs, shell eggs, and processed eggs. </p>\n</li>\n</ul>\n\n<h2>Other trade reports</h2>\n<dl>\n<dt><a href=\"https://www.ic.gc.ca/eic/site/tdo-dcd.nsf/eng/home\" title=\"Link to the Trade Data Online\">Trade Data Online</a></dt>\n<dd>Trade Data Online provides the ability to generate customized reports on Canada and U.S. trade\nin goods with over 200 countries.</dd>\n<ul>\n<li><a title=\"Link to the trade data online by product (HS code)\" href=\"https://www.ic.gc.ca/app/scr/tdst/tdo/crtr.html?&amp;productType=HS6&amp;lang=eng\">Search by product</a>\u00a0(HS code)</li>\n<li><a title=\"Link to the Trade data online search by industry (NAICS codes)\" href=\"https://www.ic.gc.ca/app/scr/tdst/tdo/crtr.html?&amp;productType=NAICS&amp;lang=eng\">Search by industry</a>\u00a0(NAICS codes)</li>\n</ul>\n</dl>\n<dl>\n<dt><a href=\"https://www.agr.gc.ca/eng/international-trade/market-intelligence/reports/?id=1522931721523\" title=\"link to the market intelligence reports\">Market intelligence reports</a></dt>\n<dd>Global agriculture and food opportunities, market trends and forecasts, Canada\u2019s free trade agreements.</dd>\n</dl>\n\n<div class=\"clearfix\"></div>\n\n<div class=\"well\">\n<p>If you have any questions or require additional information, please send an e-mail to <a href=\"mailto:aafc.poultry-volaille.aac@canada.ca\" title=\"Email: Animal Industry Division - Market Information Section\"> aafc.poultry-volaille.aac@canada.ca </a></p>\n\n<h3>Our service standards</h3>\n<p>Service standards play a vital role in our market information program\u2019s commitment to planning, reporting and performance management. \nThey clearly define the level of service that clients can expect under normal circumstances.</p>\n\n<p>View the <a href=\"http://www.agr.gc.ca/eng/industry-markets-and-trade/statistics-and-market-information/by-product-sector/poultry-and-eggs/service-standards-for-poultry-and-egg-market-information/?id=1481029938239\" title=\"Service standards for poultry reports\">Service standards for poultry reports.</a></p>\n</div>\n<div class=\"clearfix\"></div>\n\n\n\n<!-- InstanceEndEditable -->",
        "fr": "\r\n    \r\n    <!-- MainContentStart -->\r\n    <!-- D&eacute;but du contenu -->\r\n    <!-- D&eacute;but du contenu -->             <!-- InstanceBeginEditable name=\"ContentTitle\" -->                         <!-- InstanceEndEditable --> <!-- InstanceBeginEditable name=\"Content\" -->                    \n<ul>\n<li><a href=\"#volailleexp\">Importations et exportations de volaille</a></li>\n</ul>\n<ul>\n<li><a href=\"#oeufie\">Importations               et exportations des oeufs</a></li>\n</ul>\n<ul>\n<li><a href=\"#scimpexp\">Commerce international de la volaille et des oeufs,  Statistique Canada</a></li>\n</ul>\n<ul>\n<li><a href=\"/fra/industrie-marches-et-commerce/statistiques-et-information-sur-les-marches/par-produit-secteur/volaille-et-oeufs/information-sur-le-marche-de-la-volaille-et-des-oeufs-industrie-canadienne/importations-et-exportations/regime-canadien-d-importation-de-la-volaille/?id=1384971854404\">R\u00e9gime canadien d'importation de la volaille</a>                          </li>\n</ul>\n\n<h2><a id=\"volailleexp\"></a>Importations et exportations de volaille</h2>\n\n\n<ul>\n<li><a href=\"http://aimis-simia.agr.gc.ca/rp/index-fra.cfm?action=pR&amp;r=688&amp;pdctc=\">066 Rapport annuel d'importations/exportations de volaille - comparaison mensuelle avec l'ann\u00e9e pr\u00e9c\u00e9dente</a><br>\n<p>Ce rapport affiche les importations ou exportations mensuelles de poulet, dindon ou poulet adulte, en comparaison avec l'ann\u00e9e pr\u00e9c\u00e9dente, pour l'ann\u00e9e s\u00e9lectionn\u00e9e.</p>\n</li>\n<li><a href=\"http://aimis-simia.agr.gc.ca/rp/index-fra.cfm?action=pR&amp;r=690&amp;pdctc=\">066 Rapport hebdomadaire cumulatif d'importations/exportations de volaille - comparaison mensuelle avec l'ann\u00e9e pr\u00e9c\u00e9dente</a><br>\n<p>Ce rapport cumulatif affiche les importations ou exportations mensuelles de poulet, dindon ou poulet adulte, en comparaison avec l'ann\u00e9e pr\u00e9c\u00e9dente, pour l'ann\u00e9e et la semaine s\u00e9lectionn\u00e9e. (<em>Veuillez prendre note que les donn\u00e9es publi\u00e9es des quatre derni\u00e8res semaines demeurent incompl\u00e8tes et des mises \u00e0 jour constantes sont apport\u00e9es.)</em></p>\n</li>\n<li><a href=\"http://aimis-simia.agr.gc.ca/rp/index-fra.cfm?action=pR&amp;r=677&amp;pdctc=\">067 Importations annuelles canadiennes de poulets par port d'entr\u00e9e, chapitre SH et p\u00e9riode d'allocation</a>\n<p>Ce rapport annuel affiche les importations canadiennes de poulet par port d'entr\u00e9e, chapitre SH et p\u00e9riode d'allocation, pour une ann\u00e9e s\u00e9lectionn\u00e9e.</p>\n</li>\n<li><a href=\"http://aimis-simia.agr.gc.ca/rp/index-fra.cfm?action=pR&amp;r=678&amp;pdctc=\">067 Importations hebdomadaires cumulatives canadiennes de poulets par port d'entr\u00e9e, chapitre SH et p\u00e9riode d'allocation</a><br>\n<p>Ce rapport annuel affiche les importations canadiennes de poulet par port d'entr\u00e9e, chapitre SH et p\u00e9riode d'allocation, pour une ann\u00e9e s\u00e9lectionn\u00e9e.</p>\n</li>\n<li><a href=\"http://aimis-simia.agr.gc.ca/rp/index-fra.cfm?action=pR&amp;r=680&amp;pdctc=\">068 Rapport annuel d'importations/exportations de volaille - comparaison annuelle avec l'ann\u00e9e pr\u00e9c\u00e9dente</a> <br>\n<p>Ce rapport affiche les importations ou exportations annuelles de poulet, dindon, poulet adulte et canards/oies, en comparaison avec l'ann\u00e9e pr\u00e9c\u00e9dente, pour l'ann\u00e9e s\u00e9lectionn\u00e9e.</p>\n</li>\n<li><a href=\"http://aimis-simia.agr.gc.ca/rp/index-fra.cfm?action=pR&amp;r=686&amp;pdctc=\">068 Rapport hebdomadaire cumulatif d'importations/exportations de volaille - comparaison annuelle avec l'ann\u00e9e pr\u00e9c\u00e9dente</a><br>\n<p>Ce rapport cumulatif affiche les importations ou exportations annuelles de poulet, dindon, poulet adulte et canards/oies, en comparaison avec l'ann\u00e9e pr\u00e9c\u00e9dente, pour l'ann\u00e9e et la semaine s\u00e9lectionn\u00e9e. (<em>Veuillez prendre note que les donn\u00e9es publi\u00e9es des quatre derni\u00e8res semaines demeurent incompl\u00e8tes et des mises \u00e0 jour constantes sont apport\u00e9es.)</em></p>\n</li>\n<li><a href=\"http://aimis-simia.agr.gc.ca/rp/index-fra.cfm?action=pR&amp;r=681&amp;pdctc=\">069 Rapport annuel d'importations/exportations de volaille - r\u00e9partition  mensuelle</a>\n<p>Ce rapport affiche les importations ou exportations mensuelles de poulet, dindon ou poulet adulte, pour l'ann\u00e9e s\u00e9lectionn\u00e9e.</p>\n</li>\n<li><a href=\"http://aimis-simia.agr.gc.ca/rp/index-fra.cfm?action=pR&amp;r=683&amp;pdctc=\">069 Rapport mensuel d'importations/exportations de volaille - r\u00e9partition mensuelle</a>\n<p>Ce rapport cumulatif affiche les importations ou exportations mensuelles de poulet, dindon ou poulet adulte, pour l'ann\u00e9e et le mois s\u00e9lectionn\u00e9. (<em>Veuillez prendre note que les donn\u00e9es publi\u00e9es des quatre derni\u00e8res semaines demeurent incompl\u00e8tes et des mises \u00e0 jour constantes sont apport\u00e9es.)</em></p>\n</li>\n<li><a href=\"http://aimis-simia.agr.gc.ca/rp/index-fra.cfm?action=pR&amp;r=685&amp;pdctc=\">069 Rapport hebdomadaire cumulatif d'importations/exportations de volaille - r\u00e9partition mensuelle</a>\n<p>Ce rapport cumulatif affiche les importations ou exportations mensuelles de poulet, dindon ou poulet adulte, pour l'ann\u00e9e et la semaine s\u00e9lectionn\u00e9e. (<em>Veuillez prendre note que les donn\u00e9es publi\u00e9es des quatre derni\u00e8res semaines demeurent incompl\u00e8tes et des mises \u00e0 jour constantes sont apport\u00e9es.)</em></p>\n</li>\n<li><a href=\"http://aimis-simia.agr.gc.ca/rp/index-fra.cfm?action=pR&amp;r=695&amp;pdctc=\">070 Rapport annuel d'importations/exportations de volaille - par pays</a>\n<p>Ce rapport affiche une version sommaire ou comparative avec l'ann\u00e9e pr\u00e9c\u00e9dente des importations ou exportations de poulet, dindon ou poulet adulte, par pays, pour l'ann\u00e9e s\u00e9lectionn\u00e9e. </p>\n</li>\n<li><a href=\"http://aimis-simia.agr.gc.ca/rp/index-fra.cfm?action=pR&amp;r=697&amp;pdctc=\">070 Rapport mensuel d'importations/exportations de volaille - par pays</a>\n<p>Ce rapport cumulatif affiche une version sommaire ou comparative avec l'ann\u00e9e pr\u00e9c\u00e9dente des importations ou exportations de poulet, dindon ou poulet adulte par pays, pour l'ann\u00e9e et les mois s\u00e9lectionn\u00e9s. (<em>Veuillez prendre note que les donn\u00e9es publi\u00e9es des quatre derni\u00e8res semaines demeurent incompl\u00e8tes et des mises \u00e0 jour constantes sont apport\u00e9es.)</em></p>\n</li>\n<li><a href=\"http://aimis-simia.agr.gc.ca/rp/index-fra.cfm?action=pR&amp;r=699&amp;pdctc=\">070 Rapport hebdomadaire cumulatif d'importations/exportations de volaille - par pays</a>\n<p>Ce rapport cumulatif affiche une version sommaire et comparative avec l'ann\u00e9e pr\u00e9c\u00e9dente des importations ou exportations de poulet, dindon ou poulet adulte, par pays, pour l'ann\u00e9e et la semaine s\u00e9lectionn\u00e9e. (<em>Veuillez prendre note que les donn\u00e9es publi\u00e9es des quatre derni\u00e8res semaines demeurent incompl\u00e8tes et des mises \u00e0 jour constantes sont apport\u00e9es.)</em></p>\n</li>\n</ul>\n<ul>\n<li><a href=\"http://aimis-simia.agr.gc.ca/rp/index-fra.cfm?action=pR&amp;r=701&amp;pdctc=\">075 Balance commerciale canadienne de volaille - par pays et esp\u00e8ce</a>\n<p>Ce rapport affiche la balance commercial de poulet, dindon ou poulet adulte, par pays, pour une ann\u00e9e s\u00e9lectionn\u00e9e.</p>\n</li>\n</ul>\n\n<h2><a id=\"oeufie\"></a>Importations et exportations des oeufs</h2>\n<ul>\n<li><a href=\"http://aimis-simia.agr.gc.ca/rp/index-fra.cfm?action=pR&amp;r=675&amp;pdctc=\">072 Importations/Exportations d'oeufs transform\u00e9s</a>\n<p>Ce rapport affiche les importations ou exportations d'oeufs transform\u00e9s par semaine, selon leur sous-produit, ainsi qu'une comparaison annuelle cumulative avec l'ann\u00e9e pr\u00e9c\u00e9dente.</p>\n</li>\n<li><a href=\"http://aimis-simia.agr.gc.ca/rp/index-fra.cfm?action=pR&amp;r=674&amp;pdctc=\">073  Importations d'oeufs en coquille par province</a>\n<p>Ce rapport affiche les importations d'oeufs en coquille par semaine, par province, ainsi qu'une comparaison annuelle cumulative avec l'ann\u00e9e pr\u00e9c\u00e9dente.</p>\n</li>\n<li><a href=\"http://aimis-simia.agr.gc.ca/rp/index-fra.cfm?action=pR&amp;r=673&amp;pdctc=\">074 Importations d'oeufs en coquille par classement</a>\n<p>Ce rapport affiche les importations d'oeufs en coquille par semaine, selon leur classement, ainsi qu'une comparaison annuelle cumulative avec l'ann\u00e9e pr\u00e9c\u00e9dente.</p>\n</li>\n</ul>\n\n<h2><a id=\"scimpexp\"></a>Commerce international de la volaille et des oeufs, Statistique Canada</h2>\n<ul>\n<li><a href=\"/fra/production-animale/information-sur-le-marche-de-la-volaille-et-des-oeufs/importations-et-exportations/rapports-sur-le-commerce-international-de-la-volaille-et-des-oeufs/?id=1384971854405\">Rapport Statistique Canada sur le commerce international de la volaille et des oeufs</a><br>\n<p>Ce rapport contient les donn\u00e9es de Statistique Canada et affiche la balance  commerciale, en quantit\u00e9 et valeur, pour les volailles vivantes, la viande de  poulets et poulets adultes, la viande de dindes, la viande canards et oies, les  oeufs d\u2019incubation, les oeufs en coquille, et les oeufs transform\u00e9s.</p>\n</li>\n</ul>\n\n<h2>Autres rapports contenant des donn\u00e9es sur le commerce international</h2>\n<dl>\n<dt><a title=\"Liens vers les donn\u00e9es sur le commerce en direct\" href=\"https://www.ic.gc.ca/eic/site/tdo-dcd.nsf/fra/accueil\">Donn\u00e9es sur le commerce en direct</a></dt>\n<dd>Donn\u00e9es sur le commerce en direct vous permet de produire \u00e0 volont\u00e9 des rapports sur mesure sur le commerce de marchandises du Canada et des \u00c9tats-Unis avec plus de 200 pays.</dd>\n<ul>\n<li><a title=\"Liens vers les donn\u00e9es sur le commerce en direct par produit (code HS)\" href=\"https://www.ic.gc.ca/app/scr/tdst/tdo/crtr.html?&amp;productType=HS6&amp;lang=fra\">Recherche par produit</a> (code SH)</li>\n<li><a title=\"Liens vers les donn\u00e9es sur le commerce en direct par industrie (code SCIAN)\" href=\"https://www.ic.gc.ca/app/scr/tdst/tdo/crtr.html?&amp;productType=NAICS&amp;lang=fra\">Recherche par industrie</a> (code SCIAN) </li>\n</ul>\n</dl>\n\n<dl>\n<dt><a title=\"Liens vers les rapports d'information sur les march\u00e9s\" href=\"https://www.agr.gc.ca/fra/commerce-international/renseignements-sur-les-marches/rapports/?id=1522931721523\">Rapports d'information sur les march\u00e9s</a></dt>\n<dd>Rapports, tendances et pr\u00e9visions des march\u00e9s, d\u00e9bouch\u00e9s internationaux en mati\u00e8re d\u2019agriculture et d\u2019alimentation, accords de libre-\u00e9change du Canada.</dd>\n</dl>\n\n<div class=\"clearfix\"></div>\n\n<div class=\"well\">\n<p>Pour toute question ou information additionnelle, veuillez communiquer avec nous par courriel \u00e0 <a href=\"mailto:aafc.poultry-volaille.aac@canada.ca\" title=\"Courriel : Division de l'industrie animale, Section de l'information sur les march\u00e9s\"> aafc.poultry-volaille.aac@canada.ca</a></p>\n\n<h2>Nos normes de service</h2>\n<p>Les normes de service jouent un r\u00f4le cl\u00e9 dans les processus de gestion de la planification, des rapports et du rendement de notre programme d'information sur le march\u00e9. Elles d\u00e9finissent clairement le niveau de rendement auquel les clients peuvent s'attendre lorsqu'ils re\u00e7oivent un service dans des circonstances normales.</p>\n\n<p>Visionnez les  <a href=\"http://www.agr.gc.ca/fra/industrie-marches-et-commerce/statistiques-et-information-sur-les-marches/par-produit-secteur/volaille-et-oeufs/normes-de-service-pour-l-information-sur-le-marche-de-la-volaille-et-des-ufs/?id=1481029938239\" title=\"Normes de service relatives aux rapports sur la volaille\">Normes de service relatives aux rapports sur la volaille.</a></p>\n</div>\n<div class=\"clearfix\"></div>\n\n\n\n\n<!-- InstanceEndEditable -->             <!-- Fin du contenu -->\n\r\n    <!-- Fin du contenu -->\r\n\t\r\n\t<div class=\"pagedetails\" id=\"pgft\">\r\n\t\t<div class=\"row\">\r\n\t\t  <div class=\"col-sm-6 col-md-5 col-lg-4\">\r\n\t\t    <details class=\"brdr-0\">\r\n\t\t\t<summary class=\"btn btn-default text-center\" onclick=\"getAntiSpamSeq('/fra/mail-handler/?anti-spam-sequence=true')\">Signaler un probl\u00e8me sur cette page</summary>\r\n\t\t\t<div class=\"well row\">\r\n\t\t\t  <div class=\"gc-rprt-prblm\">\r\n\t\t\t    <div class=\"gc-rprt-prblm-frm gc-rprt-prblm-tggl\">\r\n\t\t\t\t   <form id=\"report_a_problem_form\" action=\"/fra/mail-handler/\" method=\"post\">\r\n\t            \t <input type=\"hidden\" name=\"lang\" value=\"fra\">\r\n\t            \t <input type=\"hidden\" name=\"pageId\" value=\"1384971854403\">\r\n\t            \t <input type=\"hidden\" name=\"pageUrl\" value=\"http://agr.gc.ca/fra/production-animale/information-sur-le-marche-de-la-volaille-et-des-oeufs/importations-et-exportations/?id=1384971854403\">\r\n\t\t\t\t\t <div id=\"report_a_problem_form_error\"></div>\r\n\t\t             <fieldset>\t\t\t\t\t    \r\n\t\t                <legend><span class=\"field-name\">Veuillez cocher toutes les r\u00e9ponses pertinentes\u00a0:</span></legend>\r\n\t\t                 <div class=\"checkbox\">\r\n\t\t                    <label for=\"problem1\"><input name=\"problem1\" id=\"problem1\" type=\"checkbox\" value=\"Yes\">Un lien, un bouton ou une vid\u00e9o ne fonctionne pas</label>\r\n\t\t                    <input name=\"problem1\" type=\"hidden\" value=\"No\">\r\n\t\t                </div>\r\n\t\t                <div class=\"checkbox\">\r\n\t\t                    <label for=\"problem2\"><input name=\"problem2\" id=\"problem2\" type=\"checkbox\" value=\"Yes\">Il y a une erreur d'orthographe ou de grammaire</label>\r\n\t\t                    <input name=\"problem2\" type=\"hidden\" value=\"No\">\r\n\t\t                </div>\r\n\t\t   \t\t\t\t <div class=\"checkbox\">\r\n\t\t                    <label for=\"problem3\"><input name=\"problem3\" id=\"problem3\" type=\"checkbox\" value=\"Yes\">Les renseignements sont incomplets</label>\r\n\t\t                    <input name=\"problem3\" type=\"hidden\" value=\"No\">\r\n\t\t                </div>\r\n\t\t             \t\t<div class=\"checkbox\">\r\n\t\t                    <label for=\"problem4\"><input name=\"problem4\" id=\"problem4\" type=\"checkbox\" value=\"Yes\">L'information n'est plus \u00e0 jour ou est erron\u00e9e</label>\r\n\t\t                    <input name=\"problem4\" type=\"hidden\" value=\"No\">\r\n\t\t                </div>\t\t\t\t\t\t\r\n\t\t\t\t\t\t<div class=\"checkbox\">\r\n\t\t\t\t\t\t\t<label for=\"problem5\"><input name=\"problem5\" id=\"problem5\" type=\"checkbox\" value=\"Yes\">Message d'erreur \u00e0 l'ouverture de la session lorsque je tente d'acc\u00e9der \u00e0 un compte (ex. Mon dossier Service Canada)</label>\r\n\t\t\t\t\t\t\t<input name=\"problem5\" type=\"hidden\" value=\"No\">\r\n\t\t\t\t\t\t</div>\r\n\t\t\t\t\t\t\t<ul>\r\n\t\t\t\t\t\t\t<li class=\"checkbox\">\r\n\t\t\t\t\t\t\t\t<label for=\"problem6a\"><input name=\"problem6\" id=\"problem6a\" type=\"checkbox\" value=\"Yes\">Acc\u00e8s Cl\u00e9GC</label>\r\n\t\t\t\t\t\t\t\t<input name=\"problem6\" type=\"hidden\" value=\"No\">\r\n\t\t\t\t\t\t\t </li>\r\n\t\t\t\t\t\t\t<li class=\"checkbox\">\r\n\t\t\t\t\t\t\t\t<label for=\"problem7\"><input name=\"problem7\" id=\"problem7\" type=\"checkbox\" value=\"Yes\">Acc\u00e8s SecureKey Service de Concierge (justificatifs d'identit\u00e9 bancaires)</label>\r\n\t\t\t\t\t\t\t\t<input name=\"problem7\" type=\"hidden\" value=\"No\">\r\n\t\t\t\t\t\t\t </li>\r\n\t\t\t\t\t\t\t<li class=\"checkbox\">\r\n\t\t\t\t\t\t\t\t<label for=\"problem8\"><input name=\"problem8\" id=\"problem8\" type=\"checkbox\" value=\"Yes\">Probl\u00e8me avec le Code d'acc\u00e8s personnel (CAP) ou avec le Code d'acc\u00e8s (CA) de l'assurance emploi</label>\r\n\t\t\t\t\t\t\t\t<input name=\"problem8\" type=\"hidden\" value=\"No\">\r\n\t\t\t\t\t\t\t </li>\t\r\n\t\t\t\t\t\t\t<li class=\"checkbox\">\r\n\t\t\t\t\t\t\t\t<label for=\"problem9\"><input name=\"problem9\" id=\"problem9\" type=\"checkbox\" value=\"Yes\">Probl\u00e8me li\u00e9 \u00e0 la validation du num\u00e9ro d'assurance sociale (NAS)</label>\r\n\t\t\t\t\t\t\t\t<input name=\"problem9\" type=\"hidden\" value=\"No\">\r\n\t\t\t\t\t\t\t </li>\t\t\t\t\t\t\t\t\r\n\t\t\t\t\t\t\t<li class=\"checkbox\">\r\n\t\t\t\t\t\t\t\t<label for=\"problem10\"><input name=\"problem10\" id=\"problem10\" type=\"checkbox\" value=\"Yes\">Autre erreur lors de l'ouverture de session qui ne figure pas sur cette liste</label>\r\n\t\t\t\t\t\t\t\t<input name=\"problem10\" type=\"hidden\" value=\"No\">\r\n\t\t\t\t\t\t\t </li>\t\t \r\n\t\t\t\t\t\t\t </ul>\r\n\t\t\t\t\t\t<div class=\"checkbox\">\r\n\t\t\t\t\t\t\t<label for=\"problem11\"><input name=\"problem11\" id=\"problem11\" type=\"checkbox\" value=\"Yes\">Je n'arrive pas \u00e0 trouver ce que je cherche</label>\r\n\t\t\t\t\t\t\t<input name=\"problem11\" type=\"hidden\" value=\"No\">\r\n\t\t\t\t\t\t</div>\r\n\t\t\t\t\t\t<div class=\"checkbox\">\r\n\t\t\t\t\t\t\t<label for=\"problem12\"><input name=\"problem12\" id=\"problem12\" type=\"checkbox\" value=\"Yes\">Autre probl\u00e8me qui ne figure pas sur cette liste</label>\r\n\t\t\t\t\t\t\t<input name=\"problem12\" type=\"hidden\" value=\"No\">\r\n\t\t\t\t\t\t</div>\t\t\t\t\t\t\t\t\t\t\t\t\t\t\t\t\t\t\t\r\n\t\t             </fieldset>\r\n\t\t\t\t\t <div>\r\n\t\t\t\t        <label for=\"aafc_ranstr\"><span id=\"fbch\">Veuillez inscrire les caract\u00e8res suivants  <strong class=\"required\">(obligatoire)</strong>\u00a0: </span><span id=\"ranstr\">XXX</span></label>\r\n\t\t\t            <input name=\"anti-spam-sequence\" id=\"aafc_ranstr\" size=\"4\" maxlength=\"3\" type=\"text\">\r\n\t\t\t\t\t </div>\r\n\t\t\t\t\t <input type=\"submit\" class=\"btn btn-primary\" value=\"Soumettre\">\r\n\t\t\t\t  </form>\r\n\t\t\t\t</div>\r\n\t\t\t  </div>\r\n\t\t\t</div>\r\n\t\t</details>\r\n\t    </div>\r\n\t  <div class=\"wb-share col-sm-4 col-md-3 col-sm-offset-2 col-md-offset-4 col-lg-offset-5\" data-wb-share='{\"lnkClass\": \"btn btn-default btn-block\"}'></div>\r\n\t  </div>\r\n\t  <dl id=\"wb-dtmd\">\r\n\t    <dt>Date de modification\u00a0: </dt>\r\n\t      <dd><time property=\"dateModified\">2021-01-26</time></dd>\r\n\t  </dl>\r\n\t</div>\r\n\t\r\n  "
    }
}