{
    "dcr_id": "1385582114523",
    "title": {
        "en": "Grains Roundtable",
        "fr": "Table ronde sur l'industrie des grains"
    },
    "modified": "2019-10-03",
    "issued": "2011-03-07",
    "templatetype": "content page 1 column",
    "page_type": "1",
    "node_id": "1384804049696",
    "dc_date_created": "2011-03-07",
    "managing_branch": "MISB",
    "parent_node_id": "1384803392547",
    "label": {
        "en": "Grains",
        "fr": "Grains"
    },
    "exturl": "",
    "teamsite_location": {
        "en": "/default/main/AAFC-AAC/Internet-Internet/MISB-DGSIM/VCR-TCV/WORKAREA/VCR-TCV/templatedata/comm-comm/gene-gene/data/vcr_grains_index_1385582114523_en",
        "fr": "/default/main/AAFC-AAC/Internet-Internet/MISB-DGSIM/VCR-TCV/WORKAREA/VCR-TCV/templatedata/comm-comm/gene-gene/data/vcr_grains_index_1385582114523_fr"
    },
    "type_name": "sitemapinit",
    "has_dcr_id": true,
    "breadcrumb": {
        "en": "Grains",
        "fr": "Grains"
    },
    "layout_name": "content page 1 column",
    "lang": "en",
    "meta": {
        "issued": {
            "en": "2011-03-07",
            "fr": "2011-03-07"
        },
        "modified": {
            "en": "2019-10-03",
            "fr": "2019-10-03"
        },
        "format": {
            "en": "gcformat",
            "fr": "gcformat"
        },
        "title": {
            "en": "Grains Roundtable",
            "fr": "Table ronde sur l'industrie des grains"
        },
        "subject": {
            "en": "regulatory agencies;grains",
            "fr": "organisme de r\u00e9glementation;grain"
        },
        "description": {
            "en": "Its wheat exports are forecast to total 17700000 tonnes while canola is expected to total 8400000 tonnes and barley exports are forecast at 1900000 tonnes.",
            "fr": "Grains13848040496961 Dans cette section Objectifs Membres Bulletins Personnes-ressources Liens Un bref historique L'industrie canadienne des grains comprend principalement la culture du bl\u00e9 du canola des l\u00e9gumineuses \u00e0 grains de l'orge du ma\u00efs de l'avoine et du soja."
        },
        "language": {
            "en": "eng",
            "fr": "fra"
        },
        "keywords": {
            "en": "section Objectives Members Bulletins Contacts Links A Brief History Canada's grains industry;barley exports;tonnes of wheat;tonnes of barley;inaugural meeting",
            "fr": "r\u00e8glements internationaux;Table ronde;culture du bl\u00e9 du canola des l\u00e9gumineuses;Objectifs Membres Bulletins Personnes-ressources Liens Un bref historique;secteur des c\u00e9r\u00e9ales"
        },
        "audience": {
            "en": "gcaudience",
            "fr": "gcaudience"
        },
        "type": {
            "en": "publication",
            "fr": "fiche de renseignements"
        },
        "creator": {
            "en": "International Policy and Coordination Division;Multilateral Relations;Market and Industry Services Branch;Agriculture and Agri-Food Canada;Government of Canada",
            "fr": "Division de la coordination et des politiques internationales;Relations multilat\u00e9rales;Direction g\u00e9n\u00e9rale des services \u00e0 l'industrie et aux march\u00e9s;Agriculture et agroalimentaire Canada;Gouvernement du Canada"
        },
        "spatial": {
            "en": "gcregions",
            "fr": "gcregions"
        },
        "service": {
            "en": "AAFC-AAC",
            "fr": "AAFC-AAC"
        },
        "accessRights": {
            "en": "2",
            "fr": "2"
        },
        "legalName": {
            "en": "agriculture_and_agri_food_canada",
            "fr": "agriculture_et_agroalimentaire_canada"
        },
        "areaServed": {
            "en": "Canada",
            "fr": "Canada"
        }
    },
    "body": {
        "en": "tart --&gt;\r\n    <!-- D&eacute;but du contenu -->\r\n     <p><a href=\"#roundtable\">Learn more about each roundtable </a></p>\n\n<p>Canada's grains industry is composed primarily  of wheat, canola, flax,  soybeans, pulses, barley, corn and oats. It is a global supplier in the  manufacturing of food products for consumer consumption, livestock feed, and in  the production of bio-fuels. The Canadian grains industry prides itself on  providing safe and innovative products to global markets that continually  exceed world standards and regulations. With representatives from the entire  value chain, the Grains Roundtable is focusing on four areas identified by  industry as the major obstacles to improving the sector's competitiveness.</p>\n\n<p>Key focuses:</p>\n\n<ul>\n  <li>economics</li>\n  <li>innovation</li>\n  <li>market access</li>\n  <li>environment  and climate change</li>\n</ul>\n\n<h2>Contact us</h2>\n\n<p>If you have any questions or would like more information, please email us  at <a href=\"mailto:aafc.roundtable-tableronde.aac@canada.ca\">aafc.roundtable-tableronde.aac@canada.ca</a>.</p>\n\n<h2>Working groups</h2>\n\n<p>This roundtable has six active working groups:</p>\n\n<ol>\n  <li>Agricultural Statistics  Working Group</li>\n  <li>Crop Research Working  Group</li>\n  <li>Food and Feed Safety Working  Group</li>\n  <li>Market Access Working  Group\n    <ul>\n      <li>Sanitary and Phytosanitary Standards (SPS) Sub Working Group</li>\n      <li>Trade Negotiations Sub Working Group</li>\n      <li>Biotech Working Group</li>\n    </ul>\n  </li>\n <li>Climate Change and Environment Working Group</li>\n <li>Public Trust Working Group</li>\n</ol>\n\n<h2>Upcoming meeting</h2>\n\n<p>The next Roundtable meeting will take place in winter 2020 in Ottawa.</p>\n\n<h2>Meeting summary</h2>\n\n<ul>\n  <li><a href=\"?id=1557924821972\">March 8, 2019</a></li>\n  <li><a href=\"?id=1548171129718\">October 25, 2018</a></li>\n  <li><a href=\"?id=1529937810659\">March 29, 2018</a></li>\n</ul>\n\n<h2>Members</h2>\n\n<h3>Co-chairs</h3>\n\n<ul>\n  <li>Rick White - Canadian Canola Growers Association</li>\n  <li>Marco Valicenti \u2013 Agriculture and  Agri-Food Canada</li>\n</ul>\n\n<h3>Industry</h3>\n\n<ul>\n  <li>Steve McCabe \u2013  Agricultural Manufacturers of Canada </li>\n  <li>Bill Prybylski \u2013  Agricultural Producers Association of Saskatchewan</li>\n  <li>Dave Bishop \u2013 Alberta  Barley</li>\n  <li>Lynn Jacobson \u2013  Alberta Federation of Agriculture</li>\n  <li>Hannah Konschuh \u2013 Alberta  Wheat Commission</li>\n  <li>Melissa Dumont \u2013 Animal  Nutrition Association of Canada</li>\n  <li>Michael Delaney \u2013 Atlantic  Grains Council</li>\n  <li>Paul Hetherington \u2013 Baking  Association of Canada</li>\n  <li>Brian Otto \u2013 Barley  Council of Canada</li>\n  <li>Tyler Bjornson \u2013 Canada  Grains Council</li>\n  <li>Catherine Scovil \u2013 Canadian  Canola Growers Association</li>\n  <li>Todd Lewis \u2013 Canadian  Federation of Agriculture</li>\n  <li>Dean Dias \u2013 Canadian  International Grains Institute </li>\n  <li>Gordon Harrison \u2013 Canadian  National Millers Association</li>\n  <li>Glyn Chancey \u2013 Canadian  Seed Growers Association </li>\n  <li>Roy VanWyk \u2013 Canadian  Seed Institute</li>\n  <li>Dave Carey \u2013 Canadian  Seed Trade Association </li>\n  <li>Brian Innes \u2013 Canola  Council of Canada</li>\n  <li>Olivier Lavigne-Lacroix \u2013 Cargill</li>\n  <li>Cam Dahl \u2013 Cereals  Canada</li>\n  <li>Ian Affleck \u2013 CropLife</li>\n  <li>Marion McBride \u2013 Farmer Direct Co-op Ltd.</li>\n  <li>Bob Friesen \u2013 Farmers  of North America</li>\n  <li>Susan Abel \u2013 Food and  Consumer Products of Canada</li>\n  <li>Marcus Haerle \u2013 Grain  Farmers of Ontario</li>\n  <li>Jeff Nielsen \u2013 Grain  Growers of Canada</li>\n  <li>Kevin Hursh \u2013 Inland  Terminal Association of Canada</li>\n  <li>Chuck Fossay \u2013 Keystone  Agricultural Producers / Manitoba Canola Growers Association</li>\n  <li>Phil deKemp \u2013 Malting  Industry Association of Canada</li>\n  <li>Pam de Rocquigny \u2013 Manitoba  Corn Growers Association and Manitoba Wheat and Barley Growers Association</li>\n  <li>Art Enns \u2013 Prairie Oat  Growers Association </li>\n  <li>William van Tassel  \u2013 Producteurs de grains du Qu\u00e9bec</li>\n  <li>Gordon Bacon \u2013 Pulse  Canada</li>\n  <li>Jean-Marc Ruest \u2013 Richardson  International</li>\n  <li>Jason Skotheim \u2013 Saskatchewan  Barley Development Commission</li>\n  <li>Tracy Broughton \u2013 Saskatchewan  Canola Development Commission</li>\n  <li>Carl Potts \u2013 Saskatchewan  Pulse Growers</li>\n  <li>Harvey Brooks \u2013 Saskatchewan  Wheat Development Commission</li>\n  <li>Shane Stokke \u2013 Saskatchewan  Flax Development Commission</li>\n  <li>Jeff Reid \u2013 SeCan</li>\n  <li>Ron Davidson \u2013 Soy  Canada</li>\n  <li>Richard Wansbutter \u2013 Viterra</li>\n  <li>Doug Robertson \u2013 Western  Barley Growers Association</li>\n  <li>Gunter Jochum \u2013 Western  Canadian Wheat Growers Association</li>\n  <li>Wade Sobkowich \u2013 Western  Grain Elevator Association</li>\n  <li>Terry Young \u2013 Western  Grains Research Foundation</li>\n</ul>\n \n<h3>Provincial governments</h3>\n\n<ul>\n  <li>Neil Blue \u2013 Alberta  Agriculture and Forestry</li>\n  <li>Miles Beaudin \u2013 Manitoba  Agriculture</li>\n  <li>Djiby Bocar Sall \u2013 Minist\u00e8re  de l'Agriculture des P\u00eacheries et de l'Alimentation (MAPAQ)</li>\n  <li>Hugh Berges \u2013 Ontario Ministry of Agriculture,  Food and Rural Affairs (OMAFRA)</li>\n  <li>Linda Roy \u2013 R\u00e9gie des march\u00e9s agricoles et alimentaires du Qu\u00e9bec</li>\n  <li>Penny McCall \u2013 Saskatchewan  Ministry of Agriculture</li>\n</ul>\n \n<h3>Federal government</h3>\n\n<ul>\n  <li>Nathalie Durand \u2013 Agriculture  and Agri-Food Canada</li>\n  <li>Jocelyn Beaudette \u2013 Canadian  Grain Commission</li>\n  <li>Patti Miller \u2013 Canadian  Grain Commission</li>\n  <li>Bill Anderson \u2013 Canadian Food Inspection Agency</li>\n</ul>\t\n\n<h2 id=\"roundtable\">Learn more about each roundtable:</h2> \n\n<ul> \n <li><a href=\"?id=1385752573698\">Agri-Subcommittee on Food Safety</a></li> \n <li><a href=\"?id=1385491202669\">All Chairs Forum</a></li> \n <li><a href=\"?id=1409832956249\">Bee Health</a></li> \n <li><a href=\"?id=1385491900787\">Beef</a></li> \n <li><a href=\"?id=1385742632592\">Food Processing</a></li> \n <li><a href=\"?id=1385582114523\">Grains</a></li> \n <li><a href=\"?id=1385585397604\">Horticulture</a></li>\n <li><a href=\"?id=1385568234264\">Industrial Bioproducts</a></li>\n <li><a href=\"?id=1481809401467\">Neonicotinoids</a></li> \n <li><a href=\"?id=1385666883750\">Organics</a></li> \n <li><a href=\"?id=1385740744721\">Pork</a></li> \n <li><a href=\"?id=1492806638190\">Poultry</a></li> \n <li><a href=\"?id=1385733134280\">Pulses</a></li>\n <li><a href=\"?id=1385755866700\">Seafood</a></li> \n <li><a href=\"?id=1385757253931\">Seed</a></li> \n <li><a href=\"?id=1385758986961\">Sheep</a></li> \n <li><a href=\"?id=1385995694580\">Special Crops</a></li> \n</ul> \n\r\n    <!-- Fin du contenu -->\r\n  \r\n  <div class=\"pagedetails\" id=\"pgft\">\r\n    <div class=\"row\">\r\n\t  <div class=\"col-sm-6 col-md-5 col-lg-4\">\r\n\t    <details class=\"brdr-0\">\r\n\t\t<summary class=\"btn btn-default text-center\" onclick=\"getAntiSpamSeq('/eng/mail-handler/?anti-spam-sequence=true')\">Report a problem on this page</summary>\r\n\t\t<div class=\"clearfix\"></div>\r\n\t\t<div class=\"well row\">\r\n\t\t<div>\r\n\t\t  <div class=\"gc-rprt-prblm\">\r\n\t\t    <div class=\"gc-rprt-prblm-frm gc-rprt-prblm-tggl\">\r\n\t\t\t  \r\n\t\t\t<form id=\"report_a_problem_form\" action=\"/eng/mail-handler/#report_a_problem_form\" method=\"post\">\t\t\t\t   \t\t\t\r\n\r\n\t            \t <input type=\"hidden\" name=\"lang\" value=\"eng\">\r\n\t            \t <input type=\"hidden\" name=\"pageId\" value=\"1385582114523\">\r\n\t            \t <input type=\"hidden\" name=\"pageUrl\" value=\"http://agr.gc.ca/eng/canadas-agriculture-sectors/engagement-with-the-crops-industry/grains/?id=1385582114523\">\r\n\t\t\t\t\t <div id=\"report_a_problem_form_error\"></div>\r\n\t\t             <fieldset>\t\t\t\t\t    \r\n\t\t                <legend><span class=\"field-name\">Please select all that apply:</span></legend>\t\t                                 \r\n\t\t\t\t\t\t<div class=\"checkbox\">\r\n\t\t\t\t\t\t\t<label for=\"problem1\"><input name=\"problem1\" id=\"problem1\" type=\"checkbox\" value=\"Yes\">A link, button or video is not working</label>\r\n\t\t\t\t\t\t\t<input name=\"problem1\" type=\"hidden\" value=\"No\">\r\n\t\t\t\t\t\t</div>\r\n\t\t\t\t\t\t<div class=\"checkbox\">\r\n\t\t\t\t\t\t\t<label for=\"problem2\"><input name=\"problem2\" id=\"problem2\" type=\"checkbox\" value=\"Yes\">It has a spelling mistake</label>\r\n\t\t\t\t\t\t\t<input name=\"problem2\" type=\"hidden\" value=\"No\">\r\n\t\t\t\t\t\t</div>\r\n\t\t\t\t\t\t<div class=\"checkbox\">\r\n\t\t\t\t\t\t\t<label for=\"problem3\"><input name=\"problem3\" id=\"problem3\" type=\"checkbox\" value=\"Yes\">Information is missing</label>\r\n\t\t\t\t\t\t\t<input name=\"problem3\" type=\"hidden\" value=\"No\">\r\n\t\t\t\t\t   </div>\r\n\t\t\t\t\t\t<div class=\"checkbox\">\r\n\t\t\t\t\t\t\t<label for=\"problem4\"><input name=\"problem4\" id=\"problem4\" type=\"checkbox\" value=\"Yes\">Information is outdated or wrong</label>\r\n\t\t\t\t\t\t\t<input name=\"problem4\" type=\"hidden\" value=\"No\">\r\n\t\t\t\t\t\t</div>\r\n\t\t\t\t\t\t<div class=\"checkbox\">\r\n\t\t\t\t\t\t\t<label for=\"problem5\"><input name=\"problem5\" id=\"problem5\" type=\"checkbox\" value=\"Yes\">Login error when trying to access an account (e.g. My Service Canada Account)</label>\r\n\t\t\t\t\t\t\t<input name=\"problem5\" type=\"hidden\" value=\"No\">\r\n\t\t\t\t\t\t</div>\r\n\t\t\t\t\t\t\t<ul>\r\n\t\t\t\t\t\t\t<li class=\"checkbox\">\r\n\t\t\t\t\t\t\t\t<label for=\"problem6a\"><input name=\"problem6\" id=\"problem6a\" type=\"checkbox\" value=\"Yes\">GC Key access</label>\r\n\t\t\t\t\t\t\t\t<input name=\"problem6\" type=\"hidden\" value=\"No\">\r\n\t\t\t\t\t\t\t </li>\r\n\t\t\t\t\t\t\t<li class=\"checkbox\">\r\n\t\t\t\t\t\t\t\t<label for=\"problem7\"><input name=\"problem7\" id=\"problem7\" type=\"checkbox\" value=\"Yes\">SecureKey Concierge (Banking Credential) access </label>\r\n\t\t\t\t\t\t\t\t<input name=\"problem7\" type=\"hidden\" value=\"No\">\r\n\t\t\t\t\t\t\t </li>\r\n\t\t\t\t\t\t\t<li class=\"checkbox\">\r\n\t\t\t\t\t\t\t\t<label for=\"problem8\"><input name=\"problem8\" id=\"problem8\" type=\"checkbox\" value=\"Yes\">Personal Access Code (PAC) problems or EI Access Code (AC) problems</label>\r\n\t\t\t\t\t\t\t\t<input name=\"problem8\" type=\"hidden\" value=\"No\">\r\n\t\t\t\t\t\t\t </li>\t\r\n\t\t\t\t\t\t\t<li class=\"checkbox\">\r\n\t\t\t\t\t\t\t\t<label for=\"problem9\"><input name=\"problem9\" id=\"problem9\" type=\"checkbox\" value=\"Yes\">Social Insurance Number (SIN) validation problems</label>\r\n\t\t\t\t\t\t\t\t<input name=\"problem9\" type=\"hidden\" value=\"No\">\r\n\t\t\t\t\t\t\t </li>\t\t\t\t\t\t\t\t\r\n\t\t\t\t\t\t\t<li class=\"checkbox\">\r\n\t\t\t\t\t\t\t\t<label for=\"problem10\"><input name=\"problem10\" id=\"problem10\" type=\"checkbox\" value=\"Yes\">Other login error not in this list</label>\r\n\t\t\t\t\t\t\t\t<input name=\"problem10\" type=\"hidden\" value=\"No\">\r\n\t\t\t\t\t\t\t </li>\t\t \r\n\t\t\t\t\t\t\t </ul>\r\n\t\t\t\t\t\t<div class=\"checkbox\">\r\n\t\t\t\t\t\t\t<label for=\"problem11\"><input name=\"problem11\" id=\"problem11\" type=\"checkbox\" value=\"Yes\">I can't find what I'm looking for</label>\r\n\t\t\t\t\t\t\t<input name=\"problem11\" type=\"hidden\" value=\"No\">\r\n\t\t\t\t\t\t</div>\r\n\t\t\t\t\t\t<div class=\"checkbox\">\r\n\t\t\t\t\t\t\t<label for=\"problem12\"><input name=\"problem12\" id=\"problem12\" type=\"checkbox\" value=\"Yes\">Other issue not in this list</label>\r\n\t\t\t\t\t\t\t<input name=\"problem12\" type=\"hidden\" value=\"No\">\r\n\t\t\t\t\t\t</div>\t\t\t\t\t\t \t\t\t\t\t\t\t\t\t\t\t\t \r\n\t\t             </fieldset>\r\n\t\t\t\t\t <div>\r\n\t\t\t\t\t   <label for=\"aafc_ranstr\"><span id=\"fbch\"><br>Enter these characters <strong class=\"required\">(required)</strong>: </span><span id=\"ranstr\">U5S</span></label>\r\n\t\t\t           <input name=\"anti-spam-sequence\" id=\"aafc_ranstr\" size=\"4\" maxlength=\"3\" type=\"text\">\r\n\t\t\t\t\t </div>\t\r\n\r\n\t\t\t\t\t <br><input type=\"submit\" class=\"btn btn-primary\" value=\"Submit\">\r\n\t\t\t\t  </form>\r\n\t\t\t\t</div>\r\n\t\t\t</div>\t\t\t\r\n\t\t  </div>\r\n\t\t</div>\r\n\t\t</details>\r\n\t  </div>\r\n\t  <div class=\"wb-share col-sm-4 col-md-3 col-sm-offset-2 col-md-offset-4 col-lg-offset-5\" data-wb-share='{\"lnkClass\": \"btn btn-default btn-block\"}'></div>\r\n\t</div>\r\n\t<dl id=\"wb-dtmd\">\r\n\t  <dt>Date modified: </dt>\r\n\t  <dd><time property=\"dateModified\">2019-10-03</time></dd></dl></div>",
        "fr": "\r\n    \r\n    <!-- MainContentStart -->\r\n    <!-- D&eacute;but du contenu -->\r\n    <p><a href=\"#roundtable\">Apprenez-en plus sur chaque table ronde</a></p>\n\n\n<p>L'industrie canadienne des c\u00e9r\u00e9ales comprend principalement la culture  du bl\u00e9, du canola, de la graine de lin, du soja, des l\u00e9gumineuses \u00e0 grains, de l'orge, du ma\u00efs et de l'avoine. Il s'agit d'un  fournisseur mondial dans le domaine de la fabrication d'aliments destin\u00e9s \u00e0 la  consommation humaine et animale et de la production de biocarburants.  L'industrie canadienne des c\u00e9r\u00e9ales est fi\u00e8re d'offrir sur les march\u00e9s  internationaux des produits sains et innovateurs qui d\u00e9passent constamment les  normes et r\u00e8glements internationaux. Avec des repr\u00e9sentants issus de l'ensemble  de la cha\u00eene de valeur, la Table ronde sur l'industrie des grains axe ses  activit\u00e9s sur quatre secteurs consid\u00e9r\u00e9s par l'industrie comme les principaux  obstacles \u00e0 l'am\u00e9lioration de sa comp\u00e9titivit\u00e9.</p>\n\n<p>Principaux obstacles\u00a0:</p>\n\n<ul>\n  <li>l'\u00e9conomie</li>\n  <li>l'innovation</li>\n  <li>l'acc\u00e8s  aux march\u00e9s</li>\n  <li>l'environnement et changement  climatique</li>\n</ul>\n\n<h2>Contactez-nous</h2>\n\n<p>Si vous avez des questions ou voulez en savoir  plus, veuillez nous envoyer un  courriel \u00e0 <a href=\"mailto:aafc.roundtable-tableronde.aac@canada.ca\">aafc.roundtable-tableronde.aac@canada.ca</a>.</p>\n\n<h2>Groupes de travail</h2>\n\n<p>La Table ronde compte six groupes de travail  actifs\u00a0:</p>\n\n<ol>\n  <li>Groupe de travail sur les  statistiques agricoles</li>\n  <li>Groupe de travail sur la  recherche sur les cultures</li>\n  <li>Groupe de travail sur la salubrit\u00e9 des aliments et des aliments du b\u00e9tail</li>\n  <li>Groupe de travail sur l'acc\u00e8s aux march\u00e9s\n    <ul>\n      <li>Sous-groupe de travail sur les mesures sanitaires et phytosanitaires</li>\n      <li>Sous-groupe de travail sur les n\u00e9gociations commerciales</li>\n      <li>Sous-groupe de travail sur la biotechnologie</li>\n    </ul>\n  </li>\n <li>Groupe de travail sur  l'environnement et changement climatique</li>\n <li>Groupe de travail sur la  confiance du public</li>\n</ol>\n\n<h2>Prochaine r\u00e9union</h2>\n\n<p>La prochaine r\u00e9union de la Table ronde sur la  cha\u00eene de valeur aura lieu \u00e0 l'hiver 2020 \u00e0 Ottawa.</p>\n\n<h2>R\u00e9sum\u00e9 des r\u00e9unions</h2>\n\n<ul>\n  <li><a href=\"?id=1557924821972\">8 mars 2019</a></li>\n  <li><a href=\"?id=1548171129718\">25 octobre 2018</a></li>\n  <li><a href=\"?id=1529937810659\">29 mars 2018</a></li>\n</ul>\n\n<h2>Membres</h2>\n\n<h3>Copr\u00e9sidents</h3>\n\n<ul>\n  <li>Marco Valicenti \u2013 Agriculture et Agroalimentaire Canada</li>\t\n  <li>Rick White - Canadian Canola Growers Association</li>\n</ul>\n\n<h3>Industrie</h3>\n\n<ul>\n  <li>Steve McCabe \u2013 Agricultural Manufacturers of Canada</li>\t\n  <li>Bill Prybylski \u2013 Agricultural Producers Association  of Saskatchewan</li>\n  <li>Dave Bishop \u2013 Alberta Barley</li>\n  <li>Lynn Jacobson \u2013 Alberta  Federation of Agriculture</li>\n  <li>Hannah Konschuh \u2013 Alberta Wheat Commission</li>\n  <li>Melissa Dumont \u2013 Animal  Nutrition Association of Canada</li>\n  <li>Michael Delaney \u2013 Conseil  des grains de l'Atlantique</li>\t\n  <li>Paul  Hetherington \u2013 Association  canadienne de la boulangerie</li>\n  <li>Brian Otto \u2013 Conseil de  l'orge du Canada</li>\n  <li>Tyler Bjornson \u2013 Conseil  des grains du Canada</li>\t\n  <li>Catherine Scovil \u2013 Canadian Canola Growers  Association</li>\n  <li>Todd Lewis \u2013 La F\u00e9d\u00e9ration canadienne de l'agriculture</li>\t\n  <li>Dean Dias \u2013 Canadian  International Grains Institute</li>\n  <li>Gordon Harrison \u2013 Canadian National Millers Association</li>\n  <li>Glyn Chancey \u2013 Canadian  Seed Growers Association</li>\n  <li>Roy  VanWyk \u2013 Institut canadien des semences</li>\n  <li>Dave Carey \u2013 Canadian  Seed Trade Association</li>\n  <li>Brian Innes \u2013 Canola  Council of Canada</li>\n  <li>Olivier Lavigne-Lacroix \u2013 Cargill</li>\n  <li>Cam  Dahl \u2013 C\u00e9r\u00e9ales  Canada</li>\n  <li>Ian Affleck \u2013 CropLife</li>\t\n  <li>Marion McBride \u2013 Farmer Direct Co-op Ltd.</li>\t\n  <li>Bob Friesen \u2013 Farmers of North America</li>\n  <li>Susan  Abel \u2013 Produits  alimentaires et de consommation du Canada</li>\t\n  <li>Markus Haerle \u2013 Grain  Farmers of Ontario</li>\t\n  <li>Jeff Nielsen \u2013 Grain  Growers of Canada</li>\t\t\n  <li>Kevin Hursh \u2013 Inland  Terminal Association of Canada</li>\n  <li>Chuck Fossay \u2013 Keystone  Agricultural Producers / Manitoba Canola Growers Assoc.</li>\t\n  <li>Phil  deKemp \u2013 Association  de l'industrie brassicole du Canada</li>\n  <li>Pam de Rocquigny \u2013 Manitoba  Corn Growers Association and Manitoba Wheat and Barley Growers Association</li>\n  <li>Art Enns \u2013 Prairie  Oat Growers Association</li>\n  <li>William  van Tassel \u2013 Producteurs  de grains du Qu\u00e9bec </li>\n  <li>Gordon Bacon \u2013 Pulse Canada</li>\n  <li>Jean-Marc Ruest \u2013 Richardson International</li>\n  <li>Jason Skotheim \u2013 Saskatchewan  Barley Development Commission</li>\n  <li>Tracy Broughton \u2013 Saskatchewan  Canola Development Commission</li>\t\n  <li>Carl Potts \u2013 Saskatchewan Pulse Growers</li>\n  <li>Harvey Brooks \u2013 Saskatchewan  Wheat Development Commission</li>\t\n  <li>Shane Stokke \u2013 Saskatchewan  Flax Development Commission</li>\n  <li>Jeff Reid \u2013 SeCan</li>\n  <li>Ron Davidson \u2013 Soy Canada</li>\n  <li>Richard Wansbutter \u2013 Viterra</li>\n  <li>Doug Robertson \u2013 Western  Barley Growers Association</li>\n  <li>Gunter Jochum \u2013 Western  Canadian Wheat Growers Association</li>\n  <li>Wade Sobkowich \u2013 Western  Grain Elevator Association</li>\n  <li>Terry Young \u2013 Western Grains Research Foundation</li>\t\n</ul>\n\n<h3>Gouvernements provinciaux</h3>\n\n<ul>\n  <li>Neil Blue \u2013 Alberta Agriculture and Forestry</li>\n  <li>Miles Beaudin \u2013 Manitoba Agriculture</li>\n  <li>Djiby Bocar Sall \u2013 Minist\u00e8re de l'Agriculture, des P\u00eacheries et de l'Alimentation du Qu\u00e9bec</li>\t\n  <li>Hugh Berges \u2013 Minist\u00e8re de  l'agriculture, de l'alimentation et des affaires rural (Ontario)</li>\n  <li>Linda Roy \u2013 R\u00e9gie des march\u00e9s agricoles et alimentaires du Qu\u00e9bec</li>\n  <li>Penny McCall \u2013 Saskatchewan Ministry of Agriculture</li>\n</ul>\n\n<h3>Gouvernement f\u00e9d\u00e9ral</h3>\n\n<ul>\n  <li>Nathalie Durand \u2013  Agriculture et Agroalimentaire Canada</li>\n  <li>Jocelyn Beaudette \u2013  Commission canadienne des grains</li>\n  <li>Patti Miller \u2013 Commission canadienne des grains</li>\n  <li>Bill Anderson \u2013 Agence  canadienne d'inspection des aliments</li>\t\n</ul>\n\n<h2 id=\"roundtable\">Apprenez-en plus sur chaque table ronde\u00a0:</h2> \n\n<ul> \n <li><a href=\"?id=1385568234264\">Bioproduits industriels</a></li> \n <li><a href=\"?id=1385491900787\">B\u0153uf</a></li> \n <li><a href=\"?id=1385995694580\">Cultures sp\u00e9ciales</a></li> \n <li><a href=\"?id=1385582114523\">Grains</a></li> \n <li><a href=\"?id=1385585397604\">Horticulture</a></li> \n <li><a href=\"?id=1385733134280\">L\u00e9gumineuses</a></li> \n <li><a href=\"?id=1481809401467\">N\u00e9onicotino\u00efdes</a></li> \n <li><a href=\"?id=1385758986961\">Ovin</a></li> \n <li><a href=\"?id=1385740744721\">Porc</a></li> \n <li><a href=\"?id=1385666883750\">Produits biologiques</a></li> \n <li><a href=\"?id=1385755866700\">Produits de la mer</a></li> \n <li><a href=\"?id=1409832956249\">Sant\u00e9 des abeilles</a></li> \n <li><a href=\"?id=1385757253931\">Semences</a></li> \n <li><a href=\"?id=1385752573698\">Sous-comit\u00e9 sur la salubrit\u00e9 des aliments de l'agriculture et de l'agroalimentaire</a></li> \n <li><a href=\"?id=1385742632592\">Transformation des aliments</a></li> \n <li><a href=\"?id=1385491202669\">Tribune de tous les pr\u00e9sidents</a></li> \n <li><a href=\"?id=1492806638190\">Volaille</a></li> \n</ul> \n\r\n    <!-- Fin du contenu -->\r\n\t\r\n\t<div class=\"pagedetails\" id=\"pgft\">\r\n\t\t<div class=\"row\">\r\n\t\t  <div class=\"col-sm-6 col-md-5 col-lg-4\">\r\n\t\t    <details class=\"brdr-0\">\r\n\t\t\t<summary class=\"btn btn-default text-center\" onclick=\"getAntiSpamSeq('/fra/mail-handler/?anti-spam-sequence=true')\">Signaler un probl\u00e8me sur cette page</summary>\r\n\t\t\t<div class=\"well row\">\r\n\t\t\t  <div class=\"gc-rprt-prblm\">\r\n\t\t\t    <div class=\"gc-rprt-prblm-frm gc-rprt-prblm-tggl\">\r\n\t\t\t\t   <form id=\"report_a_problem_form\" action=\"/fra/mail-handler/\" method=\"post\">\r\n\t            \t <input type=\"hidden\" name=\"lang\" value=\"fra\">\r\n\t            \t <input type=\"hidden\" name=\"pageId\" value=\"1385582114523\">\r\n\t            \t <input type=\"hidden\" name=\"pageUrl\" value=\"http://agr.gc.ca/fra/secteurs-agricoles-du-canada/collaboration-avec-le-secteur-des-cultures/grains/?id=1385582114523\">\r\n\t\t\t\t\t <div id=\"report_a_problem_form_error\"></div>\r\n\t\t             <fieldset>\t\t\t\t\t    \r\n\t\t                <legend><span class=\"field-name\">Veuillez cocher toutes les r\u00e9ponses pertinentes\u00a0:</span></legend>\r\n\t\t                 <div class=\"checkbox\">\r\n\t\t                    <label for=\"problem1\"><input name=\"problem1\" id=\"problem1\" type=\"checkbox\" value=\"Yes\">Un lien, un bouton ou une vid\u00e9o ne fonctionne pas</label>\r\n\t\t                    <input name=\"problem1\" type=\"hidden\" value=\"No\">\r\n\t\t                </div>\r\n\t\t                <div class=\"checkbox\">\r\n\t\t                    <label for=\"problem2\"><input name=\"problem2\" id=\"problem2\" type=\"checkbox\" value=\"Yes\">Il y a une erreur d'orthographe ou de grammaire</label>\r\n\t\t                    <input name=\"problem2\" type=\"hidden\" value=\"No\">\r\n\t\t                </div>\r\n\t\t   \t\t\t\t <div class=\"checkbox\">\r\n\t\t                    <label for=\"problem3\"><input name=\"problem3\" id=\"problem3\" type=\"checkbox\" value=\"Yes\">Les renseignements sont incomplets</label>\r\n\t\t                    <input name=\"problem3\" type=\"hidden\" value=\"No\">\r\n\t\t                </div>\r\n\t\t             \t\t<div class=\"checkbox\">\r\n\t\t                    <label for=\"problem4\"><input name=\"problem4\" id=\"problem4\" type=\"checkbox\" value=\"Yes\">L'information n'est plus \u00e0 jour ou est erron\u00e9e</label>\r\n\t\t                    <input name=\"problem4\" type=\"hidden\" value=\"No\">\r\n\t\t                </div>\t\t\t\t\t\t\r\n\t\t\t\t\t\t<div class=\"checkbox\">\r\n\t\t\t\t\t\t\t<label for=\"problem5\"><input name=\"problem5\" id=\"problem5\" type=\"checkbox\" value=\"Yes\">Message d'erreur \u00e0 l'ouverture de la session lorsque je tente d'acc\u00e9der \u00e0 un compte (ex. Mon dossier Service Canada)</label>\r\n\t\t\t\t\t\t\t<input name=\"problem5\" type=\"hidden\" value=\"No\">\r\n\t\t\t\t\t\t</div>\r\n\t\t\t\t\t\t\t<ul>\r\n\t\t\t\t\t\t\t<li class=\"checkbox\">\r\n\t\t\t\t\t\t\t\t<label for=\"problem6a\"><input name=\"problem6\" id=\"problem6a\" type=\"checkbox\" value=\"Yes\">Acc\u00e8s Cl\u00e9GC</label>\r\n\t\t\t\t\t\t\t\t<input name=\"problem6\" type=\"hidden\" value=\"No\">\r\n\t\t\t\t\t\t\t </li>\r\n\t\t\t\t\t\t\t<li class=\"checkbox\">\r\n\t\t\t\t\t\t\t\t<label for=\"problem7\"><input name=\"problem7\" id=\"problem7\" type=\"checkbox\" value=\"Yes\">Acc\u00e8s SecureKey Service de Concierge (justificatifs d'identit\u00e9 bancaires)</label>\r\n\t\t\t\t\t\t\t\t<input name=\"problem7\" type=\"hidden\" value=\"No\">\r\n\t\t\t\t\t\t\t </li>\r\n\t\t\t\t\t\t\t<li class=\"checkbox\">\r\n\t\t\t\t\t\t\t\t<label for=\"problem8\"><input name=\"problem8\" id=\"problem8\" type=\"checkbox\" value=\"Yes\">Probl\u00e8me avec le Code d'acc\u00e8s personnel (CAP) ou avec le Code d'acc\u00e8s (CA) de l'assurance emploi</label>\r\n\t\t\t\t\t\t\t\t<input name=\"problem8\" type=\"hidden\" value=\"No\">\r\n\t\t\t\t\t\t\t </li>\t\r\n\t\t\t\t\t\t\t<li class=\"checkbox\">\r\n\t\t\t\t\t\t\t\t<label for=\"problem9\"><input name=\"problem9\" id=\"problem9\" type=\"checkbox\" value=\"Yes\">Probl\u00e8me li\u00e9 \u00e0 la validation du num\u00e9ro d'assurance sociale (NAS)</label>\r\n\t\t\t\t\t\t\t\t<input name=\"problem9\" type=\"hidden\" value=\"No\">\r\n\t\t\t\t\t\t\t </li>\t\t\t\t\t\t\t\t\r\n\t\t\t\t\t\t\t<li class=\"checkbox\">\r\n\t\t\t\t\t\t\t\t<label for=\"problem10\"><input name=\"problem10\" id=\"problem10\" type=\"checkbox\" value=\"Yes\">Autre erreur lors de l'ouverture de session qui ne figure pas sur cette liste</label>\r\n\t\t\t\t\t\t\t\t<input name=\"problem10\" type=\"hidden\" value=\"No\">\r\n\t\t\t\t\t\t\t </li>\t\t \r\n\t\t\t\t\t\t\t </ul>\r\n\t\t\t\t\t\t<div class=\"checkbox\">\r\n\t\t\t\t\t\t\t<label for=\"problem11\"><input name=\"problem11\" id=\"problem11\" type=\"checkbox\" value=\"Yes\">Je n'arrive pas \u00e0 trouver ce que je cherche</label>\r\n\t\t\t\t\t\t\t<input name=\"problem11\" type=\"hidden\" value=\"No\">\r\n\t\t\t\t\t\t</div>\r\n\t\t\t\t\t\t<div class=\"checkbox\">\r\n\t\t\t\t\t\t\t<label for=\"problem12\"><input name=\"problem12\" id=\"problem12\" type=\"checkbox\" value=\"Yes\">Autre probl\u00e8me qui ne figure pas sur cette liste</label>\r\n\t\t\t\t\t\t\t<input name=\"problem12\" type=\"hidden\" value=\"No\">\r\n\t\t\t\t\t\t</div>\t\t\t\t\t\t\t\t\t\t\t\t\t\t\t\t\t\t\t\r\n\t\t             </fieldset>\r\n\t\t\t\t\t <div>\r\n\t\t\t\t        <label for=\"aafc_ranstr\"><span id=\"fbch\">Veuillez inscrire les caract\u00e8res suivants  <strong class=\"required\">(obligatoire)</strong>\u00a0: </span><span id=\"ranstr\">XXX</span></label>\r\n\t\t\t            <input name=\"anti-spam-sequence\" id=\"aafc_ranstr\" size=\"4\" maxlength=\"3\" type=\"text\">\r\n\t\t\t\t\t </div>\r\n\t\t\t\t\t <input type=\"submit\" class=\"btn btn-primary\" value=\"Soumettre\">\r\n\t\t\t\t  </form>\r\n\t\t\t\t</div>\r\n\t\t\t  </div>\r\n\t\t\t</div>\r\n\t\t</details>\r\n\t    </div>\r\n\t  <div class=\"wb-share col-sm-4 col-md-3 col-sm-offset-2 col-md-offset-4 col-lg-offset-5\" data-wb-share='{\"lnkClass\": \"btn btn-default btn-block\"}'></div>\r\n\t  </div>\r\n\t  <dl id=\"wb-dtmd\">\r\n\t    <dt>Date de modification\u00a0: </dt>\r\n\t      <dd><time property=\"dateModified\">2019-10-03</time></dd>\r\n\t  </dl>\r\n\t</div>\r\n\t\r\n  "
    }
}