{
    "dcr_id": "1383076728778",
    "title": {
        "en": "News releases and statements",
        "fr": "Communiqu\u00e9s et d\u00e9clarations"
    },
    "modified": "2020-12-18",
    "issued": "2014-03-28",
    "templatetype": "content page 1 column",
    "page_type": "1",
    "node_id": "1389378720406",
    "dc_date_created": "2014-03-28",
    "managing_branch": "PAB",
    "parent_node_id": "1354137774083",
    "label": {
        "en": "News Releases",
        "fr": "Communiqu\u00e9s"
    },
    "exturl": "",
    "teamsite_location": {
        "en": "/default/main/AAFC-AAC/Internet-Internet/CCB-DGCC/WORKAREA/CCB-DGCC/templatedata/comm-comm/gene-gene/data/news_releases_1383076728778_en",
        "fr": "/default/main/AAFC-AAC/Internet-Internet/CCB-DGCC/WORKAREA/CCB-DGCC/templatedata/comm-comm/gene-gene/data/news_releases_1383076728778_fr"
    },
    "type_name": "sitemapinit",
    "has_dcr_id": true,
    "breadcrumb": {
        "en": "News Releases",
        "fr": "Communiqu\u00e9s"
    },
    "layout_name": "content page 1 column",
    "lang": "en",
    "meta": {
        "issued": {
            "en": "2014-03-28",
            "fr": "2014-03-28"
        },
        "modified": {
            "en": "2021-02-11",
            "fr": "2021-02-11"
        },
        "format": {
            "en": "gcformat",
            "fr": "gcformat"
        },
        "title": {
            "en": "News releases and statements",
            "fr": "Communiqu\u00e9s et d\u00e9clarations"
        },
        "subject": {
            "en": "media",
            "fr": "m\u00e9dia;communiqu\u00e9 de presse"
        },
        "description": {
            "en": "News about the Department's activities",
            "fr": "Nouvelles concernant les activit\u00e9s du Minist\u00e8re"
        },
        "language": {
            "en": "eng",
            "fr": "fra"
        },
        "keywords": {
            "en": " events ; announcements;updates",
            "fr": " \u00e9v\u00e9nements; annonces;Demeurez inform\u00e9"
        },
        "audience": {
            "en": "gcaudience",
            "fr": "gcaudience"
        },
        "type": {
            "en": "administrative page",
            "fr": "page administrative"
        },
        "creator": {
            "en": "Agriculture and Agri-Food Canada;Government of Canada",
            "fr": "Agriculture et Agroalimentaire Canada;Gouvernement du Canada"
        },
        "spatial": {
            "en": "gcregions",
            "fr": "gcregions"
        },
        "service": {
            "en": "AAFC-AAC",
            "fr": "AAFC-AAC"
        },
        "accessRights": {
            "en": "2",
            "fr": "2"
        },
        "legalName": {
            "en": "agriculture_and_agri_food_canada",
            "fr": "agriculture_et_agroalimentaire_canada"
        },
        "areaServed": {
            "en": "Canada",
            "fr": "Canada"
        }
    },
    "body": {
        "en": "tart --&gt;\r\n    <!-- D&eacute;but du contenu -->\r\n    \n<div class=\"row\">\n\n<div class=\"mrgn-lft-0 mrgn-rght-0 col-md-8 pull-left\">    \n<p>Announcements made by the Minister and/or her representatives.</p>\n</div>\n\n <div class=\"col-md-4\">\n\n <!-- START Social Buttons --> \n<section class=\"followus mrgn-bttm-md\">      \n\n   <h2>Follow:</h2> \n   <ul> \n    <li class=\"mrgn-lft-0\"><a href=\"https://www.facebook.com/CanadianAgriculture/\" class=\"facebook gl-follow\" rel=\"external\"><span class=\"wb-inv\">Facebook</span></a></li> \n\n    <li class=\"mrgn-lft-0\"><a href=\"?id=1416932161986\" class=\"email gl-follow\" rel=\"external\"><span class=\"wb-inv\">Email subscription service</span></a></li> \n\n    <li class=\"mrgn-lft-0\"><a href=\"https://twitter.com/AAFC_Canada\" class=\"twitter gl-follow\" rel=\"external\"><span class=\"wb-inv\">Twitter</span></a></li> \n\n    <!--li class=\"mrgn-lft-0\"><a href=\"https://www.linkedin.com/company/aafc-aac/?viewAsMember=true\" class=\"linkedin gl-follow\" rel=\"external\"><span class=\"wb-inv\">LinkedIn</span></a></li-->\n\n    <li class=\"mrgn-lft-0\"><a href=\"https://www.youtube.com/user/AgricultureCanadaEng\" class=\"youtube gl-follow\" rel=\"external\"><span class=\"wb-inv\">YouTube</span></a></li> \n\n    <li class=\"mrgn-lft-0\"><a href=\"?id=1252063521682\" class=\"rss gl-follow\" rel=\"external\"><span class=\"wb-inv\">RSS feeds</span></a></li> \n\n   </ul> \n  </section> \n<!-- END Social Buttons -->\n</div>\n\n</div>\n\n\n<div class=\"row\">\n\n<section class=\"mrgn-lft-0 col-md-8 pull-left mrgn-rght-0\">\n<div class=\"panel panel-default\">\n  <header class=\"panel-heading\">\n    <h2 class=\"panel-title\">Latest</h2>\n  </header>\n  <div class=\"wb-feeds limit-15\">\n     <ul class=\"feeds-cont mrgn-lft-0\">\n\n      <li><a data-ajax=\"https://api.io.canada.ca/io-server/gc/news/en/v2?type=newsreleases&amp;dept=agricultureagrifood&amp;sort=publishedDate&amp;orderBy=desc&amp;publishedDate&gt;=2020-08-09&amp;pick=100\" href=\"https://api.io.canada.ca/io-server/gc/news/en/v2?dept=agricultureagrifood&amp;sort=publishedDate&amp;orderBy=desc&amp;publishedDate&gt;=2020-08-09&amp;pick=100&amp;format=atom&amp;atomtitle=Canada%20News%20Centre%20-%20Agriculture%20and%20Agri-Food%20Canada\" rel=\"external\">AAFC news releases</a></li>\n\n      <li><a data-ajax=\"https://api.io.canada.ca/io-server/gc/news/en/v2?type=statements&amp;dept=agricultureagrifood&amp;sort=publishedDate&amp;orderBy=desc&amp;publishedDate&gt;=2020-08-09&amp;pick=100\" href=\"https://api.io.canada.ca/io-server/gc/news/en/v2?dept=agricultureagrifood&amp;sort=publishedDate&amp;orderBy=desc&amp;publishedDate&gt;=2020-08-09&amp;pick=100&amp;format=atom&amp;atomtitle=Canada%20News%20Centre%20-%20Agriculture%20and%20Agri-Food%20Canada\" rel=\"external\">AAFC statements</a></li>\n\n    </ul>\n  </div>\n</div>\n</section>\n\n\n<div class=\"pull-right col-md-4\">\n\n\n        <section class=\"panel panel-default\">\n            <header class=\"panel-heading\">\n                <h2 class=\"panel-title\">Related releases</h2>\n            </header>\n            <div class=\"panel-body\">\n                <!-- Display the last 4 \"statements\" releases -->\n\t\n<ul class=\"list-unstyled lst-spcd\">\n\n<li class=\"brdr-bttm mrgn-bttm-md\"><a href=\"https://www.canada.ca/en/agriculture-agri-food/news/2020/12/statement-by-the-honourable-marie-claude-bibeau-on-agricultural-exports-in-2020.html\">Statement by the Honourable Marie-Claude Bibeau on Agricultural Exports in 2020</a><br>\n<span class=\"nowrap mrgn-bttm-lg\">[2020-12-17]</span></li>\n\n<li class=\"brdr-bttm mrgn-bttm-md\"><a href=\"https://www.canada.ca/en/agriculture-agri-food/news/2020/10/statement-from-minister-bibeau--world-food-day-2020.html\">Statement from Minister Bibeau \u2013 World Food Day 2020</a><br>\n<span class=\"nowrap mrgn-bttm-lg\">[2020-10-16]</span></li>\n\n<li class=\"brdr-bttm mrgn-bttm-md\"><a href=\"?id=1600094730942\">Joint Statement from Western Hemisphere Agriculture Leaders</a><br>\n<span class=\"nowrap mrgn-bttm-lg\">[2020-09-14]</span></li>\n\n<li class=\"brdr-bttm mrgn-bttm-md\"><a href=\"https://www.canada.ca/en/agriculture-agri-food/news/2020/06/minister-of-agriculture-and-agri-food-to-announce-next-steps-in-supporting-food-security-in-canada.html\">Minister of Agriculture and Agri-Food to announce next steps in supporting food security in Canada</a><br>\n<span class=\"nowrap mrgn-bttm-lg\">[2020-06-08]</span></li>\n\n</ul>\n\n            </div>\n        </section>\n\n</div>\n\n<div class=\"clearfix\"></div>\n\n<section class=\"mrgn-lft-0 col-md-8\">\n<div class=\"panel panel-default\">\n  <header class=\"panel-heading\">\n    <h2 class=\"panel-title\">News releases by year</h2>\n  </header>\n  <div class=\"panel-body\">\n    <ul class=\"list-inline\">\n<li><a href=\"?id=1612376069772\">2021</a></li>\n<li><a href=\"?id=1580412787016\">2020</a></li>\n<li><a href=\"?id=1549291839575\">2019</a></li>\n<li><a href=\"https://www.canada.ca/en/news/advanced-news-search/news-results.html?_=1550770695421&amp;typ=newsreleases&amp;dprtmnt=agricultureagrifood&amp;start=2018-01-01&amp;end=2018-12-31\">2018</a></li>\n\t<li><a href=\"https://www.canada.ca/en/news/advanced-news-search/news-results.html?_=1550770783575&amp;typ=newsreleases&amp;dprtmnt=agricultureagrifood&amp;start=2017-01-01&amp;end=2017-12-31\">2017</a></li>\n\t<li><a href=\"https://www.canada.ca/en/news/advanced-news-search/news-results.html?_=1497466542499&amp;typ=newsreleases&amp;dprtmnt=agricultureagrifood&amp;start=2016-01-01&amp;end=2016-12-31\">2016</a></li>\n\t<li><a href=\"https://www.canada.ca/en/news/advanced-news-search/news-results.html?_=1497466612708&amp;typ=newsreleases&amp;dprtmnt=agricultureagrifood&amp;start=2015-01-01&amp;end=2015-12-31\">2015</a></li>\n    </ul>\n\n    <p>For news releases older than 2015, please contact <a href=\"?id=1370613214988\">Media Relations</a>.</p>\n\n  </div>\n</div>\n</section>\n\n<div class=\"clearfix\"></div>\n\n<section class=\"mrgn-lft-0 col-md-8\">\n<div class=\"panel panel-default\">\n  <header class=\"panel-heading\">\n    <h2 class=\"panel-title\">Statements by year</h2>\n  </header>\n  <div class=\"panel-body\">\n    <ul class=\"list-inline\">\n\t<li><a href=\"?id=1612377174800\">2021</a></li>\n\t<li><a href=\"?id=1587066605819\">2020</a></li>\n\t<li><a href=\"?id=1551122411621\">2019</a></li>\n\t<li><a href=\"https://www.canada.ca/en/news/advanced-news-search/news-results.html?_=1550770945157&amp;typ=statements&amp;dprtmnt=agricultureagrifood&amp;start=2018-01-01&amp;end=2018-12-31\">2018</a></li>\n\t<li><a href=\"https://www.canada.ca/en/news/advanced-news-search/news-results.html?_=1550771012967&amp;typ=statements&amp;dprtmnt=agricultureagrifood&amp;start=2017-01-01&amp;end=2017-12-31\">2017</a></li>\n\t<li><a href=\"https://www.canada.ca/en/news/advanced-news-search/news-results.html?_=1550771012967&amp;typ=statements&amp;dprtmnt=agricultureagrifood&amp;start=2016-01-01&amp;end=2016-12-31\">2016</a></li>\n\t<li><a href=\"https://www.canada.ca/en/news/advanced-news-search/news-results.html?_=1550771012967&amp;typ=statements&amp;dprtmnt=agricultureagrifood&amp;start=2015-01-01&amp;end=2015-12-31%20\">2015</a></li>\n    </ul>\n\n    <p>For statements older than 2015, please contact <a href=\"?id=1370613214988\">Media Relations</a>.</p>\n\n  </div>\n</div>\n</section>\n\n\t</div>\n\n<div class=\"clearfix\"></div>\n\n<h2>Media enquiries</h2>\n<p>Email: <a href=\"mailto:aafc.mediarelations-relationsmedias.aac@canada.ca\" title=\"Email: Media Enquiries\">aafc.mediarelations-relationsmedias.aac@canada.ca</a><br>\nToll-free: 1-866-345-7972<br>\nTelephone: 613-773-7972<br>\n<a href=\"?id=1370613214988#region\">Regional media contacts</a></p>\n\n\r\n    <!-- Fin du contenu -->\r\n  \r\n  <div class=\"pagedetails\" id=\"pgft\">\r\n    <div class=\"row\">\r\n\t  <div class=\"col-sm-6 col-md-5 col-lg-4\">\r\n\t    <details class=\"brdr-0\">\r\n\t\t<summary class=\"btn btn-default text-center\" onclick=\"getAntiSpamSeq('/eng/mail-handler/?anti-spam-sequence=true')\">Report a problem on this page</summary>\r\n\t\t<div class=\"clearfix\"></div>\r\n\t\t<div class=\"well row\">\r\n\t\t<div>\r\n\t\t  <div class=\"gc-rprt-prblm\">\r\n\t\t    <div class=\"gc-rprt-prblm-frm gc-rprt-prblm-tggl\">\r\n\t\t\t  \r\n\t\t\t<form id=\"report_a_problem_form\" action=\"/eng/mail-handler/#report_a_problem_form\" method=\"post\">\t\t\t\t   \t\t\t\r\n\r\n\t            \t <input type=\"hidden\" name=\"lang\" value=\"eng\">\r\n\t            \t <input type=\"hidden\" name=\"pageId\" value=\"1383076728778\">\r\n\t            \t <input type=\"hidden\" name=\"pageUrl\" value=\"http://www.agr.gc.ca/eng/news-from-agriculture-and-agri-food-canada/news-releases-and-statements/?id=1383076728778\">\r\n\t\t\t\t\t <div id=\"report_a_problem_form_error\"></div>\r\n\t\t             <fieldset>\t\t\t\t\t    \r\n\t\t                <legend><span class=\"field-name\">Please select all that apply:</span></legend>\t\t                                 \r\n\t\t\t\t\t\t<div class=\"checkbox\">\r\n\t\t\t\t\t\t\t<label for=\"problem1\"><input name=\"problem1\" id=\"problem1\" type=\"checkbox\" value=\"Yes\">A link, button or video is not working</label>\r\n\t\t\t\t\t\t\t<input name=\"problem1\" type=\"hidden\" value=\"No\">\r\n\t\t\t\t\t\t</div>\r\n\t\t\t\t\t\t<div class=\"checkbox\">\r\n\t\t\t\t\t\t\t<label for=\"problem2\"><input name=\"problem2\" id=\"problem2\" type=\"checkbox\" value=\"Yes\">It has a spelling mistake</label>\r\n\t\t\t\t\t\t\t<input name=\"problem2\" type=\"hidden\" value=\"No\">\r\n\t\t\t\t\t\t</div>\r\n\t\t\t\t\t\t<div class=\"checkbox\">\r\n\t\t\t\t\t\t\t<label for=\"problem3\"><input name=\"problem3\" id=\"problem3\" type=\"checkbox\" value=\"Yes\">Information is missing</label>\r\n\t\t\t\t\t\t\t<input name=\"problem3\" type=\"hidden\" value=\"No\">\r\n\t\t\t\t\t   </div>\r\n\t\t\t\t\t\t<div class=\"checkbox\">\r\n\t\t\t\t\t\t\t<label for=\"problem4\"><input name=\"problem4\" id=\"problem4\" type=\"checkbox\" value=\"Yes\">Information is outdated or wrong</label>\r\n\t\t\t\t\t\t\t<input name=\"problem4\" type=\"hidden\" value=\"No\">\r\n\t\t\t\t\t\t</div>\r\n\t\t\t\t\t\t<div class=\"checkbox\">\r\n\t\t\t\t\t\t\t<label for=\"problem5\"><input name=\"problem5\" id=\"problem5\" type=\"checkbox\" value=\"Yes\">Login error when trying to access an account (e.g. My Service Canada Account)</label>\r\n\t\t\t\t\t\t\t<input name=\"problem5\" type=\"hidden\" value=\"No\">\r\n\t\t\t\t\t\t</div>\r\n\t\t\t\t\t\t\t<ul>\r\n\t\t\t\t\t\t\t<li class=\"checkbox\">\r\n\t\t\t\t\t\t\t\t<label for=\"problem6a\"><input name=\"problem6\" id=\"problem6a\" type=\"checkbox\" value=\"Yes\">GC Key access</label>\r\n\t\t\t\t\t\t\t\t<input name=\"problem6\" type=\"hidden\" value=\"No\">\r\n\t\t\t\t\t\t\t </li>\r\n\t\t\t\t\t\t\t<li class=\"checkbox\">\r\n\t\t\t\t\t\t\t\t<label for=\"problem7\"><input name=\"problem7\" id=\"problem7\" type=\"checkbox\" value=\"Yes\">SecureKey Concierge (Banking Credential) access </label>\r\n\t\t\t\t\t\t\t\t<input name=\"problem7\" type=\"hidden\" value=\"No\">\r\n\t\t\t\t\t\t\t </li>\r\n\t\t\t\t\t\t\t<li class=\"checkbox\">\r\n\t\t\t\t\t\t\t\t<label for=\"problem8\"><input name=\"problem8\" id=\"problem8\" type=\"checkbox\" value=\"Yes\">Personal Access Code (PAC) problems or EI Access Code (AC) problems</label>\r\n\t\t\t\t\t\t\t\t<input name=\"problem8\" type=\"hidden\" value=\"No\">\r\n\t\t\t\t\t\t\t </li>\t\r\n\t\t\t\t\t\t\t<li class=\"checkbox\">\r\n\t\t\t\t\t\t\t\t<label for=\"problem9\"><input name=\"problem9\" id=\"problem9\" type=\"checkbox\" value=\"Yes\">Social Insurance Number (SIN) validation problems</label>\r\n\t\t\t\t\t\t\t\t<input name=\"problem9\" type=\"hidden\" value=\"No\">\r\n\t\t\t\t\t\t\t </li>\t\t\t\t\t\t\t\t\r\n\t\t\t\t\t\t\t<li class=\"checkbox\">\r\n\t\t\t\t\t\t\t\t<label for=\"problem10\"><input name=\"problem10\" id=\"problem10\" type=\"checkbox\" value=\"Yes\">Other login error not in this list</label>\r\n\t\t\t\t\t\t\t\t<input name=\"problem10\" type=\"hidden\" value=\"No\">\r\n\t\t\t\t\t\t\t </li>\t\t \r\n\t\t\t\t\t\t\t </ul>\r\n\t\t\t\t\t\t<div class=\"checkbox\">\r\n\t\t\t\t\t\t\t<label for=\"problem11\"><input name=\"problem11\" id=\"problem11\" type=\"checkbox\" value=\"Yes\">I can't find what I'm looking for</label>\r\n\t\t\t\t\t\t\t<input name=\"problem11\" type=\"hidden\" value=\"No\">\r\n\t\t\t\t\t\t</div>\r\n\t\t\t\t\t\t<div class=\"checkbox\">\r\n\t\t\t\t\t\t\t<label for=\"problem12\"><input name=\"problem12\" id=\"problem12\" type=\"checkbox\" value=\"Yes\">Other issue not in this list</label>\r\n\t\t\t\t\t\t\t<input name=\"problem12\" type=\"hidden\" value=\"No\">\r\n\t\t\t\t\t\t</div>\t\t\t\t\t\t \t\t\t\t\t\t\t\t\t\t\t\t \r\n\t\t             </fieldset>\r\n\t\t\t\t\t <div>\r\n\t\t\t\t\t   <label for=\"aafc_ranstr\"><span id=\"fbch\"><br>Enter these characters <strong class=\"required\">(required)</strong>: </span><span id=\"ranstr\">U5S</span></label>\r\n\t\t\t           <input name=\"anti-spam-sequence\" id=\"aafc_ranstr\" size=\"4\" maxlength=\"3\" type=\"text\">\r\n\t\t\t\t\t </div>\t\r\n\r\n\t\t\t\t\t <br><input type=\"submit\" class=\"btn btn-primary\" value=\"Submit\">\r\n\t\t\t\t  </form>\r\n\t\t\t\t</div>\r\n\t\t\t</div>\t\t\t\r\n\t\t  </div>\r\n\t\t</div>\r\n\t\t</details>\r\n\t  </div>\r\n\t  <div class=\"wb-share col-sm-4 col-md-3 col-sm-offset-2 col-md-offset-4 col-lg-offset-5\" data-wb-share='{\"lnkClass\": \"btn btn-default btn-block\"}'></div>\r\n\t</div>\r\n\t<dl id=\"wb-dtmd\">\r\n\t  <dt>Date modified: </dt>\r\n\t  <dd><time property=\"dateModified\">2021-02-11</time></dd></dl></div>",
        "fr": "\r\n    \r\n    <!-- MainContentStart -->\r\n    <!-- D&eacute;but du contenu -->\r\n    <div class=\"row\">\n\n<div class=\"mrgn-lft-0 mrgn-rght-0 col-md-8 pull-left\"> \n<p>Annonces faites par le ministre ou ses repr\u00e9sentants.</p>\n</div>\n\n<div class=\"col-md-4\">\n\n<!-- START Social Buttons -->\n<section class=\"followus mrgn-bttm-md\">      \n <h2>Suivez\u00a0:</h2> \n <ul> \n  <li><a href=\"https://www.facebook.com/AgricultureCanadienne\" class=\"facebook gl-follow\" rel=\"external\"> <span class=\"wb-inv\">Facebook</span></a></li> \n\n  <li><a href=\"?id=1416932161986\" class=\"email gl-follow\" rel=\"external\"> <span class=\"wb-inv\">Service d'abonnement par courriel</span></a></li> \n\n  <li><a href=\"https://twitter.com/AAC_Canada\" class=\"twitter gl-follow\" rel=\"external\"> <span class=\"wb-inv\">Twitter</span></a></li> \n\n  <!--li><a href=\"https://www.linkedin.com/company/aafc-aac/?viewAsMember=true\" class=\"linkedin gl-follow\" rel=\"external\"><span class=\"wb-inv\">LinkedIn</span></a></li-->\n\n  <li><a href=\"https://www.youtube.com/user/AgricultureCanadaFra\" class=\"youtube gl-follow\" rel=\"external\"><span class=\"wb-inv\">YouTube</span></a></li> \n\n  <li><a href=\"?id=1252063521682\" class=\"rss gl-follow\" rel=\"external\"> <span class=\"wb-inv\">Fils RSS</span></a></li> \n </ul> \n  </section> \n<!-- END Social Buttons -->        \n  </div>\n\n</div>\n\n\n<div class=\"row\">        \n\n<section class=\"mrgn-lft-0 col-md-8 pull-left mrgn-rght-0\">\n<div class=\"panel panel-default\">\n  <header class=\"panel-heading\">\n    <h2 class=\"panel-title\">Nouveaut\u00e9s</h2>\n  </header>\n  <div class=\"wb-feeds limit-15\">\n     <ul class=\"feeds-cont mrgn-lft-0\">\n\n      <li><a data-ajax=\"https://api.io.canada.ca/io-server/gc/news/fr/v2?type=newsreleases&amp;dept=agricultureagrifood&amp;sort=publishedDate&amp;orderBy=desc&amp;publishedDate&gt;=2020-08-09&amp;pick=100\" href=\"https://api.io.canada.ca/io-server/gc/news/fr/v2?dept=agricultureagrifood&amp;sort=publishedDate&amp;orderBy=desc&amp;publishedDate&gt;=2020-08-09&amp;pick=100&amp;format=atom&amp;atomtitle=Centre%20des%20nouvelles%20du%20Canada%20-%20Agriculture%20et%20Agroalimentaire%20Canada\" rel=\"external\">Communiqu\u00e9s</a></li>\n\n      <li><a data-ajax=\"https://api.io.canada.ca/io-server/gc/news/fr/v2?type=statements&amp;dept=agricultureagrifood&amp;sort=publishedDate&amp;orderBy=desc&amp;publishedDate&gt;=2020-08-09&amp;pick=100\" href=\"https://api.io.canada.ca/io-server/gc/news/fr/v2?dept=agricultureagrifood&amp;sort=publishedDate&amp;orderBy=desc&amp;publishedDate&gt;=2020-08-09&amp;pick=100&amp;format=atom&amp;atomtitle=Centre%20des%20nouvelles%20du%20Canada%20-%20Agriculture%20et%20Agroalimentaire%20Canada\" rel=\"external\">D\u00e9clarations</a></li>\n    </ul>\n  </div>\n</div>\n</section>\n\n<div class=\"pull-right col-md-4\">\n\n        <section class=\"panel panel-default\">\n            <header class=\"panel-heading\">\n                <h2 class=\"panel-title\">Communiqu\u00e9s connexes</h2>\n            </header>\n            <div class=\"panel-body\">\n                <!-- Display the last 4 \"statement\" releases -->\n\n<ul class=\"list-unstyled lst-spcd\">\n\n<li class=\"brdr-bttm mrgn-bttm-md\"><a href=\"https://www.canada.ca/fr/agriculture-agroalimentaire/nouvelles/2020/12/declaration-de-lhonorable-marie-claude-bibeau-sur-les-exportations-agricoles-en-2020.html\">D\u00e9claration de l'honorable Marie-Claude Bibeau sur les exportations agricoles en 2020</a><br>\n<span class=\"nowrap mrgn-bttm-lg\">[2020-12-17]</span></li>\n\n<li class=\"brdr-bttm mrgn-bttm-md\"><a href=\"https://www.canada.ca/fr/agriculture-agroalimentaire/nouvelles/2020/10/declaration-de-la-ministre-bibeau-a-loccasion-de-la-journee-mondiale-de-lalimentation-2020.html\">D\u00e9claration de la ministre Bibeau \u00e0 l'occasion de la Journ\u00e9e mondiale de l'alimentation 2020</a><br>\n<span class=\"nowrap mrgn-bttm-lg\">[2020-10-16]</span></li>\n\n<li class=\"brdr-bttm mrgn-bttm-md\"><a href=\"?id=1600094730942\">D\u00e9claration commune des dirigeants du secteur agricole de l\u2019h\u00e9misph\u00e8re occidental</a><br>\n<span class=\"nowrap\">[2020-09-14]</span></li>\n\n\n<li class=\"brdr-bttm mrgn-bttm-md\"><a href=\"https://www.canada.ca/fr/agriculture-agroalimentaire/nouvelles/2020/06/la-ministre-de-lagriculture-et-de-lagroalimentaire-annoncera-des-mesures-pour-soutenir-la-securite-alimentaire-au-canada.html\">La ministre de l\u2019Agriculture et de l\u2019Agroalimentaire annoncera des mesures pour soutenir la s\u00e9curit\u00e9 alimentaire au Canada</a><br>\n<span class=\"nowrap mrgn-bttm-lg\">[2020-06-08]</span></li>\n\n\n</ul>\n            </div>\n        </section>\n\n</div>\n\n<div class=\"clearfix\"></div>\n\n<section class=\"mrgn-lft-0 col-md-8\">\n<div class=\"panel panel-default\">\n  <header class=\"panel-heading\">\n    <h2 class=\"panel-title\">Communiqu\u00e9s par ann\u00e9e</h2>\n  </header>\n  <div class=\"panel-body\">\n    <ul class=\"list-inline\">\n    <li><a href=\"?id=1612376069772\">2021</a></li>\n    <li><a href=\"?id=1580412787016\">2020</a></li>\n<li><a href=\"?id=1549291839575\">2019</a></li>\n<li><a href=\"https://www.canada.ca/fr/nouvelles/recherche-avancee-de-nouvelles/resultats-de-nouvelles.html?_=1550845096530&amp;typ=newsreleases&amp;dprtmnt=agricultureagrifood&amp;mnstr=&amp;start=2018-01-01&amp;end=2018-12-31\">2018</a></li>\n\t<li><a href=\"https://www.canada.ca/fr/nouvelles/recherche-avancee-de-nouvelles/resultats-de-nouvelles.html?_=1550845160439&amp;typ=newsreleases&amp;dprtmnt=agricultureagrifood&amp;mnstr=&amp;start=2017-01-01&amp;end=2017-12-31%20\">2017</a></li>\n\t<li><a href=\"https://www.canada.ca/fr/nouvelles/recherche-avancee-de-nouvelles/resultats-de-nouvelles.html?_=1497466458943&amp;typ=newsreleases&amp;dprtmnt=agricultureagrifood&amp;mnstr=&amp;start=2016-01-01&amp;end=2016-12-31\">2016</a></li>\n\t<li><a href=\"https://www.canada.ca/fr/nouvelles/recherche-avancee-de-nouvelles/resultats-de-nouvelles.html?_=1497466681314&amp;typ=newsreleases&amp;dprtmnt=agricultureagrifood&amp;mnstr=&amp;start=2015-01-01&amp;end=2015-12-31\">2015</a></li>\n    </ul>\n\n    <p>Pour les communiqu\u00e9s ant\u00e9rieurs \u00e0 2015, veuillez contacter les <a href=\"?id=1370613214988\">Relations avec les m\u00e9dias</a>.</p>\n\n  </div>\n</div>\n</section>\n\n<div class=\"clearfix\"></div>\n\n<section class=\"mrgn-lft-0 col-md-8\">\n<div class=\"panel panel-default\">\n  <header class=\"panel-heading\">\n    <h2 class=\"panel-title\">D\u00e9clarations par ann\u00e9e</h2>\n  </header>\n  <div class=\"panel-body\">\n    <ul class=\"list-inline\">\n\t<li><a href=\"?id=1612377174800\">2021</a></li>\n\t<li><a href=\"?id=1587066605819\">2020</a></li>\n\t<li><a href=\"?id=1551122411621\">2019</a></li>\n\t<li><a href=\"https://www.canada.ca/fr/nouvelles/recherche-avancee-de-nouvelles/resultats-de-nouvelles.html?_=1550845340705&amp;typ=statements&amp;dprtmnt=agricultureagrifood&amp;mnstr=&amp;start=2018-01-01&amp;end=2018-12-31\">2018</a></li>\n\t<li><a href=\"https://www.canada.ca/fr/nouvelles/recherche-avancee-de-nouvelles/resultats-de-nouvelles.html?_=1550845388985&amp;typ=statements&amp;dprtmnt=agricultureagrifood&amp;mnstr=&amp;start=2017-01-01&amp;end=2017-12-31\">2017</a></li>\n\t<li><a href=\"https://www.canada.ca/fr/nouvelles/recherche-avancee-de-nouvelles/resultats-de-nouvelles.html?_=1550845388985&amp;typ=statements&amp;dprtmnt=agricultureagrifood&amp;mnstr=&amp;start=2016-01-01&amp;end=2016-12-31\">2016</a></li>\n\t<li><a href=\"https://www.canada.ca/fr/nouvelles/recherche-avancee-de-nouvelles/resultats-de-nouvelles.html?_=1550845388985&amp;typ=statements&amp;dprtmnt=agricultureagrifood&amp;mnstr=&amp;start=2015-01-01&amp;end=2015-12-31\">2015</a></li>\n    </ul>\n\n    <p>Pour les d\u00e9clarations ant\u00e9rieures \u00e0 2015, veuillez contacter les <a href=\"?id=1370613214988\">Relations avec les m\u00e9dias</a>.</p>\n\n  </div>\n</div>\n</section>\n\n\t</div>\n\n<div class=\"clearfix\"></div>\n\n<h2>Demandes de renseignements des m\u00e9dias</h2>\n\n<p>Courriel : <a href=\"mailto:aafc.mediarelations-relationsmedias.aac@canada.ca\">aafc.mediarelations-relationsmedias.aac@canada.ca</a><br>\nSans frais : 1-866-345-7972<br>\nT\u00e9l\u00e9phone : 613-773-7972<br>\n<a href=\"?id=1370613214988#region\">Personnes-ressources pour les m\u00e9dias (par r\u00e9gion)</a></p>\n\r\n    <!-- Fin du contenu -->\r\n\t\r\n\t<div class=\"pagedetails\" id=\"pgft\">\r\n\t\t<div class=\"row\">\r\n\t\t  <div class=\"col-sm-6 col-md-5 col-lg-4\">\r\n\t\t    <details class=\"brdr-0\">\r\n\t\t\t<summary class=\"btn btn-default text-center\" onclick=\"getAntiSpamSeq('/fra/mail-handler/?anti-spam-sequence=true')\">Signaler un probl\u00e8me sur cette page</summary>\r\n\t\t\t<div class=\"well row\">\r\n\t\t\t  <div class=\"gc-rprt-prblm\">\r\n\t\t\t    <div class=\"gc-rprt-prblm-frm gc-rprt-prblm-tggl\">\r\n\t\t\t\t   <form id=\"report_a_problem_form\" action=\"/fra/mail-handler/\" method=\"post\">\r\n\t            \t <input type=\"hidden\" name=\"lang\" value=\"fra\">\r\n\t            \t <input type=\"hidden\" name=\"pageId\" value=\"1383076728778\">\r\n\t            \t <input type=\"hidden\" name=\"pageUrl\" value=\"http://www.agr.gc.ca/fra/nouvelles-dagriculture-et-agroalimentaire-canada/communiques-et-declarations/?id=1383076728778\">\r\n\t\t\t\t\t <div id=\"report_a_problem_form_error\"></div>\r\n\t\t             <fieldset>\t\t\t\t\t    \r\n\t\t                <legend><span class=\"field-name\">Veuillez cocher toutes les r\u00e9ponses pertinentes\u00a0:</span></legend>\r\n\t\t                 <div class=\"checkbox\">\r\n\t\t                    <label for=\"problem1\"><input name=\"problem1\" id=\"problem1\" type=\"checkbox\" value=\"Yes\">Un lien, un bouton ou une vid\u00e9o ne fonctionne pas</label>\r\n\t\t                    <input name=\"problem1\" type=\"hidden\" value=\"No\">\r\n\t\t                </div>\r\n\t\t                <div class=\"checkbox\">\r\n\t\t                    <label for=\"problem2\"><input name=\"problem2\" id=\"problem2\" type=\"checkbox\" value=\"Yes\">Il y a une erreur d'orthographe ou de grammaire</label>\r\n\t\t                    <input name=\"problem2\" type=\"hidden\" value=\"No\">\r\n\t\t                </div>\r\n\t\t   \t\t\t\t <div class=\"checkbox\">\r\n\t\t                    <label for=\"problem3\"><input name=\"problem3\" id=\"problem3\" type=\"checkbox\" value=\"Yes\">Les renseignements sont incomplets</label>\r\n\t\t                    <input name=\"problem3\" type=\"hidden\" value=\"No\">\r\n\t\t                </div>\r\n\t\t             \t\t<div class=\"checkbox\">\r\n\t\t                    <label for=\"problem4\"><input name=\"problem4\" id=\"problem4\" type=\"checkbox\" value=\"Yes\">L'information n'est plus \u00e0 jour ou est erron\u00e9e</label>\r\n\t\t                    <input name=\"problem4\" type=\"hidden\" value=\"No\">\r\n\t\t                </div>\t\t\t\t\t\t\r\n\t\t\t\t\t\t<div class=\"checkbox\">\r\n\t\t\t\t\t\t\t<label for=\"problem5\"><input name=\"problem5\" id=\"problem5\" type=\"checkbox\" value=\"Yes\">Message d'erreur \u00e0 l'ouverture de la session lorsque je tente d'acc\u00e9der \u00e0 un compte (ex. Mon dossier Service Canada)</label>\r\n\t\t\t\t\t\t\t<input name=\"problem5\" type=\"hidden\" value=\"No\">\r\n\t\t\t\t\t\t</div>\r\n\t\t\t\t\t\t\t<ul>\r\n\t\t\t\t\t\t\t<li class=\"checkbox\">\r\n\t\t\t\t\t\t\t\t<label for=\"problem6a\"><input name=\"problem6\" id=\"problem6a\" type=\"checkbox\" value=\"Yes\">Acc\u00e8s Cl\u00e9GC</label>\r\n\t\t\t\t\t\t\t\t<input name=\"problem6\" type=\"hidden\" value=\"No\">\r\n\t\t\t\t\t\t\t </li>\r\n\t\t\t\t\t\t\t<li class=\"checkbox\">\r\n\t\t\t\t\t\t\t\t<label for=\"problem7\"><input name=\"problem7\" id=\"problem7\" type=\"checkbox\" value=\"Yes\">Acc\u00e8s SecureKey Service de Concierge (justificatifs d'identit\u00e9 bancaires)</label>\r\n\t\t\t\t\t\t\t\t<input name=\"problem7\" type=\"hidden\" value=\"No\">\r\n\t\t\t\t\t\t\t </li>\r\n\t\t\t\t\t\t\t<li class=\"checkbox\">\r\n\t\t\t\t\t\t\t\t<label for=\"problem8\"><input name=\"problem8\" id=\"problem8\" type=\"checkbox\" value=\"Yes\">Probl\u00e8me avec le Code d'acc\u00e8s personnel (CAP) ou avec le Code d'acc\u00e8s (CA) de l'assurance emploi</label>\r\n\t\t\t\t\t\t\t\t<input name=\"problem8\" type=\"hidden\" value=\"No\">\r\n\t\t\t\t\t\t\t </li>\t\r\n\t\t\t\t\t\t\t<li class=\"checkbox\">\r\n\t\t\t\t\t\t\t\t<label for=\"problem9\"><input name=\"problem9\" id=\"problem9\" type=\"checkbox\" value=\"Yes\">Probl\u00e8me li\u00e9 \u00e0 la validation du num\u00e9ro d'assurance sociale (NAS)</label>\r\n\t\t\t\t\t\t\t\t<input name=\"problem9\" type=\"hidden\" value=\"No\">\r\n\t\t\t\t\t\t\t </li>\t\t\t\t\t\t\t\t\r\n\t\t\t\t\t\t\t<li class=\"checkbox\">\r\n\t\t\t\t\t\t\t\t<label for=\"problem10\"><input name=\"problem10\" id=\"problem10\" type=\"checkbox\" value=\"Yes\">Autre erreur lors de l'ouverture de session qui ne figure pas sur cette liste</label>\r\n\t\t\t\t\t\t\t\t<input name=\"problem10\" type=\"hidden\" value=\"No\">\r\n\t\t\t\t\t\t\t </li>\t\t \r\n\t\t\t\t\t\t\t </ul>\r\n\t\t\t\t\t\t<div class=\"checkbox\">\r\n\t\t\t\t\t\t\t<label for=\"problem11\"><input name=\"problem11\" id=\"problem11\" type=\"checkbox\" value=\"Yes\">Je n'arrive pas \u00e0 trouver ce que je cherche</label>\r\n\t\t\t\t\t\t\t<input name=\"problem11\" type=\"hidden\" value=\"No\">\r\n\t\t\t\t\t\t</div>\r\n\t\t\t\t\t\t<div class=\"checkbox\">\r\n\t\t\t\t\t\t\t<label for=\"problem12\"><input name=\"problem12\" id=\"problem12\" type=\"checkbox\" value=\"Yes\">Autre probl\u00e8me qui ne figure pas sur cette liste</label>\r\n\t\t\t\t\t\t\t<input name=\"problem12\" type=\"hidden\" value=\"No\">\r\n\t\t\t\t\t\t</div>\t\t\t\t\t\t\t\t\t\t\t\t\t\t\t\t\t\t\t\r\n\t\t             </fieldset>\r\n\t\t\t\t\t <div>\r\n\t\t\t\t        <label for=\"aafc_ranstr\"><span id=\"fbch\">Veuillez inscrire les caract\u00e8res suivants  <strong class=\"required\">(obligatoire)</strong>\u00a0: </span><span id=\"ranstr\">XXX</span></label>\r\n\t\t\t            <input name=\"anti-spam-sequence\" id=\"aafc_ranstr\" size=\"4\" maxlength=\"3\" type=\"text\">\r\n\t\t\t\t\t </div>\r\n\t\t\t\t\t <input type=\"submit\" class=\"btn btn-primary\" value=\"Soumettre\">\r\n\t\t\t\t  </form>\r\n\t\t\t\t</div>\r\n\t\t\t  </div>\r\n\t\t\t</div>\r\n\t\t</details>\r\n\t    </div>\r\n\t  <div class=\"wb-share col-sm-4 col-md-3 col-sm-offset-2 col-md-offset-4 col-lg-offset-5\" data-wb-share='{\"lnkClass\": \"btn btn-default btn-block\"}'></div>\r\n\t  </div>\r\n\t  <dl id=\"wb-dtmd\">\r\n\t    <dt>Date de modification\u00a0: </dt>\r\n\t      <dd><time property=\"dateModified\">2021-02-11</time></dd>\r\n\t  </dl>\r\n\t</div>\r\n\t\r\n  "
    }
}