{
    "dcr_id": "1438001050127",
    "title": {
        "en": "Agriculture and food market intelligence \u2013 Europe",
        "fr": "Information sur les march\u00e9s agricoles et alimentaires \u2013 Europe"
    },
    "modified": "2021-01-27",
    "issued": "2015-08-10",
    "templatetype": "content page 1 column",
    "page_type": "1",
    "node_id": "1437689344108",
    "dc_date_created": "2015-08-10",
    "managing_branch": "MISB",
    "parent_node_id": "1410080965335",
    "label": {
        "en": "Market Intelligence - Europe",
        "fr": "Rapports de renseignements"
    },
    "exturl": "",
    "teamsite_location": {
        "en": "/default/main/AAFC-AAC/Internet-Internet/MISB-DGSIM/ATS-SEA/ATS-SEA-s2/WORKAREA/ATS-SEA-s2/templatedata/comm-comm/gene-gene/data/info_eur_marketintelligence_1438001050127_en",
        "fr": "/default/main/AAFC-AAC/Internet-Internet/MISB-DGSIM/ATS-SEA/ATS-SEA-s2/WORKAREA/ATS-SEA-s2/templatedata/comm-comm/gene-gene/data/info_eur_marketintelligence_1438001050127_fr"
    },
    "type_name": "sitemapinit",
    "has_dcr_id": true,
    "breadcrumb": {
        "en": "Market Intelligence - Europe",
        "fr": "Rapports de renseignements"
    },
    "layout_name": "content page 1 column",
    "lang": "en",
    "meta": {
        "issued": {
            "en": "2015-08-10",
            "fr": "2015-08-10"
        },
        "modified": {
            "en": "2021-01-27",
            "fr": "2021-01-27"
        },
        "format": {
            "en": "gcformat",
            "fr": "gcformat"
        },
        "title": {
            "en": "Agriculture and food market intelligence \u2013 Europe",
            "fr": "Information sur les march\u00e9s agricoles et alimentaires \u2013 Europe"
        },
        "subject": {
            "en": "agri-food products;agri-food industry",
            "fr": "produit agro-alimentaire;industrie agro-alimentaire"
        },
        "description": {
            "en": "Market Intelligence - by market, by sector and by interest",
            "fr": "Rapports de renseignements - par march\u00e9, par secteur et par int\u00e9r\u00eat"
        },
        "language": {
            "en": "eng",
            "fr": "fra"
        },
        "keywords": {
            "en": " foodservice; retail; consumer; sector; market intelligence;europe",
            "fr": " restauration; secteur de la vente au d\u00e9tail; consommateurs; secteur; renseignements; march\u00e9;europe"
        },
        "audience": {
            "en": "gcaudience",
            "fr": "gcaudience"
        },
        "type": {
            "en": "resource list",
            "fr": "liste de r\u00e9f\u00e9rence"
        },
        "creator": {
            "en": "Agriculture and Agri-Food Canada;Government of Canada",
            "fr": "Agriculture et Agroalimentaire Canada;Gouvernement du Canada"
        },
        "spatial": {
            "en": "gcregions",
            "fr": "gcregions"
        },
        "service": {
            "en": "AAFC-AAC",
            "fr": "AAFC-AAC"
        },
        "accessRights": {
            "en": "2",
            "fr": "2"
        },
        "legalName": {
            "en": "agriculture_and_agri_food_canada",
            "fr": "agriculture_et_agroalimentaire_canada"
        },
        "areaServed": {
            "en": "Canada",
            "fr": "Canada"
        }
    },
    "body": {
        "en": "tart --&gt;\r\n    <!-- D&eacute;but du contenu -->\r\n    <section class=\"alert alert-info\">\n<h2>Find market intelligence reports faster</h2>\n<p>Access <a class=\"alert-link nowrap\" href=\"?id=1522931721523\">international market intelligence reports</a> on agriculture, food and seafood using a dynamic filtering tool.</p>\n</section>\n\n<h2>Reports by sector</h2>\n<ul class=\"list-unstyled colcount-md-3\">\n<li><a href=\"?id=1438009430872#additivesandingredients\">Additives and ingredients</a></li>\n<!--li><a href=\"?id=1438009430872#animalfeedandpetfood\">Animal feed and pet food</a></li-->\n<!--li><a href=\"?id=1438009430872#bakedgoodsandbakeryproducts\">Baked goods and bakery  products</a></li-->\n<li><a href=\"?id=1438009430872#beverages\">Beverages</a></li>\n<li><a href=\"?id=1438009430872#condiments\">Condiments</a></li>\n<!--li><a href=\"?id=1438009430872#confectionery\">Confectionery</a></li-->\n<!--li><a href=\"?id=1438009430872#dairyproducts\">Dairy products</a></li-->\n<li><a href=\"?id=1438009430872#fishandseafood\">Fish and seafood</a></li>\n<!--li><a href=\"?id=1438009430872#fruitsandvegetables\">Fruits and vegetables</a></li-->\n<li><a href=\"?id=1438009430872#healthandwellness\">Health and wellness</a></li>\n<li><a href=\"?id=1438009430872#maplesyrupandhoney\">Maple syrup and honey</a></li>\n<li><a href=\"?id=1438009430872#meatandlivestock\">Meat and livestock</a></li>\n<!--li><a href=\"?id=1438009430872#oilseedscerealsandgrains\">Oilseeds, cereals and grains</a></li-->\n<li><a href=\"?id=1438009430872#organicnaturalandhealthfoods\">Organic, natural and health  foods</a></li>\n<li><a href=\"?id=1438009430872#packagedfood\">Packaged food</a></li>\n<li><a href=\"?id=1438009430872#pulsesandspecialcrops\">Pulses and special crops</a></li>\n<!--li><a href=\"?id=1438009430872#snackfood\">Snack food</a></li-->\n</ul>\n\n<h2>Reports by market</h2>\n<ul class=\"list-unstyled colcount-md-3\">\n<li><a href=\"?id=1438007977672#Europe\">Europe / European Union</a></li>\n<li><a href=\"?id=1438007977672#Baltics\">Baltics (Estonia, Latvia, Lithuania)</a></li>\n<li><a href=\"?id=1438007977672#Belgium\">Belgium</a></li>\n<li><a href=\"?id=1438007977672#France\">France</a></li>\n<li><a href=\"?id=1438007977672#Germany\">Germany</a></li>\n<li><a href=\"?id=1438007977672#Italy\">Italy</a></li>\n<li><a href=\"?id=1438007977672#TheNetherlands\">Netherlands</a></li>\n<!--li><a href=\"?id=1438007977672#Poland\">Poland</a></li-->\n<!--li><a href=\"?id=1438007977672#Portugal\">Portugal</a></li-->\n<li><a href=\"?id=1438007977672#Spain\">Spain</a></li>\n<!--li><a href=\"?id=1438007977672#Sweden\">Sweden</a></li-->\n<li><a href=\"?id=1438007977672#UnitedKingdom\">United Kingdom</a></li>\n</ul>\n\n<h2>Videos on agri-food trade with Europe</h2>\n\n<p>Quickly discover key market information, trends and opportunities.</p>\n\n<div class=\"row\">\n<div class=\"col-md-4\">\n<p class=\"mrgn-tp-md\"><a href=\"?id=1582301441836\"><img src=\"https://www.agr.gc.ca/resources/prod/Internet-Internet/MISB-DGSIM/ATS-SEA/images/10231/austria-eng.png\" class=\"img-responsive text-center mrgn-bttm-0\" alt=\"\">\nDoing Business in Austria</a></p>\n</div>\n\n<div class=\"col-md-4\">\n<p class=\"mrgn-tp-md\"><a href=\"?id=1582301986460\"><img src=\"https://www.agr.gc.ca/resources/prod/Internet-Internet/MISB-DGSIM/ATS-SEA/images/10231/denmark-eng.png\" class=\"img-responsive text-center mrgn-bttm-0\" alt=\"\">\nDoing Business in Denmark</a></p>\n</div>\n\n<div class=\"col-md-4\">\n<p class=\"mrgn-tp-md\"><a href=\"?id=1582302237889\"><img src=\"https://www.agr.gc.ca/resources/prod/Internet-Internet/MISB-DGSIM/ATS-SEA/images/10231/france-eng.png\" class=\"img-responsive text-center mrgn-bttm-0\" alt=\"\"><br>Doing Business in France</a></p>\n</div>\n</div>\n\n<div class=\"row\">\n<div class=\"col-md-4\">\n<p class=\"mrgn-tp-md\"><a href=\"?id=1582302444112\"><img src=\"https://www.agr.gc.ca/resources/prod/Internet-Internet/MISB-DGSIM/ATS-SEA/images/10231/germany-eng.png\" class=\"img-responsive text-center mrgn-bttm-0\" alt=\"\">\nDoing Business in Germany</a></p>\n</div>\n\n<div class=\"col-md-4\">\n<p class=\"mrgn-tp-md\"><a href=\"?id=1582302597541\"><img src=\"https://www.agr.gc.ca/resources/prod/Internet-Internet/MISB-DGSIM/ATS-SEA/images/10231/sweden-eng.png\" class=\"img-responsive text-center mrgn-bttm-0\" alt=\"\">\nDoing Business in Sweden</a></p>\n</div>\n\n<div class=\"col-md-4\">\n<p class=\"mrgn-tp-md\"><a href=\"?id=1492616001710\"><img src=\"https://www.agr.gc.ca/resources/prod/Internet-Internet/MISB-DGSIM/ATS-SEA/images/vid-foodtrends-eng.png\" alt=\"\" class=\"img-responsive text-center mrgn-bttm-0\">\nFood Trends in Europe</a></p>\n</div>\n</div>\n\n<div class=\"row\">\n<div class=\"col-md-4\">\n<p class=\"mrgn-tp-md\"><a href=\"?id=1492713260716\"><img src=\"https://www.agr.gc.ca/resources/prod/Internet-Internet/MISB-DGSIM/ATS-SEA/images/vid-labelling2-eng.png\" alt=\"\" class=\"img-responsive text-center mrgn-bttm-0\">\nLabelling in Europe</a></p>\n</div>\n\n<div class=\"col-md-4\">\n<p class=\"mrgn-tp-md\"><a href=\"?id=1438022497447\"><img src=\"https://www.agr.gc.ca/resources/prod/Internet-Internet/MISB-DGSIM/ATS-SEA/images/vid-suc-eng.png\" alt=\"\" class=\"img-responsive text-center mrgn-bttm-0\">\nSucceeding in Europe</a></p>\n</div>\n\n<div class=\"col-md-4\">\n<p class=\"mrgn-tp-md\"><a href=\"?id=1438021279763\"><img src=\"https://www.agr.gc.ca/resources/prod/Internet-Internet/MISB-DGSIM/ATS-SEA/images/vid-opp-eng.png\" alt=\"\" class=\"img-responsive text-center mrgn-bttm-0\">\nThe Opportunity of Europe</a></p>\n</div>\n</div>\n\n<h2>More support for business</h2>\n<dl>\n<dt><a href=\"?id=1438010928703\">Canada European Union Comprehensive and Economic Trade Agreement (CETA) for agri-food exporters</a></dt>\n<dd>Find out what CETA is and how it can benefit your agri-food exports to the European Union.</dd>\n<dt><a href=\"https://www.tradecommissioner.gc.ca/trade_commissioners-delegues_commerciaux/index.aspx?lang=eng\">The Canadian Trade Commissioner Service</a></dt>\n<dd>\n<p>Learn how Canada's network of Trade Commissioners can help you navigate international markets and expand your business.</p>\n<p>Access the Trade Commissioner  Service's market profiles and reports on:</p>\n<ul>\n<li><a href=\"https://www.tradecommissioner.gc.ca/sectors-secteurs/agriculture-and-processed-foods-agriculture-et-des-aliments-transformes.aspx?lang=eng&amp;_ga=2.232935574.941185074.1563462390-1655195799.1557946351\">Agriculture and processed foods</a></li>\n<li><a href=\"https://www.tradecommissioner.gc.ca/sectors-secteurs/fish-and-seafood-poissons-et-fruits-de-mer.aspx?lang=eng&amp;_ga=2.238235912.941185074.1563462390-1655195799.1557946351\">Fish and seafood</a></li>\n<li><a href=\"https://www.tradecommissioner.gc.ca/sectors-secteurs/wine-beer-and-spirits-vin-de-la-biere-et-des-spiritueux.aspx?lang=eng&amp;_ga=2.2946232.941185074.1563462390-1655195799.1557946351\">Wine, beer and spirits</a></li>\n</ul>\n</dd>\n<dt>Market intelligence services</dt>\n<dd>\n<p>We offer free services for Canadian agriculture and agri-food businesses.</p>\n<ul>\n<li>Request market intelligence: <a href=\"mailto:aafc.mas-sam.aac@canada.ca?subject=International%20market%20intelligence%20services%20and%20analysis&amp;body=Please%20describe%20how%20we%20can%20help%20you%20with%20your%20international%20market%20intelligence%20needs.&amp;cc=aafc.infoservice.aac@canada.ca\">aafc.mas-sam.aac@canada.ca</a></li>\n<li>Subscribe to receive the latest reports in your email inbox: <a href=\"mailto:aafc.infoservice.aac@canada.ca?subject=InfoService%20subscription%20for%20international%20market%20intelligence&amp;body=Please%20subscribe%20me%20to%20AAFC-AAC's%20international%20market%20intelligence%20InfoService%20emails.\">aafc.infoservice.aac@canada.ca</a></li>\n</ul>\n</dd>\n</dl>\n\r\n    <!-- Fin du contenu -->\r\n  \r\n  <div class=\"pagedetails\" id=\"pgft\">\r\n    <div class=\"row\">\r\n\t  <div class=\"col-sm-6 col-md-5 col-lg-4\">\r\n\t    <details class=\"brdr-0\">\r\n\t\t<summary class=\"btn btn-default text-center\" onclick=\"getAntiSpamSeq('/eng/mail-handler/?anti-spam-sequence=true')\">Report a problem on this page</summary>\r\n\t\t<div class=\"clearfix\"></div>\r\n\t\t<div class=\"well row\">\r\n\t\t<div>\r\n\t\t  <div class=\"gc-rprt-prblm\">\r\n\t\t    <div class=\"gc-rprt-prblm-frm gc-rprt-prblm-tggl\">\r\n\t\t\t  \r\n\t\t\t<form id=\"report_a_problem_form\" action=\"/eng/mail-handler/#report_a_problem_form\" method=\"post\">\t\t\t\t   \t\t\t\r\n\r\n\t            \t <input type=\"hidden\" name=\"lang\" value=\"eng\">\r\n\t            \t <input type=\"hidden\" name=\"pageId\" value=\"1438001050127\">\r\n\t            \t <input type=\"hidden\" name=\"pageUrl\" value=\"http://agr.gc.ca/eng/international-trade/market-intelligence/europe/?id=1438001050127\">\r\n\t\t\t\t\t <div id=\"report_a_problem_form_error\"></div>\r\n\t\t             <fieldset>\t\t\t\t\t    \r\n\t\t                <legend><span class=\"field-name\">Please select all that apply:</span></legend>\t\t                                 \r\n\t\t\t\t\t\t<div class=\"checkbox\">\r\n\t\t\t\t\t\t\t<label for=\"problem1\"><input name=\"problem1\" id=\"problem1\" type=\"checkbox\" value=\"Yes\">A link, button or video is not working</label>\r\n\t\t\t\t\t\t\t<input name=\"problem1\" type=\"hidden\" value=\"No\">\r\n\t\t\t\t\t\t</div>\r\n\t\t\t\t\t\t<div class=\"checkbox\">\r\n\t\t\t\t\t\t\t<label for=\"problem2\"><input name=\"problem2\" id=\"problem2\" type=\"checkbox\" value=\"Yes\">It has a spelling mistake</label>\r\n\t\t\t\t\t\t\t<input name=\"problem2\" type=\"hidden\" value=\"No\">\r\n\t\t\t\t\t\t</div>\r\n\t\t\t\t\t\t<div class=\"checkbox\">\r\n\t\t\t\t\t\t\t<label for=\"problem3\"><input name=\"problem3\" id=\"problem3\" type=\"checkbox\" value=\"Yes\">Information is missing</label>\r\n\t\t\t\t\t\t\t<input name=\"problem3\" type=\"hidden\" value=\"No\">\r\n\t\t\t\t\t   </div>\r\n\t\t\t\t\t\t<div class=\"checkbox\">\r\n\t\t\t\t\t\t\t<label for=\"problem4\"><input name=\"problem4\" id=\"problem4\" type=\"checkbox\" value=\"Yes\">Information is outdated or wrong</label>\r\n\t\t\t\t\t\t\t<input name=\"problem4\" type=\"hidden\" value=\"No\">\r\n\t\t\t\t\t\t</div>\r\n\t\t\t\t\t\t<div class=\"checkbox\">\r\n\t\t\t\t\t\t\t<label for=\"problem5\"><input name=\"problem5\" id=\"problem5\" type=\"checkbox\" value=\"Yes\">Login error when trying to access an account (e.g. My Service Canada Account)</label>\r\n\t\t\t\t\t\t\t<input name=\"problem5\" type=\"hidden\" value=\"No\">\r\n\t\t\t\t\t\t</div>\r\n\t\t\t\t\t\t\t<ul>\r\n\t\t\t\t\t\t\t<li class=\"checkbox\">\r\n\t\t\t\t\t\t\t\t<label for=\"problem6a\"><input name=\"problem6\" id=\"problem6a\" type=\"checkbox\" value=\"Yes\">GC Key access</label>\r\n\t\t\t\t\t\t\t\t<input name=\"problem6\" type=\"hidden\" value=\"No\">\r\n\t\t\t\t\t\t\t </li>\r\n\t\t\t\t\t\t\t<li class=\"checkbox\">\r\n\t\t\t\t\t\t\t\t<label for=\"problem7\"><input name=\"problem7\" id=\"problem7\" type=\"checkbox\" value=\"Yes\">SecureKey Concierge (Banking Credential) access </label>\r\n\t\t\t\t\t\t\t\t<input name=\"problem7\" type=\"hidden\" value=\"No\">\r\n\t\t\t\t\t\t\t </li>\r\n\t\t\t\t\t\t\t<li class=\"checkbox\">\r\n\t\t\t\t\t\t\t\t<label for=\"problem8\"><input name=\"problem8\" id=\"problem8\" type=\"checkbox\" value=\"Yes\">Personal Access Code (PAC) problems or EI Access Code (AC) problems</label>\r\n\t\t\t\t\t\t\t\t<input name=\"problem8\" type=\"hidden\" value=\"No\">\r\n\t\t\t\t\t\t\t </li>\t\r\n\t\t\t\t\t\t\t<li class=\"checkbox\">\r\n\t\t\t\t\t\t\t\t<label for=\"problem9\"><input name=\"problem9\" id=\"problem9\" type=\"checkbox\" value=\"Yes\">Social Insurance Number (SIN) validation problems</label>\r\n\t\t\t\t\t\t\t\t<input name=\"problem9\" type=\"hidden\" value=\"No\">\r\n\t\t\t\t\t\t\t </li>\t\t\t\t\t\t\t\t\r\n\t\t\t\t\t\t\t<li class=\"checkbox\">\r\n\t\t\t\t\t\t\t\t<label for=\"problem10\"><input name=\"problem10\" id=\"problem10\" type=\"checkbox\" value=\"Yes\">Other login error not in this list</label>\r\n\t\t\t\t\t\t\t\t<input name=\"problem10\" type=\"hidden\" value=\"No\">\r\n\t\t\t\t\t\t\t </li>\t\t \r\n\t\t\t\t\t\t\t </ul>\r\n\t\t\t\t\t\t<div class=\"checkbox\">\r\n\t\t\t\t\t\t\t<label for=\"problem11\"><input name=\"problem11\" id=\"problem11\" type=\"checkbox\" value=\"Yes\">I can't find what I'm looking for</label>\r\n\t\t\t\t\t\t\t<input name=\"problem11\" type=\"hidden\" value=\"No\">\r\n\t\t\t\t\t\t</div>\r\n\t\t\t\t\t\t<div class=\"checkbox\">\r\n\t\t\t\t\t\t\t<label for=\"problem12\"><input name=\"problem12\" id=\"problem12\" type=\"checkbox\" value=\"Yes\">Other issue not in this list</label>\r\n\t\t\t\t\t\t\t<input name=\"problem12\" type=\"hidden\" value=\"No\">\r\n\t\t\t\t\t\t</div>\t\t\t\t\t\t \t\t\t\t\t\t\t\t\t\t\t\t \r\n\t\t             </fieldset>\r\n\t\t\t\t\t <div>\r\n\t\t\t\t\t   <label for=\"aafc_ranstr\"><span id=\"fbch\"><br>Enter these characters <strong class=\"required\">(required)</strong>: </span><span id=\"ranstr\">U5S</span></label>\r\n\t\t\t           <input name=\"anti-spam-sequence\" id=\"aafc_ranstr\" size=\"4\" maxlength=\"3\" type=\"text\">\r\n\t\t\t\t\t </div>\t\r\n\r\n\t\t\t\t\t <br><input type=\"submit\" class=\"btn btn-primary\" value=\"Submit\">\r\n\t\t\t\t  </form>\r\n\t\t\t\t</div>\r\n\t\t\t</div>\t\t\t\r\n\t\t  </div>\r\n\t\t</div>\r\n\t\t</details>\r\n\t  </div>\r\n\t  <div class=\"wb-share col-sm-4 col-md-3 col-sm-offset-2 col-md-offset-4 col-lg-offset-5\" data-wb-share='{\"lnkClass\": \"btn btn-default btn-block\"}'></div>\r\n\t</div>\r\n\t<dl id=\"wb-dtmd\">\r\n\t  <dt>Date modified: </dt>\r\n\t  <dd><time property=\"dateModified\">2021-01-27</time></dd></dl></div>",
        "fr": "\r\n    \r\n    <!-- MainContentStart -->\r\n    <!-- D&eacute;but du contenu -->\r\n    <section class=\"alert alert-info\">\n<h2>Trouvez des rapports d'information sur les march\u00e9s plus rapidement</h2>\n<p>Consultez des <a class=\"alert-link nowrap\" href=\"?id=1522931721523\">rapports d'information sur les march\u00e9s</a> internationaux des secteurs de l'agriculture, de l'alimentation et des produits de la mer au moyen d'un outil de filtrage dynamique.</p>\n</section>\n\n\n<h2>Rapports par secteur</h2>\n<ul class=\"list-unstyled colcount-md-3\">\n<li><a href=\"?id=1438009430872#additifsetingredients\">Additifs et ingr\u00e9dients</a></li>\n<li><a href=\"?id=1438009430872#alimentsbiologiquesnaturelsetdesante\">Aliments biologiques, naturels et de sant\u00e9</a></li>\n<li><a href=\"?id=1438009430872#alimentsemballes\">Aliments emball\u00e9s</a></li>\n<!--li><a href=\"?id=1438009430872#alimentspourbetailetanimauxdomestiques\">Aliments pour b&eacute;tail et animaux  domestiques</a></li-->\n<li><a href=\"?id=1438009430872#boissons\">Boissons</a></li>\n<li><a href=\"?id=1438009430872#condiments\">Condiments</a></li>\n<li><a href=\"?id=1438009430872#confiseries\">Confiseries</a></li>\n<!--li><a href=\"?id=1438009430872#fruitsetlegumes\">Fruits et l&eacute;gumes</a></li-->\n<!--li><a href=\"?id=1438009430872#grignotines\">Grignotines</a></li-->\n<li><a href=\"?id=1438009430872#legumineusesagrainsetculturesspeciales\">L\u00e9gumineuses \u00e0 grains et cultures  sp\u00e9ciales</a></li>\n<!--li><a href=\"?id=1438009430872#oleagineuxcerealesetgrains\">Ol&eacute;agineux, c&eacute;r&eacute;ales et grains</a></li-->\n<li><a href=\"?id=1438009430872#poissonsetfruitsdemer\">Poissons et fruits de mer</a></li>\n<!--li><a href=\"?id=1438009430872#produitsdeboulangerieetdepatisserie\">Produits de boulangerie et de p&acirc;tisserie</a></li-->\n<!--li><a href=\"?id=1438009430872#produitslaitiers\">Produits laitiers</a></li-->\n<li><a href=\"?id=1438009430872#santeetbienetre\">Sant\u00e9 et mieux-\u00eatre</a></li>\n<!--li><a href=\"?id=1438009430872#siropderabletmiel\">Sirop d'&eacute;rable et miel</a></li-->\n<li><a href=\"?id=1438009430872#viandeetbetail\">Viande et b\u00e9tail</a></li>\n</ul>\n\n<h2>Rapports par march\u00e9</h2>\n<ul class=\"list-unstyled colcount-md-3\">\n<li><a href=\"?id=1438007977672#Europe\">Europe/Union Europ\u00e9enne</a></li>\n<li><a href=\"?id=1438007977672#Pays-baltes\">Pays baltes (Estonie, Lettonie, Lituanie)</a></li>\n<li><a href=\"?id=1438007977672#Allemagne\">Allemagne</a></li>\n<li><a href=\"?id=1438007977672#Belgique\">Belgique </a></li>\n<li><a href=\"?id=1438007977672#Espagne\">Espagne</a></li>\n<li><a href=\"?id=1438007977672#France\">France</a></li>\n<li><a href=\"?id=1438007977672#Italie\">Italie</a></li>\n<li><a href=\"?id=1438007977672#Pays-Bas\">Pays-Bas</a></li>\n<!--li><a href=\"?id=1438007977672#Pologne\">Pologne</a></li-->\n<!--li><a href=\"?id=1438007977672#Portugal\">Portugal</a></li-->\n<li><a href=\"?id=1438007977672#Royaume-Uni\">Royaume-Uni</a></li>\n<!--li><a href=\"?id=1438007977672#Suede\">Su&egrave;de</a></li-->\n</ul>\n\n<h2>Vid\u00e9os sur le commerce des produits agroalimentaires avec l'Europe</h2>\n\n<p>Renseignez-vous rapidement sur les particularit\u00e9s, les tendances et les d\u00e9bouch\u00e9s des principaux march\u00e9s.</p>\n\n<div class=\"row\">\n<div class=\"col-md-4\">\n<p class=\"mrgn-tp-md\"><a href=\"?id=1582302444112\"><img src=\"https://www.agr.gc.ca/resources/prod/Internet-Internet/MISB-DGSIM/ATS-SEA/images/10231/germany-fra.png\" class=\"img-responsive text-center\" alt=\"\">Faire des affaires en Allemagne</a></p>\n</div>\n\n<div class=\"col-md-4\">\n<p class=\"mrgn-tp-md\"><a href=\"?id=1582301441836\"><img src=\"https://www.agr.gc.ca/resources/prod/Internet-Internet/MISB-DGSIM/ATS-SEA/images/10231/austria-fra.png\" class=\"img-responsive text-center\" alt=\"\">Faire des affaires en Autriche</a></p>\n</div>\n\n<div class=\"col-md-4\">\n<p class=\"mrgn-tp-md\"><a href=\"?id=1582301986460\"><img src=\"https://www.agr.gc.ca/resources/prod/Internet-Internet/MISB-DGSIM/ATS-SEA/images/10231/denmark-fra.png\" class=\"img-responsive text-center\" alt=\"\">Faire des affaires au Danemark</a></p>\n</div>\n</div>\n\n<div class=\"row\">\n<div class=\"col-md-4\">\n<p class=\"mrgn-tp-md\"><a href=\"?id=1582302237889\"><img src=\"https://www.agr.gc.ca/resources/prod/Internet-Internet/MISB-DGSIM/ATS-SEA/images/10231/france-fra.png\" class=\"img-responsive text-center\" alt=\"\">Faire des affaires en France</a></p>\n</div>\n\n<div class=\"col-md-4\">\n<p class=\"mrgn-tp-md\"><a href=\"?id=1582302597541\"><img src=\"https://www.agr.gc.ca/resources/prod/Internet-Internet/MISB-DGSIM/ATS-SEA/images/10231/sweden-fra.png\" class=\"img-responsive text-center\" alt=\"\">Faire des affaires en Su\u00e8de</a></p>\n</div>\n\n<div class=\"col-md-4\">\n<p class=\"mrgn-tp-md\"><a href=\"?id=1492616001710\"><img src=\"https://www.agr.gc.ca/resources/prod/Internet-Internet/MISB-DGSIM/ATS-SEA/images/vid-foodtrends-fra.png\" alt=\"\" class=\"img-responsive text-center mrgn-bttm-0\">\nTendances alimentaires en Europe</a></p>\n</div>\n</div>\n\n<div class=\"row\">\n<div class=\"col-md-4\">\n<p class=\"mrgn-tp-md\"><a href=\"?id=1492713260716\"><img src=\"https://www.agr.gc.ca/resources/prod/Internet-Internet/MISB-DGSIM/ATS-SEA/images/vid-labelling2-fra.png\" alt=\"\" class=\"img-responsive text-center mrgn-bttm-0\">\nL'\u00e9tiquetage en Europe</a></p>\n</div>\n\n<div class=\"col-md-4\">\n<p class=\"mrgn-tp-md\"><a href=\"?id=1438022497447\"><img src=\"https://www.agr.gc.ca/resources/prod/Internet-Internet/MISB-DGSIM/ATS-SEA/images/vid-suc-fra.png\" alt=\"\" class=\"img-responsive text-center mrgn-bttm-0\">\nR\u00e9ussir en Europe</a></p>\n</div>\n\n<div class=\"col-md-4\">\n<p class=\"mrgn-tp-md\"><a href=\"?id=1438021279763\"><img src=\"https://www.agr.gc.ca/resources/prod/Internet-Internet/MISB-DGSIM/ATS-SEA/images/vid-opp-fra.png\" alt=\"\" class=\"img-responsive text-center mrgn-bttm-0\">\nOccasion que repr\u00e9sente l'Europe</a></p>\n</div>\n</div>\n\n<h2>Aide  suppl\u00e9mentaire pour les entreprises</h2>\n<dl>\n<dt><a href=\"?id=1438010928703\">AECG entre le Canada et l'UE pour les exportateurs de produits agroalimentaires</a></dt>\n<dd>D\u00e9couvrez en quoi consiste l'AECG et comment il peut faciliter vos exportations de produits agroalimentaires vers l'Union europ\u00e9enne.</dd>\n<dt><a href=\"https://www.deleguescommerciaux.gc.ca/trade_commissioners-delegues_commerciaux/index.aspx?lang=fra\">Le Service des d\u00e9l\u00e9gu\u00e9s commerciaux  du Canada</a></dt>\n<dd>\n<p>D\u00e9couvrez comment le r\u00e9seau de  d\u00e9l\u00e9gu\u00e9s commerciaux du Canada peut aider votre entreprise \u00e0 s'orienter sur les  march\u00e9s internationaux et \u00e0 \u00e9largir ses activit\u00e9s.</p>\n<p>Consultez les profils de march\u00e9s  et les rapports sur les march\u00e9s du Service des d\u00e9l\u00e9gu\u00e9s commerciaux aux liens  suivants\u00a0:</p>\n<ul>\n<li><a href=\"https://www.deleguescommerciaux.gc.ca/sectors-secteurs/agriculture-and-processed-foods-agriculture-et-des-aliments-transformes.aspx?lang=fra&amp;_ga=2.232935574.941185074.1563462390-1655195799.1557946351\">Agriculture et aliments transform\u00e9s</a></li><li><a href=\"https://www.deleguescommerciaux.gc.ca/sectors-secteurs/fish-and-seafood-poissons-et-fruits-de-mer.aspx?lang=fra&amp;_ga=2.238235912.941185074.1563462390-1655195799.1557946351\">Poissons et fruits de mer</a></li>\n<li><a href=\"https://www.deleguescommerciaux.gc.ca/sectors-secteurs/wine-beer-and-spirits-vin-de-la-biere-et-des-spiritueux.aspx?lang=fra&amp;_ga=2.2946232.941185074.1563462390-1655195799.1557946351\">Vins, bi\u00e8re et spiritueux</a></li>\n</ul>\n</dd>\n<dt>Services d'information sur les march\u00e9s</dt>\n<dd>\n<p>Nous offrons des services gratuits aux entreprises agricoles et agroalimentaires canadiennes.</p>\n<ul>\n<li>Pour  demander des renseignements sur les march\u00e9s\u00a0: <a class=\"nowrap\" href=\"mailto:aafc.mas-sam.aac@canada.ca?subject=Services%20et%20analyse%20de%20renseignements%20sur%20les%20march%C3%A9s%20internationaux&amp;body=Veuillez%20nous%20expliquer%20comment%20nous%20pouvons%20r%C3%A9pondre%20%C3%A0%20vos%20besoins%20en%20renseignements%20sur%20les%20march%C3%A9s%20internationaux.&amp;cc=aafc.infoservice.aac@canada.ca\">aafc.mas-sam.aac@canada.ca</a></li>\n<li>Abonnez-vous  pour recevoir les rapports les plus r\u00e9cents par courriel\u00a0: <a class=\"nowrap\" href=\"mailto:aafc.infoservice.aac@canada.ca?subject=Abonnement%20%C3%A0%20InfoService%20pour%20recevoir%20les%20renseignements%20sur%20les%20march%C3%A9s%20internationaux%20&amp;body=Veuillez%20m'ajouter%20%C3%A0%20la%20liste%20de%20diffusion%20des%20courriels%20d'InfoService%20(AAC)%20sur%20les%20march%C3%A9s%20internationaux.\">aafc.infoservice.aac@canada.ca</a></li>\n</ul>\n</dd>\n</dl>\n\r\n    <!-- Fin du contenu -->\r\n\t\r\n\t<div class=\"pagedetails\" id=\"pgft\">\r\n\t\t<div class=\"row\">\r\n\t\t  <div class=\"col-sm-6 col-md-5 col-lg-4\">\r\n\t\t    <details class=\"brdr-0\">\r\n\t\t\t<summary class=\"btn btn-default text-center\" onclick=\"getAntiSpamSeq('/fra/mail-handler/?anti-spam-sequence=true')\">Signaler un probl\u00e8me sur cette page</summary>\r\n\t\t\t<div class=\"well row\">\r\n\t\t\t  <div class=\"gc-rprt-prblm\">\r\n\t\t\t    <div class=\"gc-rprt-prblm-frm gc-rprt-prblm-tggl\">\r\n\t\t\t\t   <form id=\"report_a_problem_form\" action=\"/fra/mail-handler/\" method=\"post\">\r\n\t            \t <input type=\"hidden\" name=\"lang\" value=\"fra\">\r\n\t            \t <input type=\"hidden\" name=\"pageId\" value=\"1438001050127\">\r\n\t            \t <input type=\"hidden\" name=\"pageUrl\" value=\"http://agr.gc.ca/fra/commerce-international/renseignements-sur-les-marches/europe/?id=1438001050127\">\r\n\t\t\t\t\t <div id=\"report_a_problem_form_error\"></div>\r\n\t\t             <fieldset>\t\t\t\t\t    \r\n\t\t                <legend><span class=\"field-name\">Veuillez cocher toutes les r\u00e9ponses pertinentes\u00a0:</span></legend>\r\n\t\t                 <div class=\"checkbox\">\r\n\t\t                    <label for=\"problem1\"><input name=\"problem1\" id=\"problem1\" type=\"checkbox\" value=\"Yes\">Un lien, un bouton ou une vid\u00e9o ne fonctionne pas</label>\r\n\t\t                    <input name=\"problem1\" type=\"hidden\" value=\"No\">\r\n\t\t                </div>\r\n\t\t                <div class=\"checkbox\">\r\n\t\t                    <label for=\"problem2\"><input name=\"problem2\" id=\"problem2\" type=\"checkbox\" value=\"Yes\">Il y a une erreur d'orthographe ou de grammaire</label>\r\n\t\t                    <input name=\"problem2\" type=\"hidden\" value=\"No\">\r\n\t\t                </div>\r\n\t\t   \t\t\t\t <div class=\"checkbox\">\r\n\t\t                    <label for=\"problem3\"><input name=\"problem3\" id=\"problem3\" type=\"checkbox\" value=\"Yes\">Les renseignements sont incomplets</label>\r\n\t\t                    <input name=\"problem3\" type=\"hidden\" value=\"No\">\r\n\t\t                </div>\r\n\t\t             \t\t<div class=\"checkbox\">\r\n\t\t                    <label for=\"problem4\"><input name=\"problem4\" id=\"problem4\" type=\"checkbox\" value=\"Yes\">L'information n'est plus \u00e0 jour ou est erron\u00e9e</label>\r\n\t\t                    <input name=\"problem4\" type=\"hidden\" value=\"No\">\r\n\t\t                </div>\t\t\t\t\t\t\r\n\t\t\t\t\t\t<div class=\"checkbox\">\r\n\t\t\t\t\t\t\t<label for=\"problem5\"><input name=\"problem5\" id=\"problem5\" type=\"checkbox\" value=\"Yes\">Message d'erreur \u00e0 l'ouverture de la session lorsque je tente d'acc\u00e9der \u00e0 un compte (ex. Mon dossier Service Canada)</label>\r\n\t\t\t\t\t\t\t<input name=\"problem5\" type=\"hidden\" value=\"No\">\r\n\t\t\t\t\t\t</div>\r\n\t\t\t\t\t\t\t<ul>\r\n\t\t\t\t\t\t\t<li class=\"checkbox\">\r\n\t\t\t\t\t\t\t\t<label for=\"problem6a\"><input name=\"problem6\" id=\"problem6a\" type=\"checkbox\" value=\"Yes\">Acc\u00e8s Cl\u00e9GC</label>\r\n\t\t\t\t\t\t\t\t<input name=\"problem6\" type=\"hidden\" value=\"No\">\r\n\t\t\t\t\t\t\t </li>\r\n\t\t\t\t\t\t\t<li class=\"checkbox\">\r\n\t\t\t\t\t\t\t\t<label for=\"problem7\"><input name=\"problem7\" id=\"problem7\" type=\"checkbox\" value=\"Yes\">Acc\u00e8s SecureKey Service de Concierge (justificatifs d'identit\u00e9 bancaires)</label>\r\n\t\t\t\t\t\t\t\t<input name=\"problem7\" type=\"hidden\" value=\"No\">\r\n\t\t\t\t\t\t\t </li>\r\n\t\t\t\t\t\t\t<li class=\"checkbox\">\r\n\t\t\t\t\t\t\t\t<label for=\"problem8\"><input name=\"problem8\" id=\"problem8\" type=\"checkbox\" value=\"Yes\">Probl\u00e8me avec le Code d'acc\u00e8s personnel (CAP) ou avec le Code d'acc\u00e8s (CA) de l'assurance emploi</label>\r\n\t\t\t\t\t\t\t\t<input name=\"problem8\" type=\"hidden\" value=\"No\">\r\n\t\t\t\t\t\t\t </li>\t\r\n\t\t\t\t\t\t\t<li class=\"checkbox\">\r\n\t\t\t\t\t\t\t\t<label for=\"problem9\"><input name=\"problem9\" id=\"problem9\" type=\"checkbox\" value=\"Yes\">Probl\u00e8me li\u00e9 \u00e0 la validation du num\u00e9ro d'assurance sociale (NAS)</label>\r\n\t\t\t\t\t\t\t\t<input name=\"problem9\" type=\"hidden\" value=\"No\">\r\n\t\t\t\t\t\t\t </li>\t\t\t\t\t\t\t\t\r\n\t\t\t\t\t\t\t<li class=\"checkbox\">\r\n\t\t\t\t\t\t\t\t<label for=\"problem10\"><input name=\"problem10\" id=\"problem10\" type=\"checkbox\" value=\"Yes\">Autre erreur lors de l'ouverture de session qui ne figure pas sur cette liste</label>\r\n\t\t\t\t\t\t\t\t<input name=\"problem10\" type=\"hidden\" value=\"No\">\r\n\t\t\t\t\t\t\t </li>\t\t \r\n\t\t\t\t\t\t\t </ul>\r\n\t\t\t\t\t\t<div class=\"checkbox\">\r\n\t\t\t\t\t\t\t<label for=\"problem11\"><input name=\"problem11\" id=\"problem11\" type=\"checkbox\" value=\"Yes\">Je n'arrive pas \u00e0 trouver ce que je cherche</label>\r\n\t\t\t\t\t\t\t<input name=\"problem11\" type=\"hidden\" value=\"No\">\r\n\t\t\t\t\t\t</div>\r\n\t\t\t\t\t\t<div class=\"checkbox\">\r\n\t\t\t\t\t\t\t<label for=\"problem12\"><input name=\"problem12\" id=\"problem12\" type=\"checkbox\" value=\"Yes\">Autre probl\u00e8me qui ne figure pas sur cette liste</label>\r\n\t\t\t\t\t\t\t<input name=\"problem12\" type=\"hidden\" value=\"No\">\r\n\t\t\t\t\t\t</div>\t\t\t\t\t\t\t\t\t\t\t\t\t\t\t\t\t\t\t\r\n\t\t             </fieldset>\r\n\t\t\t\t\t <div>\r\n\t\t\t\t        <label for=\"aafc_ranstr\"><span id=\"fbch\">Veuillez inscrire les caract\u00e8res suivants  <strong class=\"required\">(obligatoire)</strong>\u00a0: </span><span id=\"ranstr\">XXX</span></label>\r\n\t\t\t            <input name=\"anti-spam-sequence\" id=\"aafc_ranstr\" size=\"4\" maxlength=\"3\" type=\"text\">\r\n\t\t\t\t\t </div>\r\n\t\t\t\t\t <input type=\"submit\" class=\"btn btn-primary\" value=\"Soumettre\">\r\n\t\t\t\t  </form>\r\n\t\t\t\t</div>\r\n\t\t\t  </div>\r\n\t\t\t</div>\r\n\t\t</details>\r\n\t    </div>\r\n\t  <div class=\"wb-share col-sm-4 col-md-3 col-sm-offset-2 col-md-offset-4 col-lg-offset-5\" data-wb-share='{\"lnkClass\": \"btn btn-default btn-block\"}'></div>\r\n\t  </div>\r\n\t  <dl id=\"wb-dtmd\">\r\n\t    <dt>Date de modification\u00a0: </dt>\r\n\t      <dd><time property=\"dateModified\">2021-01-27</time></dd>\r\n\t  </dl>\r\n\t</div>\r\n\t\r\n  "
    }
}