{
    "dcr_id": "1463575104513",
    "title": {
        "en": "Canadian Drought Monitor",
        "fr": "Outil de surveillance des s\u00e9cheresses au Canada"
    },
    "modified": "2020-12-07",
    "issued": "2016-06-17",
    "templatetype": "content page 1 column",
    "page_type": "1",
    "node_id": "1463687205957",
    "dc_date_created": "2016-06-17",
    "managing_branch": "PAB",
    "parent_node_id": "1463686976184",
    "label": {
        "en": "Canadian Drought Monitor",
        "fr": "Outil de surveillance des s\u00e9cheresses au Canada"
    },
    "exturl": "",
    "teamsite_location": {
        "en": "/default/main/AAFC-AAC/Internet-Internet/Group-Ensemble/ProgServ-ProgServ/WORKAREA/ProgServ-ProgServ/templatedata/comm-comm/gene-gene/data/05/canadian_drought_monitor_1463575104513_en",
        "fr": "/default/main/AAFC-AAC/Internet-Internet/Group-Ensemble/ProgServ-ProgServ/WORKAREA/ProgServ-ProgServ/templatedata/comm-comm/gene-gene/data/05/canadian_drought_monitor_1463575104513_fr"
    },
    "type_name": "sitemapinit",
    "has_dcr_id": true,
    "breadcrumb": {
        "en": "Canadian Drought Monitor",
        "fr": "Outil de surveillance des s\u00e9cheresses au Canada"
    },
    "layout_name": "content page 1 column",
    "lang": "en",
    "meta": {
        "issued": {
            "en": "2016-06-17",
            "fr": "2016-06-17"
        },
        "modified": {
            "en": "2021-02-09",
            "fr": "2021-02-09"
        },
        "format": {
            "en": "text/html",
            "fr": "text/html"
        },
        "title": {
            "en": "Canadian Drought Monitor",
            "fr": "Outil de surveillance des s\u00e9cheresses au Canada"
        },
        "subject": {
            "en": "architecture;climate change;taxes",
            "fr": "\u00e9conomie;commerce ext\u00e9rieur;\u00e9conomie agricole"
        },
        "description": {
            "en": "DW-GS Drought Watch canadian_drought_monitor Canadian Drought Monitor. showing the extent and intensity of drought across Canada;Learn. Orange \u2013 D2 \u2013 severe drought.",
            "fr": "DW-GS Guetter la s\u00e9cheresse L'Outil de surveillance de s\u00e9cheresses au Canada. l\u2019Application de surveillance des s\u00e9cheresses au Canada. liens\u00a0de l\u2019Outil de surveillance des s\u00e9cheresses au Canada."
        },
        "language": {
            "en": "eng",
            "fr": "fra"
        },
        "keywords": {
            "en": "DW-GS Drought Watch;spatial extent and intensity of drought;Drought Monitor",
            "fr": "DW-GS Guetter;Servicio Meteorol\u00f3gico Nacional"
        },
        "audience": {
            "en": "gcaudience",
            "fr": "gcaudience"
        },
        "type": {
            "en": "presentation",
            "fr": "\u00e9valuation"
        },
        "creator": {
            "en": "Agriculture and Agri-Food Canada;Government of Canada",
            "fr": "Agriculture et Agroalimentaire Canada;Gouvernement du Canada"
        },
        "spatial": {
            "en": "gcregions",
            "fr": "gcregions"
        },
        "service": {
            "en": "AAFC-AAC",
            "fr": "AAFC-AAC"
        },
        "accessRights": {
            "en": "2",
            "fr": "2"
        },
        "legalName": {
            "en": "agriculture_and_agri_food_canada",
            "fr": "agriculture_et_agroalimentaire_canada"
        },
        "areaServed": {
            "en": "Canada",
            "fr": "Canada"
        }
    },
    "body": {
        "en": "tart --&gt;\r\n    <!-- D&eacute;but du contenu -->\r\n    <script src=\"/atlas/API/js/embeddedMap_1.3.js\" defer></script>\n\n       <p>The Canadian Drought Monitor (CDM) is Canada's official source for the  monitoring and reporting of drought in Canada. From this page you can access a  variety of products and information about current drought conditions across the  country.</p>\n\n\n<figure>\n<figcaption>Drought conditions as of January 31, 2021</figcaption>\n<div class=\"map\" id=\"basicMapDiv1\" data-maptype=\"webmap\" data-extent=\"-15705307,4617349,-6332293,8530924\" data-spatialreference=\"102100\" data-webmapid=\"acf67a8c31004b86805b7ce8e902e1d3\" data-serviceurl=\"//aafc.maps.arcgis.com/sharing/rest/content/items\"></div>\n</figure>\n\n\n<img src=\"https://www.agr.gc.ca/resources/prod/img/cdm_legend_en.png\" class=\"img-responsive\" alt=\"Legend associating colours with the severity of drought conditions from no drought to extreme drought.\">\n\n<p class=\"mrgn-bttm-lg\"><a href=\"http://www.agr.gc.ca/atlas/maps_cartes/canadianDroughtMonitor/monthlyAssessments/en/2021/cdm_2101_mn_en.pdf\">Download a high resolution map and narrative (PDF Version, 2.5 MB)</a> suitable for printing</p> \n\n<div class=\"clearfix\"></div>\n\n<div class=\"row\">\n  <div class=\"col-sm-6 mrgn-tp-lg\">\n  <p><a href=\"https://maps.canada.ca/journal/content-en.html?lang=en&amp;appid=89f8bc50a9054acf9eb0508746db9e35&amp;appidalt=b26adf7f41734a2689aeabdedd3dc6d9\">Current Drought Conditions</a><br>\n    View an interactive map of current drought conditions across the country. Explore maps and narratives describing the drought conditions in each region of Canada.\n  </p></div>\n    \n<div class=\"col-sm-6 mrgn-tp-lg\">\n<p><a href=\"?id=1518202702307\">Drought analysis</a><br>\nVisualize drought across Canada using a number of analysis tools including animations, side by side map comparisons, and change maps.\n  </p></div>\n  \n\n</div>\n\n\n<div class=\"row\">\n\n<div class=\"col-sm-6\">\n<p><a href=\"/atlas/agpv?webmap-en=4866d8ab04434d9d873cd4189a2c8c2f&amp;webmap-fr=3543e971c06447a49892d19aa1e5dd80\">Canadian Drought Monitor application</a><br>\nUse the interactive application to explore and visualize drought conditions across Canada. Users are also able to add their own data to the application.\n</p></div>\n\n  \n  <div class=\"col-sm-6\">\n  <p><a href=\"//open.canada.ca/data/en/dataset/292646cd-619f-4200-afb1-8b2c52f984a2\">Historic drought maps and data (Open Data)</a><br>\n  Browse through historic drought data and downloadable monthly maps showing the extent and intensity of drought across Canada.\n  </p></div>\n</div>\n\n<div class=\"row\">\n  <div class=\"col-sm-6\">\n<p><a href=\"?id=1463576995558\">About the Canadian Drought Monitor</a><br>\nLearn about the CDM and how drought is classified. Explore links to Canada's partners in continental drought monitoring.</p></div>\n  <div class=\"col-sm-6\"></div>\n</div>\n \n \n\r\n    <!-- Fin du contenu -->\r\n  \r\n  <div class=\"pagedetails\" id=\"pgft\">\r\n    <div class=\"row\">\r\n\t  <div class=\"col-sm-6 col-md-5 col-lg-4\">\r\n\t    <details class=\"brdr-0\">\r\n\t\t<summary class=\"btn btn-default text-center\" onclick=\"getAntiSpamSeq('/eng/mail-handler/?anti-spam-sequence=true')\">Report a problem on this page</summary>\r\n\t\t<div class=\"clearfix\"></div>\r\n\t\t<div class=\"well row\">\r\n\t\t<div>\r\n\t\t  <div class=\"gc-rprt-prblm\">\r\n\t\t    <div class=\"gc-rprt-prblm-frm gc-rprt-prblm-tggl\">\r\n\t\t\t  \r\n\t\t\t<form id=\"report_a_problem_form\" action=\"/eng/mail-handler/#report_a_problem_form\" method=\"post\">\t\t\t\t   \t\t\t\r\n\r\n\t            \t <input type=\"hidden\" name=\"lang\" value=\"eng\">\r\n\t            \t <input type=\"hidden\" name=\"pageId\" value=\"1463575104513\">\r\n\t            \t <input type=\"hidden\" name=\"pageUrl\" value=\"http://agr.gc.ca/eng/agriculture-and-the-environment/drought-watch/canadian-drought-monitor/?id=1463575104513\">\r\n\t\t\t\t\t <div id=\"report_a_problem_form_error\"></div>\r\n\t\t             <fieldset>\t\t\t\t\t    \r\n\t\t                <legend><span class=\"field-name\">Please select all that apply:</span></legend>\t\t                                 \r\n\t\t\t\t\t\t<div class=\"checkbox\">\r\n\t\t\t\t\t\t\t<label for=\"problem1\"><input name=\"problem1\" id=\"problem1\" type=\"checkbox\" value=\"Yes\">A link, button or video is not working</label>\r\n\t\t\t\t\t\t\t<input name=\"problem1\" type=\"hidden\" value=\"No\">\r\n\t\t\t\t\t\t</div>\r\n\t\t\t\t\t\t<div class=\"checkbox\">\r\n\t\t\t\t\t\t\t<label for=\"problem2\"><input name=\"problem2\" id=\"problem2\" type=\"checkbox\" value=\"Yes\">It has a spelling mistake</label>\r\n\t\t\t\t\t\t\t<input name=\"problem2\" type=\"hidden\" value=\"No\">\r\n\t\t\t\t\t\t</div>\r\n\t\t\t\t\t\t<div class=\"checkbox\">\r\n\t\t\t\t\t\t\t<label for=\"problem3\"><input name=\"problem3\" id=\"problem3\" type=\"checkbox\" value=\"Yes\">Information is missing</label>\r\n\t\t\t\t\t\t\t<input name=\"problem3\" type=\"hidden\" value=\"No\">\r\n\t\t\t\t\t   </div>\r\n\t\t\t\t\t\t<div class=\"checkbox\">\r\n\t\t\t\t\t\t\t<label for=\"problem4\"><input name=\"problem4\" id=\"problem4\" type=\"checkbox\" value=\"Yes\">Information is outdated or wrong</label>\r\n\t\t\t\t\t\t\t<input name=\"problem4\" type=\"hidden\" value=\"No\">\r\n\t\t\t\t\t\t</div>\r\n\t\t\t\t\t\t<div class=\"checkbox\">\r\n\t\t\t\t\t\t\t<label for=\"problem5\"><input name=\"problem5\" id=\"problem5\" type=\"checkbox\" value=\"Yes\">Login error when trying to access an account (e.g. My Service Canada Account)</label>\r\n\t\t\t\t\t\t\t<input name=\"problem5\" type=\"hidden\" value=\"No\">\r\n\t\t\t\t\t\t</div>\r\n\t\t\t\t\t\t\t<ul>\r\n\t\t\t\t\t\t\t<li class=\"checkbox\">\r\n\t\t\t\t\t\t\t\t<label for=\"problem6a\"><input name=\"problem6\" id=\"problem6a\" type=\"checkbox\" value=\"Yes\">GC Key access</label>\r\n\t\t\t\t\t\t\t\t<input name=\"problem6\" type=\"hidden\" value=\"No\">\r\n\t\t\t\t\t\t\t </li>\r\n\t\t\t\t\t\t\t<li class=\"checkbox\">\r\n\t\t\t\t\t\t\t\t<label for=\"problem7\"><input name=\"problem7\" id=\"problem7\" type=\"checkbox\" value=\"Yes\">SecureKey Concierge (Banking Credential) access </label>\r\n\t\t\t\t\t\t\t\t<input name=\"problem7\" type=\"hidden\" value=\"No\">\r\n\t\t\t\t\t\t\t </li>\r\n\t\t\t\t\t\t\t<li class=\"checkbox\">\r\n\t\t\t\t\t\t\t\t<label for=\"problem8\"><input name=\"problem8\" id=\"problem8\" type=\"checkbox\" value=\"Yes\">Personal Access Code (PAC) problems or EI Access Code (AC) problems</label>\r\n\t\t\t\t\t\t\t\t<input name=\"problem8\" type=\"hidden\" value=\"No\">\r\n\t\t\t\t\t\t\t </li>\t\r\n\t\t\t\t\t\t\t<li class=\"checkbox\">\r\n\t\t\t\t\t\t\t\t<label for=\"problem9\"><input name=\"problem9\" id=\"problem9\" type=\"checkbox\" value=\"Yes\">Social Insurance Number (SIN) validation problems</label>\r\n\t\t\t\t\t\t\t\t<input name=\"problem9\" type=\"hidden\" value=\"No\">\r\n\t\t\t\t\t\t\t </li>\t\t\t\t\t\t\t\t\r\n\t\t\t\t\t\t\t<li class=\"checkbox\">\r\n\t\t\t\t\t\t\t\t<label for=\"problem10\"><input name=\"problem10\" id=\"problem10\" type=\"checkbox\" value=\"Yes\">Other login error not in this list</label>\r\n\t\t\t\t\t\t\t\t<input name=\"problem10\" type=\"hidden\" value=\"No\">\r\n\t\t\t\t\t\t\t </li>\t\t \r\n\t\t\t\t\t\t\t </ul>\r\n\t\t\t\t\t\t<div class=\"checkbox\">\r\n\t\t\t\t\t\t\t<label for=\"problem11\"><input name=\"problem11\" id=\"problem11\" type=\"checkbox\" value=\"Yes\">I can't find what I'm looking for</label>\r\n\t\t\t\t\t\t\t<input name=\"problem11\" type=\"hidden\" value=\"No\">\r\n\t\t\t\t\t\t</div>\r\n\t\t\t\t\t\t<div class=\"checkbox\">\r\n\t\t\t\t\t\t\t<label for=\"problem12\"><input name=\"problem12\" id=\"problem12\" type=\"checkbox\" value=\"Yes\">Other issue not in this list</label>\r\n\t\t\t\t\t\t\t<input name=\"problem12\" type=\"hidden\" value=\"No\">\r\n\t\t\t\t\t\t</div>\t\t\t\t\t\t \t\t\t\t\t\t\t\t\t\t\t\t \r\n\t\t             </fieldset>\r\n\t\t\t\t\t <div>\r\n\t\t\t\t\t   <label for=\"aafc_ranstr\"><span id=\"fbch\"><br>Enter these characters <strong class=\"required\">(required)</strong>: </span><span id=\"ranstr\">U5S</span></label>\r\n\t\t\t           <input name=\"anti-spam-sequence\" id=\"aafc_ranstr\" size=\"4\" maxlength=\"3\" type=\"text\">\r\n\t\t\t\t\t </div>\t\r\n\r\n\t\t\t\t\t <br><input type=\"submit\" class=\"btn btn-primary\" value=\"Submit\">\r\n\t\t\t\t  </form>\r\n\t\t\t\t</div>\r\n\t\t\t</div>\t\t\t\r\n\t\t  </div>\r\n\t\t</div>\r\n\t\t</details>\r\n\t  </div>\r\n\t  <div class=\"wb-share col-sm-4 col-md-3 col-sm-offset-2 col-md-offset-4 col-lg-offset-5\" data-wb-share='{\"lnkClass\": \"btn btn-default btn-block\"}'></div>\r\n\t</div>\r\n\t<dl id=\"wb-dtmd\">\r\n\t  <dt>Date modified: </dt>\r\n\t  <dd><time property=\"dateModified\">2021-02-09</time></dd></dl></div>",
        "fr": "\r\n    \r\n    <!-- MainContentStart -->\r\n    <!-- D&eacute;but du contenu -->\r\n    <script src=\"/atlas/API/js/embeddedMap_1.3.js\" defer></script>\n\n<p>L'Outil de surveillance des s\u00e9cheresses au Canada (OSSC) est la source officielle pour la surveillance et le signalement des s\u00e9cheresses au pays. Dans cette page, vous pouvez avoir acc\u00e8s \u00e0 divers produits et renseignements sur les conditions de s\u00e9cheresse actuelles dans les diverses r\u00e9gions du pays.</p>\n\n<figure>\n<figcaption>Conditions de s\u00e9cheresse au 31 janvier 2021</figcaption>\n\n<div class=\"map\" id=\"basicMapDiv1\" data-maptype=\"webmap\" data-extent=\"-15705307,4617349,-6332293,8530924\" data-spatialreference=\"102100\" data-webmapid=\"23283d939e39431fb3c34959e895a60f\" data-serviceurl=\"//aafc.maps.arcgis.com/sharing/rest/content/items\"></div>\n</figure>\n\n<img src=\"http://multimedia.agr.gc.ca/pack/img/cdm_legend-fra.png\" class=\"img-responsive\" alt=\"L\u00e9gende qui associe des couleurs \u00e0 la gravit\u00e9 des conditions de s\u00e9cheresse allant de s\u00e9cheresse inexistante \u00e0 s\u00e9cheresse extr\u00eame.\">\n\n<!--AAFCTag type=\"img\" path=\"img/cdm_legend_fr.png\" alt=\"L&eacute;gende qui associe des couleurs &agrave; la gravit&eacute; des conditions de s&eacute;cheresse allant de s&eacute;cheresse inexistante &agrave; s&eacute;cheresse extr&ecirc;me.\"></AAFCTag-->\n\n<p class=\"mrgn-bttm-lg\"><a href=\"http://www.agr.gc.ca/atlas/maps_cartes/canadianDroughtMonitor/monthlyAssessments/fr/2021/cdm_2101_mn_fr.pdf\">T\u00e9l\u00e9charger une carte et un r\u00e9cit \u00e0 haute resolution (Version PDF, 2,5 Mo)</a> convient pour l'impression</p>\n\n<div class=\"clearfix\"></div>\n\n<div class=\"row\">\n  <div class=\"col-md-6 mrgn-tp-lg\">\n  <p><a href=\"https://cartes.canada.ca/journal/content-fr.html?lang=fr&amp;appid=b26adf7f41734a2689aeabdedd3dc6d9&amp;appidalt=89f8bc50a9054acf9eb0508746db9e35\">Conditions de s\u00e9cheresse actuelles</a><br>\n  Consultez une carte interactive des conditions de s\u00e9cheresse actuelles \u00e0 l'\u00e9chelle du pays. Lisez les descriptions des conditions de s\u00e9cheresse dans chaque r\u00e9gion du Canada.</p></div>\n     \n<div class=\"col-md-6 mrgn-tp-lg\">\n<p><a href=\"?id=1518202702307\">Analyse des s\u00e9cheresses</a><br>\nVisualisez la s\u00e9cheresse dans tout le Canada au moyen d'outils d'analyse, notamment des animations, des comparaisons de cartes c\u00f4te \u00e0 c\u00f4te, des statistiques ainsi que des graphiques.</p></div>\n  \n</div>\n\n<div class=\"row\">\n\n<div class=\"col-md-6\">\n<p><a href=\"/atlas/agpv?lang=fr&amp;webmap-en=4866d8ab04434d9d873cd4189a2c8c2f&amp;webmap-fr=3543e971c06447a49892d19aa1e5dd80\">Application de Surveillance des s\u00e9cheresses au Canada</a><br>\nUtilisez l'application interactive pour explorer et visualiser les conditions de s\u00e9cheresse au Canada. Les utilisateurs peuvent \u00e9galement ajouter leurs propres donn\u00e9es \u00e0 l'application.</p></div>\n\n  <div class=\"col-md-6\">\n  <p><a href=\"//ouvert.canada.ca/data/fr/dataset/292646cd-619f-4200-afb1-8b2c52f984a2\">Cartes et donn\u00e9es de s\u00e9cheresse historiques (Donn\u00e9es ouvertes)</a><br>\nConsultez les donn\u00e9es historiques sur les s\u00e9cheresses et les cartes mensuelles t\u00e9l\u00e9chargeables indiquant l'\u00e9tendue et l'intensit\u00e9 des s\u00e9cheresses au Canada.</p></div>\n</div>\n\n<div class=\"row\">\n<div class=\"col-md-6\">\n<p><a href=\"?id=1463576995558\">\u00c0 propos de l'Outil de surveillance des s\u00e9cheresses au Canada</a><br>\nApprenez \u00e0 conna\u00eetre l'OSSC et voyez de quelle fa\u00e7on les s\u00e9cheresses sont class\u00e9es. Explorez les liens vers les partenaires du Canada dans le cadre du suivi des s\u00e9cheresses continentales.</p>\n </div>\n<div class=\"col-md-6\"></div>\n</div> \n\r\n    <!-- Fin du contenu -->\r\n\t\r\n\t<div class=\"pagedetails\" id=\"pgft\">\r\n\t\t<div class=\"row\">\r\n\t\t  <div class=\"col-sm-6 col-md-5 col-lg-4\">\r\n\t\t    <details class=\"brdr-0\">\r\n\t\t\t<summary class=\"btn btn-default text-center\" onclick=\"getAntiSpamSeq('/fra/mail-handler/?anti-spam-sequence=true')\">Signaler un probl\u00e8me sur cette page</summary>\r\n\t\t\t<div class=\"well row\">\r\n\t\t\t  <div class=\"gc-rprt-prblm\">\r\n\t\t\t    <div class=\"gc-rprt-prblm-frm gc-rprt-prblm-tggl\">\r\n\t\t\t\t   <form id=\"report_a_problem_form\" action=\"/fra/mail-handler/\" method=\"post\">\r\n\t            \t <input type=\"hidden\" name=\"lang\" value=\"fra\">\r\n\t            \t <input type=\"hidden\" name=\"pageId\" value=\"1463575104513\">\r\n\t            \t <input type=\"hidden\" name=\"pageUrl\" value=\"http://agr.gc.ca/fra/agriculture-et-environnement/guetter-la-secheresse/outil-de-surveillance-des-secheresses-au-canada/?id=1463575104513\">\r\n\t\t\t\t\t <div id=\"report_a_problem_form_error\"></div>\r\n\t\t             <fieldset>\t\t\t\t\t    \r\n\t\t                <legend><span class=\"field-name\">Veuillez cocher toutes les r\u00e9ponses pertinentes\u00a0:</span></legend>\r\n\t\t                 <div class=\"checkbox\">\r\n\t\t                    <label for=\"problem1\"><input name=\"problem1\" id=\"problem1\" type=\"checkbox\" value=\"Yes\">Un lien, un bouton ou une vid\u00e9o ne fonctionne pas</label>\r\n\t\t                    <input name=\"problem1\" type=\"hidden\" value=\"No\">\r\n\t\t                </div>\r\n\t\t                <div class=\"checkbox\">\r\n\t\t                    <label for=\"problem2\"><input name=\"problem2\" id=\"problem2\" type=\"checkbox\" value=\"Yes\">Il y a une erreur d'orthographe ou de grammaire</label>\r\n\t\t                    <input name=\"problem2\" type=\"hidden\" value=\"No\">\r\n\t\t                </div>\r\n\t\t   \t\t\t\t <div class=\"checkbox\">\r\n\t\t                    <label for=\"problem3\"><input name=\"problem3\" id=\"problem3\" type=\"checkbox\" value=\"Yes\">Les renseignements sont incomplets</label>\r\n\t\t                    <input name=\"problem3\" type=\"hidden\" value=\"No\">\r\n\t\t                </div>\r\n\t\t             \t\t<div class=\"checkbox\">\r\n\t\t                    <label for=\"problem4\"><input name=\"problem4\" id=\"problem4\" type=\"checkbox\" value=\"Yes\">L'information n'est plus \u00e0 jour ou est erron\u00e9e</label>\r\n\t\t                    <input name=\"problem4\" type=\"hidden\" value=\"No\">\r\n\t\t                </div>\t\t\t\t\t\t\r\n\t\t\t\t\t\t<div class=\"checkbox\">\r\n\t\t\t\t\t\t\t<label for=\"problem5\"><input name=\"problem5\" id=\"problem5\" type=\"checkbox\" value=\"Yes\">Message d'erreur \u00e0 l'ouverture de la session lorsque je tente d'acc\u00e9der \u00e0 un compte (ex. Mon dossier Service Canada)</label>\r\n\t\t\t\t\t\t\t<input name=\"problem5\" type=\"hidden\" value=\"No\">\r\n\t\t\t\t\t\t</div>\r\n\t\t\t\t\t\t\t<ul>\r\n\t\t\t\t\t\t\t<li class=\"checkbox\">\r\n\t\t\t\t\t\t\t\t<label for=\"problem6a\"><input name=\"problem6\" id=\"problem6a\" type=\"checkbox\" value=\"Yes\">Acc\u00e8s Cl\u00e9GC</label>\r\n\t\t\t\t\t\t\t\t<input name=\"problem6\" type=\"hidden\" value=\"No\">\r\n\t\t\t\t\t\t\t </li>\r\n\t\t\t\t\t\t\t<li class=\"checkbox\">\r\n\t\t\t\t\t\t\t\t<label for=\"problem7\"><input name=\"problem7\" id=\"problem7\" type=\"checkbox\" value=\"Yes\">Acc\u00e8s SecureKey Service de Concierge (justificatifs d'identit\u00e9 bancaires)</label>\r\n\t\t\t\t\t\t\t\t<input name=\"problem7\" type=\"hidden\" value=\"No\">\r\n\t\t\t\t\t\t\t </li>\r\n\t\t\t\t\t\t\t<li class=\"checkbox\">\r\n\t\t\t\t\t\t\t\t<label for=\"problem8\"><input name=\"problem8\" id=\"problem8\" type=\"checkbox\" value=\"Yes\">Probl\u00e8me avec le Code d'acc\u00e8s personnel (CAP) ou avec le Code d'acc\u00e8s (CA) de l'assurance emploi</label>\r\n\t\t\t\t\t\t\t\t<input name=\"problem8\" type=\"hidden\" value=\"No\">\r\n\t\t\t\t\t\t\t </li>\t\r\n\t\t\t\t\t\t\t<li class=\"checkbox\">\r\n\t\t\t\t\t\t\t\t<label for=\"problem9\"><input name=\"problem9\" id=\"problem9\" type=\"checkbox\" value=\"Yes\">Probl\u00e8me li\u00e9 \u00e0 la validation du num\u00e9ro d'assurance sociale (NAS)</label>\r\n\t\t\t\t\t\t\t\t<input name=\"problem9\" type=\"hidden\" value=\"No\">\r\n\t\t\t\t\t\t\t </li>\t\t\t\t\t\t\t\t\r\n\t\t\t\t\t\t\t<li class=\"checkbox\">\r\n\t\t\t\t\t\t\t\t<label for=\"problem10\"><input name=\"problem10\" id=\"problem10\" type=\"checkbox\" value=\"Yes\">Autre erreur lors de l'ouverture de session qui ne figure pas sur cette liste</label>\r\n\t\t\t\t\t\t\t\t<input name=\"problem10\" type=\"hidden\" value=\"No\">\r\n\t\t\t\t\t\t\t </li>\t\t \r\n\t\t\t\t\t\t\t </ul>\r\n\t\t\t\t\t\t<div class=\"checkbox\">\r\n\t\t\t\t\t\t\t<label for=\"problem11\"><input name=\"problem11\" id=\"problem11\" type=\"checkbox\" value=\"Yes\">Je n'arrive pas \u00e0 trouver ce que je cherche</label>\r\n\t\t\t\t\t\t\t<input name=\"problem11\" type=\"hidden\" value=\"No\">\r\n\t\t\t\t\t\t</div>\r\n\t\t\t\t\t\t<div class=\"checkbox\">\r\n\t\t\t\t\t\t\t<label for=\"problem12\"><input name=\"problem12\" id=\"problem12\" type=\"checkbox\" value=\"Yes\">Autre probl\u00e8me qui ne figure pas sur cette liste</label>\r\n\t\t\t\t\t\t\t<input name=\"problem12\" type=\"hidden\" value=\"No\">\r\n\t\t\t\t\t\t</div>\t\t\t\t\t\t\t\t\t\t\t\t\t\t\t\t\t\t\t\r\n\t\t             </fieldset>\r\n\t\t\t\t\t <div>\r\n\t\t\t\t        <label for=\"aafc_ranstr\"><span id=\"fbch\">Veuillez inscrire les caract\u00e8res suivants  <strong class=\"required\">(obligatoire)</strong>\u00a0: </span><span id=\"ranstr\">XXX</span></label>\r\n\t\t\t            <input name=\"anti-spam-sequence\" id=\"aafc_ranstr\" size=\"4\" maxlength=\"3\" type=\"text\">\r\n\t\t\t\t\t </div>\r\n\t\t\t\t\t <input type=\"submit\" class=\"btn btn-primary\" value=\"Soumettre\">\r\n\t\t\t\t  </form>\r\n\t\t\t\t</div>\r\n\t\t\t  </div>\r\n\t\t\t</div>\r\n\t\t</details>\r\n\t    </div>\r\n\t  <div class=\"wb-share col-sm-4 col-md-3 col-sm-offset-2 col-md-offset-4 col-lg-offset-5\" data-wb-share='{\"lnkClass\": \"btn btn-default btn-block\"}'></div>\r\n\t  </div>\r\n\t  <dl id=\"wb-dtmd\">\r\n\t    <dt>Date de modification\u00a0: </dt>\r\n\t      <dd><time property=\"dateModified\">2021-02-09</time></dd>\r\n\t  </dl>\r\n\t</div>\r\n\t\r\n  "
    }
}