{
    "dcr_id": "1491935919994",
    "title": {
        "en": "Dairy Farm Investment Program",
        "fr": "Programme d'investissement pour fermes laiti\u00e8res"
    },
    "modified": "2020-02-21",
    "issued": "2017-08-01",
    "templatetype": "content page 1 column",
    "page_type": "1",
    "node_id": "1494340617522",
    "dc_date_created": "2017-08-01",
    "managing_branch": "PAB",
    "parent_node_id": "1354137773676",
    "label": {
        "en": "Dairy Farm Investment Program 1",
        "fr": "Programme d\u2019investissement pour ferme lati\u00e8res 1"
    },
    "exturl": "",
    "teamsite_location": {
        "en": "/default/main/AAFC-AAC/Internet-Internet/Group-Ensemble/ProgServ-ProgServ/WORKAREA/ProgServ-ProgServ/templatedata/comm-comm/gene-gene/data/04/ceta-aecg_dairy-prod_1491935919994_en",
        "fr": "/default/main/AAFC-AAC/Internet-Internet/Group-Ensemble/ProgServ-ProgServ/WORKAREA/ProgServ-ProgServ/templatedata/comm-comm/gene-gene/data/04/ceta-aecg_dairy-prod_1491935919994_fr"
    },
    "type_name": "sitemapinit",
    "has_dcr_id": true,
    "breadcrumb": {
        "en": "Dairy Farm Investment Program 1",
        "fr": "Programme d\u2019investissement pour ferme lati\u00e8res 1"
    },
    "layout_name": "content page 1 column",
    "lang": "en",
    "meta": {
        "issued": {
            "en": "2017-08-01",
            "fr": "2017-08-01"
        },
        "modified": {
            "en": "2020-02-21",
            "fr": "2020-02-21"
        },
        "format": {
            "en": "text/html",
            "fr": "text/html"
        },
        "title": {
            "en": "Dairy Farm Investment Program",
            "fr": "Programme d'investissement pour fermes laiti\u00e8res"
        },
        "subject": {
            "en": "ecology;benchmarks;wine industry",
            "fr": "ressources p\u00e9dagogiques;consultation;engrais"
        },
        "description": {
            "en": "Upgrade equipment to improve your dairy farm. Apply for up to $250,000 through the Dairy Farm Investment Program",
            "fr": "Mise \u00e0 jour de l\u2019\u00e9quipement pour am\u00e9liorer votre ferme laiti\u00e8re. Demander jusqu'\u00e0 250 000 $ dans le cadre du Programme d'investissement pour fermes laiti\u00e8res"
        },
        "language": {
            "en": "eng",
            "fr": "fra"
        },
        "keywords": {
            "en": "framework.Figure",
            "fr": "Quest-ce;L\u00e9quipe;d\u00e9cern\u00e9 \u00e0 lapplication"
        },
        "audience": {
            "en": "gcaudience",
            "fr": "gcaudience"
        },
        "type": {
            "en": "business plan",
            "fr": "accord"
        },
        "creator": {
            "en": "Agriculture and Agri-Food Canada;Government of Canada",
            "fr": "Agriculture et Agroalimentaire Canada;Gouvernement du Canada"
        },
        "spatial": {
            "en": "gcregions",
            "fr": "gcregions"
        },
        "service": {
            "en": "AAFC-AAC",
            "fr": "AAFC-AAC"
        },
        "accessRights": {
            "en": "2",
            "fr": "2"
        },
        "legalName": {
            "en": "agriculture_and_agri_food_canada",
            "fr": "agriculture_et_agroalimentaire_canada"
        },
        "areaServed": {
            "en": "Canada",
            "fr": "Canada"
        }
    },
    "body": {
        "en": "tart --&gt;\r\n    <!-- D&eacute;but du contenu -->\r\n    <div class=\"mrgn-tp-md mrgn-bttm-lg brdr-bttm\">\n <div class=\"row\">\n<ul class=\"toc lst-spcd col-md-12 list-unstyled\">\n<li class=\"col-md-4 col-sm-6\"><span class=\"list-group-item active\">Step 1. What this program offers</span></li>\n<li class=\"col-md-4 col-sm-6\"><span class=\"list-group-item\">Step 2. <a href=\"?id=1494268740960\">Who is eligible</a></span></li>\n<li class=\"col-md-4 col-sm-6\"><span class=\"list-group-item\">Step 3. <a href=\"?id=1494269570751\">Before you apply</a></span></li>\n<li class=\"col-md-4 col-sm-6\"><span class=\"list-group-item\">Step 4. <a href=\"?id=1494271080955\">How to apply</a></span></li>\n<li class=\"col-md-4 col-sm-6\"><span class=\"list-group-item\">Step 5. <a href=\"?id=1494271959080\">After you apply</a></span></li>\n<li class=\"col-md-4 col-sm-6\"><span class=\"list-group-item\"><a href=\"?id=1494010428766\">Applicant guide</a></span></li>\n<li class=\"col-md-4 col-sm-6\"><span class=\"list-group-item\"><a href=\"?id=1501872980229\">Frequently asked questions</a></span></li>\n<li class=\"col-md-4 col-sm-6\"><span class=\"list-group-item\"><a href=\"?id=1538481990458\">Contact information</a></span></li>\n</ul>\n</div>\n</div>\n\n<section class=\"alert alert-info\">\n\t<h2>Program Update</h2>\n\t<p>The second (and final) application window of the Dairy Farm Investment Program is now closed.</p>\n\n\n</section>\n \n<h2>Step 1. What this program offers</h2>\n\n<p>The Dairy Farm Investment Program is a five-year (beginning 2017-2018) $250-million program to help Canadian cow\u2019s milk producers improve productivity through upgrades to their equipment.</p>\n\n<p>It is intended to assist dairy producers adapt to the anticipated impacts of the Canada\u2013European Union Comprehensive Economic and Trade Agreement (CETA).</p>\n\n<p>Phase 1 of the Program is now closed. Phase 2 of the program provides funding assistance from April 1, 2020 until March 31, 2022. Applicants have the flexibility to seek funding for eligible activities that started on or after August 1, 2017.  The project activities must be completed by March 31, 2022.  Reimbursement to applicants will be made in 2020-21 and 2021-22 as projects are completed.</p>\n\n<p>Based on the demand, the program will strive to support investments in all provinces \u2013 approximately in proportion to their share of the total national milk quota.</p>\n\n<p>The program ends on March 31, 2022.</p>\n\n<p>For more information on DFIP Phase 2, refer to the <a href=\"?id=1494010428766\">Dairy Farm Investment Program: Phase 2 Applicant Guide</a>.</p>\n\n<section class=\"panel panel-default\">\n <header class=\"panel-heading\">\n  <h2 class=\"panel-title\">What has changed from Phase 1?</h2>\n </header>\n <div class=\"panel-body\">\n      \n<p>During the delivery of Phase 1, applicants and their industry groups made a number of suggestions for the improvement of DFIP.  These centered on reducing the burden of applying on dairy producers and further ensuring the fairness to all applicants.  Several improvements have been made to Phase 2 of the program following feedback on Phase 1, including:</p>\n\n<ul>\t \n<li>A cap of $100,000 has been set for all projects to allow more producers to participate;</li>\n<li>A single stream of  projects has been created covering projects investing in dairy production systems as well as projects involving a variety of different types of equipment;</li>\n<li>A two-step application process has been created that starts with a basic Project Request.  From there, projects will be selected at random until all of the Phase 2 funding has been allocated.  Only those projects will require the completion of a Detailed Application.  This will reduce the application burden on those applicants whose projects fall outside the available Phase 2 funding;</li>\n<li>Applications can now be submitted online or by using a fillable PDF form.  Those applications have been shortened from Phase 1.</li>\n</ul>\t \n\t \n </div>\n</section>\n\n<h2>Dairy Farm Investment Program Phase 2 Process</h2>\n\n<img src=\"https://www.agr.gc.ca/resources/prod/img/dfip-pifl_flowchart-eng.jpg\" alt=\"Description of this image follows.\">\n\n<details>\n<summary>Description of the image above.</summary>\n<ol>\n <li>Read the DFIP Phase 2 Applicant Guide</li>\n <li>Check your eligibility</li>\n <li>Identify your equipment improvement needs that are eligible and their cost</li>\n <li>Submit a DFIP Project Request based on eligible equipment within the first window (five weeks)</li>\n <li>DFIP will randomly rank all Project Requests for funding</li>\n <li>You will be notified if your project is within the Phase 2 available funding \n  <ol class=\"lst-lwr-alph\">\n   <li>If your project is within available funding for Phase 2, you will be asked to submit a Detailed Application\n    <ul>\n     <li>Complete and submit your Detailed Application within the second application window (four weeks, no exceptions)</li>\n     <li>Once Detailed Applications are received and assessed, applicants will receive contribution agreements for eligible costs</li>\n     <li>Once projects are completed, submit a claim for reimbursement with supporting documents</li>\n\t <li>For completed projects, you will be asked to report on your productivity gains</li>\n    </ul>\n   </li>\n   <li>If your project falls outside the immediately available funding, your project will be placed on a waiting list\n    <ul>\n     <li>Should funding become available for your project, you will be notified and asked to complete a Detailed Application</li>\n    </ul>\n   </li>\n  </ol>\t\n </li>\n</ol></details>\n\n<nav>\n  <h2 class=\"wb-inv\">Previous-next document navigation - bottom</h2>\n<div class=\"row\">\n<div class=\"col-md-12 mrgn-lft-0 mrgn-rght-0\">\n<ul class=\"pager\">\n\t<li class=\"next\"><a href=\"?id=1494268740960\" rel=\"next\" title=\"Step 2. Who is eligible\">Next</a></li>\n</ul>\n</div>\n</div>\n</nav>\n<!--\n\n\n<div class=\"mrgn-tp-md mrgn-bttm-lg brdr-bttm\">\n <div class=\"row\">\n<ul class=\"toc lst-spcd col-md-12 list-unstyled\">\n<li class=\"col-md-4 col-sm-6\"><span class=\"list-group-item active\">Step 1. What this program offers</span></li>\n<li class=\"col-md-4 col-sm-6\"><span class=\"list-group-item\">Step 2. <a href=\"?id=1494268740960\">Who is eligible</a></span></li>\n<li class=\"col-md-4 col-sm-6\"><span class=\"list-group-item\">Step 3. <a href=\"?id=1494269570751\">Before you apply</a></span></li>\n<li class=\"col-md-4 col-sm-6\"><span class=\"list-group-item\">Step 4. <a href=\"?id=1494271080955\">How to apply</a></span></li>\n<li class=\"col-md-4 col-sm-6\"><span class=\"list-group-item\"><a href=\"?id=1494271959080\">After you apply</a></span></li>\n<li class=\"col-md-4 col-sm-6\"><span class=\"list-group-item\"><a href=\"?id=1494010428766\">Applicant guide</a></span></li>\n<li class=\"col-md-4 col-sm-6\"><span class=\"list-group-item\"><a href=\"?id=1501872980229\">Frequently asked questions</a></span></li>\n</ul>\n</div>\n</div>\n \n<div class=\"alert alert-info\">\n \n<p>As of 3 p.m. EDT August 29, 2017, the Dairy Farm Investment Program&rsquo;s <b>first application window is fully subscribed.</b>  Agriculture and Agri-Food Canada is therefore no longer accepting applications for small projects ending before March 31, 2019, and large projects ending before March 31, 2020.</p>\n<p class=\"mrgn-tp-sm mrgn-lft-md\">All applications received prior to this time will be reviewed according to the first-come-first-served principle until funding is fully committed. A waiting list will then be created should funds become available due to cancelled or rejected investment projects reviewed during this first window for applications.</p> \n<p class=\"mrgn-tp-sm mrgn-lft-md\">Dairy producers will be notified in the coming months of the next window to apply for funding for subsequent years of the five-year (2017 - 2022) program. </p>\n</div>\n\n<h2>Step 1. What this program offers</h2>\n\n<p>The Dairy Farm Investment Program is designed to support the productivity and the competitiveness of dairy farmers, and help the sector adapt to the anticipated impacts from the Canada-European Union Comprehensive Economic and Trade Agreement. The program helps Canadian cow's milk producers improve productivity through upgrades to their equipment.</p>\n\n<h3>How much can you receive</h3>\n\n<p>The maximum funding amount <b>per licensed dairy farm</b>, for the five-year duration of the program, is $250,000. Applicants may apply more than once, and for more than one project; however, the total reimbursements for all approved projects will not exceed $250,000.</p>\n\n<p>The minimum funding amount that will be considered for a project is $1,000.</p>\n\n<p class=\"mrgn-tp-lg\"><a href=\"http://www.agr.gc.ca/pscontact-contactezps/index_e.php\"><img src=\"https://www.agr.gc.ca/resources/prod/img/prog/1522073268316-image-eng.jpg\" alt=\"\"/><br />\nSubmit your feedback</a></p>\n\n<nav>\n  <h2 class=\"wb-inv\">Previous-next document navigation - bottom</h2>\n<div class=\"row\">\n<div class=\"col-md-12 mrgn-lft-0 mrgn-rght-0\">\n<ul class=\"pager\">\n\t<li class=\"next\"><a href=\"?id=1494268740960\" rel=\"next\" title=\"Step 2. Who is eligible\">Next</a></li>\n</ul>\n</div>\n</div>\n</nav>\n-->\n\r\n    <!-- Fin du contenu -->\r\n  \r\n  <div class=\"pagedetails\" id=\"pgft\">\r\n    <div class=\"row\">\r\n\t  <div class=\"col-sm-6 col-md-5 col-lg-4\">\r\n\t    <details class=\"brdr-0\">\r\n\t\t<summary class=\"btn btn-default text-center\" onclick=\"getAntiSpamSeq('/eng/mail-handler/?anti-spam-sequence=true')\">Report a problem on this page</summary>\r\n\t\t<div class=\"clearfix\"></div>\r\n\t\t<div class=\"well row\">\r\n\t\t<div>\r\n\t\t  <div class=\"gc-rprt-prblm\">\r\n\t\t    <div class=\"gc-rprt-prblm-frm gc-rprt-prblm-tggl\">\r\n\t\t\t  \r\n\t\t\t<form id=\"report_a_problem_form\" action=\"/eng/mail-handler/#report_a_problem_form\" method=\"post\">\t\t\t\t   \t\t\t\r\n\r\n\t            \t <input type=\"hidden\" name=\"lang\" value=\"eng\">\r\n\t            \t <input type=\"hidden\" name=\"pageId\" value=\"1491935919994\">\r\n\t            \t <input type=\"hidden\" name=\"pageUrl\" value=\"http://www.agr.gc.ca/eng/agricultural-programs-and-services/dairy-farm-investment-program/?id=1491935919994\">\r\n\t\t\t\t\t <div id=\"report_a_problem_form_error\"></div>\r\n\t\t             <fieldset>\t\t\t\t\t    \r\n\t\t                <legend><span class=\"field-name\">Please select all that apply:</span></legend>\t\t                                 \r\n\t\t\t\t\t\t<div class=\"checkbox\">\r\n\t\t\t\t\t\t\t<label for=\"problem1\"><input name=\"problem1\" id=\"problem1\" type=\"checkbox\" value=\"Yes\">A link, button or video is not working</label>\r\n\t\t\t\t\t\t\t<input name=\"problem1\" type=\"hidden\" value=\"No\">\r\n\t\t\t\t\t\t</div>\r\n\t\t\t\t\t\t<div class=\"checkbox\">\r\n\t\t\t\t\t\t\t<label for=\"problem2\"><input name=\"problem2\" id=\"problem2\" type=\"checkbox\" value=\"Yes\">It has a spelling mistake</label>\r\n\t\t\t\t\t\t\t<input name=\"problem2\" type=\"hidden\" value=\"No\">\r\n\t\t\t\t\t\t</div>\r\n\t\t\t\t\t\t<div class=\"checkbox\">\r\n\t\t\t\t\t\t\t<label for=\"problem3\"><input name=\"problem3\" id=\"problem3\" type=\"checkbox\" value=\"Yes\">Information is missing</label>\r\n\t\t\t\t\t\t\t<input name=\"problem3\" type=\"hidden\" value=\"No\">\r\n\t\t\t\t\t   </div>\r\n\t\t\t\t\t\t<div class=\"checkbox\">\r\n\t\t\t\t\t\t\t<label for=\"problem4\"><input name=\"problem4\" id=\"problem4\" type=\"checkbox\" value=\"Yes\">Information is outdated or wrong</label>\r\n\t\t\t\t\t\t\t<input name=\"problem4\" type=\"hidden\" value=\"No\">\r\n\t\t\t\t\t\t</div>\r\n\t\t\t\t\t\t<div class=\"checkbox\">\r\n\t\t\t\t\t\t\t<label for=\"problem5\"><input name=\"problem5\" id=\"problem5\" type=\"checkbox\" value=\"Yes\">Login error when trying to access an account (e.g. My Service Canada Account)</label>\r\n\t\t\t\t\t\t\t<input name=\"problem5\" type=\"hidden\" value=\"No\">\r\n\t\t\t\t\t\t</div>\r\n\t\t\t\t\t\t\t<ul>\r\n\t\t\t\t\t\t\t<li class=\"checkbox\">\r\n\t\t\t\t\t\t\t\t<label for=\"problem6a\"><input name=\"problem6\" id=\"problem6a\" type=\"checkbox\" value=\"Yes\">GC Key access</label>\r\n\t\t\t\t\t\t\t\t<input name=\"problem6\" type=\"hidden\" value=\"No\">\r\n\t\t\t\t\t\t\t </li>\r\n\t\t\t\t\t\t\t<li class=\"checkbox\">\r\n\t\t\t\t\t\t\t\t<label for=\"problem7\"><input name=\"problem7\" id=\"problem7\" type=\"checkbox\" value=\"Yes\">SecureKey Concierge (Banking Credential) access </label>\r\n\t\t\t\t\t\t\t\t<input name=\"problem7\" type=\"hidden\" value=\"No\">\r\n\t\t\t\t\t\t\t </li>\r\n\t\t\t\t\t\t\t<li class=\"checkbox\">\r\n\t\t\t\t\t\t\t\t<label for=\"problem8\"><input name=\"problem8\" id=\"problem8\" type=\"checkbox\" value=\"Yes\">Personal Access Code (PAC) problems or EI Access Code (AC) problems</label>\r\n\t\t\t\t\t\t\t\t<input name=\"problem8\" type=\"hidden\" value=\"No\">\r\n\t\t\t\t\t\t\t </li>\t\r\n\t\t\t\t\t\t\t<li class=\"checkbox\">\r\n\t\t\t\t\t\t\t\t<label for=\"problem9\"><input name=\"problem9\" id=\"problem9\" type=\"checkbox\" value=\"Yes\">Social Insurance Number (SIN) validation problems</label>\r\n\t\t\t\t\t\t\t\t<input name=\"problem9\" type=\"hidden\" value=\"No\">\r\n\t\t\t\t\t\t\t </li>\t\t\t\t\t\t\t\t\r\n\t\t\t\t\t\t\t<li class=\"checkbox\">\r\n\t\t\t\t\t\t\t\t<label for=\"problem10\"><input name=\"problem10\" id=\"problem10\" type=\"checkbox\" value=\"Yes\">Other login error not in this list</label>\r\n\t\t\t\t\t\t\t\t<input name=\"problem10\" type=\"hidden\" value=\"No\">\r\n\t\t\t\t\t\t\t </li>\t\t \r\n\t\t\t\t\t\t\t </ul>\r\n\t\t\t\t\t\t<div class=\"checkbox\">\r\n\t\t\t\t\t\t\t<label for=\"problem11\"><input name=\"problem11\" id=\"problem11\" type=\"checkbox\" value=\"Yes\">I can't find what I'm looking for</label>\r\n\t\t\t\t\t\t\t<input name=\"problem11\" type=\"hidden\" value=\"No\">\r\n\t\t\t\t\t\t</div>\r\n\t\t\t\t\t\t<div class=\"checkbox\">\r\n\t\t\t\t\t\t\t<label for=\"problem12\"><input name=\"problem12\" id=\"problem12\" type=\"checkbox\" value=\"Yes\">Other issue not in this list</label>\r\n\t\t\t\t\t\t\t<input name=\"problem12\" type=\"hidden\" value=\"No\">\r\n\t\t\t\t\t\t</div>\t\t\t\t\t\t \t\t\t\t\t\t\t\t\t\t\t\t \r\n\t\t             </fieldset>\r\n\t\t\t\t\t <div>\r\n\t\t\t\t\t   <label for=\"aafc_ranstr\"><span id=\"fbch\"><br>Enter these characters <strong class=\"required\">(required)</strong>: </span><span id=\"ranstr\">U5S</span></label>\r\n\t\t\t           <input name=\"anti-spam-sequence\" id=\"aafc_ranstr\" size=\"4\" maxlength=\"3\" type=\"text\">\r\n\t\t\t\t\t </div>\t\r\n\r\n\t\t\t\t\t <br><input type=\"submit\" class=\"btn btn-primary\" value=\"Submit\">\r\n\t\t\t\t  </form>\r\n\t\t\t\t</div>\r\n\t\t\t</div>\t\t\t\r\n\t\t  </div>\r\n\t\t</div>\r\n\t\t</details>\r\n\t  </div>\r\n\t  <div class=\"wb-share col-sm-4 col-md-3 col-sm-offset-2 col-md-offset-4 col-lg-offset-5\" data-wb-share='{\"lnkClass\": \"btn btn-default btn-block\"}'></div>\r\n\t</div>\r\n\t<dl id=\"wb-dtmd\">\r\n\t  <dt>Date modified: </dt>\r\n\t  <dd><time property=\"dateModified\">2020-02-21</time></dd></dl></div>",
        "fr": "\r\n    \r\n    <!-- MainContentStart -->\r\n    <!-- D&eacute;but du contenu -->\r\n    <div class=\"row\">\n<ul class=\"toc lst-spcd col-md-12 list-unstyled\">\n<li class=\"col-md-3 col-sm-6\"><span class=\"list-group-item active\">\u00c9tape 1. Ce qu'offre ce programme</span></li>\n<li class=\"col-md-3 col-sm-6\"><span class=\"list-group-item\">\u00c9tape 2. <a href=\"?id=1494268740960\">Qui est admissible</a></span></li>\n<li class=\"col-md-3 col-sm-6\"><span class=\"list-group-item\">\u00c9tape 3. <a href=\"?id=1494269570751\">Avant de postuler</a></span></li>\n<li class=\"col-md-3 col-sm-6\"><span class=\"list-group-item\">\u00c9tape 4. <a href=\"?id=1494271080955\">Comment pr\u00e9senter une demande</a></span></li>\n<li class=\"col-md-3 col-sm-6\"><span class=\"list-group-item\">\u00c9tape 5. <a href=\"?id=1494271959080\">Apr\u00e8s avoir pr\u00e9sent\u00e9 votre demande</a></span></li>\n<li class=\"col-md-3 col-sm-6\"><span class=\"list-group-item\"><a href=\"?id=1494010428766\">Guide du demandeur</a></span></li>\n<li class=\"col-md-3 col-sm-6\"><span class=\"list-group-item\"><a href=\"?id=1501872980229\">Foire aux questions</a></span></li>\n<li class=\"col-md-3 col-sm-6\"><span class=\"list-group-item\"><a href=\"?id=1538481990458\">Pour nous rejoindre</a></span></li>\n</ul>\n</div>\n\n\n<section class=\"alert alert-info\">\n\t<h2>Mise \u00e0 jour du programme</h2>\n\t<p>La deuxi\u00e8me (et derni\u00e8re) p\u00e9riode de pr\u00e9sentation des demandes aux fins du Programme d'investissement pour fermes laiti\u00e8res est termin\u00e9e.</p>\n\n</section>\n \n<h2>\u00c9tape 1. Ce qu'offre ce programme</h2>\n\n<p>Le Programme d'investissement pour fermes laiti\u00e8res est un programme quinquennal (\u00e0 compter de 2017-2018) de 250 millions de dollars visant \u00e0 aider les producteurs canadiens de lait de vache \u00e0 am\u00e9liorer la productivit\u00e9 au moyen de mises \u00e0 niveau de leur \u00e9quipement.</p>\n\n<p>Il est con\u00e7u pour aider les producteurs laitiers \u00e0 s'adapter aux r\u00e9percussions pr\u00e9vues de l'Accord \u00e9conomique et commercial global (AECG) entre le Canada et l'Union europ\u00e9enne.</p>\n\n<p>La phase 1 du programme est termin\u00e9e. La phase 2 du programme offre une aide financi\u00e8re du 1<sup>er</sup> avril 2020 au 31 mars 2022. Les demandeurs ont la possibilit\u00e9 d'obtenir une contribution pour les activit\u00e9s admissibles qui ont commenc\u00e9es \u00e0 compter du 1<sup>er</sup> ao\u00fbt 2017. Les activit\u00e9s de projet doivent \u00eatre achev\u00e9es avant le 31 mars 2022. Les remboursements aux demandeurs seront effectu\u00e9s en 2020-2021 et en 2021-2022, au fur et \u00e0 mesure que les projets seront termin\u00e9s.</p>\n\n<p>Fond\u00e9 sur la demande, le programme s'efforcera d'appuyer les investissements dans toutes les provinces \u2013 en proportion approximative de leur part de l'ensemble des quotas nationaux de lait.</p>\n\n<p>Le Programme prend fin le 31 mars 2022.</p>\n\n<p>Pour obtenir de plus amples renseignements sur la phase 2 du PIFL, veuillez consulter le <a href=\"?id=1494010428766\">Guide du demandeur de la phase 2 du Programme d'investissement pour fermes laiti\u00e8res</a>.</p>\n\n<section class=\"panel panel-default\">\n <header class=\"panel-heading\">\n  <h2 class=\"panel-title\">Ce qui a chang\u00e9 par rapport \u00e0 la phase 1</h2>\n </header>\n <div class=\"panel-body\">\n      \n<p>Au cours de l'ex\u00e9cution de la phase 1, les demandeurs et les groupes du secteur laitier ont fait un certain nombre de suggestions pour am\u00e9liorer le PIFL. Celles-ci visaient \u00e0 r\u00e9duire, pour les producteurs laitiers, le fardeau associ\u00e9 \u00e0 la pr\u00e9sentation d'une demande et \u00e0 davantage assurer l'\u00e9quit\u00e9 pour tous les demandeurs. Plusieurs am\u00e9liorations ont \u00e9t\u00e9 effectu\u00e9es \u00e0 la Phase 2 du programme suivant des commentaires au sujet de la Phase 1, incluant\u00a0:</p>\n\n<ul>\t \n<li>Un plafond de 100 000 $ a \u00e9t\u00e9 fix\u00e9 pour tous les projets afin de permettre \u00e0 un plus grand nombre de producteurs de participer;</li>\n<li>Un seul volet a \u00e9t\u00e9 cr\u00e9\u00e9, visant \u00e0 la fois des projets d'investissement dans les syst\u00e8mes de production laiti\u00e8re ainsi que des projets portant sur une gamme vari\u00e9e de types d'\u00e9quipement;</li>\n<li>Un processus de demande en deux \u00e9tapes a \u00e9t\u00e9 cr\u00e9\u00e9, commen\u00e7ant par une demande de projet de base. De l\u00e0, les projets seront s\u00e9lectionn\u00e9s al\u00e9atoirement jusqu'\u00e0 ce que tous les fonds de la phase 2 aient \u00e9t\u00e9 attribu\u00e9s. Seuls les projets s\u00e9lectionn\u00e9s n\u00e9cessiteront la pr\u00e9sentation d'une demande d\u00e9taill\u00e9e. Cela r\u00e9duira le fardeau associ\u00e9 \u00e0 la pr\u00e9sentation d'une demande pour les demandeurs dont les projets ne sont pas vis\u00e9s par le financement disponible \u00e0 la phase 2;</li>\n<li>Les demandes pourront \u00eatre soumises en ligne ou en remplissant une soumission en format PDF. Ces soumissions ont \u00e9t\u00e9 raccourcis depuis la phase\u00a01.</li>\n</ul>\t \n\t \n </div>\n</section>\n\n<h2>Processus de la phase 2 du Programme d'investissement pour fermes laiti\u00e8res</h2>\n\n<img src=\"https://www.agr.gc.ca/resources/prod/img/dfip-pifl_flowchartb-fra.jpg\" alt=\"Description de cette image suit.\">\n\n<details>\n<summary>Description de l'image ci-dessus.</summary>\n\n<ol>\n <li>Lisez le Guide du demandeur du PIFL, phase 2</li>\n <li>V\u00e9rifiez votre admissibilit\u00e9</li>\n <li>Cernez vos besoins en am\u00e9lioration de l'\u00e9quipement admissibles et leurs co\u00fbts</li>\n <li>Pr\u00e9sentez une demande de projet du PIFL en fonction de l'\u00e9quipement admissible au cours de la premi\u00e8re p\u00e9riode de demande (cinq semaines)</li>\n <li>Le PIFL classera de fa\u00e7on al\u00e9atoire toutes les demandes de projet</li>\n <li>Vous serez avis\u00e9 si votre projet s'inscrit dans le financement disponible pour la phase 2 \n  <ol class=\"lst-lwr-alph\">\n   <li>Si votre projet s'inscrit dans le financement disponible pour la phase 2, nous vous demanderons de pr\u00e9senter une demande d\u00e9taill\u00e9e\n    <ul>\n     <li>Remplissez et pr\u00e9sentez votre demande d\u00e9taill\u00e9e dans la deuxi\u00e8me p\u00e9riode de demande (quatre semaines, aucune exception)</li>\n     <li>Une fois que les demandes d\u00e9taill\u00e9es sont re\u00e7us et \u00e9valu\u00e9s, les demandeurs recevront des ententes de contribution pour les co\u00fbts admissibles</li>\n     <li>Une fois que les projets sont termin\u00e9s, pr\u00e9sentez une demande de remboursement avec les pi\u00e8ces justificatives</li>\n\t <li>Pour les projets termin\u00e9s, nous vous demanderons de d\u00e9clarer vos gains de productivit\u00e9</li>\n    </ul>\n   </li>\n   <li>Si votre projet ne s'inscrit pas dans le financement imm\u00e9diatement disponible, votre projet sera plac\u00e9 sur une liste d'attente\n    <ul>\n     <li>Si des fonds deviennent disponibles pour votre projet, nous vous en informerons et vous demanderons de compl\u00e9ter une demande d\u00e9taill\u00e9e</li>\n    </ul>\n   </li>\n  </ol>\t\n </li>\n</ol></details>\n\n<nav>\n<h2 class=\"wb-inv\">Navigation du document\u00a0\u0096\u00a0pr\u00e9c\u00e9dente-suivante\u00a0\u0096\u00a0bas</h2>\n<div class=\"row\">\n<div class=\"col-md-12 mrgn-lft-0 mrgn-rght-0\">\n<ul class=\"pager\">\n<li class=\"next\"><a href=\"?id=1494268740960\" rel=\"next\" title=\"\u00c9tape 2. Qui est admissible\">Suivante</a></li>\n</ul>\n</div>\n</div>\n</nav> \n\n\n<!--\n<div class=\"mrgn-tp-md mrgn-bttm-lg brdr-bttm\">\n <div class=\"row\">\n<ul class=\"toc lst-spcd col-md-12 list-unstyled\">\n<li class=\"col-md-4 col-sm-6\"><span class=\"list-group-item active\">1. Ce qu'offre ce programme</span></li>\n<li class=\"col-md-4 col-sm-6\"><span class=\"list-group-item\">2. <a href=\"?id=1494268740960\">Qui est admissible</a></span></li>\n<li class=\"col-md-4 col-sm-6\"><span class=\"list-group-item\">3. <a href=\"?id=1494269570751\">Avant de postuler</a></span></li>\n<li class=\"col-md-4 col-sm-6\"><span class=\"list-group-item\">4. <a href=\"?id=1494271080955\">Comment pr&eacute;senter une demande</a></span></li>\n<li class=\"col-md-4 col-sm-6\"><span class=\"list-group-item\"><a href=\"?id=1494271959080\">Apr&egrave;s avoir pr&eacute;sent&eacute; votre demande</a></span></li>\n<li class=\"col-md-4 col-sm-6\"><span class=\"list-group-item\"><a href=\"?id=1494010428766\">Guide du demandeur</a></span></li>\n<li class=\"col-md-4 col-sm-6\"><span class=\"list-group-item\"><a href=\"?id=1501872980229\">Foire aux questions</a></span></li>\n</ul>\n</div>\n</div>\n \n <div class=\"alert alert-info\"> \n<p><b>La premi&egrave;re fen&ecirc;tre de r&eacute;ception des demandes</b> du Programme d'investissement pour fermes laiti&egrave;res s'<b>est termin&eacute;e</b> &agrave; 15 h (HAE) le 29 ao&ucirc;t 2017 &agrave; la suite du nombre &eacute;lev&eacute; de demandes re&ccedil;ues. Agriculture et Agroalimentaire Canada n'accepte donc plus les demandes pour les projets mineurs  qui se termineront avant le 31 mars 2019 ni pour les projets majeurs qui se termineront avant le 31 mars 2020.</p>\n<p class=\"mrgn-tp-sm mrgn-lft-md\">Toutes les demandes re&ccedil;ues pendant cette premi&egrave;re fen&ecirc;tre seront examin&eacute;es selon le principe du premier arriv&eacute;, premier servi, et ce, jusqu'&agrave; ce que les fonds soient tous engag&eacute;s. Une liste d'attente sera ensuite cr&eacute;&eacute;e au cas o&ugrave; des fonds se d&eacute;gageraient en raison de l'annulation ou du refus d'un projet examin&eacute; pendant cette premi&egrave;re fen&ecirc;tre.</p>\n<p class=\"mrgn-tp-sm mrgn-lft-md\">Les producteurs laitiers seront inform&eacute;s au cours des prochains mois de la prochaine fen&ecirc;tre de r&eacute;ception des demandes pour les ann&eacute;es ult&eacute;rieures du programme quinquennal (2017-2022).</p>\n</div>\n\n<h2>1. Ce qu'offre ce programme</h2>\n\n<p>Le programme d'investissement pour fermes  laiti&egrave;res est con&ccedil;u pour soutenir la productivit&eacute; et la  comp&eacute;titivit&eacute; des producteurs laitiers et pour aider le secteur &agrave; s'adapter aux r&eacute;percussions anticip&eacute;es de l'Accord  &eacute;conomique et commercial global entre le Canada et l'Union europ&eacute;enne. Le  programme aide les producteurs canadiens de lait de vache &agrave; am&eacute;liorer la  productivit&eacute; au moyen de mises &agrave; niveau de leur &eacute;quipement.</p>\n\n<h3>Combien pouvez-vous recevoir</h3>\n\n<p>Le montant de financement maximal <b>par ferme laiti&egrave;re titulaire d'un permis</b>,  pour la dur&eacute;e de cinq ans du programme, s'&eacute;l&egrave;ve &agrave; 250&nbsp;000&nbsp;$. Les  demandeurs peuvent pr&eacute;senter une demande plus d'une fois, et pour plus d'un  projet; toutefois, les remboursements totaux de tous les projets approuv&eacute;s  n'exc&eacute;deront pas 250&nbsp;000&nbsp;$.</p>\n\n<p>Le montant de financement minimal qui sera pris  en consid&eacute;ration pour un projet correspond &agrave; 1&nbsp;000&nbsp;$.</p>\n\n<p class=\"mrgn-tp-lg\"><a href=\"http://www.agr.gc.ca/pscontact-contactezps/index_f.php\"><img src=\"https://www.agr.gc.ca/resources/prod/img/prog/1522073268316-image-fra.jpg\" alt=\"\"/><br />\nSoumettre votre r&eacute;troaction</a></p>\n\n<nav>\n<h2 class=\"wb-inv\">Navigation du document&nbsp;&#150;&nbsp;pr&eacute;c&eacute;dente-suivante&nbsp;&#150;&nbsp;bas</h2>\n<div class=\"row\">\n<div class=\"col-md-12 mrgn-lft-0 mrgn-rght-0\">\n<ul class=\"pager\">\n<li class=\"next\"><a href=\"?id=1494268740960\" rel=\"next\" title=\"&Eacute;tape 2. Qui est admissible\">Suivante</a></li>\n</ul>\n</div>\n</div>\n</nav> \n-->\n\r\n    <!-- Fin du contenu -->\r\n\t\r\n\t<div class=\"pagedetails\" id=\"pgft\">\r\n\t\t<div class=\"row\">\r\n\t\t  <div class=\"col-sm-6 col-md-5 col-lg-4\">\r\n\t\t    <details class=\"brdr-0\">\r\n\t\t\t<summary class=\"btn btn-default text-center\" onclick=\"getAntiSpamSeq('/fra/mail-handler/?anti-spam-sequence=true')\">Signaler un probl\u00e8me sur cette page</summary>\r\n\t\t\t<div class=\"well row\">\r\n\t\t\t  <div class=\"gc-rprt-prblm\">\r\n\t\t\t    <div class=\"gc-rprt-prblm-frm gc-rprt-prblm-tggl\">\r\n\t\t\t\t   <form id=\"report_a_problem_form\" action=\"/fra/mail-handler/\" method=\"post\">\r\n\t            \t <input type=\"hidden\" name=\"lang\" value=\"fra\">\r\n\t            \t <input type=\"hidden\" name=\"pageId\" value=\"1491935919994\">\r\n\t            \t <input type=\"hidden\" name=\"pageUrl\" value=\"http://www.agr.gc.ca/fra/programmes-et-services-agricoles/programme-d-investissement-pour-fermes-laitieres/?id=1491935919994\">\r\n\t\t\t\t\t <div id=\"report_a_problem_form_error\"></div>\r\n\t\t             <fieldset>\t\t\t\t\t    \r\n\t\t                <legend><span class=\"field-name\">Veuillez cocher toutes les r\u00e9ponses pertinentes\u00a0:</span></legend>\r\n\t\t                 <div class=\"checkbox\">\r\n\t\t                    <label for=\"problem1\"><input name=\"problem1\" id=\"problem1\" type=\"checkbox\" value=\"Yes\">Un lien, un bouton ou une vid\u00e9o ne fonctionne pas</label>\r\n\t\t                    <input name=\"problem1\" type=\"hidden\" value=\"No\">\r\n\t\t                </div>\r\n\t\t                <div class=\"checkbox\">\r\n\t\t                    <label for=\"problem2\"><input name=\"problem2\" id=\"problem2\" type=\"checkbox\" value=\"Yes\">Il y a une erreur d'orthographe ou de grammaire</label>\r\n\t\t                    <input name=\"problem2\" type=\"hidden\" value=\"No\">\r\n\t\t                </div>\r\n\t\t   \t\t\t\t <div class=\"checkbox\">\r\n\t\t                    <label for=\"problem3\"><input name=\"problem3\" id=\"problem3\" type=\"checkbox\" value=\"Yes\">Les renseignements sont incomplets</label>\r\n\t\t                    <input name=\"problem3\" type=\"hidden\" value=\"No\">\r\n\t\t                </div>\r\n\t\t             \t\t<div class=\"checkbox\">\r\n\t\t                    <label for=\"problem4\"><input name=\"problem4\" id=\"problem4\" type=\"checkbox\" value=\"Yes\">L'information n'est plus \u00e0 jour ou est erron\u00e9e</label>\r\n\t\t                    <input name=\"problem4\" type=\"hidden\" value=\"No\">\r\n\t\t                </div>\t\t\t\t\t\t\r\n\t\t\t\t\t\t<div class=\"checkbox\">\r\n\t\t\t\t\t\t\t<label for=\"problem5\"><input name=\"problem5\" id=\"problem5\" type=\"checkbox\" value=\"Yes\">Message d'erreur \u00e0 l'ouverture de la session lorsque je tente d'acc\u00e9der \u00e0 un compte (ex. Mon dossier Service Canada)</label>\r\n\t\t\t\t\t\t\t<input name=\"problem5\" type=\"hidden\" value=\"No\">\r\n\t\t\t\t\t\t</div>\r\n\t\t\t\t\t\t\t<ul>\r\n\t\t\t\t\t\t\t<li class=\"checkbox\">\r\n\t\t\t\t\t\t\t\t<label for=\"problem6a\"><input name=\"problem6\" id=\"problem6a\" type=\"checkbox\" value=\"Yes\">Acc\u00e8s Cl\u00e9GC</label>\r\n\t\t\t\t\t\t\t\t<input name=\"problem6\" type=\"hidden\" value=\"No\">\r\n\t\t\t\t\t\t\t </li>\r\n\t\t\t\t\t\t\t<li class=\"checkbox\">\r\n\t\t\t\t\t\t\t\t<label for=\"problem7\"><input name=\"problem7\" id=\"problem7\" type=\"checkbox\" value=\"Yes\">Acc\u00e8s SecureKey Service de Concierge (justificatifs d'identit\u00e9 bancaires)</label>\r\n\t\t\t\t\t\t\t\t<input name=\"problem7\" type=\"hidden\" value=\"No\">\r\n\t\t\t\t\t\t\t </li>\r\n\t\t\t\t\t\t\t<li class=\"checkbox\">\r\n\t\t\t\t\t\t\t\t<label for=\"problem8\"><input name=\"problem8\" id=\"problem8\" type=\"checkbox\" value=\"Yes\">Probl\u00e8me avec le Code d'acc\u00e8s personnel (CAP) ou avec le Code d'acc\u00e8s (CA) de l'assurance emploi</label>\r\n\t\t\t\t\t\t\t\t<input name=\"problem8\" type=\"hidden\" value=\"No\">\r\n\t\t\t\t\t\t\t </li>\t\r\n\t\t\t\t\t\t\t<li class=\"checkbox\">\r\n\t\t\t\t\t\t\t\t<label for=\"problem9\"><input name=\"problem9\" id=\"problem9\" type=\"checkbox\" value=\"Yes\">Probl\u00e8me li\u00e9 \u00e0 la validation du num\u00e9ro d'assurance sociale (NAS)</label>\r\n\t\t\t\t\t\t\t\t<input name=\"problem9\" type=\"hidden\" value=\"No\">\r\n\t\t\t\t\t\t\t </li>\t\t\t\t\t\t\t\t\r\n\t\t\t\t\t\t\t<li class=\"checkbox\">\r\n\t\t\t\t\t\t\t\t<label for=\"problem10\"><input name=\"problem10\" id=\"problem10\" type=\"checkbox\" value=\"Yes\">Autre erreur lors de l'ouverture de session qui ne figure pas sur cette liste</label>\r\n\t\t\t\t\t\t\t\t<input name=\"problem10\" type=\"hidden\" value=\"No\">\r\n\t\t\t\t\t\t\t </li>\t\t \r\n\t\t\t\t\t\t\t </ul>\r\n\t\t\t\t\t\t<div class=\"checkbox\">\r\n\t\t\t\t\t\t\t<label for=\"problem11\"><input name=\"problem11\" id=\"problem11\" type=\"checkbox\" value=\"Yes\">Je n'arrive pas \u00e0 trouver ce que je cherche</label>\r\n\t\t\t\t\t\t\t<input name=\"problem11\" type=\"hidden\" value=\"No\">\r\n\t\t\t\t\t\t</div>\r\n\t\t\t\t\t\t<div class=\"checkbox\">\r\n\t\t\t\t\t\t\t<label for=\"problem12\"><input name=\"problem12\" id=\"problem12\" type=\"checkbox\" value=\"Yes\">Autre probl\u00e8me qui ne figure pas sur cette liste</label>\r\n\t\t\t\t\t\t\t<input name=\"problem12\" type=\"hidden\" value=\"No\">\r\n\t\t\t\t\t\t</div>\t\t\t\t\t\t\t\t\t\t\t\t\t\t\t\t\t\t\t\r\n\t\t             </fieldset>\r\n\t\t\t\t\t <div>\r\n\t\t\t\t        <label for=\"aafc_ranstr\"><span id=\"fbch\">Veuillez inscrire les caract\u00e8res suivants  <strong class=\"required\">(obligatoire)</strong>\u00a0: </span><span id=\"ranstr\">XXX</span></label>\r\n\t\t\t            <input name=\"anti-spam-sequence\" id=\"aafc_ranstr\" size=\"4\" maxlength=\"3\" type=\"text\">\r\n\t\t\t\t\t </div>\r\n\t\t\t\t\t <input type=\"submit\" class=\"btn btn-primary\" value=\"Soumettre\">\r\n\t\t\t\t  </form>\r\n\t\t\t\t</div>\r\n\t\t\t  </div>\r\n\t\t\t</div>\r\n\t\t</details>\r\n\t    </div>\r\n\t  <div class=\"wb-share col-sm-4 col-md-3 col-sm-offset-2 col-md-offset-4 col-lg-offset-5\" data-wb-share='{\"lnkClass\": \"btn btn-default btn-block\"}'></div>\r\n\t  </div>\r\n\t  <dl id=\"wb-dtmd\">\r\n\t    <dt>Date de modification\u00a0: </dt>\r\n\t      <dd><time property=\"dateModified\">2020-02-21</time></dd>\r\n\t  </dl>\r\n\t</div>\r\n\t\r\n  "
    }
}