{
    "dcr_id": "1491935288949",
    "title": {
        "en": "Dairy Processing Investment Fund: Step 1. What this program offers",
        "fr": "Fonds d'investissement dans la transformation des produits laitiers : \u00c9tape 1. Ce qu'offre ce programme"
    },
    "modified": "2020-11-10",
    "issued": "2017-08-01",
    "templatetype": "content page 1 column",
    "page_type": "1",
    "node_id": "1494340590832",
    "dc_date_created": "2017-08-01",
    "managing_branch": "PAB",
    "parent_node_id": "1354137773676",
    "label": {
        "en": "Dairy Processing Investment Fund 1",
        "fr": "Fonds d'investissement dans la transformation des produits laitiers 1"
    },
    "exturl": "",
    "teamsite_location": {
        "en": "/default/main/AAFC-AAC/Internet-Internet/Group-Ensemble/ProgServ-ProgServ/WORKAREA/ProgServ-ProgServ/templatedata/comm-comm/gene-gene/data/04/ceta-aecg_dairy-proc_1491935288949_en",
        "fr": "/default/main/AAFC-AAC/Internet-Internet/Group-Ensemble/ProgServ-ProgServ/WORKAREA/ProgServ-ProgServ/templatedata/comm-comm/gene-gene/data/04/ceta-aecg_dairy-proc_1491935288949_fr"
    },
    "type_name": "sitemapinit",
    "has_dcr_id": true,
    "breadcrumb": {
        "en": "Dairy Processing Investment Fund 1",
        "fr": "Fonds d'investissement dans la transformation des produits laitiers 1"
    },
    "layout_name": "content page 1 column",
    "lang": "en",
    "meta": {
        "issued": {
            "en": "2017-08-01",
            "fr": "2017-08-01"
        },
        "modified": {
            "en": "2020-11-10",
            "fr": "2020-11-10"
        },
        "format": {
            "en": "text/html",
            "fr": "text/html"
        },
        "title": {
            "en": "Dairy Processing Investment Fund: Step 1. What this program offers",
            "fr": "Fonds d'investissement dans la transformation des produits laitiers : \u00c9tape 1. Ce qu'offre ce programme"
        },
        "subject": {
            "en": "architecture;beverage industry;wine industry",
            "fr": "m\u00e9dicament;d\u00e9veloppement \u00e9conomique;technologie agricole"
        },
        "description": {
            "en": "By Product. Bakery Products and Pasta. Beverages. www.bcblueberry.com. British Columbia Cranberry Growers Association. www.turkey.mb.ca. Chicken Farmers of Ontario.",
            "fr": "5. Plus d\u2019information sur ce service. \u00c0 AAC, l'Initiative de stage en agroenvironnement s'inscrit dans la Strat\u00e9gie emploi jeunesse (SEJ) du gouvernement du Canada. Il incombe \u00e0 l'employeur de payer l'employ\u00e9.2.7 Co\u00fbts non admissibles ou restrictions."
        },
        "language": {
            "en": "eng",
            "fr": "fra"
        },
        "keywords": {
            "en": "applesnb.ca",
            "fr": "Canada.Projets"
        },
        "audience": {
            "en": "gcaudience",
            "fr": "gcaudience"
        },
        "type": {
            "en": "form",
            "fr": "accord"
        },
        "creator": {
            "en": "Agriculture and Agri-Food Canada;Government of Canada",
            "fr": "Agriculture et Agroalimentaire Canada;Gouvernement du Canada"
        },
        "spatial": {
            "en": "gcregions",
            "fr": "gcregions"
        },
        "service": {
            "en": "AAFC-AAC",
            "fr": "AAFC-AAC"
        },
        "accessRights": {
            "en": "2",
            "fr": "2"
        },
        "legalName": {
            "en": "agriculture_and_agri_food_canada",
            "fr": "agriculture_et_agroalimentaire_canada"
        },
        "areaServed": {
            "en": "Canada",
            "fr": "Canada"
        }
    },
    "body": {
        "en": "tart --&gt;\r\n    <!-- D&eacute;but du contenu -->\r\n    <div class=\"mrgn-tp-md mrgn-bttm-lg brdr-bttm\">\n <div class=\"row\">\n<ul class=\"toc lst-spcd col-md-12 list-unstyled\">\n<li class=\"col-md-4 col-sm-6\"><span class=\"list-group-item active\">Step 1. What this program offers</span></li>\n<li class=\"col-md-4 col-sm-6\"><span class=\"list-group-item\">Step 2. <a href=\"?id=1494336435624\">Who is eligible</a></span></li>\n<li class=\"col-md-4 col-sm-6\"><span class=\"list-group-item\">Step 3. <a href=\"?id=1494336363841\">How to apply</a></span></li>\n<li class=\"col-md-4 col-sm-6\"><span class=\"list-group-item\">Step 4. <a href=\"?id=1494336321511\">After you apply</a></span></li>\n<li class=\"col-md-4 col-sm-6\"><span class=\"list-group-item\"><a href=\"?id=1494335560239\">Applicant guide</a></span></li>\n</ul>\n</div>\n</div>\n \n\n<h2>Step 1. What this program offers</h2>\n\n<div class=\"alert alert-info\">\n   <p>The application intake period for the Dairy Processing Investment Fund is now closed.</p>\n</div>\n\n<p>The Dairy Processing Investment Fund was established to provide funding to dairy processors for investments that will improve productivity and competitiveness, and help them prepare to market changes resulting from the Canada-European Union Comprehensive Economic and Trade Agreement\u00a0(CETA). The program will provide non-repayable contributions to support projects through:</p>\n\n<ul>\n  <li><b>Capital Investment</b> in equipment  and infrastructure; and/or\n<ul class=\"list-unstyled mrgn-tp-md mrgn-bttm-md\">\n<li>Improving manufacturing technologies and processes, or the introduction of new or improved products (including the acquisition and installation of equipment);</li>\n<li class=\"mrgn-tp-md mrgn-bttm-md\">Construction, expansion and/or modernization of dairy processing establishments in Canada; and,</li>\n<li>Engagement of external expertise/consultants related to the implementation, certification or validation of plant improvements.</li>\n</ul>\n</li>\n  <li><b>Access to Expertise</b> to engage private  sector technical, managerial, and business expertise</li>\n</ul>\n\n<p>The Fund will also allow an applicant to request access to Agriculture and Agri-Food Canada scientist(s), at an Agriculture and Agri-Food Canada Research and Development Centre, in order to conduct collaborative research on a project relating to improving an existing product, practice, process, and/or technology.</p>\n\n<p>Please note as it is a priority to improve processor productivity and competitiveness the program will target funding toward those investments that best achieve these goals. As such, for capital projects the program expects to focus on helping processors invest in new processing equipment that will help reduce costs, improve product quality and expand capacity (used or refurbished equipment is ineligible).</p> \n<p>Examples of these types of investments include following:</p>\n\n<ul>\n<li>Automation of production line</li>\n<li>Conveyor</li>\n<li>ERP (Enterprise Resource Planning)</li>\n<li>Ventilation (humidity control)</li>\n<li>Fridge</li>\n<li>Silos</li>\n<li>Packaging equipment (including encoder, packing, labelling, printing, coding, etc.)</li>\n</ul>\n\n<p>The above equipment list is not exhaustive and is intended only to provide context.</p>\n\n<p>Expenditures related to building expansion or new construction are eligible under the program, however support for these investments will be limited to circumstances where the applicant presents a strong case outlining the need to support these types of costs. </p>    \n\n<p>The  overall program budget is $100\u00a0million and the program will end on March 31,  2021.</p>\n\n<h3>How much can you receive</h3>\n\n<p>The  maximum funding available per Capital Investment project is $10\u00a0million and $250,000  per Access to Expertise project.</p>\n\n<p>The  maximum amount an applicant can receive is $10\u00a0million in total per year.</p>\n\n<p class=\"mrgn-tp-lg\"><a href=\"?id=1530013156290\"><img src=\"https://www.agr.gc.ca/resources/prod/img/prog/1522073268316-image-eng.jpg\" alt=\"\"><br>\nSubmit your feedback</a></p>\n\n<nav>\n  <h2 class=\"wb-inv\">Previous-next document navigation - bottom</h2>\n<div class=\"row\">\n<div class=\"col-md-12 mrgn-lft-0 mrgn-rght-0\">\n<ul class=\"pager\">\n\t<li class=\"next\"><a href=\"?id=1494336435624\" rel=\"next\" title=\"Step 2. Who is eligible\">Next</a></li>\n</ul>\n</div>\n</div>\n</nav>\n\r\n    <!-- Fin du contenu -->\r\n  \r\n  <div class=\"pagedetails\" id=\"pgft\">\r\n    <div class=\"row\">\r\n\t  <div class=\"col-sm-6 col-md-5 col-lg-4\">\r\n\t    <details class=\"brdr-0\">\r\n\t\t<summary class=\"btn btn-default text-center\" onclick=\"getAntiSpamSeq('/eng/mail-handler/?anti-spam-sequence=true')\">Report a problem on this page</summary>\r\n\t\t<div class=\"clearfix\"></div>\r\n\t\t<div class=\"well row\">\r\n\t\t<div>\r\n\t\t  <div class=\"gc-rprt-prblm\">\r\n\t\t    <div class=\"gc-rprt-prblm-frm gc-rprt-prblm-tggl\">\r\n\t\t\t  \r\n\t\t\t<form id=\"report_a_problem_form\" action=\"/eng/mail-handler/#report_a_problem_form\" method=\"post\">\t\t\t\t   \t\t\t\r\n\r\n\t            \t <input type=\"hidden\" name=\"lang\" value=\"eng\">\r\n\t            \t <input type=\"hidden\" name=\"pageId\" value=\"1491935288949\">\r\n\t            \t <input type=\"hidden\" name=\"pageUrl\" value=\"http://www.agr.gc.ca/eng/agricultural-programs-and-services/dairy-processing-investment-fund/?id=1491935288949\">\r\n\t\t\t\t\t <div id=\"report_a_problem_form_error\"></div>\r\n\t\t             <fieldset>\t\t\t\t\t    \r\n\t\t                <legend><span class=\"field-name\">Please select all that apply:</span></legend>\t\t                                 \r\n\t\t\t\t\t\t<div class=\"checkbox\">\r\n\t\t\t\t\t\t\t<label for=\"problem1\"><input name=\"problem1\" id=\"problem1\" type=\"checkbox\" value=\"Yes\">A link, button or video is not working</label>\r\n\t\t\t\t\t\t\t<input name=\"problem1\" type=\"hidden\" value=\"No\">\r\n\t\t\t\t\t\t</div>\r\n\t\t\t\t\t\t<div class=\"checkbox\">\r\n\t\t\t\t\t\t\t<label for=\"problem2\"><input name=\"problem2\" id=\"problem2\" type=\"checkbox\" value=\"Yes\">It has a spelling mistake</label>\r\n\t\t\t\t\t\t\t<input name=\"problem2\" type=\"hidden\" value=\"No\">\r\n\t\t\t\t\t\t</div>\r\n\t\t\t\t\t\t<div class=\"checkbox\">\r\n\t\t\t\t\t\t\t<label for=\"problem3\"><input name=\"problem3\" id=\"problem3\" type=\"checkbox\" value=\"Yes\">Information is missing</label>\r\n\t\t\t\t\t\t\t<input name=\"problem3\" type=\"hidden\" value=\"No\">\r\n\t\t\t\t\t   </div>\r\n\t\t\t\t\t\t<div class=\"checkbox\">\r\n\t\t\t\t\t\t\t<label for=\"problem4\"><input name=\"problem4\" id=\"problem4\" type=\"checkbox\" value=\"Yes\">Information is outdated or wrong</label>\r\n\t\t\t\t\t\t\t<input name=\"problem4\" type=\"hidden\" value=\"No\">\r\n\t\t\t\t\t\t</div>\r\n\t\t\t\t\t\t<div class=\"checkbox\">\r\n\t\t\t\t\t\t\t<label for=\"problem5\"><input name=\"problem5\" id=\"problem5\" type=\"checkbox\" value=\"Yes\">Login error when trying to access an account (e.g. My Service Canada Account)</label>\r\n\t\t\t\t\t\t\t<input name=\"problem5\" type=\"hidden\" value=\"No\">\r\n\t\t\t\t\t\t</div>\r\n\t\t\t\t\t\t\t<ul>\r\n\t\t\t\t\t\t\t<li class=\"checkbox\">\r\n\t\t\t\t\t\t\t\t<label for=\"problem6a\"><input name=\"problem6\" id=\"problem6a\" type=\"checkbox\" value=\"Yes\">GC Key access</label>\r\n\t\t\t\t\t\t\t\t<input name=\"problem6\" type=\"hidden\" value=\"No\">\r\n\t\t\t\t\t\t\t </li>\r\n\t\t\t\t\t\t\t<li class=\"checkbox\">\r\n\t\t\t\t\t\t\t\t<label for=\"problem7\"><input name=\"problem7\" id=\"problem7\" type=\"checkbox\" value=\"Yes\">SecureKey Concierge (Banking Credential) access </label>\r\n\t\t\t\t\t\t\t\t<input name=\"problem7\" type=\"hidden\" value=\"No\">\r\n\t\t\t\t\t\t\t </li>\r\n\t\t\t\t\t\t\t<li class=\"checkbox\">\r\n\t\t\t\t\t\t\t\t<label for=\"problem8\"><input name=\"problem8\" id=\"problem8\" type=\"checkbox\" value=\"Yes\">Personal Access Code (PAC) problems or EI Access Code (AC) problems</label>\r\n\t\t\t\t\t\t\t\t<input name=\"problem8\" type=\"hidden\" value=\"No\">\r\n\t\t\t\t\t\t\t </li>\t\r\n\t\t\t\t\t\t\t<li class=\"checkbox\">\r\n\t\t\t\t\t\t\t\t<label for=\"problem9\"><input name=\"problem9\" id=\"problem9\" type=\"checkbox\" value=\"Yes\">Social Insurance Number (SIN) validation problems</label>\r\n\t\t\t\t\t\t\t\t<input name=\"problem9\" type=\"hidden\" value=\"No\">\r\n\t\t\t\t\t\t\t </li>\t\t\t\t\t\t\t\t\r\n\t\t\t\t\t\t\t<li class=\"checkbox\">\r\n\t\t\t\t\t\t\t\t<label for=\"problem10\"><input name=\"problem10\" id=\"problem10\" type=\"checkbox\" value=\"Yes\">Other login error not in this list</label>\r\n\t\t\t\t\t\t\t\t<input name=\"problem10\" type=\"hidden\" value=\"No\">\r\n\t\t\t\t\t\t\t </li>\t\t \r\n\t\t\t\t\t\t\t </ul>\r\n\t\t\t\t\t\t<div class=\"checkbox\">\r\n\t\t\t\t\t\t\t<label for=\"problem11\"><input name=\"problem11\" id=\"problem11\" type=\"checkbox\" value=\"Yes\">I can't find what I'm looking for</label>\r\n\t\t\t\t\t\t\t<input name=\"problem11\" type=\"hidden\" value=\"No\">\r\n\t\t\t\t\t\t</div>\r\n\t\t\t\t\t\t<div class=\"checkbox\">\r\n\t\t\t\t\t\t\t<label for=\"problem12\"><input name=\"problem12\" id=\"problem12\" type=\"checkbox\" value=\"Yes\">Other issue not in this list</label>\r\n\t\t\t\t\t\t\t<input name=\"problem12\" type=\"hidden\" value=\"No\">\r\n\t\t\t\t\t\t</div>\t\t\t\t\t\t \t\t\t\t\t\t\t\t\t\t\t\t \r\n\t\t             </fieldset>\r\n\t\t\t\t\t <div>\r\n\t\t\t\t\t   <label for=\"aafc_ranstr\"><span id=\"fbch\"><br>Enter these characters <strong class=\"required\">(required)</strong>: </span><span id=\"ranstr\">U5S</span></label>\r\n\t\t\t           <input name=\"anti-spam-sequence\" id=\"aafc_ranstr\" size=\"4\" maxlength=\"3\" type=\"text\">\r\n\t\t\t\t\t </div>\t\r\n\r\n\t\t\t\t\t <br><input type=\"submit\" class=\"btn btn-primary\" value=\"Submit\">\r\n\t\t\t\t  </form>\r\n\t\t\t\t</div>\r\n\t\t\t</div>\t\t\t\r\n\t\t  </div>\r\n\t\t</div>\r\n\t\t</details>\r\n\t  </div>\r\n\t  <div class=\"wb-share col-sm-4 col-md-3 col-sm-offset-2 col-md-offset-4 col-lg-offset-5\" data-wb-share='{\"lnkClass\": \"btn btn-default btn-block\"}'></div>\r\n\t</div>\r\n\t<dl id=\"wb-dtmd\">\r\n\t  <dt>Date modified: </dt>\r\n\t  <dd><time property=\"dateModified\">2020-11-10</time></dd></dl></div>",
        "fr": "\r\n    \r\n    <!-- MainContentStart -->\r\n    <!-- D&eacute;but du contenu -->\r\n    <div class=\"mrgn-tp-md mrgn-bttm-lg brdr-bttm\">\n <div class=\"row\">\n<ul class=\"toc lst-spcd col-md-12 list-unstyled\">\n<li class=\"col-md-4 col-sm-6\"><span class=\"list-group-item active\">\u00c9tape 1. Ce qu'offre ce programme</span></li>\n<li class=\"col-md-4 col-sm-6\"><span class=\"list-group-item\">\u00c9tape 2. <a href=\"?id=1494336435624\">Qui est admissible</a></span></li>\n\n<li class=\"col-md-4 col-sm-6\"><span class=\"list-group-item\">\u00c9tape 3. <a href=\"?id=1494336363841\">Comment pr\u00e9senter une demande</a></span></li>\n<li class=\"col-md-4 col-sm-6\"><span class=\"list-group-item\">\u00c9tape 4. <a href=\"?id=1494336321511\">Apr\u00e8s avoir pr\u00e9sent\u00e9 votre demande</a></span></li>\n<li class=\"col-md-4 col-sm-6\"><span class=\"list-group-item\"><a href=\"?id=1494335560239\">Guide du demandeur</a></span></li>\n</ul>\n</div>\n</div>\n \n\n<h2>\u00c9tape 1. Ce qu'offre ce programme</h2>\n\n<div class=\"alert alert-info\">\n   <p>La p\u00e9riode de demande pour le Fonds d'investissement dans la transformation des produits laitiers est maintenant ferm\u00e9e.</p>\n</div>\n\n<p>Le Fonds d'investissement dans la transformation des produits laitiers a \u00e9t\u00e9 \u00e9tabli pour appuyer les transformateurs laitiers \u00e0 s'adapter aux changements du march\u00e9 d\u00e9coulant de l'Accord \u00e9conomique et commercial global (AECG) conclu entre le Canada et l'Union europ\u00e9enne. Le programme versera des contributions non remboursables pour appuyer des projets visant \u00e0 am\u00e9liorer la productivit\u00e9 et la comp\u00e9titivit\u00e9 par le biais\u00a0:</p>\n\n<ul>\n  <li><b>Investissement en immobilisations</b> dans une infrastructure et de l'\u00e9quipement;  et/ou\n\n<ul class=\"list-unstyled mrgn-tp-md mrgn-bttm-md\">\n<li>Am\u00e9lioration des technologies et des proc\u00e9d\u00e9s de fabrication, ou introduction de produits nouveaux ou am\u00e9lior\u00e9s (y compris l'acquisition et l'installation d'\u00e9quipement);</li> \n<li class=\"mrgn-tp-md mrgn-bttm-md\">Construction, agrandissement et/ou modernisation d'\u00e9tablissements de transformation laiti\u00e8re au Canada;</li>\n<li>Mobilisation d'experts-conseils ou d'experts externes pour la mise en \u0153uvre, la certification ou la validation des am\u00e9liorations apport\u00e9es aux \u00e9tablissements.</li>\n</ul>\n</li>\n\n  <li><b>Acc\u00e8s \u00e0 l'expertise </b>pour avoir acc\u00e8s \u00e0 une expertise technique,  op\u00e9rationnelle et/ou en gestion du secteur priv\u00e9.</li>\n</ul>\n\n<p>Le Fonds permettra aussi au demandeur de demander l'acc\u00e8s \u00e0 des scientifiques d'Agriculture et Agroalimentaire Canada \u00e0 un centre de recherche et de d\u00e9veloppement d'Agriculture et Agroalimentaire Canada afin de mener des recherches collaboratives sur un projet visant \u00e0 am\u00e9liorer un produit, une pratique, une technologie et/ou un processus existants.</p>\n\n<p>Veuillez noter que l'am\u00e9lioration de la productivit\u00e9 et de la comp\u00e9titivit\u00e9 des transformateurs est prioritaire, le programme r\u00e9servera ses fonds aux investissements qui permettront le mieux de r\u00e9aliser ces objectifs. Donc, dans le cas des projets d'immobilisations, le programme aidera les transformateurs \u00e0 investir dans l'achat d'\u00e9quipement nouveau qui leur permettra de r\u00e9duire leurs co\u00fbts, d'am\u00e9liorer la qualit\u00e9 de leurs produits et d'accro\u00eetre leur capacit\u00e9 (l'achat d'\u00e9quipement usag\u00e9 ou remis \u00e0 neuf n'est pas admissible). </p>\n<p>Exemples de ce genre d'investissement :</p>\n\n<ul>\n<li>Automatisation de la cha\u00eene de production</li>\n<li>Convoyeur</li>\n<li>PRO (Planification des ressources de l'organisation)</li>\n<li>Ventilation (contr\u00f4le de l'humidit\u00e9)</li>\n<li>R\u00e9frig\u00e9rateur</li>\n<li>Silos</li>\n<li>\u00c9quipement d'emballage (y compris l'encodeur, l'emballage, l'\u00e9tiquetage, l'impression, le codage, etc.)</li>\n</ul>\n\n<p>La liste d'\u00e9quipement n'est pas exhaustive. Elle est fournie \u00e0 titre d'exemple seulement.</p>\n\n<p>Les d\u00e9penses li\u00e9es \u00e0 l'agrandissement des installations ou \u00e0 une nouvelle construction sont admissibles selon les modalit\u00e9s du programme. Cependant, le soutien offert pour ces investissements sera limit\u00e9 aux cas o\u00f9 le demandeur pr\u00e9sente un dossier solide justifiant le besoin de financer ce genre de d\u00e9penses.</p>\n\n\n<p>Le  budget global du programme s'\u00e9l\u00e8ve \u00e0 100\u00a0millions de dollars et le  programme se terminera le 31\u00a0mars 2021.</p>\n\n<h3>Combien pouvez-vous recevoir</h3>\n\n<p>Le  financement maximal disponible par projet d'investissement en immobilisations est  de 10\u00a0millions de dollars et de 250\u00a0000\u00a0$ par projet d'acc\u00e8s \u00e0  l'expertise.</p>\n\n<p>Le montant  maximum qu'un demandeur peut recevoir  est de 10\u00a0millions de  dollars par ann\u00e9e.</p>\n\n<p class=\"mrgn-tp-lg\"><a href=\"?id=1530013156290\"><img src=\"https://www.agr.gc.ca/resources/prod/img/prog/1522073268316-image-fra.jpg\" alt=\"\"><br>\nSoumettre votre r\u00e9troaction</a></p>\n\n<nav>\n<h2 class=\"wb-inv\">Navigation du document - pr\u00e9c\u00e9dente-suivante - bas</h2>\n<div class=\"row\">\n<div class=\"col-md-12 mrgn-lft-0 mrgn-rght-0\">\n<ul class=\"pager\">\n<li class=\"next\"><a href=\"?id=1494336435624\" rel=\"next\" title=\"\u00c9tape 2. Qui est admissible\">Suivante</a></li>\n</ul>\n</div>\n</div>\n</nav> \n\r\n    <!-- Fin du contenu -->\r\n\t\r\n\t<div class=\"pagedetails\" id=\"pgft\">\r\n\t\t<div class=\"row\">\r\n\t\t  <div class=\"col-sm-6 col-md-5 col-lg-4\">\r\n\t\t    <details class=\"brdr-0\">\r\n\t\t\t<summary class=\"btn btn-default text-center\" onclick=\"getAntiSpamSeq('/fra/mail-handler/?anti-spam-sequence=true')\">Signaler un probl\u00e8me sur cette page</summary>\r\n\t\t\t<div class=\"well row\">\r\n\t\t\t  <div class=\"gc-rprt-prblm\">\r\n\t\t\t    <div class=\"gc-rprt-prblm-frm gc-rprt-prblm-tggl\">\r\n\t\t\t\t   <form id=\"report_a_problem_form\" action=\"/fra/mail-handler/\" method=\"post\">\r\n\t            \t <input type=\"hidden\" name=\"lang\" value=\"fra\">\r\n\t            \t <input type=\"hidden\" name=\"pageId\" value=\"1491935288949\">\r\n\t            \t <input type=\"hidden\" name=\"pageUrl\" value=\"http://www.agr.gc.ca/fra/programmes-et-services-agricoles/fonds-d-investissement-dans-la-transformation-des-produits-laitiers/?id=1491935288949\">\r\n\t\t\t\t\t <div id=\"report_a_problem_form_error\"></div>\r\n\t\t             <fieldset>\t\t\t\t\t    \r\n\t\t                <legend><span class=\"field-name\">Veuillez cocher toutes les r\u00e9ponses pertinentes\u00a0:</span></legend>\r\n\t\t                 <div class=\"checkbox\">\r\n\t\t                    <label for=\"problem1\"><input name=\"problem1\" id=\"problem1\" type=\"checkbox\" value=\"Yes\">Un lien, un bouton ou une vid\u00e9o ne fonctionne pas</label>\r\n\t\t                    <input name=\"problem1\" type=\"hidden\" value=\"No\">\r\n\t\t                </div>\r\n\t\t                <div class=\"checkbox\">\r\n\t\t                    <label for=\"problem2\"><input name=\"problem2\" id=\"problem2\" type=\"checkbox\" value=\"Yes\">Il y a une erreur d'orthographe ou de grammaire</label>\r\n\t\t                    <input name=\"problem2\" type=\"hidden\" value=\"No\">\r\n\t\t                </div>\r\n\t\t   \t\t\t\t <div class=\"checkbox\">\r\n\t\t                    <label for=\"problem3\"><input name=\"problem3\" id=\"problem3\" type=\"checkbox\" value=\"Yes\">Les renseignements sont incomplets</label>\r\n\t\t                    <input name=\"problem3\" type=\"hidden\" value=\"No\">\r\n\t\t                </div>\r\n\t\t             \t\t<div class=\"checkbox\">\r\n\t\t                    <label for=\"problem4\"><input name=\"problem4\" id=\"problem4\" type=\"checkbox\" value=\"Yes\">L'information n'est plus \u00e0 jour ou est erron\u00e9e</label>\r\n\t\t                    <input name=\"problem4\" type=\"hidden\" value=\"No\">\r\n\t\t                </div>\t\t\t\t\t\t\r\n\t\t\t\t\t\t<div class=\"checkbox\">\r\n\t\t\t\t\t\t\t<label for=\"problem5\"><input name=\"problem5\" id=\"problem5\" type=\"checkbox\" value=\"Yes\">Message d'erreur \u00e0 l'ouverture de la session lorsque je tente d'acc\u00e9der \u00e0 un compte (ex. Mon dossier Service Canada)</label>\r\n\t\t\t\t\t\t\t<input name=\"problem5\" type=\"hidden\" value=\"No\">\r\n\t\t\t\t\t\t</div>\r\n\t\t\t\t\t\t\t<ul>\r\n\t\t\t\t\t\t\t<li class=\"checkbox\">\r\n\t\t\t\t\t\t\t\t<label for=\"problem6a\"><input name=\"problem6\" id=\"problem6a\" type=\"checkbox\" value=\"Yes\">Acc\u00e8s Cl\u00e9GC</label>\r\n\t\t\t\t\t\t\t\t<input name=\"problem6\" type=\"hidden\" value=\"No\">\r\n\t\t\t\t\t\t\t </li>\r\n\t\t\t\t\t\t\t<li class=\"checkbox\">\r\n\t\t\t\t\t\t\t\t<label for=\"problem7\"><input name=\"problem7\" id=\"problem7\" type=\"checkbox\" value=\"Yes\">Acc\u00e8s SecureKey Service de Concierge (justificatifs d'identit\u00e9 bancaires)</label>\r\n\t\t\t\t\t\t\t\t<input name=\"problem7\" type=\"hidden\" value=\"No\">\r\n\t\t\t\t\t\t\t </li>\r\n\t\t\t\t\t\t\t<li class=\"checkbox\">\r\n\t\t\t\t\t\t\t\t<label for=\"problem8\"><input name=\"problem8\" id=\"problem8\" type=\"checkbox\" value=\"Yes\">Probl\u00e8me avec le Code d'acc\u00e8s personnel (CAP) ou avec le Code d'acc\u00e8s (CA) de l'assurance emploi</label>\r\n\t\t\t\t\t\t\t\t<input name=\"problem8\" type=\"hidden\" value=\"No\">\r\n\t\t\t\t\t\t\t </li>\t\r\n\t\t\t\t\t\t\t<li class=\"checkbox\">\r\n\t\t\t\t\t\t\t\t<label for=\"problem9\"><input name=\"problem9\" id=\"problem9\" type=\"checkbox\" value=\"Yes\">Probl\u00e8me li\u00e9 \u00e0 la validation du num\u00e9ro d'assurance sociale (NAS)</label>\r\n\t\t\t\t\t\t\t\t<input name=\"problem9\" type=\"hidden\" value=\"No\">\r\n\t\t\t\t\t\t\t </li>\t\t\t\t\t\t\t\t\r\n\t\t\t\t\t\t\t<li class=\"checkbox\">\r\n\t\t\t\t\t\t\t\t<label for=\"problem10\"><input name=\"problem10\" id=\"problem10\" type=\"checkbox\" value=\"Yes\">Autre erreur lors de l'ouverture de session qui ne figure pas sur cette liste</label>\r\n\t\t\t\t\t\t\t\t<input name=\"problem10\" type=\"hidden\" value=\"No\">\r\n\t\t\t\t\t\t\t </li>\t\t \r\n\t\t\t\t\t\t\t </ul>\r\n\t\t\t\t\t\t<div class=\"checkbox\">\r\n\t\t\t\t\t\t\t<label for=\"problem11\"><input name=\"problem11\" id=\"problem11\" type=\"checkbox\" value=\"Yes\">Je n'arrive pas \u00e0 trouver ce que je cherche</label>\r\n\t\t\t\t\t\t\t<input name=\"problem11\" type=\"hidden\" value=\"No\">\r\n\t\t\t\t\t\t</div>\r\n\t\t\t\t\t\t<div class=\"checkbox\">\r\n\t\t\t\t\t\t\t<label for=\"problem12\"><input name=\"problem12\" id=\"problem12\" type=\"checkbox\" value=\"Yes\">Autre probl\u00e8me qui ne figure pas sur cette liste</label>\r\n\t\t\t\t\t\t\t<input name=\"problem12\" type=\"hidden\" value=\"No\">\r\n\t\t\t\t\t\t</div>\t\t\t\t\t\t\t\t\t\t\t\t\t\t\t\t\t\t\t\r\n\t\t             </fieldset>\r\n\t\t\t\t\t <div>\r\n\t\t\t\t        <label for=\"aafc_ranstr\"><span id=\"fbch\">Veuillez inscrire les caract\u00e8res suivants  <strong class=\"required\">(obligatoire)</strong>\u00a0: </span><span id=\"ranstr\">XXX</span></label>\r\n\t\t\t            <input name=\"anti-spam-sequence\" id=\"aafc_ranstr\" size=\"4\" maxlength=\"3\" type=\"text\">\r\n\t\t\t\t\t </div>\r\n\t\t\t\t\t <input type=\"submit\" class=\"btn btn-primary\" value=\"Soumettre\">\r\n\t\t\t\t  </form>\r\n\t\t\t\t</div>\r\n\t\t\t  </div>\r\n\t\t\t</div>\r\n\t\t</details>\r\n\t    </div>\r\n\t  <div class=\"wb-share col-sm-4 col-md-3 col-sm-offset-2 col-md-offset-4 col-lg-offset-5\" data-wb-share='{\"lnkClass\": \"btn btn-default btn-block\"}'></div>\r\n\t  </div>\r\n\t  <dl id=\"wb-dtmd\">\r\n\t    <dt>Date de modification\u00a0: </dt>\r\n\t      <dd><time property=\"dateModified\">2020-11-10</time></dd>\r\n\t  </dl>\r\n\t</div>\r\n\t\r\n  "
    }
}