{
    "dcr_id": "1517326808755",
    "title": {
        "en": "AgriDiversity Program: Step 1. What this program offers",
        "fr": "Programme Agri-diversit\u00e9 : \u00c9tape 1. Ce qu\u2019offre ce programme"
    },
    "modified": "2020-06-01",
    "issued": "2018-02-13",
    "templatetype": "content page 1 column",
    "page_type": "1",
    "node_id": "1517240266933",
    "dc_date_created": "2018-02-13",
    "managing_branch": "PAB",
    "parent_node_id": "1354137773676",
    "label": {
        "en": "AgriDiversity Program",
        "fr": "Programme Agri-diversit\u00e9"
    },
    "exturl": "",
    "teamsite_location": {
        "en": "/default/main/AAFC-AAC/Internet-Internet/Group-Ensemble/ProgServ-ProgServ/WORKAREA/ProgServ-ProgServ/templatedata/comm-comm/gene-gene/data/01/agridiversity_1_program_offers_1517326808755_en",
        "fr": "/default/main/AAFC-AAC/Internet-Internet/Group-Ensemble/ProgServ-ProgServ/WORKAREA/ProgServ-ProgServ/templatedata/comm-comm/gene-gene/data/01/agridiversity_1_program_offers_1517326808755_fr"
    },
    "type_name": "sitemapinit",
    "has_dcr_id": true,
    "breadcrumb": {
        "en": "AgriDiversity Program",
        "fr": "Programme Agri-diversit\u00e9"
    },
    "layout_name": "content page 1 column",
    "lang": "en",
    "meta": {
        "issued": {
            "en": "2018-02-13",
            "fr": "2018-02-13"
        },
        "modified": {
            "en": "2020-06-01",
            "fr": "2020-06-01"
        },
        "format": {
            "en": "text/html",
            "fr": "text/html"
        },
        "title": {
            "en": "AgriDiversity Program: Step 1. What this program offers",
            "fr": "Programme Agri-diversit\u00e9 : \u00c9tape 1. Ce qu\u2019offre ce programme"
        },
        "subject": {
            "en": "statistics;architectural heritage;architecture",
            "fr": "d\u00e9veloppement \u00e9conomique;consultation;commerce ext\u00e9rieur"
        },
        "description": {
            "en": "Applicant guide. 1.What this program offers. 2.Who is eligible. 1.0 Canadian Agricultural Partnership. The Canadian Agricultural Partnership is a five-year, $3\u00a0billion investment by federal, provincial and territorial governments to strengthen the agriculture, agri-food and agri-based products sector. They can include:Businesses and/or corporations. Co-operatives.",
            "fr": "Guide du demandeur. 1.Que comprend ce service. Les employeurs admissibles sont des organismes offrant des projets qui permettront aux employ\u00e9s de r\u00e9aliser ce qui suit\u00a0:vivre des exp\u00e9riences de travail en agriculture au Canada qui sont li\u00e9es \u00e0 leur choix de carri\u00e8re;acqu\u00e9rir des comp\u00e9tences \u00e0 l'aide du mentorat et de l'encadrement.Voici les types d'organismes vis\u00e9s\u00a0:les membres de l'industrie. 4.1 Crit\u00e8res d'\u00e9valuation."
        },
        "language": {
            "en": "eng",
            "fr": "fra"
        },
        "keywords": {
            "en": "applicant.Total;allocated.Projects",
            "fr": "Canada.Projets"
        },
        "audience": {
            "en": "gcaudience",
            "fr": "gcaudience"
        },
        "type": {
            "en": "fact sheet",
            "fr": "\u00e9valuation"
        },
        "creator": {
            "en": "Agriculture and Agri-Food Canada;Government of Canada",
            "fr": "Agriculture et Agroalimentaire Canada;Gouvernement du Canada"
        },
        "spatial": {
            "en": "gcregions",
            "fr": "gcregions"
        },
        "service": {
            "en": "AAFC-AAC",
            "fr": "AAFC-AAC"
        },
        "accessRights": {
            "en": "2",
            "fr": "2"
        },
        "legalName": {
            "en": "agriculture_and_agri_food_canada",
            "fr": "agriculture_et_agroalimentaire_canada"
        },
        "areaServed": {
            "en": "Canada",
            "fr": "Canada"
        }
    },
    "body": {
        "en": "tart --&gt;\r\n    <!-- D&eacute;but du contenu -->\r\n    <div class=\"mrgn-tp-md mrgn-bttm-lg brdr-bttm\">\n\n<div class=\"row\">\n<ul class=\"toc lst-spcd col-md-12 list-unstyled\">\n<li class=\"col-md-4 col-sm-6\"><span class=\"list-group-item active\">Step 1. What this program offers</span></li>\n\n<li class=\"col-md-4 col-sm-6\"><span class=\"list-group-item\">Step 2. <a href=\"?id=1517326988856\">Who is eligible</a></span></li>\n\n<li class=\"col-md-4 col-sm-6 clr-lft-sm\"><span class=\"list-group-item\">Step 3. <a href=\"?id=1517327176101\">How to apply</a></span></li>\n\n<li class=\"col-md-4 col-sm-6\"><span class=\"list-group-item\">Step 4. <a href=\"?id=1517327373293\">After you apply</a></span></li>\n\n<li class=\"col-md-4 col-sm-6\"><span class=\"list-group-item\"><a href=\"?id=1517327470700\">Applicant guide</a></span></li>\n\n<!-- <li class=\"col-md-4 col-sm-6 clr-lft-sm\"><span class=\"list-group-item\"><a href=\"?id=...\">Frequently Asked Questions</a></span></li> -->\n\n<li class=\"col-md-4 col-sm-6\"><span class=\"list-group-item\"><a href=\"?id=1517327548940\">Contact information</a></span></li>\n</ul>\n</div>\n</div>\n\n<h2>Step 1. What this program offers</h2>\n\n<p>The AgriDiversity Program aims to help under-represented groups in Canadian agriculture, including youth, women, Indigenous Peoples, and persons with disabilities, to fully participate in the sector by helping these groups address the key issues and barriers they often face for sector participation.</p>\n\n<p>The program will help to strengthen the sector and build its capacity by:</p>\n\n<ul>\n<li>helping diverse groups to better develop their skills to take on a greater leadership role</li>\n<li>building the entrepreneurial capacity and business skills of under-represented groups</li>\n<li>facilitating the sharing of industry experience, best practices and knowledge to help under-represented groups to manage transformation and adapt to changes in business operations</li>\n<li>strengthening the sector by incorporating the views of a greater diversity of industry players</li>\n</ul>\n\n<p>If approved, support is available in the form of non-repayable contributions support from Agriculture and Agri-Food Canada (AAFC).</p>\n\n<div class=\"alert alert-info\">\n\t<p>Applications will be accepted from February 13, 2018 until September 30, 2022, or until funding has been fully committed or until otherwise announced by the program.</p>\n\n<p class=\"mrgn-lft-lg\">The program ends March 31, 2023.</p>\n</div>\n\n\n\n<nav>\n  <h2 class=\"wb-inv\">Previous-next document navigation - bottom</h2>\n\n<div class=\"row\">\n<div class=\"col-md-12 mrgn-lft-0 mrgn-rght-0\">\n<ul class=\"pager\">\n<li class=\"next\"><a href=\"?id=1517326988856\" rel=\"next\" title=\"Who is eligible\">Next</a></li>\n</ul>\n</div>\n</div>\n</nav>\n\r\n    <!-- Fin du contenu -->\r\n  \r\n  <div class=\"pagedetails\" id=\"pgft\">\r\n    <div class=\"row\">\r\n\t  <div class=\"col-sm-6 col-md-5 col-lg-4\">\r\n\t    <details class=\"brdr-0\">\r\n\t\t<summary class=\"btn btn-default text-center\" onclick=\"getAntiSpamSeq('/eng/mail-handler/?anti-spam-sequence=true')\">Report a problem on this page</summary>\r\n\t\t<div class=\"clearfix\"></div>\r\n\t\t<div class=\"well row\">\r\n\t\t<div>\r\n\t\t  <div class=\"gc-rprt-prblm\">\r\n\t\t    <div class=\"gc-rprt-prblm-frm gc-rprt-prblm-tggl\">\r\n\t\t\t  \r\n\t\t\t<form id=\"report_a_problem_form\" action=\"/eng/mail-handler/#report_a_problem_form\" method=\"post\">\t\t\t\t   \t\t\t\r\n\r\n\t            \t <input type=\"hidden\" name=\"lang\" value=\"eng\">\r\n\t            \t <input type=\"hidden\" name=\"pageId\" value=\"1517326808755\">\r\n\t            \t <input type=\"hidden\" name=\"pageUrl\" value=\"http://www.agr.gc.ca/eng/agricultural-programs-and-services/agridiversity-program/?id=1517326808755\">\r\n\t\t\t\t\t <div id=\"report_a_problem_form_error\"></div>\r\n\t\t             <fieldset>\t\t\t\t\t    \r\n\t\t                <legend><span class=\"field-name\">Please select all that apply:</span></legend>\t\t                                 \r\n\t\t\t\t\t\t<div class=\"checkbox\">\r\n\t\t\t\t\t\t\t<label for=\"problem1\"><input name=\"problem1\" id=\"problem1\" type=\"checkbox\" value=\"Yes\">A link, button or video is not working</label>\r\n\t\t\t\t\t\t\t<input name=\"problem1\" type=\"hidden\" value=\"No\">\r\n\t\t\t\t\t\t</div>\r\n\t\t\t\t\t\t<div class=\"checkbox\">\r\n\t\t\t\t\t\t\t<label for=\"problem2\"><input name=\"problem2\" id=\"problem2\" type=\"checkbox\" value=\"Yes\">It has a spelling mistake</label>\r\n\t\t\t\t\t\t\t<input name=\"problem2\" type=\"hidden\" value=\"No\">\r\n\t\t\t\t\t\t</div>\r\n\t\t\t\t\t\t<div class=\"checkbox\">\r\n\t\t\t\t\t\t\t<label for=\"problem3\"><input name=\"problem3\" id=\"problem3\" type=\"checkbox\" value=\"Yes\">Information is missing</label>\r\n\t\t\t\t\t\t\t<input name=\"problem3\" type=\"hidden\" value=\"No\">\r\n\t\t\t\t\t   </div>\r\n\t\t\t\t\t\t<div class=\"checkbox\">\r\n\t\t\t\t\t\t\t<label for=\"problem4\"><input name=\"problem4\" id=\"problem4\" type=\"checkbox\" value=\"Yes\">Information is outdated or wrong</label>\r\n\t\t\t\t\t\t\t<input name=\"problem4\" type=\"hidden\" value=\"No\">\r\n\t\t\t\t\t\t</div>\r\n\t\t\t\t\t\t<div class=\"checkbox\">\r\n\t\t\t\t\t\t\t<label for=\"problem5\"><input name=\"problem5\" id=\"problem5\" type=\"checkbox\" value=\"Yes\">Login error when trying to access an account (e.g. My Service Canada Account)</label>\r\n\t\t\t\t\t\t\t<input name=\"problem5\" type=\"hidden\" value=\"No\">\r\n\t\t\t\t\t\t</div>\r\n\t\t\t\t\t\t\t<ul>\r\n\t\t\t\t\t\t\t<li class=\"checkbox\">\r\n\t\t\t\t\t\t\t\t<label for=\"problem6a\"><input name=\"problem6\" id=\"problem6a\" type=\"checkbox\" value=\"Yes\">GC Key access</label>\r\n\t\t\t\t\t\t\t\t<input name=\"problem6\" type=\"hidden\" value=\"No\">\r\n\t\t\t\t\t\t\t </li>\r\n\t\t\t\t\t\t\t<li class=\"checkbox\">\r\n\t\t\t\t\t\t\t\t<label for=\"problem7\"><input name=\"problem7\" id=\"problem7\" type=\"checkbox\" value=\"Yes\">SecureKey Concierge (Banking Credential) access </label>\r\n\t\t\t\t\t\t\t\t<input name=\"problem7\" type=\"hidden\" value=\"No\">\r\n\t\t\t\t\t\t\t </li>\r\n\t\t\t\t\t\t\t<li class=\"checkbox\">\r\n\t\t\t\t\t\t\t\t<label for=\"problem8\"><input name=\"problem8\" id=\"problem8\" type=\"checkbox\" value=\"Yes\">Personal Access Code (PAC) problems or EI Access Code (AC) problems</label>\r\n\t\t\t\t\t\t\t\t<input name=\"problem8\" type=\"hidden\" value=\"No\">\r\n\t\t\t\t\t\t\t </li>\t\r\n\t\t\t\t\t\t\t<li class=\"checkbox\">\r\n\t\t\t\t\t\t\t\t<label for=\"problem9\"><input name=\"problem9\" id=\"problem9\" type=\"checkbox\" value=\"Yes\">Social Insurance Number (SIN) validation problems</label>\r\n\t\t\t\t\t\t\t\t<input name=\"problem9\" type=\"hidden\" value=\"No\">\r\n\t\t\t\t\t\t\t </li>\t\t\t\t\t\t\t\t\r\n\t\t\t\t\t\t\t<li class=\"checkbox\">\r\n\t\t\t\t\t\t\t\t<label for=\"problem10\"><input name=\"problem10\" id=\"problem10\" type=\"checkbox\" value=\"Yes\">Other login error not in this list</label>\r\n\t\t\t\t\t\t\t\t<input name=\"problem10\" type=\"hidden\" value=\"No\">\r\n\t\t\t\t\t\t\t </li>\t\t \r\n\t\t\t\t\t\t\t </ul>\r\n\t\t\t\t\t\t<div class=\"checkbox\">\r\n\t\t\t\t\t\t\t<label for=\"problem11\"><input name=\"problem11\" id=\"problem11\" type=\"checkbox\" value=\"Yes\">I can't find what I'm looking for</label>\r\n\t\t\t\t\t\t\t<input name=\"problem11\" type=\"hidden\" value=\"No\">\r\n\t\t\t\t\t\t</div>\r\n\t\t\t\t\t\t<div class=\"checkbox\">\r\n\t\t\t\t\t\t\t<label for=\"problem12\"><input name=\"problem12\" id=\"problem12\" type=\"checkbox\" value=\"Yes\">Other issue not in this list</label>\r\n\t\t\t\t\t\t\t<input name=\"problem12\" type=\"hidden\" value=\"No\">\r\n\t\t\t\t\t\t</div>\t\t\t\t\t\t \t\t\t\t\t\t\t\t\t\t\t\t \r\n\t\t             </fieldset>\r\n\t\t\t\t\t <div>\r\n\t\t\t\t\t   <label for=\"aafc_ranstr\"><span id=\"fbch\"><br>Enter these characters <strong class=\"required\">(required)</strong>: </span><span id=\"ranstr\">U5S</span></label>\r\n\t\t\t           <input name=\"anti-spam-sequence\" id=\"aafc_ranstr\" size=\"4\" maxlength=\"3\" type=\"text\">\r\n\t\t\t\t\t </div>\t\r\n\r\n\t\t\t\t\t <br><input type=\"submit\" class=\"btn btn-primary\" value=\"Submit\">\r\n\t\t\t\t  </form>\r\n\t\t\t\t</div>\r\n\t\t\t</div>\t\t\t\r\n\t\t  </div>\r\n\t\t</div>\r\n\t\t</details>\r\n\t  </div>\r\n\t  <div class=\"wb-share col-sm-4 col-md-3 col-sm-offset-2 col-md-offset-4 col-lg-offset-5\" data-wb-share='{\"lnkClass\": \"btn btn-default btn-block\"}'></div>\r\n\t</div>\r\n\t<dl id=\"wb-dtmd\">\r\n\t  <dt>Date modified: </dt>\r\n\t  <dd><time property=\"dateModified\">2020-06-01</time></dd></dl></div>",
        "fr": "\r\n    \r\n    <!-- MainContentStart -->\r\n    <!-- D&eacute;but du contenu -->\r\n    <div class=\"mrgn-tp-md mrgn-bttm-lg brdr-bttm\">\n\n<div class=\"row\">\n<ul class=\"toc lst-spcd col-md-12 list-unstyled\">\n<li class=\"col-md-4 col-sm-6\"><span class=\"list-group-item active\">\u00c9tape 1. Ce qu'offre ce programme</span></li>\n\n<li class=\"col-md-4 col-sm-6\"><span class=\"list-group-item\">\u00c9tape 2. <a href=\"?id=1517326988856\">Qui est admissible</a></span></li>\n\n<li class=\"col-md-4 col-sm-6 clr-lft-sm\"><span class=\"list-group-item\">\u00c9tape 3. <a href=\"?id=1517327176101\">Comment pr\u00e9senter une demande</a></span></li>\n\n<li class=\"col-md-4 col-sm-6\"><span class=\"list-group-item\">\u00c9tape 4. <a href=\"?id=1517327373293\">Apr\u00e8s avoir pr\u00e9sent\u00e9 votre demande</a></span></li>\n\n<li class=\"col-md-4 col-sm-6\"><span class=\"list-group-item\"><a href=\"?id=1517327470700\">Guide du demandeur</a></span></li>\n\n<!-- <li class=\"col-md-4 col-sm-6 clr-lft-sm\"><span class=\"list-group-item\"><a href=\"?id=...\">Foire aux questions</a></span></li> -->\n\n<li class=\"col-md-4 col-sm-6\"><span class=\"list-group-item\"><a href=\"?id=1517327548940\">Pour nous joindre</a></span></li>\n</ul>\n</div>\n</div>\n\n<h2>\u00c9tape 1. Ce qu\u2019offre ce programme</h2>\n\n<p>Le programme Agri-diversit\u00e9 vise \u00e0 aider les groupes sous-repr\u00e9sent\u00e9s du secteur agricole canadien, tels que les jeunes, les femmes, les Autochtones et les personnes handicap\u00e9es, \u00e0 participer pleinement au secteur, en les aidant \u00e0 surmonter les probl\u00e8mes et les obstacles auxquels ils sont souvent confront\u00e9s.</p>\n\n<p>L\u2019objectif du Programme Agri-diversit\u00e9 est de renforcer le secteur et ses capacit\u00e9s par les actions suivantes\u00a0:</p>\n\n<ul>\n<li>aider divers groupes \u00e0 mieux perfectionner leurs aptitudes en vue d\u2019assumer des r\u00f4les de leadership plus importants;</li>\n<li>d\u00e9velopper les capacit\u00e9s entrepreneuriales et les comp\u00e9tences en affaires des groupes sous-repr\u00e9sent\u00e9s;</li>\n<li>faciliter le partage des connaissances et des pratiques exemplaires dans l\u2019industrie, afin d\u2019aider les groupes sous-repr\u00e9sent\u00e9s \u00e0 g\u00e9rer les activit\u00e9s de transformation et \u00e0 s\u2019adapter aux changements touchant les activit\u00e9s d\u2019exploitation; et</li>\n<li>renforcer le secteur en int\u00e9grant les points de vue d\u2019un plus grand nombre d\u2019acteurs de l\u2019industrie.</li>\n</ul>\n\n<p>Si approuv\u00e9, un appui est disponible sous la forme de contribution financi\u00e8re non remboursable d\u2019Agriculture et Agroalimentaire Canada (AAC).</p>\n\n<div class=\"alert alert-info\">\n\t<p>Les demandes seront accept\u00e9es entre le 13 f\u00e9vrier 2018 et le 30 septembre 2022, ou jusqu\u2019\u00e0 ce que l\u2019int\u00e9gralit\u00e9 des fonds ait \u00e9t\u00e9 affect\u00e9e ou qu\u2019une annonce contraire soit publi\u00e9e dans le cadre du programme.</p>\n\n<p class=\"mrgn-lft-lg\">Le programme se termine au 31 mars, 2023.</p>\n</div>\n\n\n<nav>\n  <h2 class=\"wb-inv\">Navigation du document - pr\u00e9c\u00e9dente-suivante - bas</h2>\n\n<div class=\"row\">\n<div class=\"col-md-12 mrgn-lft-0 mrgn-rght-0\">\n<ul class=\"pager\">\n<li class=\"next\"><a href=\"?id=1517326988856\" rel=\"next\" title=\"Qui est admissible\">Suivante</a></li>\n</ul>\n</div>\n</div>\n</nav>\n\n\r\n    <!-- Fin du contenu -->\r\n\t\r\n\t<div class=\"pagedetails\" id=\"pgft\">\r\n\t\t<div class=\"row\">\r\n\t\t  <div class=\"col-sm-6 col-md-5 col-lg-4\">\r\n\t\t    <details class=\"brdr-0\">\r\n\t\t\t<summary class=\"btn btn-default text-center\" onclick=\"getAntiSpamSeq('/fra/mail-handler/?anti-spam-sequence=true')\">Signaler un probl\u00e8me sur cette page</summary>\r\n\t\t\t<div class=\"well row\">\r\n\t\t\t  <div class=\"gc-rprt-prblm\">\r\n\t\t\t    <div class=\"gc-rprt-prblm-frm gc-rprt-prblm-tggl\">\r\n\t\t\t\t   <form id=\"report_a_problem_form\" action=\"/fra/mail-handler/\" method=\"post\">\r\n\t            \t <input type=\"hidden\" name=\"lang\" value=\"fra\">\r\n\t            \t <input type=\"hidden\" name=\"pageId\" value=\"1517326808755\">\r\n\t            \t <input type=\"hidden\" name=\"pageUrl\" value=\"http://agr.gc.ca/fra/programmes-et-services-agricoles/programme-agri-diversite/?id=1517326808755\">\r\n\t\t\t\t\t <div id=\"report_a_problem_form_error\"></div>\r\n\t\t             <fieldset>\t\t\t\t\t    \r\n\t\t                <legend><span class=\"field-name\">Veuillez cocher toutes les r\u00e9ponses pertinentes\u00a0:</span></legend>\r\n\t\t                 <div class=\"checkbox\">\r\n\t\t                    <label for=\"problem1\"><input name=\"problem1\" id=\"problem1\" type=\"checkbox\" value=\"Yes\">Un lien, un bouton ou une vid\u00e9o ne fonctionne pas</label>\r\n\t\t                    <input name=\"problem1\" type=\"hidden\" value=\"No\">\r\n\t\t                </div>\r\n\t\t                <div class=\"checkbox\">\r\n\t\t                    <label for=\"problem2\"><input name=\"problem2\" id=\"problem2\" type=\"checkbox\" value=\"Yes\">Il y a une erreur d'orthographe ou de grammaire</label>\r\n\t\t                    <input name=\"problem2\" type=\"hidden\" value=\"No\">\r\n\t\t                </div>\r\n\t\t   \t\t\t\t <div class=\"checkbox\">\r\n\t\t                    <label for=\"problem3\"><input name=\"problem3\" id=\"problem3\" type=\"checkbox\" value=\"Yes\">Les renseignements sont incomplets</label>\r\n\t\t                    <input name=\"problem3\" type=\"hidden\" value=\"No\">\r\n\t\t                </div>\r\n\t\t             \t\t<div class=\"checkbox\">\r\n\t\t                    <label for=\"problem4\"><input name=\"problem4\" id=\"problem4\" type=\"checkbox\" value=\"Yes\">L'information n'est plus \u00e0 jour ou est erron\u00e9e</label>\r\n\t\t                    <input name=\"problem4\" type=\"hidden\" value=\"No\">\r\n\t\t                </div>\t\t\t\t\t\t\r\n\t\t\t\t\t\t<div class=\"checkbox\">\r\n\t\t\t\t\t\t\t<label for=\"problem5\"><input name=\"problem5\" id=\"problem5\" type=\"checkbox\" value=\"Yes\">Message d'erreur \u00e0 l'ouverture de la session lorsque je tente d'acc\u00e9der \u00e0 un compte (ex. Mon dossier Service Canada)</label>\r\n\t\t\t\t\t\t\t<input name=\"problem5\" type=\"hidden\" value=\"No\">\r\n\t\t\t\t\t\t</div>\r\n\t\t\t\t\t\t\t<ul>\r\n\t\t\t\t\t\t\t<li class=\"checkbox\">\r\n\t\t\t\t\t\t\t\t<label for=\"problem6a\"><input name=\"problem6\" id=\"problem6a\" type=\"checkbox\" value=\"Yes\">Acc\u00e8s Cl\u00e9GC</label>\r\n\t\t\t\t\t\t\t\t<input name=\"problem6\" type=\"hidden\" value=\"No\">\r\n\t\t\t\t\t\t\t </li>\r\n\t\t\t\t\t\t\t<li class=\"checkbox\">\r\n\t\t\t\t\t\t\t\t<label for=\"problem7\"><input name=\"problem7\" id=\"problem7\" type=\"checkbox\" value=\"Yes\">Acc\u00e8s SecureKey Service de Concierge (justificatifs d'identit\u00e9 bancaires)</label>\r\n\t\t\t\t\t\t\t\t<input name=\"problem7\" type=\"hidden\" value=\"No\">\r\n\t\t\t\t\t\t\t </li>\r\n\t\t\t\t\t\t\t<li class=\"checkbox\">\r\n\t\t\t\t\t\t\t\t<label for=\"problem8\"><input name=\"problem8\" id=\"problem8\" type=\"checkbox\" value=\"Yes\">Probl\u00e8me avec le Code d'acc\u00e8s personnel (CAP) ou avec le Code d'acc\u00e8s (CA) de l'assurance emploi</label>\r\n\t\t\t\t\t\t\t\t<input name=\"problem8\" type=\"hidden\" value=\"No\">\r\n\t\t\t\t\t\t\t </li>\t\r\n\t\t\t\t\t\t\t<li class=\"checkbox\">\r\n\t\t\t\t\t\t\t\t<label for=\"problem9\"><input name=\"problem9\" id=\"problem9\" type=\"checkbox\" value=\"Yes\">Probl\u00e8me li\u00e9 \u00e0 la validation du num\u00e9ro d'assurance sociale (NAS)</label>\r\n\t\t\t\t\t\t\t\t<input name=\"problem9\" type=\"hidden\" value=\"No\">\r\n\t\t\t\t\t\t\t </li>\t\t\t\t\t\t\t\t\r\n\t\t\t\t\t\t\t<li class=\"checkbox\">\r\n\t\t\t\t\t\t\t\t<label for=\"problem10\"><input name=\"problem10\" id=\"problem10\" type=\"checkbox\" value=\"Yes\">Autre erreur lors de l'ouverture de session qui ne figure pas sur cette liste</label>\r\n\t\t\t\t\t\t\t\t<input name=\"problem10\" type=\"hidden\" value=\"No\">\r\n\t\t\t\t\t\t\t </li>\t\t \r\n\t\t\t\t\t\t\t </ul>\r\n\t\t\t\t\t\t<div class=\"checkbox\">\r\n\t\t\t\t\t\t\t<label for=\"problem11\"><input name=\"problem11\" id=\"problem11\" type=\"checkbox\" value=\"Yes\">Je n'arrive pas \u00e0 trouver ce que je cherche</label>\r\n\t\t\t\t\t\t\t<input name=\"problem11\" type=\"hidden\" value=\"No\">\r\n\t\t\t\t\t\t</div>\r\n\t\t\t\t\t\t<div class=\"checkbox\">\r\n\t\t\t\t\t\t\t<label for=\"problem12\"><input name=\"problem12\" id=\"problem12\" type=\"checkbox\" value=\"Yes\">Autre probl\u00e8me qui ne figure pas sur cette liste</label>\r\n\t\t\t\t\t\t\t<input name=\"problem12\" type=\"hidden\" value=\"No\">\r\n\t\t\t\t\t\t</div>\t\t\t\t\t\t\t\t\t\t\t\t\t\t\t\t\t\t\t\r\n\t\t             </fieldset>\r\n\t\t\t\t\t <div>\r\n\t\t\t\t        <label for=\"aafc_ranstr\"><span id=\"fbch\">Veuillez inscrire les caract\u00e8res suivants  <strong class=\"required\">(obligatoire)</strong>\u00a0: </span><span id=\"ranstr\">XXX</span></label>\r\n\t\t\t            <input name=\"anti-spam-sequence\" id=\"aafc_ranstr\" size=\"4\" maxlength=\"3\" type=\"text\">\r\n\t\t\t\t\t </div>\r\n\t\t\t\t\t <input type=\"submit\" class=\"btn btn-primary\" value=\"Soumettre\">\r\n\t\t\t\t  </form>\r\n\t\t\t\t</div>\r\n\t\t\t  </div>\r\n\t\t\t</div>\r\n\t\t</details>\r\n\t    </div>\r\n\t  <div class=\"wb-share col-sm-4 col-md-3 col-sm-offset-2 col-md-offset-4 col-lg-offset-5\" data-wb-share='{\"lnkClass\": \"btn btn-default btn-block\"}'></div>\r\n\t  </div>\r\n\t  <dl id=\"wb-dtmd\">\r\n\t    <dt>Date de modification\u00a0: </dt>\r\n\t      <dd><time property=\"dateModified\">2020-06-01</time></dd>\r\n\t  </dl>\r\n\t</div>\r\n\t\r\n  "
    }
}