{
    "dcr_id": "1515011266778",
    "title": {
        "en": "AgriAssurance Program: National Industry Association Component: Step 3. How to apply",
        "fr": "Programme Agri-assurance : Volet Associations nationales de l'industrie : \u00c9tape 3. Comment pr\u00e9senter une demande"
    },
    "modified": "2019-01-09",
    "issued": "2018-02-13",
    "templatetype": "content page 1 column",
    "page_type": "1",
    "node_id": "1517330086439",
    "dc_date_created": "2018-02-13",
    "managing_branch": "PAB",
    "parent_node_id": "1517240181254",
    "label": {
        "en": "AgriAssurance Program: National Industry Association Component \u2013 Applicant guide",
        "fr": "Programme Agri-assurance : Volet Associations nationales de l'industrie \u2013 Guide du demandeur"
    },
    "exturl": "",
    "teamsite_location": {
        "en": "/default/main/AAFC-AAC/Internet-Internet/Group-Ensemble/ProgServ-ProgServ/WORKAREA/ProgServ-ProgServ/templatedata/comm-comm/gene-gene/data/01/agriassurance_niac_3_1515011266778_en",
        "fr": "/default/main/AAFC-AAC/Internet-Internet/Group-Ensemble/ProgServ-ProgServ/WORKAREA/ProgServ-ProgServ/templatedata/comm-comm/gene-gene/data/01/agriassurance_niac_3_1515011266778_fr"
    },
    "type_name": "sitemapinit",
    "has_dcr_id": true,
    "breadcrumb": {
        "en": "AgriAssurance Program: National Industry Association Component \u2013 Applicant guide",
        "fr": "Programme Agri-assurance : Volet Associations nationales de l'industrie \u2013 Guide du demandeur"
    },
    "layout_name": "content page 1 column",
    "lang": "en",
    "meta": {
        "issued": {
            "en": "2018-02-13",
            "fr": "2018-02-13"
        },
        "modified": {
            "en": "2019-01-09",
            "fr": "2019-01-09"
        },
        "format": {
            "en": "text/html",
            "fr": "text/html"
        },
        "title": {
            "en": "AgriAssurance Program: National Industry Association Component: Step 3. How to apply",
            "fr": "Programme Agri-assurance : Volet Associations nationales de l'industrie : \u00c9tape 3. Comment pr\u00e9senter une demande"
        },
        "subject": {
            "en": "architectural heritage;architecture;statistics",
            "fr": "b\u00e2timent;commerce ext\u00e9rieur;viande"
        },
        "description": {
            "en": "1.What this program offers. 2.Who is eligible. Program Objective. The AgriAssurance Small and Medium-sized Enterprise (SME) Component provides targeted support to companies to help implement third-party assurance certification projects that address international market requirements, thus helping expand export opportunities for Canadian agricultural and agri-food products.(There is a separate application process for the AgriAssurance National Industry Association Component that provides funding to not-for-profit organizations to help industry develop and adopt systems, standards and tools to support health, safety and quality claims about Canadian agricultural and agri-food products.). 1.2 Eligible applicants. Funding will not be made available if there is no such certification requirement by the target market.In addition, support will not be available for projects to renew a third-party certification.1.5 Application deadlines.",
            "fr": "Guides du demandeur. 1.Ce qu'offre ce programme. Guides du demandeur. Pour nous joindre. Guides du demandeur \u2013 grappes. Navigation du document - pr\u00e9c\u00e9dente-suivante - bas."
        },
        "language": {
            "en": "eng",
            "fr": "fra"
        },
        "keywords": {
            "en": "AgriAssurance;Browse to the folder",
            "fr": null
        },
        "audience": {
            "en": "gcaudience",
            "fr": "gcaudience"
        },
        "type": {
            "en": "presentation",
            "fr": "plan d'activit\u00e9s"
        },
        "creator": {
            "en": "Agriculture and Agri-Food Canada;Government of Canada",
            "fr": "Agriculture et Agroalimentaire Canada;Gouvernement du Canada"
        },
        "spatial": {
            "en": "gcregions",
            "fr": "gcregions"
        },
        "service": {
            "en": "AAFC-AAC",
            "fr": "AAFC-AAC"
        },
        "accessRights": {
            "en": "2",
            "fr": "2"
        },
        "legalName": {
            "en": "agriculture_and_agri_food_canada",
            "fr": "agriculture_et_agroalimentaire_canada"
        },
        "areaServed": {
            "en": "Canada",
            "fr": "Canada"
        }
    },
    "body": {
        "en": "tart --&gt;\r\n    <!-- D&eacute;but du contenu -->\r\n    <div class=\"mrgn-tp-md mrgn-bttm-lg brdr-bttm\">\n\n<div class=\"row\">\n<ul class=\"toc lst-spcd col-md-12 list-unstyled\">\n<li class=\"col-md-4 col-sm-6\"><span class=\"list-group-item\">Step 1. <a href=\"?id=1515010952950\">What this program offers</a></span></li>\n\n<li class=\"col-md-4 col-sm-6\"><span class=\"list-group-item\">Step 2. <a href=\"?id=1515011077933\">Who is eligible</a></span></li>\n\n<li class=\"col-md-4 col-sm-6 clr-lft-sm\"><span class=\"list-group-item active\">Step 3. How to apply</span></li>\n\n<li class=\"col-md-4 col-sm-6\"><span class=\"list-group-item\">Step 4. <a href=\"?id=1515011324107\">After you apply</a></span></li>\n\n<li class=\"col-md-4 col-sm-6\"><span class=\"list-group-item\"><a href=\"?id=1515011371844\">Applicant guide</a></span></li>\n\n<li class=\"col-md-4 col-sm-6 clr-lft-sm\"><span class=\"list-group-item\"><a href=\"?id=1515011407700\">Contact information</a></span></li>\n</ul>\n</div>\n</div>\n\n\n<h2>Step 3. How to apply</h2>\n\n<section class=\"alert alert-info\">\n<h3>Important notice</h3>\n<p><b>Applications will be  accepted from February 13, 2018 until September 30, 2022, or until funding has  been fully committed or until otherwise announced by the program. </b></p>\n\n<p><b>The  program ends March 31, 2023.</b></p>\n</section>\n\n<p>Before you apply, please read the <a href=\"?id=1515011371844\">Applicant guide</a> and <a href=\"?id=1517328132196\">Annex A</a> for  detailed information on eligibility criteria, support and funding available,  and the application process.</p>\n\n<p>Please note that even if a project meets all  eligibility criteria, the submission of an application creates no obligation on  the part of the Minister or of Agriculture and Agri-Food Canada officials to  provide funding for the proposed project. The Minister retains discretion  to determine, based on other public policy and public interest considerations,  whether an application that meets the criteria identified in this Guide will  ultimately receive funding.</p>\n\n<h3>Filling in and saving PDF forms</h3>\n\n<p>To fill in and save the PDF  application form, follow these steps:</p>\n<ol>\n  <li>save the PDF form in a folder that you will easily find on your computer</li>\n  <li>launch <a href=\"https://get.adobe.com/reader/\">Adobe Reader</a></li>\n  <li>browse to the folder where you saved the file, and open it from within Adobe Reader. You can now fill in and save your PDF form</li>\n</ol>\n\n<p><b>Note:</b> PDF forms have been tested for compatibility  with Adobe Reader 11 and higher and may not be fully supported in other PDF  viewers and on some mobile devices.</p>\n\n<h3>Apply online</h3>\n\n<p><b>Online applications will receive an acknowledgement receipt of your application within one business day.</b></p>\n<p><b>If you did not receive this, please contact the program by email at <a href=\"mailto:assurance@agr.gc.ca\">assurance@agr.gc.ca</a> or by \nphone at 1-877-246-4682.</b></p>\n<p class=\"text-success\"><b>There are no delays expected.</b></p>\n<p class=\"text-success\"><b>Online applications should be processed within 100 business days.</b></p>\n\n<p>To apply complete the following forms:</p>\n\n<ul>\n  <li><a href=\"https://www.agr.gc.ca/resources/prod/doc/pdf/AAS-NIA_14049_eng.pdf\">Project Application Form (PDF Version, 934\u00a0KB)</a> (required)</li>\n  <li><a href=\"?id=1517424276946\">Signature of Applicant Authorized Representative</a> (required)</li>\n  <li>A copy of the organization's Certificates or Articles of Incorporation (required)</li>\n  <li>A copy of the last two years\u2019 financial statements (optional)</li>\n  <li>Project Endorsement Letters / Letters of Support (required)</li>\n  <li><a href=\"?id=1517425974397\">Consent for Use, Disclosure and Copyright</a> (required)</li>\n  <li>Documents to Demonstrate Market Relevance (required)</li>\n  <li>Information Supporting Strategic Importance of Proposal (required)</li>\n  <li>Project Team Description (required)</li>\n  <li>Executive Summary (required)</li>\n  <li><a href=\"?id=1517584669500\">Capital asset pre-approval for grants and contributions programs</a> (if applicable)</li>\n  <li>Implementation Plan (required)</li>\n</ul>\n\n<p><b>Quebec Applicants:</b> The Province of Quebec's M-30 legislation may  apply to Quebec based applicants only. It is the <cite>Act Respecting the Minist\u00e8re du Conseil ex\u00e9cutif</cite>\u00a0(R.S.Q., c. M-30). More information on the Act is available online or by  contacting the Minist\u00e8re de l'Agriculture, des P\u00eacheries et de l'Alimentation  (MAPAQ) at\u00a0<a href=\"mailto:dpci@mapaq.gouv.qc.ca\">dpci@mapaq.gouv.qc.ca</a>.</p>\n\n<figure>\n<figcaption>\n\n    <details>\n    <summary>Having technical problems?</summary>\n<p>If you are having technical problems, please contact 1-877-246-4682 and provide the following information:</p>\n\n<ul>\n<li>first and last name</li>\n<li>phone number</li> \n<li>description of the problem or error message of the page where you are experiencing the problem</li>\n<li>computer operating system and version</li>\n<li>Adobe Reader version</li>\n<li>Internet browser and version</li>\n<li>as much information as possible about the steps you took before you experienced the problem</li>\n</ul>\n    </details>\n</figcaption>\n</figure>\n\n<h3>Downloading the Application Form using Google Chrome</h3>\n\n<p>If  you are using Google Chrome you may need to perform the additional steps:</p>\n\n<ul>\n  <li>once the file has  finished downloading you will see it inside Chrome's download toolbar at the  bottom of the browser, right click on the file and click open</li>\n<li>An Adobe white window  may open with the following message: the document you are trying to load  requires Adobe Reader 11 or higher. You may not have the Adobe Reader installed  or your viewing environment may not be properly configured to use Adobe Reader\n  <ul>\n  <li>if you do <b>not</b> have Adobe Reader 11.0 or above, please download the latest version of <a href=\"https://get.adobe.com/reader/\">Adobe Reader</a></li>\n<li>if you do have the most  recent version of Adobe, click on the download arrow icon located on the top  right hand corner of the page, this will allow you to save the online Project  Application Form directly to your computer</li>\n  </ul>\n</li></ul>\n\n<p>Open the Project Application Form from that saved location.</p>\n\n<h3>Other ways to apply</h3>\n\n<p>Please  contact us by email at <a href=\"mailto:assurance@agr.gc.ca\">assurance@agr.gc.ca</a> or by  phone at 1-877-246-4682 to get an application package.</p>\n\n<nav>\n  <h2 class=\"wb-inv\">Previous-next document navigation - bottom</h2>\n\n<div class=\"row\">\n<div class=\"col-md-12 mrgn-lft-0 mrgn-rght-0\">\n<ul class=\"pager\">\n<li class=\"previous\"><a href=\"?id=1515011077933\" rel=\"prev\" title=\"Who is eligible\">Previous</a></li>\n<li class=\"next\"><a href=\"?id=1515011324107\" rel=\"next\" title=\"After you apply\">Next</a></li>\n</ul>\n</div>\n</div>\n</nav>\n\r\n    <!-- Fin du contenu -->\r\n  \r\n  <div class=\"pagedetails\" id=\"pgft\">\r\n    <div class=\"row\">\r\n\t  <div class=\"col-sm-6 col-md-5 col-lg-4\">\r\n\t    <details class=\"brdr-0\">\r\n\t\t<summary class=\"btn btn-default text-center\" onclick=\"getAntiSpamSeq('/eng/mail-handler/?anti-spam-sequence=true')\">Report a problem on this page</summary>\r\n\t\t<div class=\"clearfix\"></div>\r\n\t\t<div class=\"well row\">\r\n\t\t<div>\r\n\t\t  <div class=\"gc-rprt-prblm\">\r\n\t\t    <div class=\"gc-rprt-prblm-frm gc-rprt-prblm-tggl\">\r\n\t\t\t  \r\n\t\t\t<form id=\"report_a_problem_form\" action=\"/eng/mail-handler/#report_a_problem_form\" method=\"post\">\t\t\t\t   \t\t\t\r\n\r\n\t            \t <input type=\"hidden\" name=\"lang\" value=\"eng\">\r\n\t            \t <input type=\"hidden\" name=\"pageId\" value=\"1515011266778\">\r\n\t            \t <input type=\"hidden\" name=\"pageUrl\" value=\"http://www.agr.gc.ca/eng/agricultural-programs-and-services/agriassurance-program-national-industry-association-component/step-3-how-to-apply/?id=1515011266778\">\r\n\t\t\t\t\t <div id=\"report_a_problem_form_error\"></div>\r\n\t\t             <fieldset>\t\t\t\t\t    \r\n\t\t                <legend><span class=\"field-name\">Please select all that apply:</span></legend>\t\t                                 \r\n\t\t\t\t\t\t<div class=\"checkbox\">\r\n\t\t\t\t\t\t\t<label for=\"problem1\"><input name=\"problem1\" id=\"problem1\" type=\"checkbox\" value=\"Yes\">A link, button or video is not working</label>\r\n\t\t\t\t\t\t\t<input name=\"problem1\" type=\"hidden\" value=\"No\">\r\n\t\t\t\t\t\t</div>\r\n\t\t\t\t\t\t<div class=\"checkbox\">\r\n\t\t\t\t\t\t\t<label for=\"problem2\"><input name=\"problem2\" id=\"problem2\" type=\"checkbox\" value=\"Yes\">It has a spelling mistake</label>\r\n\t\t\t\t\t\t\t<input name=\"problem2\" type=\"hidden\" value=\"No\">\r\n\t\t\t\t\t\t</div>\r\n\t\t\t\t\t\t<div class=\"checkbox\">\r\n\t\t\t\t\t\t\t<label for=\"problem3\"><input name=\"problem3\" id=\"problem3\" type=\"checkbox\" value=\"Yes\">Information is missing</label>\r\n\t\t\t\t\t\t\t<input name=\"problem3\" type=\"hidden\" value=\"No\">\r\n\t\t\t\t\t   </div>\r\n\t\t\t\t\t\t<div class=\"checkbox\">\r\n\t\t\t\t\t\t\t<label for=\"problem4\"><input name=\"problem4\" id=\"problem4\" type=\"checkbox\" value=\"Yes\">Information is outdated or wrong</label>\r\n\t\t\t\t\t\t\t<input name=\"problem4\" type=\"hidden\" value=\"No\">\r\n\t\t\t\t\t\t</div>\r\n\t\t\t\t\t\t<div class=\"checkbox\">\r\n\t\t\t\t\t\t\t<label for=\"problem5\"><input name=\"problem5\" id=\"problem5\" type=\"checkbox\" value=\"Yes\">Login error when trying to access an account (e.g. My Service Canada Account)</label>\r\n\t\t\t\t\t\t\t<input name=\"problem5\" type=\"hidden\" value=\"No\">\r\n\t\t\t\t\t\t</div>\r\n\t\t\t\t\t\t\t<ul>\r\n\t\t\t\t\t\t\t<li class=\"checkbox\">\r\n\t\t\t\t\t\t\t\t<label for=\"problem6a\"><input name=\"problem6\" id=\"problem6a\" type=\"checkbox\" value=\"Yes\">GC Key access</label>\r\n\t\t\t\t\t\t\t\t<input name=\"problem6\" type=\"hidden\" value=\"No\">\r\n\t\t\t\t\t\t\t </li>\r\n\t\t\t\t\t\t\t<li class=\"checkbox\">\r\n\t\t\t\t\t\t\t\t<label for=\"problem7\"><input name=\"problem7\" id=\"problem7\" type=\"checkbox\" value=\"Yes\">SecureKey Concierge (Banking Credential) access </label>\r\n\t\t\t\t\t\t\t\t<input name=\"problem7\" type=\"hidden\" value=\"No\">\r\n\t\t\t\t\t\t\t </li>\r\n\t\t\t\t\t\t\t<li class=\"checkbox\">\r\n\t\t\t\t\t\t\t\t<label for=\"problem8\"><input name=\"problem8\" id=\"problem8\" type=\"checkbox\" value=\"Yes\">Personal Access Code (PAC) problems or EI Access Code (AC) problems</label>\r\n\t\t\t\t\t\t\t\t<input name=\"problem8\" type=\"hidden\" value=\"No\">\r\n\t\t\t\t\t\t\t </li>\t\r\n\t\t\t\t\t\t\t<li class=\"checkbox\">\r\n\t\t\t\t\t\t\t\t<label for=\"problem9\"><input name=\"problem9\" id=\"problem9\" type=\"checkbox\" value=\"Yes\">Social Insurance Number (SIN) validation problems</label>\r\n\t\t\t\t\t\t\t\t<input name=\"problem9\" type=\"hidden\" value=\"No\">\r\n\t\t\t\t\t\t\t </li>\t\t\t\t\t\t\t\t\r\n\t\t\t\t\t\t\t<li class=\"checkbox\">\r\n\t\t\t\t\t\t\t\t<label for=\"problem10\"><input name=\"problem10\" id=\"problem10\" type=\"checkbox\" value=\"Yes\">Other login error not in this list</label>\r\n\t\t\t\t\t\t\t\t<input name=\"problem10\" type=\"hidden\" value=\"No\">\r\n\t\t\t\t\t\t\t </li>\t\t \r\n\t\t\t\t\t\t\t </ul>\r\n\t\t\t\t\t\t<div class=\"checkbox\">\r\n\t\t\t\t\t\t\t<label for=\"problem11\"><input name=\"problem11\" id=\"problem11\" type=\"checkbox\" value=\"Yes\">I can't find what I'm looking for</label>\r\n\t\t\t\t\t\t\t<input name=\"problem11\" type=\"hidden\" value=\"No\">\r\n\t\t\t\t\t\t</div>\r\n\t\t\t\t\t\t<div class=\"checkbox\">\r\n\t\t\t\t\t\t\t<label for=\"problem12\"><input name=\"problem12\" id=\"problem12\" type=\"checkbox\" value=\"Yes\">Other issue not in this list</label>\r\n\t\t\t\t\t\t\t<input name=\"problem12\" type=\"hidden\" value=\"No\">\r\n\t\t\t\t\t\t</div>\t\t\t\t\t\t \t\t\t\t\t\t\t\t\t\t\t\t \r\n\t\t             </fieldset>\r\n\t\t\t\t\t <div>\r\n\t\t\t\t\t   <label for=\"aafc_ranstr\"><span id=\"fbch\"><br>Enter these characters <strong class=\"required\">(required)</strong>: </span><span id=\"ranstr\">U5S</span></label>\r\n\t\t\t           <input name=\"anti-spam-sequence\" id=\"aafc_ranstr\" size=\"4\" maxlength=\"3\" type=\"text\">\r\n\t\t\t\t\t </div>\t\r\n\r\n\t\t\t\t\t <br><input type=\"submit\" class=\"btn btn-primary\" value=\"Submit\">\r\n\t\t\t\t  </form>\r\n\t\t\t\t</div>\r\n\t\t\t</div>\t\t\t\r\n\t\t  </div>\r\n\t\t</div>\r\n\t\t</details>\r\n\t  </div>\r\n\t  <div class=\"wb-share col-sm-4 col-md-3 col-sm-offset-2 col-md-offset-4 col-lg-offset-5\" data-wb-share='{\"lnkClass\": \"btn btn-default btn-block\"}'></div>\r\n\t</div>\r\n\t<dl id=\"wb-dtmd\">\r\n\t  <dt>Date modified: </dt>\r\n\t  <dd><time property=\"dateModified\">2019-01-09</time></dd></dl></div>",
        "fr": "\r\n    \r\n    <!-- MainContentStart -->\r\n    <!-- D&eacute;but du contenu -->\r\n    <div class=\"mrgn-tp-md mrgn-bttm-lg brdr-bttm\">\n\n<div class=\"row\">\n<ul class=\"toc lst-spcd col-md-12 list-unstyled\">\n<li class=\"col-md-4 col-sm-6\"><span class=\"list-group-item\">\u00c9tape 1. <a href=\"?id=1515010952950\">Ce qu'offre ce programme</a></span></li>\n\n<li class=\"col-md-4 col-sm-6\"><span class=\"list-group-item\">\u00c9tape 2. <a href=\"?id=1515011077933\">Qui est admissible</a></span></li>\n\n<li class=\"col-md-4 col-sm-6 clr-lft-sm\"><span class=\"list-group-item active\">\u00c9tape 3. Comment pr\u00e9senter une demande</span></li>\n\n<li class=\"col-md-4 col-sm-6\"><span class=\"list-group-item\">\u00c9tape 4. <a href=\"?id=1515011324107\">Apr\u00e8s avoir pr\u00e9sent\u00e9 votre demande</a></span></li>\n\n<li class=\"col-md-4 col-sm-6\"><span class=\"list-group-item\"><a href=\"?id=1515011371844\">Guide du demandeur</a></span></li>\n\n<li class=\"col-md-4 col-sm-6 clr-lft-sm\"><span class=\"list-group-item\"><a href=\"?id=1515011407700\">Pour nous joindre</a></span></li>\n</ul>\n</div>\n</div>\n\n<h2>\u00c9tape 3. Comment pr\u00e9senter une demande</h2>\n\n<section class=\"alert alert-info\">\n<h3>Remarque importante</h3>\n<p><b>Les demandes seront accept\u00e9es entre le 13 f\u00e9vrier  2018 et le 30 septembre 2022, ou jusqu'\u00e0 ce que l'int\u00e9gralit\u00e9 des fonds ait \u00e9t\u00e9  affect\u00e9e ou qu'une annonce contraire soit publi\u00e9e dans le cadre du programme. </b></p>\n\n<p><b>Le programme prend fin le 31 mars, 2023</b></p>\n</section>\n\n<p>Avant  de pr\u00e9senter une demande, veuillez lire le <a href=\"?id=1515011371844\">Guide du demandeur</a> et <a href=\"?id=1517328132196\">Annexe A</a> pour obtenir des  renseignements d\u00e9taill\u00e9s concernant les crit\u00e8res d'admissibilit\u00e9, le soutien et  les fonds disponibles ainsi que le processus de pr\u00e9sentation d'une demande.</p>\n\n<p>Veuillez noter que m\u00eame si un projet satisfait \u00e0  tous les crit\u00e8res d'admissibilit\u00e9, la pr\u00e9sentation d'une demande n'engage en  rien le ministre ou les fonctionnaires d'Agriculture et Agroalimentaire Canada  \u00e0 fournir une aide financi\u00e8re pour le projet propos\u00e9. Le ministre conserve le  pouvoir discr\u00e9tionnaire de d\u00e9terminer, en fonction de l'int\u00e9r\u00eat public, si une  demande r\u00e9pondant aux crit\u00e8res \u00e9nonc\u00e9s dans le pr\u00e9sent Guide recevra ou non des  fonds.</p>\n\n\n<h3>Remplir les formulaires PDF et  les sauvegarder</h3>\n\n<p>Pour remplir et sauvegarder le formulaire  de demande en format PDF, effectuez les \u00e9tapes suivantes\u00a0:</p>\n\n<ol>\n  <li>sauvegarder le formulaire PDF dans un dossier que vous retrouverez facilement sur votre ordinateur;</li>\n  <li>ouvrir le formulaire \u00e0 l'aide d'<a href=\"https://get.adobe.com/fr/reader/\">Adobe Reader</a>;</li>\n  <li>parcourir les dossiers pour trouver o\u00f9 vous avez sauvegard\u00e9 le dossier et l'ouvrir dans Adobe Reader. Vous pouvez maintenant remplir, sauvegarder et soumettre votre formulaire PDF.</li>\n</ol>\n\n<p><strong>Remarque\u00a0:</strong> Les formulaires \u00e0 remplir/sauvegarder ont fait l'objet  d'un essai visant \u00e0 en d\u00e9terminer la compatibilit\u00e9 avec Adobe Reader\u00a011 et  des versions subs\u00e9quentes; Il est possible qu'ils ne fonctionnent pas  avec d'autres lecteurs PDF ou sur des  appareils mobiles.</p>\n\n<h3>Pr\u00e9senter une demande en ligne</h3>\n\n<p><b>Nous accuserons r\u00e9ception des demandes en ligne dans un d\u00e9lai d'un jour ouvrable.</b></p>\n<p><b>Si vous n'avez pas re\u00e7u d'accus\u00e9 de r\u00e9ception, veuillez  communiquer avec nous par courriel \u00e0 <a href=\"mailto:assurance@agr.gc.ca\">assurance@agr.gc.ca</a>  ou par t\u00e9l\u00e9phone au 1-877-246-4682.</b></p>\n<p class=\"text-success\"><b>Nous ne pr\u00e9voyons aucun retard.</b></p>\n<p class=\"text-success\"><b>Les demandes en ligne devraient \u00eatre trait\u00e9es dans les 100 jours ouvrables suivant leur r\u00e9ception.</b></p>\n\n<p>Pour presenter une demande, remplissez les formulaires suivants\u00a0:</p>\n\n<ul>\n<li><a href=\"https://www.agr.gc.ca/resources/prod/doc/pdf/AAS-NIA_14049_fra.pdf\">Formulaire de demande de projet (Version PDF, 934\u00a0Ko)</a> (obligatoire)</li>\n  <li><a href=\"?id=1517424276946\">Signature du repr\u00e9sentant autoris\u00e9 du demandeur</a> (obligatoire)</li>\n  <li>Copie du certificat de constitution ou des statuts constitutifs de l'organisation (obligatoire)</li>\n     <li>Copie des \u00e9tats financiers des deux derni\u00e8res ann\u00e9es (optionnel)</li>\n     <li>Lettres d'approbation et lettres d'appui relatives au projet (obligatoire) </li>\n     <li><a href=\"?id=1517425974397\">Consentement \u00e0 l'utilisation et \u00e0 la divulgation de renseignements et droits de reproduction</a> (obligatoire) </li>\n     <li>Documents d\u00e9montrant la pertinence du march\u00e9 (obligatoire)</li>\n     <li>Information \u00e0 l'appui de l'importance strat\u00e9gique de la proposition (obligatoire)</li>\n     <li>Description de l'\u00e9quipe de projet (obligatoire)</li>\n     <li>Sommaire ex\u00e9cutif (obligatoire)</li>\n     <li><a href=\"?id=1517584669500\">Approbation pr\u00e9alable des immobilisations pour les programmes de subventions et de contributions</a> (s'il y a lieu)</li>\n<li>Plan de misse en \u0153uvre (obligatoire)</li>\n</ul>\n\n<p><b>Demandeurs du Qu\u00e9bec</b>\u00a0: La loi M-30 de la province de Qu\u00e9bec peut  s'appliquer uniquement aux demandeurs du Qu\u00e9bec. Il s'agit de la <cite>Loi sur le  Minist\u00e8re du Conseil ex\u00e9cutif</cite> (L.R.Q. c. M-30). De plus amples renseignements concernant la Loi peuvent \u00eatre obtenus en  ligne ou en communiquant avec le Minist\u00e8re de l'Agriculture, des P\u00eacheries et  de l'Alimentation (MAPAQ) \u00e0 <a href=\"mailto:dpci@mapaq.gouv.qc.ca\">dpci@mapaq.gouv.qc.ca</a>.</p>\n\n<figure>\n<figcaption>\n   <details>\n    <summary>Vous \u00e9prouvez des difficult\u00e9s techniques?</summary>\n\n <p>En  cas de difficult\u00e9s techniques, veuillez composer le 1-877-246-4682 et fournir  les renseignements suivants\u00a0:</p>\n\n<ul>\n  <li>pr\u00e9nom et nom de famille;</li>\n     <li>num\u00e9ro de t\u00e9l\u00e9phone; </li>\n     <li>description du probl\u00e8me ou du message d'erreur sur la page qui posent probl\u00e8me;</li>\n     <li>nom et version du syst\u00e8me d'exploitation de l'ordinateur;</li>\n     <li>version d'Adobe Reader;</li>\n     <li>nom et version du navigateur Internet;</li>\n  <li>le  plus d'information possible sur les \u00e9tapes que vous avez effectu\u00e9es avant le  probl\u00e8me.</li>\n</ul>\n    </details>\n</figcaption>\n</figure>\n\n<h3>Vous t\u00e9l\u00e9chargez le formulaire de  demande \u00e0 l'aide de Google Chrome</h3>\n\n<p>Si vous utilisez Google Chrome, vous  pourriez devoir suivre les \u00e9tapes additionnelles suivantes\u00a0:</p>\n\n<ul>\n  <li>lorsque le fichier est t\u00e9l\u00e9charg\u00e9, il appara\u00eetra dans la barre de t\u00e9l\u00e9chargement situ\u00e9e en bas de la fen\u00eatre Chrome; cliquez sur le fichier avec le bouton droit de la souris et cliquez sur \u00ab\u00a0Ouvrir\u00a0\u00bb.</li>\n  <li>Une fen\u00eatre blanche d'Adobe affichant le message suivant pourrait appara\u00eetre \u00e0 l'\u00e9cran\u00a0: pour t\u00e9l\u00e9charger ce document, vous devez utiliser la version\u00a011 d'Adobe Reader, ou une version plus r\u00e9cente. Adobe Reader n'est peut-\u00eatre pas install\u00e9 sur votre ordinateur, ou votre poste de travail n'est pas correctement configur\u00e9 pour utiliser Adobe Reader.\n    <ul>\n    <li>si  vous n'<b>avez pas </b>Adobe Reader\u00a011, ou une version plus r\u00e9cente,  vous devez t\u00e9l\u00e9charger la plus r\u00e9cente version d'<a href=\"https://get.adobe.com/reader/?loc=fr\">Adobe  Reader</a>.</li>\n    <li>si  vous avez la plus r\u00e9cente version d'Adobe Reader, cliquez sur l'ic\u00f4ne de  fl\u00e8che de t\u00e9l\u00e9chargement qui se trouve en haut \u00e0 droite de la page. Ceci  vous permettra d'enregistrer le Formulaire de demande de projet en ligne  directement sur votre ordinateur.</li>\n    <li>vous  pouvez ouvrir le Formulaire de demande de projet \u00e0 partir de l'emplacement o\u00f9 vous l'avez sauvegard\u00e9.</li>\n  </ul></li>\n</ul>\n\n<h3>Autres fa\u00e7ons de pr\u00e9senter une  demande</h3>\n\n<p>Communiquez  avec nous par courriel au <a href=\"mailto:assurance@agr.gc.ca\">assurance@agr.gc.ca</a> ou par t\u00e9l\u00e9phone au 1-877-246-4682 pour  obtenir une trousse de demande.</p>\n\n<nav>\n  <h2 class=\"wb-inv\">Navigation du document - pr\u00e9c\u00e9dente-suivante - bas</h2>\n<div class=\"row\">\n<div class=\"col-md-12 mrgn-lft-0 mrgn-rght-0\">\n<ul class=\"pager\">\n<li class=\"previous\"><a href=\"?id=1515011077933\" rel=\"prev\" title=\"Qui est admissible\">Pr\u00e9c\u00e9dente</a></li>\n<li class=\"next\"><a href=\"?id=1515011324107\" rel=\"next\" title=\"Apr\u00e8s avoir pr\u00e9sent\u00e9 votre demande\">Suivante</a></li>\n</ul>\n</div>\n</div>\n</nav>\n\r\n    <!-- Fin du contenu -->\r\n\t\r\n\t<div class=\"pagedetails\" id=\"pgft\">\r\n\t\t<div class=\"row\">\r\n\t\t  <div class=\"col-sm-6 col-md-5 col-lg-4\">\r\n\t\t    <details class=\"brdr-0\">\r\n\t\t\t<summary class=\"btn btn-default text-center\" onclick=\"getAntiSpamSeq('/fra/mail-handler/?anti-spam-sequence=true')\">Signaler un probl\u00e8me sur cette page</summary>\r\n\t\t\t<div class=\"well row\">\r\n\t\t\t  <div class=\"gc-rprt-prblm\">\r\n\t\t\t    <div class=\"gc-rprt-prblm-frm gc-rprt-prblm-tggl\">\r\n\t\t\t\t   <form id=\"report_a_problem_form\" action=\"/fra/mail-handler/\" method=\"post\">\r\n\t            \t <input type=\"hidden\" name=\"lang\" value=\"fra\">\r\n\t            \t <input type=\"hidden\" name=\"pageId\" value=\"1515011266778\">\r\n\t            \t <input type=\"hidden\" name=\"pageUrl\" value=\"http://www5.agr.gc.ca/fra/programmes-et-services-agricoles/programme-agri-assurance-volet-associations-nationales-de-l-industrie/etape-3-comment-presenter-une-demande/?id=1515011266778\">\r\n\t\t\t\t\t <div id=\"report_a_problem_form_error\"></div>\r\n\t\t             <fieldset>\t\t\t\t\t    \r\n\t\t                <legend><span class=\"field-name\">Veuillez cocher toutes les r\u00e9ponses pertinentes\u00a0:</span></legend>\r\n\t\t                 <div class=\"checkbox\">\r\n\t\t                    <label for=\"problem1\"><input name=\"problem1\" id=\"problem1\" type=\"checkbox\" value=\"Yes\">Un lien, un bouton ou une vid\u00e9o ne fonctionne pas</label>\r\n\t\t                    <input name=\"problem1\" type=\"hidden\" value=\"No\">\r\n\t\t                </div>\r\n\t\t                <div class=\"checkbox\">\r\n\t\t                    <label for=\"problem2\"><input name=\"problem2\" id=\"problem2\" type=\"checkbox\" value=\"Yes\">Il y a une erreur d'orthographe ou de grammaire</label>\r\n\t\t                    <input name=\"problem2\" type=\"hidden\" value=\"No\">\r\n\t\t                </div>\r\n\t\t   \t\t\t\t <div class=\"checkbox\">\r\n\t\t                    <label for=\"problem3\"><input name=\"problem3\" id=\"problem3\" type=\"checkbox\" value=\"Yes\">Les renseignements sont incomplets</label>\r\n\t\t                    <input name=\"problem3\" type=\"hidden\" value=\"No\">\r\n\t\t                </div>\r\n\t\t             \t\t<div class=\"checkbox\">\r\n\t\t                    <label for=\"problem4\"><input name=\"problem4\" id=\"problem4\" type=\"checkbox\" value=\"Yes\">L'information n'est plus \u00e0 jour ou est erron\u00e9e</label>\r\n\t\t                    <input name=\"problem4\" type=\"hidden\" value=\"No\">\r\n\t\t                </div>\t\t\t\t\t\t\r\n\t\t\t\t\t\t<div class=\"checkbox\">\r\n\t\t\t\t\t\t\t<label for=\"problem5\"><input name=\"problem5\" id=\"problem5\" type=\"checkbox\" value=\"Yes\">Message d'erreur \u00e0 l'ouverture de la session lorsque je tente d'acc\u00e9der \u00e0 un compte (ex. Mon dossier Service Canada)</label>\r\n\t\t\t\t\t\t\t<input name=\"problem5\" type=\"hidden\" value=\"No\">\r\n\t\t\t\t\t\t</div>\r\n\t\t\t\t\t\t\t<ul>\r\n\t\t\t\t\t\t\t<li class=\"checkbox\">\r\n\t\t\t\t\t\t\t\t<label for=\"problem6a\"><input name=\"problem6\" id=\"problem6a\" type=\"checkbox\" value=\"Yes\">Acc\u00e8s Cl\u00e9GC</label>\r\n\t\t\t\t\t\t\t\t<input name=\"problem6\" type=\"hidden\" value=\"No\">\r\n\t\t\t\t\t\t\t </li>\r\n\t\t\t\t\t\t\t<li class=\"checkbox\">\r\n\t\t\t\t\t\t\t\t<label for=\"problem7\"><input name=\"problem7\" id=\"problem7\" type=\"checkbox\" value=\"Yes\">Acc\u00e8s SecureKey Service de Concierge (justificatifs d'identit\u00e9 bancaires)</label>\r\n\t\t\t\t\t\t\t\t<input name=\"problem7\" type=\"hidden\" value=\"No\">\r\n\t\t\t\t\t\t\t </li>\r\n\t\t\t\t\t\t\t<li class=\"checkbox\">\r\n\t\t\t\t\t\t\t\t<label for=\"problem8\"><input name=\"problem8\" id=\"problem8\" type=\"checkbox\" value=\"Yes\">Probl\u00e8me avec le Code d'acc\u00e8s personnel (CAP) ou avec le Code d'acc\u00e8s (CA) de l'assurance emploi</label>\r\n\t\t\t\t\t\t\t\t<input name=\"problem8\" type=\"hidden\" value=\"No\">\r\n\t\t\t\t\t\t\t </li>\t\r\n\t\t\t\t\t\t\t<li class=\"checkbox\">\r\n\t\t\t\t\t\t\t\t<label for=\"problem9\"><input name=\"problem9\" id=\"problem9\" type=\"checkbox\" value=\"Yes\">Probl\u00e8me li\u00e9 \u00e0 la validation du num\u00e9ro d'assurance sociale (NAS)</label>\r\n\t\t\t\t\t\t\t\t<input name=\"problem9\" type=\"hidden\" value=\"No\">\r\n\t\t\t\t\t\t\t </li>\t\t\t\t\t\t\t\t\r\n\t\t\t\t\t\t\t<li class=\"checkbox\">\r\n\t\t\t\t\t\t\t\t<label for=\"problem10\"><input name=\"problem10\" id=\"problem10\" type=\"checkbox\" value=\"Yes\">Autre erreur lors de l'ouverture de session qui ne figure pas sur cette liste</label>\r\n\t\t\t\t\t\t\t\t<input name=\"problem10\" type=\"hidden\" value=\"No\">\r\n\t\t\t\t\t\t\t </li>\t\t \r\n\t\t\t\t\t\t\t </ul>\r\n\t\t\t\t\t\t<div class=\"checkbox\">\r\n\t\t\t\t\t\t\t<label for=\"problem11\"><input name=\"problem11\" id=\"problem11\" type=\"checkbox\" value=\"Yes\">Je n'arrive pas \u00e0 trouver ce que je cherche</label>\r\n\t\t\t\t\t\t\t<input name=\"problem11\" type=\"hidden\" value=\"No\">\r\n\t\t\t\t\t\t</div>\r\n\t\t\t\t\t\t<div class=\"checkbox\">\r\n\t\t\t\t\t\t\t<label for=\"problem12\"><input name=\"problem12\" id=\"problem12\" type=\"checkbox\" value=\"Yes\">Autre probl\u00e8me qui ne figure pas sur cette liste</label>\r\n\t\t\t\t\t\t\t<input name=\"problem12\" type=\"hidden\" value=\"No\">\r\n\t\t\t\t\t\t</div>\t\t\t\t\t\t\t\t\t\t\t\t\t\t\t\t\t\t\t\r\n\t\t             </fieldset>\r\n\t\t\t\t\t <div>\r\n\t\t\t\t        <label for=\"aafc_ranstr\"><span id=\"fbch\">Veuillez inscrire les caract\u00e8res suivants  <strong class=\"required\">(obligatoire)</strong>\u00a0: </span><span id=\"ranstr\">XXX</span></label>\r\n\t\t\t            <input name=\"anti-spam-sequence\" id=\"aafc_ranstr\" size=\"4\" maxlength=\"3\" type=\"text\">\r\n\t\t\t\t\t </div>\r\n\t\t\t\t\t <input type=\"submit\" class=\"btn btn-primary\" value=\"Soumettre\">\r\n\t\t\t\t  </form>\r\n\t\t\t\t</div>\r\n\t\t\t  </div>\r\n\t\t\t</div>\r\n\t\t</details>\r\n\t    </div>\r\n\t  <div class=\"wb-share col-sm-4 col-md-3 col-sm-offset-2 col-md-offset-4 col-lg-offset-5\" data-wb-share='{\"lnkClass\": \"btn btn-default btn-block\"}'></div>\r\n\t  </div>\r\n\t  <dl id=\"wb-dtmd\">\r\n\t    <dt>Date de modification\u00a0: </dt>\r\n\t      <dd><time property=\"dateModified\">2019-01-09</time></dd>\r\n\t  </dl>\r\n\t</div>\r\n\t\r\n  "
    }
}