{
    "dcr_id": "1510759633689",
    "title": {
        "en": "Diversity and inclusiveness",
        "fr": "Initiatives de diversit\u00e9 et d'inclusion"
    },
    "modified": "2019-03-01",
    "issued": "2017-12-08",
    "templatetype": "content page 1 column",
    "page_type": "1",
    "node_id": "1548941680362",
    "dc_date_created": "2017-12-08",
    "managing_branch": "PAB",
    "parent_node_id": "1510840254905",
    "label": {
        "en": "Diversity and inclusiveness",
        "fr": "Initiatives de diversit\u00e9 et d\u2019inclusion"
    },
    "exturl": "",
    "teamsite_location": {
        "en": "/default/main/AAFC-AAC/Internet-Internet/Common-Commun/WORKAREA/Common-Commun/templatedata/comm-comm/gene-gene/data/11/psrr_diversity_inclusiveness_1510759633689_en",
        "fr": "/default/main/AAFC-AAC/Internet-Internet/Common-Commun/WORKAREA/Common-Commun/templatedata/comm-comm/gene-gene/data/11/psrr_diversity_inclusiveness_1510759633689_fr"
    },
    "type_name": "sitemapinit",
    "has_dcr_id": true,
    "breadcrumb": {
        "en": "Diversity and inclusiveness",
        "fr": "Initiatives de diversit\u00e9 et d\u2019inclusion"
    },
    "layout_name": "content page 1 column",
    "lang": "en",
    "meta": {
        "issued": {
            "en": "2017-12-08",
            "fr": "2017-12-08"
        },
        "modified": {
            "en": "2019-03-01",
            "fr": "2019-03-01"
        },
        "format": {
            "en": "text/html",
            "fr": "text/html"
        },
        "title": {
            "en": "Diversity and inclusiveness",
            "fr": "Initiatives de diversit\u00e9 et d'inclusion"
        },
        "subject": {
            "en": "architecture;sustainable development;rural communities",
            "fr": "foresterie;d\u00e9veloppement durable;d\u00e9veloppement communautaire"
        },
        "description": {
            "en": "Alternate formats. Blueprint 2020: A world-class Public Service equipped to serve Canada and Canadians, now and in the future.Renewal at Agriculture and Agri-Food Canada. The \"create time and space\" features serve as suggestions for all of us to make room to nurture the relationships we have with one another. [Upbeat, vibrant and uplifting music rises.]. [A colourful flash reveals a male Agriculture and Agri-Food Canada employee smiling to camera.]. [Cut to a female employee laughing and smiling at something off screen.]. Female employee: We are agriculture and Agri-Food Canada.[Upbeat, vibrant and uplifting music continues.]. [Cut to a close up shot of a male employee wearing a suit and tie.",
            "fr": "Formats de rechange. Objectif 2020 : Un service public de classe mondiale outill\u00e9 pour servir le Canada et les Canadiens, maintenant et \u00e0 l'avenir.Renouvellement \u00e0 Agriculture et Agroalimentaire Canada. Les explications fournies dans le rapport r\u00e9sument les mesures prises par le Minist\u00e8re jusqu'\u00e0 maintenant.Le renouvellement \u00e0 AAC n'est pas un big bang, mais plut\u00f4t une s\u00e9rie de changements progressifs. Client service excellence. Mobilisez votre \u00e9quipe pour vous aider \u00e0 respecter votre obligation de rendre des comptes Trouvez le temps de r\u00e9fl\u00e9chir.L'un des facteurs \u00e0 l'origine des efforts de renouvellement de la fonction publique \u00e0 AAC est l'engagement envers l'excellence du service offert aux Canadiens et au secteur agricole."
        },
        "language": {
            "en": "eng",
            "fr": "fra"
        },
        "keywords": {
            "en": "aerial;Enlist;Cards.Create",
            "fr": "\u00e9volution.Transcription"
        },
        "audience": {
            "en": "gcaudience",
            "fr": "gcaudience"
        },
        "type": {
            "en": "media release",
            "fr": "avis"
        },
        "creator": {
            "en": "Agriculture and Agri-Food Canada;Government of Canada",
            "fr": "Agriculture et Agroalimentaire Canada;Gouvernement du Canada"
        },
        "spatial": {
            "en": "gcregions",
            "fr": "gcregions"
        },
        "service": {
            "en": "AAFC-AAC",
            "fr": "AAFC-AAC"
        },
        "accessRights": {
            "en": "2",
            "fr": "2"
        },
        "legalName": {
            "en": "agriculture_and_agri_food_canada",
            "fr": "agriculture_et_agroalimentaire_canada"
        },
        "areaServed": {
            "en": "Canada",
            "fr": "Canada"
        }
    },
    "body": {
        "en": "tart --&gt;\r\n    <!-- D&eacute;but du contenu -->\r\n    <div class=\"col-md-4 pull-right\" style=\"z-index: 1000\">\n<section class=\"panel panel-default\">\n<header class=\"panel-heading\">\n<h2 class=\"panel-title\">2018 Public service priorities</h2>\n</header>\n<div class=\"panel-body\"><p>Be:</p>\n\n\n<ul class=\"list-unstyled\">\n<li><span class=\"glyphicon glyphicon-unchecked mrgn-rght-sm\"></span>Agile in delivering results</li>\n<li><span class=\"glyphicon glyphicon-check mrgn-rght-sm\"></span>Inclusive in developing ideas and making decisions</li>\n<li><span class=\"glyphicon glyphicon-unchecked mrgn-rght-sm\"></span>Equipped for excellence</li>\n</ul></div>\n</section>\n</div><p>Agriculture and Agri-Food Canada (AAFC) is strongly committed to diversity and inclusion, and continues to support the participation of under-represented groups in the agricultural field.</p>\n\n<p>As a testament to these efforts, AAFC was recognized as one of Canada\u2019s Best Diversity Employers in 2017 and 2018.</p>\n\n<p>Over the past year, the Department made significant progress in fostering a culture of inclusiveness.</p>\n\n<h2>Support for Indigenous participation in agriculture</h2>\n\n<ul class=\"lst-spcd\">\n\t<li>We are committed to building the department\u2019s relationship with Indigenous Peoples across Canada in order to understand the current agricultural landscape, opportunities and challenges. This continued dialogue helps ensure agriculture programs and policies, including the development of <a href=\"?id=1597858160271\">A Food Policy for Canada</a>, reflect the needs of Indigenous communities.</li>\n\t<li>In 2018, we released <a href=\"?id=1527720564716\">What we heard - First Nation outreach sessions - spring 2017</a> and <a href=\"?id=1597858160271\">A Food Policy for Canada</a>. These reports highlighted some of this dialogue between AAFC and Indigenous Peoples. AAFC is also exploring how programming under the <a href=\"?id=1461767369849\">Canadian Agricultural Partnership</a> can enable Indigenous peoples to take advantage of economic development opportunities in the agriculture and agri-food sector.</li>\n\t<li>AAFC launched the <a href=\"?id=1525208767407\">Indigenous Pathfinder</a>, a one-on-one service  which connects  Indigenous Peoples with staff who will discuss available agriculture-related programs, services and funding  and help develop opportunities  in the agriculture and agri-food sector.</li>\n</ul>\n\n<h2>Services for current and potential Indigenous employees</h2>\n\n<ul class=\"lst-spcd\">\n<li>The Indigenous Network Circle (INC) is a networking and support service for Indigenous employees and students, as well as a platform for enhanced awareness and appreciation for Indigenous peoples and cultures. It contributed to cultural awareness by:\n<ul>\n\t<li>organizing and hosting cultural and learning events (including during Aboriginal Awareness Week),</li>\n\t<li>creating learning materials, such as its cultural awareness video library, and</li>\n\t<li>discussing barriers faced by Indigenous employees through 11 Many Voices, One Mind presentations that reached more than 110 employees. The presentations, launched by AAFC\u2019s Indigenous Liaison Scientist, increase awareness of the barriers and opportunities that exist for potential and actual Indigenous employees, and outlines actions employees can take to increase recruitment and retention of Indigenous employees at AAFC.</li>\n</ul>\n\t\n<p>The INC supported the professional development of its members by offering strategic training opportunities, including during its annual training retreat.</p>\n</li>\n\n<li>Established in 2017, the Indigenous Support and Awareness Office continued to enhance departmental capacity to advance Indigenous agriculture by supporting the activities of the Indigenous Student Recruitment Initiative, INC, the First Nations Elder, research projects and partnerships with Indigenous communities, and increasing awareness by developing an Indigenous Awareness Learning Series (IALS) for the department. \n\n<p>As part of the IALS, the departmental Elder, hired in 2016, has conducted 36 cultural awareness sessions, reaching over 670 employees. He also continues to act as the primary liaison with Indigenous communities, building awareness of the Department and agriculture, and encouraging young people in Indigenous communities to consider a career with AAFC and the government.</p>\n</li>\n\n<li>Our <a href=\"?id=1510764508128\">Indigenous Student Recruitment Initiative</a> offers Indigenous students work experience that allows for personal growth while contributing to the goals of the Department.</li>\n</ul>\n\n<h2>Active and Engaged Employee Networks</h2>\n\n<p>AAFC\u2019s five Diversity and Inclusion Networks support  the department\u2019s diversity and inclusion efforts by:</p>\n\n<ul>\n  <li>advancing awareness;</li>\n  <li>supporting recruitment and retention activities;</li>\n  <li>identifying and suggesting resolutions for systematic barriers;</li>\n  <li>using their diverse perspectives  to contribute to Departmental initiatives and reports; and,</li>\n  <li>providing a safe space and  mentorship for their members.</li>\n</ul>\n\n<h2>Positive Space Initiative</h2>\n\n<p>In an effort to foster a safe forum where employees can talk openly about gender and sexual diversity in the workplace, AAFC\u2019s Gender and Sexual Diversity Inclusiveness Network developed the following Positive Space training:</p>\n\n<ul>\n\t<li>Gender and Sexual Diversity in the Workplace, an introductory course focused on increasing awareness and empowering employees to challenge their own biases and behaviours to be more inclusive (<a href=\"?id=1548938588572\">see promotional video</a>)</li>\n\t<li>Positive Space Champion training, which is a more advanced course designed to equip employees to champion diversity and inclusiveness in their workplace.</li>\n</ul>\n\n<img src=\"https://www.agr.gc.ca/resources/prod/img/psrr/1510759633689-1.jpg\" alt=\"\" class=\"pull-right mrgn-lft-md\">\n \n<p>The Initiative, borrowed from Correctional Services Canada, was brought to AAFC to address concerns expressed by members of the Gender and Sexual Diversity Inclusiveness Network such as those of a member who said she spent several years hiding her sexuality. \"I felt disconnected with my peers and didn\u2019t feel like I could truly be myself in the workplace,\" she said. \"This had an impact on my work performance and relationships in the office, as I would often withdraw to avoid awkward encounters.\"</p>\n\n<p>For an organization of more than 4,000 employees, these activities are crucial in creating an environment where employees can thrive. Her efforts to make the workplace more inclusive have already proved successful. Since the launch of the Initiative in 2017, AAFC has delivered:</p>\n\n<ul>\n\t<li>32 Gender and Sexual Diversity in the Workplace sessions to 448 participants</li>\n\t<li>13 Positive Space Champion sessions to 100 trained Positive Space Champions.</li>\n</ul>\n\n<h2>Visible Minorities Network Career Development Initiatives</h2>\n\n<p>Throughout 2017 and 2018, AAFC\u2019s Visible Minorities Network held a series of activities to support the career advancement of visible minorities.</p>\n\n<ul class=\"lst-spcd\">\n\t<li>During the Roundtable on Career Development, senior managers from the visible minority community provided career insight targeted at employees from the same community. The presenters spoke to their career experiences, the strategies they used to advance their careers, and made suggestions on how employees can influence policies to help create equitable career development for everyone. This year\u2019s roundtable focused on research science as a career and featured three AAFC research scientists from the visible minority community.</li>\n\t<li>A seminar titled Unwritten Rules: What You Don\u2019t Know Can Hurt Your Career allowed participants to learn how to proactively manage their career by learning the workplace norms and behaviours that are necessary to succeed within an organization but are not formally understood.  The session presented highlights of a report written by Catalyst, a leading non-profit membership organization working globally to build inclusive workplaces.</li>\n\t<li>Online personality assessments were made available to members of the Visible Minority Network to help them identify their preferred behavioral style, and the preferred style of their colleagues and managers. This helped them improve their professional relationships and interactions.</li>\n</ul>\n                                           \n<h2>Workshop on Unconscious Bias</h2>\n\n<p>In partnership with the Canadian Centre for Diversity and Inclusion, AAFC organized three workshops on Unconscious Bias. The workshop was specifically targeted to hiring managers and focused on increasing their awareness of unconscious biases. It also provided them with tips on how to address them and interact with others in an inclusive way. Feedback on the workshop was very positive. More than 120 employees participated in the workshops.</p>\n\n<h2>Government-wide diversity activities</h2>\n\n<ul class=\"lst-spcd\">\n\t<li>In 2016, AAFC was one of five departments asked to share their diversity and inclusiveness best practices with the Joint Union/Management Task Force on Diversity and Inclusion in the Public Service, whose mandate was to examine how to strengthen diversity and inclusion across government.  The resulting taskforce report led to the Treasury Board Secretariat\u2019s development of the \"Diversity and Inclusion Strategy and Action Plan for the Federal Public Service\", which outlines a plan for culture change and public transformation towards a more diverse and inclusive workplace. The Strategy and Action Plan are to be launched by the end of Fiscal 2018.</li>\n\t<li>The Department was among 12 Government of Canada departments selected to support the Interdepartmental Circles on Indigenous Representation.</li>\n</ul>\n\r\n    <!-- Fin du contenu -->\r\n  \r\n  <div class=\"pagedetails\" id=\"pgft\">\r\n    <div class=\"row\">\r\n\t  <div class=\"col-sm-6 col-md-5 col-lg-4\">\r\n\t    <details class=\"brdr-0\">\r\n\t\t<summary class=\"btn btn-default text-center\" onclick=\"getAntiSpamSeq('/eng/mail-handler/?anti-spam-sequence=true')\">Report a problem on this page</summary>\r\n\t\t<div class=\"clearfix\"></div>\r\n\t\t<div class=\"well row\">\r\n\t\t<div>\r\n\t\t  <div class=\"gc-rprt-prblm\">\r\n\t\t    <div class=\"gc-rprt-prblm-frm gc-rprt-prblm-tggl\">\r\n\t\t\t  \r\n\t\t\t<form id=\"report_a_problem_form\" action=\"/eng/mail-handler/#report_a_problem_form\" method=\"post\">\t\t\t\t   \t\t\t\r\n\r\n\t            \t <input type=\"hidden\" name=\"lang\" value=\"eng\">\r\n\t            \t <input type=\"hidden\" name=\"pageId\" value=\"1510759633689\">\r\n\t            \t <input type=\"hidden\" name=\"pageUrl\" value=\"http://www.agr.gc.ca/eng/about-our-department/planning-and-reporting/public-service-renewal-results-for-agriculture-and-agri-food-canada/diversity-and-inclusiveness/?id=1510759633689\">\r\n\t\t\t\t\t <div id=\"report_a_problem_form_error\"></div>\r\n\t\t             <fieldset>\t\t\t\t\t    \r\n\t\t                <legend><span class=\"field-name\">Please select all that apply:</span></legend>\t\t                                 \r\n\t\t\t\t\t\t<div class=\"checkbox\">\r\n\t\t\t\t\t\t\t<label for=\"problem1\"><input name=\"problem1\" id=\"problem1\" type=\"checkbox\" value=\"Yes\">A link, button or video is not working</label>\r\n\t\t\t\t\t\t\t<input name=\"problem1\" type=\"hidden\" value=\"No\">\r\n\t\t\t\t\t\t</div>\r\n\t\t\t\t\t\t<div class=\"checkbox\">\r\n\t\t\t\t\t\t\t<label for=\"problem2\"><input name=\"problem2\" id=\"problem2\" type=\"checkbox\" value=\"Yes\">It has a spelling mistake</label>\r\n\t\t\t\t\t\t\t<input name=\"problem2\" type=\"hidden\" value=\"No\">\r\n\t\t\t\t\t\t</div>\r\n\t\t\t\t\t\t<div class=\"checkbox\">\r\n\t\t\t\t\t\t\t<label for=\"problem3\"><input name=\"problem3\" id=\"problem3\" type=\"checkbox\" value=\"Yes\">Information is missing</label>\r\n\t\t\t\t\t\t\t<input name=\"problem3\" type=\"hidden\" value=\"No\">\r\n\t\t\t\t\t   </div>\r\n\t\t\t\t\t\t<div class=\"checkbox\">\r\n\t\t\t\t\t\t\t<label for=\"problem4\"><input name=\"problem4\" id=\"problem4\" type=\"checkbox\" value=\"Yes\">Information is outdated or wrong</label>\r\n\t\t\t\t\t\t\t<input name=\"problem4\" type=\"hidden\" value=\"No\">\r\n\t\t\t\t\t\t</div>\r\n\t\t\t\t\t\t<div class=\"checkbox\">\r\n\t\t\t\t\t\t\t<label for=\"problem5\"><input name=\"problem5\" id=\"problem5\" type=\"checkbox\" value=\"Yes\">Login error when trying to access an account (e.g. My Service Canada Account)</label>\r\n\t\t\t\t\t\t\t<input name=\"problem5\" type=\"hidden\" value=\"No\">\r\n\t\t\t\t\t\t</div>\r\n\t\t\t\t\t\t\t<ul>\r\n\t\t\t\t\t\t\t<li class=\"checkbox\">\r\n\t\t\t\t\t\t\t\t<label for=\"problem6a\"><input name=\"problem6\" id=\"problem6a\" type=\"checkbox\" value=\"Yes\">GC Key access</label>\r\n\t\t\t\t\t\t\t\t<input name=\"problem6\" type=\"hidden\" value=\"No\">\r\n\t\t\t\t\t\t\t </li>\r\n\t\t\t\t\t\t\t<li class=\"checkbox\">\r\n\t\t\t\t\t\t\t\t<label for=\"problem7\"><input name=\"problem7\" id=\"problem7\" type=\"checkbox\" value=\"Yes\">SecureKey Concierge (Banking Credential) access </label>\r\n\t\t\t\t\t\t\t\t<input name=\"problem7\" type=\"hidden\" value=\"No\">\r\n\t\t\t\t\t\t\t </li>\r\n\t\t\t\t\t\t\t<li class=\"checkbox\">\r\n\t\t\t\t\t\t\t\t<label for=\"problem8\"><input name=\"problem8\" id=\"problem8\" type=\"checkbox\" value=\"Yes\">Personal Access Code (PAC) problems or EI Access Code (AC) problems</label>\r\n\t\t\t\t\t\t\t\t<input name=\"problem8\" type=\"hidden\" value=\"No\">\r\n\t\t\t\t\t\t\t </li>\t\r\n\t\t\t\t\t\t\t<li class=\"checkbox\">\r\n\t\t\t\t\t\t\t\t<label for=\"problem9\"><input name=\"problem9\" id=\"problem9\" type=\"checkbox\" value=\"Yes\">Social Insurance Number (SIN) validation problems</label>\r\n\t\t\t\t\t\t\t\t<input name=\"problem9\" type=\"hidden\" value=\"No\">\r\n\t\t\t\t\t\t\t </li>\t\t\t\t\t\t\t\t\r\n\t\t\t\t\t\t\t<li class=\"checkbox\">\r\n\t\t\t\t\t\t\t\t<label for=\"problem10\"><input name=\"problem10\" id=\"problem10\" type=\"checkbox\" value=\"Yes\">Other login error not in this list</label>\r\n\t\t\t\t\t\t\t\t<input name=\"problem10\" type=\"hidden\" value=\"No\">\r\n\t\t\t\t\t\t\t </li>\t\t \r\n\t\t\t\t\t\t\t </ul>\r\n\t\t\t\t\t\t<div class=\"checkbox\">\r\n\t\t\t\t\t\t\t<label for=\"problem11\"><input name=\"problem11\" id=\"problem11\" type=\"checkbox\" value=\"Yes\">I can't find what I'm looking for</label>\r\n\t\t\t\t\t\t\t<input name=\"problem11\" type=\"hidden\" value=\"No\">\r\n\t\t\t\t\t\t</div>\r\n\t\t\t\t\t\t<div class=\"checkbox\">\r\n\t\t\t\t\t\t\t<label for=\"problem12\"><input name=\"problem12\" id=\"problem12\" type=\"checkbox\" value=\"Yes\">Other issue not in this list</label>\r\n\t\t\t\t\t\t\t<input name=\"problem12\" type=\"hidden\" value=\"No\">\r\n\t\t\t\t\t\t</div>\t\t\t\t\t\t \t\t\t\t\t\t\t\t\t\t\t\t \r\n\t\t             </fieldset>\r\n\t\t\t\t\t <div>\r\n\t\t\t\t\t   <label for=\"aafc_ranstr\"><span id=\"fbch\"><br>Enter these characters <strong class=\"required\">(required)</strong>: </span><span id=\"ranstr\">U5S</span></label>\r\n\t\t\t           <input name=\"anti-spam-sequence\" id=\"aafc_ranstr\" size=\"4\" maxlength=\"3\" type=\"text\">\r\n\t\t\t\t\t </div>\t\r\n\r\n\t\t\t\t\t <br><input type=\"submit\" class=\"btn btn-primary\" value=\"Submit\">\r\n\t\t\t\t  </form>\r\n\t\t\t\t</div>\r\n\t\t\t</div>\t\t\t\r\n\t\t  </div>\r\n\t\t</div>\r\n\t\t</details>\r\n\t  </div>\r\n\t  <div class=\"wb-share col-sm-4 col-md-3 col-sm-offset-2 col-md-offset-4 col-lg-offset-5\" data-wb-share='{\"lnkClass\": \"btn btn-default btn-block\"}'></div>\r\n\t</div>\r\n\t<dl id=\"wb-dtmd\">\r\n\t  <dt>Date modified: </dt>\r\n\t  <dd><time property=\"dateModified\">2019-03-01</time></dd></dl></div>",
        "fr": "\r\n    \r\n    <!-- MainContentStart -->\r\n    <!-- D&eacute;but du contenu -->\r\n    <div class=\"col-md-4 pull-right\" style=\"z-index: 1000\">\n<section class=\"panel panel-default\">\n<header class=\"panel-heading\">\n<h2 class=\"panel-title\">Priorit\u00e9s de la fonction publique en 2018</h2>\n</header>\n<div class=\"panel-body\"><p>\u00catre\u00a0:</p>\n\n<ul class=\"list-unstyled\">\n<li><span class=\"glyphicon glyphicon-unchecked mrgn-rght-sm\"></span>rapide \u00e0 obtenir des r\u00e9sultats;</li>\n<li><span class=\"glyphicon glyphicon-check mrgn-rght-sm\"></span>inclusif dans l\u2019\u00e9laboration d\u2019id\u00e9es et la prise de d\u00e9cisions;</li>\n<li><span class=\"glyphicon glyphicon-unchecked mrgn-rght-sm\"></span>\u00e9quip\u00e9 pour exceller.</li>\n</ul></div>\n</section>\n</div><p>Agriculture et Agroalimentaire Canada (AAC) accorde une tr\u00e8s grande importance \u00e0 la diversit\u00e9 et \u00e0 l\u2019inclusion, et continue d\u2019appuyer la participation des groupes sous-repr\u00e9sent\u00e9s dans le domaine de l\u2019agriculture.</p>\n\n<p>Pour en t\u00e9moigner, AAC a \u00e9t\u00e9 reconnu, en 2017 et 2018, comme un des meilleurs employeurs du Canada en mati\u00e8re de diversit\u00e9.</p>\n\n<p>Au cours de la derni\u00e8re ann\u00e9e, le Minist\u00e8re a fait des progr\u00e8s importants pour favoriser une culture d\u2019inclusion.</p>\n\n<h2>Appui pour favoriser la participation des Autochtones dans l\u2019agriculture</h2>\n\n<ul class=\"lst-spcd\">\n\t<li>Le Minist\u00e8re est d\u00e9termin\u00e9 \u00e0 b\u00e2tir une relation avec des populations autochtones partout au Canada afin de comprendre le portrait, les possibilit\u00e9s et les d\u00e9fis agroalimentaires actuels. Ce dialogue continu permet de s\u2019assurer que les programmes et les politiques en mati\u00e8re d\u2019agriculture, y compris le <a href=\"?id=1597858160271\">Une politique alimentaire pour le Canada</a> correspondent aux besoins des collectivit\u00e9s autochtones.</li>\n\t<li>En 2018, nous avons publi\u00e9 le rapport <a href=\"?id=1527720564716\">Ce que nous avons entendu - S\u00e9ances d\u2019information \u00e0 l\u2019intention des Premi\u00e8res Nations - printemps 2017</a> et le <a href=\"?id=1597858160271\">Une politique alimentaire pour le Canada</a>. Ces rapports mettent en lumi\u00e8re une partie de ce dialogue entre AAC et les populations autochtones. De plus, AAC se penche sur la fa\u00e7on dont les programmes du <a href=\"?id=1461767369849\">Partenariat canadien pour l'agriculture</a> peuvent permettre aux peuples autochtones de profiter d\u2019occasions de d\u00e9veloppement \u00e9conomique dans le secteur de l'agriculture et de l'agroalimentaire.</li>\n\t<li>AAC a lanc\u00e9 le <a href=\"?id=1525208767407\">Service Explorateur pour les Autochtones</a>, un service personnalis\u00e9 qui \u00e9tablit un lien entre les peuples autochtones et les employ\u00e9s qui leur parleront des programmes, des services et du financement offerts li\u00e9s \u00e0 l\u2019agriculture, et qui leur permettront de cr\u00e9er des occasions dans le secteur de l\u2019agriculture et de l\u2019agroalimentaire.</li>\n</ul>\n\n<h2>Services pour les employ\u00e9s autochtones actuels et \u00e9ventuels</h2>\n\n<ul class=\"lst-spcd\">\n<li>Le Cercle de r\u00e9seautage des employ\u00e9s autochtones (CREA) est un service de r\u00e9seautage et de soutien pour les employ\u00e9s et \u00e9tudiants autochtones, ainsi qu\u2019une plateforme visant \u00e0 accro\u00eetre la sensibilisation et l\u2019appr\u00e9ciation par rapport aux peuples et aux cultures autochtones. Il contribue \u00e0 la sensibilisation culturelle\u00a0:\n<ul>\n\t<li>en organisant des \u00e9v\u00e9nements culturels et des activit\u00e9s d\u2019apprentissage (notamment durant la Semaine de sensibilisation aux cultures autochtones);</li>\n\t<li>en cr\u00e9ant du mat\u00e9riel didactique, comme sa vid\u00e9oth\u00e8que sur la sensibilisation culturelle;</li>\n\t<li>en discutant des obstacles auxquels font face les employ\u00e9s autochtones au moyen de 11 pr\u00e9sentations \u00ab\u00a0Unis dans la diversit\u00e9\u00a0\u00bb qui ont joint plus de 110 employ\u00e9s. Les pr\u00e9sentations, lanc\u00e9es par le scientifique de liaison autochtone d\u2019AAC, permettent de mieux faire conna\u00eetre les obstacles et les possibilit\u00e9s qui existent pour les employ\u00e9s autochtones actuels et \u00e9ventuels, et d\u00e9crivent les mesures que les employ\u00e9s peuvent prendre pour accro\u00eetre le recrutement et le maintien en poste d\u2019employ\u00e9s autochtones \u00e0 AAC.</li>\n</ul>\n\t\n<p>Le CREA a soutenu le perfectionnement professionnel de ses membres en offrant des possibilit\u00e9s de formation strat\u00e9gique, y compris pendant sa s\u00e9ance de r\u00e9flexion annuelle.</p>\n</li>\n\n<li>\u00c9tabli en 2017, le Bureau d\u2019aide et de sensibilisation aux Autochtones a continu\u00e9 \u00e0 renforcer la capacit\u00e9 minist\u00e9rielle de faire avancer l\u2019agriculture autochtone en appuyant les activit\u00e9s de l\u2019Initiative de recrutement d\u2019\u00e9tudiants autochtones, le CREA, l\u2019a\u00een\u00e9 repr\u00e9sentant les Premi\u00e8res Nations, les projets et les partenariats de recherche avec les collectivit\u00e9s autochtones, ainsi qu\u2019en am\u00e9liorant la sensibilisation au moyen de l\u2019\u00e9laboration d\u2019une s\u00e9rie de cours en sensibilisation aux cultures autochtones \u00e0 l\u2019intention du Minist\u00e8re. \n\n<p>Dans le cadre de la SCSCA, l\u2019a\u00een\u00e9 du Minist\u00e8re, embauch\u00e9 en 2016, a effectu\u00e9 36 s\u00e9ances de sensibilisation culturelle, joignant plus de 670 employ\u00e9s. Il continue \u00e9galement d\u2019agir comme premier point de liaison avec les collectivit\u00e9s autochtones, en faisant mieux conna\u00eetre le Minist\u00e8re et le secteur de l\u2019agriculture, et en encourageant les jeunes des collectivit\u00e9s autochtones \u00e0 envisager une carri\u00e8re \u00e0 AAC et dans la fonction publique.</p>\n</li>\n\n<li>Notre <a href=\"?id=1510764508128\">Initiative de recrutement d\u2019\u00e9tudiants autochtones</a> offre aux \u00e9tudiants autochtones une exp\u00e9rience de travail qui leur permet de cro\u00eetre sur le plan personnel, tout en contribuant aux objectifs du Minist\u00e8re.</li>\n</ul>\n\n\n<h2>Des r\u00e9seaux d'employ\u00e9s actifs et engag\u00e9s</h2>\n\n<p>Les cinq r\u00e9seaux de la diversit\u00e9 et de  l\u2019inclusivit\u00e9 d\u2019AAC appuient les activit\u00e9s du Minist\u00e8re sur la diversit\u00e9 et  l\u2019inclusivit\u00e9 en\u00a0:</p>\n\n<ul>\n  <li>contribuant \u00e0 la sensibilisation;</li>\n  <li>appuyant les activit\u00e9s de recrutement et celles visant le  maintien en poste;</li>\n  <li>identifiant et proposant des solutions aux barri\u00e8res syst\u00e9miques;</li>\n  <li>fournissant des points de vue diversifi\u00e9s afin de contribuer aux initiatives et  rapports du Minist\u00e8re;</li>\n  <li>contribuant \u00e0  offrir un milieu s\u00e9curitaire et du mentorat \u00e0 leurs membres.</li>\n</ul>\n\n<h2>Initiative Espace positif</h2>\n\n<p>Afin d'\u00e9laborer un espace s\u00fbr dans le cadre duquel les employ\u00e9s peuvent s\u2019exprimer ouvertement \u00e0 propos de la diversit\u00e9 des genres et de la sexualit\u00e9 en milieu de travail, le R\u00e9seau de l\u2019inclusivit\u00e9 et de la diversit\u00e9 des genres et de la sexualit\u00e9 d\u2019AAC a \u00e9labor\u00e9 les s\u00e9ances de formation suivantes dans le cadre de l\u2019initiative Espace positif\u00a0:</p>\n\n<ul>\n\t<li>la diversit\u00e9 des genres et de la sexualit\u00e9 en milieu de travail, un cours d\u2019introduction qui vise \u00e0 mieux sensibiliser les employ\u00e9s en les incitant \u00e0 remettre en question leurs propres pr\u00e9jug\u00e9s et \u00e0 adopter des comportements plus inclusifs (<a href=\"?id=1548938588572\">voir la vid\u00e9o promotionnelle</a>);</li>\n\t<li>la formation Champion de l\u2019Espace positif, un cours plus avanc\u00e9 visant \u00e0 pr\u00e9parer les employ\u00e9s \u00e0 devenir des champions de la diversit\u00e9 et de l\u2019inclusion dans leur milieu de travail.</li>\n</ul>\n\n<img src=\"https://www.agr.gc.ca/resources/prod/img/psrr/1510759633689-1.jpg\" alt=\"\" class=\"pull-right mrgn-lft-md\">\n \n<p>L\u2019initiative, qui s\u2019inspire de celle mise en place par Service correctionnel Canada, a \u00e9t\u00e9 reproduite \u00e0 AAC pour r\u00e9pondre aux pr\u00e9occupations des membres du R\u00e9seau de l\u2019inclusivit\u00e9 et de la diversit\u00e9 des genres et de la sexualit\u00e9, comme celles exprim\u00e9es par une membre qui dit avoir pass\u00e9 des ann\u00e9es \u00e0 cacher sa sexualit\u00e9. Elle a dit\u00a0: \u00ab\u00a0Je me sentais d\u00e9connect\u00e9e avec mes pairs et je ne sentais pas que je pouvais v\u00e9ritablement \u00eatre moi-m\u00eame en milieu de travail. Cette situation a eu une incidence sur mon rendement au travail et mes relations au bureau, \u00e9tant donn\u00e9 que je m\u2019isolais souvent pour \u00e9viter des rencontres difficiles.\u00a0\u00bb</p>\n\n<p>Pour un organisme comptant plus de 4\u00a0000 employ\u00e9s, ces activit\u00e9s sont essentielles pour cr\u00e9er un environnement qui permette aux employ\u00e9s de s\u2019\u00e9panouir. Ses efforts pour am\u00e9liorer l\u2019inclusion dans le milieu de travail se sont d\u00e9j\u00e0 av\u00e9r\u00e9s un succ\u00e8s. Depuis le lancement de l\u2019Initiative en 2017, AAC a tenu\u00a0:</p>\n\n<ul>\n\t<li>32 s\u00e9ances sur la mixit\u00e9 et la diversit\u00e9 sexuelles en milieu de travail auxquelles ont particip\u00e9 448 personnes;</li>\n\t<li>13 s\u00e9ances de formation \u00ab\u00a0Champion de l\u2019Espace positif\u00a0\u00bb qui ont permis de former 100 champions.</li>\n</ul>\n\n<h2>Initiatives d\u2019avancement professionnel du R\u00e9seau des minorit\u00e9s visibles</h2>\n\n<p>Au cours de 2017 et 2018, le R\u00e9seau des minorit\u00e9s visibles d\u2019AAC a tenu une s\u00e9rie d\u2019activit\u00e9s pour appuyer l\u2019avancement professionnel des minorit\u00e9s visibles.</p>\n\n<ul class=\"lst-spcd\">\n\t<li>Lors d\u2019une table ronde sur l\u2019avancement professionnel, des cadres sup\u00e9rieurs de la collectivit\u00e9 des minorit\u00e9s visibles ont pr\u00e9sent\u00e9 des perspectives de carri\u00e8re aux employ\u00e9s de leur collectivit\u00e9. Les pr\u00e9sentateurs ont parl\u00e9 de leur exp\u00e9rience professionnelle et des strat\u00e9gies qu\u2019ils ont employ\u00e9es pour faire avancer leur carri\u00e8re. Ils ont \u00e9galement propos\u00e9 des moyens pour les employ\u00e9s d\u2019influencer les politiques afin de permettre un avancement professionnel \u00e9quitable pour tous. La table ronde de cette ann\u00e9e \u00e9tait ax\u00e9e sur les perspectives de carri\u00e8re en recherche scientifique et comprenait trois chercheurs scientifiques d\u2019AAC de la collectivit\u00e9 des minorit\u00e9s visibles.</li>\n\t<li>Un s\u00e9minaire, intitul\u00e9 \u00ab\u00a0R\u00e8gles non \u00e9crites\u00a0: ce que vous ignorez peut nuire \u00e0 votre carri\u00e8re\u00a0\u00bb, a permis aux participants d\u2019apprendre comment g\u00e9rer leur carri\u00e8re de mani\u00e8re proactive par l\u2019apprentissage des normes et des comportements qui sont n\u00e9cessaires en milieu de travail pour r\u00e9ussir au sein d\u2019un organisme, mais qui ne sont pas formellement compris. La s\u00e9ance a pr\u00e9sent\u00e9 les faits saillants d\u2019un rapport r\u00e9dig\u00e9 par Catalyst, une association \u00e0 but non lucratif de premier plan qui travaille \u00e0 l\u2019\u00e9chelle internationale \u00e0 la cr\u00e9ation de milieux de travail inclusifs.</li>\n\t<li>Des \u00e9valuations de personnalit\u00e9 en ligne ont \u00e9t\u00e9 rendues accessibles aux membres du R\u00e9seau des minorit\u00e9s visibles pour leur permettre de d\u00e9terminer le style comportemental qui leur convient le mieux, ainsi que celui de leurs coll\u00e8gues et leurs gestionnaires. Cette d\u00e9marche leur a permis d\u2019am\u00e9liorer leurs relations et interactions professionnelles.</li>\n</ul>\n                                           \n<h2>Atelier sur les pr\u00e9jug\u00e9s inconscients</h2>\n\n<p>En partenariat avec le Centre canadien pour la diversit\u00e9 et l\u2019inclusion, AAC a organis\u00e9 trois ateliers sur les pr\u00e9jug\u00e9s inconscients. L\u2019atelier ciblait pr\u00e9cis\u00e9ment les gestionnaires responsables de l\u2019embauche et visait \u00e0 leur faire prendre conscience de leurs pr\u00e9jug\u00e9s inconscients. Il leur a \u00e9galement fourni des conseils sur la fa\u00e7on de les \u00e9liminer et d\u2019interagir avec les autres de fa\u00e7on inclusive. La r\u00e9troaction sur les ateliers \u00e9tait tr\u00e8s positive. Plus de 120 employ\u00e9s y ont particip\u00e9.</p>\n\n<h2>Activit\u00e9s sur la diversit\u00e9 \u00e0 l\u2019\u00e9chelle du gouvernement</h2>\n\n<ul class=\"lst-spcd\">\n\t<li>En 2016, AAC faisait partie d\u2019un groupe de cinq minist\u00e8res auxquels on avait demand\u00e9 de communiquer leurs pratiques exemplaires en mati\u00e8re de diversit\u00e9 et d\u2019inclusion au groupe de travail conjoint syndical-patronal sur la diversit\u00e9 et l\u2019inclusion dans la fonction publique, dont le mandat \u00e9tait d\u2019examiner la fa\u00e7on d\u2019am\u00e9liorer la diversit\u00e9 et l\u2019inclusion \u00e0 l\u2019\u00e9chelle du gouvernement. Le rapport du groupe de travail a pouss\u00e9 le Secr\u00e9tariat du Conseil du Tr\u00e9sor du Canada \u00e0 \u00e9laborer la Strat\u00e9gie et le Plan d\u2019action en mati\u00e8re de diversit\u00e9 et d\u2019inclusion pour la fonction publique f\u00e9d\u00e9rale, qui d\u00e9crit un plan de changement culturel et de transformation publique en vue de cr\u00e9er un milieu de travail plus diversifi\u00e9 et inclusif. La strat\u00e9gie et le plan d\u2019action doivent \u00eatre lanc\u00e9s d\u2019ici la fin de l\u2019exercice 2018.</li>\n\t<li>Le Minist\u00e8re faisait partie de 12 minist\u00e8res f\u00e9d\u00e9raux choisis pour appuyer les Cercles interminist\u00e9riels sur la repr\u00e9sentation des peuples autochtones.</li>\n</ul>\n\n\r\n    <!-- Fin du contenu -->\r\n\t\r\n\t<div class=\"pagedetails\" id=\"pgft\">\r\n\t\t<div class=\"row\">\r\n\t\t  <div class=\"col-sm-6 col-md-5 col-lg-4\">\r\n\t\t    <details class=\"brdr-0\">\r\n\t\t\t<summary class=\"btn btn-default text-center\" onclick=\"getAntiSpamSeq('/fra/mail-handler/?anti-spam-sequence=true')\">Signaler un probl\u00e8me sur cette page</summary>\r\n\t\t\t<div class=\"well row\">\r\n\t\t\t  <div class=\"gc-rprt-prblm\">\r\n\t\t\t    <div class=\"gc-rprt-prblm-frm gc-rprt-prblm-tggl\">\r\n\t\t\t\t   <form id=\"report_a_problem_form\" action=\"/fra/mail-handler/\" method=\"post\">\r\n\t            \t <input type=\"hidden\" name=\"lang\" value=\"fra\">\r\n\t            \t <input type=\"hidden\" name=\"pageId\" value=\"1510759633689\">\r\n\t            \t <input type=\"hidden\" name=\"pageUrl\" value=\"http://www5.agr.gc.ca/fra/a-propos-de-notre-ministere/planification-et-rapports/resultats-du-renouvellement-de-la-fonction-publique-d-agriculture-et-agroalimentaire-canada/initiatives-de-diversite-et-d-inclusion/?id=1510759633689\">\r\n\t\t\t\t\t <div id=\"report_a_problem_form_error\"></div>\r\n\t\t             <fieldset>\t\t\t\t\t    \r\n\t\t                <legend><span class=\"field-name\">Veuillez cocher toutes les r\u00e9ponses pertinentes\u00a0:</span></legend>\r\n\t\t                 <div class=\"checkbox\">\r\n\t\t                    <label for=\"problem1\"><input name=\"problem1\" id=\"problem1\" type=\"checkbox\" value=\"Yes\">Un lien, un bouton ou une vid\u00e9o ne fonctionne pas</label>\r\n\t\t                    <input name=\"problem1\" type=\"hidden\" value=\"No\">\r\n\t\t                </div>\r\n\t\t                <div class=\"checkbox\">\r\n\t\t                    <label for=\"problem2\"><input name=\"problem2\" id=\"problem2\" type=\"checkbox\" value=\"Yes\">Il y a une erreur d'orthographe ou de grammaire</label>\r\n\t\t                    <input name=\"problem2\" type=\"hidden\" value=\"No\">\r\n\t\t                </div>\r\n\t\t   \t\t\t\t <div class=\"checkbox\">\r\n\t\t                    <label for=\"problem3\"><input name=\"problem3\" id=\"problem3\" type=\"checkbox\" value=\"Yes\">Les renseignements sont incomplets</label>\r\n\t\t                    <input name=\"problem3\" type=\"hidden\" value=\"No\">\r\n\t\t                </div>\r\n\t\t             \t\t<div class=\"checkbox\">\r\n\t\t                    <label for=\"problem4\"><input name=\"problem4\" id=\"problem4\" type=\"checkbox\" value=\"Yes\">L'information n'est plus \u00e0 jour ou est erron\u00e9e</label>\r\n\t\t                    <input name=\"problem4\" type=\"hidden\" value=\"No\">\r\n\t\t                </div>\t\t\t\t\t\t\r\n\t\t\t\t\t\t<div class=\"checkbox\">\r\n\t\t\t\t\t\t\t<label for=\"problem5\"><input name=\"problem5\" id=\"problem5\" type=\"checkbox\" value=\"Yes\">Message d'erreur \u00e0 l'ouverture de la session lorsque je tente d'acc\u00e9der \u00e0 un compte (ex. Mon dossier Service Canada)</label>\r\n\t\t\t\t\t\t\t<input name=\"problem5\" type=\"hidden\" value=\"No\">\r\n\t\t\t\t\t\t</div>\r\n\t\t\t\t\t\t\t<ul>\r\n\t\t\t\t\t\t\t<li class=\"checkbox\">\r\n\t\t\t\t\t\t\t\t<label for=\"problem6a\"><input name=\"problem6\" id=\"problem6a\" type=\"checkbox\" value=\"Yes\">Acc\u00e8s Cl\u00e9GC</label>\r\n\t\t\t\t\t\t\t\t<input name=\"problem6\" type=\"hidden\" value=\"No\">\r\n\t\t\t\t\t\t\t </li>\r\n\t\t\t\t\t\t\t<li class=\"checkbox\">\r\n\t\t\t\t\t\t\t\t<label for=\"problem7\"><input name=\"problem7\" id=\"problem7\" type=\"checkbox\" value=\"Yes\">Acc\u00e8s SecureKey Service de Concierge (justificatifs d'identit\u00e9 bancaires)</label>\r\n\t\t\t\t\t\t\t\t<input name=\"problem7\" type=\"hidden\" value=\"No\">\r\n\t\t\t\t\t\t\t </li>\r\n\t\t\t\t\t\t\t<li class=\"checkbox\">\r\n\t\t\t\t\t\t\t\t<label for=\"problem8\"><input name=\"problem8\" id=\"problem8\" type=\"checkbox\" value=\"Yes\">Probl\u00e8me avec le Code d'acc\u00e8s personnel (CAP) ou avec le Code d'acc\u00e8s (CA) de l'assurance emploi</label>\r\n\t\t\t\t\t\t\t\t<input name=\"problem8\" type=\"hidden\" value=\"No\">\r\n\t\t\t\t\t\t\t </li>\t\r\n\t\t\t\t\t\t\t<li class=\"checkbox\">\r\n\t\t\t\t\t\t\t\t<label for=\"problem9\"><input name=\"problem9\" id=\"problem9\" type=\"checkbox\" value=\"Yes\">Probl\u00e8me li\u00e9 \u00e0 la validation du num\u00e9ro d'assurance sociale (NAS)</label>\r\n\t\t\t\t\t\t\t\t<input name=\"problem9\" type=\"hidden\" value=\"No\">\r\n\t\t\t\t\t\t\t </li>\t\t\t\t\t\t\t\t\r\n\t\t\t\t\t\t\t<li class=\"checkbox\">\r\n\t\t\t\t\t\t\t\t<label for=\"problem10\"><input name=\"problem10\" id=\"problem10\" type=\"checkbox\" value=\"Yes\">Autre erreur lors de l'ouverture de session qui ne figure pas sur cette liste</label>\r\n\t\t\t\t\t\t\t\t<input name=\"problem10\" type=\"hidden\" value=\"No\">\r\n\t\t\t\t\t\t\t </li>\t\t \r\n\t\t\t\t\t\t\t </ul>\r\n\t\t\t\t\t\t<div class=\"checkbox\">\r\n\t\t\t\t\t\t\t<label for=\"problem11\"><input name=\"problem11\" id=\"problem11\" type=\"checkbox\" value=\"Yes\">Je n'arrive pas \u00e0 trouver ce que je cherche</label>\r\n\t\t\t\t\t\t\t<input name=\"problem11\" type=\"hidden\" value=\"No\">\r\n\t\t\t\t\t\t</div>\r\n\t\t\t\t\t\t<div class=\"checkbox\">\r\n\t\t\t\t\t\t\t<label for=\"problem12\"><input name=\"problem12\" id=\"problem12\" type=\"checkbox\" value=\"Yes\">Autre probl\u00e8me qui ne figure pas sur cette liste</label>\r\n\t\t\t\t\t\t\t<input name=\"problem12\" type=\"hidden\" value=\"No\">\r\n\t\t\t\t\t\t</div>\t\t\t\t\t\t\t\t\t\t\t\t\t\t\t\t\t\t\t\r\n\t\t             </fieldset>\r\n\t\t\t\t\t <div>\r\n\t\t\t\t        <label for=\"aafc_ranstr\"><span id=\"fbch\">Veuillez inscrire les caract\u00e8res suivants  <strong class=\"required\">(obligatoire)</strong>\u00a0: </span><span id=\"ranstr\">XXX</span></label>\r\n\t\t\t            <input name=\"anti-spam-sequence\" id=\"aafc_ranstr\" size=\"4\" maxlength=\"3\" type=\"text\">\r\n\t\t\t\t\t </div>\r\n\t\t\t\t\t <input type=\"submit\" class=\"btn btn-primary\" value=\"Soumettre\">\r\n\t\t\t\t  </form>\r\n\t\t\t\t</div>\r\n\t\t\t  </div>\r\n\t\t\t</div>\r\n\t\t</details>\r\n\t    </div>\r\n\t  <div class=\"wb-share col-sm-4 col-md-3 col-sm-offset-2 col-md-offset-4 col-lg-offset-5\" data-wb-share='{\"lnkClass\": \"btn btn-default btn-block\"}'></div>\r\n\t  </div>\r\n\t  <dl id=\"wb-dtmd\">\r\n\t    <dt>Date de modification\u00a0: </dt>\r\n\t      <dd><time property=\"dateModified\">2019-03-01</time></dd>\r\n\t  </dl>\r\n\t</div>\r\n\t\r\n  "
    }
}