{
    "dcr_id": "1360881288492",
    "title": {
        "en": "Transparency: Agriculture and Agri-Food Canada",
        "fr": "Transparence : Agriculture et Agroalimentaire Canada"
    },
    "modified": "2020-07-10",
    "issued": "2013-02-21",
    "templatetype": "content page 1 column",
    "page_type": "1",
    "node_id": "1566306181000",
    "dc_date_created": "2013-02-21",
    "managing_branch": "PAB",
    "parent_node_id": "1354137774027",
    "label": {
        "en": "Transparency",
        "fr": "Transparence"
    },
    "exturl": "",
    "teamsite_location": {
        "en": "/default/main/AAFC-AAC/Internet-Internet/CCB-DGCC/WORKAREA/CCB-DGCC/templatedata/comm-comm/gene-gene/data/transparency_1360881288492_en",
        "fr": "/default/main/AAFC-AAC/Internet-Internet/CCB-DGCC/WORKAREA/CCB-DGCC/templatedata/comm-comm/gene-gene/data/transparency_1360881288492_fr"
    },
    "type_name": "sitemapinit",
    "has_dcr_id": true,
    "breadcrumb": {
        "en": "Transparency",
        "fr": "Transparence"
    },
    "layout_name": "content page 1 column",
    "lang": "en",
    "meta": {
        "issued": {
            "en": "2013-02-21",
            "fr": "2013-02-21"
        },
        "modified": {
            "en": "2020-07-10",
            "fr": "2020-07-10"
        },
        "format": {
            "en": "gcformat",
            "fr": "gcformat"
        },
        "title": {
            "en": "Transparency: Agriculture and Agri-Food Canada",
            "fr": "Transparence : Agriculture et Agroalimentaire Canada"
        },
        "subject": {
            "en": "agricultural assistance;rural communities;taxes",
            "fr": "politique agricole;engrais;communaut\u00e9 rurale"
        },
        "description": {
            "en": "Proactive disclosure Disclosure of Contracts over $10000 Disclosure of Grant and Contribution Awards Over $25000 Disclosure of Position Reclassification Disclosure of Travel and Hospitality Expenses Disclosure of Wrongdoing in the Workplace Access to information and privacy Completed Access to Information Requests Other areas of accountability Audit and Evaluation Reports Management Accountability Framework Open data Open government is part of the federal government's efforts to foster greater openness and accountability to provide Canadians with more opportunities to learn about and participate in government to drive innovation and economic opportunities for all Canadians and at the same time create a more",
            "fr": "Divulgation proactive Divulgation des contrats sup\u00e9rieurs \u00e0 10 000 $ Divulgation des octrois de subventions et de contributions sup\u00e9rieures \u00e0 25 000 $ Divulgation des reclassifications de postes Divulgation des frais de d\u00e9placement et d'accueil Divulgation d'information concernant les constatations d'actes r\u00e9pr\u00e9hensibles en milieu de travail Acc\u00e8s \u00e0 l'information et protection des renseignements personnels Demandes compl\u00e9t\u00e9es en vertu de la Loi sur l'acc\u00e8s \u00e0 l'information Autres secteurs de responsabilit\u00e9 Rapports de v\u00e9rification et d'\u00e9valuation Cadre de responsabilisation de gestion Donn\u00e9es ouvertes Le gouvernement ouvert fait partie de nos efforts en vue"
        },
        "language": {
            "en": "eng",
            "fr": "fra"
        },
        "keywords": {
            "en": "Workplace Access;Government of Canada;Completed Access;open data;economic opportunities",
            "fr": "gouvernement du Canada;fait partie de nos efforts;gouvernement ouvert;Divulgation des reclassifications de postes;Cadre de responsabilisation de gestion"
        },
        "audience": {
            "en": "gcaudience",
            "fr": "gcaudience"
        },
        "type": {
            "en": "consultations",
            "fr": "consultation"
        },
        "creator": {
            "en": "Agriculture and Agri-Food Canada;Government of Canada",
            "fr": "Agriculture et Agroalimentaire Canada;Gouvernement du Canada"
        },
        "spatial": {
            "en": "gcregions",
            "fr": "gcregions"
        },
        "service": {
            "en": "AAFC-AAC",
            "fr": "AAFC-AAC"
        },
        "accessRights": {
            "en": "2",
            "fr": "2"
        },
        "legalName": {
            "en": "agriculture_and_agri_food_canada",
            "fr": "agriculture_et_agroalimentaire_canada"
        },
        "areaServed": {
            "en": "Canada",
            "fr": "Canada"
        }
    },
    "body": {
        "en": "tart --&gt;\r\n    <!-- D&eacute;but du contenu -->\r\n    <noscript>\n <div class=\"row profile\">\n<div class=\"col-md-6\">\n     \n\n <p>Proactive disclosure of Agriculture and Agri-Food Canada (AAFC) information, made public so that Canadians and Parliament are better able to hold the government and public sector officials to account.</p> \n</div>\n\n<div class=\"col-md-6 mrgn-tp-sm hidden-sm hidden-xs\">\n<img src=\"https://www.agr.gc.ca/resources/prod/img/topic_transparency.jpg\" class=\"img-responsive\" alt=\"\"><br>\n</div></div></noscript>\n\n<script src=\"https://ajax.googleapis.com/ajax/libs/jquery/2.2.4/jquery.js\"></script>\n<script>\n$( document ).ready( function() {\nvar h1 = document.getElementsByTagName(\"h1\")[0];\nh1.parentNode.removeChild(h1);\ndocument.getElementsByTagName(\"main\")[0].innerHTML = \n'<div class=\"row profile\"><div class=\"col-md-6\"><h1>Transparency: Agriculture and Agri-Food Canada<p>Proactive disclosure of Agriculture and Agri-Food Canada (AAFC) information, made public so that Canadians and Parliament are better able to hold the government and public sector officials to account.  <div class=\"col-md-6 mrgn-tp-sm hidden-sm hidden-xs\"><img src=\"https://www.agr.gc.ca/resources/prod/img/topic_transparency.jpg\" class=\"pull-right img-responsive thumbnail\" alt=\"\"/><br/>'\n+ document.getElementsByTagName(\"main\")[0].innerHTML;\n})\n</script>\n\n<div class=\"clearfix\"></div>\n \n\n \n \n <div class=\"row wb-eqht mrgn-bttm-md\"> \n  <div class=\"col-md-4\"> \n   <section class=\"gc-drmt\"> \n    <h2 class=\"h4\"><a href=\"http://pm.gc.ca/eng/minister-agriculture-and-agri-food-mandate-letter\">Mandate letter from the Prime Minister</a></h2> \n    <p>Commitments and top priorities for the department</p> \n   </section> \n  </div> \n  <div class=\"col-md-4\"> \n   <section class=\"gc-drmt\"> \n    <h2 class=\"h4\"><a href=\"?id=1174061891718\">Departmental Plan</a></h2> \n    <p>Performance goals for the future</p> \n   </section> \n  </div> \n  <div class=\"col-md-4\"> \n   <section class=\"gc-drmt\"> \n    <h2 class=\"h4\"><a href=\"?id=1219248798716\">Departmental Results Report</a></h2> \n    <p>Performance targets met by the department last year</p> \n   </section> \n  </div> \n  <div class=\"clearfix\"></div> \n  <div class=\"col-md-4\"> \n   <section class=\"gc-drmt\"> \n    <h2 class=\"h4\">Travel and hospitality expenses</h2> \n    <p>Money spent on travel, hospitality and conferences</p> \n    <ul>\n    \t<li><a href=\"https://open.canada.ca/en/search/travelq?f%5B0%5D=travelq_organization_en%3AAgriculture%20and%20Agri-Food%20Canada\">Travel expenses</a></li>\n        <li><a href=\"https://open.canada.ca/en/search/hospitalityq?f%5B0%5D=hospitalityq_organization_en%3AAgriculture%20and%20Agri-Food%20Canada\">Hospitality expenses</a></li>\n     </ul>\n   </section> \n  </div> \n  <div class=\"col-md-4\"> \n   <section class=\"gc-drmt\"> \n    <h2 class=\"h4\"><a href=\"https://open.canada.ca/en/search/contracts?f%5B0%5D=contracts_organization_en%3AAgriculture%20and%20Agri-Food%20Canada\">Government contracts awarded</a></h2> \n    <p>Departmental contracts over $10,000 </p> \n   </section> \n  </div> \n  <div class=\"col-md-4\"> \n   <section class=\"gc-drmt\"> \n    <h2 class=\"h4\"><a href=\"https://search.open.canada.ca/en/gc/?sort=score%20desc&amp;page=1&amp;search_text=&amp;gc-search-orgs=Agriculture%20and%20Agri-Food%20Canada\">Grants and contributions</a></h2> \n    <p>Transfers of money, goods, services or assets to individuals, organizations or other levels of government</p> \n   </section> \n  </div> \n  <div class=\"clearfix\"></div> \n  <div class=\"col-md-4\"> \n   <section class=\"gc-drmt\"> \n    <h2 class=\"h4\">Disclosure of serious wrongdoing in the workplace</h2> \n    <p>Currently, there are no disclosures of wrongdoing in the workplace concerning AAFC</p> \n   </section> \n  </div> \n  <div class=\"col-md-4\"> \n   <section class=\"gc-drmt\"> \n    <h2 class=\"h4\"><a href=\"https://open.canada.ca/en/search/reclassification?f%5B0%5D=reclassification_organization_en%3AAgriculture%20and%20Agri-Food%20Canada\">Reclassification of public service positions</a></h2> \n    <p>Government positions that have been reclassified</p> \n   </section> \n  </div> \n  <div class=\"col-md-4\"> \n   <section class=\"gc-drmt\"> \n    <h2 class=\"h4\"><a href=\"?id=1281467902385\">Quarterly Financial Reports</a></h2> \n    <p>Quarterly spending by the department</p> \n   </section> \n  </div> \n  <div class=\"clearfix\"></div> \n  <div class=\"col-md-4\"> \n   <section class=\"gc-drmt\"> \n    <h2 class=\"h4\"><a href=\"?id=1568145041715\">Audits and evaluations</a></h2> \n    <p>Annual reports of audits and evaluations for programs and services at AAFC</p> \n   </section> \n  </div> \n  <div class=\"col-md-4\"> \n   <section class=\"gc-drmt\"> \n    <h2 class=\"h4\"><a href=\"?id=1362063362371\">Public opinion research and consultations</a></h2> \n    <p>Meetings and public opinion research involving feedback from Canadians</p>\n   </section> \n  </div> \n  <div class=\"col-md-4\"> \n   <section class=\"gc-drmt\"> \n    <h2 class=\"h4\"><a href=\"?id=1594225885970\">Briefing documents</a></h2> \n<p>Transition book, briefing notes, Question Period notes</p>\n \n   </section> \n  </div> \n  <div class=\"clearfix\"></div> \n  <div class=\"col-md-4\"> \n   <section class=\"gc-drmt\"> \n    <h2 class=\"h4\"><a href=\"?id=1248458556074\">Privacy Impact Assessment summaries</a></h2> \n    <p>View summaries of the Department's privacy impact assessments</p>\n   </section> \n  </div> \n  <div class=\"col-md-4\"> \n   <section class=\"gc-drmt\"> \n    <h2 class=\"h4\"><a href=\"?id=1347308413430\">Programs and information holdings (Info Source)</a></h2> \n    <p>Information about the functions, programs, activities and related information holdings of government institutions subject to the Access to Information Act and the Privacy Act</p> \n   </section> \n  </div> \n  \n  <div class=\"col-md-4\"> \n   <section class=\"gc-drmt\"> \n    <h2 class=\"h4\"><a href=\"?id=1180114490359\">Access to Information and Privacy Services</a></h2> \n    <p>This office provides information about the <cite>Access to Information Act</cite> and the <cite>Privacy Act</cite> and how to request information held by Agriculture and Agri-Food Canada</p>\n   </section> \n  </div>   \n  \n  \n<div class=\"clearfix\"></div> \n  <div class=\"col-md-4\"> \n   <section class=\"gc-drmt\"> \n    <h2 class=\"h4\"><a href=\"?id=1180107359564\">Acts and regulations</a></h2> \n    <p>Acts related to agriculture and food in Canada</p>\n   </section> \n  </div>   \n \n </div> \n \n <div class=\"gc-stp-stp\"> \n  <div class=\"row mrgn-bttm-lg\"> \n   <div class=\"col-md-12\"> \n    <section class=\"mrgn-bttm-lg\"> \n     <h2>Didn\u2019t find what you were looking for</h2> \n     <p>Make an access to information or personal information request (ATIP request)</p> \n     <ul class=\"list-unstyled\"> \n      <li class=\"pull-left mrgn-rght-lg\"><a class=\"btn btn-primary\" href=\"https://atip-aiprp.tbs-sct.gc.ca/\">Submit an online request for information</a></li> \n     </ul> \n    </section> \n   </div> \n  </div> \n </div> \n \n <div class=\"row\"> \n  <div class=\"col-md-12\"> \n    \n    <h2 class=\"h3 mrgn-tp-0\">Explore also:</h2> \n    <ul>\n      <li><a href=\"?id=1174052616719\">Management accountability framework</a></li>\n      <li><a href=\"?id=1208366237788\">Research projects</a></li>\n      <li><a href=\"?id=1545416557049\">Agriculture and Agri-Food Canada Science Integrity Policy</a></li>\n      <li><a href=\"http://open.canada.ca/\">Government of Canada's open data project</a></li>\n    </ul>\n  </div> \n </div> \n\r\n    <!-- Fin du contenu -->\r\n  \r\n  <div class=\"pagedetails\" id=\"pgft\">\r\n    <div class=\"row\">\r\n\t  <div class=\"col-sm-6 col-md-5 col-lg-4\">\r\n\t    <details class=\"brdr-0\">\r\n\t\t<summary class=\"btn btn-default text-center\" onclick=\"getAntiSpamSeq('/eng/mail-handler/?anti-spam-sequence=true')\">Report a problem on this page</summary>\r\n\t\t<div class=\"clearfix\"></div>\r\n\t\t<div class=\"well row\">\r\n\t\t<div>\r\n\t\t  <div class=\"gc-rprt-prblm\">\r\n\t\t    <div class=\"gc-rprt-prblm-frm gc-rprt-prblm-tggl\">\r\n\t\t\t  \r\n\t\t\t<form id=\"report_a_problem_form\" action=\"/eng/mail-handler/#report_a_problem_form\" method=\"post\">\t\t\t\t   \t\t\t\r\n\r\n\t            \t <input type=\"hidden\" name=\"lang\" value=\"eng\">\r\n\t            \t <input type=\"hidden\" name=\"pageId\" value=\"1360881288492\">\r\n\t            \t <input type=\"hidden\" name=\"pageUrl\" value=\"http://agr.gc.ca/eng/about-our-department/transparency-agriculture-and-agri-food-canada/?id=1360881288492\">\r\n\t\t\t\t\t <div id=\"report_a_problem_form_error\"></div>\r\n\t\t             <fieldset>\t\t\t\t\t    \r\n\t\t                <legend><span class=\"field-name\">Please select all that apply:</span></legend>\t\t                                 \r\n\t\t\t\t\t\t<div class=\"checkbox\">\r\n\t\t\t\t\t\t\t<label for=\"problem1\"><input name=\"problem1\" id=\"problem1\" type=\"checkbox\" value=\"Yes\">A link, button or video is not working</label>\r\n\t\t\t\t\t\t\t<input name=\"problem1\" type=\"hidden\" value=\"No\">\r\n\t\t\t\t\t\t</div>\r\n\t\t\t\t\t\t<div class=\"checkbox\">\r\n\t\t\t\t\t\t\t<label for=\"problem2\"><input name=\"problem2\" id=\"problem2\" type=\"checkbox\" value=\"Yes\">It has a spelling mistake</label>\r\n\t\t\t\t\t\t\t<input name=\"problem2\" type=\"hidden\" value=\"No\">\r\n\t\t\t\t\t\t</div>\r\n\t\t\t\t\t\t<div class=\"checkbox\">\r\n\t\t\t\t\t\t\t<label for=\"problem3\"><input name=\"problem3\" id=\"problem3\" type=\"checkbox\" value=\"Yes\">Information is missing</label>\r\n\t\t\t\t\t\t\t<input name=\"problem3\" type=\"hidden\" value=\"No\">\r\n\t\t\t\t\t   </div>\r\n\t\t\t\t\t\t<div class=\"checkbox\">\r\n\t\t\t\t\t\t\t<label for=\"problem4\"><input name=\"problem4\" id=\"problem4\" type=\"checkbox\" value=\"Yes\">Information is outdated or wrong</label>\r\n\t\t\t\t\t\t\t<input name=\"problem4\" type=\"hidden\" value=\"No\">\r\n\t\t\t\t\t\t</div>\r\n\t\t\t\t\t\t<div class=\"checkbox\">\r\n\t\t\t\t\t\t\t<label for=\"problem5\"><input name=\"problem5\" id=\"problem5\" type=\"checkbox\" value=\"Yes\">Login error when trying to access an account (e.g. My Service Canada Account)</label>\r\n\t\t\t\t\t\t\t<input name=\"problem5\" type=\"hidden\" value=\"No\">\r\n\t\t\t\t\t\t</div>\r\n\t\t\t\t\t\t\t<ul>\r\n\t\t\t\t\t\t\t<li class=\"checkbox\">\r\n\t\t\t\t\t\t\t\t<label for=\"problem6a\"><input name=\"problem6\" id=\"problem6a\" type=\"checkbox\" value=\"Yes\">GC Key access</label>\r\n\t\t\t\t\t\t\t\t<input name=\"problem6\" type=\"hidden\" value=\"No\">\r\n\t\t\t\t\t\t\t </li>\r\n\t\t\t\t\t\t\t<li class=\"checkbox\">\r\n\t\t\t\t\t\t\t\t<label for=\"problem7\"><input name=\"problem7\" id=\"problem7\" type=\"checkbox\" value=\"Yes\">SecureKey Concierge (Banking Credential) access </label>\r\n\t\t\t\t\t\t\t\t<input name=\"problem7\" type=\"hidden\" value=\"No\">\r\n\t\t\t\t\t\t\t </li>\r\n\t\t\t\t\t\t\t<li class=\"checkbox\">\r\n\t\t\t\t\t\t\t\t<label for=\"problem8\"><input name=\"problem8\" id=\"problem8\" type=\"checkbox\" value=\"Yes\">Personal Access Code (PAC) problems or EI Access Code (AC) problems</label>\r\n\t\t\t\t\t\t\t\t<input name=\"problem8\" type=\"hidden\" value=\"No\">\r\n\t\t\t\t\t\t\t </li>\t\r\n\t\t\t\t\t\t\t<li class=\"checkbox\">\r\n\t\t\t\t\t\t\t\t<label for=\"problem9\"><input name=\"problem9\" id=\"problem9\" type=\"checkbox\" value=\"Yes\">Social Insurance Number (SIN) validation problems</label>\r\n\t\t\t\t\t\t\t\t<input name=\"problem9\" type=\"hidden\" value=\"No\">\r\n\t\t\t\t\t\t\t </li>\t\t\t\t\t\t\t\t\r\n\t\t\t\t\t\t\t<li class=\"checkbox\">\r\n\t\t\t\t\t\t\t\t<label for=\"problem10\"><input name=\"problem10\" id=\"problem10\" type=\"checkbox\" value=\"Yes\">Other login error not in this list</label>\r\n\t\t\t\t\t\t\t\t<input name=\"problem10\" type=\"hidden\" value=\"No\">\r\n\t\t\t\t\t\t\t </li>\t\t \r\n\t\t\t\t\t\t\t </ul>\r\n\t\t\t\t\t\t<div class=\"checkbox\">\r\n\t\t\t\t\t\t\t<label for=\"problem11\"><input name=\"problem11\" id=\"problem11\" type=\"checkbox\" value=\"Yes\">I can't find what I'm looking for</label>\r\n\t\t\t\t\t\t\t<input name=\"problem11\" type=\"hidden\" value=\"No\">\r\n\t\t\t\t\t\t</div>\r\n\t\t\t\t\t\t<div class=\"checkbox\">\r\n\t\t\t\t\t\t\t<label for=\"problem12\"><input name=\"problem12\" id=\"problem12\" type=\"checkbox\" value=\"Yes\">Other issue not in this list</label>\r\n\t\t\t\t\t\t\t<input name=\"problem12\" type=\"hidden\" value=\"No\">\r\n\t\t\t\t\t\t</div>\t\t\t\t\t\t \t\t\t\t\t\t\t\t\t\t\t\t \r\n\t\t             </fieldset>\r\n\t\t\t\t\t <div>\r\n\t\t\t\t\t   <label for=\"aafc_ranstr\"><span id=\"fbch\"><br>Enter these characters <strong class=\"required\">(required)</strong>: </span><span id=\"ranstr\">U5S</span></label>\r\n\t\t\t           <input name=\"anti-spam-sequence\" id=\"aafc_ranstr\" size=\"4\" maxlength=\"3\" type=\"text\">\r\n\t\t\t\t\t </div>\t\r\n\r\n\t\t\t\t\t <br><input type=\"submit\" class=\"btn btn-primary\" value=\"Submit\">\r\n\t\t\t\t  </form>\r\n\t\t\t\t</div>\r\n\t\t\t</div>\t\t\t\r\n\t\t  </div>\r\n\t\t</div>\r\n\t\t</details>\r\n\t  </div>\r\n\t  <div class=\"wb-share col-sm-4 col-md-3 col-sm-offset-2 col-md-offset-4 col-lg-offset-5\" data-wb-share='{\"lnkClass\": \"btn btn-default btn-block\"}'></div>\r\n\t</div>\r\n\t<dl id=\"wb-dtmd\">\r\n\t  <dt>Date modified: </dt>\r\n\t  <dd><time property=\"dateModified\">2020-07-10</time></dd></dl></div>",
        "fr": "\r\n    \r\n    <!-- MainContentStart -->\r\n    <!-- D&eacute;but du contenu -->\r\n    <noscript>\n<div class=\"row profile\">\n<div class=\"col-md-6\">\n\n<p>Divulgation proactive de l\u2019 Agriculture et Agroalimentaire Canada (AAC), qui est rendue publique afin que la population canadienne et le Parlement soient mieux en mesure de demander des comptes au gouvernement et aux repr\u00e9sentants du secteur public.</p> \n</div>\n\n<div class=\"col-md-6 mrgn-tp-sm hidden-sm hidden-xs\">\n<img src=\"https://www.agr.gc.ca/resources/prod/img/topic_transparency.jpg\" class=\"img-responsive\" alt=\"\"><br>\n</div></div></noscript>\n\n<script src=\"https://ajax.googleapis.com/ajax/libs/jquery/2.2.4/jquery.js\"></script>\n<script>\n$( document ).ready( function() {\nvar h1 = document.getElementsByTagName(\"h1\")[0];\nh1.parentNode.removeChild(h1);\ndocument.getElementsByTagName(\"main\")[0].innerHTML = \n'<div class=\"row profile\"><div class=\"col-md-6\"><h1>Transparence : Agriculture et Agroalimentaire Canada<p>Divulgation proactive de l&rsquo; Agriculture et Agroalimentaire Canada (AAC), qui est rendue publique afin que la population canadienne et le Parlement soient mieux en mesure de demander des comptes au gouvernement et aux repr&eacute;sentants du secteur public.  <div class=\"col-md-6 mrgn-tp-sm hidden-sm hidden-xs\"> <figure> <img src=\"https://www.agr.gc.ca/resources/prod/img/topic_transparency.jpg\" class=\"pull-right img-responsive thumbnail\" alt=\"\"/><br/>  '\n+ document.getElementsByTagName(\"main\")[0].innerHTML;\n})\n</script>\n\n\n<div class=\"clearfix\"></div>\n \n\n \n\n \n <div class=\"row wb-eqht mrgn-bttm-md\"> \n  <div class=\"col-md-4\"> \n   <section class=\"gc-drmt\"> \n    <h2 class=\"h4\"><a href=\"https://pm.gc.ca/fr/lettres-de-mandat/lettre-de-mandat-de-la-ministre-de-lagriculture-et-de-lagroalimentaire\">Lettre de mandat re\u00e7ue du premier ministre</a></h2> \n    <p>Engagements et priorit\u00e9s du gouvernement</p> \n   </section> \n  </div> \n  <div class=\"col-md-4\"> \n   <section class=\"gc-drmt\"> \n    <h2 class=\"h4\"><a href=\"?id=1174061891718\">Plan minist\u00e9riel</a></h2> \n    <p>Objectifs de rendement pour l\u2019avenir</p> \n   </section> \n  </div> \n  <div class=\"col-md-4\"> \n   <section class=\"gc-drmt\"> \n    <h2 class=\"h4\"><a href=\"?id=1219248798716\">Rapport sur les r\u00e9sultats minist\u00e9riels</a></h2> \n    <p>Cibles de rendement atteintes par le Minist\u00e8re au cours de la derni\u00e8re ann\u00e9e</p> \n   </section> \n  </div> \n  <div class=\"clearfix\"></div> \n  <div class=\"col-md-4\"> \n   <section class=\"gc-drmt\"> \n    <h2 class=\"h4\">Frais de voyage et d'accueil</h2> \n    <p>D\u00e9penses li\u00e9es aux voyages, \u00e0 l\u2019accueil et aux conf\u00e9rences</p> \n    <ul>\n    \t<li><a href=\"https://ouvert.canada.ca/fr/search/travelq?f%5B0%5D=travelq_organization_en%3AAgriculture%20and%20Agri-Food%20Canada\">Frais de voyage</a></li>\n        <li><a href=\"https://ouvert.canada.ca/fr/search/hospitalityq?f%5B0%5D=hospitalityq_organization_en%3AAgriculture%20and%20Agri-Food%20Canada\">Frais d\u2019accueil</a></li>\n     </ul>\n   </section> \n  </div> \n  <div class=\"col-md-4\"> \n   <section class=\"gc-drmt\"> \n    <h2 class=\"h4\"><a href=\"https://ouvert.canada.ca/fr/search/contrats?f%5B0%5D=contracts_organization_en%3AAgriculture%20and%20Agri-Food%20Canada\">Contrats gouvernementaux octroy\u00e9s</a></h2> \n    <p>Contrats minist\u00e9riels sup\u00e9rieurs \u00e0 10\u00a0000\u00a0$</p> \n   </section> \n  </div> \n  <div class=\"col-md-4\"> \n   <section class=\"gc-drmt\"> \n    <h2 class=\"h4\"><a href=\"https://rechercher.ouvert.canada.ca/fr/gc/?sort=score%20desc&amp;page=1&amp;search_text=&amp;gc-search-orgs=Agriculture%20et%20Agroalimentaire%20Canada\">Subventions et contributions</a></h2> \n    <p>Transferts d\u2019argent, de biens, de services ou d\u2019actifs \u00e0 des personnes, des organisations ou d\u2019autres ordres de gouvernement</p> \n   </section> \n  </div> \n  <div class=\"clearfix\"></div> \n  <div class=\"col-md-4\"> \n   <section class=\"gc-drmt\"> \n    <h2 class=\"h4\">Divulgation d'actes r\u00e9pr\u00e9hensibles graves en milieu de travail</h2> \n    <p>Actuellement, il n\u2019y a aucune divulgation d'information concernant les constatations d'actes r\u00e9pr\u00e9hensibles en milieu de travail concernant AAC</p>\n   </section> \n  </div> \n  <div class=\"col-md-4\"> \n   <section class=\"gc-drmt\"> \n    <h2 class=\"h4\"><a href=\"https://ouvert.canada.ca/fr/search/reclassification?f%5B0%5D=reclassification_organization_en%3AAgriculture%20and%20Agri-Food%20Canada\">Reclassification des postes de la fonction publique</a></h2> \n    <p>Postes du gouvernement qui ont \u00e9t\u00e9 reclassifi\u00e9s</p> \n   </section> \n  </div> \n  <div class=\"col-md-4\"> \n   <section class=\"gc-drmt\"> \n    <h2 class=\"h4\"><a href=\"?id=1281467902385\">Rapports financiers trimestriels</a></h2> \n    <p>D\u00e9penses trimestrielles du Minist\u00e8re</p> \n   </section> \n  </div> \n  <div class=\"clearfix\"></div> \n  <div class=\"col-md-4\"> \n   <section class=\"gc-drmt\"> \n    <h2 class=\"h4\"><a href=\"?id=1568145041715\">Audits et \u00e9valuations</a></h2> \n    <p>Rapports annuels sur les audits et \u00e9valuations des programmes et services au AAC</p> \n   </section> \n  </div> \n  <div class=\"col-md-4\"> \n   <section class=\"gc-drmt\"> \n    <h2 class=\"h4\"><a href=\"?id=1362063362371\">Recherche en opinion publique et consultations</a></h2> \n    <p>R\u00e9unions et recherche sur l'opinion publique comportant de la r\u00e9troaction de la part des Canadiens</p>\n   </section> \n  </div> \n  <div class=\"col-md-4\"> \n   <section class=\"gc-drmt\"> \n\n    <h2 class=\"h4\"><a href=\"?id=1594225885970\">Documents de breffage</a></h2> \n<p>Cahier de transition du ministre, notes d\u2019information, notes pour la p\u00e9riode des questions.</p>\n \n   </section> \n  </div> \n  <div class=\"clearfix\"></div> \n  <div class=\"col-md-4\"> \n   <section class=\"gc-drmt\"> \n    <h2 class=\"h4\"><a href=\"?id=1248458556074\">\u00c9valuations des facteurs relatifs \u00e0 la vie priv\u00e9e du Secr\u00e9tariat du Conseil du Tr\u00e9sor</a></h2> \n    <p>R\u00e9sum\u00e9 des \u00e9valuations des facteurs relatifs \u00e0 la vie priv\u00e9e du Minist\u00e8re</p> \n   </section> \n  </div> \n  <div class=\"col-md-4\"> \n   <section class=\"gc-drmt\"> \n    <h2 class=\"h4\"><a href=\"?id=1347308413430\">Programmes et les fonds de renseignements (Info Source)</a></h2> \n    <p>Information au sujet des fonctions, des programmes, des activit\u00e9s et des fonds de renseignements connexes des institutions gouvernementales assujetties \u00e0 la Loi sur l'acc\u00e8s \u00e0 l'information et la Loi sur la protection des renseignements personnels</p> \n   </section> \n  </div> \n  \n  <div class=\"col-md-4\"> \n   <section class=\"gc-drmt\"> \n    <h2 class=\"h4\"><a href=\"?id=1180114490359\">Services d\u2019acc\u00e8s \u00e0 l\u2019information et de protection des renseignements personnels</a></h2> \n    <p>Ce bureau fournit de l'information sur la <cite>Loi sur l'acc\u00e8s \u00e0 l'information</cite> et la <cite>Loi sur la protection des renseignements personnels</cite> ainsi que sur la fa\u00e7on de demander de l'information d\u00e9tenue par Agriculture et Agroalimentaire Canada</p> \n   </section> \n  </div>   \n  \n  \n  <div class=\"clearfix\"></div> \n  <div class=\"col-md-4\"> \n   <section class=\"gc-drmt\"> \n    <h2 class=\"h4\"><a href=\"?id=1180107359564\">Lois et r\u00e8glements</a></h2> \n    <p>Lois li\u00e9es au domaine de l'agriculture et de l'alimentation au Canada</p> \n   </section> \n  </div>   \n \n </div> \n \n <div class=\"gc-stp-stp\"> \n  <div class=\"row mrgn-bttm-lg\"> \n   <div class=\"col-md-12\"> \n    <section class=\"mrgn-bttm-lg\"> \n     <h2>Vous n\u2019avez pas trouv\u00e9 ce que vous cherchiez</h2> \n     <p>Pr\u00e9sentez une demande d\u2019acc\u00e8s \u00e0 l\u2019information ou \u00e0 des renseignements personnels (demande d\u2019AIPRP)</p> \n     <ul class=\"list-unstyled\"> \n      <li class=\"pull-left mrgn-rght-lg\"><a class=\"btn btn-primary\" href=\"https://atip-aiprp.tbs-sct.gc.ca/fr\">Soumettre une demande d\u2019acc\u00e8s \u00e0 l\u2019information</a></li> \n     </ul> \n    </section> \n   </div> \n  </div> \n </div> \n\n \n <div class=\"row\"> \n  <div class=\"col-md-12\"> \n    \n    <h2 class=\"h3 mrgn-tp-0\">Consultez aussi :</h2> \n    <ul>\n      <li><a href=\"?id=1174052616719\">Cadre de responsabilisation de gestion</a></li>\n      <li><a href=\"?id=1208366237788\">Projets de Recherche</a></li>\n      <li><a href=\"?id=1545416557049\">Politique sur l'int\u00e9grit\u00e9 scientifique d'Agriculture et Agroalimentaire Canada</a></li>\n      <li><a href=\"http://ouvert.canada.ca/\">Projet sur les donn\u00e9es ouvertes</a> du gouvernement du Canada</li>\n    </ul>\n  </div> \n </div> \n\r\n    <!-- Fin du contenu -->\r\n\t\r\n\t<div class=\"pagedetails\" id=\"pgft\">\r\n\t\t<div class=\"row\">\r\n\t\t  <div class=\"col-sm-6 col-md-5 col-lg-4\">\r\n\t\t    <details class=\"brdr-0\">\r\n\t\t\t<summary class=\"btn btn-default text-center\" onclick=\"getAntiSpamSeq('/fra/mail-handler/?anti-spam-sequence=true')\">Signaler un probl\u00e8me sur cette page</summary>\r\n\t\t\t<div class=\"well row\">\r\n\t\t\t  <div class=\"gc-rprt-prblm\">\r\n\t\t\t    <div class=\"gc-rprt-prblm-frm gc-rprt-prblm-tggl\">\r\n\t\t\t\t   <form id=\"report_a_problem_form\" action=\"/fra/mail-handler/\" method=\"post\">\r\n\t            \t <input type=\"hidden\" name=\"lang\" value=\"fra\">\r\n\t            \t <input type=\"hidden\" name=\"pageId\" value=\"1360881288492\">\r\n\t            \t <input type=\"hidden\" name=\"pageUrl\" value=\"http://agr.gc.ca/fra/a-propos-de-notre-ministere/transparence-agriculture-et-agroalimentaire-canada/?id=1360881288492\">\r\n\t\t\t\t\t <div id=\"report_a_problem_form_error\"></div>\r\n\t\t             <fieldset>\t\t\t\t\t    \r\n\t\t                <legend><span class=\"field-name\">Veuillez cocher toutes les r\u00e9ponses pertinentes\u00a0:</span></legend>\r\n\t\t                 <div class=\"checkbox\">\r\n\t\t                    <label for=\"problem1\"><input name=\"problem1\" id=\"problem1\" type=\"checkbox\" value=\"Yes\">Un lien, un bouton ou une vid\u00e9o ne fonctionne pas</label>\r\n\t\t                    <input name=\"problem1\" type=\"hidden\" value=\"No\">\r\n\t\t                </div>\r\n\t\t                <div class=\"checkbox\">\r\n\t\t                    <label for=\"problem2\"><input name=\"problem2\" id=\"problem2\" type=\"checkbox\" value=\"Yes\">Il y a une erreur d'orthographe ou de grammaire</label>\r\n\t\t                    <input name=\"problem2\" type=\"hidden\" value=\"No\">\r\n\t\t                </div>\r\n\t\t   \t\t\t\t <div class=\"checkbox\">\r\n\t\t                    <label for=\"problem3\"><input name=\"problem3\" id=\"problem3\" type=\"checkbox\" value=\"Yes\">Les renseignements sont incomplets</label>\r\n\t\t                    <input name=\"problem3\" type=\"hidden\" value=\"No\">\r\n\t\t                </div>\r\n\t\t             \t\t<div class=\"checkbox\">\r\n\t\t                    <label for=\"problem4\"><input name=\"problem4\" id=\"problem4\" type=\"checkbox\" value=\"Yes\">L'information n'est plus \u00e0 jour ou est erron\u00e9e</label>\r\n\t\t                    <input name=\"problem4\" type=\"hidden\" value=\"No\">\r\n\t\t                </div>\t\t\t\t\t\t\r\n\t\t\t\t\t\t<div class=\"checkbox\">\r\n\t\t\t\t\t\t\t<label for=\"problem5\"><input name=\"problem5\" id=\"problem5\" type=\"checkbox\" value=\"Yes\">Message d'erreur \u00e0 l'ouverture de la session lorsque je tente d'acc\u00e9der \u00e0 un compte (ex. Mon dossier Service Canada)</label>\r\n\t\t\t\t\t\t\t<input name=\"problem5\" type=\"hidden\" value=\"No\">\r\n\t\t\t\t\t\t</div>\r\n\t\t\t\t\t\t\t<ul>\r\n\t\t\t\t\t\t\t<li class=\"checkbox\">\r\n\t\t\t\t\t\t\t\t<label for=\"problem6a\"><input name=\"problem6\" id=\"problem6a\" type=\"checkbox\" value=\"Yes\">Acc\u00e8s Cl\u00e9GC</label>\r\n\t\t\t\t\t\t\t\t<input name=\"problem6\" type=\"hidden\" value=\"No\">\r\n\t\t\t\t\t\t\t </li>\r\n\t\t\t\t\t\t\t<li class=\"checkbox\">\r\n\t\t\t\t\t\t\t\t<label for=\"problem7\"><input name=\"problem7\" id=\"problem7\" type=\"checkbox\" value=\"Yes\">Acc\u00e8s SecureKey Service de Concierge (justificatifs d'identit\u00e9 bancaires)</label>\r\n\t\t\t\t\t\t\t\t<input name=\"problem7\" type=\"hidden\" value=\"No\">\r\n\t\t\t\t\t\t\t </li>\r\n\t\t\t\t\t\t\t<li class=\"checkbox\">\r\n\t\t\t\t\t\t\t\t<label for=\"problem8\"><input name=\"problem8\" id=\"problem8\" type=\"checkbox\" value=\"Yes\">Probl\u00e8me avec le Code d'acc\u00e8s personnel (CAP) ou avec le Code d'acc\u00e8s (CA) de l'assurance emploi</label>\r\n\t\t\t\t\t\t\t\t<input name=\"problem8\" type=\"hidden\" value=\"No\">\r\n\t\t\t\t\t\t\t </li>\t\r\n\t\t\t\t\t\t\t<li class=\"checkbox\">\r\n\t\t\t\t\t\t\t\t<label for=\"problem9\"><input name=\"problem9\" id=\"problem9\" type=\"checkbox\" value=\"Yes\">Probl\u00e8me li\u00e9 \u00e0 la validation du num\u00e9ro d'assurance sociale (NAS)</label>\r\n\t\t\t\t\t\t\t\t<input name=\"problem9\" type=\"hidden\" value=\"No\">\r\n\t\t\t\t\t\t\t </li>\t\t\t\t\t\t\t\t\r\n\t\t\t\t\t\t\t<li class=\"checkbox\">\r\n\t\t\t\t\t\t\t\t<label for=\"problem10\"><input name=\"problem10\" id=\"problem10\" type=\"checkbox\" value=\"Yes\">Autre erreur lors de l'ouverture de session qui ne figure pas sur cette liste</label>\r\n\t\t\t\t\t\t\t\t<input name=\"problem10\" type=\"hidden\" value=\"No\">\r\n\t\t\t\t\t\t\t </li>\t\t \r\n\t\t\t\t\t\t\t </ul>\r\n\t\t\t\t\t\t<div class=\"checkbox\">\r\n\t\t\t\t\t\t\t<label for=\"problem11\"><input name=\"problem11\" id=\"problem11\" type=\"checkbox\" value=\"Yes\">Je n'arrive pas \u00e0 trouver ce que je cherche</label>\r\n\t\t\t\t\t\t\t<input name=\"problem11\" type=\"hidden\" value=\"No\">\r\n\t\t\t\t\t\t</div>\r\n\t\t\t\t\t\t<div class=\"checkbox\">\r\n\t\t\t\t\t\t\t<label for=\"problem12\"><input name=\"problem12\" id=\"problem12\" type=\"checkbox\" value=\"Yes\">Autre probl\u00e8me qui ne figure pas sur cette liste</label>\r\n\t\t\t\t\t\t\t<input name=\"problem12\" type=\"hidden\" value=\"No\">\r\n\t\t\t\t\t\t</div>\t\t\t\t\t\t\t\t\t\t\t\t\t\t\t\t\t\t\t\r\n\t\t             </fieldset>\r\n\t\t\t\t\t <div>\r\n\t\t\t\t        <label for=\"aafc_ranstr\"><span id=\"fbch\">Veuillez inscrire les caract\u00e8res suivants  <strong class=\"required\">(obligatoire)</strong>\u00a0: </span><span id=\"ranstr\">XXX</span></label>\r\n\t\t\t            <input name=\"anti-spam-sequence\" id=\"aafc_ranstr\" size=\"4\" maxlength=\"3\" type=\"text\">\r\n\t\t\t\t\t </div>\r\n\t\t\t\t\t <input type=\"submit\" class=\"btn btn-primary\" value=\"Soumettre\">\r\n\t\t\t\t  </form>\r\n\t\t\t\t</div>\r\n\t\t\t  </div>\r\n\t\t\t</div>\r\n\t\t</details>\r\n\t    </div>\r\n\t  <div class=\"wb-share col-sm-4 col-md-3 col-sm-offset-2 col-md-offset-4 col-lg-offset-5\" data-wb-share='{\"lnkClass\": \"btn btn-default btn-block\"}'></div>\r\n\t  </div>\r\n\t  <dl id=\"wb-dtmd\">\r\n\t    <dt>Date de modification\u00a0: </dt>\r\n\t      <dd><time property=\"dateModified\">2020-07-10</time></dd>\r\n\t  </dl>\r\n\t</div>\r\n\t\r\n  "
    }
}