{
    "dcr_id": "1333637676318",
    "title": {
        "en": "Canadian Agricultural Loans Act program: For lenders",
        "fr": "Programme de la Loi canadienne sur les pr\u00eats agricoles : Pour les pr\u00eateurs"
    },
    "modified": "2020-01-14",
    "issued": "2020-01-14",
    "templatetype": "content page 1 column",
    "page_type": "1",
    "node_id": "1572022494126",
    "dc_date_created": "2020-01-14",
    "managing_branch": "PAB",
    "parent_node_id": "1571855000721",
    "label": {
        "en": "Canadian Agricultural Loans Act program: For lenders",
        "fr": "Programme de la Loi canadienne sur les pr\u00eats agricoles : Pour les pr\u00eateurs"
    },
    "exturl": "",
    "teamsite_location": {
        "en": "/default/main/AAFC-AAC/Internet-Internet/Group-Ensemble/ProgServ-ProgServ/WORKAREA/ProgServ-ProgServ/templatedata/comm-comm/gene-gene/data/10/cala_step4_for_lenders_1333637676318_en",
        "fr": "/default/main/AAFC-AAC/Internet-Internet/Group-Ensemble/ProgServ-ProgServ/WORKAREA/ProgServ-ProgServ/templatedata/comm-comm/gene-gene/data/10/cala_step4_for_lenders_1333637676318_fr"
    },
    "type_name": "sitemapinit",
    "has_dcr_id": true,
    "breadcrumb": {
        "en": "Canadian Agricultural Loans Act program: For lenders",
        "fr": "Programme de la Loi canadienne sur les pr\u00eats agricoles : Pour les pr\u00eateurs"
    },
    "layout_name": "content page 1 column",
    "lang": "en",
    "meta": {
        "issued": {
            "en": "2020-01-14",
            "fr": "2020-01-14"
        },
        "modified": {
            "en": "2020-01-14",
            "fr": "2020-01-14"
        },
        "format": {
            "en": "text/html",
            "fr": "text/html"
        },
        "title": {
            "en": "Canadian Agricultural Loans Act program: For lenders",
            "fr": "Programme de la Loi canadienne sur les pr\u00eats agricoles : Pour les pr\u00eateurs"
        },
        "subject": {
            "en": "horticulture;sustainable development;government information",
            "fr": "entreprise;engrais;m\u00e9dicament"
        },
        "description": {
            "en": "CALA Canadian Agricultural Loans Act program online_loan_registration_application Loan Registration Process for Lenders. Please follow the set up instructions. This is a one-time process.If you are not an existing user of the CALA Online Loan Registration Application, contact the User Administrator within your financial institution.If you are not aware of who your User Administrator is, please email us at. To register loans by mail, please use the following registration form:Loan Registration and Fee Submission (Schedule 1). You may also need to submit the following forms in the event of changes to the loan:Request for Revision of Loan Terms (Schedule 2). Report on Defaulted Loan (Schedule 3). Report of Claim for Loss (Schedule 4).",
            "fr": "CALA Programme de la Loi canadienne sur les pr\u00eats agricoles Processus d\u2019enregistrement des pr\u00eats pour les pr\u00eateurs. Ce processus n\u2019a besoin d\u2019\u00eatre effectu\u00e9 qu'une seule fois.Si vous n\u2019\u00eates pas un utilisateur existant de l\u2019application Demande d'enregistrement en ligne de pr\u00eat LCPA, contactez l\u2019administrateur des utilisateurs au sein de votre institution financi\u00e8re.Si vous ne savez pas qui est votre administrateur des utilisateurs, veuillez nous envoyer un courriel au. du programme de la LCPA.Enregistrement de pr\u00eats par la poste."
        },
        "language": {
            "en": "eng",
            "fr": "fra"
        },
        "keywords": {
            "en": "institution.If;GCKey.If;as",
            "fr": "dexamen des modalit\u00e9s de pr\u00eat;denregistrement de pr\u00eat et acquittement;denregistrement des pr\u00eats pour les pr\u00eateurs"
        },
        "audience": {
            "en": "gcaudience",
            "fr": "gcaudience"
        },
        "type": {
            "en": "fact sheet",
            "fr": "foire aux questions"
        },
        "creator": {
            "en": "Agriculture and Agri-Food Canada;Government of Canada",
            "fr": "Agriculture et Agroalimentaire Canada;Gouvernement du Canada"
        },
        "spatial": {
            "en": "gcregions",
            "fr": "gcregions"
        },
        "service": {
            "en": "AAFC-AAC",
            "fr": "AAFC-AAC"
        },
        "accessRights": {
            "en": "2",
            "fr": "2"
        },
        "legalName": {
            "en": "agriculture_and_agri_food_canada",
            "fr": "agriculture_et_agroalimentaire_canada"
        },
        "areaServed": {
            "en": "Canada",
            "fr": "Canada"
        }
    },
    "body": {
        "en": "tart --&gt;\r\n    <!-- D&eacute;but du contenu -->\r\n    <div class=\"mrgn-tp-md mrgn-bttm-lg brdr-bttm\">\n\n<div class=\"row\">\n<ul class=\"toc lst-spcd col-md-12 list-unstyled\">\n<li class=\"col-md-4 col-sm-6\"><span class=\"list-group-item\">Step 1.  <a href=\"?id=1288035482429\">What this program offers</a></span></li>\n\n<li class=\"col-md-4 col-sm-6\"><span class=\"list-group-item\"><a href=\"?id=1572989468581\">Step 2.  Who is eligible</a></span></li>\n\n<li class=\"col-md-4 col-sm-6 clr-lft-sm\"><span class=\"list-group-item\">Step 3. <a href=\"?id=1288287038233\">How to apply</a></span></li>\n\n<li class=\"col-md-4 col-sm-6\"><span class=\"list-group-item active\">For lenders</span></li>\n\n<li class=\"col-md-4 col-sm-6\"><span class=\"list-group-item\"><a href=\"?id=1288375291000\">Frequently asked questions</a></span></li>\n\n<li class=\"col-md-4 col-sm-6\"><span class=\"list-group-item\"><a href=\"?id=1571175919535\">Contact information</a></span></li>\n</ul>\n</div>\n</div>\n\n<h2>For lenders</h2>\n\n<h3>Loan registration process</h3>\n\n<p>There is a new sign-in method using  GCKey.</p>\n\n<p>If you are an existing user of the  CALA Online Loan Registration Application, sign in using your current username  and password. You will be redirected to the new page for the CALA Application.  Please follow the set up instructions. This is a one-time process.</p>\n\n<p>If you are not an existing user of  the CALA Online Loan Registration Application, contact the User Administrator  within your financial institution.</p>\n\n<p>If you are not aware of who your User  Administrator is, please email us at <a href=\"mailto:aafc.fgp-pgf.aac@canada.ca\">aafc.fgp-pgf.aac@canada.ca</a></p>\n\n<p>Sign in to the CALA <a href=\"https://www1.ic.gc.ca/idm/scr/ic/idm/login.html?AURL=https://www1.ic.gc.ca/idp/Authn/UserPassword\">Online Loan Registration System</a></p>\n\n<h3>Register loans by mail</h3>\n\n<p>To register loans by mail, please use  the following registration form:</p>\n\n<p><a href=\"?id=1369947566999\">Loan Registration and Fee Submission (Schedule 1)</a></p>\n\n<p>You may also need to submit the  following forms in the event of changes to the loan:</p>\n<ul class=\"list-unstyled\">\n<li><a href=\"?id=1370024137062\">Request for Revision of Loan Terms (Schedule 2)</a></li>\n<li><a href=\"?id=1370026010754\">Report on Defaulted Loan (Schedule 3)</a></li>\n\n<li><a href=\"?id=1370034437351\">Report of Claim for Loss (Schedule 4)</a></li>\n</ul>\n\n<p>Please refer to the <a href=\"?id=1369846155609\">Lenders\u2019  Guidelines</a> for \nrequirements in administering <cite>Canadian Agricultural  Loans Act</cite> (CALA) loans. </p>\n\n\n<nav>\n<h2 class=\"wb-inv\">Previous-next document navigation - bottom</h2>\n<div class=\"row\">\n<div class=\"col-md-12 mrgn-lft-0 mrgn-rght-0\">\n<ul class=\"pager\">\n<li class=\"previous\"><a href=\"?id=1288287038233\" rel=\"prev\" title=\"How to Apply\">Previous</a></li>\n<li class=\"next\"><a href=\"?id=1288375291000\" rel=\"next\" title=\"Frequently Asked Questions\">Next</a></li>\n</ul>\n</div>\n</div>\n</nav>\n\n\n\n\n\r\n    <!-- Fin du contenu -->\r\n  \r\n  <div class=\"pagedetails\" id=\"pgft\">\r\n    <div class=\"row\">\r\n\t  <div class=\"col-sm-6 col-md-5 col-lg-4\">\r\n\t    <details class=\"brdr-0\">\r\n\t\t<summary class=\"btn btn-default text-center\" onclick=\"getAntiSpamSeq('/eng/mail-handler/?anti-spam-sequence=true')\">Report a problem on this page</summary>\r\n\t\t<div class=\"clearfix\"></div>\r\n\t\t<div class=\"well row\">\r\n\t\t<div>\r\n\t\t  <div class=\"gc-rprt-prblm\">\r\n\t\t    <div class=\"gc-rprt-prblm-frm gc-rprt-prblm-tggl\">\r\n\t\t\t  \r\n\t\t\t<form id=\"report_a_problem_form\" action=\"/eng/mail-handler/#report_a_problem_form\" method=\"post\">\t\t\t\t   \t\t\t\r\n\r\n\t            \t <input type=\"hidden\" name=\"lang\" value=\"eng\">\r\n\t            \t <input type=\"hidden\" name=\"pageId\" value=\"1333637676318\">\r\n\t            \t <input type=\"hidden\" name=\"pageUrl\" value=\"http://www.agr.gc.ca/eng/agricultural-programs-and-services/canadian-agricultural-loans-act-program/for-lenders/?id=1333637676318\">\r\n\t\t\t\t\t <div id=\"report_a_problem_form_error\"></div>\r\n\t\t             <fieldset>\t\t\t\t\t    \r\n\t\t                <legend><span class=\"field-name\">Please select all that apply:</span></legend>\t\t                                 \r\n\t\t\t\t\t\t<div class=\"checkbox\">\r\n\t\t\t\t\t\t\t<label for=\"problem1\"><input name=\"problem1\" id=\"problem1\" type=\"checkbox\" value=\"Yes\">A link, button or video is not working</label>\r\n\t\t\t\t\t\t\t<input name=\"problem1\" type=\"hidden\" value=\"No\">\r\n\t\t\t\t\t\t</div>\r\n\t\t\t\t\t\t<div class=\"checkbox\">\r\n\t\t\t\t\t\t\t<label for=\"problem2\"><input name=\"problem2\" id=\"problem2\" type=\"checkbox\" value=\"Yes\">It has a spelling mistake</label>\r\n\t\t\t\t\t\t\t<input name=\"problem2\" type=\"hidden\" value=\"No\">\r\n\t\t\t\t\t\t</div>\r\n\t\t\t\t\t\t<div class=\"checkbox\">\r\n\t\t\t\t\t\t\t<label for=\"problem3\"><input name=\"problem3\" id=\"problem3\" type=\"checkbox\" value=\"Yes\">Information is missing</label>\r\n\t\t\t\t\t\t\t<input name=\"problem3\" type=\"hidden\" value=\"No\">\r\n\t\t\t\t\t   </div>\r\n\t\t\t\t\t\t<div class=\"checkbox\">\r\n\t\t\t\t\t\t\t<label for=\"problem4\"><input name=\"problem4\" id=\"problem4\" type=\"checkbox\" value=\"Yes\">Information is outdated or wrong</label>\r\n\t\t\t\t\t\t\t<input name=\"problem4\" type=\"hidden\" value=\"No\">\r\n\t\t\t\t\t\t</div>\r\n\t\t\t\t\t\t<div class=\"checkbox\">\r\n\t\t\t\t\t\t\t<label for=\"problem5\"><input name=\"problem5\" id=\"problem5\" type=\"checkbox\" value=\"Yes\">Login error when trying to access an account (e.g. My Service Canada Account)</label>\r\n\t\t\t\t\t\t\t<input name=\"problem5\" type=\"hidden\" value=\"No\">\r\n\t\t\t\t\t\t</div>\r\n\t\t\t\t\t\t\t<ul>\r\n\t\t\t\t\t\t\t<li class=\"checkbox\">\r\n\t\t\t\t\t\t\t\t<label for=\"problem6a\"><input name=\"problem6\" id=\"problem6a\" type=\"checkbox\" value=\"Yes\">GC Key access</label>\r\n\t\t\t\t\t\t\t\t<input name=\"problem6\" type=\"hidden\" value=\"No\">\r\n\t\t\t\t\t\t\t </li>\r\n\t\t\t\t\t\t\t<li class=\"checkbox\">\r\n\t\t\t\t\t\t\t\t<label for=\"problem7\"><input name=\"problem7\" id=\"problem7\" type=\"checkbox\" value=\"Yes\">SecureKey Concierge (Banking Credential) access </label>\r\n\t\t\t\t\t\t\t\t<input name=\"problem7\" type=\"hidden\" value=\"No\">\r\n\t\t\t\t\t\t\t </li>\r\n\t\t\t\t\t\t\t<li class=\"checkbox\">\r\n\t\t\t\t\t\t\t\t<label for=\"problem8\"><input name=\"problem8\" id=\"problem8\" type=\"checkbox\" value=\"Yes\">Personal Access Code (PAC) problems or EI Access Code (AC) problems</label>\r\n\t\t\t\t\t\t\t\t<input name=\"problem8\" type=\"hidden\" value=\"No\">\r\n\t\t\t\t\t\t\t </li>\t\r\n\t\t\t\t\t\t\t<li class=\"checkbox\">\r\n\t\t\t\t\t\t\t\t<label for=\"problem9\"><input name=\"problem9\" id=\"problem9\" type=\"checkbox\" value=\"Yes\">Social Insurance Number (SIN) validation problems</label>\r\n\t\t\t\t\t\t\t\t<input name=\"problem9\" type=\"hidden\" value=\"No\">\r\n\t\t\t\t\t\t\t </li>\t\t\t\t\t\t\t\t\r\n\t\t\t\t\t\t\t<li class=\"checkbox\">\r\n\t\t\t\t\t\t\t\t<label for=\"problem10\"><input name=\"problem10\" id=\"problem10\" type=\"checkbox\" value=\"Yes\">Other login error not in this list</label>\r\n\t\t\t\t\t\t\t\t<input name=\"problem10\" type=\"hidden\" value=\"No\">\r\n\t\t\t\t\t\t\t </li>\t\t \r\n\t\t\t\t\t\t\t </ul>\r\n\t\t\t\t\t\t<div class=\"checkbox\">\r\n\t\t\t\t\t\t\t<label for=\"problem11\"><input name=\"problem11\" id=\"problem11\" type=\"checkbox\" value=\"Yes\">I can't find what I'm looking for</label>\r\n\t\t\t\t\t\t\t<input name=\"problem11\" type=\"hidden\" value=\"No\">\r\n\t\t\t\t\t\t</div>\r\n\t\t\t\t\t\t<div class=\"checkbox\">\r\n\t\t\t\t\t\t\t<label for=\"problem12\"><input name=\"problem12\" id=\"problem12\" type=\"checkbox\" value=\"Yes\">Other issue not in this list</label>\r\n\t\t\t\t\t\t\t<input name=\"problem12\" type=\"hidden\" value=\"No\">\r\n\t\t\t\t\t\t</div>\t\t\t\t\t\t \t\t\t\t\t\t\t\t\t\t\t\t \r\n\t\t             </fieldset>\r\n\t\t\t\t\t <div>\r\n\t\t\t\t\t   <label for=\"aafc_ranstr\"><span id=\"fbch\"><br>Enter these characters <strong class=\"required\">(required)</strong>: </span><span id=\"ranstr\">U5S</span></label>\r\n\t\t\t           <input name=\"anti-spam-sequence\" id=\"aafc_ranstr\" size=\"4\" maxlength=\"3\" type=\"text\">\r\n\t\t\t\t\t </div>\t\r\n\r\n\t\t\t\t\t <br><input type=\"submit\" class=\"btn btn-primary\" value=\"Submit\">\r\n\t\t\t\t  </form>\r\n\t\t\t\t</div>\r\n\t\t\t</div>\t\t\t\r\n\t\t  </div>\r\n\t\t</div>\r\n\t\t</details>\r\n\t  </div>\r\n\t  <div class=\"wb-share col-sm-4 col-md-3 col-sm-offset-2 col-md-offset-4 col-lg-offset-5\" data-wb-share='{\"lnkClass\": \"btn btn-default btn-block\"}'></div>\r\n\t</div>\r\n\t<dl id=\"wb-dtmd\">\r\n\t  <dt>Date modified: </dt>\r\n\t  <dd><time property=\"dateModified\">2020-01-14</time></dd></dl></div>",
        "fr": "\r\n    \r\n    <!-- MainContentStart -->\r\n    <!-- D&eacute;but du contenu -->\r\n     \n\n<div class=\"mrgn-tp-md mrgn-bttm-lg brdr-bttm\">\n\n<div class=\"row\">\n<ul class=\"toc lst-spcd col-md-12 list-unstyled\">\n<li class=\"col-md-4 col-sm-6\"><span class=\"list-group-item\">\u00c9tape 1.  <a href=\"?id=1288035482429\">Ce qu\u2019offre ce programme</a></span></li>\n\n<li class=\"col-md-4 col-sm-6\"><span class=\"list-group-item\">\u00c9tape 2. <a href=\"?id=1572989468581\">Qui est admissible</a></span></li>\n\n<li class=\"col-md-4 col-sm-6 clr-lft-sm\"><span class=\"list-group-item\">\u00c9tape 3.  <a href=\"?id=1288287038233\">Comment pr\u00e9senter une demande</a></span></li>\n\n<li class=\"col-md-4 col-sm-6\"><span class=\"list-group-item active\">Pour les pr\u00eateurs</span></li>\n\n<li class=\"col-md-4 col-sm-6\"><span class=\"list-group-item\"><a href=\"?id=1288375291000\">Foire aux questions</a></span></li>\n\n<li class=\"col-md-4 col-sm-6\"><span class=\"list-group-item\"><a href=\"?id=1571175919535\">Pour nous joindre</a></span></li>\n</ul>\n</div>\n</div>\n\n<h2>Pour les pr\u00eateurs</h2>\n\n<h3>Processus d\u2019enregistrement des pr\u00eats </h3>\n\n<p>Une nouvelle m\u00e9thode de connexion  avec la Cl\u00e9GC est en vigueur.</p>\n\n<p>Si vous \u00eates un utilisateur existant  de l\u2019application Demande d'enregistrement en ligne de pr\u00eat LCPA, connectez-vous  avec votre Nom d\u2019utilisateur et Mot de passe actuel. Vous serez redirig\u00e9 \u00e0 la  nouvelle page pour l\u2019application LCPA, s'il vous pla\u00eet suivez les instructions.  Ce processus n\u2019a besoin d\u2019\u00eatre effectu\u00e9 qu'une seule fois.</p>\n\n<p>Si vous n\u2019\u00eates pas un utilisateur  existant de l\u2019application Demande d'enregistrement en ligne de pr\u00eat LCPA, contactez l\u2019administrateur des utilisateurs au sein de votre institution financi\u00e8re.</p>\n\n<p>Si vous ne savez pas qui est votre  administrateur des utilisateurs, veuillez nous envoyer un courriel au <a href=\"mailto:aafc.fgp-pgf.aac@canada.ca\">aafc.fgp-pgf.aac@canada.ca</a></p>\n\n<p>Connectez-vous au <a href=\"https://www1.ic.gc.ca/idm/scr/ic/idm/login.html?AURL=https://www1.ic.gc.ca/idp/Authn/UserPassword\">Syst\u00e8me d\u2019enregistrement en ligne</a> du programme de la LCPA.</p>\n\n<h3>Enregistrement de pr\u00eats par la poste</h3>\n\n<p>Pour enregistrer des pr\u00eats par la  poste, veuillez utiliser le formulaire d\u2019enregistrement suivant\u00a0:</p>\n\n<p><a href=\"?id=1369947566999\">Demande d\u2019enregistrement de pr\u00eat et acquittement de  droits (Annexe 1)</a></p>\n\n<p>Vous pourriez devoir soumettre les formulaires suivants en cas de modification apport\u00e9e au pr\u00eat :</p>\n\n<ul class=\"list-unstyled\">\n<li><a href=\"?id=1370024137062\">Demande d\u2019examen des modalit\u00e9s de pr\u00eat (Annexe 2)</a></li>\n<li><a href=\"?id=1370026010754\">Rapport sur les d\u00e9fauts de paiement (Annexe 3)</a></li>\n<li><a href=\"?id=1370034437351\">Demande d\u2019indemnisation pour perte (Annexe 4)</a></li>\n</ul>\n\n<p>Veuillez vous reporter aux <a href=\"?id=1369846155609\">Lignes directrices  relatives aux pr\u00eateurs</a> pour conna\u00eetre les exigences li\u00e9es \u00e0 l\u2019administration  des pr\u00eats consentis conform\u00e9ment \u00e0 la <cite>Loi canadienne sur les pr\u00eats agricoles</cite> (LCPA). </p>\n\n\n<nav>\n<h2 class=\"wb-inv\">Navigation du document - pr\u00e9c\u00e9dente-suivante - bas</h2>\n<div class=\"row\">\n<div class=\"col-md-12 mrgn-lft-0 mrgn-rght-0\">\n<ul class=\"pager\">\n<li class=\"previous\"><a href=\"?id=1288287038233\" rel=\"prev\" title=\"Comment pr\u00e9senter une demande\">Pr\u00e9c\u00e9dente</a></li>\n<li class=\"next\"><a href=\"?id=1288375291000\" rel=\"next\" title=\"Foire aux questionsPour les pr\u00eateurs\">Suivante</a></li>\n</ul>\n</div>\n</div>\n</nav>\n\n\r\n    <!-- Fin du contenu -->\r\n\t\r\n\t<div class=\"pagedetails\" id=\"pgft\">\r\n\t\t<div class=\"row\">\r\n\t\t  <div class=\"col-sm-6 col-md-5 col-lg-4\">\r\n\t\t    <details class=\"brdr-0\">\r\n\t\t\t<summary class=\"btn btn-default text-center\" onclick=\"getAntiSpamSeq('/fra/mail-handler/?anti-spam-sequence=true')\">Signaler un probl\u00e8me sur cette page</summary>\r\n\t\t\t<div class=\"well row\">\r\n\t\t\t  <div class=\"gc-rprt-prblm\">\r\n\t\t\t    <div class=\"gc-rprt-prblm-frm gc-rprt-prblm-tggl\">\r\n\t\t\t\t   <form id=\"report_a_problem_form\" action=\"/fra/mail-handler/\" method=\"post\">\r\n\t            \t <input type=\"hidden\" name=\"lang\" value=\"fra\">\r\n\t            \t <input type=\"hidden\" name=\"pageId\" value=\"1333637676318\">\r\n\t            \t <input type=\"hidden\" name=\"pageUrl\" value=\"http://agr.gc.ca/fra/programmes-et-services-agricoles/programme-de-la-loi-canadienne-sur-les-prets-agricoles/pour-les-preteurs/?id=1333637676318\">\r\n\t\t\t\t\t <div id=\"report_a_problem_form_error\"></div>\r\n\t\t             <fieldset>\t\t\t\t\t    \r\n\t\t                <legend><span class=\"field-name\">Veuillez cocher toutes les r\u00e9ponses pertinentes\u00a0:</span></legend>\r\n\t\t                 <div class=\"checkbox\">\r\n\t\t                    <label for=\"problem1\"><input name=\"problem1\" id=\"problem1\" type=\"checkbox\" value=\"Yes\">Un lien, un bouton ou une vid\u00e9o ne fonctionne pas</label>\r\n\t\t                    <input name=\"problem1\" type=\"hidden\" value=\"No\">\r\n\t\t                </div>\r\n\t\t                <div class=\"checkbox\">\r\n\t\t                    <label for=\"problem2\"><input name=\"problem2\" id=\"problem2\" type=\"checkbox\" value=\"Yes\">Il y a une erreur d'orthographe ou de grammaire</label>\r\n\t\t                    <input name=\"problem2\" type=\"hidden\" value=\"No\">\r\n\t\t                </div>\r\n\t\t   \t\t\t\t <div class=\"checkbox\">\r\n\t\t                    <label for=\"problem3\"><input name=\"problem3\" id=\"problem3\" type=\"checkbox\" value=\"Yes\">Les renseignements sont incomplets</label>\r\n\t\t                    <input name=\"problem3\" type=\"hidden\" value=\"No\">\r\n\t\t                </div>\r\n\t\t             \t\t<div class=\"checkbox\">\r\n\t\t                    <label for=\"problem4\"><input name=\"problem4\" id=\"problem4\" type=\"checkbox\" value=\"Yes\">L'information n'est plus \u00e0 jour ou est erron\u00e9e</label>\r\n\t\t                    <input name=\"problem4\" type=\"hidden\" value=\"No\">\r\n\t\t                </div>\t\t\t\t\t\t\r\n\t\t\t\t\t\t<div class=\"checkbox\">\r\n\t\t\t\t\t\t\t<label for=\"problem5\"><input name=\"problem5\" id=\"problem5\" type=\"checkbox\" value=\"Yes\">Message d'erreur \u00e0 l'ouverture de la session lorsque je tente d'acc\u00e9der \u00e0 un compte (ex. Mon dossier Service Canada)</label>\r\n\t\t\t\t\t\t\t<input name=\"problem5\" type=\"hidden\" value=\"No\">\r\n\t\t\t\t\t\t</div>\r\n\t\t\t\t\t\t\t<ul>\r\n\t\t\t\t\t\t\t<li class=\"checkbox\">\r\n\t\t\t\t\t\t\t\t<label for=\"problem6a\"><input name=\"problem6\" id=\"problem6a\" type=\"checkbox\" value=\"Yes\">Acc\u00e8s Cl\u00e9GC</label>\r\n\t\t\t\t\t\t\t\t<input name=\"problem6\" type=\"hidden\" value=\"No\">\r\n\t\t\t\t\t\t\t </li>\r\n\t\t\t\t\t\t\t<li class=\"checkbox\">\r\n\t\t\t\t\t\t\t\t<label for=\"problem7\"><input name=\"problem7\" id=\"problem7\" type=\"checkbox\" value=\"Yes\">Acc\u00e8s SecureKey Service de Concierge (justificatifs d'identit\u00e9 bancaires)</label>\r\n\t\t\t\t\t\t\t\t<input name=\"problem7\" type=\"hidden\" value=\"No\">\r\n\t\t\t\t\t\t\t </li>\r\n\t\t\t\t\t\t\t<li class=\"checkbox\">\r\n\t\t\t\t\t\t\t\t<label for=\"problem8\"><input name=\"problem8\" id=\"problem8\" type=\"checkbox\" value=\"Yes\">Probl\u00e8me avec le Code d'acc\u00e8s personnel (CAP) ou avec le Code d'acc\u00e8s (CA) de l'assurance emploi</label>\r\n\t\t\t\t\t\t\t\t<input name=\"problem8\" type=\"hidden\" value=\"No\">\r\n\t\t\t\t\t\t\t </li>\t\r\n\t\t\t\t\t\t\t<li class=\"checkbox\">\r\n\t\t\t\t\t\t\t\t<label for=\"problem9\"><input name=\"problem9\" id=\"problem9\" type=\"checkbox\" value=\"Yes\">Probl\u00e8me li\u00e9 \u00e0 la validation du num\u00e9ro d'assurance sociale (NAS)</label>\r\n\t\t\t\t\t\t\t\t<input name=\"problem9\" type=\"hidden\" value=\"No\">\r\n\t\t\t\t\t\t\t </li>\t\t\t\t\t\t\t\t\r\n\t\t\t\t\t\t\t<li class=\"checkbox\">\r\n\t\t\t\t\t\t\t\t<label for=\"problem10\"><input name=\"problem10\" id=\"problem10\" type=\"checkbox\" value=\"Yes\">Autre erreur lors de l'ouverture de session qui ne figure pas sur cette liste</label>\r\n\t\t\t\t\t\t\t\t<input name=\"problem10\" type=\"hidden\" value=\"No\">\r\n\t\t\t\t\t\t\t </li>\t\t \r\n\t\t\t\t\t\t\t </ul>\r\n\t\t\t\t\t\t<div class=\"checkbox\">\r\n\t\t\t\t\t\t\t<label for=\"problem11\"><input name=\"problem11\" id=\"problem11\" type=\"checkbox\" value=\"Yes\">Je n'arrive pas \u00e0 trouver ce que je cherche</label>\r\n\t\t\t\t\t\t\t<input name=\"problem11\" type=\"hidden\" value=\"No\">\r\n\t\t\t\t\t\t</div>\r\n\t\t\t\t\t\t<div class=\"checkbox\">\r\n\t\t\t\t\t\t\t<label for=\"problem12\"><input name=\"problem12\" id=\"problem12\" type=\"checkbox\" value=\"Yes\">Autre probl\u00e8me qui ne figure pas sur cette liste</label>\r\n\t\t\t\t\t\t\t<input name=\"problem12\" type=\"hidden\" value=\"No\">\r\n\t\t\t\t\t\t</div>\t\t\t\t\t\t\t\t\t\t\t\t\t\t\t\t\t\t\t\r\n\t\t             </fieldset>\r\n\t\t\t\t\t <div>\r\n\t\t\t\t        <label for=\"aafc_ranstr\"><span id=\"fbch\">Veuillez inscrire les caract\u00e8res suivants  <strong class=\"required\">(obligatoire)</strong>\u00a0: </span><span id=\"ranstr\">XXX</span></label>\r\n\t\t\t            <input name=\"anti-spam-sequence\" id=\"aafc_ranstr\" size=\"4\" maxlength=\"3\" type=\"text\">\r\n\t\t\t\t\t </div>\r\n\t\t\t\t\t <input type=\"submit\" class=\"btn btn-primary\" value=\"Soumettre\">\r\n\t\t\t\t  </form>\r\n\t\t\t\t</div>\r\n\t\t\t  </div>\r\n\t\t\t</div>\r\n\t\t</details>\r\n\t    </div>\r\n\t  <div class=\"wb-share col-sm-4 col-md-3 col-sm-offset-2 col-md-offset-4 col-lg-offset-5\" data-wb-share='{\"lnkClass\": \"btn btn-default btn-block\"}'></div>\r\n\t  </div>\r\n\t  <dl id=\"wb-dtmd\">\r\n\t    <dt>Date de modification\u00a0: </dt>\r\n\t      <dd><time property=\"dateModified\">2020-01-14</time></dd>\r\n\t  </dl>\r\n\t</div>\r\n\t\r\n  "
    }
}