{
    "dcr_id": "1289934791790",
    "title": {
        "en": "Price Pooling Program: Step 1. What this program offers",
        "fr": "Programme de mise en commun des prix : \u00c9tape 1. Ce qu\u2019offre ce programme"
    },
    "modified": "2019-12-09",
    "issued": "2019-12-09",
    "templatetype": "content page 1 column",
    "page_type": "1",
    "node_id": "1574440259412",
    "dc_date_created": "2019-12-09",
    "managing_branch": "PAB",
    "parent_node_id": "1354137773676",
    "label": {
        "en": "Price Pooling Program",
        "fr": "Programme de mise en commun des prix"
    },
    "exturl": "",
    "teamsite_location": {
        "en": "/default/main/AAFC-AAC/Internet-Internet/Group-Ensemble/ProgServ-ProgServ/WORKAREA/ProgServ-ProgServ/templatedata/comm-comm/gene-gene/data/11/ppp_step1_landingpage_1289934791790_en",
        "fr": "/default/main/AAFC-AAC/Internet-Internet/Group-Ensemble/ProgServ-ProgServ/WORKAREA/ProgServ-ProgServ/templatedata/comm-comm/gene-gene/data/11/ppp_step1_landingpage_1289934791790_fr"
    },
    "type_name": "sitemapinit",
    "has_dcr_id": true,
    "breadcrumb": {
        "en": "Price Pooling Program",
        "fr": "Programme de mise en commun des prix"
    },
    "layout_name": "content page 1 column",
    "lang": "en",
    "meta": {
        "issued": {
            "en": "2019-12-09",
            "fr": "2019-12-09"
        },
        "modified": {
            "en": "2019-12-09",
            "fr": "2019-12-09"
        },
        "format": {
            "en": "text/html",
            "fr": "text/html"
        },
        "title": {
            "en": "Price Pooling Program: Step 1. What this program offers",
            "fr": "Programme de mise en commun des prix : \u00c9tape 1. Ce qu\u2019offre ce programme"
        },
        "subject": {
            "en": "architectural heritage;architecture;government information",
            "fr": "entreprise;actif;engrais"
        },
        "description": {
            "en": "PPP-PMCP Price Pooling Program. It also provides equal returns to producers for products of like grades, varieties and types.This program is designed to assist and encourage cooperative marketing of eligible agricultural products, including processed products.Provide a price guarantee that protects marketing agencies and producers against unanticipated declines in the market price of their products.Under the Price Pooling Program, the Minister of Agriculture and Agri-Food Canada enters into an agreement with a marketing agency (associations of producers, processor or selling agent) for the marketing of agricultural products under a cooperative plan. If the calculated value is less than the guarantee value (the initial payment plus the eligible costs), the program allows for a payment for the shortfall by the Government of Canada.If the calculated value is greater, the surplus is retained by the pool for future use or is distributed by the marketing agency to the producers according to the grade, variety and type of the product that they delivered to the pool.As the program is delivered through marketing agencies on behalf of their members, a producer can only receive an initial payment through a marketing agency and not directly from Agriculture and Agri-Food Canada.Benefits of the Price Pooling Program.",
            "fr": "Guide du demandeur. \u00c9tape 1.Ce qu\u2019offre ce programme. 1.0 Partenariat canadien pour l\u2019agriculture. groupes autochtones.Autre\u00a0:Si aucun des choix pr\u00e9c\u00e9dents ne s\u2019applique, s\u00e9lectionnez \u00ab\u00a0Autre\u00a0\u00bb et pr\u00e9cisez votre type d\u2019organisation.Remarque\u00a0:Pour \u00eatre admissible, un demandeur doit \u00eatre une entit\u00e9 juridique habilit\u00e9e \u00e0 conclure des accords juridiquement contraignants.Les\u00a0PME doivent exercer leurs activit\u00e9s dans les secteurs de l\u2019agriculture, de l\u2019agroalimentaire et des produits agro\u2011industriels y compris le secteur du poisson et des fruits de mer."
        },
        "language": {
            "en": "eng",
            "fr": "fra"
        },
        "keywords": {
            "en": "desk;Canada.If;Canada.Benefits",
            "fr": null
        },
        "audience": {
            "en": "gcaudience",
            "fr": "gcaudience"
        },
        "type": {
            "en": "media release",
            "fr": "accord"
        },
        "creator": {
            "en": "Agriculture and Agri-Food Canada;Government of Canada",
            "fr": "Agriculture et Agroalimentaire Canada;Gouvernement du Canada"
        },
        "spatial": {
            "en": "gcregions",
            "fr": "gcregions"
        },
        "service": {
            "en": "AAFC-AAC",
            "fr": "AAFC-AAC"
        },
        "accessRights": {
            "en": "2",
            "fr": "2"
        },
        "legalName": {
            "en": "agriculture_and_agri_food_canada",
            "fr": "agriculture_et_agroalimentaire_canada"
        },
        "areaServed": {
            "en": "Canada",
            "fr": "Canada"
        }
    },
    "body": {
        "en": "tart --&gt;\r\n    <!-- D&eacute;but du contenu -->\r\n    <div class=\"mrgn-tp-md mrgn-bttm-lg brdr-bttm\">\n\n<div class=\"row\">\n<ul class=\"toc lst-spcd col-md-12 list-unstyled\">\n<li class=\"col-md-4 col-sm-6\"><span class=\"list-group-item active\">Step 1.  What this program offers</span></li>\n\n<li class=\"col-md-4 col-sm-6\"><span class=\"list-group-item\">Step 2.  <a href=\"?id=1573847726312\">Who is eligible</a></span></li>\n\n<li class=\"col-md-4 col-sm-6 clr-lft-sm\"><span class=\"list-group-item\">Step 3.  <a href=\"?id=1573849605756\">How to apply</a></span></li>\n\n<li class=\"col-md-4 col-sm-6\"><span class=\"list-group-item\">Step 4. <a href=\"?id=1573851062514\">After you apply</a></span></li>\n\n<li class=\"col-md-4 col-sm-6\"><span class=\"list-group-item\"><a href=\"?id=1573853207096\">Frequently asked questions</a></span></li>\n\n<li class=\"col-md-4 col-sm-6\"><span class=\"list-group-item\"><a href=\"?id=1573855263217\">Contact information</a></span></li>\n</ul>\n</div>\n</div>\n\n<h2>Step 1. What this program offers</h2>\n\n<p>The Price Pooling Program provides a price guarantee that protects marketing agencies and producers against unanticipated declines in the market price of their products. Program participants use the price guarantee as security in obtaining credit from lending institutions. This credit allows the marketing agency to improve cash flow of producers through an initial payment for products delivered. It also provides equal returns to producers for products of like grades, varieties and types.</p>\n\n<p>This program is designed to assist and encourage cooperative marketing of eligible agricultural products, including processed products.</p>\n\n<h3>Program delivery</h3>\n\n<p>Under the Price Pooling Program, the Minister of Agriculture and Agri-Food enters into an agreement with a marketing agency (associations of producers, processor or selling agent) for the marketing of agricultural products under a cooperative plan. The agreement provides a price guarantee for products delivered and enables the marketing agency to make an initial payment to the producers for products delivered. This guarantee also covers the marketing agency\u2019s eligible costs of: storing, processing, transportation and selling, to a fixed maximum. The price guarantee is set at a percentage of the expected average wholesale price of the product.</p>\n\n<p>The agreement is valid for the length of the crop year during which the agricultural product will be produced. Once all of the agricultural product is sold, the actual average wholesale price received by the marketing agency is determined. If the calculated value is less than the guarantee value (the initial payment plus the eligible costs), the program allows for a payment for the shortfall by the Government of Canada. If the calculated value is greater, the surplus is retained by the pool for future use or is distributed by the marketing agency to the producers according to the grade, variety and type of the product that they delivered to the pool.</p>\n\n<p>As the program is delivered through marketing agencies on behalf of their members, a producer can only receive an initial payment through a marketing agency and not directly from Agriculture and Agri-Food Canada.</p>\n\n<h3>Benefits of the Price Pooling Program</h3>\n\n<ul>\n<li>Improves cash flow position of producers through the provisions of an initial payment for the product delivered, allowing them to meet their short-term financial obligations, and through better returns resulting from cooperative marketing of the product.</li>\n<li>Provides equal returns to producers for products of like grade, variety and type.</li>\n<li>Helps improve the producers' farm income by allowing the marketing of their crops over an extended season when market conditions are better thus achieving orderly marketing of these products.</li>\n<li>Encourages producers to form marketing agencies, to take advantage of marketing opportunities.</li>\n<li>Helps marketing agencies lock-in a minimum rate of return for their members and protects them from unexpected  price declines in the marketplace.</li>\n\n<li>Provides marketing agencies with a price guarantee that can be used as security when obtaining credit from lending institutions to finance the initial payments to producers.</li>\n<li>Enables the marketing agency to profit from economies of scale.</li>\n<li>Facilitates single-desk selling with a pooled price.</li>\n</ul>\n\n<nav>\n<h2 class=\"wb-inv\">Previous-next document navigation - bottom</h2>\n\n<div class=\"row\">\n<div class=\"col-md-12 mrgn-lft-0 mrgn-rght-0\">\n<ul class=\"pager\">\n <li class=\"next\"><a href=\"?id=1573847726312\" rel=\"next\" title=\"Step 2. Who is eligible\">Next</a></li>\n</ul>\n</div>\n</div>\n</nav>\n\r\n    <!-- Fin du contenu -->\r\n  \r\n  <div class=\"pagedetails\" id=\"pgft\">\r\n    <div class=\"row\">\r\n\t  <div class=\"col-sm-6 col-md-5 col-lg-4\">\r\n\t    <details class=\"brdr-0\">\r\n\t\t<summary class=\"btn btn-default text-center\" onclick=\"getAntiSpamSeq('/eng/mail-handler/?anti-spam-sequence=true')\">Report a problem on this page</summary>\r\n\t\t<div class=\"clearfix\"></div>\r\n\t\t<div class=\"well row\">\r\n\t\t<div>\r\n\t\t  <div class=\"gc-rprt-prblm\">\r\n\t\t    <div class=\"gc-rprt-prblm-frm gc-rprt-prblm-tggl\">\r\n\t\t\t  \r\n\t\t\t<form id=\"report_a_problem_form\" action=\"/eng/mail-handler/#report_a_problem_form\" method=\"post\">\t\t\t\t   \t\t\t\r\n\r\n\t            \t <input type=\"hidden\" name=\"lang\" value=\"eng\">\r\n\t            \t <input type=\"hidden\" name=\"pageId\" value=\"1289934791790\">\r\n\t            \t <input type=\"hidden\" name=\"pageUrl\" value=\"http://www.agr.gc.ca/eng/agricultural-programs-and-services/price-pooling-program/?id=1289934791790\">\r\n\t\t\t\t\t <div id=\"report_a_problem_form_error\"></div>\r\n\t\t             <fieldset>\t\t\t\t\t    \r\n\t\t                <legend><span class=\"field-name\">Please select all that apply:</span></legend>\t\t                                 \r\n\t\t\t\t\t\t<div class=\"checkbox\">\r\n\t\t\t\t\t\t\t<label for=\"problem1\"><input name=\"problem1\" id=\"problem1\" type=\"checkbox\" value=\"Yes\">A link, button or video is not working</label>\r\n\t\t\t\t\t\t\t<input name=\"problem1\" type=\"hidden\" value=\"No\">\r\n\t\t\t\t\t\t</div>\r\n\t\t\t\t\t\t<div class=\"checkbox\">\r\n\t\t\t\t\t\t\t<label for=\"problem2\"><input name=\"problem2\" id=\"problem2\" type=\"checkbox\" value=\"Yes\">It has a spelling mistake</label>\r\n\t\t\t\t\t\t\t<input name=\"problem2\" type=\"hidden\" value=\"No\">\r\n\t\t\t\t\t\t</div>\r\n\t\t\t\t\t\t<div class=\"checkbox\">\r\n\t\t\t\t\t\t\t<label for=\"problem3\"><input name=\"problem3\" id=\"problem3\" type=\"checkbox\" value=\"Yes\">Information is missing</label>\r\n\t\t\t\t\t\t\t<input name=\"problem3\" type=\"hidden\" value=\"No\">\r\n\t\t\t\t\t   </div>\r\n\t\t\t\t\t\t<div class=\"checkbox\">\r\n\t\t\t\t\t\t\t<label for=\"problem4\"><input name=\"problem4\" id=\"problem4\" type=\"checkbox\" value=\"Yes\">Information is outdated or wrong</label>\r\n\t\t\t\t\t\t\t<input name=\"problem4\" type=\"hidden\" value=\"No\">\r\n\t\t\t\t\t\t</div>\r\n\t\t\t\t\t\t<div class=\"checkbox\">\r\n\t\t\t\t\t\t\t<label for=\"problem5\"><input name=\"problem5\" id=\"problem5\" type=\"checkbox\" value=\"Yes\">Login error when trying to access an account (e.g. My Service Canada Account)</label>\r\n\t\t\t\t\t\t\t<input name=\"problem5\" type=\"hidden\" value=\"No\">\r\n\t\t\t\t\t\t</div>\r\n\t\t\t\t\t\t\t<ul>\r\n\t\t\t\t\t\t\t<li class=\"checkbox\">\r\n\t\t\t\t\t\t\t\t<label for=\"problem6a\"><input name=\"problem6\" id=\"problem6a\" type=\"checkbox\" value=\"Yes\">GC Key access</label>\r\n\t\t\t\t\t\t\t\t<input name=\"problem6\" type=\"hidden\" value=\"No\">\r\n\t\t\t\t\t\t\t </li>\r\n\t\t\t\t\t\t\t<li class=\"checkbox\">\r\n\t\t\t\t\t\t\t\t<label for=\"problem7\"><input name=\"problem7\" id=\"problem7\" type=\"checkbox\" value=\"Yes\">SecureKey Concierge (Banking Credential) access </label>\r\n\t\t\t\t\t\t\t\t<input name=\"problem7\" type=\"hidden\" value=\"No\">\r\n\t\t\t\t\t\t\t </li>\r\n\t\t\t\t\t\t\t<li class=\"checkbox\">\r\n\t\t\t\t\t\t\t\t<label for=\"problem8\"><input name=\"problem8\" id=\"problem8\" type=\"checkbox\" value=\"Yes\">Personal Access Code (PAC) problems or EI Access Code (AC) problems</label>\r\n\t\t\t\t\t\t\t\t<input name=\"problem8\" type=\"hidden\" value=\"No\">\r\n\t\t\t\t\t\t\t </li>\t\r\n\t\t\t\t\t\t\t<li class=\"checkbox\">\r\n\t\t\t\t\t\t\t\t<label for=\"problem9\"><input name=\"problem9\" id=\"problem9\" type=\"checkbox\" value=\"Yes\">Social Insurance Number (SIN) validation problems</label>\r\n\t\t\t\t\t\t\t\t<input name=\"problem9\" type=\"hidden\" value=\"No\">\r\n\t\t\t\t\t\t\t </li>\t\t\t\t\t\t\t\t\r\n\t\t\t\t\t\t\t<li class=\"checkbox\">\r\n\t\t\t\t\t\t\t\t<label for=\"problem10\"><input name=\"problem10\" id=\"problem10\" type=\"checkbox\" value=\"Yes\">Other login error not in this list</label>\r\n\t\t\t\t\t\t\t\t<input name=\"problem10\" type=\"hidden\" value=\"No\">\r\n\t\t\t\t\t\t\t </li>\t\t \r\n\t\t\t\t\t\t\t </ul>\r\n\t\t\t\t\t\t<div class=\"checkbox\">\r\n\t\t\t\t\t\t\t<label for=\"problem11\"><input name=\"problem11\" id=\"problem11\" type=\"checkbox\" value=\"Yes\">I can't find what I'm looking for</label>\r\n\t\t\t\t\t\t\t<input name=\"problem11\" type=\"hidden\" value=\"No\">\r\n\t\t\t\t\t\t</div>\r\n\t\t\t\t\t\t<div class=\"checkbox\">\r\n\t\t\t\t\t\t\t<label for=\"problem12\"><input name=\"problem12\" id=\"problem12\" type=\"checkbox\" value=\"Yes\">Other issue not in this list</label>\r\n\t\t\t\t\t\t\t<input name=\"problem12\" type=\"hidden\" value=\"No\">\r\n\t\t\t\t\t\t</div>\t\t\t\t\t\t \t\t\t\t\t\t\t\t\t\t\t\t \r\n\t\t             </fieldset>\r\n\t\t\t\t\t <div>\r\n\t\t\t\t\t   <label for=\"aafc_ranstr\"><span id=\"fbch\"><br>Enter these characters <strong class=\"required\">(required)</strong>: </span><span id=\"ranstr\">U5S</span></label>\r\n\t\t\t           <input name=\"anti-spam-sequence\" id=\"aafc_ranstr\" size=\"4\" maxlength=\"3\" type=\"text\">\r\n\t\t\t\t\t </div>\t\r\n\r\n\t\t\t\t\t <br><input type=\"submit\" class=\"btn btn-primary\" value=\"Submit\">\r\n\t\t\t\t  </form>\r\n\t\t\t\t</div>\r\n\t\t\t</div>\t\t\t\r\n\t\t  </div>\r\n\t\t</div>\r\n\t\t</details>\r\n\t  </div>\r\n\t  <div class=\"wb-share col-sm-4 col-md-3 col-sm-offset-2 col-md-offset-4 col-lg-offset-5\" data-wb-share='{\"lnkClass\": \"btn btn-default btn-block\"}'></div>\r\n\t</div>\r\n\t<dl id=\"wb-dtmd\">\r\n\t  <dt>Date modified: </dt>\r\n\t  <dd><time property=\"dateModified\">2019-12-09</time></dd></dl></div>",
        "fr": "\r\n    \r\n    <!-- MainContentStart -->\r\n    <!-- D&eacute;but du contenu -->\r\n    <div class=\"mrgn-tp-md mrgn-bttm-lg brdr-bttm\">\n\n<div class=\"row\">\n<ul class=\"toc lst-spcd col-md-12 list-unstyled\">\n<li class=\"col-md-4 col-sm-6\"><span class=\"list-group-item active\">\u00c9tape 1.  Ce qu\u2019offre ce programme</span></li>\n\n<li class=\"col-md-4 col-sm-6\"><span class=\"list-group-item\">\u00c9tape 2.  <a href=\"?id=1573847726312\">Qui est admissible</a></span></li>\n\n<li class=\"col-md-4 col-sm-6\"><span class=\"list-group-item\">\u00c9tape 3. <a href=\"?id=1573849605756\">Comment pr\u00e9senter une demande</a></span></li>\n\n<li class=\"col-md-4 col-sm-6\"><span class=\"list-group-item\">\u00c9tape 4. <a href=\"?id=1573851062514\">Apr\u00e8s avoir pr\u00e9sent\u00e9 votre demande</a></span></li>\n\n<li class=\"col-md-4 col-sm-6\"><span class=\"list-group-item\"><a href=\"?id=1573853207096\">Foire aux questions</a></span></li>\n\n<li class=\"col-md-4 col-sm-6\"><span class=\"list-group-item\"><a href=\"?id=1573855263217\">Pour nous joindre</a></span></li>\n</ul>\n</div>\n</div>\n\n<h2>\u00c9tape 1. Ce qu\u2019offre ce programme</h2>\n\n<p>Le Programme de mise en commun des prix offre une garantie qui prot\u00e8ge les agences de commercialisation et leurs producteurs contre un effondrement impr\u00e9vu du prix de march\u00e9 de leurs produits. Les participants au Programme utilisent la garantie de prix \u00e0 titre de s\u00fbret\u00e9 pour obtenir le financement n\u00e9cessaire aupr\u00e8s des institutions financi\u00e8res. En retour, ce financement permet \u00e0 l'agence de commercialisation d'am\u00e9liorer la liquidit\u00e9 des producteurs gr\u00e2ce \u00e0 un paiement initial pour les produits agricoles livr\u00e9s, et assure des recettes \u00e9gales aux producteurs pour des produits de m\u00eame cat\u00e9gorie, de m\u00eame vari\u00e9t\u00e9 et de m\u00eame type.</p>\n\n<p>Le Programme est con\u00e7u pour soutenir et favoriser la commercialisation coop\u00e9rative de produits agricoles admissibles, notamment des produits transform\u00e9s.</p>\n\n<h3>Prestation du programme</h3>\n\n<p>Dans le cadre du Programme de mise en commun des prix, la ministre de l'Agriculture et de l'Agroalimentaire conclut une entente avec une agence de commercialisation (association de producteurs, transformateur ou agent \u00e0 la vente), visant la commercialisation de produits agricoles selon un plan coop\u00e9ratif. Cette entente pr\u00e9voit une garantie de prix pour les produits livr\u00e9s et permet \u00e0 l'agence de commercialisation d'effectuer un paiement initial aux producteurs pour les produits livr\u00e9s. Cette garantie couvre \u00e9galement les co\u00fbts \u00e9ligibles de l'agence de commercialisation pour : les frais de stockage, de transformation, de transport et de vente, dans la limite d'un montant maximal pr\u00e9\u00e9tabli. La garantie de prix correspond \u00e0 un pourcentage du prix de gros moyen pr\u00e9vu pour ce produit.</p>\n\n<p>L'entente est valide pour la dur\u00e9e de la campagne agricole et pour le produit agricole en production. Une fois que tous les produits agricoles sont vendus, le prix de gros moyen r\u00e9el re\u00e7u par l'agence de commercialisation est d\u00e9termin\u00e9. Si la valeur calcul\u00e9e est inf\u00e9rieure \u00e0 la valeur garantie (le paiement initial plus les co\u00fbts admissibles), le programme permet au gouvernement du Canada de combler le manque \u00e0 gagner.  Par ailleurs, si la valeur calcul\u00e9e est sup\u00e9rieure, l'exc\u00e9dent est conserv\u00e9 dans le compte de mise en commun pour utilisation future ou est distribu\u00e9 aux producteurs par l'agence de commercialisation, en tenant compte de la cat\u00e9gorie, du type et de la vari\u00e9t\u00e9 du produit qu'ils ont livr\u00e9 \u00e0 la mise en commun.</p>\n\n<p>\u00c9tant donn\u00e9 que le programme est offert par l'entremise d\u2019agences de commercialisation au nom de leurs membres, un producteur ne peut recevoir un paiement initial que d'une agence de commercialisation et non directement d'Agriculture et Agroalimentaire Canada.</p>\n\n<h3>B\u00e9n\u00e9fices du Programme de mise en commun des prix :</h3>\n\n<ul>\n<li>Am\u00e9liore la situation de tr\u00e9sorerie des producteurs gr\u00e2ce au versement d'un paiement initial sur le produit livr\u00e9, qui leur permet de respecter leurs obligations financi\u00e8res \u00e0 court terme, et par une meilleure rentabilit\u00e9 r\u00e9sultant de la commercialisation coop\u00e9rative du produit;</li>\n<li>Fournit des revenus \u00e9gaux aux producteurs pour des produits de m\u00eame qualit\u00e9, de m\u00eame vari\u00e9t\u00e9 et de m\u00eame type;</li>\n<li>Contribue \u00e0 l'am\u00e9lioration des revenus agricoles des producteurs en permettant la commercialisation de leurs r\u00e9coltes sur une saison prolong\u00e9e lorsque les conditions du march\u00e9 sont meilleures, ce qui permet une commercialisation ordonn\u00e9e de ces produits;</li>\n<li>Encourage les producteurs \u00e0 former des agences de commercialisation, pour tirer parti des possibilit\u00e9s de commercialisation;</li>\n<li>Aide les agences de commercialisation \u00e0 fixer un taux de rendement minimal pour leurs membres et les prot\u00e8ge contre les baisses inattendues des prix sur le march\u00e9;</li>\n<li>Fournit aux agences de commercialisation une garantie de prix qui peut \u00eatre utilis\u00e9e comme s\u00fbret\u00e9 lorsqu'elles obtiennent du cr\u00e9dit aupr\u00e8s d'institutions financi\u00e8res pour verser les paiements initiaux aux producteurs;</li>\n<li>Permet \u00e0 l'agence de commercialisation de b\u00e9n\u00e9ficier d\u2019\u00e9conomies d'\u00e9chelle;</li>\n<li>Facilite la vente \u00e0 guichet unique avec un prix commun;</li>\n</ul>\n\n<nav>\n<h2 class=\"wb-inv\">Navigation du document - pr\u00e9c\u00e9dente-suivante - bas</h2>\n\n<div class=\"row\">\n<div class=\"col-md-12 mrgn-lft-0 mrgn-rght-0\">\n<ul class=\"pager\">\n <li class=\"next\"><a href=\"?id=1573847726312\" rel=\"next\" title=\"\u00c9tape 2. Qui est admissible\">Suivante</a></li>\n</ul>\n</div>\n</div>\n</nav>\n\r\n    <!-- Fin du contenu -->\r\n\t\r\n\t<div class=\"pagedetails\" id=\"pgft\">\r\n\t\t<div class=\"row\">\r\n\t\t  <div class=\"col-sm-6 col-md-5 col-lg-4\">\r\n\t\t    <details class=\"brdr-0\">\r\n\t\t\t<summary class=\"btn btn-default text-center\" onclick=\"getAntiSpamSeq('/fra/mail-handler/?anti-spam-sequence=true')\">Signaler un probl\u00e8me sur cette page</summary>\r\n\t\t\t<div class=\"well row\">\r\n\t\t\t  <div class=\"gc-rprt-prblm\">\r\n\t\t\t    <div class=\"gc-rprt-prblm-frm gc-rprt-prblm-tggl\">\r\n\t\t\t\t   <form id=\"report_a_problem_form\" action=\"/fra/mail-handler/\" method=\"post\">\r\n\t            \t <input type=\"hidden\" name=\"lang\" value=\"fra\">\r\n\t            \t <input type=\"hidden\" name=\"pageId\" value=\"1289934791790\">\r\n\t            \t <input type=\"hidden\" name=\"pageUrl\" value=\"http://agr.gc.ca/fra/programmes-et-services-agricoles/programme-de-mise-en-commun-des-prix/?id=1289934791790\">\r\n\t\t\t\t\t <div id=\"report_a_problem_form_error\"></div>\r\n\t\t             <fieldset>\t\t\t\t\t    \r\n\t\t                <legend><span class=\"field-name\">Veuillez cocher toutes les r\u00e9ponses pertinentes\u00a0:</span></legend>\r\n\t\t                 <div class=\"checkbox\">\r\n\t\t                    <label for=\"problem1\"><input name=\"problem1\" id=\"problem1\" type=\"checkbox\" value=\"Yes\">Un lien, un bouton ou une vid\u00e9o ne fonctionne pas</label>\r\n\t\t                    <input name=\"problem1\" type=\"hidden\" value=\"No\">\r\n\t\t                </div>\r\n\t\t                <div class=\"checkbox\">\r\n\t\t                    <label for=\"problem2\"><input name=\"problem2\" id=\"problem2\" type=\"checkbox\" value=\"Yes\">Il y a une erreur d'orthographe ou de grammaire</label>\r\n\t\t                    <input name=\"problem2\" type=\"hidden\" value=\"No\">\r\n\t\t                </div>\r\n\t\t   \t\t\t\t <div class=\"checkbox\">\r\n\t\t                    <label for=\"problem3\"><input name=\"problem3\" id=\"problem3\" type=\"checkbox\" value=\"Yes\">Les renseignements sont incomplets</label>\r\n\t\t                    <input name=\"problem3\" type=\"hidden\" value=\"No\">\r\n\t\t                </div>\r\n\t\t             \t\t<div class=\"checkbox\">\r\n\t\t                    <label for=\"problem4\"><input name=\"problem4\" id=\"problem4\" type=\"checkbox\" value=\"Yes\">L'information n'est plus \u00e0 jour ou est erron\u00e9e</label>\r\n\t\t                    <input name=\"problem4\" type=\"hidden\" value=\"No\">\r\n\t\t                </div>\t\t\t\t\t\t\r\n\t\t\t\t\t\t<div class=\"checkbox\">\r\n\t\t\t\t\t\t\t<label for=\"problem5\"><input name=\"problem5\" id=\"problem5\" type=\"checkbox\" value=\"Yes\">Message d'erreur \u00e0 l'ouverture de la session lorsque je tente d'acc\u00e9der \u00e0 un compte (ex. Mon dossier Service Canada)</label>\r\n\t\t\t\t\t\t\t<input name=\"problem5\" type=\"hidden\" value=\"No\">\r\n\t\t\t\t\t\t</div>\r\n\t\t\t\t\t\t\t<ul>\r\n\t\t\t\t\t\t\t<li class=\"checkbox\">\r\n\t\t\t\t\t\t\t\t<label for=\"problem6a\"><input name=\"problem6\" id=\"problem6a\" type=\"checkbox\" value=\"Yes\">Acc\u00e8s Cl\u00e9GC</label>\r\n\t\t\t\t\t\t\t\t<input name=\"problem6\" type=\"hidden\" value=\"No\">\r\n\t\t\t\t\t\t\t </li>\r\n\t\t\t\t\t\t\t<li class=\"checkbox\">\r\n\t\t\t\t\t\t\t\t<label for=\"problem7\"><input name=\"problem7\" id=\"problem7\" type=\"checkbox\" value=\"Yes\">Acc\u00e8s SecureKey Service de Concierge (justificatifs d'identit\u00e9 bancaires)</label>\r\n\t\t\t\t\t\t\t\t<input name=\"problem7\" type=\"hidden\" value=\"No\">\r\n\t\t\t\t\t\t\t </li>\r\n\t\t\t\t\t\t\t<li class=\"checkbox\">\r\n\t\t\t\t\t\t\t\t<label for=\"problem8\"><input name=\"problem8\" id=\"problem8\" type=\"checkbox\" value=\"Yes\">Probl\u00e8me avec le Code d'acc\u00e8s personnel (CAP) ou avec le Code d'acc\u00e8s (CA) de l'assurance emploi</label>\r\n\t\t\t\t\t\t\t\t<input name=\"problem8\" type=\"hidden\" value=\"No\">\r\n\t\t\t\t\t\t\t </li>\t\r\n\t\t\t\t\t\t\t<li class=\"checkbox\">\r\n\t\t\t\t\t\t\t\t<label for=\"problem9\"><input name=\"problem9\" id=\"problem9\" type=\"checkbox\" value=\"Yes\">Probl\u00e8me li\u00e9 \u00e0 la validation du num\u00e9ro d'assurance sociale (NAS)</label>\r\n\t\t\t\t\t\t\t\t<input name=\"problem9\" type=\"hidden\" value=\"No\">\r\n\t\t\t\t\t\t\t </li>\t\t\t\t\t\t\t\t\r\n\t\t\t\t\t\t\t<li class=\"checkbox\">\r\n\t\t\t\t\t\t\t\t<label for=\"problem10\"><input name=\"problem10\" id=\"problem10\" type=\"checkbox\" value=\"Yes\">Autre erreur lors de l'ouverture de session qui ne figure pas sur cette liste</label>\r\n\t\t\t\t\t\t\t\t<input name=\"problem10\" type=\"hidden\" value=\"No\">\r\n\t\t\t\t\t\t\t </li>\t\t \r\n\t\t\t\t\t\t\t </ul>\r\n\t\t\t\t\t\t<div class=\"checkbox\">\r\n\t\t\t\t\t\t\t<label for=\"problem11\"><input name=\"problem11\" id=\"problem11\" type=\"checkbox\" value=\"Yes\">Je n'arrive pas \u00e0 trouver ce que je cherche</label>\r\n\t\t\t\t\t\t\t<input name=\"problem11\" type=\"hidden\" value=\"No\">\r\n\t\t\t\t\t\t</div>\r\n\t\t\t\t\t\t<div class=\"checkbox\">\r\n\t\t\t\t\t\t\t<label for=\"problem12\"><input name=\"problem12\" id=\"problem12\" type=\"checkbox\" value=\"Yes\">Autre probl\u00e8me qui ne figure pas sur cette liste</label>\r\n\t\t\t\t\t\t\t<input name=\"problem12\" type=\"hidden\" value=\"No\">\r\n\t\t\t\t\t\t</div>\t\t\t\t\t\t\t\t\t\t\t\t\t\t\t\t\t\t\t\r\n\t\t             </fieldset>\r\n\t\t\t\t\t <div>\r\n\t\t\t\t        <label for=\"aafc_ranstr\"><span id=\"fbch\">Veuillez inscrire les caract\u00e8res suivants  <strong class=\"required\">(obligatoire)</strong>\u00a0: </span><span id=\"ranstr\">XXX</span></label>\r\n\t\t\t            <input name=\"anti-spam-sequence\" id=\"aafc_ranstr\" size=\"4\" maxlength=\"3\" type=\"text\">\r\n\t\t\t\t\t </div>\r\n\t\t\t\t\t <input type=\"submit\" class=\"btn btn-primary\" value=\"Soumettre\">\r\n\t\t\t\t  </form>\r\n\t\t\t\t</div>\r\n\t\t\t  </div>\r\n\t\t\t</div>\r\n\t\t</details>\r\n\t    </div>\r\n\t  <div class=\"wb-share col-sm-4 col-md-3 col-sm-offset-2 col-md-offset-4 col-lg-offset-5\" data-wb-share='{\"lnkClass\": \"btn btn-default btn-block\"}'></div>\r\n\t  </div>\r\n\t  <dl id=\"wb-dtmd\">\r\n\t    <dt>Date de modification\u00a0: </dt>\r\n\t      <dd><time property=\"dateModified\">2019-12-09</time></dd>\r\n\t  </dl>\r\n\t</div>\r\n\t\r\n  "
    }
}