{
    "dcr_id": "1588186409721",
    "title": {
        "en": "Mandatory Isolation Support for Temporary Foreign Workers Program",
        "fr": "Programme d\u2019aide pour l\u2019isolement obligatoire des travailleurs \u00e9trangers temporaires"
    },
    "modified": "2021-01-28",
    "issued": "2020-05-07",
    "templatetype": "content page 1 column",
    "page_type": "1",
    "node_id": "1588248992761",
    "dc_date_created": "2020-05-07",
    "managing_branch": "PAB",
    "parent_node_id": "1354137773676",
    "label": {
        "en": "Mandatory Isolation Support for Temporary Foreign Workers Program",
        "fr": "Programme d\u2019aide pour l\u2019isolement obligatoire des travailleurs \u00e9trangers temporaires"
    },
    "exturl": "",
    "teamsite_location": {
        "en": "/default/main/AAFC-AAC/Internet-Internet/Group-Ensemble/ProgServ-ProgServ/WORKAREA/ProgServ-ProgServ/templatedata/comm-comm/gene-gene/data/04/misp_1_1588186409721_en",
        "fr": "/default/main/AAFC-AAC/Internet-Internet/Group-Ensemble/ProgServ-ProgServ/WORKAREA/ProgServ-ProgServ/templatedata/comm-comm/gene-gene/data/04/misp_1_1588186409721_fr"
    },
    "type_name": "sitemapinit",
    "has_dcr_id": true,
    "breadcrumb": {
        "en": "Mandatory Isolation Support for Temporary Foreign Workers Program",
        "fr": "Programme d\u2019aide pour l\u2019isolement obligatoire des travailleurs \u00e9trangers temporaires"
    },
    "layout_name": "content page 1 column",
    "lang": "en",
    "meta": {
        "issued": {
            "en": "2020-05-07",
            "fr": "2020-05-07"
        },
        "modified": {
            "en": "2021-01-28",
            "fr": "2021-01-28"
        },
        "format": {
            "en": "text/html",
            "fr": "text/html"
        },
        "title": {
            "en": "Mandatory Isolation Support for Temporary Foreign Workers Program",
            "fr": "Programme d\u2019aide pour l\u2019isolement obligatoire des travailleurs \u00e9trangers temporaires"
        },
        "subject": {
            "en": "trade;architectural heritage;architecture",
            "fr": "s\u00e9curit\u00e9 alimentaire;aliment;coop\u00e9rative"
        },
        "description": {
            "en": "Applicant Guide. Step 1.What this program offers. 7.0 Contact Us. Annex A: Application Process. (This $11 million includes the R&D, Micro Grants and ACB Streams).Cost sharing.",
            "fr": "Guide du demandeur. \u00c9tape 1.En quoi consiste le programme. 5.0\u00a0Facteurs dont il faut tenir compte. Le b\u00e9n\u00e9ficiaire doit \u00eatre une entit\u00e9 juridique en mesure de conclure des ententes juridiquement contraignantes.Le volet de financement de contribution R et D des IAR fournira de l\u2019aide aux b\u00e9n\u00e9ficiaires."
        },
        "language": {
            "en": "eng",
            "fr": "fra"
        },
        "keywords": {
            "en": "disabilities.The;A.Funding",
            "fr": "doutils.Le"
        },
        "audience": {
            "en": "gcaudience",
            "fr": "gcaudience"
        },
        "type": {
            "en": "fact sheet",
            "fr": "avis"
        },
        "creator": {
            "en": "Agriculture and Agri-Food Canada;Government of Canada",
            "fr": "Agriculture et Agroalimentaire Canada;Gouvernement du Canada"
        },
        "spatial": {
            "en": "gcregions",
            "fr": "gcregions"
        },
        "service": {
            "en": "AAFC-AAC",
            "fr": "AAFC-AAC"
        },
        "accessRights": {
            "en": "2",
            "fr": "2"
        },
        "legalName": {
            "en": "agriculture_and_agri_food_canada",
            "fr": "agriculture_et_agroalimentaire_canada"
        },
        "areaServed": {
            "en": "Canada",
            "fr": "Canada"
        }
    },
    "body": {
        "en": "tart --&gt;\r\n    <!-- D&eacute;but du contenu -->\r\n    <div class=\"mrgn-tp-md mrgn-bttm-lg brdr-bttm\">\n\n<div class=\"row\">\n<ul class=\"toc lst-spcd col-md-12 list-unstyled\">\n<li class=\"col-md-4 col-sm-6\"><span class=\"list-group-item active\">Step 1. What this program offers</span></li>\n\n<li class=\"col-md-4 col-sm-6\"><span class=\"list-group-item\">Step 2. <a href=\"?id=1588187049981\">Who is eligible</a></span></li>\n\n<li class=\"col-md-4 col-sm-6 clr-lft-sm\"><span class=\"list-group-item\">Step 3. <a href=\"?id=1588187120150\">How to apply</a></span></li>\n\t\n<li class=\"col-md-4 col-sm-6 clr-lft-sm\"><span class=\"list-group-item\">Step 4. <a href=\"?id=1588187208093\">After you apply</a></span></li>\t\n\n<li class=\"col-md-4 col-sm-6\"><span class=\"list-group-item\"><a href=\"?id=1588187388374\">Applicant guide</a></span></li>\n\n<li class=\"col-md-4 col-sm-6\"><span class=\"list-group-item\"><a href=\"?id=1588245410631\">Contact information</a></span></li>\n</ul>\n</div>\n</div>\n\n<h2>Step 1. What this program offers</h2>\n\n<div class=\"alert alert-info\">\n<h3>Important Notice</h3>\n<p>Applications for the 2021 program year will be accepted until 6:00\u00a0p.m. EST March\u00a031, 2021 or until funding has been fully committed or until otherwise announced by the program. The 2021 program year begins on January\u00a01, 2021 and will provide funding for workers who arrive in Canada on or after January\u00a01, 2021 and up to March\u00a031, 2021, or the expiry or repeal of the Order under <a href=\"https://laws-lois.justice.gc.ca/eng/acts/q-1.1/page-1.html\"><cite>Quarantine Act</cite></a> (currently set to expire February 21, 2021), whichever comes first.</p>\n</div>\n\n\n<p>The Mandatory Isolation Support for Temporary Foreign Workers Program (MISTFWP) is a one-time $84.4-million program to help with the impacts of the COVID-19 pandemic on food supply in Canada by assisting the farming, fish harvesting, and food production and processing sectors. The program will assist Canadian employers with some of the incremental costs associated with the mandatory 14-day isolation period imposed under the <a href=\"https://laws-lois.justice.gc.ca/eng/acts/q-1.1/page-1.html\"><cite>Quarantine Act</cite></a> on temporary foreign workers upon entering Canada.</p>\n\n<p>The MISTFWP will provide a maximum non-repayable contribution amount of $1,500 for each temporary foreign worker. Should an applicant receive assistance from a provincial or territorial government to help cover these costs, or the $1,500 exceeds their incremental costs per employee, the total contribution may be reduced.</p>\n\n<p>The federal investment of up to $84.4-million will be available until fully depleted and, as long as the order under the <a href=\"https://laws-lois.justice.gc.ca/eng/acts/q-1.1/page-1.html\"><cite>Quarantine Act</cite></a> is in force and the isolation protocol has to be followed.</p>\n\n<div class=\"alert alert-info\">\n<p>The \"mandatory 14 day isolation period\" in the context of MISTFWP refers to the 14 day quarantine period imposed on persons arriving to Canada from abroad under the <a href=\"https://laws-lois.justice.gc.ca/eng/acts/q-1.1/page-1.html\"><cite>Quarantine Act</cite></a>.</p>\n</div>\n\n<nav>\n  <h2 class=\"wb-inv\">Previous-next document navigation - bottom</h2>\n\n<div class=\"row\">\n<div class=\"col-md-12 mrgn-lft-0 mrgn-rght-0\">\n<ul class=\"pager\">\t\n\n<li class=\"next\"><a href=\"?id=1588187049981\" rel=\"next\" title=\"Who is eligible\">Next</a></li>\t\n</ul>\n</div>\n</div>\n</nav>\n\r\n    <!-- Fin du contenu -->\r\n  \r\n  <div class=\"pagedetails\" id=\"pgft\">\r\n    <div class=\"row\">\r\n\t  <div class=\"col-sm-6 col-md-5 col-lg-4\">\r\n\t    <details class=\"brdr-0\">\r\n\t\t<summary class=\"btn btn-default text-center\" onclick=\"getAntiSpamSeq('/eng/mail-handler/?anti-spam-sequence=true')\">Report a problem on this page</summary>\r\n\t\t<div class=\"clearfix\"></div>\r\n\t\t<div class=\"well row\">\r\n\t\t<div>\r\n\t\t  <div class=\"gc-rprt-prblm\">\r\n\t\t    <div class=\"gc-rprt-prblm-frm gc-rprt-prblm-tggl\">\r\n\t\t\t  \r\n\t\t\t<form id=\"report_a_problem_form\" action=\"/eng/mail-handler/#report_a_problem_form\" method=\"post\">\t\t\t\t   \t\t\t\r\n\r\n\t            \t <input type=\"hidden\" name=\"lang\" value=\"eng\">\r\n\t            \t <input type=\"hidden\" name=\"pageId\" value=\"1588186409721\">\r\n\t            \t <input type=\"hidden\" name=\"pageUrl\" value=\"http://www.agr.gc.ca/eng/agricultural-programs-and-services/mandatory-isolation-support-for-temporary-foreign-workers-program/?id=1588186409721\">\r\n\t\t\t\t\t <div id=\"report_a_problem_form_error\"></div>\r\n\t\t             <fieldset>\t\t\t\t\t    \r\n\t\t                <legend><span class=\"field-name\">Please select all that apply:</span></legend>\t\t                                 \r\n\t\t\t\t\t\t<div class=\"checkbox\">\r\n\t\t\t\t\t\t\t<label for=\"problem1\"><input name=\"problem1\" id=\"problem1\" type=\"checkbox\" value=\"Yes\">A link, button or video is not working</label>\r\n\t\t\t\t\t\t\t<input name=\"problem1\" type=\"hidden\" value=\"No\">\r\n\t\t\t\t\t\t</div>\r\n\t\t\t\t\t\t<div class=\"checkbox\">\r\n\t\t\t\t\t\t\t<label for=\"problem2\"><input name=\"problem2\" id=\"problem2\" type=\"checkbox\" value=\"Yes\">It has a spelling mistake</label>\r\n\t\t\t\t\t\t\t<input name=\"problem2\" type=\"hidden\" value=\"No\">\r\n\t\t\t\t\t\t</div>\r\n\t\t\t\t\t\t<div class=\"checkbox\">\r\n\t\t\t\t\t\t\t<label for=\"problem3\"><input name=\"problem3\" id=\"problem3\" type=\"checkbox\" value=\"Yes\">Information is missing</label>\r\n\t\t\t\t\t\t\t<input name=\"problem3\" type=\"hidden\" value=\"No\">\r\n\t\t\t\t\t   </div>\r\n\t\t\t\t\t\t<div class=\"checkbox\">\r\n\t\t\t\t\t\t\t<label for=\"problem4\"><input name=\"problem4\" id=\"problem4\" type=\"checkbox\" value=\"Yes\">Information is outdated or wrong</label>\r\n\t\t\t\t\t\t\t<input name=\"problem4\" type=\"hidden\" value=\"No\">\r\n\t\t\t\t\t\t</div>\r\n\t\t\t\t\t\t<div class=\"checkbox\">\r\n\t\t\t\t\t\t\t<label for=\"problem5\"><input name=\"problem5\" id=\"problem5\" type=\"checkbox\" value=\"Yes\">Login error when trying to access an account (e.g. My Service Canada Account)</label>\r\n\t\t\t\t\t\t\t<input name=\"problem5\" type=\"hidden\" value=\"No\">\r\n\t\t\t\t\t\t</div>\r\n\t\t\t\t\t\t\t<ul>\r\n\t\t\t\t\t\t\t<li class=\"checkbox\">\r\n\t\t\t\t\t\t\t\t<label for=\"problem6a\"><input name=\"problem6\" id=\"problem6a\" type=\"checkbox\" value=\"Yes\">GC Key access</label>\r\n\t\t\t\t\t\t\t\t<input name=\"problem6\" type=\"hidden\" value=\"No\">\r\n\t\t\t\t\t\t\t </li>\r\n\t\t\t\t\t\t\t<li class=\"checkbox\">\r\n\t\t\t\t\t\t\t\t<label for=\"problem7\"><input name=\"problem7\" id=\"problem7\" type=\"checkbox\" value=\"Yes\">SecureKey Concierge (Banking Credential) access </label>\r\n\t\t\t\t\t\t\t\t<input name=\"problem7\" type=\"hidden\" value=\"No\">\r\n\t\t\t\t\t\t\t </li>\r\n\t\t\t\t\t\t\t<li class=\"checkbox\">\r\n\t\t\t\t\t\t\t\t<label for=\"problem8\"><input name=\"problem8\" id=\"problem8\" type=\"checkbox\" value=\"Yes\">Personal Access Code (PAC) problems or EI Access Code (AC) problems</label>\r\n\t\t\t\t\t\t\t\t<input name=\"problem8\" type=\"hidden\" value=\"No\">\r\n\t\t\t\t\t\t\t </li>\t\r\n\t\t\t\t\t\t\t<li class=\"checkbox\">\r\n\t\t\t\t\t\t\t\t<label for=\"problem9\"><input name=\"problem9\" id=\"problem9\" type=\"checkbox\" value=\"Yes\">Social Insurance Number (SIN) validation problems</label>\r\n\t\t\t\t\t\t\t\t<input name=\"problem9\" type=\"hidden\" value=\"No\">\r\n\t\t\t\t\t\t\t </li>\t\t\t\t\t\t\t\t\r\n\t\t\t\t\t\t\t<li class=\"checkbox\">\r\n\t\t\t\t\t\t\t\t<label for=\"problem10\"><input name=\"problem10\" id=\"problem10\" type=\"checkbox\" value=\"Yes\">Other login error not in this list</label>\r\n\t\t\t\t\t\t\t\t<input name=\"problem10\" type=\"hidden\" value=\"No\">\r\n\t\t\t\t\t\t\t </li>\t\t \r\n\t\t\t\t\t\t\t </ul>\r\n\t\t\t\t\t\t<div class=\"checkbox\">\r\n\t\t\t\t\t\t\t<label for=\"problem11\"><input name=\"problem11\" id=\"problem11\" type=\"checkbox\" value=\"Yes\">I can't find what I'm looking for</label>\r\n\t\t\t\t\t\t\t<input name=\"problem11\" type=\"hidden\" value=\"No\">\r\n\t\t\t\t\t\t</div>\r\n\t\t\t\t\t\t<div class=\"checkbox\">\r\n\t\t\t\t\t\t\t<label for=\"problem12\"><input name=\"problem12\" id=\"problem12\" type=\"checkbox\" value=\"Yes\">Other issue not in this list</label>\r\n\t\t\t\t\t\t\t<input name=\"problem12\" type=\"hidden\" value=\"No\">\r\n\t\t\t\t\t\t</div>\t\t\t\t\t\t \t\t\t\t\t\t\t\t\t\t\t\t \r\n\t\t             </fieldset>\r\n\t\t\t\t\t <div>\r\n\t\t\t\t\t   <label for=\"aafc_ranstr\"><span id=\"fbch\"><br>Enter these characters <strong class=\"required\">(required)</strong>: </span><span id=\"ranstr\">U5S</span></label>\r\n\t\t\t           <input name=\"anti-spam-sequence\" id=\"aafc_ranstr\" size=\"4\" maxlength=\"3\" type=\"text\">\r\n\t\t\t\t\t </div>\t\r\n\r\n\t\t\t\t\t <br><input type=\"submit\" class=\"btn btn-primary\" value=\"Submit\">\r\n\t\t\t\t  </form>\r\n\t\t\t\t</div>\r\n\t\t\t</div>\t\t\t\r\n\t\t  </div>\r\n\t\t</div>\r\n\t\t</details>\r\n\t  </div>\r\n\t  <div class=\"wb-share col-sm-4 col-md-3 col-sm-offset-2 col-md-offset-4 col-lg-offset-5\" data-wb-share='{\"lnkClass\": \"btn btn-default btn-block\"}'></div>\r\n\t</div>\r\n\t<dl id=\"wb-dtmd\">\r\n\t  <dt>Date modified: </dt>\r\n\t  <dd><time property=\"dateModified\">2021-01-28</time></dd></dl></div>",
        "fr": "\r\n    \r\n    <!-- MainContentStart -->\r\n    <!-- D&eacute;but du contenu -->\r\n    <div class=\"mrgn-tp-md mrgn-bttm-lg brdr-bttm\">\n\n<div class=\"row\">\n<ul class=\"toc lst-spcd col-md-12 list-unstyled\">\n<li class=\"col-md-4 col-sm-6\"><span class=\"list-group-item active\">\u00c9tape 1. Ce qu\u2019offre ce programme</span></li>\n\n<li class=\"col-md-4 col-sm-6\"><span class=\"list-group-item\">\u00c9tape 2. <a href=\"?id=1588187049981\">Qui est admissible</a></span></li>\n\n<li class=\"col-md-4 col-sm-6 clr-lft-sm\"><span class=\"list-group-item\">\u00c9tape 3. <a href=\"?id=1588187120150\">Comment pr\u00e9senter une demande</a></span></li>\n\t\n<li class=\"col-md-4 col-sm-6 clr-lft-sm\"><span class=\"list-group-item\">\u00c9tape 4. <a href=\"?id=1588187208093\">Apr\u00e8s avoir pr\u00e9sent\u00e9 votre demande</a></span></li>\t\n\n<li class=\"col-md-4 col-sm-6\"><span class=\"list-group-item\"><a href=\"?id=1588187388374\">Guide du demandeur</a></span></li>\n\n<li class=\"col-md-4 col-sm-6\"><span class=\"list-group-item\"><a href=\"?id=1588245410631\">Pour nous joindre</a></span></li>\n</ul>\n</div>\n</div>\n\n<h2>\u00c9tape 1. Ce qu'offre le programme </h2>\n\n<div class=\"alert alert-info\">\n<h3>Remarque importante</h3>\n<p>Les demandes pour l\u2019ann\u00e9e de programme 2021 seront accept\u00e9es jusqu'\u00e0 18:00\u00a0h (HAE) le 31\u00a0mars 2021, ou jusqu\u2019\u00e0 ce que l\u2019int\u00e9gralit\u00e9 des fonds ait \u00e9t\u00e9 affect\u00e9e ou qu\u2019une annonce contraire soit publi\u00e9e dans le cadre du programme. L\u2019ann\u00e9e de programme 2021 commence le 1er\u00a0janvier 2021 et fournira du financement pour les travailleurs qui arrivent au Canada le ou apr\u00e8s le 1er\u00a0janvier 2021 et jusqu\u2019au 31\u00a0mars 2021, ou l\u2019expiration ou l\u2019abrogation de l\u2019ordonnance en vertu de <a href=\"https://laws-lois.justice.gc.ca/fra/lois/q-1.1/page-1.html\"><cite>Loi sur la mise en quarantaine</cite></a> (actuellement \u00e0 \u00e9ch\u00e9ance le 21 f\u00e9vrier 2021), selon la premi\u00e8re de ces \u00e9ventualit\u00e9s.</p>\n</div>\n\n<p>Le Programme d'aide pour l'isolement obligatoire des travailleurs \u00e9trangers temporaires (PAIOTET) est un programme unique de 84,4\u00a0millions de dollars destin\u00e9 \u00e0 att\u00e9nuer les effets de la pand\u00e9mie de COVID-19 sur l'approvisionnement alimentaire au Canada en aidant les secteurs de l'agriculture, de la p\u00eache ainsi que de la production et de la transformation des aliments. Le programme aidera les employeurs canadiens avec certains des frais suppl\u00e9mentaires li\u00e9s \u00e0 la p\u00e9riode d'isolement obligatoire de 14 jours impos\u00e9e aux travailleurs \u00e9trangers temporaires \u00e0 leur entr\u00e9e au Canada en vertu de la <a href=\"https://laws-lois.justice.gc.ca/fra/lois/q-1.1/page-1.html\"><cite>Loi sur la mise en quarantaine</cite></a>.</p>\n\n<p>Le PAIOTET fournira une contribution maximale non remboursable d'un montant de 1\u00a0500\u00a0$ pour chaque travailleur \u00e9tranger temporaire. Si un demandeur re\u00e7oit une aide d'un gouvernement provincial ou territorial pour couvrir ces frais, ou si les 1\u00a0500\u00a0$ d\u00e9passent les frais suppl\u00e9mentaires par employ\u00e9, la contribution totale pourrait \u00eatre r\u00e9duite.</p>\n\n<p>L'investissement f\u00e9d\u00e9ral d'un montant maximal de 84.4 millions de dollars sera disponible jusqu'\u00e0 \u00e9puisement complet des fonds et, tant que l'ordre pr\u00e9vu par la <a href=\"https://laws-lois.justice.gc.ca/fra/lois/q-1.1/page-1.html\"><cite>Loi sur la mise en quarantaine</cite></a> demeurera en vigueur et que le protocole d'isolement devra \u00eatre suivi.</p>\n\n<div class=\"alert alert-info\">\n<p>La \u00ab\u00a0p\u00e9riode d'isolement obligatoire de 14 jours\u00a0\u00bb dans le contexte du PAIOTET fait r\u00e9f\u00e9rence \u00e0 la p\u00e9riode de quarantaine de 14 jours impos\u00e9e aux personnes arrivant au Canada en provenance de l'\u00e9tranger en vertu de la <a href=\"https://laws-lois.justice.gc.ca/fra/lois/q-1.1/page-1.html\"><cite>Loi sur la quarantaine</cite></a>.</p>\n</div>\n\n<nav>\n  <h2 class=\"wb-inv\">Navigation du document - pr\u00e9c\u00e9dente-suivante - bas</h2>\n\n<div class=\"row\">\n<div class=\"col-md-12 mrgn-lft-0 mrgn-rght-0\">\n<ul class=\"pager\">\t\n<li class=\"next\"><a href=\"?id=1588187049981\" rel=\"next\" title=\"Qui est admissible\">Suivante</a></li>\t\n</ul>\n</div>\n</div>\n</nav>\n\r\n    <!-- Fin du contenu -->\r\n\t\r\n\t<div class=\"pagedetails\" id=\"pgft\">\r\n\t\t<div class=\"row\">\r\n\t\t  <div class=\"col-sm-6 col-md-5 col-lg-4\">\r\n\t\t    <details class=\"brdr-0\">\r\n\t\t\t<summary class=\"btn btn-default text-center\" onclick=\"getAntiSpamSeq('/fra/mail-handler/?anti-spam-sequence=true')\">Signaler un probl\u00e8me sur cette page</summary>\r\n\t\t\t<div class=\"well row\">\r\n\t\t\t  <div class=\"gc-rprt-prblm\">\r\n\t\t\t    <div class=\"gc-rprt-prblm-frm gc-rprt-prblm-tggl\">\r\n\t\t\t\t   <form id=\"report_a_problem_form\" action=\"/fra/mail-handler/\" method=\"post\">\r\n\t            \t <input type=\"hidden\" name=\"lang\" value=\"fra\">\r\n\t            \t <input type=\"hidden\" name=\"pageId\" value=\"1588186409721\">\r\n\t            \t <input type=\"hidden\" name=\"pageUrl\" value=\"http://www.agr.gc.ca/fra/programmes-et-services-agricoles/programme-daide-pour-lisolement-obligatoire-des-travailleurs-etrangers-temporaires/?id=1588186409721\">\r\n\t\t\t\t\t <div id=\"report_a_problem_form_error\"></div>\r\n\t\t             <fieldset>\t\t\t\t\t    \r\n\t\t                <legend><span class=\"field-name\">Veuillez cocher toutes les r\u00e9ponses pertinentes\u00a0:</span></legend>\r\n\t\t                 <div class=\"checkbox\">\r\n\t\t                    <label for=\"problem1\"><input name=\"problem1\" id=\"problem1\" type=\"checkbox\" value=\"Yes\">Un lien, un bouton ou une vid\u00e9o ne fonctionne pas</label>\r\n\t\t                    <input name=\"problem1\" type=\"hidden\" value=\"No\">\r\n\t\t                </div>\r\n\t\t                <div class=\"checkbox\">\r\n\t\t                    <label for=\"problem2\"><input name=\"problem2\" id=\"problem2\" type=\"checkbox\" value=\"Yes\">Il y a une erreur d'orthographe ou de grammaire</label>\r\n\t\t                    <input name=\"problem2\" type=\"hidden\" value=\"No\">\r\n\t\t                </div>\r\n\t\t   \t\t\t\t <div class=\"checkbox\">\r\n\t\t                    <label for=\"problem3\"><input name=\"problem3\" id=\"problem3\" type=\"checkbox\" value=\"Yes\">Les renseignements sont incomplets</label>\r\n\t\t                    <input name=\"problem3\" type=\"hidden\" value=\"No\">\r\n\t\t                </div>\r\n\t\t             \t\t<div class=\"checkbox\">\r\n\t\t                    <label for=\"problem4\"><input name=\"problem4\" id=\"problem4\" type=\"checkbox\" value=\"Yes\">L'information n'est plus \u00e0 jour ou est erron\u00e9e</label>\r\n\t\t                    <input name=\"problem4\" type=\"hidden\" value=\"No\">\r\n\t\t                </div>\t\t\t\t\t\t\r\n\t\t\t\t\t\t<div class=\"checkbox\">\r\n\t\t\t\t\t\t\t<label for=\"problem5\"><input name=\"problem5\" id=\"problem5\" type=\"checkbox\" value=\"Yes\">Message d'erreur \u00e0 l'ouverture de la session lorsque je tente d'acc\u00e9der \u00e0 un compte (ex. Mon dossier Service Canada)</label>\r\n\t\t\t\t\t\t\t<input name=\"problem5\" type=\"hidden\" value=\"No\">\r\n\t\t\t\t\t\t</div>\r\n\t\t\t\t\t\t\t<ul>\r\n\t\t\t\t\t\t\t<li class=\"checkbox\">\r\n\t\t\t\t\t\t\t\t<label for=\"problem6a\"><input name=\"problem6\" id=\"problem6a\" type=\"checkbox\" value=\"Yes\">Acc\u00e8s Cl\u00e9GC</label>\r\n\t\t\t\t\t\t\t\t<input name=\"problem6\" type=\"hidden\" value=\"No\">\r\n\t\t\t\t\t\t\t </li>\r\n\t\t\t\t\t\t\t<li class=\"checkbox\">\r\n\t\t\t\t\t\t\t\t<label for=\"problem7\"><input name=\"problem7\" id=\"problem7\" type=\"checkbox\" value=\"Yes\">Acc\u00e8s SecureKey Service de Concierge (justificatifs d'identit\u00e9 bancaires)</label>\r\n\t\t\t\t\t\t\t\t<input name=\"problem7\" type=\"hidden\" value=\"No\">\r\n\t\t\t\t\t\t\t </li>\r\n\t\t\t\t\t\t\t<li class=\"checkbox\">\r\n\t\t\t\t\t\t\t\t<label for=\"problem8\"><input name=\"problem8\" id=\"problem8\" type=\"checkbox\" value=\"Yes\">Probl\u00e8me avec le Code d'acc\u00e8s personnel (CAP) ou avec le Code d'acc\u00e8s (CA) de l'assurance emploi</label>\r\n\t\t\t\t\t\t\t\t<input name=\"problem8\" type=\"hidden\" value=\"No\">\r\n\t\t\t\t\t\t\t </li>\t\r\n\t\t\t\t\t\t\t<li class=\"checkbox\">\r\n\t\t\t\t\t\t\t\t<label for=\"problem9\"><input name=\"problem9\" id=\"problem9\" type=\"checkbox\" value=\"Yes\">Probl\u00e8me li\u00e9 \u00e0 la validation du num\u00e9ro d'assurance sociale (NAS)</label>\r\n\t\t\t\t\t\t\t\t<input name=\"problem9\" type=\"hidden\" value=\"No\">\r\n\t\t\t\t\t\t\t </li>\t\t\t\t\t\t\t\t\r\n\t\t\t\t\t\t\t<li class=\"checkbox\">\r\n\t\t\t\t\t\t\t\t<label for=\"problem10\"><input name=\"problem10\" id=\"problem10\" type=\"checkbox\" value=\"Yes\">Autre erreur lors de l'ouverture de session qui ne figure pas sur cette liste</label>\r\n\t\t\t\t\t\t\t\t<input name=\"problem10\" type=\"hidden\" value=\"No\">\r\n\t\t\t\t\t\t\t </li>\t\t \r\n\t\t\t\t\t\t\t </ul>\r\n\t\t\t\t\t\t<div class=\"checkbox\">\r\n\t\t\t\t\t\t\t<label for=\"problem11\"><input name=\"problem11\" id=\"problem11\" type=\"checkbox\" value=\"Yes\">Je n'arrive pas \u00e0 trouver ce que je cherche</label>\r\n\t\t\t\t\t\t\t<input name=\"problem11\" type=\"hidden\" value=\"No\">\r\n\t\t\t\t\t\t</div>\r\n\t\t\t\t\t\t<div class=\"checkbox\">\r\n\t\t\t\t\t\t\t<label for=\"problem12\"><input name=\"problem12\" id=\"problem12\" type=\"checkbox\" value=\"Yes\">Autre probl\u00e8me qui ne figure pas sur cette liste</label>\r\n\t\t\t\t\t\t\t<input name=\"problem12\" type=\"hidden\" value=\"No\">\r\n\t\t\t\t\t\t</div>\t\t\t\t\t\t\t\t\t\t\t\t\t\t\t\t\t\t\t\r\n\t\t             </fieldset>\r\n\t\t\t\t\t <div>\r\n\t\t\t\t        <label for=\"aafc_ranstr\"><span id=\"fbch\">Veuillez inscrire les caract\u00e8res suivants  <strong class=\"required\">(obligatoire)</strong>\u00a0: </span><span id=\"ranstr\">XXX</span></label>\r\n\t\t\t            <input name=\"anti-spam-sequence\" id=\"aafc_ranstr\" size=\"4\" maxlength=\"3\" type=\"text\">\r\n\t\t\t\t\t </div>\r\n\t\t\t\t\t <input type=\"submit\" class=\"btn btn-primary\" value=\"Soumettre\">\r\n\t\t\t\t  </form>\r\n\t\t\t\t</div>\r\n\t\t\t  </div>\r\n\t\t\t</div>\r\n\t\t</details>\r\n\t    </div>\r\n\t  <div class=\"wb-share col-sm-4 col-md-3 col-sm-offset-2 col-md-offset-4 col-lg-offset-5\" data-wb-share='{\"lnkClass\": \"btn btn-default btn-block\"}'></div>\r\n\t  </div>\r\n\t  <dl id=\"wb-dtmd\">\r\n\t    <dt>Date de modification\u00a0: </dt>\r\n\t      <dd><time property=\"dateModified\">2021-01-28</time></dd>\r\n\t  </dl>\r\n\t</div>\r\n\t\r\n  "
    }
}