{
    "dcr_id": "1517934809058",
    "lang": "en",
    "type_name": "intra-intra/news-nouv",
    "approvalsadvisor": "Janet.dowell@agr.gc.ca",
    "approvalsdirector": "Fred.gorrell@agr.gc.ca",
    "submitername": "Augustus Reeves",
    "submiteremail": "augustus.reeves@agr.gc.ca",
    "submiterphoneNumber": "613-263-4176",
    "issued": "2018-02-08",
    "translateReqNumber": "null"
}