{
    "dcr_id": "1522261415820",
    "lang": "en",
    "type_name": "intra-intra/news-nouv",
    "approvalsadvisor": "janet.dowell@agr.gc.ca",
    "approvalsdirector": "jane.taylor@agr.gc.ca",
    "submitername": "Yi Liang",
    "submiteremail": "yi.liang@canada.ca",
    "submiterphoneNumber": "613-773-1777",
    "issued": "2018-04-03",
    "translateReqNumber": "null"
}