{
    "dcr_id": "1525882997082",
    "lang": "en",
    "type_name": "intra-intra/news-nouv",
    "approvalsadvisor": "ricky.lee@canada.ca",
    "approvalsdirector": "brian.gray@agr.gc.ca",
    "submitername": "Heather Mousseau",
    "submiteremail": "heather.mousseau@canada.ca",
    "submiterphoneNumber": "613-773-1763",
    "issued": "2018-05-10",
    "translateReqNumber": "n/a"
}