{
    "dcr_id": "1527690548239",
    "lang": "en",
    "type_name": "intra-intra/news-nouv",
    "approvalsadvisor": "ricky.lee@canada.ca",
    "approvalsdirector": "pierre.corriveau@agr.gc.ca",
    "submitername": "Danitsa Lauder",
    "submiteremail": "danitsa.lauder2@canada.ca",
    "submiterphoneNumber": "613-773-1837",
    "issued": "2018-05-31",
    "translateReqNumber": "n/a"
}