{
    "dcr_id": "1530647098811",
    "lang": "en",
    "type_name": "intra-intra/news-nouv",
    "approvalsadvisor": "natalie.ekholm@canada.ca",
    "approvalsdirector": "anne.lacombe@agr.gc.ca",
    "submitername": "Jennifer",
    "submiteremail": "jennifer.mclaurin@agr.gc.ca",
    "submiterphoneNumber": "613-773-0214",
    "issued": "2018-07-04",
    "translateReqNumber": "Not applicable"
}