{
    "dcr_id": "1530295940910",
    "lang": "en",
    "type_name": "intra-intra/news-nouv",
    "approvalsadvisor": "stela.susic@canada.ca",
    "approvalsdirector": "ling.lee@agr.gc.ca",
    "submitername": "Katherine Clubine",
    "submiteremail": "katherine.clubine@canada.ca",
    "submiterphoneNumber": "613-733-0869",
    "issued": "2018-07-05",
    "translateReqNumber": "180627-8"
}