{
    "dcr_id": "1535386356243",
    "lang": "en",
    "type_name": "intra-intra/news-nouv",
    "approvalsadvisor": "jeff.wright@canada.ca",
    "approvalsdirector": "michel.lessard@canada.ca",
    "submitername": "Chelsey Gerrard",
    "submiteremail": "chelsey.gerrard@canada.ca",
    "submiterphoneNumber": "613-773-0573",
    "issued": "2018-08-30",
    "translateReqNumber": "AAFC-1808-808"
}