{
    "dcr_id": "1537367594475",
    "lang": "en",
    "type_name": "intra-intra/news-nouv",
    "approvalsadvisor": "Nina.hamad@canada.ca",
    "approvalsdirector": "Ling.lee@canada.ca",
    "submitername": "Seana Collins",
    "submiteremail": "seana.collins@agr.gc.ca",
    "submiterphoneNumber": "902-365-8466",
    "issued": "2018-09-27",
    "translateReqNumber": "AAFC 180917-25"
}