{
    "dcr_id": "1537976493137",
    "lang": "en",
    "type_name": "intra-intra/news-nouv",
    "approvalsadvisor": "samer.younes@canada.ca",
    "approvalsdirector": "bernard.cantin@canada.ca",
    "submitername": "Samer Younes",
    "submiteremail": "samer.younes@canada.ca",
    "submiterphoneNumber": "613-773-0774",
    "issued": "2018-09-27",
    "translateReqNumber": "180920-36"
}