{
    "dcr_id": "1537276264698",
    "lang": "en",
    "type_name": "intra-intra/news-nouv",
    "approvalsadvisor": "Ricky.Lee@canada.ca",
    "approvalsdirector": "Andrew.Goldstein@canada.ca",
    "submitername": "Kellie McNicoll",
    "submiteremail": "kellie.mcnicoll@canada.ca",
    "submiterphoneNumber": "613-773-3487",
    "issued": "2018-09-19",
    "translateReqNumber": "AAFC-180913-18 "
}