{
    "dcr_id": "1538506735434",
    "lang": "en",
    "type_name": "intra-intra/news-nouv",
    "approvalsadvisor": "natalie.ekholm@canada.ca",
    "approvalsdirector": "lyndsay.rajaram@canada.ca",
    "submitername": "Chelsey Gerrard",
    "submiteremail": "chelsey.gerrard@canada.ca",
    "submiterphoneNumber": "613-773-0573",
    "issued": "2018-10-04",
    "translateReqNumber": "181001-39"
}