{
    "dcr_id": "1542125016299",
    "lang": "en",
    "type_name": "intra-intra/news-nouv",
    "approvalsadvisor": "stefan.bussmann@canada.ca",
    "approvalsdirector": "marcos.alvarez@canada.ca",
    "submitername": "Kathryn Makela",
    "submiteremail": "kathryn.makela@canada.ca",
    "submiterphoneNumber": "613-759-7182",
    "issued": "2018-11-15",
    "translateReqNumber": "181113-34"
}