{
    "dcr_id": "1545315662929",
    "lang": "en",
    "type_name": "intra-intra/news-nouv",
    "approvalsadvisor": "nina.hamad@canada.ca",
    "approvalsdirector": "nina.hamad@canada.ca",
    "submitername": "justine walker",
    "submiteremail": "justine.walker2@canada.ca",
    "submiterphoneNumber": "613-773-0443",
    "issued": "2018-12-19",
    "translateReqNumber": "n/a"
}