{
    "dcr_id": "1545145499662",
    "lang": "en",
    "type_name": "intra-intra/news-nouv",
    "approvalsadvisor": "nina.hamad@canada.ca",
    "approvalsdirector": "nina.hamad@canada.ca",
    "submitername": "justine walker",
    "submiteremail": "justine.walker2@canada.ca",
    "submiterphoneNumber": "613-773-0443",
    "issued": "2018-12-17",
    "translateReqNumber": "n/a"
}