{
    "dcr_id": "1550684491943",
    "lang": "en",
    "type_name": "intra-intra/news-nouv",
    "approvalsadvisor": "joy.moskovic@canada.ca",
    "approvalsdirector": "Daniel.Champoux@agr.gc.ca",
    "submitername": "Monica Richard",
    "submiteremail": "Monica.Richard@canada.ca",
    "submiterphoneNumber": "613-773-2629",
    "issued": "2019-02-28",
    "translateReqNumber": "AAFC-190220-8"
}