{
    "dcr_id": "1553275817985",
    "lang": "en",
    "type_name": "intra-intra/news-nouv",
    "approvalsadvisor": "irina.andritoiu@canada.ca",
    "approvalsdirector": "andrew.goldstein@canada.ca",
    "submitername": "Nicole Lefebvre",
    "submiteremail": "nicole.lefebvre@canada.ca",
    "submiterphoneNumber": "613-773-3623",
    "issued": "2019-03-28",
    "translateReqNumber": "190320-28"
}