{
    "dcr_id": "1554814593900",
    "lang": "en",
    "type_name": "intra-intra/news-nouv",
    "approvalsadvisor": "kathleen.kelly@canada.ca",
    "approvalsdirector": "scott.aughey@canada.ca",
    "submitername": "Kathleen Kelly",
    "submiteremail": "kathleen.kelly@canada.ca",
    "submiterphoneNumber": "613-850-6221",
    "issued": "2019-04-11",
    "translateReqNumber": "190404-21"
}