{
    "dcr_id": "1556300569752",
    "lang": "en",
    "type_name": "intra-intra/news-nouv",
    "approvalsadvisor": "nancy.macdonald@canada.ca",
    "approvalsdirector": "nancy.gardner@canada.ca",
    "submitername": "Kasia Kaluzny",
    "submiteremail": "kasia.kaluzny@canada.ca",
    "submiterphoneNumber": "613-914-0415",
    "issued": "2019-04-29",
    "translateReqNumber": "AAFC-190417-37"
}