{
    "dcr_id": "1557768808047",
    "lang": "en",
    "type_name": "intra-intra/news-nouv",
    "approvalsadvisor": "melinda.buijs@canada.ca",
    "approvalsdirector": "sonia.forget@canada.ca",
    "submitername": "Melinda Buijs",
    "submiteremail": "melinda.buijs@canada.ca",
    "submiterphoneNumber": "613-773-0728",
    "issued": "2019-05-16",
    "translateReqNumber": "AAFC-190508-33"
}