{
    "dcr_id": "1565624006686",
    "lang": "en",
    "type_name": "intra-intra/news-nouv",
    "approvalsadvisor": "natalie.ekholm@canada.ca",
    "approvalsdirector": "lesleigh.smith@canada.ca",
    "submitername": "Bruce",
    "submiteremail": "bruce.radburn@canada.ca",
    "submiterphoneNumber": "613-795-3261",
    "issued": "2019-08-14",
    "translateReqNumber": "190806-8"
}