{
    "dcr_id": "1565108217522",
    "lang": "en",
    "type_name": "intra-intra/news-nouv",
    "approvalsadvisor": "andrea.cameron@canada.ca",
    "approvalsdirector": "emily.mcauley@canada.ca",
    "submitername": "Orlando Blacksmith",
    "submiteremail": "orlando.blacksmith@canada.ca",
    "submiterphoneNumber": "613-773-2690",
    "issued": "2019-08-08",
    "translateReqNumber": "AAFC-190801-6"
}