{
    "dcr_id": "1569240667537",
    "lang": "en",
    "type_name": "intra-intra/news-nouv",
    "approvalsadvisor": "justine.walker2@canada.ca",
    "approvalsdirector": "karen.durnford-mcintosh@canada.ca",
    "submitername": "Guy Marier",
    "submiteremail": "guy.marier@canada.ca",
    "submiterphoneNumber": "613-773-0841",
    "issued": "2019-10-03",
    "translateReqNumber": "190920-5"
}