{
    "dcr_id": "1569335585066",
    "lang": "en",
    "type_name": "intra-intra/news-nouv",
    "approvalsadvisor": "joy.moskovic@canada.ca",
    "approvalsdirector": "anne.lacombe@canada.ca",
    "submitername": "Joy",
    "submiteremail": "joy.moskovic@canada.ca",
    "submiterphoneNumber": "613-773-1407",
    "issued": "2019-09-24",
    "translateReqNumber": " AAFC-190923-27"
}