{
    "dcr_id": "1570045408941",
    "lang": "en",
    "type_name": "intra-intra/news-nouv",
    "approvalsadvisor": "christine.doyle4@canada.ca",
    "approvalsdirector": "jennifer.higginson@canada.ca",
    "submitername": "Christine Doyle",
    "submiteremail": "christine.doyle4@canada.ca",
    "submiterphoneNumber": "613-773-0327",
    "issued": "2019-10-03",
    "translateReqNumber": "AAFC-191001-23"
}