{
    "dcr_id": "1570550332978",
    "lang": "en",
    "type_name": "intra-intra/news-nouv",
    "approvalsadvisor": "Andrea.Cameron@agr.gc.ca",
    "approvalsdirector": "Lorraine.Burnett@canada.ca",
    "submitername": "Paul Aubin",
    "submiteremail": "Paul.Aubin@agr.gc.ca",
    "submiterphoneNumber": "613-773-2147",
    "issued": "2019-10-10",
    "translateReqNumber": "AAFC-190930-27"
}