{
    "dcr_id": "1572969690182",
    "lang": "en",
    "type_name": "intra-intra/news-nouv",
    "approvalsadvisor": "natalie.ekholm@canada.ca",
    "approvalsdirector": "daryl.nearing@canada.ca",
    "submitername": "Lesleigh Smith",
    "submiteremail": "lesleigh.smith@canada.ca",
    "submiterphoneNumber": "613-773-2885",
    "issued": "2019-11-07",
    "translateReqNumber": "AAFC191101-18"
}