{
    "dcr_id": "1575490641305",
    "lang": "en",
    "type_name": "intra-intra/news-nouv",
    "approvalsadvisor": "amy.lin@canada.ca",
    "approvalsdirector": "michael.whittaker@canada.ca",
    "submitername": "Amy Lin",
    "submiteremail": "amy.lin@canada.ca",
    "submiterphoneNumber": "613-773-2785",
    "issued": "2019-12-05",
    "translateReqNumber": "AAFC-191127-6"
}