{
    "dcr_id": "1576594586325",
    "lang": "en",
    "type_name": "intra-intra/news-nouv",
    "approvalsadvisor": "julie.plamondon@canada.ca",
    "approvalsdirector": "sonia.forget@canada.ca",
    "submitername": "Julie Plamondon",
    "submiteremail": "julie.plamondon@canada.ca",
    "submiterphoneNumber": "613-773-0818",
    "issued": "2019-12-19",
    "translateReqNumber": "123456"
}