{
    "dcr_id": "1578503019599",
    "lang": "en",
    "type_name": "intra-intra/news-nouv",
    "approvalsadvisor": "randi.saunders@canada.ca",
    "approvalsdirector": "scott.aughey@canada.ca",
    "submitername": "Randi Saunders",
    "submiteremail": "randi.saunders@canada.ca",
    "submiterphoneNumber": "613-773-2625",
    "issued": "2020-01-08",
    "translateReqNumber": "na"
}