{
    "dcr_id": "1580301844084",
    "lang": "en",
    "type_name": "intra-intra/news-nouv",
    "approvalsadvisor": "amy.lin@canada.ca",
    "approvalsdirector": "nathalie.leblanc@canada.ca",
    "submitername": "Erica LeBlanc",
    "submiteremail": "erica.leblanc2@canada.ca",
    "submiterphoneNumber": "506-777-6076",
    "issued": "2020-01-29",
    "translateReqNumber": "AAFC-200120-20"
}