{
    "dcr_id": "1581433752046",
    "lang": "en",
    "type_name": "intra-intra/news-nouv",
    "approvalsadvisor": "amy.lin@canada.ca",
    "approvalsdirector": "paula.wilson@canada.ca",
    "submitername": "Augustus Reeves",
    "submiteremail": "augustus.reeves@canada.ca",
    "submiterphoneNumber": "613-773-2004",
    "issued": "2020-02-13",
    "translateReqNumber": "AAFC-200207-11"
}