{
    "dcr_id": "1582556945440",
    "lang": "en",
    "type_name": "intra-intra/news-nouv",
    "approvalsadvisor": "stela.susic@canada.ca",
    "approvalsdirector": "Jacint.boucher@canada.ca",
    "submitername": "Carey Born",
    "submiteremail": "carey.born@canada.ca",
    "submiterphoneNumber": "613-773-0107",
    "issued": "2020-02-27",
    "translateReqNumber": "AAFC-200219-3"
}