{
    "dcr_id": "1583940674323",
    "lang": "en",
    "type_name": "intra-intra/news-nouv",
    "approvalsadvisor": "stela.susic@canada.ca",
    "approvalsdirector": "craig.murphy@canada.ca",
    "submitername": "Annie Crook",
    "submiteremail": "annie.crook@canada.ca",
    "submiterphoneNumber": "613-773-0453",
    "issued": "2020-03-11",
    "translateReqNumber": "AAFC-200311-4"
}