{
    "dcr_id": "1603215883768",
    "lang": "en",
    "type_name": "intra-intra/news-nouv",
    "approvalsadvisor": "julie.plamondon@canada.ca",
    "approvalsdirector": "jane.taylor@canada.ca",
    "submitername": "Julie Plamondon",
    "submiteremail": "julie.plamondon@canada.ca",
    "submiterphoneNumber": "613-890-4864",
    "issued": "2020-10-20",
    "translateReqNumber": "01234"
}