{
    "dcr_id": "1170085161178",
    "title": {
        "en": "Terms of Reference",
        "fr": "Mandat"
    },
    "modified": "2019-09-17",
    "issued": "2009-01-23",
    "templatetype": "content page 1 column",
    "page_type": "0",
    "node_id": "1365610535731",
    "dc_date_created": "2009-01-23",
    "managing_branch": "PAB",
    "parent_node_id": "",
    "label": {
        "en": "Terms of Reference",
        "fr": "Mandat"
    },
    "exturl": "",
    "teamsite_location": {
        "en": "/default/main/AAFC-AAC/Internet-Internet/Common-Commun/WORKAREA/Common-Commun/templatedata/comm-comm/gene-gene/data/01/cef_terms-termes_1170085161178_en",
        "fr": "/default/main/AAFC-AAC/Internet-Internet/Common-Commun/WORKAREA/Common-Commun/templatedata/comm-comm/gene-gene/data/01/cef_terms-termes_1170085161178_fr"
    },
    "type_name": "comm-comm/gene-gene",
    "has_dcr_id": true,
    "breadcrumb": {
        "en": "Terms of Reference",
        "fr": "Mandat"
    },
    "layout_name": "content page 1 column",
    "lang": "en"
}