{
    "dcr_id": "1170692543567",
    "title": {
        "en": "Central Experimental Farm National Historic Site Management Plan (20 of 20)",
        "fr": "Plan directeur du lieu historique national de la Ferme expérimentale centrale (20 de 20)"
    },
    "modified": "2019-09-17",
    "issued": "2009-01-22",
    "templatetype": "content page 1 column",
    "page_type": "0",
    "node_id": "1365611371966",
    "dc_date_created": "2009-01-22",
    "managing_branch": "PAB",
    "parent_node_id": "",
    "label": {
        "en": "Central Experimental Farm National Historic Site Management Plan (20 of 20)",
        "fr": "Plan directeur du lieu historique national de la Ferme expérimentale centrale (20 de 20)"
    },
    "exturl": "",
    "teamsite_location": {
        "en": "/default/main/AAFC-AAC/Internet-Internet/Common-Commun/WORKAREA/Common-Commun/templatedata/comm-comm/gene-gene/data/02/cef_plan19_1170692543567_en",
        "fr": "/default/main/AAFC-AAC/Internet-Internet/Common-Commun/WORKAREA/Common-Commun/templatedata/comm-comm/gene-gene/data/02/cef_plan19_1170692543567_fr"
    },
    "type_name": "comm-comm/gene-gene",
    "has_dcr_id": true,
    "breadcrumb": {
        "en": "Central Experimental Farm National Historic Site Management Plan (20 of 20)",
        "fr": "Plan directeur du lieu historique national de la Ferme expérimentale centrale (20 de 20)"
    },
    "layout_name": "content page 1 column",
    "lang": "en"
}