{
    "dcr_id": "1198101468695",
    "title": {
        "en": "Black Knot of Plum and Cherry",
        "fr": "Nodule noir du prunier et du cerisier"
    },
    "modified": "2014-06-10",
    "issued": "2009-02-24",
    "templatetype": "content page 1 column",
    "page_type": "0",
    "node_id": "1354137773743",
    "dc_date_created": "2009-02-24",
    "managing_branch": "PAB",
    "parent_node_id": "",
    "label": {
        "en": "Black Knot of Plum and Cherry",
        "fr": "Nodule noir du prunier et du cerisier"
    },
    "exturl": "",
    "teamsite_location": {
        "en": "/default/main/AAFC-AAC/Internet-Internet/Common-Commun/WORKAREA/Common-Commun/templatedata/comm-comm/gene-gene/data/12/pfra_org_blackknot_1198101468695_en",
        "fr": "/default/main/AAFC-AAC/Internet-Internet/Common-Commun/WORKAREA/Common-Commun/templatedata/comm-comm/gene-gene/data/12/pfra_org_blackknot_1198101468695_fr"
    },
    "type_name": "comm-comm/gene-gene",
    "has_dcr_id": true,
    "breadcrumb": {
        "en": "Black Knot of Plum and Cherry",
        "fr": "Nodule noir du prunier et du cerisier"
    },
    "layout_name": "content page 1 column",
    "lang": "en"
}