{
    "dcr_id": "1231423632566",
    "title": {
        "en": "Internal audit and evaluation",
        "fr": "Audit interne et évaluation"
    },
    "modified": "2020-04-30",
    "issued": "2009-01-20",
    "templatetype": "content page 1 column",
    "page_type": "0",
    "node_id": "1587496160123",
    "dc_date_created": "2009-01-20",
    "managing_branch": "PAB",
    "parent_node_id": "",
    "label": {
        "en": "Internal audit and evaluation",
        "fr": "Audit interne et évaluation"
    },
    "exturl": "",
    "teamsite_location": {
        "en": "/default/main/AAFC-AAC/Internet-Internet/Common-Commun/WORKAREA/Common-Commun/templatedata/comm-comm/gene-gene/data/01/oae-bve_wel-bien_1231423632566_en",
        "fr": "/default/main/AAFC-AAC/Internet-Internet/Common-Commun/WORKAREA/Common-Commun/templatedata/comm-comm/gene-gene/data/01/oae-bve_wel-bien_1231423632566_fr"
    },
    "type_name": "comm-comm/gene-gene",
    "has_dcr_id": true,
    "breadcrumb": {
        "en": "Internal audit and evaluation",
        "fr": "Audit interne et évaluation"
    },
    "layout_name": "content page 1 column",
    "lang": "en"
}