{
    "dcr_id": "1255113554746",
    "title": {
        "en": "Fast Track Staffing Self Service Web-Enabled Information Portal",
        "fr": "Dotation accélérée - Portail d'information libre-service sur le Web"
    },
    "modified": "2009-10-27",
    "issued": "2009-10-27",
    "templatetype": "content page 1 column",
    "page_type": "0",
    "node_id": "1354137773675",
    "dc_date_created": "2009-10-27",
    "managing_branch": "PAB",
    "parent_node_id": "",
    "label": {
        "en": "Fast Track Staffing Self Service Web-Enabled Information Portal",
        "fr": "Dotation accélérée - Portail d'information libre-service sur le Web"
    },
    "exturl": "",
    "teamsite_location": {
        "en": "/default/main/AAFC-AAC/Internet-Internet/Common-Commun/WORKAREA/Common-Commun/templatedata/comm-comm/gene-gene/data/10/proact_pia_summary_1255113554746_en",
        "fr": "/default/main/AAFC-AAC/Internet-Internet/Common-Commun/WORKAREA/Common-Commun/templatedata/comm-comm/gene-gene/data/10/proact_pia_summary_1255113554746_fr"
    },
    "type_name": "comm-comm/gene-gene",
    "has_dcr_id": true,
    "breadcrumb": {
        "en": "Fast Track Staffing Self Service Web-Enabled Information Portal",
        "fr": "Dotation accélérée - Portail d'information libre-service sur le Web"
    },
    "layout_name": "content page 1 column",
    "lang": "en"
}