{
    "dcr_id": "1296842751916",
    "title": {
        "en": "Office of Intellectual Property and Commercialization",
        "fr": "Bureau de la propriété intellectuelle et de la commercialisation"
    },
    "modified": "2020-01-31",
    "issued": "2017-01-18",
    "templatetype": "content page 1 column",
    "page_type": "0",
    "node_id": "1354137774014",
    "dc_date_created": "2017-01-18",
    "managing_branch": "PAB",
    "parent_node_id": "",
    "label": {
        "en": "Office of Intellectual Property and Commercialization",
        "fr": "Bureau de la propriété intellectuelle et de la commercialisation"
    },
    "exturl": "",
    "teamsite_location": {
        "en": "/default/main/AAFC-AAC/Internet-Internet/Group-Ensemble/ProgServ-ProgServ/WORKAREA/ProgServ-ProgServ/templatedata/comm-comm/gene-gene/data/01/oipc_1296842751916_en",
        "fr": "/default/main/AAFC-AAC/Internet-Internet/Group-Ensemble/ProgServ-ProgServ/WORKAREA/ProgServ-ProgServ/templatedata/comm-comm/gene-gene/data/01/oipc_1296842751916_fr"
    },
    "type_name": "comm-comm/gene-gene",
    "has_dcr_id": true,
    "breadcrumb": {
        "en": "Office of Intellectual Property and Commercialization",
        "fr": "Bureau de la propriété intellectuelle et de la commercialisation"
    },
    "layout_name": "content page 1 column",
    "lang": "en"
}