{
    "dcr_id": "1298907155271",
    "title": {
        "en": "Notice of Request for Proposals - New Varieties in 2019",
        "fr": "Avis de demande de propositions - Nouvelles variétés en 2019"
    },
    "modified": "2018-12-19",
    "issued": "2011-02-28",
    "templatetype": "content page 1 column",
    "page_type": "0",
    "node_id": "1366840528888",
    "dc_date_created": "2011-02-28",
    "managing_branch": "PAB",
    "parent_node_id": "",
    "label": {
        "en": "Notice of Request for Proposals - New Varieties in 2019",
        "fr": "Avis de demande de propositions - Nouvelles variétés en 2019"
    },
    "exturl": "",
    "teamsite_location": {
        "en": "/default/main/AAFC-AAC/Internet-Internet/Common-Commun/WORKAREA/Common-Commun/templatedata/comm-comm/gene-gene/data/02/variety_request_description_2011_1298907155271_en",
        "fr": "/default/main/AAFC-AAC/Internet-Internet/Common-Commun/WORKAREA/Common-Commun/templatedata/comm-comm/gene-gene/data/02/variety_request_description_2011_1298907155271_fr"
    },
    "type_name": "comm-comm/gene-gene",
    "has_dcr_id": true,
    "breadcrumb": {
        "en": "Notice of Request for Proposals - New Varieties in 2019",
        "fr": "Avis de demande de propositions - Nouvelles variétés en 2019"
    },
    "layout_name": "content page 1 column",
    "lang": "en"
}