{
    "dcr_id": "1345840327877",
    "title": {
        "en": "Hybrid Poplar",
        "fr": "Peuplier hybride"
    },
    "modified": "2020-08-04",
    "issued": "2012-10-30",
    "templatetype": "content page 1 column",
    "page_type": "0",
    "node_id": "1369771907468",
    "dc_date_created": "2012-10-30",
    "managing_branch": "PAB",
    "parent_node_id": "",
    "label": {
        "en": "Hybrid Poplar",
        "fr": "Peuplier hybride"
    },
    "exturl": "",
    "teamsite_location": {
        "en": "/default/main/AAFC-AAC/Internet-Internet/Common-Commun/WORKAREA/Common-Commun/templatedata/comm-comm/gene-gene/data/08/agrofor_hypoplar_1345840327877_en",
        "fr": "/default/main/AAFC-AAC/Internet-Internet/Common-Commun/WORKAREA/Common-Commun/templatedata/comm-comm/gene-gene/data/08/agrofor_hypoplar_1345840327877_fr"
    },
    "type_name": "comm-comm/gene-gene",
    "has_dcr_id": true,
    "breadcrumb": {
        "en": "Hybrid Poplar",
        "fr": "Peuplier hybride"
    },
    "layout_name": "content page 1 column",
    "lang": "en"
}