{
    "dcr_id": "1347981109268",
    "title": {
        "en": "Frequently Asked Questions – Revised Draft Policy on the Management of Low-Level Presence of Genetically Modified Crops",
        "fr": "Foire aux questions – Ébauche de politique révisée sur la gestion de la présence en faible concentration de cultures génétiquement modifiées"
    },
    "modified": "2015-08-11",
    "issued": "2012-11-06",
    "templatetype": "content page 1 column",
    "page_type": "0",
    "node_id": "1354137773675",
    "dc_date_created": "2012-11-06",
    "managing_branch": "PAB",
    "parent_node_id": "",
    "label": {
        "en": "Frequently Asked Questions – Revised Draft Policy on the Management of Low-Level Presence of Genetically Modified Crops",
        "fr": "Foire aux questions – Ébauche de politique révisée sur la gestion de la présence en faible concentration de cultures génétiquement modifiées"
    },
    "exturl": "",
    "teamsite_location": {
        "en": "/default/main/AAFC-AAC/Internet-Internet/Common-Commun/WORKAREA/Common-Commun/templatedata/comm-comm/gene-gene/data/09/faq_llp_pfq_1347981109268_en",
        "fr": "/default/main/AAFC-AAC/Internet-Internet/Common-Commun/WORKAREA/Common-Commun/templatedata/comm-comm/gene-gene/data/09/faq_llp_pfq_1347981109268_fr"
    },
    "type_name": "comm-comm/gene-gene",
    "has_dcr_id": true,
    "breadcrumb": {
        "en": "Frequently Asked Questions – Revised Draft Policy on the Management of Low-Level Presence of Genetically Modified Crops",
        "fr": "Foire aux questions – Ébauche de politique révisée sur la gestion de la présence en faible concentration de cultures génétiquement modifiées"
    },
    "layout_name": "content page 1 column",
    "lang": "en"
}