{
    "dcr_id": "1367259032148",
    "title": {
        "en": "Gray Willow Leaf Beetle",
        "fr": "Galéruque grise du saule"
    },
    "modified": "2020-01-24",
    "issued": "2014-06-10",
    "templatetype": "content page 1 column",
    "page_type": "0",
    "node_id": "1354137773743",
    "dc_date_created": "2014-06-10",
    "managing_branch": "PAB",
    "parent_node_id": "",
    "label": {
        "en": "Gray Willow Leaf Beetle",
        "fr": "Galéruque grise du saule"
    },
    "exturl": "",
    "teamsite_location": {
        "en": "/default/main/AAFC-AAC/Internet-Internet/Common-Commun/WORKAREA/Common-Commun/templatedata/comm-comm/gene-gene/data/04/gwlb-ggs_1367259032148_en",
        "fr": "/default/main/AAFC-AAC/Internet-Internet/Common-Commun/WORKAREA/Common-Commun/templatedata/comm-comm/gene-gene/data/04/gwlb-ggs_1367259032148_fr"
    },
    "type_name": "comm-comm/gene-gene",
    "has_dcr_id": true,
    "breadcrumb": {
        "en": "Gray Willow Leaf Beetle",
        "fr": "Galéruque grise du saule"
    },
    "layout_name": "content page 1 column",
    "lang": "en"
}