{
    "dcr_id": "1370034437351",
    "title": {
        "en": "Canadian Agricultural Loans Act program: Report of Claim for Loss (Schedule 4)",
        "fr": "Programme de la Loi canadienne sur les prêts agricoles : Demande d'indemnisation pour perte (Annexe 4)"
    },
    "modified": "2020-01-14",
    "issued": "2020-01-14",
    "templatetype": "content page 1 column",
    "page_type": "0",
    "node_id": "1572022494126",
    "dc_date_created": "2020-01-14",
    "managing_branch": "PAB",
    "parent_node_id": "",
    "label": {
        "en": "Canadian Agricultural Loans Act program: Report of Claim for Loss (Schedule 4)",
        "fr": "Programme de la Loi canadienne sur les prêts agricoles : Demande d'indemnisation pour perte (Annexe 4)"
    },
    "exturl": "",
    "teamsite_location": {
        "en": "/default/main/AAFC-AAC/Internet-Internet/Group-Ensemble/ProgServ-ProgServ/WORKAREA/ProgServ-ProgServ/templatedata/comm-comm/gene-gene/data/10/cala_schedule-4_1370034437351_en",
        "fr": "/default/main/AAFC-AAC/Internet-Internet/Group-Ensemble/ProgServ-ProgServ/WORKAREA/ProgServ-ProgServ/templatedata/comm-comm/gene-gene/data/10/cala_schedule-4_1370034437351_fr"
    },
    "type_name": "comm-comm/gene-gene",
    "has_dcr_id": true,
    "breadcrumb": {
        "en": "Canadian Agricultural Loans Act program: Report of Claim for Loss (Schedule 4)",
        "fr": "Programme de la Loi canadienne sur les prêts agricoles : Demande d'indemnisation pour perte (Annexe 4)"
    },
    "layout_name": "content page 1 column",
    "lang": "en"
}