{
    "dcr_id": "1370885369690",
    "title": {
        "en": "Water sources for range livestock",
        "fr": "Les sources d'eau pour le bétail de pâturage"
    },
    "modified": "2020-01-24",
    "issued": "2014-07-18",
    "templatetype": "content page 1 column",
    "page_type": "0",
    "node_id": "1354137773761",
    "dc_date_created": "2014-07-18",
    "managing_branch": "PAB",
    "parent_node_id": "",
    "label": {
        "en": "Water sources for range livestock",
        "fr": "Les sources d'eau pour le bétail de pâturage"
    },
    "exturl": "",
    "teamsite_location": {
        "en": "/default/main/AAFC-AAC/Internet-Internet/Common-Commun/WORKAREA/Common-Commun/templatedata/comm-comm/gene-gene/data/06/water-eau_sources_livestock_1370885369690_en",
        "fr": "/default/main/AAFC-AAC/Internet-Internet/Common-Commun/WORKAREA/Common-Commun/templatedata/comm-comm/gene-gene/data/06/water-eau_sources_livestock_1370885369690_fr"
    },
    "type_name": "comm-comm/gene-gene",
    "has_dcr_id": true,
    "breadcrumb": {
        "en": "Water sources for range livestock",
        "fr": "Les sources d'eau pour le bétail de pâturage"
    },
    "layout_name": "content page 1 column",
    "lang": "en"
}