{
    "dcr_id": "1371570949011",
    "title": {
        "en": "Well maintenance",
        "fr": "Entretien du puits"
    },
    "modified": "2020-01-24",
    "issued": "2014-07-18",
    "templatetype": "content page 1 column",
    "page_type": "0",
    "node_id": "1354137773675",
    "dc_date_created": "2014-07-18",
    "managing_branch": "PAB",
    "parent_node_id": "",
    "label": {
        "en": "Well maintenance",
        "fr": "Entretien du puits"
    },
    "exturl": "",
    "teamsite_location": {
        "en": "/default/main/AAFC-AAC/Internet-Internet/Common-Commun/WORKAREA/Common-Commun/templatedata/comm-comm/gene-gene/data/06/water-eau_well_maintenance_1371570949011_en",
        "fr": "/default/main/AAFC-AAC/Internet-Internet/Common-Commun/WORKAREA/Common-Commun/templatedata/comm-comm/gene-gene/data/06/water-eau_well_maintenance_1371570949011_fr"
    },
    "type_name": "comm-comm/gene-gene",
    "has_dcr_id": true,
    "breadcrumb": {
        "en": "Well maintenance",
        "fr": "Entretien du puits"
    },
    "layout_name": "content page 1 column",
    "lang": "en"
}