{
    "dcr_id": "1384284178356",
    "title": {
        "en": "World Trade Organization Negotiations on Agriculture",
        "fr": "Négociations de l'Organisation mondiale du commerce sur l'agriculture"
    },
    "modified": "2017-07-07",
    "issued": "2003-02-03",
    "templatetype": "<NULL>",
    "page_type": "0",
    "node_id": "1383760472716",
    "dc_date_created": "2003-02-03",
    "managing_branch": "MISB",
    "parent_node_id": "",
    "label": {
        "en": "World Trade Organization Negotiations on Agriculture",
        "fr": "Négociations de l'Organisation mondiale du commerce sur l'agriculture"
    },
    "exturl": "",
    "teamsite_location": {
        "en": "/default/main/AAFC-AAC/Internet-Internet/MISB-DGSIM/ITPD-DBCI/WORKAREA/ITPD-DBCI/templatedata/comm-comm/gene-gene/data/atp_cr_wto_negotiations_1384284178356_en",
        "fr": "/default/main/AAFC-AAC/Internet-Internet/MISB-DGSIM/ITPD-DBCI/WORKAREA/ITPD-DBCI/templatedata/comm-comm/gene-gene/data/atp_cr_wto_negotiations_1384284178356_fr"
    },
    "type_name": "comm-comm/gene-gene",
    "has_dcr_id": true,
    "breadcrumb": {
        "en": "World Trade Organization Negotiations on Agriculture",
        "fr": "Négociations de l'Organisation mondiale du commerce sur l'agriculture"
    },
    "layout_name": "<NULL>",
    "lang": "en"
}