{
    "dcr_id": "1384971854394",
    "title": {
        "en": "Managing a small duck flock",
        "fr": "Le canard à la ferme familiale"
    },
    "modified": "2018-10-26",
    "issued": "2011-01-30",
    "templatetype": "content page 1 column",
    "page_type": "0",
    "node_id": "1354137773675",
    "dc_date_created": "2011-01-30",
    "managing_branch": "MISB",
    "parent_node_id": "",
    "label": {
        "en": "Managing a small duck flock",
        "fr": "Le canard à la ferme familiale"
    },
    "exturl": "",
    "teamsite_location": {
        "en": "/default/main/AAFC-AAC/Internet-Internet/MISB-DGSIM/SDAD-DDAS/PE-VO/WORKAREA/PE-VO/templatedata/comm-comm/gene-gene/data/publication_managing_duck_flock_1384971854394_en",
        "fr": "/default/main/AAFC-AAC/Internet-Internet/MISB-DGSIM/SDAD-DDAS/PE-VO/WORKAREA/PE-VO/templatedata/comm-comm/gene-gene/data/publication_managing_duck_flock_1384971854394_fr"
    },
    "type_name": "comm-comm/gene-gene",
    "has_dcr_id": true,
    "breadcrumb": {
        "en": "Managing a small duck flock",
        "fr": "Le canard à la ferme familiale"
    },
    "layout_name": "content page 1 column",
    "lang": "en"
}