{
    "dcr_id": "1384971854423",
    "title": {
        "en": "Poultry slaughter raw data file structure and explanation",
        "fr": "Structure et explication du fichier de données brutes d'abattage de la volaille"
    },
    "modified": "2019-12-10",
    "issued": "2011-01-30",
    "templatetype": "content page 1 column",
    "page_type": "0",
    "node_id": "1384971799967",
    "dc_date_created": "2011-01-30",
    "managing_branch": "MISB",
    "parent_node_id": "",
    "label": {
        "en": "Poultry slaughter raw data file structure and explanation",
        "fr": "Structure et explication du fichier de données brutes d'abattage de la volaille"
    },
    "exturl": "",
    "teamsite_location": {
        "en": "/default/main/AAFC-AAC/Internet-Internet/MISB-DGSIM/SDAD-DDAS/PE-VO/WORKAREA/PE-VO/templatedata/comm-comm/gene-gene/data/rawdata_structure_slaughter_1384971854423_en",
        "fr": "/default/main/AAFC-AAC/Internet-Internet/MISB-DGSIM/SDAD-DDAS/PE-VO/WORKAREA/PE-VO/templatedata/comm-comm/gene-gene/data/rawdata_structure_slaughter_1384971854423_fr"
    },
    "type_name": "comm-comm/gene-gene",
    "has_dcr_id": true,
    "breadcrumb": {
        "en": "Poultry slaughter raw data file structure and explanation",
        "fr": "Structure et explication du fichier de données brutes d'abattage de la volaille"
    },
    "layout_name": "content page 1 column",
    "lang": "en"
}