{
    "dcr_id": "1384971854402",
    "title": {
        "en": "Hatchery review terms of reference",
        "fr": "Paramètres de la revue sur les couvoirs"
    },
    "modified": "2020-09-22",
    "issued": "2011-01-30",
    "templatetype": "content page 1 column",
    "page_type": "0",
    "node_id": "1384971799960",
    "dc_date_created": "2011-01-30",
    "managing_branch": "MISB",
    "parent_node_id": "",
    "label": {
        "en": "Hatchery review terms of reference",
        "fr": "Paramètres de la revue sur les couvoirs"
    },
    "exturl": "",
    "teamsite_location": {
        "en": "/default/main/AAFC-AAC/Internet-Internet/MISB-DGSIM/SDAD-DDAS/PE-VO/WORKAREA/PE-VO/templatedata/comm-comm/gene-gene/data/hatchery_terms_of_reference_1384971854402_en",
        "fr": "/default/main/AAFC-AAC/Internet-Internet/MISB-DGSIM/SDAD-DDAS/PE-VO/WORKAREA/PE-VO/templatedata/comm-comm/gene-gene/data/hatchery_terms_of_reference_1384971854402_fr"
    },
    "type_name": "comm-comm/gene-gene",
    "has_dcr_id": true,
    "breadcrumb": {
        "en": "Hatchery review terms of reference",
        "fr": "Paramètres de la revue sur les couvoirs"
    },
    "layout_name": "content page 1 column",
    "lang": "en"
}