{
    "dcr_id": "1384264832352",
    "title": {
        "en": "World Trade Organization Agreements related to Agriculture and Agri-Food",
        "fr": "Accords de l'Organisation mondiale du commerce en matière d'agriculture et d'agroalimentaire"
    },
    "modified": "2017-07-07",
    "issued": "2003-02-03",
    "templatetype": "<NULL>",
    "page_type": "0",
    "node_id": "1383760472716",
    "dc_date_created": "2003-02-03",
    "managing_branch": "MISB",
    "parent_node_id": "",
    "label": {
        "en": "World Trade Organization Agreements related to Agriculture and Agri-Food",
        "fr": "Accords de l'Organisation mondiale du commerce en matière d'agriculture et d'agroalimentaire"
    },
    "exturl": "",
    "teamsite_location": {
        "en": "/default/main/AAFC-AAC/Internet-Internet/MISB-DGSIM/ITPD-DBCI/WORKAREA/ITPD-DBCI/templatedata/comm-comm/gene-gene/data/atp_ag_ac_wto-agreements_1384264832352_en",
        "fr": "/default/main/AAFC-AAC/Internet-Internet/MISB-DGSIM/ITPD-DBCI/WORKAREA/ITPD-DBCI/templatedata/comm-comm/gene-gene/data/atp_ag_ac_wto-agreements_1384264832352_fr"
    },
    "type_name": "comm-comm/gene-gene",
    "has_dcr_id": true,
    "breadcrumb": {
        "en": "World Trade Organization Agreements related to Agriculture and Agri-Food",
        "fr": "Accords de l'Organisation mondiale du commerce en matière d'agriculture et d'agroalimentaire"
    },
    "layout_name": "<NULL>",
    "lang": "en"
}