{
    "dcr_id": "1389632350306",
    "title": {
        "en": "AgriInvest Calculator - Helptext",
        "fr": "Calculateur d'Agri-investissement - Instructions et aide"
    },
    "modified": "2019-10-22",
    "issued": "2019-10-22",
    "templatetype": "content page 1 column",
    "page_type": "0",
    "node_id": "1571322247714",
    "dc_date_created": "2019-10-22",
    "managing_branch": "PAB",
    "parent_node_id": "",
    "label": {
        "en": "AgriInvest Calculator - Helptext",
        "fr": "Calculateur d'Agri-investissement - Instructions et aide"
    },
    "exturl": "",
    "teamsite_location": {
        "en": "/default/main/AAFC-AAC/Internet-Internet/Group-Ensemble/ProgServ-ProgServ/WORKAREA/ProgServ-ProgServ/templatedata/comm-comm/gene-gene/data/09/ai_calculator_help_1389632350306_en",
        "fr": "/default/main/AAFC-AAC/Internet-Internet/Group-Ensemble/ProgServ-ProgServ/WORKAREA/ProgServ-ProgServ/templatedata/comm-comm/gene-gene/data/09/ai_calculator_help_1389632350306_fr"
    },
    "type_name": "comm-comm/gene-gene",
    "has_dcr_id": true,
    "breadcrumb": {
        "en": "AgriInvest Calculator - Helptext",
        "fr": "Calculateur d'Agri-investissement - Instructions et aide"
    },
    "layout_name": "content page 1 column",
    "lang": "en"
}