{
    "dcr_id": "1408645675902",
    "title": {
        "en": "Canadian Scientists Contribute to International Effort to Sequence the Canola Genome",
        "fr": "Des scientifiques canadiens contribuent à un projet international de séquençage du génome du canola"
    },
    "modified": "2014-09-30",
    "issued": "2014-08-22",
    "templatetype": "content page 1 column",
    "page_type": "0",
    "node_id": "1378999410478",
    "dc_date_created": "2014-08-22",
    "managing_branch": "PAB",
    "parent_node_id": "",
    "label": {
        "en": "Canadian Scientists Contribute to International Effort to Sequence the Canola Genome",
        "fr": "Des scientifiques canadiens contribuent à un projet international de séquençage du génome du canola"
    },
    "exturl": "",
    "teamsite_location": {
        "en": "/default/main/AAFC-AAC/Internet-Internet/CCB-DGCC/WORKAREA/CCB-DGCC/templatedata/comm-comm/gene-gene/data/feature_article_canola_1408645675902_en",
        "fr": "/default/main/AAFC-AAC/Internet-Internet/CCB-DGCC/WORKAREA/CCB-DGCC/templatedata/comm-comm/gene-gene/data/feature_article_canola_1408645675902_fr"
    },
    "type_name": "comm-comm/gene-gene",
    "has_dcr_id": true,
    "breadcrumb": {
        "en": "Canadian Scientists Contribute to International Effort to Sequence the Canola Genome",
        "fr": "Des scientifiques canadiens contribuent à un projet international de séquençage du génome du canola"
    },
    "layout_name": "content page 1 column",
    "lang": "en"
}