{
    "dcr_id": "1410072148346",
    "title": {
        "en": "China Fisheries &amp; Seafood Expo",
        "fr": "China Fisheries &amp;  Seafood Expo"
    },
    "modified": "2020-12-21",
    "issued": "2013-08-27",
    "templatetype": "content page 1 column",
    "page_type": "0",
    "node_id": "1410070965129",
    "dc_date_created": "2013-08-27",
    "managing_branch": "MISB",
    "parent_node_id": "",
    "label": {
        "en": "China Fisheries &amp; Seafood Expo",
        "fr": "China Fisheries &amp;  Seafood Expo"
    },
    "exturl": "",
    "teamsite_location": {
        "en": "/default/main/AAFC-AAC/Internet-Internet/MISB-DGSIM/ATS-SEA/ATS-SEA-s1/WORKAREA/ATS-SEA-s1/templatedata/comm-comm/gene-gene/data/eve_cfse_1410072148346_en",
        "fr": "/default/main/AAFC-AAC/Internet-Internet/MISB-DGSIM/ATS-SEA/ATS-SEA-s1/WORKAREA/ATS-SEA-s1/templatedata/comm-comm/gene-gene/data/eve_cfse_1410072148346_fr"
    },
    "type_name": "comm-comm/gene-gene",
    "has_dcr_id": true,
    "breadcrumb": {
        "en": "China Fisheries &amp; Seafood Expo",
        "fr": "China Fisheries &amp;  Seafood Expo"
    },
    "layout_name": "content page 1 column",
    "lang": "en"
}