{
    "dcr_id": "1410072148330",
    "title": {
        "en": "ANUGA",
        "fr": "ANUGA"
    },
    "modified": "2019-11-01",
    "issued": "2011-08-24",
    "templatetype": "content page 1 column",
    "page_type": "0",
    "node_id": "1410070965129",
    "dc_date_created": "2011-08-24",
    "managing_branch": "MISB",
    "parent_node_id": "",
    "label": {
        "en": "ANUGA",
        "fr": "ANUGA"
    },
    "exturl": "",
    "teamsite_location": {
        "en": "/default/main/AAFC-AAC/Internet-Internet/MISB-DGSIM/ATS-SEA/ATS-SEA-s1/WORKAREA/ATS-SEA-s1/templatedata/comm-comm/gene-gene/data/eve_anuga_1410072148330_en",
        "fr": "/default/main/AAFC-AAC/Internet-Internet/MISB-DGSIM/ATS-SEA/ATS-SEA-s1/WORKAREA/ATS-SEA-s1/templatedata/comm-comm/gene-gene/data/eve_anuga_1410072148330_fr"
    },
    "type_name": "comm-comm/gene-gene",
    "has_dcr_id": true,
    "breadcrumb": {
        "en": "ANUGA",
        "fr": "ANUGA"
    },
    "layout_name": "content page 1 column",
    "lang": "en"
}