{
    "dcr_id": "1412177172603",
    "title": {
        "en": "It is a proven fact that vitamin B12 is better absorbed from dairy products",
        "fr": "La vitamine B12 dans les produits laitiers s’assimile mieux, c’est prouvé"
    },
    "modified": "2019-07-05",
    "issued": "2014-10-01",
    "templatetype": "content page 1 column",
    "page_type": "0",
    "node_id": "1378999410478",
    "dc_date_created": "2014-10-01",
    "managing_branch": "PAB",
    "parent_node_id": "",
    "label": {
        "en": "It is a proven fact that vitamin B12 is better absorbed from dairy products",
        "fr": "La vitamine B12 dans les produits laitiers s’assimile mieux, c’est prouvé"
    },
    "exturl": "",
    "teamsite_location": {
        "en": "/default/main/AAFC-AAC/Internet-Internet/CCB-DGCC/WORKAREA/CCB-DGCC/templatedata/comm-comm/gene-gene/data/vit_b12_1412177172603_en",
        "fr": "/default/main/AAFC-AAC/Internet-Internet/CCB-DGCC/WORKAREA/CCB-DGCC/templatedata/comm-comm/gene-gene/data/vit_b12_1412177172603_fr"
    },
    "type_name": "comm-comm/gene-gene",
    "has_dcr_id": true,
    "breadcrumb": {
        "en": "It is a proven fact that vitamin B12 is better absorbed from dairy products",
        "fr": "La vitamine B12 dans les produits laitiers s’assimile mieux, c’est prouvé"
    },
    "layout_name": "content page 1 column",
    "lang": "en"
}