{
    "dcr_id": "1415860000073",
    "title": {
        "en": "Beef and veal tariff rate quota and import permits",
        "fr": "Contingent tarifaire et permis d'importation annuel de boeuf et veau"
    },
    "modified": "2020-10-29",
    "issued": "2013-10-02",
    "templatetype": "content page 1 column",
    "page_type": "0",
    "node_id": "1415863600006",
    "dc_date_created": "2013-10-02",
    "managing_branch": "MISB",
    "parent_node_id": "",
    "label": {
        "en": "Beef and veal tariff rate quota and import permits",
        "fr": "Contingent tarifaire et permis d'importation annuel de boeuf et veau"
    },
    "exturl": "",
    "teamsite_location": {
        "en": "/default/main/AAFC-AAC/Internet-Internet/MISB-DGSIM/SDAD-DDAS/RML-VRB/WORKAREA/RML-VRB/templatedata/comm-comm/gene-gene/data/cattle_beef_veal_TRQ-Permits_1415860000073_en",
        "fr": "/default/main/AAFC-AAC/Internet-Internet/MISB-DGSIM/SDAD-DDAS/RML-VRB/WORKAREA/RML-VRB/templatedata/comm-comm/gene-gene/data/cattle_beef_veal_TRQ-Permits_1415860000073_fr"
    },
    "type_name": "comm-comm/gene-gene",
    "has_dcr_id": true,
    "breadcrumb": {
        "en": "Beef and veal tariff rate quota and import permits",
        "fr": "Contingent tarifaire et permis d'importation annuel de boeuf et veau"
    },
    "layout_name": "content page 1 column",
    "lang": "en"
}