{
    "dcr_id": "1416326892525",
    "title": {
        "en": "Sainfoin  – A New Light is Shone on an Old Forage Plant",
        "fr": "Le sainfoin – Une vieille plante fourragère vue sous un nouveau jour "
    },
    "modified": "2015-11-26",
    "issued": "2014-11-18",
    "templatetype": "content page 1 column",
    "page_type": "0",
    "node_id": "1378999410478",
    "dc_date_created": "2014-11-18",
    "managing_branch": "PAB",
    "parent_node_id": "",
    "label": {
        "en": "Sainfoin  – A New Light is Shone on an Old Forage Plant",
        "fr": "Le sainfoin – Une vieille plante fourragère vue sous un nouveau jour "
    },
    "exturl": "",
    "teamsite_location": {
        "en": "/default/main/AAFC-AAC/Internet-Internet/CCB-DGCC/WORKAREA/CCB-DGCC/templatedata/comm-comm/gene-gene/data/sainfoin_1416326892525_en",
        "fr": "/default/main/AAFC-AAC/Internet-Internet/CCB-DGCC/WORKAREA/CCB-DGCC/templatedata/comm-comm/gene-gene/data/sainfoin_1416326892525_fr"
    },
    "type_name": "comm-comm/gene-gene",
    "has_dcr_id": true,
    "breadcrumb": {
        "en": "Sainfoin  – A New Light is Shone on an Old Forage Plant",
        "fr": "Le sainfoin – Une vieille plante fourragère vue sous un nouveau jour "
    },
    "layout_name": "content page 1 column",
    "lang": "en"
}