{
    "dcr_id": "1424129776197",
    "title": {
        "en": "Agricultural Double Agent: Beetles are both an Ally and an Adversary",
        "fr": "Agents doubles agricoles : les coléoptères sont à la fois nos alliés et nos adversaires"
    },
    "modified": "2017-06-27",
    "issued": "2015-02-17",
    "templatetype": "content page 1 column",
    "page_type": "0",
    "node_id": "1378999410478",
    "dc_date_created": "2015-02-17",
    "managing_branch": "PAB",
    "parent_node_id": "",
    "label": {
        "en": "Agricultural Double Agent: Beetles are both an Ally and an Adversary",
        "fr": "Agents doubles agricoles : les coléoptères sont à la fois nos alliés et nos adversaires"
    },
    "exturl": "",
    "teamsite_location": {
        "en": "/default/main/AAFC-AAC/Internet-Internet/Common-Commun/WORKAREA/Common-Commun/templatedata/comm-comm/gene-gene/data/02/feature_article_dble_agent_1424129776197_en",
        "fr": "/default/main/AAFC-AAC/Internet-Internet/Common-Commun/WORKAREA/Common-Commun/templatedata/comm-comm/gene-gene/data/02/feature_article_dble_agent_1424129776197_fr"
    },
    "type_name": "comm-comm/gene-gene",
    "has_dcr_id": true,
    "breadcrumb": {
        "en": "Agricultural Double Agent: Beetles are both an Ally and an Adversary",
        "fr": "Agents doubles agricoles : les coléoptères sont à la fois nos alliés et nos adversaires"
    },
    "layout_name": "content page 1 column",
    "lang": "en"
}