{
    "dcr_id": "1449838074216",
    "title": {
        "en": "Canada's Meat Product Manufacturing Industry",
        "fr": "Industrie canadienne de la fabrication de produits de viande"
    },
    "modified": "2016-03-07",
    "issued": "2016-03-07",
    "templatetype": "content page 1 column",
    "page_type": "0",
    "node_id": "1354137773675",
    "dc_date_created": "2016-03-07",
    "managing_branch": "PAB",
    "parent_node_id": "",
    "label": {
        "en": "Canada's Meat Product Manufacturing Industry",
        "fr": "Industrie canadienne de la fabrication de produits de viande"
    },
    "exturl": "",
    "teamsite_location": {
        "en": "/default/main/AAFC-AAC/Internet-Internet/Common-Commun/WORKAREA/Common-Commun/templatedata/comm-comm/gene-gene/data/12/agr_canmeatind-indviandecan_1449838074216_en",
        "fr": "/default/main/AAFC-AAC/Internet-Internet/Common-Commun/WORKAREA/Common-Commun/templatedata/comm-comm/gene-gene/data/12/agr_canmeatind-indviandecan_1449838074216_fr"
    },
    "type_name": "comm-comm/gene-gene",
    "has_dcr_id": true,
    "breadcrumb": {
        "en": "Canada's Meat Product Manufacturing Industry",
        "fr": "Industrie canadienne de la fabrication de produits de viande"
    },
    "layout_name": "content page 1 column",
    "lang": "en"
}