{
    "dcr_id": "1453219857143",
    "title": {
        "en": "Statistical Overview of the Canadian Honey and Bee Industry and the Economic Contribution of Honey Bee Pollination, 2013-2014",
        "fr": "Aperçu statistique de l’industrie apicole canadienne et contribution économique des services de pollinisation rendus par les abeilles domestiques pour 2013-2014"
    },
    "modified": "2016-02-29",
    "issued": "2016-01-20",
    "templatetype": "content page 1 column",
    "page_type": "0",
    "node_id": "1368480094434",
    "dc_date_created": "2016-01-20",
    "managing_branch": "PAB",
    "parent_node_id": "",
    "label": {
        "en": "Statistical Overview of the Canadian Honey and Bee Industry and the Economic Contribution of Honey Bee Pollination, 2013-2014",
        "fr": "Aperçu statistique de l’industrie apicole canadienne et contribution économique des services de pollinisation rendus par les abeilles domestiques pour 2013-2014"
    },
    "exturl": "",
    "teamsite_location": {
        "en": "/default/main/AAFC-AAC/Internet-Internet/Common-Commun/WORKAREA/Common-Commun/templatedata/comm-comm/gene-gene/data/01/stat-overview-bee-honey-2013-14_1453219857143_en",
        "fr": "/default/main/AAFC-AAC/Internet-Internet/Common-Commun/WORKAREA/Common-Commun/templatedata/comm-comm/gene-gene/data/01/stat-overview-bee-honey-2013-14_1453219857143_fr"
    },
    "type_name": "comm-comm/gene-gene",
    "has_dcr_id": true,
    "breadcrumb": {
        "en": "Statistical Overview of the Canadian Honey and Bee Industry and the Economic Contribution of Honey Bee Pollination, 2013-2014",
        "fr": "Aperçu statistique de l’industrie apicole canadienne et contribution économique des services de pollinisation rendus par les abeilles domestiques pour 2013-2014"
    },
    "layout_name": "content page 1 column",
    "lang": "en"
}