{
    "dcr_id": "1453393980403",
    "title": {
        "en": "Biology and integrated management of leafhoppers and phytoplasma diseases of vineyards in eastern Canada",
        "fr": "Biologie et lutte intégrée contre les cicadelles et les maladies à phytoplasmes dans les vignobles de l'est du Canada"
    },
    "modified": "2020-04-01",
    "issued": "2016-01-25",
    "templatetype": "content page 1 column",
    "page_type": "0",
    "node_id": "1534850060420",
    "dc_date_created": "2016-01-25",
    "managing_branch": "PAB",
    "parent_node_id": "",
    "label": {
        "en": "Biology and integrated management of leafhoppers and phytoplasma diseases of vineyards in eastern Canada",
        "fr": "Biologie et lutte intégrée contre les cicadelles et les maladies à phytoplasmes dans les vignobles de l'est du Canada"
    },
    "exturl": "",
    "teamsite_location": {
        "en": "/default/main/AAFC-AAC/Internet-Internet/Group-Ensemble/ProgServ-ProgServ/WORKAREA/ProgServ-ProgServ/templatedata/comm-comm/gene-gene/data/01/leafhoppers_phytoplasma_1453393980403_en",
        "fr": "/default/main/AAFC-AAC/Internet-Internet/Group-Ensemble/ProgServ-ProgServ/WORKAREA/ProgServ-ProgServ/templatedata/comm-comm/gene-gene/data/01/leafhoppers_phytoplasma_1453393980403_fr"
    },
    "type_name": "comm-comm/gene-gene",
    "has_dcr_id": true,
    "breadcrumb": {
        "en": "Biology and integrated management of leafhoppers and phytoplasma diseases of vineyards in eastern Canada",
        "fr": "Biologie et lutte intégrée contre les cicadelles et les maladies à phytoplasmes dans les vignobles de l'est du Canada"
    },
    "layout_name": "content page 1 column",
    "lang": "en"
}