{
    "dcr_id": "1454082227028",
    "title": {
        "en": "Elimination Guidelines 2020 - General Warnings",
        "fr": "Guide d’élimination 2020 - Avertissement"
    },
    "modified": "2020-04-03",
    "issued": "2016-02-18",
    "templatetype": "content page 1 column",
    "page_type": "0",
    "node_id": "1365631599631",
    "dc_date_created": "2016-02-18",
    "managing_branch": "PAB",
    "parent_node_id": "",
    "label": {
        "en": "Elimination Guidelines 2020 - General Warnings",
        "fr": "Guide d’élimination 2020 - Avertissement"
    },
    "exturl": "",
    "teamsite_location": {
        "en": "/default/main/AAFC-AAC/Internet-Internet/Common-Commun/WORKAREA/Common-Commun/templatedata/comm-comm/gene-gene/data/01/equine_elimination_guide2016-6_1454082227028_en",
        "fr": "/default/main/AAFC-AAC/Internet-Internet/Common-Commun/WORKAREA/Common-Commun/templatedata/comm-comm/gene-gene/data/01/equine_elimination_guide2016-6_1454082227028_fr"
    },
    "type_name": "comm-comm/gene-gene",
    "has_dcr_id": true,
    "breadcrumb": {
        "en": "Elimination Guidelines 2020 - General Warnings",
        "fr": "Guide d’élimination 2020 - Avertissement"
    },
    "layout_name": "content page 1 column",
    "lang": "en"
}