{
    "dcr_id": "1457129050893",
    "title": {
        "en": "New approach to feeding cows benefits both farmers and the environment ",
        "fr": "Nourrir les vaches différemment, un plus pour les producteurs et pour l'environnement "
    },
    "modified": "2016-03-16",
    "issued": "2016-03-09",
    "templatetype": "content page 1 column",
    "page_type": "0",
    "node_id": "1378999410478",
    "dc_date_created": "2016-03-09",
    "managing_branch": "PAB",
    "parent_node_id": "",
    "label": {
        "en": "New approach to feeding cows benefits both farmers and the environment ",
        "fr": "Nourrir les vaches différemment, un plus pour les producteurs et pour l'environnement "
    },
    "exturl": "",
    "teamsite_location": {
        "en": "/default/main/AAFC-AAC/Internet-Internet/CCB-DGCC/WORKAREA/CCB-DGCC/templatedata/comm-comm/gene-gene/data/feature_article_dairy_feed_1457129050893_en",
        "fr": "/default/main/AAFC-AAC/Internet-Internet/CCB-DGCC/WORKAREA/CCB-DGCC/templatedata/comm-comm/gene-gene/data/feature_article_dairy_feed_1457129050893_fr"
    },
    "type_name": "comm-comm/gene-gene",
    "has_dcr_id": true,
    "breadcrumb": {
        "en": "New approach to feeding cows benefits both farmers and the environment ",
        "fr": "Nourrir les vaches différemment, un plus pour les producteurs et pour l'environnement "
    },
    "layout_name": "content page 1 column",
    "lang": "en"
}