{
    "dcr_id": "1461592921959",
    "title": {
        "en": "Audit of Occupational Health and Safety",
        "fr": "Audit de la santé et de la sécurité au travail"
    },
    "modified": "2016-06-16",
    "issued": "2016-06-16",
    "templatetype": "content page 1 column",
    "page_type": "0",
    "node_id": "1587496160123",
    "dc_date_created": "2016-06-16",
    "managing_branch": "PAB",
    "parent_node_id": "",
    "label": {
        "en": "Audit of Occupational Health and Safety",
        "fr": "Audit de la santé et de la sécurité au travail"
    },
    "exturl": "",
    "teamsite_location": {
        "en": "/default/main/AAFC-AAC/Internet-Internet/Common-Commun/WORKAREA/Common-Commun/templatedata/comm-comm/gene-gene/data/04/oae_audit_ohs_1461592921959_en",
        "fr": "/default/main/AAFC-AAC/Internet-Internet/Common-Commun/WORKAREA/Common-Commun/templatedata/comm-comm/gene-gene/data/04/oae_audit_ohs_1461592921959_fr"
    },
    "type_name": "comm-comm/gene-gene",
    "has_dcr_id": true,
    "breadcrumb": {
        "en": "Audit of Occupational Health and Safety",
        "fr": "Audit de la santé et de la sécurité au travail"
    },
    "layout_name": "content page 1 column",
    "lang": "en"
}