{
    "dcr_id": "1462489641309",
    "title": {
        "en": "Soil Cover Indicator",
        "fr": "Indicateur de la couverture du sol"
    },
    "modified": "2021-01-20",
    "issued": "2016-07-11",
    "templatetype": "content page 2 columns",
    "page_type": "0",
    "node_id": "1354137773751",
    "dc_date_created": "2016-07-11",
    "managing_branch": "PAB",
    "parent_node_id": "",
    "label": {
        "en": "Soil Cover Indicator",
        "fr": "Indicateur de la couverture du sol"
    },
    "exturl": "",
    "teamsite_location": {
        "en": "/default/main/AAFC-AAC/Internet-Internet/Common-Commun/WORKAREA/Common-Commun/templatedata/comm-comm/gene-gene/data/05/scover_ind_1462489641309_en",
        "fr": "/default/main/AAFC-AAC/Internet-Internet/Common-Commun/WORKAREA/Common-Commun/templatedata/comm-comm/gene-gene/data/05/scover_ind_1462489641309_fr"
    },
    "type_name": "comm-comm/gene-gene",
    "has_dcr_id": true,
    "breadcrumb": {
        "en": "Soil Cover Indicator",
        "fr": "Indicateur de la couverture du sol"
    },
    "layout_name": "content page 2 columns",
    "lang": "en"
}