{
    "dcr_id": "1463512890911",
    "title": {
        "en": "Investing in the Dairy Sector",
        "fr": "Investir dans le secteur laitier"
    },
    "modified": "2017-08-01",
    "issued": "2016-11-10",
    "templatetype": "content page 1 column",
    "page_type": "0",
    "node_id": "1354137773675",
    "dc_date_created": "2016-11-10",
    "managing_branch": "PAB",
    "parent_node_id": "",
    "label": {
        "en": "Investing in the Dairy Sector",
        "fr": "Investir dans le secteur laitier"
    },
    "exturl": "",
    "teamsite_location": {
        "en": "/default/main/AAFC-AAC/Internet-Internet/Common-Commun/WORKAREA/Common-Commun/templatedata/comm-comm/gene-gene/data/05/disc_dairy_sec_trad_1463512890911_en",
        "fr": "/default/main/AAFC-AAC/Internet-Internet/Common-Commun/WORKAREA/Common-Commun/templatedata/comm-comm/gene-gene/data/05/disc_dairy_sec_trad_1463512890911_fr"
    },
    "type_name": "comm-comm/gene-gene",
    "has_dcr_id": true,
    "breadcrumb": {
        "en": "Investing in the Dairy Sector",
        "fr": "Investir dans le secteur laitier"
    },
    "layout_name": "content page 1 column",
    "lang": "en"
}