{
    "dcr_id": "1468864509649",
    "title": {
        "en": "Calgary Statement – Towards the Next Policy Framework",
        "fr": "Déclaration de Calgary – vers le prochain cadre stratégique"
    },
    "modified": "2017-08-14",
    "issued": "2016-07-22",
    "templatetype": "content page 1 column",
    "page_type": "0",
    "node_id": "1354137773675",
    "dc_date_created": "2016-07-22",
    "managing_branch": "PAB",
    "parent_node_id": "",
    "label": {
        "en": "Calgary Statement – Towards the Next Policy Framework",
        "fr": "Déclaration de Calgary – vers le prochain cadre stratégique"
    },
    "exturl": "",
    "teamsite_location": {
        "en": "/default/main/AAFC-AAC/Internet-Internet/Common-Commun/WORKAREA/Common-Commun/templatedata/comm-comm/gene-gene/data/07/calgary_statement_1468864509649_en",
        "fr": "/default/main/AAFC-AAC/Internet-Internet/Common-Commun/WORKAREA/Common-Commun/templatedata/comm-comm/gene-gene/data/07/calgary_statement_1468864509649_fr"
    },
    "type_name": "comm-comm/gene-gene",
    "has_dcr_id": true,
    "breadcrumb": {
        "en": "Calgary Statement – Towards the Next Policy Framework",
        "fr": "Déclaration de Calgary – vers le prochain cadre stratégique"
    },
    "layout_name": "content page 1 column",
    "lang": "en"
}