{
    "dcr_id": "1469446881725",
    "title": {
        "en": "Cost-Benefit Analysis of Two Successful Innovation Cases",
        "fr": "Analyse coûts-avantages : Deux cas d'innovation réussie"
    },
    "modified": "2021-01-26",
    "issued": "2016-07-26",
    "templatetype": "content page 1 column",
    "page_type": "0",
    "node_id": "1354137773974",
    "dc_date_created": "2016-07-26",
    "managing_branch": "PAB",
    "parent_node_id": "",
    "label": {
        "en": "Cost-Benefit Analysis of Two Successful Innovation Cases",
        "fr": "Analyse coûts-avantages : Deux cas d'innovation réussie"
    },
    "exturl": "",
    "teamsite_location": {
        "en": "/default/main/AAFC-AAC/Internet-Internet/CCB-DGCC/WORKAREA/CCB-DGCC/templatedata/comm-comm/gene-gene/data/costben_analysis_two_successful_1469446881725_en",
        "fr": "/default/main/AAFC-AAC/Internet-Internet/CCB-DGCC/WORKAREA/CCB-DGCC/templatedata/comm-comm/gene-gene/data/costben_analysis_two_successful_1469446881725_fr"
    },
    "type_name": "comm-comm/gene-gene",
    "has_dcr_id": true,
    "breadcrumb": {
        "en": "Cost-Benefit Analysis of Two Successful Innovation Cases",
        "fr": "Analyse coûts-avantages : Deux cas d'innovation réussie"
    },
    "layout_name": "content page 1 column",
    "lang": "en"
}