{
    "dcr_id": "1471441671713",
    "title": {
        "en": "Health and Wellness Series - Chlorella in Packaged Food, Beverage, and Pet Products",
        "fr": "Série sur la Santé et le Mieux-Être - Chlorelle dans les aliments emballés, les boissons et les produits pour animaux de compagnie"
    },
    "modified": "2020-09-29",
    "issued": "2016-08-17",
    "templatetype": "content page 1 column",
    "page_type": "0",
    "node_id": "1410080965335",
    "dc_date_created": "2016-08-17",
    "managing_branch": "MISB",
    "parent_node_id": "",
    "label": {
        "en": "Health and Wellness Series - Chlorella in Packaged Food, Beverage, and Pet Products",
        "fr": "Série sur la Santé et le Mieux-Être - Chlorelle dans les aliments emballés, les boissons et les produits pour animaux de compagnie"
    },
    "exturl": "",
    "teamsite_location": {
        "en": "/default/main/AAFC-AAC/Internet-Internet/MISB-DGSIM/ATS-SEA/ATS-SEA-s2/WORKAREA/ATS-SEA-s2/templatedata/comm-comm/gene-gene/data/inter_healthwellness_chorella_packagedfood_1471441671713_en",
        "fr": "/default/main/AAFC-AAC/Internet-Internet/MISB-DGSIM/ATS-SEA/ATS-SEA-s2/WORKAREA/ATS-SEA-s2/templatedata/comm-comm/gene-gene/data/inter_healthwellness_chorella_packagedfood_1471441671713_fr"
    },
    "type_name": "comm-comm/gene-gene",
    "has_dcr_id": true,
    "breadcrumb": {
        "en": "Health and Wellness Series - Chlorella in Packaged Food, Beverage, and Pet Products",
        "fr": "Série sur la Santé et le Mieux-Être - Chlorelle dans les aliments emballés, les boissons et les produits pour animaux de compagnie"
    },
    "layout_name": "content page 1 column",
    "lang": "en"
}