{
    "dcr_id": "1481126096949",
    "title": {
        "en": "2017 AgriInvest Program – Corporation/Co-operative and Special Individual Harmonized Form and Guide – Commodity List and Program Payment List",
        "fr": "Programmes d'Agri-investissement en 2017 – Guide et formulaire harmonisés pour les sociétés, les coopératives et les particuliers de catégorie spéciale – Liste de produits"
    },
    "modified": "2019-10-22",
    "issued": "2019-10-22",
    "templatetype": "content page 1 column",
    "page_type": "0",
    "node_id": "1571322247714",
    "dc_date_created": "2019-10-22",
    "managing_branch": "PAB",
    "parent_node_id": "",
    "label": {
        "en": "2017 AgriInvest Program – Corporation/Co-operative and Special Individual Harmonized Form and Guide – Commodity List and Program Payment List",
        "fr": "Programmes d'Agri-investissement en 2017 – Guide et formulaire harmonisés pour les sociétés, les coopératives et les particuliers de catégorie spéciale – Liste de produits"
    },
    "exturl": "",
    "teamsite_location": {
        "en": "/default/main/AAFC-AAC/Internet-Internet/Group-Ensemble/ProgServ-ProgServ/WORKAREA/ProgServ-ProgServ/templatedata/comm-comm/gene-gene/data/09/ai_2017_commodity_payment_1481126096949_en",
        "fr": "/default/main/AAFC-AAC/Internet-Internet/Group-Ensemble/ProgServ-ProgServ/WORKAREA/ProgServ-ProgServ/templatedata/comm-comm/gene-gene/data/09/ai_2017_commodity_payment_1481126096949_fr"
    },
    "type_name": "comm-comm/gene-gene",
    "has_dcr_id": true,
    "breadcrumb": {
        "en": "2017 AgriInvest Program – Corporation/Co-operative and Special Individual Harmonized Form and Guide – Commodity List and Program Payment List",
        "fr": "Programmes d'Agri-investissement en 2017 – Guide et formulaire harmonisés pour les sociétés, les coopératives et les particuliers de catégorie spéciale – Liste de produits"
    },
    "layout_name": "content page 1 column",
    "lang": "en"
}