{
    "dcr_id": "1491827555492",
    "title": {
        "en": "Science versus nature: The battle of keeping fruit and veggies fresh and delicious",
        "fr": "Science contre nature : Comment préserver la fraîcheur et la saveur des fruits et légumes"
    },
    "modified": "2017-04-10",
    "issued": "2017-04-10",
    "templatetype": "content page 1 column",
    "page_type": "0",
    "node_id": "1378999410478",
    "dc_date_created": "2017-04-10",
    "managing_branch": "PAB",
    "parent_node_id": "",
    "label": {
        "en": "Science versus nature: The battle of keeping fruit and veggies fresh and delicious",
        "fr": "Science contre nature : Comment préserver la fraîcheur et la saveur des fruits et légumes"
    },
    "exturl": "",
    "teamsite_location": {
        "en": "/default/main/AAFC-AAC/Internet-Internet/CCB-DGCC/WORKAREA/CCB-DGCC/templatedata/comm-comm/gene-gene/data/science_verses_nature_1491827555492_en",
        "fr": "/default/main/AAFC-AAC/Internet-Internet/CCB-DGCC/WORKAREA/CCB-DGCC/templatedata/comm-comm/gene-gene/data/science_verses_nature_1491827555492_fr"
    },
    "type_name": "comm-comm/gene-gene",
    "has_dcr_id": true,
    "breadcrumb": {
        "en": "Science versus nature: The battle of keeping fruit and veggies fresh and delicious",
        "fr": "Science contre nature : Comment préserver la fraîcheur et la saveur des fruits et légumes"
    },
    "layout_name": "content page 1 column",
    "lang": "en"
}