{
    "dcr_id": "1492542921589",
    "title": {
        "en": "Pilot Plant Program (Video)",
        "fr": "Programme sur l'usine pilote (Vidéo)"
    },
    "modified": "2017-04-19",
    "issued": "2017-04-19",
    "templatetype": "content page 1 column",
    "page_type": "0",
    "node_id": "1378999410478",
    "dc_date_created": "2017-04-19",
    "managing_branch": "PAB",
    "parent_node_id": "",
    "label": {
        "en": "Pilot Plant Program (Video)",
        "fr": "Programme sur l'usine pilote (Vidéo)"
    },
    "exturl": "",
    "teamsite_location": {
        "en": "/default/main/AAFC-AAC/Internet-Internet/Common-Commun/WORKAREA/Common-Commun/templatedata/comm-comm/gene-gene/data/04/pilot_plang_program_video_1492542921589_en",
        "fr": "/default/main/AAFC-AAC/Internet-Internet/Common-Commun/WORKAREA/Common-Commun/templatedata/comm-comm/gene-gene/data/04/pilot_plang_program_video_1492542921589_fr"
    },
    "type_name": "comm-comm/gene-gene",
    "has_dcr_id": true,
    "breadcrumb": {
        "en": "Pilot Plant Program (Video)",
        "fr": "Programme sur l'usine pilote (Vidéo)"
    },
    "layout_name": "content page 1 column",
    "lang": "en"
}