{
    "dcr_id": "1501286272068",
    "title": {
        "en": "Evaluation of AgriMarketing Stream D: Assurance Systems",
        "fr": "Évaluation du programme Agri-marketing Volet D : Systèmes d'assurance"
    },
    "modified": "2017-08-18",
    "issued": "2017-08-18",
    "templatetype": "content page 1 column",
    "page_type": "0",
    "node_id": "1566306181000",
    "dc_date_created": "2017-08-18",
    "managing_branch": "PAB",
    "parent_node_id": "",
    "label": {
        "en": "Evaluation of AgriMarketing Stream D: Assurance Systems",
        "fr": "Évaluation du programme Agri-marketing Volet D : Systèmes d'assurance"
    },
    "exturl": "",
    "teamsite_location": {
        "en": "/default/main/AAFC-AAC/Internet-Internet/Common-Commun/WORKAREA/Common-Commun/templatedata/comm-comm/gene-gene/data/07/oae_eval_agrimark_strmd_1501286272068_en",
        "fr": "/default/main/AAFC-AAC/Internet-Internet/Common-Commun/WORKAREA/Common-Commun/templatedata/comm-comm/gene-gene/data/07/oae_eval_agrimark_strmd_1501286272068_fr"
    },
    "type_name": "comm-comm/gene-gene",
    "has_dcr_id": true,
    "breadcrumb": {
        "en": "Evaluation of AgriMarketing Stream D: Assurance Systems",
        "fr": "Évaluation du programme Agri-marketing Volet D : Systèmes d'assurance"
    },
    "layout_name": "content page 1 column",
    "lang": "en"
}