{
    "dcr_id": "1501265580175",
    "title": {
        "en": "2016-17 Departmental Results Report  - Response to parliamentary committees and external audits",
        "fr": "Rapport ministériel sur le rendement 2016-2017 - Réponse aux comités parlementaires et aux audits externes"
    },
    "modified": "2017-11-09",
    "issued": "2017-11-09",
    "templatetype": "content page 1 column",
    "page_type": "0",
    "node_id": "1508515190952",
    "dc_date_created": "2017-11-09",
    "managing_branch": "PAB",
    "parent_node_id": "",
    "label": {
        "en": "2016-17 Departmental Results Report  - Response to parliamentary committees and external audits",
        "fr": "Rapport ministériel sur le rendement 2016-2017 - Réponse aux comités parlementaires et aux audits externes"
    },
    "exturl": "",
    "teamsite_location": {
        "en": "/default/main/AAFC-AAC/Internet-Internet/Common-Commun/WORKAREA/Common-Commun/templatedata/comm-comm/gene-gene/data/07/drr-rrm_16-17_ea-ae_1501265580175_en",
        "fr": "/default/main/AAFC-AAC/Internet-Internet/Common-Commun/WORKAREA/Common-Commun/templatedata/comm-comm/gene-gene/data/07/drr-rrm_16-17_ea-ae_1501265580175_fr"
    },
    "type_name": "comm-comm/gene-gene",
    "has_dcr_id": true,
    "breadcrumb": {
        "en": "2016-17 Departmental Results Report  - Response to parliamentary committees and external audits",
        "fr": "Rapport ministériel sur le rendement 2016-2017 - Réponse aux comités parlementaires et aux audits externes"
    },
    "layout_name": "content page 1 column",
    "lang": "en"
}