{
    "dcr_id": "1502980593805",
    "title": {
        "en": "National inventory of asbestos in Agriculture and Agri-Food Canada buildings",
        "fr": "Inventaire national de l'amiante dans les immeubles d'Agriculture et Agroalimentaire Canada"
    },
    "modified": "2017-10-16",
    "issued": "2017-09-29",
    "templatetype": "content page 1 column",
    "page_type": "0",
    "node_id": "1354137774066",
    "dc_date_created": "2017-09-29",
    "managing_branch": "PAB",
    "parent_node_id": "",
    "label": {
        "en": "National inventory of asbestos in Agriculture and Agri-Food Canada buildings",
        "fr": "Inventaire national de l'amiante dans les immeubles d'Agriculture et Agroalimentaire Canada"
    },
    "exturl": "",
    "teamsite_location": {
        "en": "/default/main/AAFC-AAC/Internet-Internet/CCB-DGCC/WORKAREA/CCB-DGCC/templatedata/comm-comm/gene-gene/data/aafc_asbestos_1502980593805_en",
        "fr": "/default/main/AAFC-AAC/Internet-Internet/CCB-DGCC/WORKAREA/CCB-DGCC/templatedata/comm-comm/gene-gene/data/aafc_asbestos_1502980593805_fr"
    },
    "type_name": "comm-comm/gene-gene",
    "has_dcr_id": true,
    "breadcrumb": {
        "en": "National inventory of asbestos in Agriculture and Agri-Food Canada buildings",
        "fr": "Inventaire national de l'amiante dans les immeubles d'Agriculture et Agroalimentaire Canada"
    },
    "layout_name": "content page 1 column",
    "lang": "en"
}