{
    "dcr_id": "1506527940241",
    "title": {
        "en": "Central Experimental Farm gets 150 new trees and Canada 150 plaque",
        "fr": "Cent cinquante nouveaux arbres et une plaque soulignant le 150e anniversaire du Canada pour la Ferme expérimentale centrale "
    },
    "modified": "2017-09-28",
    "issued": "2017-09-28",
    "templatetype": "content page 1 column",
    "page_type": "0",
    "node_id": "1478808035170",
    "dc_date_created": "2017-09-28",
    "managing_branch": "PAB",
    "parent_node_id": "",
    "label": {
        "en": "Central Experimental Farm gets 150 new trees and Canada 150 plaque",
        "fr": "Cent cinquante nouveaux arbres et une plaque soulignant le 150e anniversaire du Canada pour la Ferme expérimentale centrale "
    },
    "exturl": "",
    "teamsite_location": {
        "en": "/default/main/AAFC-AAC/Internet-Internet/CCB-DGCC/WORKAREA/CCB-DGCC/templatedata/comm-comm/gene-gene/data/cef-150-trees-plaque_1506527940241_en",
        "fr": "/default/main/AAFC-AAC/Internet-Internet/CCB-DGCC/WORKAREA/CCB-DGCC/templatedata/comm-comm/gene-gene/data/cef-150-trees-plaque_1506527940241_fr"
    },
    "type_name": "comm-comm/gene-gene",
    "has_dcr_id": true,
    "breadcrumb": {
        "en": "Central Experimental Farm gets 150 new trees and Canada 150 plaque",
        "fr": "Cent cinquante nouveaux arbres et une plaque soulignant le 150e anniversaire du Canada pour la Ferme expérimentale centrale "
    },
    "layout_name": "content page 1 column",
    "lang": "en"
}