{
    "dcr_id": "1508423883267",
    "title": {
        "en": "Agricultural Greenhouse Gases Program — Approved Projects",
        "fr": "Programme de lutte contre les gaz à effet de serre en agriculture — Projets approuvés"
    },
    "modified": "2019-02-14",
    "issued": "2017-10-27",
    "templatetype": "content page 1 column",
    "page_type": "0",
    "node_id": "1461685460566",
    "dc_date_created": "2017-10-27",
    "managing_branch": "PAB",
    "parent_node_id": "",
    "label": {
        "en": "Agricultural Greenhouse Gases Program — Approved Projects",
        "fr": "Programme de lutte contre les gaz à effet de serre en agriculture — Projets approuvés"
    },
    "exturl": "",
    "teamsite_location": {
        "en": "/default/main/AAFC-AAC/Internet-Internet/Group-Ensemble/ProgServ-ProgServ/WORKAREA/ProgServ-ProgServ/templatedata/comm-comm/gene-gene/data/10/aggp_plgesa_13_1508423883267_en",
        "fr": "/default/main/AAFC-AAC/Internet-Internet/Group-Ensemble/ProgServ-ProgServ/WORKAREA/ProgServ-ProgServ/templatedata/comm-comm/gene-gene/data/10/aggp_plgesa_13_1508423883267_fr"
    },
    "type_name": "comm-comm/gene-gene",
    "has_dcr_id": true,
    "breadcrumb": {
        "en": "Agricultural Greenhouse Gases Program — Approved Projects",
        "fr": "Programme de lutte contre les gaz à effet de serre en agriculture — Projets approuvés"
    },
    "layout_name": "content page 1 column",
    "lang": "en"
}