{
    "dcr_id": "1515684217044",
    "title": {
        "en": "AgriInnovate Program: Contact information",
        "fr": "Programme Agri-innover : Pour nous joindre"
    },
    "modified": "2019-02-21",
    "issued": "2018-02-13",
    "templatetype": "content page 1 column",
    "page_type": "0",
    "node_id": "1517240289174",
    "dc_date_created": "2018-02-13",
    "managing_branch": "PAB",
    "parent_node_id": "",
    "label": {
        "en": "AgriInnovate Program: Contact information",
        "fr": "Programme Agri-innover : Pour nous joindre"
    },
    "exturl": "",
    "teamsite_location": {
        "en": "/default/main/AAFC-AAC/Internet-Internet/Group-Ensemble/ProgServ-ProgServ/WORKAREA/ProgServ-ProgServ/templatedata/comm-comm/gene-gene/data/01/agriinnovate_6_contact_1515684217044_en",
        "fr": "/default/main/AAFC-AAC/Internet-Internet/Group-Ensemble/ProgServ-ProgServ/WORKAREA/ProgServ-ProgServ/templatedata/comm-comm/gene-gene/data/01/agriinnovate_6_contact_1515684217044_fr"
    },
    "type_name": "comm-comm/gene-gene",
    "has_dcr_id": true,
    "breadcrumb": {
        "en": "AgriInnovate Program: Contact information",
        "fr": "Programme Agri-innover : Pour nous joindre"
    },
    "layout_name": "content page 1 column",
    "lang": "en"
}