{
    "dcr_id": "1515515941101",
    "title": {
        "en": "Canary Seed – Not Just \"For the Birds\" Anymore",
        "fr": "Les graines de l'alpiste des Canaries ne sont plus uniquement une nourriture à oiseaux"
    },
    "modified": "2018-03-22",
    "issued": "2018-01-24",
    "templatetype": "content page 1 column",
    "page_type": "0",
    "node_id": "1378999410478",
    "dc_date_created": "2018-01-24",
    "managing_branch": "PAB",
    "parent_node_id": "",
    "label": {
        "en": "Canary Seed – Not Just \"For the Birds\" Anymore",
        "fr": "Les graines de l'alpiste des Canaries ne sont plus uniquement une nourriture à oiseaux"
    },
    "exturl": "",
    "teamsite_location": {
        "en": "/default/main/AAFC-AAC/Internet-Internet/CCB-DGCC/WORKAREA/CCB-DGCC/templatedata/comm-comm/gene-gene/data/feature_article_hairless_canary_1515515941101_en",
        "fr": "/default/main/AAFC-AAC/Internet-Internet/CCB-DGCC/WORKAREA/CCB-DGCC/templatedata/comm-comm/gene-gene/data/feature_article_hairless_canary_1515515941101_fr"
    },
    "type_name": "comm-comm/gene-gene",
    "has_dcr_id": true,
    "breadcrumb": {
        "en": "Canary Seed – Not Just \"For the Birds\" Anymore",
        "fr": "Les graines de l'alpiste des Canaries ne sont plus uniquement une nourriture à oiseaux"
    },
    "layout_name": "content page 1 column",
    "lang": "en"
}