{
    "dcr_id": "1516214005422",
    "title": {
        "en": "2018 AgriStability Program – Corporation/Co-operative and Special Individual Harmonized Form and Guide – Commodity List and Program Payment List",
        "fr": "Programmes d'Agri-stabilité en 2018 – Guide et formulaire harmonisés pour les sociétés, les coopératives et les particuliers de catégorie spéciale – Liste de produits"
    },
    "modified": "2020-07-13",
    "issued": "2020-07-13",
    "templatetype": "content page 1 column",
    "page_type": "0",
    "node_id": "1594037384895",
    "dc_date_created": "2020-07-13",
    "managing_branch": "PAB",
    "parent_node_id": "",
    "label": {
        "en": "2018 AgriStability Program – Corporation/Co-operative and Special Individual Harmonized Form and Guide – Commodity List and Program Payment List",
        "fr": "Programmes d'Agri-stabilité en 2018 – Guide et formulaire harmonisés pour les sociétés, les coopératives et les particuliers de catégorie spéciale – Liste de produits"
    },
    "exturl": "",
    "teamsite_location": {
        "en": "/default/main/AAFC-AAC/Internet-Internet/Group-Ensemble/ProgServ-ProgServ/WORKAREA/ProgServ-ProgServ/templatedata/comm-comm/gene-gene/data/06/as_2018_commodity_list_1516214005422_en",
        "fr": "/default/main/AAFC-AAC/Internet-Internet/Group-Ensemble/ProgServ-ProgServ/WORKAREA/ProgServ-ProgServ/templatedata/comm-comm/gene-gene/data/06/as_2018_commodity_list_1516214005422_fr"
    },
    "type_name": "comm-comm/gene-gene",
    "has_dcr_id": true,
    "breadcrumb": {
        "en": "2018 AgriStability Program – Corporation/Co-operative and Special Individual Harmonized Form and Guide – Commodity List and Program Payment List",
        "fr": "Programmes d'Agri-stabilité en 2018 – Guide et formulaire harmonisés pour les sociétés, les coopératives et les particuliers de catégorie spéciale – Liste de produits"
    },
    "layout_name": "content page 1 column",
    "lang": "en"
}