{
    "dcr_id": "1521203237845",
    "title": {
        "en": "Agricultural Clean Technology Program: Step 3. How to apply",
        "fr": "Programme des technologies propres en agriculture : Étape 3. Comment présenter une demande"
    },
    "modified": "2020-05-26",
    "issued": "2018-03-19",
    "templatetype": "content page 1 column",
    "page_type": "0",
    "node_id": "1521128722586",
    "dc_date_created": "2018-03-19",
    "managing_branch": "PAB",
    "parent_node_id": "",
    "label": {
        "en": "Agricultural Clean Technology Program: Step 3. How to apply",
        "fr": "Programme des technologies propres en agriculture : Étape 3. Comment présenter une demande"
    },
    "exturl": "",
    "teamsite_location": {
        "en": "/default/main/AAFC-AAC/Internet-Internet/Group-Ensemble/ProgServ-ProgServ/WORKAREA/ProgServ-ProgServ/templatedata/comm-comm/gene-gene/data/03/act_program_3_howtoapply_1521203237845_en",
        "fr": "/default/main/AAFC-AAC/Internet-Internet/Group-Ensemble/ProgServ-ProgServ/WORKAREA/ProgServ-ProgServ/templatedata/comm-comm/gene-gene/data/03/act_program_3_howtoapply_1521203237845_fr"
    },
    "type_name": "comm-comm/gene-gene",
    "has_dcr_id": true,
    "breadcrumb": {
        "en": "Agricultural Clean Technology Program: Step 3. How to apply",
        "fr": "Programme des technologies propres en agriculture : Étape 3. Comment présenter une demande"
    },
    "layout_name": "content page 1 column",
    "lang": "en"
}