{
    "dcr_id": "1524779444807",
    "title": {
        "en": "Sixteenth meeting of the Organics Value Chain Roundtable: Record of decision",
        "fr": "Seizième réunion de la Table ronde sur la chaîne de valeur des  produits biologiques : Compte rendu des décisions"
    },
    "modified": "2018-04-30",
    "issued": "2018-04-30",
    "templatetype": "<NULL>",
    "page_type": "0",
    "node_id": "1384804095531",
    "dc_date_created": "2018-04-30",
    "managing_branch": "MISB",
    "parent_node_id": "",
    "label": {
        "en": "Sixteenth meeting of the Organics Value Chain Roundtable: Record of decision",
        "fr": "Seizième réunion de la Table ronde sur la chaîne de valeur des  produits biologiques : Compte rendu des décisions"
    },
    "exturl": "",
    "teamsite_location": {
        "en": "/default/main/AAFC-AAC/Internet-Internet/MISB-DGSIM/VCR-TCV/WORKAREA/VCR-TCV/templatedata/comm-comm/gene-gene/data/vcr_organic_rec_febmar2018_1524779444807_en",
        "fr": "/default/main/AAFC-AAC/Internet-Internet/MISB-DGSIM/VCR-TCV/WORKAREA/VCR-TCV/templatedata/comm-comm/gene-gene/data/vcr_organic_rec_febmar2018_1524779444807_fr"
    },
    "type_name": "comm-comm/gene-gene",
    "has_dcr_id": true,
    "breadcrumb": {
        "en": "Sixteenth meeting of the Organics Value Chain Roundtable: Record of decision",
        "fr": "Seizième réunion de la Table ronde sur la chaîne de valeur des  produits biologiques : Compte rendu des décisions"
    },
    "layout_name": "<NULL>",
    "lang": "en"
}