{
    "dcr_id": "1529086839900",
    "title": {
        "en": "Evaluation of the Minor Use Pesticides Program ",
        "fr": "Évaluation du Programme des pesticides à usage limité"
    },
    "modified": "2018-07-27",
    "issued": "2018-07-27",
    "templatetype": "content page 1 column",
    "page_type": "0",
    "node_id": "1566306181000",
    "dc_date_created": "2018-07-27",
    "managing_branch": "PAB",
    "parent_node_id": "",
    "label": {
        "en": "Evaluation of the Minor Use Pesticides Program ",
        "fr": "Évaluation du Programme des pesticides à usage limité"
    },
    "exturl": "",
    "teamsite_location": {
        "en": "/default/main/AAFC-AAC/Internet-Internet/Common-Commun/WORKAREA/Common-Commun/templatedata/comm-comm/gene-gene/data/06/eval_mupp_2018_1529086839900_en",
        "fr": "/default/main/AAFC-AAC/Internet-Internet/Common-Commun/WORKAREA/Common-Commun/templatedata/comm-comm/gene-gene/data/06/eval_mupp_2018_1529086839900_fr"
    },
    "type_name": "comm-comm/gene-gene",
    "has_dcr_id": true,
    "breadcrumb": {
        "en": "Evaluation of the Minor Use Pesticides Program ",
        "fr": "Évaluation du Programme des pesticides à usage limité"
    },
    "layout_name": "content page 1 column",
    "lang": "en"
}