{
    "dcr_id": "1529342001196",
    "title": {
        "en": "Ninth meeting of the Seed Sector Value Chain Roundtable: Record of decision",
        "fr": "Neuvième réunion de la Table ronde sur la chaîne de valeur du secteur des semences : Compte rendu des décisions"
    },
    "modified": "2018-06-19",
    "issued": "2018-06-19",
    "templatetype": "<NULL>",
    "page_type": "0",
    "node_id": "1384804194095",
    "dc_date_created": "2018-06-19",
    "managing_branch": "MISB",
    "parent_node_id": "",
    "label": {
        "en": "Ninth meeting of the Seed Sector Value Chain Roundtable: Record of decision",
        "fr": "Neuvième réunion de la Table ronde sur la chaîne de valeur du secteur des semences : Compte rendu des décisions"
    },
    "exturl": "",
    "teamsite_location": {
        "en": "/default/main/AAFC-AAC/Internet-Internet/MISB-DGSIM/VCR-TCV/WORKAREA/VCR-TCV/templatedata/comm-comm/gene-gene/data/9th_meeting_seed_vcr_1529342001196_en",
        "fr": "/default/main/AAFC-AAC/Internet-Internet/MISB-DGSIM/VCR-TCV/WORKAREA/VCR-TCV/templatedata/comm-comm/gene-gene/data/9th_meeting_seed_vcr_1529342001196_fr"
    },
    "type_name": "comm-comm/gene-gene",
    "has_dcr_id": true,
    "breadcrumb": {
        "en": "Ninth meeting of the Seed Sector Value Chain Roundtable: Record of decision",
        "fr": "Neuvième réunion de la Table ronde sur la chaîne de valeur du secteur des semences : Compte rendu des décisions"
    },
    "layout_name": "<NULL>",
    "lang": "en"
}