{
    "dcr_id": "1535565521903",
    "title": {
        "en": "Guelph Research and Development Centre Open House",
        "fr": "Portes ouvertes au Centre de recherche et de développement de Guelph"
    },
    "modified": "2018-09-26",
    "issued": "2018-08-30",
    "templatetype": "content page 1 column",
    "page_type": "0",
    "node_id": "1354137774089",
    "dc_date_created": "2018-08-30",
    "managing_branch": "PAB",
    "parent_node_id": "",
    "label": {
        "en": "Guelph Research and Development Centre Open House",
        "fr": "Portes ouvertes au Centre de recherche et de développement de Guelph"
    },
    "exturl": "",
    "teamsite_location": {
        "en": "/default/main/AAFC-AAC/Internet-Internet/CCB-DGCC/WORKAREA/CCB-DGCC/templatedata/comm-comm/gene-gene/data/event_-_guelph_research_1535565521903_en",
        "fr": "/default/main/AAFC-AAC/Internet-Internet/CCB-DGCC/WORKAREA/CCB-DGCC/templatedata/comm-comm/gene-gene/data/event_-_guelph_research_1535565521903_fr"
    },
    "type_name": "comm-comm/gene-gene",
    "has_dcr_id": true,
    "breadcrumb": {
        "en": "Guelph Research and Development Centre Open House",
        "fr": "Portes ouvertes au Centre de recherche et de développement de Guelph"
    },
    "layout_name": "content page 1 column",
    "lang": "en"
}