{
    "dcr_id": "1535579289839",
    "title": {
        "en": "Reduction of the dependence on organophosphorus pesticides to control insect pests of apple in the post-bloom stage",
        "fr": "Réduction de la dépendance aux organophosphorés dans la lutte aux insectes du pommier en période postflorale"
    },
    "modified": "2018-10-12",
    "issued": "2018-10-12",
    "templatetype": "content page 1 column",
    "page_type": "0",
    "node_id": "1535122427752",
    "dc_date_created": "2018-10-12",
    "managing_branch": "PAB",
    "parent_node_id": "",
    "label": {
        "en": "Reduction of the dependence on organophosphorus pesticides to control insect pests of apple in the post-bloom stage",
        "fr": "Réduction de la dépendance aux organophosphorés dans la lutte aux insectes du pommier en période postflorale"
    },
    "exturl": "",
    "teamsite_location": {
        "en": "/default/main/AAFC-AAC/Internet-Internet/Group-Ensemble/ProgServ-ProgServ/WORKAREA/ProgServ-ProgServ/templatedata/comm-comm/gene-gene/data/08/bpi06-330_1535579289839_en",
        "fr": "/default/main/AAFC-AAC/Internet-Internet/Group-Ensemble/ProgServ-ProgServ/WORKAREA/ProgServ-ProgServ/templatedata/comm-comm/gene-gene/data/08/bpi06-330_1535579289839_fr"
    },
    "type_name": "comm-comm/gene-gene",
    "has_dcr_id": true,
    "breadcrumb": {
        "en": "Reduction of the dependence on organophosphorus pesticides to control insect pests of apple in the post-bloom stage",
        "fr": "Réduction de la dépendance aux organophosphorés dans la lutte aux insectes du pommier en période postflorale"
    },
    "layout_name": "content page 1 column",
    "lang": "en"
}