{
    "dcr_id": "1535499029857",
    "title": {
        "en": "Crop Profile for Canola in Canada - January 2005 (43 pp) - Synopsis",
        "fr": "Profil de la culture du canola au Canada - Janvier 2005 (43 pages) - Résumé"
    },
    "modified": "2018-10-12",
    "issued": "2018-10-12",
    "templatetype": "content page 1 column",
    "page_type": "0",
    "node_id": "1535122352575",
    "dc_date_created": "2018-10-12",
    "managing_branch": "PAB",
    "parent_node_id": "",
    "label": {
        "en": "Crop Profile for Canola in Canada - January 2005 (43 pp) - Synopsis",
        "fr": "Profil de la culture du canola au Canada - Janvier 2005 (43 pages) - Résumé"
    },
    "exturl": "",
    "teamsite_location": {
        "en": "/default/main/AAFC-AAC/Internet-Internet/Group-Ensemble/ProgServ-ProgServ/WORKAREA/ProgServ-ProgServ/templatedata/comm-comm/gene-gene/data/08/cp_canola_1535499029857_en",
        "fr": "/default/main/AAFC-AAC/Internet-Internet/Group-Ensemble/ProgServ-ProgServ/WORKAREA/ProgServ-ProgServ/templatedata/comm-comm/gene-gene/data/08/cp_canola_1535499029857_fr"
    },
    "type_name": "comm-comm/gene-gene",
    "has_dcr_id": true,
    "breadcrumb": {
        "en": "Crop Profile for Canola in Canada - January 2005 (43 pp) - Synopsis",
        "fr": "Profil de la culture du canola au Canada - Janvier 2005 (43 pages) - Résumé"
    },
    "layout_name": "content page 1 column",
    "lang": "en"
}