{
    "dcr_id": "1535558002544",
    "title": {
        "en": "Crop Profile for Lentil in Canada, 2015 (62 pages) - Synopsis",
        "fr": "Profil de la culture de la lentille au Canada, 2015 (71 pages) - Résumé"
    },
    "modified": "2018-10-12",
    "issued": "2018-10-12",
    "templatetype": "content page 1 column",
    "page_type": "0",
    "node_id": "1535122352575",
    "dc_date_created": "2018-10-12",
    "managing_branch": "PAB",
    "parent_node_id": "",
    "label": {
        "en": "Crop Profile for Lentil in Canada, 2015 (62 pages) - Synopsis",
        "fr": "Profil de la culture de la lentille au Canada, 2015 (71 pages) - Résumé"
    },
    "exturl": "",
    "teamsite_location": {
        "en": "/default/main/AAFC-AAC/Internet-Internet/Group-Ensemble/ProgServ-ProgServ/WORKAREA/ProgServ-ProgServ/templatedata/comm-comm/gene-gene/data/08/cp_lentil_1535558002544_en",
        "fr": "/default/main/AAFC-AAC/Internet-Internet/Group-Ensemble/ProgServ-ProgServ/WORKAREA/ProgServ-ProgServ/templatedata/comm-comm/gene-gene/data/08/cp_lentil_1535558002544_fr"
    },
    "type_name": "comm-comm/gene-gene",
    "has_dcr_id": true,
    "breadcrumb": {
        "en": "Crop Profile for Lentil in Canada, 2015 (62 pages) - Synopsis",
        "fr": "Profil de la culture de la lentille au Canada, 2015 (71 pages) - Résumé"
    },
    "layout_name": "content page 1 column",
    "lang": "en"
}