{
    "dcr_id": "1536944585652",
    "title": {
        "en": "Development of novel and blended insecticide formulations for low risk management of wireworms in potatoes",
        "fr": "Élaboration de nouvelles préparations d'insecticides mélangés dans le cadre d'une lutte dirigée à faible risque contre les larves de taupin"
    },
    "modified": "2018-10-12",
    "issued": "2018-10-12",
    "templatetype": "content page 1 column",
    "page_type": "0",
    "node_id": "1535122427752",
    "dc_date_created": "2018-10-12",
    "managing_branch": "PAB",
    "parent_node_id": "",
    "label": {
        "en": "Development of novel and blended insecticide formulations for low risk management of wireworms in potatoes",
        "fr": "Élaboration de nouvelles préparations d'insecticides mélangés dans le cadre d'une lutte dirigée à faible risque contre les larves de taupin"
    },
    "exturl": "",
    "teamsite_location": {
        "en": "/default/main/AAFC-AAC/Internet-Internet/Group-Ensemble/ProgServ-ProgServ/WORKAREA/ProgServ-ProgServ/templatedata/comm-comm/gene-gene/data/09/mur06-310_1536944585652_en",
        "fr": "/default/main/AAFC-AAC/Internet-Internet/Group-Ensemble/ProgServ-ProgServ/WORKAREA/ProgServ-ProgServ/templatedata/comm-comm/gene-gene/data/09/mur06-310_1536944585652_fr"
    },
    "type_name": "comm-comm/gene-gene",
    "has_dcr_id": true,
    "breadcrumb": {
        "en": "Development of novel and blended insecticide formulations for low risk management of wireworms in potatoes",
        "fr": "Élaboration de nouvelles préparations d'insecticides mélangés dans le cadre d'une lutte dirigée à faible risque contre les larves de taupin"
    },
    "layout_name": "content page 1 column",
    "lang": "en"
}