{
    "dcr_id": "1536858324889",
    "title": {
        "en": "Effect of a biological control fungicide agent (Pseudomonas syringae) and a chemical fungicide SCALA (pyrimethanil) on post harvest blue and gray mold of apple",
        "fr": "Effets d'un fongicide biologique (Pseudomonas syringae) et du fongicide chimique SCALA (pyrimethanil) sur la moisissure bleue et la moisissure grise des pommes après la récolte"
    },
    "modified": "2018-10-12",
    "issued": "2018-10-12",
    "templatetype": "content page 1 column",
    "page_type": "0",
    "node_id": "1535122427752",
    "dc_date_created": "2018-10-12",
    "managing_branch": "PAB",
    "parent_node_id": "",
    "label": {
        "en": "Effect of a biological control fungicide agent (Pseudomonas syringae) and a chemical fungicide SCALA (pyrimethanil) on post harvest blue and gray mold of apple",
        "fr": "Effets d'un fongicide biologique (Pseudomonas syringae) et du fongicide chimique SCALA (pyrimethanil) sur la moisissure bleue et la moisissure grise des pommes après la récolte"
    },
    "exturl": "",
    "teamsite_location": {
        "en": "/default/main/AAFC-AAC/Internet-Internet/Group-Ensemble/ProgServ-ProgServ/WORKAREA/ProgServ-ProgServ/templatedata/comm-comm/gene-gene/data/09/mu03-path01_1536858324889_en",
        "fr": "/default/main/AAFC-AAC/Internet-Internet/Group-Ensemble/ProgServ-ProgServ/WORKAREA/ProgServ-ProgServ/templatedata/comm-comm/gene-gene/data/09/mu03-path01_1536858324889_fr"
    },
    "type_name": "comm-comm/gene-gene",
    "has_dcr_id": true,
    "breadcrumb": {
        "en": "Effect of a biological control fungicide agent (Pseudomonas syringae) and a chemical fungicide SCALA (pyrimethanil) on post harvest blue and gray mold of apple",
        "fr": "Effets d'un fongicide biologique (Pseudomonas syringae) et du fongicide chimique SCALA (pyrimethanil) sur la moisissure bleue et la moisissure grise des pommes après la récolte"
    },
    "layout_name": "content page 1 column",
    "lang": "en"
}