{
    "dcr_id": "1536860662158",
    "title": {
        "en": "Seed and shoot treatments and the ecology of biological control agents for bacterial and fungal diseases of tomato and pepper",
        "fr": "Traitement des semences et des pousses et écologie des biopesticides contre les maladies bactériennes et fongiques de la tomate et du poivron"
    },
    "modified": "2018-10-12",
    "issued": "2018-10-12",
    "templatetype": "content page 1 column",
    "page_type": "0",
    "node_id": "1535122427752",
    "dc_date_created": "2018-10-12",
    "managing_branch": "PAB",
    "parent_node_id": "",
    "label": {
        "en": "Seed and shoot treatments and the ecology of biological control agents for bacterial and fungal diseases of tomato and pepper",
        "fr": "Traitement des semences et des pousses et écologie des biopesticides contre les maladies bactériennes et fongiques de la tomate et du poivron"
    },
    "exturl": "",
    "teamsite_location": {
        "en": "/default/main/AAFC-AAC/Internet-Internet/Group-Ensemble/ProgServ-ProgServ/WORKAREA/ProgServ-ProgServ/templatedata/comm-comm/gene-gene/data/09/mu03-path03_1536860662158_en",
        "fr": "/default/main/AAFC-AAC/Internet-Internet/Group-Ensemble/ProgServ-ProgServ/WORKAREA/ProgServ-ProgServ/templatedata/comm-comm/gene-gene/data/09/mu03-path03_1536860662158_fr"
    },
    "type_name": "comm-comm/gene-gene",
    "has_dcr_id": true,
    "breadcrumb": {
        "en": "Seed and shoot treatments and the ecology of biological control agents for bacterial and fungal diseases of tomato and pepper",
        "fr": "Traitement des semences et des pousses et écologie des biopesticides contre les maladies bactériennes et fongiques de la tomate et du poivron"
    },
    "layout_name": "content page 1 column",
    "lang": "en"
}