{
    "dcr_id": "1537379634075",
    "title": {
        "en": "Facilitating the adoption of reduced risk approaches to pest management in apples in Ontario",
        "fr": "Faciliter l'adoption de méthodes en matière de réduction des risques de la lutte dirigée des pommes en Ontario"
    },
    "modified": "2018-10-12",
    "issued": "2018-10-12",
    "templatetype": "content page 1 column",
    "page_type": "0",
    "node_id": "1535122427752",
    "dc_date_created": "2018-10-12",
    "managing_branch": "PAB",
    "parent_node_id": "",
    "label": {
        "en": "Facilitating the adoption of reduced risk approaches to pest management in apples in Ontario",
        "fr": "Faciliter l'adoption de méthodes en matière de réduction des risques de la lutte dirigée des pommes en Ontario"
    },
    "exturl": "",
    "teamsite_location": {
        "en": "/default/main/AAFC-AAC/Internet-Internet/Group-Ensemble/ProgServ-ProgServ/WORKAREA/ProgServ-ProgServ/templatedata/comm-comm/gene-gene/data/09/prr09-020_1537379634075_en",
        "fr": "/default/main/AAFC-AAC/Internet-Internet/Group-Ensemble/ProgServ-ProgServ/WORKAREA/ProgServ-ProgServ/templatedata/comm-comm/gene-gene/data/09/prr09-020_1537379634075_fr"
    },
    "type_name": "comm-comm/gene-gene",
    "has_dcr_id": true,
    "breadcrumb": {
        "en": "Facilitating the adoption of reduced risk approaches to pest management in apples in Ontario",
        "fr": "Faciliter l'adoption de méthodes en matière de réduction des risques de la lutte dirigée des pommes en Ontario"
    },
    "layout_name": "content page 1 column",
    "lang": "en"
}