{
    "dcr_id": "1537291427054",
    "title": {
        "en": "Reducing the impact of irrigated potato production on the risk of pesticide contamination of the Assiniboine delta aquifer",
        "fr": "Réduction de l’incidence de la production irriguée de pommes de terre sur le risque de contamination de l’aquifère du delta de l’Assiniboine"
    },
    "modified": "2018-10-12",
    "issued": "2018-10-12",
    "templatetype": "content page 1 column",
    "page_type": "0",
    "node_id": "1535122427752",
    "dc_date_created": "2018-10-12",
    "managing_branch": "PAB",
    "parent_node_id": "",
    "label": {
        "en": "Reducing the impact of irrigated potato production on the risk of pesticide contamination of the Assiniboine delta aquifer",
        "fr": "Réduction de l’incidence de la production irriguée de pommes de terre sur le risque de contamination de l’aquifère du delta de l’Assiniboine"
    },
    "exturl": "",
    "teamsite_location": {
        "en": "/default/main/AAFC-AAC/Internet-Internet/Group-Ensemble/ProgServ-ProgServ/WORKAREA/ProgServ-ProgServ/templatedata/comm-comm/gene-gene/data/09/prr03-600_1537291427054_en",
        "fr": "/default/main/AAFC-AAC/Internet-Internet/Group-Ensemble/ProgServ-ProgServ/WORKAREA/ProgServ-ProgServ/templatedata/comm-comm/gene-gene/data/09/prr03-600_1537291427054_fr"
    },
    "type_name": "comm-comm/gene-gene",
    "has_dcr_id": true,
    "breadcrumb": {
        "en": "Reducing the impact of irrigated potato production on the risk of pesticide contamination of the Assiniboine delta aquifer",
        "fr": "Réduction de l’incidence de la production irriguée de pommes de terre sur le risque de contamination de l’aquifère du delta de l’Assiniboine"
    },
    "layout_name": "content page 1 column",
    "lang": "en"
}