{
    "dcr_id": "1537547044817",
    "title": {
        "en": "Integrated management of white grub species in berry crops ",
        "fr": "Lutte intégrée contre les vers blanc dans les cultures de petits fruits"
    },
    "modified": "2018-10-12",
    "issued": "2018-10-12",
    "templatetype": "content page 1 column",
    "page_type": "0",
    "node_id": "1535122427752",
    "dc_date_created": "2018-10-12",
    "managing_branch": "PAB",
    "parent_node_id": "",
    "label": {
        "en": "Integrated management of white grub species in berry crops ",
        "fr": "Lutte intégrée contre les vers blanc dans les cultures de petits fruits"
    },
    "exturl": "",
    "teamsite_location": {
        "en": "/default/main/AAFC-AAC/Internet-Internet/Group-Ensemble/ProgServ-ProgServ/WORKAREA/ProgServ-ProgServ/templatedata/comm-comm/gene-gene/data/09/prr18-030_1537547044817_en",
        "fr": "/default/main/AAFC-AAC/Internet-Internet/Group-Ensemble/ProgServ-ProgServ/WORKAREA/ProgServ-ProgServ/templatedata/comm-comm/gene-gene/data/09/prr18-030_1537547044817_fr"
    },
    "type_name": "comm-comm/gene-gene",
    "has_dcr_id": true,
    "breadcrumb": {
        "en": "Integrated management of white grub species in berry crops ",
        "fr": "Lutte intégrée contre les vers blanc dans les cultures de petits fruits"
    },
    "layout_name": "content page 1 column",
    "lang": "en"
}