{
    "dcr_id": "1537290887193",
    "title": {
        "en": "Use of real-time technologies for the detection and quantification of soilborne plant pathogens",
        "fr": "Utilisation de technologies en temps réel pour la détection et la quantification des pathogènes terricoles"
    },
    "modified": "2018-10-12",
    "issued": "2018-10-12",
    "templatetype": "content page 1 column",
    "page_type": "0",
    "node_id": "1535122427752",
    "dc_date_created": "2018-10-12",
    "managing_branch": "PAB",
    "parent_node_id": "",
    "label": {
        "en": "Use of real-time technologies for the detection and quantification of soilborne plant pathogens",
        "fr": "Utilisation de technologies en temps réel pour la détection et la quantification des pathogènes terricoles"
    },
    "exturl": "",
    "teamsite_location": {
        "en": "/default/main/AAFC-AAC/Internet-Internet/Group-Ensemble/ProgServ-ProgServ/WORKAREA/ProgServ-ProgServ/templatedata/comm-comm/gene-gene/data/09/prr03-500_1537290887193_en",
        "fr": "/default/main/AAFC-AAC/Internet-Internet/Group-Ensemble/ProgServ-ProgServ/WORKAREA/ProgServ-ProgServ/templatedata/comm-comm/gene-gene/data/09/prr03-500_1537290887193_fr"
    },
    "type_name": "comm-comm/gene-gene",
    "has_dcr_id": true,
    "breadcrumb": {
        "en": "Use of real-time technologies for the detection and quantification of soilborne plant pathogens",
        "fr": "Utilisation de technologies en temps réel pour la détection et la quantification des pathogènes terricoles"
    },
    "layout_name": "content page 1 column",
    "lang": "en"
}