{
    "dcr_id": "1537374366272",
    "title": {
        "en": "Raising awareness to pesticide risk reduction on the farm for the benefit of health and the environment",
        "fr": "Sensibilisation et bilan à la réduction des risques des pesticides en milieu agricole pour la santé et l'environnement"
    },
    "modified": "2018-10-12",
    "issued": "2018-10-12",
    "templatetype": "content page 1 column",
    "page_type": "0",
    "node_id": "1535122427752",
    "dc_date_created": "2018-10-12",
    "managing_branch": "PAB",
    "parent_node_id": "",
    "label": {
        "en": "Raising awareness to pesticide risk reduction on the farm for the benefit of health and the environment",
        "fr": "Sensibilisation et bilan à la réduction des risques des pesticides en milieu agricole pour la santé et l'environnement"
    },
    "exturl": "",
    "teamsite_location": {
        "en": "/default/main/AAFC-AAC/Internet-Internet/Group-Ensemble/ProgServ-ProgServ/WORKAREA/ProgServ-ProgServ/templatedata/comm-comm/gene-gene/data/09/prr07-300_1537374366272_en",
        "fr": "/default/main/AAFC-AAC/Internet-Internet/Group-Ensemble/ProgServ-ProgServ/WORKAREA/ProgServ-ProgServ/templatedata/comm-comm/gene-gene/data/09/prr07-300_1537374366272_fr"
    },
    "type_name": "comm-comm/gene-gene",
    "has_dcr_id": true,
    "breadcrumb": {
        "en": "Raising awareness to pesticide risk reduction on the farm for the benefit of health and the environment",
        "fr": "Sensibilisation et bilan à la réduction des risques des pesticides en milieu agricole pour la santé et l'environnement"
    },
    "layout_name": "content page 1 column",
    "lang": "en"
}