{
    "dcr_id": "1537544929436",
    "title": {
        "en": "Survey of Delia species of maggots affecting onion in Quebec, Ontario and Eastern Provinces",
        "fr": "Enquête sur les espèces de mouches des racines de type Delia qui s’attaquent aux cultures d’oignons au Québec, en Ontario et dans les provinces l’Est"
    },
    "modified": "2020-11-16",
    "issued": "2018-10-12",
    "templatetype": "content page 1 column",
    "page_type": "0",
    "node_id": "1535122427752",
    "dc_date_created": "2018-10-12",
    "managing_branch": "PAB",
    "parent_node_id": "",
    "label": {
        "en": "Survey of Delia species of maggots affecting onion in Quebec, Ontario and Eastern Provinces",
        "fr": "Enquête sur les espèces de mouches des racines de type Delia qui s’attaquent aux cultures d’oignons au Québec, en Ontario et dans les provinces l’Est"
    },
    "exturl": "",
    "teamsite_location": {
        "en": "/default/main/AAFC-AAC/Internet-Internet/Group-Ensemble/ProgServ-ProgServ/WORKAREA/ProgServ-ProgServ/templatedata/comm-comm/gene-gene/data/09/prr17-010_1537544929436_en",
        "fr": "/default/main/AAFC-AAC/Internet-Internet/Group-Ensemble/ProgServ-ProgServ/WORKAREA/ProgServ-ProgServ/templatedata/comm-comm/gene-gene/data/09/prr17-010_1537544929436_fr"
    },
    "type_name": "comm-comm/gene-gene",
    "has_dcr_id": true,
    "breadcrumb": {
        "en": "Survey of Delia species of maggots affecting onion in Quebec, Ontario and Eastern Provinces",
        "fr": "Enquête sur les espèces de mouches des racines de type Delia qui s’attaquent aux cultures d’oignons au Québec, en Ontario et dans les provinces l’Est"
    },
    "layout_name": "content page 1 column",
    "lang": "en"
}