{
    "dcr_id": "1541182740084",
    "title": {
        "en": "Living Laboratories Initiative: Collaborative Program: Step 4. After you apply",
        "fr": "Initiative des laboratoires vivants : Programme de collaboration : Étape 4. Après avoir présenté votre demande"
    },
    "modified": "2020-09-04",
    "issued": "2019-01-04",
    "templatetype": "content page 1 column",
    "page_type": "0",
    "node_id": "1541185357140",
    "dc_date_created": "2019-01-04",
    "managing_branch": "PAB",
    "parent_node_id": "",
    "label": {
        "en": "Living Laboratories Initiative: Collaborative Program: Step 4. After you apply",
        "fr": "Initiative des laboratoires vivants : Programme de collaboration : Étape 4. Après avoir présenté votre demande"
    },
    "exturl": "",
    "teamsite_location": {
        "en": "/default/main/AAFC-AAC/Internet-Internet/Group-Ensemble/ProgServ-ProgServ/WORKAREA/ProgServ-ProgServ/templatedata/comm-comm/gene-gene/data/11/living_laboratories_initiative_step4_1541182740084_en",
        "fr": "/default/main/AAFC-AAC/Internet-Internet/Group-Ensemble/ProgServ-ProgServ/WORKAREA/ProgServ-ProgServ/templatedata/comm-comm/gene-gene/data/11/living_laboratories_initiative_step4_1541182740084_fr"
    },
    "type_name": "comm-comm/gene-gene",
    "has_dcr_id": true,
    "breadcrumb": {
        "en": "Living Laboratories Initiative: Collaborative Program: Step 4. After you apply",
        "fr": "Initiative des laboratoires vivants : Programme de collaboration : Étape 4. Après avoir présenté votre demande"
    },
    "layout_name": "content page 1 column",
    "lang": "en"
}