{
    "dcr_id": "1542138031075",
    "title": {
        "en": "The Three Sisters: Optimizing the value and food potential of an ancestral indigenous crop system",
        "fr": "Les Trois Soeurs – Valorisation d’une culture autochtone ancestrale et de son potentiel alimentaire"
    },
    "modified": "2020-12-11",
    "issued": "2018-11-14",
    "templatetype": "content page 1 column",
    "page_type": "0",
    "node_id": "1378999410478",
    "dc_date_created": "2018-11-14",
    "managing_branch": "PAB",
    "parent_node_id": "",
    "label": {
        "en": "The Three Sisters: Optimizing the value and food potential of an ancestral indigenous crop system",
        "fr": "Les Trois Soeurs – Valorisation d’une culture autochtone ancestrale et de son potentiel alimentaire"
    },
    "exturl": "",
    "teamsite_location": {
        "en": "/default/main/AAFC-AAC/Internet-Internet/CCB-DGCC/WORKAREA/CCB-DGCC/templatedata/comm-comm/gene-gene/data/the_three_sisters_article_1542138031075_en",
        "fr": "/default/main/AAFC-AAC/Internet-Internet/CCB-DGCC/WORKAREA/CCB-DGCC/templatedata/comm-comm/gene-gene/data/the_three_sisters_article_1542138031075_fr"
    },
    "type_name": "comm-comm/gene-gene",
    "has_dcr_id": true,
    "breadcrumb": {
        "en": "The Three Sisters: Optimizing the value and food potential of an ancestral indigenous crop system",
        "fr": "Les Trois Soeurs – Valorisation d’une culture autochtone ancestrale et de son potentiel alimentaire"
    },
    "layout_name": "content page 1 column",
    "lang": "en"
}