{
    "dcr_id": "1545236834155",
    "title": {
        "en": "Cover Crops: a solution to protect the Great Lakes",
        "fr": "Les cultures de couverture : une solution pour protéger les Grands Lacs"
    },
    "modified": "2018-12-20",
    "issued": "2018-12-20",
    "templatetype": "content page 1 column",
    "page_type": "0",
    "node_id": "1378999410478",
    "dc_date_created": "2018-12-20",
    "managing_branch": "PAB",
    "parent_node_id": "",
    "label": {
        "en": "Cover Crops: a solution to protect the Great Lakes",
        "fr": "Les cultures de couverture : une solution pour protéger les Grands Lacs"
    },
    "exturl": "",
    "teamsite_location": {
        "en": "/default/main/AAFC-AAC/Internet-Internet/CCB-DGCC/WORKAREA/CCB-DGCC/templatedata/comm-comm/gene-gene/data/protect_the_great_lakes_1545236834155_en",
        "fr": "/default/main/AAFC-AAC/Internet-Internet/CCB-DGCC/WORKAREA/CCB-DGCC/templatedata/comm-comm/gene-gene/data/protect_the_great_lakes_1545236834155_fr"
    },
    "type_name": "comm-comm/gene-gene",
    "has_dcr_id": true,
    "breadcrumb": {
        "en": "Cover Crops: a solution to protect the Great Lakes",
        "fr": "Les cultures de couverture : une solution pour protéger les Grands Lacs"
    },
    "layout_name": "content page 1 column",
    "lang": "en"
}