{
    "dcr_id": "1548099623507",
    "title": {
        "en": "AAFC 2016 – Improved rust resistance lines",
        "fr": "AAC 2016 – Lignées résistantes à la rouille améliorées"
    },
    "modified": "2019-01-24",
    "issued": "2019-01-24",
    "templatetype": "content page 1 column",
    "page_type": "0",
    "node_id": "1547567752049",
    "dc_date_created": "2019-01-24",
    "managing_branch": "PAB",
    "parent_node_id": "",
    "label": {
        "en": "AAFC 2016 – Improved rust resistance lines",
        "fr": "AAC 2016 – Lignées résistantes à la rouille améliorées"
    },
    "exturl": "",
    "teamsite_location": {
        "en": "/default/main/AAFC-AAC/Internet-Internet/Common-Commun/WORKAREA/Common-Commun/templatedata/comm-comm/gene-gene/data/01/improved_rust_resistance_lines_1548099623507_en",
        "fr": "/default/main/AAFC-AAC/Internet-Internet/Common-Commun/WORKAREA/Common-Commun/templatedata/comm-comm/gene-gene/data/01/improved_rust_resistance_lines_1548099623507_fr"
    },
    "type_name": "comm-comm/gene-gene",
    "has_dcr_id": true,
    "breadcrumb": {
        "en": "AAFC 2016 – Improved rust resistance lines",
        "fr": "AAC 2016 – Lignées résistantes à la rouille améliorées"
    },
    "layout_name": "content page 1 column",
    "lang": "en"
}