{
    "dcr_id": "1548878352420",
    "title": {
        "en": "Poultry market information calendar",
        "fr": "Calendrier des données d'information sur les marchées de l'industrie de la volaille et des oeufs"
    },
    "modified": "2020-12-04",
    "issued": "2019-02-15",
    "templatetype": "content page 1 column",
    "page_type": "0",
    "node_id": "1354137773899",
    "dc_date_created": "2019-02-15",
    "managing_branch": "MISB",
    "parent_node_id": "",
    "label": {
        "en": "Poultry market information calendar",
        "fr": "Calendrier des données d'information sur les marchées de l'industrie de la volaille et des oeufs"
    },
    "exturl": "",
    "teamsite_location": {
        "en": "/default/main/AAFC-AAC/Internet-Internet/MISB-DGSIM/SDAD-DDAS/PE-VO/WORKAREA/PE-VO/templatedata/comm-comm/gene-gene/data/poultry_market_information_calendar_1548878352420_en",
        "fr": "/default/main/AAFC-AAC/Internet-Internet/MISB-DGSIM/SDAD-DDAS/PE-VO/WORKAREA/PE-VO/templatedata/comm-comm/gene-gene/data/poultry_market_information_calendar_1548878352420_fr"
    },
    "type_name": "comm-comm/gene-gene",
    "has_dcr_id": true,
    "breadcrumb": {
        "en": "Poultry market information calendar",
        "fr": "Calendrier des données d'information sur les marchées de l'industrie de la volaille et des oeufs"
    },
    "layout_name": "content page 1 column",
    "lang": "en"
}