{
    "dcr_id": "1548273831479",
    "title": {
        "en": "2019 AgriInvest Program – Corporation/Co-operative and Special Individual Harmonized Guide",
        "fr": "Programmes d'Agri-investissement en 2019 – Guide harmonisé pour les société, les coopératives et les particulier de catégorie spéciale"
    },
    "modified": "2020-08-12",
    "issued": "2019-10-22",
    "templatetype": "content page 1 column",
    "page_type": "0",
    "node_id": "1571322247714",
    "dc_date_created": "2019-10-22",
    "managing_branch": "PAB",
    "parent_node_id": "",
    "label": {
        "en": "2019 AgriInvest Program – Corporation/Co-operative and Special Individual Harmonized Guide",
        "fr": "Programmes d'Agri-investissement en 2019 – Guide harmonisé pour les société, les coopératives et les particulier de catégorie spéciale"
    },
    "exturl": "",
    "teamsite_location": {
        "en": "/default/main/AAFC-AAC/Internet-Internet/Group-Ensemble/ProgServ-ProgServ/WORKAREA/ProgServ-ProgServ/templatedata/comm-comm/gene-gene/data/09/ai_2019_form_guide_1548273831479_en",
        "fr": "/default/main/AAFC-AAC/Internet-Internet/Group-Ensemble/ProgServ-ProgServ/WORKAREA/ProgServ-ProgServ/templatedata/comm-comm/gene-gene/data/09/ai_2019_form_guide_1548273831479_fr"
    },
    "type_name": "comm-comm/gene-gene",
    "has_dcr_id": true,
    "breadcrumb": {
        "en": "2019 AgriInvest Program – Corporation/Co-operative and Special Individual Harmonized Guide",
        "fr": "Programmes d'Agri-investissement en 2019 – Guide harmonisé pour les société, les coopératives et les particulier de catégorie spéciale"
    },
    "layout_name": "content page 1 column",
    "lang": "en"
}