{
    "dcr_id": "1549039019722",
    "title": {
        "en": "2019 Corn Inbred Lines Release CO474",
        "fr": "Lignées de maïs autofécondées mises en circulation en 2019 - CO474"
    },
    "modified": "2019-02-07",
    "issued": "2019-02-07",
    "templatetype": "content page 1 column",
    "page_type": "0",
    "node_id": "1547567752049",
    "dc_date_created": "2019-02-07",
    "managing_branch": "PAB",
    "parent_node_id": "",
    "label": {
        "en": "2019 Corn Inbred Lines Release CO474",
        "fr": "Lignées de maïs autofécondées mises en circulation en 2019 - CO474"
    },
    "exturl": "",
    "teamsite_location": {
        "en": "/default/main/AAFC-AAC/Internet-Internet/Common-Commun/WORKAREA/Common-Commun/templatedata/comm-comm/gene-gene/data/02/co474_corn_inbred_lines_1549039019722_en",
        "fr": "/default/main/AAFC-AAC/Internet-Internet/Common-Commun/WORKAREA/Common-Commun/templatedata/comm-comm/gene-gene/data/02/co474_corn_inbred_lines_1549039019722_fr"
    },
    "type_name": "comm-comm/gene-gene",
    "has_dcr_id": true,
    "breadcrumb": {
        "en": "2019 Corn Inbred Lines Release CO474",
        "fr": "Lignées de maïs autofécondées mises en circulation en 2019 - CO474"
    },
    "layout_name": "content page 1 column",
    "lang": "en"
}