{
    "dcr_id": "1550775968349",
    "title": {
        "en": "Quarterly Financial Report for the quarter ended December 31, 2018",
        "fr": "Rapport financier trimestriel pour le trimestre ayant pris fin le 31 décembre 2018"
    },
    "modified": "2019-03-01",
    "issued": "2019-03-01",
    "templatetype": "content page 1 column",
    "page_type": "0",
    "node_id": "1598368547845",
    "dc_date_created": "2019-03-01",
    "managing_branch": "PAB",
    "parent_node_id": "",
    "label": {
        "en": "Quarterly Financial Report for the quarter ended December 31, 2018",
        "fr": "Rapport financier trimestriel pour le trimestre ayant pris fin le 31 décembre 2018"
    },
    "exturl": "",
    "teamsite_location": {
        "en": "/default/main/AAFC-AAC/Internet-Internet/CCB-DGCC/WORKAREA/CCB-DGCC/templatedata/comm-comm/gene-gene/data/qfr-rft_dec_2018_1550775968349_en",
        "fr": "/default/main/AAFC-AAC/Internet-Internet/CCB-DGCC/WORKAREA/CCB-DGCC/templatedata/comm-comm/gene-gene/data/qfr-rft_dec_2018_1550775968349_fr"
    },
    "type_name": "comm-comm/gene-gene",
    "has_dcr_id": true,
    "breadcrumb": {
        "en": "Quarterly Financial Report for the quarter ended December 31, 2018",
        "fr": "Rapport financier trimestriel pour le trimestre ayant pris fin le 31 décembre 2018"
    },
    "layout_name": "content page 1 column",
    "lang": "en"
}