{
    "dcr_id": "1550873096897",
    "title": {
        "en": "Animal Genetic Resources of Canada - Compare Animals Within the Animal Genetic Resources Database",
        "fr": "Comparer les animaux avec la base de données sur les ressources génétiques animales"
    },
    "modified": "2020-11-24",
    "issued": "2020-11-24",
    "templatetype": "content page 1 column",
    "page_type": "0",
    "node_id": "1550752824954",
    "dc_date_created": "2020-11-24",
    "managing_branch": "PAB",
    "parent_node_id": "",
    "label": {
        "en": "Animal Genetic Resources of Canada - Compare Animals Within the Animal Genetic Resources Database",
        "fr": "Comparer les animaux avec la base de données sur les ressources génétiques animales"
    },
    "exturl": "",
    "teamsite_location": {
        "en": "/default/main/AAFC-AAC/Internet-Internet/Common-Commun/WORKAREA/Common-Commun/templatedata/comm-comm/gene-gene/data/02/cagr_grin_compare_1550873096897_en",
        "fr": "/default/main/AAFC-AAC/Internet-Internet/Common-Commun/WORKAREA/Common-Commun/templatedata/comm-comm/gene-gene/data/02/cagr_grin_compare_1550873096897_fr"
    },
    "type_name": "comm-comm/gene-gene",
    "has_dcr_id": true,
    "breadcrumb": {
        "en": "Animal Genetic Resources of Canada - Compare Animals Within the Animal Genetic Resources Database",
        "fr": "Comparer les animaux avec la base de données sur les ressources génétiques animales"
    },
    "layout_name": "content page 1 column",
    "lang": "en"
}