{
    "dcr_id": "1551903731027",
    "title": {
        "en": "Evaluation of Canadian Pari-Mutuel Agency - Summary",
        "fr": "Évaluation de l’Agence canadienne du pari mutuel - Sommaire"
    },
    "modified": "2019-04-18",
    "issued": "2019-04-18",
    "templatetype": "content page 1 column",
    "page_type": "0",
    "node_id": "1566306181000",
    "dc_date_created": "2019-04-18",
    "managing_branch": "PAB",
    "parent_node_id": "",
    "label": {
        "en": "Evaluation of Canadian Pari-Mutuel Agency - Summary",
        "fr": "Évaluation de l’Agence canadienne du pari mutuel - Sommaire"
    },
    "exturl": "",
    "teamsite_location": {
        "en": "/default/main/AAFC-AAC/Internet-Internet/Common-Commun/WORKAREA/Common-Commun/templatedata/comm-comm/gene-gene/data/03/evaluation_of_cpma_summary_1551903731027_en",
        "fr": "/default/main/AAFC-AAC/Internet-Internet/Common-Commun/WORKAREA/Common-Commun/templatedata/comm-comm/gene-gene/data/03/evaluation_of_cpma_summary_1551903731027_fr"
    },
    "type_name": "comm-comm/gene-gene",
    "has_dcr_id": true,
    "breadcrumb": {
        "en": "Evaluation of Canadian Pari-Mutuel Agency - Summary",
        "fr": "Évaluation de l’Agence canadienne du pari mutuel - Sommaire"
    },
    "layout_name": "content page 1 column",
    "lang": "en"
}