{
    "dcr_id": "1552575762111",
    "title": {
        "en": "Conserving Valuable Canadian Poultry Genetics - You can Help",
        "fr": "Conservation des précieuses ressources génétiques avicoles canadiennes&#160;: vous pouvez aider"
    },
    "modified": "2019-03-20",
    "issued": "2019-03-20",
    "templatetype": "content page 1 column",
    "page_type": "0",
    "node_id": "1378999410478",
    "dc_date_created": "2019-03-20",
    "managing_branch": "PAB",
    "parent_node_id": "",
    "label": {
        "en": "Conserving Valuable Canadian Poultry Genetics - You can Help",
        "fr": "Conservation des précieuses ressources génétiques avicoles canadiennes&#160;: vous pouvez aider"
    },
    "exturl": "",
    "teamsite_location": {
        "en": "/default/main/AAFC-AAC/Internet-Internet/CCB-DGCC/WORKAREA/CCB-DGCC/templatedata/comm-comm/gene-gene/data/conserving_canadian_poultry_genetics_1552575762111_en",
        "fr": "/default/main/AAFC-AAC/Internet-Internet/CCB-DGCC/WORKAREA/CCB-DGCC/templatedata/comm-comm/gene-gene/data/conserving_canadian_poultry_genetics_1552575762111_fr"
    },
    "type_name": "comm-comm/gene-gene",
    "has_dcr_id": true,
    "breadcrumb": {
        "en": "Conserving Valuable Canadian Poultry Genetics - You can Help",
        "fr": "Conservation des précieuses ressources génétiques avicoles canadiennes&#160;: vous pouvez aider"
    },
    "layout_name": "content page 1 column",
    "lang": "en"
}