{
    "dcr_id": "1553697434185",
    "title": {
        "en": "Fourteenth meeting of the Special Crops Value Chain Roundtable (SCVCRT): Record of Decision",
        "fr": "Quatorzième réunion de la Table ronde sur la chaîne de valeur des cultures spéciales : Compte rendu des décisions"
    },
    "modified": "2019-03-28",
    "issued": "2019-03-27",
    "templatetype": "<NULL>",
    "page_type": "0",
    "node_id": "1384804241320",
    "dc_date_created": "2019-03-27",
    "managing_branch": "MISB",
    "parent_node_id": "",
    "label": {
        "en": "Fourteenth meeting of the Special Crops Value Chain Roundtable (SCVCRT): Record of Decision",
        "fr": "Quatorzième réunion de la Table ronde sur la chaîne de valeur des cultures spéciales : Compte rendu des décisions"
    },
    "exturl": "",
    "teamsite_location": {
        "en": "/default/main/AAFC-AAC/Internet-Internet/MISB-DGSIM/VCR-TCV/WORKAREA/VCR-TCV/templatedata/comm-comm/gene-gene/data/fourteenth_meeting_of_the_1553697434185_en",
        "fr": "/default/main/AAFC-AAC/Internet-Internet/MISB-DGSIM/VCR-TCV/WORKAREA/VCR-TCV/templatedata/comm-comm/gene-gene/data/fourteenth_meeting_of_the_1553697434185_fr"
    },
    "type_name": "comm-comm/gene-gene",
    "has_dcr_id": true,
    "breadcrumb": {
        "en": "Fourteenth meeting of the Special Crops Value Chain Roundtable (SCVCRT): Record of Decision",
        "fr": "Quatorzième réunion de la Table ronde sur la chaîne de valeur des cultures spéciales : Compte rendu des décisions"
    },
    "layout_name": "<NULL>",
    "lang": "en"
}