{
    "dcr_id": "1553028646105",
    "title": {
        "en": "Audit of Travel and Hospitality",
        "fr": "Audit des frais de voyage et d’accueil"
    },
    "modified": "2019-05-02",
    "issued": "2019-05-02",
    "templatetype": "content page 1 column",
    "page_type": "0",
    "node_id": "1566306181000",
    "dc_date_created": "2019-05-02",
    "managing_branch": "PAB",
    "parent_node_id": "",
    "label": {
        "en": "Audit of Travel and Hospitality",
        "fr": "Audit des frais de voyage et d’accueil"
    },
    "exturl": "",
    "teamsite_location": {
        "en": "/default/main/AAFC-AAC/Internet-Internet/Common-Commun/WORKAREA/Common-Commun/templatedata/comm-comm/gene-gene/data/03/audit_travel_and_hospitality_1553028646105_en",
        "fr": "/default/main/AAFC-AAC/Internet-Internet/Common-Commun/WORKAREA/Common-Commun/templatedata/comm-comm/gene-gene/data/03/audit_travel_and_hospitality_1553028646105_fr"
    },
    "type_name": "comm-comm/gene-gene",
    "has_dcr_id": true,
    "breadcrumb": {
        "en": "Audit of Travel and Hospitality",
        "fr": "Audit des frais de voyage et d’accueil"
    },
    "layout_name": "content page 1 column",
    "lang": "en"
}