{
    "dcr_id": "1560969207221",
    "title": {
        "en": "Fifty-first meeting of the Beef Value Chain Roundtable: Meeting Summary",
        "fr": "Cinquante et unième réunion de la Table ronde sur la chaîne de valeur du bœuf : Résumé de la reunion"
    },
    "modified": "2019-06-24",
    "issued": "2019-06-24",
    "templatetype": "content page 1 column",
    "page_type": "0",
    "node_id": "1384803946692",
    "dc_date_created": "2019-06-24",
    "managing_branch": "MISB",
    "parent_node_id": "",
    "label": {
        "en": "Fifty-first meeting of the Beef Value Chain Roundtable: Meeting Summary",
        "fr": "Cinquante et unième réunion de la Table ronde sur la chaîne de valeur du bœuf : Résumé de la reunion"
    },
    "exturl": "",
    "teamsite_location": {
        "en": "/default/main/AAFC-AAC/Internet-Internet/MISB-DGSIM/VCR-TCV/WORKAREA/VCR-TCV/templatedata/comm-comm/gene-gene/data/51_bvcrt_record_1560969207221_en",
        "fr": "/default/main/AAFC-AAC/Internet-Internet/MISB-DGSIM/VCR-TCV/WORKAREA/VCR-TCV/templatedata/comm-comm/gene-gene/data/51_bvcrt_record_1560969207221_fr"
    },
    "type_name": "comm-comm/gene-gene",
    "has_dcr_id": true,
    "breadcrumb": {
        "en": "Fifty-first meeting of the Beef Value Chain Roundtable: Meeting Summary",
        "fr": "Cinquante et unième réunion de la Table ronde sur la chaîne de valeur du bœuf : Résumé de la reunion"
    },
    "layout_name": "content page 1 column",
    "lang": "en"
}