{
    "dcr_id": "1563995382189",
    "title": {
        "en": "Sector Trend Analysis – Packaged food trends in South Korea",
        "fr": "Analyse sectorielle – Aliments emballés&nbsp;: tendances en Corée du Sud"
    },
    "modified": "2019-08-21",
    "issued": "2019-08-21",
    "templatetype": "content page 1 column",
    "page_type": "0",
    "node_id": "1549652534579",
    "dc_date_created": "2019-08-21",
    "managing_branch": "MISB",
    "parent_node_id": "",
    "label": {
        "en": "Sector Trend Analysis – Packaged food trends in South Korea",
        "fr": "Analyse sectorielle – Aliments emballés&nbsp;: tendances en Corée du Sud"
    },
    "exturl": "",
    "teamsite_location": {
        "en": "/default/main/AAFC-AAC/Internet-Internet/MISB-DGSIM/ATS-SEA/ATS-SEA-s2/WORKAREA/ATS-SEA-s2/templatedata/comm-comm/gene-gene/data/sta_package_food_skorea_1563995382189_en",
        "fr": "/default/main/AAFC-AAC/Internet-Internet/MISB-DGSIM/ATS-SEA/ATS-SEA-s2/WORKAREA/ATS-SEA-s2/templatedata/comm-comm/gene-gene/data/sta_package_food_skorea_1563995382189_fr"
    },
    "type_name": "comm-comm/gene-gene",
    "has_dcr_id": true,
    "breadcrumb": {
        "en": "Sector Trend Analysis – Packaged food trends in South Korea",
        "fr": "Analyse sectorielle – Aliments emballés&nbsp;: tendances en Corée du Sud"
    },
    "layout_name": "content page 1 column",
    "lang": "en"
}