{
    "dcr_id": "1565988978503",
    "title": {
        "en": "Hiring seasonal workers? Plan ahead!",
        "fr": "Vous embauchez des travailleurs saisonniers? Planifiez en conséquence!"
    },
    "modified": "2020-05-25",
    "issued": "2019-09-03",
    "templatetype": "content page 1 column",
    "page_type": "0",
    "node_id": "1567779011461",
    "dc_date_created": "2019-09-03",
    "managing_branch": "PAB",
    "parent_node_id": "",
    "label": {
        "en": "Hiring seasonal workers? Plan ahead!",
        "fr": "Vous embauchez des travailleurs saisonniers? Planifiez en conséquence!"
    },
    "exturl": "",
    "teamsite_location": {
        "en": "/default/main/AAFC-AAC/Internet-Internet/CCB-DGCC/WORKAREA/CCB-DGCC/templatedata/comm-comm/gene-gene/data/agri-info_newsletter_2017_07-3_1565988978503_en",
        "fr": "/default/main/AAFC-AAC/Internet-Internet/CCB-DGCC/WORKAREA/CCB-DGCC/templatedata/comm-comm/gene-gene/data/agri-info_newsletter_2017_07-3_1565988978503_fr"
    },
    "type_name": "comm-comm/gene-gene",
    "has_dcr_id": true,
    "breadcrumb": {
        "en": "Hiring seasonal workers? Plan ahead!",
        "fr": "Vous embauchez des travailleurs saisonniers? Planifiez en conséquence!"
    },
    "layout_name": "content page 1 column",
    "lang": "en"
}