{
    "dcr_id": "1572989468581",
    "title": {
        "en": "Canadian Agricultural Loans Act program: Step 2. Who is eligible",
        "fr": " Programme de la Loi canadienne sur les prêts agricoles : Étape 2. Qui est admissible "
    },
    "modified": "2020-01-14",
    "issued": "2020-01-14",
    "templatetype": "content page 1 column",
    "page_type": "0",
    "node_id": "1571855000721",
    "dc_date_created": "2020-01-14",
    "managing_branch": "PAB",
    "parent_node_id": "",
    "label": {
        "en": "Canadian Agricultural Loans Act program: Step 2. Who is eligible",
        "fr": " Programme de la Loi canadienne sur les prêts agricoles : Étape 2. Qui est admissible "
    },
    "exturl": "",
    "teamsite_location": {
        "en": "/default/main/AAFC-AAC/Internet-Internet/Group-Ensemble/ProgServ-ProgServ/WORKAREA/ProgServ-ProgServ/templatedata/comm-comm/gene-gene/data/11/cala_step2_who_eligible_1572989468581_en",
        "fr": "/default/main/AAFC-AAC/Internet-Internet/Group-Ensemble/ProgServ-ProgServ/WORKAREA/ProgServ-ProgServ/templatedata/comm-comm/gene-gene/data/11/cala_step2_who_eligible_1572989468581_fr"
    },
    "type_name": "comm-comm/gene-gene",
    "has_dcr_id": true,
    "breadcrumb": {
        "en": "Canadian Agricultural Loans Act program: Step 2. Who is eligible",
        "fr": " Programme de la Loi canadienne sur les prêts agricoles : Étape 2. Qui est admissible "
    },
    "layout_name": "content page 1 column",
    "lang": "en"
}