{
    "dcr_id": "1573742494390",
    "title": {
        "en": "Using genomics to understand antimicrobial resistance",
        "fr": "Utilisation de la génomique pour comprendre la résistance aux antimicrobiens"
    },
    "modified": "2019-11-14",
    "issued": "2019-11-14",
    "templatetype": "content page 1 column",
    "page_type": "0",
    "node_id": "1378999410478",
    "dc_date_created": "2019-11-14",
    "managing_branch": "PAB",
    "parent_node_id": "",
    "label": {
        "en": "Using genomics to understand antimicrobial resistance",
        "fr": "Utilisation de la génomique pour comprendre la résistance aux antimicrobiens"
    },
    "exturl": "",
    "teamsite_location": {
        "en": "/default/main/AAFC-AAC/Internet-Internet/CCB-DGCC/WORKAREA/CCB-DGCC/templatedata/comm-comm/gene-gene/data/using_genomics_understand_antimicrobial-resistance_1573742494390_en",
        "fr": "/default/main/AAFC-AAC/Internet-Internet/CCB-DGCC/WORKAREA/CCB-DGCC/templatedata/comm-comm/gene-gene/data/using_genomics_understand_antimicrobial-resistance_1573742494390_fr"
    },
    "type_name": "comm-comm/gene-gene",
    "has_dcr_id": true,
    "breadcrumb": {
        "en": "Using genomics to understand antimicrobial resistance",
        "fr": "Utilisation de la génomique pour comprendre la résistance aux antimicrobiens"
    },
    "layout_name": "content page 1 column",
    "lang": "en"
}