{
    "dcr_id": "1573046464904",
    "title": {
        "en": "Dairy Direct Payment Program: Step 4. After you register",
        "fr": "Programme de paiements directs pour les producteurs laitiers : Étape 4. Après l’inscription"
    },
    "modified": "2021-01-18",
    "issued": "2019-11-21",
    "templatetype": "content page 1 column",
    "page_type": "0",
    "node_id": "1566817855922",
    "dc_date_created": "2019-11-21",
    "managing_branch": "PAB",
    "parent_node_id": "",
    "label": {
        "en": "Dairy Direct Payment Program: Step 4. After you register",
        "fr": "Programme de paiements directs pour les producteurs laitiers : Étape 4. Après l’inscription"
    },
    "exturl": "",
    "teamsite_location": {
        "en": "/default/main/AAFC-AAC/Internet-Internet/Group-Ensemble/ProgServ-ProgServ/WORKAREA/ProgServ-ProgServ/templatedata/comm-comm/gene-gene/data/11/ddpp-pdpl_4_1573046464904_en",
        "fr": "/default/main/AAFC-AAC/Internet-Internet/Group-Ensemble/ProgServ-ProgServ/WORKAREA/ProgServ-ProgServ/templatedata/comm-comm/gene-gene/data/11/ddpp-pdpl_4_1573046464904_fr"
    },
    "type_name": "comm-comm/gene-gene",
    "has_dcr_id": true,
    "breadcrumb": {
        "en": "Dairy Direct Payment Program: Step 4. After you register",
        "fr": "Programme de paiements directs pour les producteurs laitiers : Étape 4. Après l’inscription"
    },
    "layout_name": "content page 1 column",
    "lang": "en"
}