{
    "dcr_id": "1573046497738",
    "title": {
        "en": "Dairy Direct Payment Program: Contact information",
        "fr": "Programme de paiements directs pour les producteurs laitiers : Pour nous joindre"
    },
    "modified": "2021-01-18",
    "issued": "2019-11-21",
    "templatetype": "content page 1 column",
    "page_type": "0",
    "node_id": "1566817855922",
    "dc_date_created": "2019-11-21",
    "managing_branch": "PAB",
    "parent_node_id": "",
    "label": {
        "en": "Dairy Direct Payment Program: Contact information",
        "fr": "Programme de paiements directs pour les producteurs laitiers : Pour nous joindre"
    },
    "exturl": "",
    "teamsite_location": {
        "en": "/default/main/AAFC-AAC/Internet-Internet/Group-Ensemble/ProgServ-ProgServ/WORKAREA/ProgServ-ProgServ/templatedata/comm-comm/gene-gene/data/11/ddpp-pdpl_6_1573046497738_en",
        "fr": "/default/main/AAFC-AAC/Internet-Internet/Group-Ensemble/ProgServ-ProgServ/WORKAREA/ProgServ-ProgServ/templatedata/comm-comm/gene-gene/data/11/ddpp-pdpl_6_1573046497738_fr"
    },
    "type_name": "comm-comm/gene-gene",
    "has_dcr_id": true,
    "breadcrumb": {
        "en": "Dairy Direct Payment Program: Contact information",
        "fr": "Programme de paiements directs pour les producteurs laitiers : Pour nous joindre"
    },
    "layout_name": "content page 1 column",
    "lang": "en"
}