{
    "dcr_id": "1577189965774",
    "title": {
        "en": "Canada: Outlook for Principal Field Crops, 2019-12-19",
        "fr": "Canada : perspectives des principales grandes cultures, 2019-12-19"
    },
    "modified": "2019-12-30",
    "issued": "2019-12-30",
    "templatetype": "<NULL>",
    "page_type": "0",
    "node_id": "1379000575516",
    "dc_date_created": "2019-12-30",
    "managing_branch": "MISB",
    "parent_node_id": "",
    "label": {
        "en": "Canada: Outlook for Principal Field Crops, 2019-12-19",
        "fr": "Canada : perspectives des principales grandes cultures, 2019-12-19"
    },
    "exturl": "",
    "teamsite_location": {
        "en": "/default/main/AAFC-AAC/Internet-Internet/MISB-DGSIM/MAG-GAM/WORKAREA/MAG-GAM/templatedata/comm-comm/gene-gene/data/fco_2019-12-19_1577189965774_en",
        "fr": "/default/main/AAFC-AAC/Internet-Internet/MISB-DGSIM/MAG-GAM/WORKAREA/MAG-GAM/templatedata/comm-comm/gene-gene/data/fco_2019-12-19_1577189965774_fr"
    },
    "type_name": "comm-comm/gene-gene",
    "has_dcr_id": true,
    "breadcrumb": {
        "en": "Canada: Outlook for Principal Field Crops, 2019-12-19",
        "fr": "Canada : perspectives des principales grandes cultures, 2019-12-19"
    },
    "layout_name": "<NULL>",
    "lang": "en"
}