{
    "dcr_id": "1578324385866",
    "title": {
        "en": "Learning From Nature: Wild Wheat Responds to Climate Change",
        "fr": "Apprendre de la nature : un blé sauvage répond au changement climatique"
    },
    "modified": "2020-01-08",
    "issued": "2020-01-08",
    "templatetype": "content page 1 column",
    "page_type": "0",
    "node_id": "1378999410478",
    "dc_date_created": "2020-01-08",
    "managing_branch": "PAB",
    "parent_node_id": "",
    "label": {
        "en": "Learning From Nature: Wild Wheat Responds to Climate Change",
        "fr": "Apprendre de la nature : un blé sauvage répond au changement climatique"
    },
    "exturl": "",
    "teamsite_location": {
        "en": "/default/main/AAFC-AAC/Internet-Internet/CCB-DGCC/WORKAREA/CCB-DGCC/templatedata/comm-comm/gene-gene/data/feature_article_wild_wheat_1578324385866_en",
        "fr": "/default/main/AAFC-AAC/Internet-Internet/CCB-DGCC/WORKAREA/CCB-DGCC/templatedata/comm-comm/gene-gene/data/feature_article_wild_wheat_1578324385866_fr"
    },
    "type_name": "comm-comm/gene-gene",
    "has_dcr_id": true,
    "breadcrumb": {
        "en": "Learning From Nature: Wild Wheat Responds to Climate Change",
        "fr": "Apprendre de la nature : un blé sauvage répond au changement climatique"
    },
    "layout_name": "content page 1 column",
    "lang": "en"
}