{
    "dcr_id": "1579018139768",
    "title": {
        "en": "The Canadian Agricultural Youth Council",
        "fr": "Conseil canadien de la jeunesse agricole"
    },
    "modified": "2020-12-22",
    "issued": "2020-01-24",
    "templatetype": "content page 1 column",
    "page_type": "0",
    "node_id": "1579021462350",
    "dc_date_created": "2020-01-24",
    "managing_branch": "PAB",
    "parent_node_id": "",
    "label": {
        "en": "The Canadian Agricultural Youth Council",
        "fr": "Conseil canadien de la jeunesse agricole"
    },
    "exturl": "",
    "teamsite_location": {
        "en": "/default/main/AAFC-AAC/Internet-Internet/CCB-DGCC/WORKAREA/CCB-DGCC/templatedata/comm-comm/gene-gene/data/canadian_agricultural_youth_council_1579018139768_en",
        "fr": "/default/main/AAFC-AAC/Internet-Internet/CCB-DGCC/WORKAREA/CCB-DGCC/templatedata/comm-comm/gene-gene/data/canadian_agricultural_youth_council_1579018139768_fr"
    },
    "type_name": "comm-comm/gene-gene",
    "has_dcr_id": true,
    "breadcrumb": {
        "en": "The Canadian Agricultural Youth Council",
        "fr": "Conseil canadien de la jeunesse agricole"
    },
    "layout_name": "content page 1 column",
    "lang": "en"
}