{
    "dcr_id": "1579810409615",
    "title": {
        "en": "AgriStability - 2020 AgriStability and AgriInvest Additional Information and Adjustment Request",
        "fr": " Agri-stabilité  - 2020 Renseignements supplémentaires et de demande de redressement d'Agri-stabilité et d'Agri-investissement"
    },
    "modified": "2020-07-13",
    "issued": "2020-07-13",
    "templatetype": "content page 1 column",
    "page_type": "0",
    "node_id": "1594037384895",
    "dc_date_created": "2020-07-13",
    "managing_branch": "PAB",
    "parent_node_id": "",
    "label": {
        "en": "AgriStability - 2020 AgriStability and AgriInvest Additional Information and Adjustment Request",
        "fr": " Agri-stabilité  - 2020 Renseignements supplémentaires et de demande de redressement d'Agri-stabilité et d'Agri-investissement"
    },
    "exturl": "",
    "teamsite_location": {
        "en": "/default/main/AAFC-AAC/Internet-Internet/Group-Ensemble/ProgServ-ProgServ/WORKAREA/ProgServ-ProgServ/templatedata/comm-comm/gene-gene/data/06/as_2020_additional_info_1579810409615_en",
        "fr": "/default/main/AAFC-AAC/Internet-Internet/Group-Ensemble/ProgServ-ProgServ/WORKAREA/ProgServ-ProgServ/templatedata/comm-comm/gene-gene/data/06/as_2020_additional_info_1579810409615_fr"
    },
    "type_name": "comm-comm/gene-gene",
    "has_dcr_id": true,
    "breadcrumb": {
        "en": "AgriStability - 2020 AgriStability and AgriInvest Additional Information and Adjustment Request",
        "fr": " Agri-stabilité  - 2020 Renseignements supplémentaires et de demande de redressement d'Agri-stabilité et d'Agri-investissement"
    },
    "layout_name": "content page 1 column",
    "lang": "en"
}