{
    "dcr_id": "1580317816222",
    "title": {
        "en": "Animal feed and feed ingredients in the ASEAN region: Opportunities for Canadian companies in the Philippines, Singapore and Vietnam",
        "fr": "Aliments et ingrédients d’aliments pour animaux dans la région de l’ANASE : Débouchés pour les entreprises canadiennes aux Philippines, à Singapour et au Vietnam"
    },
    "modified": "2020-02-03",
    "issued": "2020-02-03",
    "templatetype": "content page 1 column",
    "page_type": "0",
    "node_id": "1574784152465",
    "dc_date_created": "2020-02-03",
    "managing_branch": "MISB",
    "parent_node_id": "",
    "label": {
        "en": "Animal feed and feed ingredients in the ASEAN region: Opportunities for Canadian companies in the Philippines, Singapore and Vietnam",
        "fr": "Aliments et ingrédients d’aliments pour animaux dans la région de l’ANASE : Débouchés pour les entreprises canadiennes aux Philippines, à Singapour et au Vietnam"
    },
    "exturl": "",
    "teamsite_location": {
        "en": "/default/main/AAFC-AAC/Internet-Internet/MISB-DGSIM/ATS-SEA/ATS-SEA-s1/WORKAREA/ATS-SEA-s1/templatedata/comm-comm/gene-gene/data/asean_opp_feed_1580317816222_en",
        "fr": "/default/main/AAFC-AAC/Internet-Internet/MISB-DGSIM/ATS-SEA/ATS-SEA-s1/WORKAREA/ATS-SEA-s1/templatedata/comm-comm/gene-gene/data/asean_opp_feed_1580317816222_fr"
    },
    "type_name": "comm-comm/gene-gene",
    "has_dcr_id": true,
    "breadcrumb": {
        "en": "Animal feed and feed ingredients in the ASEAN region: Opportunities for Canadian companies in the Philippines, Singapore and Vietnam",
        "fr": "Aliments et ingrédients d’aliments pour animaux dans la région de l’ANASE : Débouchés pour les entreprises canadiennes aux Philippines, à Singapour et au Vietnam"
    },
    "layout_name": "content page 1 column",
    "lang": "en"
}