{
    "dcr_id": "1581625192238",
    "title": {
        "en": "2020-21 Departmental Plan - DSDS",
        "fr": "Stratégie ministérielle de développement durable "
    },
    "modified": "2020-03-10",
    "issued": "2020-03-10",
    "templatetype": "content page 1 column",
    "page_type": "0",
    "node_id": "1581965639726",
    "dc_date_created": "2020-03-10",
    "managing_branch": "PAB",
    "parent_node_id": "",
    "label": {
        "en": "2020-21 Departmental Plan - DSDS",
        "fr": "Stratégie ministérielle de développement durable "
    },
    "exturl": "",
    "teamsite_location": {
        "en": "/default/main/AAFC-AAC/Internet-Internet/Common-Commun/WORKAREA/Common-Commun/templatedata/comm-comm/gene-gene/data/02/dp-pm_2020-21_dsds_1581625192238_en",
        "fr": "/default/main/AAFC-AAC/Internet-Internet/Common-Commun/WORKAREA/Common-Commun/templatedata/comm-comm/gene-gene/data/02/dp-pm_2020-21_dsds_1581625192238_fr"
    },
    "type_name": "comm-comm/gene-gene",
    "has_dcr_id": true,
    "breadcrumb": {
        "en": "2020-21 Departmental Plan - DSDS",
        "fr": "Stratégie ministérielle de développement durable "
    },
    "layout_name": "content page 1 column",
    "lang": "en"
}