{
    "dcr_id": "1583345101155",
    "title": {
        "en": "Customized Report Service – Sugars and other sweetener trends in Europe",
        "fr": "Service de rapport personnalisé  - Tendances en matière de sucres et autres édulcorants en Europe"
    },
    "modified": "2020-03-18",
    "issued": "2020-03-18",
    "templatetype": "content page 1 column",
    "page_type": "0",
    "node_id": "1549652534579",
    "dc_date_created": "2020-03-18",
    "managing_branch": "MISB",
    "parent_node_id": "",
    "label": {
        "en": "Customized Report Service – Sugars and other sweetener trends in Europe",
        "fr": "Service de rapport personnalisé  - Tendances en matière de sucres et autres édulcorants en Europe"
    },
    "exturl": "",
    "teamsite_location": {
        "en": "/default/main/AAFC-AAC/Internet-Internet/MISB-DGSIM/ATS-SEA/ATS-SEA-s1/WORKAREA/ATS-SEA-s1/templatedata/comm-comm/gene-gene/data/cr_sugar_sweetener_europe_1583345101155_en",
        "fr": "/default/main/AAFC-AAC/Internet-Internet/MISB-DGSIM/ATS-SEA/ATS-SEA-s1/WORKAREA/ATS-SEA-s1/templatedata/comm-comm/gene-gene/data/cr_sugar_sweetener_europe_1583345101155_fr"
    },
    "type_name": "comm-comm/gene-gene",
    "has_dcr_id": true,
    "breadcrumb": {
        "en": "Customized Report Service – Sugars and other sweetener trends in Europe",
        "fr": "Service de rapport personnalisé  - Tendances en matière de sucres et autres édulcorants en Europe"
    },
    "layout_name": "content page 1 column",
    "lang": "en"
}