{
    "dcr_id": "1586963303739",
    "title": {
        "en": "Bees and COVID-19",
        "fr": "Les abeilles au temps de la COVID-19"
    },
    "modified": "2020-04-17",
    "issued": "2020-04-17",
    "templatetype": "content page 1 column",
    "page_type": "0",
    "node_id": "1587146388804",
    "dc_date_created": "2020-04-17",
    "managing_branch": "PAB",
    "parent_node_id": "",
    "label": {
        "en": "Bees and COVID-19",
        "fr": "Les abeilles au temps de la COVID-19"
    },
    "exturl": "",
    "teamsite_location": {
        "en": "/default/main/AAFC-AAC/Internet-Internet/CCB-DGCC/WORKAREA/CCB-DGCC/templatedata/comm-comm/gene-gene/data/a_bee_story_1586963303739_en",
        "fr": "/default/main/AAFC-AAC/Internet-Internet/CCB-DGCC/WORKAREA/CCB-DGCC/templatedata/comm-comm/gene-gene/data/a_bee_story_1586963303739_fr"
    },
    "type_name": "comm-comm/gene-gene",
    "has_dcr_id": true,
    "breadcrumb": {
        "en": "Bees and COVID-19",
        "fr": "Les abeilles au temps de la COVID-19"
    },
    "layout_name": "content page 1 column",
    "lang": "en"
}