{
    "dcr_id": "1588187049981",
    "title": {
        "en": "Mandatory Isolation Support for Temporary Foreign Workers Program: Step 2. Who is eligible ",
        "fr": "Programme d’aide pour l’isolement obligatoire des travailleurs étrangers temporaires : Étape 2. Qui est admissible"
    },
    "modified": "2020-11-30",
    "issued": "2020-05-07",
    "templatetype": "content page 1 column",
    "page_type": "0",
    "node_id": "1588248992761",
    "dc_date_created": "2020-05-07",
    "managing_branch": "PAB",
    "parent_node_id": "",
    "label": {
        "en": "Mandatory Isolation Support for Temporary Foreign Workers Program: Step 2. Who is eligible ",
        "fr": "Programme d’aide pour l’isolement obligatoire des travailleurs étrangers temporaires : Étape 2. Qui est admissible"
    },
    "exturl": "",
    "teamsite_location": {
        "en": "/default/main/AAFC-AAC/Internet-Internet/Group-Ensemble/ProgServ-ProgServ/WORKAREA/ProgServ-ProgServ/templatedata/comm-comm/gene-gene/data/04/misp_2_1588187049981_en",
        "fr": "/default/main/AAFC-AAC/Internet-Internet/Group-Ensemble/ProgServ-ProgServ/WORKAREA/ProgServ-ProgServ/templatedata/comm-comm/gene-gene/data/04/misp_2_1588187049981_fr"
    },
    "type_name": "comm-comm/gene-gene",
    "has_dcr_id": true,
    "breadcrumb": {
        "en": "Mandatory Isolation Support for Temporary Foreign Workers Program: Step 2. Who is eligible ",
        "fr": "Programme d’aide pour l’isolement obligatoire des travailleurs étrangers temporaires : Étape 2. Qui est admissible"
    },
    "layout_name": "content page 1 column",
    "lang": "en"
}