{
    "dcr_id": "1591883994789",
    "title": {
        "en": "Surplus Food Rescue Program: Contact information",
        "fr": "Programme de récupération d’aliments excédentaires : Pour nous joindre"
    },
    "modified": "2020-06-16",
    "issued": "2020-06-15",
    "templatetype": "content page 1 column",
    "page_type": "0",
    "node_id": "1591299492598",
    "dc_date_created": "2020-06-15",
    "managing_branch": "PAB",
    "parent_node_id": "",
    "label": {
        "en": "Surplus Food Rescue Program: Contact information",
        "fr": "Programme de récupération d’aliments excédentaires : Pour nous joindre"
    },
    "exturl": "",
    "teamsite_location": {
        "en": "/default/main/AAFC-AAC/Internet-Internet/Group-Ensemble/ProgServ-ProgServ/WORKAREA/ProgServ-ProgServ/templatedata/comm-comm/gene-gene/data/06/surplus_food_rescue_program-contact_1591883994789_en",
        "fr": "/default/main/AAFC-AAC/Internet-Internet/Group-Ensemble/ProgServ-ProgServ/WORKAREA/ProgServ-ProgServ/templatedata/comm-comm/gene-gene/data/06/surplus_food_rescue_program-contact_1591883994789_fr"
    },
    "type_name": "comm-comm/gene-gene",
    "has_dcr_id": true,
    "breadcrumb": {
        "en": "Surplus Food Rescue Program: Contact information",
        "fr": "Programme de récupération d’aliments excédentaires : Pour nous joindre"
    },
    "layout_name": "content page 1 column",
    "lang": "en"
}