{
    "dcr_id": "1596554342181",
    "title": {
        "en": "Pleasing pollinators: Supporting your hardworking garden allies",
        "fr": "Attirez les pollinisateurs : Soutenez vos infatigables alliés du jardin "
    },
    "modified": "2020-08-05",
    "issued": "2020-08-05",
    "templatetype": "content page 1 column",
    "page_type": "0",
    "node_id": "1567779011461",
    "dc_date_created": "2020-08-05",
    "managing_branch": "PAB",
    "parent_node_id": "",
    "label": {
        "en": "Pleasing pollinators: Supporting your hardworking garden allies",
        "fr": "Attirez les pollinisateurs : Soutenez vos infatigables alliés du jardin "
    },
    "exturl": "",
    "teamsite_location": {
        "en": "/default/main/AAFC-AAC/Internet-Internet/CCB-DGCC/WORKAREA/CCB-DGCC/templatedata/comm-comm/gene-gene/data/pleasing_pollinators_1596554342181_en",
        "fr": "/default/main/AAFC-AAC/Internet-Internet/CCB-DGCC/WORKAREA/CCB-DGCC/templatedata/comm-comm/gene-gene/data/pleasing_pollinators_1596554342181_fr"
    },
    "type_name": "comm-comm/gene-gene",
    "has_dcr_id": true,
    "breadcrumb": {
        "en": "Pleasing pollinators: Supporting your hardworking garden allies",
        "fr": "Attirez les pollinisateurs : Soutenez vos infatigables alliés du jardin "
    },
    "layout_name": "content page 1 column",
    "lang": "en"
}