{
    "dcr_id": "1597786303155",
    "title": {
        "en": "Minister's briefing book:  April 29, 2020",
        "fr": "Cahier de breffage de la ministre : Le 29 avril 2020"
    },
    "modified": "2020-08-27",
    "issued": "2020-08-27",
    "templatetype": "content page 1 column",
    "page_type": "0",
    "node_id": "1598874857822",
    "dc_date_created": "2020-08-27",
    "managing_branch": "PAB",
    "parent_node_id": "",
    "label": {
        "en": "Minister's briefing book:  April 29, 2020",
        "fr": "Cahier de breffage de la ministre : Le 29 avril 2020"
    },
    "exturl": "",
    "teamsite_location": {
        "en": "/default/main/AAFC-AAC/Internet-Internet/Common-Commun/WORKAREA/Common-Commun/templatedata/comm-comm/gene-gene/data/08/qp_cards_29apr2020_1597786303155_en",
        "fr": "/default/main/AAFC-AAC/Internet-Internet/Common-Commun/WORKAREA/Common-Commun/templatedata/comm-comm/gene-gene/data/08/qp_cards_29apr2020_1597786303155_fr"
    },
    "type_name": "comm-comm/gene-gene",
    "has_dcr_id": true,
    "breadcrumb": {
        "en": "Minister's briefing book:  April 29, 2020",
        "fr": "Cahier de breffage de la ministre : Le 29 avril 2020"
    },
    "layout_name": "content page 1 column",
    "lang": "en"
}