{
    "dcr_id": "1600958557352",
    "title": {
        "en": "2019-2020 Departmental Results Report - Response to parliamentary committees and external audits",
        "fr": "Rapport sur les résultats ministériels 2019-2020 - Réponse aux comités parlementaires et aux audits externes"
    },
    "modified": "2020-12-07",
    "issued": "2020-12-07",
    "templatetype": "content page 1 column",
    "page_type": "0",
    "node_id": "1600961511387",
    "dc_date_created": "2020-12-07",
    "managing_branch": "PAB",
    "parent_node_id": "",
    "label": {
        "en": "2019-2020 Departmental Results Report - Response to parliamentary committees and external audits",
        "fr": "Rapport sur les résultats ministériels 2019-2020 - Réponse aux comités parlementaires et aux audits externes"
    },
    "exturl": "",
    "teamsite_location": {
        "en": "/default/main/AAFC-AAC/Internet-Internet/Common-Commun/WORKAREA/Common-Commun/templatedata/comm-comm/gene-gene/data/09/drr-rrm_19-20_ea-ae_1600958557352_en",
        "fr": "/default/main/AAFC-AAC/Internet-Internet/Common-Commun/WORKAREA/Common-Commun/templatedata/comm-comm/gene-gene/data/09/drr-rrm_19-20_ea-ae_1600958557352_fr"
    },
    "type_name": "comm-comm/gene-gene",
    "has_dcr_id": true,
    "breadcrumb": {
        "en": "2019-2020 Departmental Results Report - Response to parliamentary committees and external audits",
        "fr": "Rapport sur les résultats ministériels 2019-2020 - Réponse aux comités parlementaires et aux audits externes"
    },
    "layout_name": "content page 1 column",
    "lang": "en"
}