{
    "dcr_id": "1601389455545",
    "title": {
        "en": "The First Sixteen Podcast",
        "fr": "Les premiers seize pour cent"
    },
    "modified": "2021-01-06",
    "issued": "2020-09-30",
    "templatetype": "content page 1 column",
    "page_type": "0",
    "node_id": "1567779011461",
    "dc_date_created": "2020-09-30",
    "managing_branch": "PAB",
    "parent_node_id": "",
    "label": {
        "en": "The First Sixteen Podcast",
        "fr": "Les premiers seize pour cent"
    },
    "exturl": "",
    "teamsite_location": {
        "en": "/default/main/AAFC-AAC/Internet-Internet/CCB-DGCC/WORKAREA/CCB-DGCC/templatedata/comm-comm/gene-gene/data/the_first_sixteen_podcast_1601389455545_en",
        "fr": "/default/main/AAFC-AAC/Internet-Internet/CCB-DGCC/WORKAREA/CCB-DGCC/templatedata/comm-comm/gene-gene/data/the_first_sixteen_podcast_1601389455545_fr"
    },
    "type_name": "comm-comm/gene-gene",
    "has_dcr_id": true,
    "breadcrumb": {
        "en": "The First Sixteen Podcast",
        "fr": "Les premiers seize pour cent"
    },
    "layout_name": "content page 1 column",
    "lang": "en"
}