{
    "dcr_id": "1601410134587",
    "title": {
        "en": "New podcast series explores the freshest ideas in Canadian ag and food",
        "fr": "Une nouvelle baladodiffusion explore les plus récentes idées dans le secteur canadien de l’agriculture et de l’agroalimentaire"
    },
    "modified": "2020-10-14",
    "issued": "2020-09-30",
    "templatetype": "content page 1 column",
    "page_type": "0",
    "node_id": "1567779011461",
    "dc_date_created": "2020-09-30",
    "managing_branch": "PAB",
    "parent_node_id": "",
    "label": {
        "en": "New podcast series explores the freshest ideas in Canadian ag and food",
        "fr": "Une nouvelle baladodiffusion explore les plus récentes idées dans le secteur canadien de l’agriculture et de l’agroalimentaire"
    },
    "exturl": "",
    "teamsite_location": {
        "en": "/default/main/AAFC-AAC/Internet-Internet/CCB-DGCC/WORKAREA/CCB-DGCC/templatedata/comm-comm/gene-gene/data/new_podcast_series_1601410134587_en",
        "fr": "/default/main/AAFC-AAC/Internet-Internet/CCB-DGCC/WORKAREA/CCB-DGCC/templatedata/comm-comm/gene-gene/data/new_podcast_series_1601410134587_fr"
    },
    "type_name": "comm-comm/gene-gene",
    "has_dcr_id": true,
    "breadcrumb": {
        "en": "New podcast series explores the freshest ideas in Canadian ag and food",
        "fr": "Une nouvelle baladodiffusion explore les plus récentes idées dans le secteur canadien de l’agriculture et de l’agroalimentaire"
    },
    "layout_name": "content page 1 column",
    "lang": "en"
}