{
    "dcr_id": "1602636247998",
    "title": {
        "en": "Minister's briefing book: June 16, 2020",
        "fr": "Cahier de breffage de la ministre : Le 16 juin 2020 "
    },
    "modified": "2020-10-20",
    "issued": "2020-10-20",
    "templatetype": "content page 1 column",
    "page_type": "0",
    "node_id": "1598874857822",
    "dc_date_created": "2020-10-20",
    "managing_branch": "PAB",
    "parent_node_id": "",
    "label": {
        "en": "Minister's briefing book: June 16, 2020",
        "fr": "Cahier de breffage de la ministre : Le 16 juin 2020 "
    },
    "exturl": "",
    "teamsite_location": {
        "en": "/default/main/AAFC-AAC/Internet-Internet/Common-Commun/WORKAREA/Common-Commun/templatedata/comm-comm/gene-gene/data/10/brief_book_covid_16jun2020_1602636247998_en",
        "fr": "/default/main/AAFC-AAC/Internet-Internet/Common-Commun/WORKAREA/Common-Commun/templatedata/comm-comm/gene-gene/data/10/brief_book_covid_16jun2020_1602636247998_fr"
    },
    "type_name": "comm-comm/gene-gene",
    "has_dcr_id": true,
    "breadcrumb": {
        "en": "Minister's briefing book: June 16, 2020",
        "fr": "Cahier de breffage de la ministre : Le 16 juin 2020 "
    },
    "layout_name": "content page 1 column",
    "lang": "en"
}