{
    "dcr_id": "1611614688331",
    "title": {
        "en": "Dr. Hao and his amazing automated greenhouse",
        "fr": "L'étonnante serre automatisée du M. Hao"
    },
    "modified": "2021-01-28",
    "issued": "2021-01-28",
    "templatetype": "content page 1 column",
    "page_type": "0",
    "node_id": "1567779011461",
    "dc_date_created": "2021-01-28",
    "managing_branch": "PAB",
    "parent_node_id": "",
    "label": {
        "en": "Dr. Hao and his amazing automated greenhouse",
        "fr": "L'étonnante serre automatisée du M. Hao"
    },
    "exturl": "",
    "teamsite_location": {
        "en": "/default/main/AAFC-AAC/Internet-Internet/Common-Commun/WORKAREA/Common-Commun/templatedata/comm-comm/gene-gene/data/01/gng_greenhouse_cucumbers_1611614688331_en",
        "fr": "/default/main/AAFC-AAC/Internet-Internet/Common-Commun/WORKAREA/Common-Commun/templatedata/comm-comm/gene-gene/data/01/gng_greenhouse_cucumbers_1611614688331_fr"
    },
    "type_name": "comm-comm/gene-gene",
    "has_dcr_id": true,
    "breadcrumb": {
        "en": "Dr. Hao and his amazing automated greenhouse",
        "fr": "L'étonnante serre automatisée du M. Hao"
    },
    "layout_name": "content page 1 column",
    "lang": "en"
}