{
    "dcr_id": "1516639398762",
    "lang": "en",
    "type_name": "intra-intra/news-nouv",
    "created": "2018-01-23 00:00:00.0",
    "expirydate": "2018-04-01 00:00:00.0",
    "news_category_type_id": "1308325693175"
}