{
    "dcr_id": "1522779898659",
    "lang": "en",
    "type_name": "intra-intra/news-nouv",
    "created": "2018-04-03 00:00:00.0",
    "expirydate": "2018-04-16 00:00:00.0",
    "news_category_type_id": "1308334182982"
}