{
    "dcr_id": "1529670696220",
    "lang": "en",
    "type_name": "intra-intra/news-nouv",
    "created": "2018-06-21 00:00:00.0",
    "expirydate": "2018-07-05 00:00:00.0",
    "news_category_type_id": "1308334182983"
}