{
    "dcr_id": "1531234881383",
    "lang": "en",
    "type_name": "intra-intra/news-nouv",
    "created": "2018-07-12 00:00:00.0",
    "expirydate": "2018-07-19 00:00:00.0",
    "news_category_type_id": "1308325693175"
}