{
    "dcr_id": "1533739739168",
    "lang": "en",
    "type_name": "intra-intra/news-nouv",
    "created": "2018-08-08 00:00:00.0",
    "expirydate": "2018-08-16 00:00:00.0",
    "news_category_type_id": "1308334182981"
}