{
    "dcr_id": "1533657344329",
    "lang": "en",
    "type_name": "intra-intra/news-nouv",
    "created": "2018-08-07 00:00:00.0",
    "expirydate": "2018-08-16 00:00:00.0",
    "news_category_type_id": "1308334182983"
}