{
    "dcr_id": "1539190790721",
    "lang": "en",
    "type_name": "intra-intra/news-nouv",
    "created": "2018-10-18 00:00:00.0",
    "expirydate": "2018-10-22 00:00:00.0",
    "news_category_type_id": "1308334182982"
}