{
    "dcr_id": "1545315662929",
    "lang": "en",
    "type_name": "intra-intra/news-nouv",
    "created": "2018-12-19 00:00:00.0",
    "expirydate": "2018-12-27 00:00:00.0",
    "news_category_type_id": "1508942999198"
}