{
    "dcr_id": "1548699769168",
    "lang": "en",
    "type_name": "intra-intra/news-nouv",
    "created": "2019-01-28 00:00:00.0",
    "expirydate": "2019-01-31 00:00:00.0",
    "news_category_type_id": "1308334182982"
}