{
    "dcr_id": "1557945177819",
    "lang": "en",
    "type_name": "intra-intra/news-nouv",
    "created": "2019-05-16 00:00:00.0",
    "expirydate": "2019-05-30 00:00:00.0",
    "news_category_type_id": "1308334182982"
}