{
    "dcr_id": "1559743865987",
    "lang": "en",
    "type_name": "intra-intra/news-nouv",
    "created": "2019-06-06 00:00:00.0",
    "expirydate": "2019-06-13 00:00:00.0",
    "news_category_type_id": "1308334182981"
}