{
    "dcr_id": "1560872049039",
    "lang": "en",
    "type_name": "intra-intra/news-nouv",
    "created": "2019-06-20 00:00:00.0",
    "expirydate": "2019-06-27 00:00:00.0",
    "news_category_type_id": "1308334182981"
}