{
    "dcr_id": "1569965567799",
    "lang": "en",
    "type_name": "intra-intra/news-nouv",
    "created": "2019-10-03 00:00:00.0",
    "expirydate": "2019-10-10 00:00:00.0",
    "news_category_type_id": "1379951494338"
}