{
    "dcr_id": "1572286937582",
    "lang": "en",
    "type_name": "intra-intra/news-nouv",
    "created": "2019-10-30 00:00:00.0",
    "expirydate": "2019-11-04 00:00:00.0",
    "news_category_type_id": "1308334182982"
}