{
    "dcr_id": "1574200264693",
    "lang": "en",
    "type_name": "intra-intra/news-nouv",
    "created": "2019-11-21 00:00:00.0",
    "expirydate": "2019-12-05 00:00:00.0",
    "news_category_type_id": "1308334182981"
}