{
    "dcr_id": "1579625862860",
    "lang": "en",
    "type_name": "intra-intra/news-nouv",
    "created": "2020-01-22 00:00:00.0",
    "expirydate": "2020-01-30 00:00:00.0",
    "news_category_type_id": "1308325693175"
}