{
    "dcr_id": "1583265072050",
    "lang": "en",
    "type_name": "intra-intra/news-nouv",
    "created": "2020-03-05 00:00:00.0",
    "expirydate": "2020-03-19 00:00:00.0",
    "news_category_type_id": "1308334182982"
}