{
    "dcr_id": "1587141833336",
    "lang": "en",
    "type_name": "intra-intra/news-nouv",
    "created": "2020-04-17 00:00:00.0",
    "expirydate": "2020-04-24 00:00:00.0",
    "news_category_type_id": "1308334182983"
}