{
    "dcr_id": "1588694176231",
    "lang": "en",
    "type_name": "intra-intra/news-nouv",
    "created": "2020-05-05 00:00:00.0",
    "expirydate": "2020-05-11 00:00:00.0",
    "news_category_type_id": "1508942999198"
}