{
    "dcr_id": "1589911101502",
    "lang": "en",
    "type_name": "intra-intra/news-nouv",
    "created": "2020-05-22 00:00:00.0",
    "expirydate": "2020-05-31 00:00:00.0",
    "news_category_type_id": "1308334182982"
}