{
    "dcr_id": "1591971972254",
    "lang": "en",
    "type_name": "intra-intra/news-nouv",
    "created": "2020-06-12 00:00:00.0",
    "expirydate": "2020-06-18 00:00:00.0",
    "news_category_type_id": "1308334182983"
}