{
    "dcr_id": "1592309830522",
    "lang": "en",
    "type_name": "intra-intra/news-nouv",
    "created": "2020-06-16 00:00:00.0",
    "expirydate": "2020-06-25 00:00:00.0",
    "news_category_type_id": "1308334182983"
}