{
    "dcr_id": "1601999296694",
    "lang": "en",
    "type_name": "intra-intra/news-nouv",
    "created": "2020-10-08 00:00:00.0",
    "expirydate": "2020-10-15 00:00:00.0",
    "news_category_type_id": "1379951494338"
}