{
    "dcr_id": "1603764799144",
    "lang": "en",
    "title": {
        "en": "Trade Policy Analyst ",
        "fr": "Analyste des politiques commerciale "
    },
    "modified": "2020-10-28 00:00:00.0",
    "issued": "2020-10-28 00:00:00.0",
    "type_name": "intra-intra/empl-empl",
    "node_id": "1279029955397",
    "layout_name": null,
    "dc_date_created": "2020-10-27",
    "breadcrumb_label": "",
    "trigger_date": "2020-10-28 07:10:23.0",
    "meta": {
        "issued": {
            "en": "2020-10-28",
            "fr": "2020-10-28"
        },
        "modified": {
            "en": "2020-10-28",
            "fr": "2020-10-28"
        },
        "format": {
            "en": "gcformat",
            "fr": "gcformat"
        },
        "title": {
            "en": "Trade Policy Analyst ",
            "fr": "Analyste des politiques commerciale "
        },
        "subject": {
            "en": "staffing",
            "fr": "dotation en personnel"
        },
        "language": {
            "en": "eng",
            "fr": "fra"
        },
        "audience": {
            "en": "gcaudience",
            "fr": "gcaudience"
        },
        "type": {
            "en": "notice",
            "fr": "avis"
        },
        "creator": {
            "en": "Agriculture and Agri-Food Canada",
            "fr": "Agriculture et Agroalimentaire Canada"
        },
        "spatial": {
            "en": "gcregions",
            "fr": "gcregions"
        },
        "service": {
            "en": "AAFC_AgriSource",
            "fr": "AAC_AgriSource"
        },
        "accessRights": {
            "en": "3",
            "fr": "3"
        }
    },
    "body": {
        "en": "\n<p>\u00a0</p>\n<p>Employees of Agriculture and Agri-Food Canada at the EC-02 or EC-03 level in the EC Development Program are invited to express their interest in an assignment opportunity in the Strategic Trade Policy Division (STPD), Trade Agreements and Negotiations Directorate in Market and Industry Services Branch. The position is for a 12 month rotational assignment.</p>\n<p>\u00a0</p>\n<p>The position will allow you to work closely with the Deputy Director to gain:</p>\n<p>\u2022 An understanding of the multilateral trading system in particular, the World Trade Organization Agreement on Agriculture and the WTO agriculture negotiations;</p>\n<p>\u2022 An understanding of trade policy and the mechanisms used to monitor developments in agriculture policy of Canada\u2019s key trading partners;</p>\n<p>\u2022 An opportunity to further develop all the core EC competencies.</p>\n<p>\u00a0</p>\n<p>You will work closely with STPD Trade Policy Analysts to:</p>\n<p>\u2022 Provide support in the preparation of Canada\u2019s agricultural notifications to the WTO;</p>\n<p>\u2022 Coordinate the department\u2019s review and analysis of documents related to the WTO Trade Policy Review of Canada\u2019s key trading partners;</p>\n<p>\u2022 Coordinate the department\u2019s participation at the meeting of the WTO Committee on Agriculture;</p>\n<p>\u2022 Assist in preparing analytical papers to support/promote Canada\u2019s negotiating positions.</p>\n<p>\u2022 Provide analytical support in the review of agriculture negotiating proposals of other WTO Members;</p>\n<p>\u2022 Assist with written briefing materials and presentations.</p>\n<p><strong>\u00a0</strong></p>\n<p><strong>Statement of Merit Criteria &amp; Conditions of Employment</strong></p>\n<p><strong>\u00a0</strong></p>\n<p><strong>Essential Qualifications</strong></p>\n<p>\u00a0</p>\n<p>Education <em>Graduation from a recognized post-secondary institution with acceptable specialization in economics, sociology or statistics.</em></p>\n<p>NOTE: Candidates must always have a university degree. The courses for the specialization do not necessarily have to be part of a degree program in the required specialization. The specialization may also be obtained through an acceptable combination of education, training and/or experience.<em> </em></p>\n<p>\u00a0</p>\n<p>Experience: <em>Writing reports or summaries based on quantitative or qualitative analysis and research. </em></p>\n<p>\u00a0</p>\n<p>Knowledge: <em>Canada\u2019s agriculture sector. </em></p>\n<p>\u00a0</p>\n<p>Competencies <em>Teamwork, Initiative, analytical thinking</em></p>\n<p>\u00a0</p>\n<p>Language Requirements:\u00a0 <em>English essential, BBB/BBB </em></p>\n<h3><strong>\u00a0</strong></h3>\n<h3><strong>Organizational Needs</strong></h3>\n<p>In support of achieving a diversified workforce, consideration may be given to candidates self-identifying as belonging to one of the following Employment Equity groups: Aboriginal peoples, Persons with a Disability; Visible Minorities, Women.</p>\n<p><strong>\u00a0</strong></p>\n<p><strong>Conditions of Employment</strong><strong> </strong></p>\n<p>Security Requirement: Secret</p>\n<p>Other conditions of employment: Willingness and ability to work overtime</p>\n<p><strong>\u00a0</strong></p>\n<p><strong>Applications:</strong></p>\n<p>Please note that this advertisement is intended for an assignment at level. Interested? Send your resume and a cover letter (max 250 words) explaining why you are interested in this opportunity to May Chow (<a href=\"mailto:may.chow@canada.ca\">may.chow@canada.ca</a>)</p>\n<p>Resumes must clearly identify:</p>\n<ul>\n<li>\n<p>Your tenure (e.g. term or indeterminate)</p>\n</li>\n<li>\n<p>Your substantive group and level</p>\n</li>\n</ul>\n<p>\u00a0</p>\n<p><strong>Notes:</strong></p>\n<ul>\n<li>\n<p>Communication for this process will be sent via email.</p>\n</li>\n<li>\n<p>Candidates may be assessed through an interview.</p>\n</li>\n<li>\n<p>A written exam may be administered.</p>\n</li>\n<li>\n<p>Reference checks may be sought.</p>\n</li>\n</ul>\n<p>\u00a0</p>\n<ul>\n</ul>\n",
        "fr": "\n<p>\u00a0</p>\n<p>Nous invitons les employ\u00e9s d\u2019Agriculture et Agroalimentaire Canada de niveau EC 02 ou EC 03 qui participent au Programme de perfectionnement des EC \u00e0 faire part de leur int\u00e9r\u00eat pour une occasion d\u2019affectation au sein de la division de la politique commerciale strat\u00e9gique (DPCS) de la Direction des accords commerciaux et des n\u00e9gociations (DACN). Le poste sera pourvu au moyen d\u2019une affectation par rotation de 12 mois.</p>\n<p>Le poste vous permettra de collaborer \u00e9troitement avec la directrice adjointe afin :</p>\n<p>\u2022 de comprendre le syst\u00e8me commerciale multilat\u00e9ral, notamment l\u2019Accord sur l\u2019agriculture de l\u2019Organisation mondial du commerce (OMC) et les n\u00e9gociations sur l\u2019agriculture \u00e0 l\u2019OMC;</p>\n<p>\u2022 de comprendre la politique commerciale et les m\u00e9canismes utilis\u00e9s pour suivre l'\u00e9volution de la politique agricole des principaux partenaires commerciaux du Canada;</p>\n<p>\u2022 d\u2019obtenir des occasions de d\u00e9velopper davantage toutes les comp\u00e9tences de base EC.</p>\n<p>\u00a0</p>\n<p>En \u00e9troite collaboration avec les analystes de DPCS, vous accomplirez les t\u00e2ches suivantes :</p>\n<p>\u2022 offrir un soutien \u00e0 la pr\u00e9paration des notifications agricoles du Canada \u00e0 l'OMC ;</p>\n<p>\u2022 coordonner l'examen et l'analyse des rapports li\u00e9s \u00e0 l\u2019examen des politiques commerciales de l'OMC des principaux partenaires commerciaux du Canada;</p>\n<p>\u2022 coordonner la participation du minist\u00e8re \u00e0 la r\u00e9union du Comit\u00e9 de l'agriculture \u00e0 l\u2019OMC;</p>\n<p>\u00a0</p>\n<p>Aider \u00e0 pr\u00e9parer des documents d\u2019analyse pour soutenir/promouvoir les positions de n\u00e9gociation du Canada..</p>\n<p>\u2022 offrir un soutien analytique \u00e0 l'examen des propositions des autres membres de l'OMC au sein les n\u00e9gociations sur l\u2019agriculture;</p>\n<p>\u2022 aider \u00e0 r\u00e9diger des documents d\u2019information et de pr\u00e9sentation.</p>\n<p><strong>\u00a0</strong></p>\n<p><strong>\u00c9noncer des crit\u00e8res de m\u00e9rite et conditions d\u2019emploi : </strong></p>\n<p><strong>\u00a0</strong></p>\n<p><strong>Qualifications essentielles </strong></p>\n<p>\u00a0</p>\n<p>\u00c9ducation</p>\n<p>Dipl\u00f4me d\u00e9cern\u00e9 par un \u00e9tablissement postsecondaire reconnue avec sp\u00e9cialisation acceptable en \u00e9conomie, en sociologie ou en statistiques.</p>\n<p>REMARQUE : Les candidats doivent obligatoirement avoir un dipl\u00f4me universitaire. Il n'est pas n\u00e9cessaire que les cours de sp\u00e9cialisation aient \u00e9t\u00e9 suivis dans le cadre d'un programme menant \u00e0 l'obtention d'un dipl\u00f4me dans la sp\u00e9cialisation exig\u00e9e. Une combinaison acceptable d'\u00e9tudes, de formation et/ou d'exp\u00e9rience peut tenir lieu de sp\u00e9cialisation</p>\n<p>\u00a0</p>\n<p>Exp\u00e9rience:\u00a0<em> R\u00e9daction de rapports ou de r\u00e9sum\u00e9s bas\u00e9s sur des analyses et recherches quantitatives ou qualitatives..</em></p>\n<p>\u00a0</p>\n<p>Connaissance: Connaissance de l\u2019industrie agricole canadienne</p>\n<p>Comp\u00e9tence(s) <em>Esprit d\u2019initiative, R\u00e9flexion analytique, esprit d\u2019\u00e9quipe</em></p>\n<p>Exigences linguistiques Anglais essentiel, BBB</p>\n<p><strong>\u00a0</strong></p>\n<p><strong>Qualifications constituant un atout </strong></p>\n<p>Ma\u00eetrise ou dipl\u00f4me d\u2019\u00e9tudes sup\u00e9rieures d\u2019une universit\u00e9 reconnue.</p>\n<p><strong>\u00a0</strong></p>\n<p><strong>Besoins de l'organisation </strong></p>\n<p>Pour diversifier l\u2019effectif, on pourra examiner la candidature des personnes qui s\u2019identifient comme appartenant \u00e0 des groupes vis\u00e9s par l\u2019\u00e9quit\u00e9 en mati\u00e8re d\u2019emploi, soit les autochtones, les personnes handicap\u00e9es, les membres des minorit\u00e9s visibles et les femmes.</p>\n<p><strong>\u00a0</strong></p>\n<p><strong>Conditions d'emploi </strong></p>\n<p>Exigences de s\u00e9curit\u00e9:<em> </em>Cote de s\u00e9curit\u00e9 de niveau \u00ab <em>Secret \u00bb</em></p>\n<p><strong>\u00a0</strong></p>\n<p><strong>Autres conditions d'emploi : </strong>Capacit\u00e9 de faire des heures suppl\u00e9mentaires et \u00eatre en mesure de le faire</p>\n<p><strong>\u00a0</strong></p>\n<p><strong>Candidatures</strong></p>\n<p>Veuillez noter que ce processus donnera lieu \u00e0 une affectation au niveau d\u2019attache. Si cette occasion vous int\u00e9resse, veuillez envoyer \u00e0 May Chow (may.chow@agr.gc.ca) votre curriculum vit\u00e6 ainsi qu\u2019une lettre de pr\u00e9sentation d\u2019au plus 250 mots dans laquelle vous expliquez les raisons de votre int\u00e9r\u00eat.</p>\n<p>Les curriculum vitae doivent nettement pr\u00e9ciser :</p>\n<ul>\n<li>\n<p>votre type de poste (p. ex., \u00e0 dur\u00e9e d\u00e9termin\u00e9e ou ind\u00e9termin\u00e9e);</p>\n</li>\n<li>\n<p>la classification de votre poste d\u2019attache.</p>\n</li>\n</ul>\n<p>\u00a0</p>\n<p><strong>Remarques</strong></p>\n<ul>\n<li>\n<p>Les communications relatives au processus de s\u00e9lection se feront par courriel.</p>\n</li>\n<li>\n<p>Les candidats peuvent \u00eatre \u00e9valu\u00e9s au moyen d\u2019une entrevue.</p>\n</li>\n<li>\n<p>Un examen \u00e9crit peut \u00eatre administr\u00e9.</p>\n</li>\n<li>\n<p>Une v\u00e9rification des r\u00e9f\u00e9rences peut \u00eatre faite</p>\n</li>\n</ul>\n<p>\u00a0</p>\n<ul>\n</ul>\n\n"
    },
    "breadcrumb": {
        "en": "Trade Policy Analyst",
        "fr": "Analyste des politiques commerciale"
    },
    "empl": {
        "type": {
            "en": "Assignment",
            "fr": "Affectation"
        },
        "classification": {
            "en": "EC-3 and equivalent",
            "fr": "EC-3 et \u00e9quivalent"
        },
        "branch": {
            "en": "Market and Industry Services Branch",
            "fr": "Direction g\u00e9n\u00e9rale des services \u00e0 l'industrie et aux march\u00e9s"
        },
        "locations": {
            "en": "Ottawa, Ontario Note: The team currently works remotely due to the COVID 19 pandemic response",
            "fr": "Ottawa, Ontario Note : L\u2019\u00e9quipe travaille pr\u00e9sentement \u00e0 distance en raison de la situation li\u00e9e \u00e0 la COVID-19"
        },
        "date_closing": {
            "en": "2020-11-06",
            "fr": "2020-11-06"
        },
        "open_to": {
            "en": "AAFC Employees at the EC-02 and EC-03 level in the EC Development Program",
            "fr": "Employ\u00e9s d\u2019AAC de niveau EC-02 ou EC 03 qui participent au Programme de perfectionnement des EC"
        },
        "name": {
            "en": "May Chow",
            "fr": "May Chow"
        },
        "email": {
            "en": "may.chow@canada.ca",
            "fr": "may.chow@canada.ca"
        }
    }
}