{
    "dcr_id": "1603284711378",
    "lang": "en",
    "title": {
        "en": "Database Administrator (open to all classifications)",
        "fr": "Administrateur de base de donn\u00e9es (ouvert \u00e0 toutes les classifications)"
    },
    "modified": "2020-10-27 00:00:00.0",
    "issued": "2020-10-23 00:00:00.0",
    "type_name": "intra-intra/empl-empl",
    "node_id": "1279029955397",
    "layout_name": null,
    "dc_date_created": "2020-10-21",
    "breadcrumb_label": "",
    "trigger_date": "2020-10-27 11:00:55.0",
    "meta": {
        "issued": {
            "en": "2020-10-23",
            "fr": "2020-10-23"
        },
        "modified": {
            "en": "2020-10-27",
            "fr": "2020-10-27"
        },
        "format": {
            "en": "gcformat",
            "fr": "gcformat"
        },
        "title": {
            "en": "Database Administrator (open to all classifications)",
            "fr": "Administrateur de base de donn\u00e9es (ouvert \u00e0 toutes les classifications)"
        },
        "subject": {
            "en": "staffing",
            "fr": "dotation en personnel"
        },
        "language": {
            "en": "eng",
            "fr": "fra"
        },
        "audience": {
            "en": "gcaudience",
            "fr": "gcaudience"
        },
        "type": {
            "en": "notice",
            "fr": "avis"
        },
        "creator": {
            "en": "Agriculture and Agri-Food Canada",
            "fr": "Agriculture et Agroalimentaire Canada"
        },
        "spatial": {
            "en": "gcregions",
            "fr": "gcregions"
        },
        "service": {
            "en": "AAFC_AgriSource",
            "fr": "AAC_AgriSource"
        },
        "accessRights": {
            "en": "3",
            "fr": "3"
        }
    },
    "body": {
        "en": "\n<p><strong>\u00a0</strong></p>\n<p>With the Systems, Data, and Analysis Unit, the Database Administrator can expect to perform the following duties:</p>\n<ul>\n<li>Assist in the development of the databases by building forms and reports</li>\n<li>Extract data from the directorate databases for information requests</li>\n<li>Troubleshoot database errors and find solutions to resolve issues</li>\n</ul>\n<p>\u00a0</p>\n<p><strong>STATEMENT OF MERIT CRITERIA &amp; CONDITIONS OF EMPLOYMENT </strong></p>\n<p><br>\n<strong>ESSENTIAL QUALIFICATIONS</strong></p>\n<p><br>\n<strong>Experience</strong></p>\n<ul>\n<li>Experience working with Microsoft Access</li>\n<li>Experience in conducting research including the identification, verification and collection of data</li>\n<li>Experience in compiling data and information from a variety of sources and synthesizing results into written reports</li>\n</ul>\n<p><br>\n<strong>Knowledge</strong></p>\n<ul>\n<li>Knowledge of SQL and Visual Basic</li>\n</ul>\n<p><br>\n<strong>Language Requirement</strong></p>\n<ul>\n<li>English Essential or BBB/BBB</li>\n</ul>\n<p><br>\n<strong>Organizational Needs</strong></p>\n<p>In support of achieving a diversified workforce, consideration may be given to candidates self-identifying as belonging to one of the following Employment Equity groups: Aboriginal peoples, Persons with a Disability; Visible Minorities, Women.</p>\n<p><br>\n<strong>Conditions of Employment</strong></p>\n<p>Reliability Security Clearance</p>\n<p><br>\n<strong>Operational Requirements </strong></p>\n<p>Availability and willingness to work overtime occasionally.</p>\n<p><br>\n<strong>Applications:</strong></p>\n<p>If you are interested in this opportunity, please provide:</p>\n<ul>\n<li>a short letter (2 pages maximum) expressing why you are interested in the position and the skills, experience and knowledge you would bring to the job; and</li>\n<li>your resume.</li>\n</ul>\n<p>\u00a0</p>\n<p>Send all documents to Ryan McCullough at Ryan.McCullough@canada.ca by Friday, November 6, 2020.</p>\n<p>\u00a0</p>\n<p>Resumes must clearly identify:</p>\n<ul>\n<li>Your tenure (e.g. term or indeterminate)</li>\n<li>Your substantive group and level</li>\n</ul>\n<p>\u00a0</p>\n<p>If you have any questions or would like more information, please contact Ryan McCullough at Ryan.McCullough@canada.ca</p>\n<p><br>\n<strong>Notes:</strong></p>\n<ul>\n<li>This is an assignment opportunity <strong>at level</strong>.</li>\n<li>Employees who want to be considered must have their manager\u2019s approval prior to applying for this opportunity.</li>\n<li>Communication for this process will be sent via email.</li>\n<li>Candidates may be assessed through an interview.</li>\n<li>A written exam may be administered.</li>\n<li>Reference checks may be sought</li>\n</ul>\n<p>\u00a0</p>\n",
        "fr": "\n<p><strong>\u00a0</strong></p>\n<p>Au sein de la Section des syst\u00e8mes, des donn\u00e9es et de l\u2019analyse, l\u2019administrateur de base de donn\u00e9es peut s\u2019attendre \u00e0 remplir les t\u00e2ches suivantes :</p>\n<ul>\n<li>Aider au d\u00e9veloppement des bases de donn\u00e9es en \u00e9laborant des formulaires et des rapports</li>\n<li>Extraire des donn\u00e9es \u00e0 partir des bases de donn\u00e9es des directions pour les demandes d\u2019information</li>\n<li>Rechercher la cause d\u2019erreurs dans les bases de donn\u00e9es et trouver des solutions aux probl\u00e8mes.</li>\n</ul>\n<p>\u00a0</p>\n<p><strong>\u00c9NONC\u00c9 DES CRIT\u00c8RES DE M\u00c9RITE ET CONDITIONS D\u2019EMPLOI </strong></p>\n<p><strong><br>QUALIFICATIONS ESSENTIELLES</strong></p>\n<p><br>\n<strong>Exp\u00e9rience</strong></p>\n<ul>\n<li>Exp\u00e9rience de l\u2019utilisation de Microsoft Access</li>\n<li>Exp\u00e9rience de la r\u00e9alisation de recherches, y compris l\u2019\u00e9tablissement, la v\u00e9rification et la collecte de donn\u00e9es</li>\n<li>Exp\u00e9rience de la compilation de donn\u00e9es et de renseignements provenant de diverses sources et de la synth\u00e8se des r\u00e9sultats dans des rapports \u00e9crits</li>\n</ul>\n<p>\u00a0</p>\n<p><strong>Connaissances</strong></p>\n<ul>\n<li>Connaissance de SQL et de Visual Basic</li>\n</ul>\n<p>\u00a0</p>\n<p><strong>Exigences linguistiques</strong></p>\n<ul>\n<li>Anglais essentiel ou BBB/BBB</li>\n</ul>\n<p>\u00a0</p>\n<p><strong>Besoins organisationnels </strong></p>\n<p>Pour les besoins de la diversification de l\u2019effectif, la pr\u00e9f\u00e9rence pourrait \u00eatre accord\u00e9e aux candidats qui auront indiqu\u00e9 leur appartenance \u00e0 l\u2019un des groupes suivants, vis\u00e9s par l\u2019\u00e9quit\u00e9 en mati\u00e8re d\u2019emploi : Autochtones, personnes handicap\u00e9es, membres d\u2019une minorit\u00e9 visible, femmes.</p>\n<p>\u00a0</p>\n<p><strong>Conditions d\u2019emploi</strong></p>\n<p>Cote de s\u00e9curit\u00e9 de niveau fiabilit\u00e9</p>\n<p>\u00a0</p>\n<p><strong>Exigences op\u00e9rationnelles </strong></p>\n<p>\u00catre apte et dispos\u00e9 \u00e0 faire des heures suppl\u00e9mentaires \u00e0 l\u2019occasion.</p>\n<p>\u00a0</p>\n<p><strong>Candidatures</strong></p>\n<p>Si cette possibilit\u00e9 vous int\u00e9resse, veuillez nous fournir les documents suivants :</p>\n<ul>\n<li>une br\u00e8ve lettre (au plus deux pages) expliquant pourquoi le poste vous int\u00e9resse et \u00e9non\u00e7ant les comp\u00e9tences, l\u2019exp\u00e9rience et les connaissances que vous poss\u00e9dez et qui pourraient \u00eatre un atout pour le poste;</li>\n<li>votre curriculum vitae.</li>\n</ul>\n<p>\u00a0</p>\n<p>Faites parvenir tous les documents \u00e0 Ryan McCullough par courriel \u00e0 Ryan.McCullough@canada.ca d\u2019ici le vendredi 6 novembre 2020.</p>\n<p>\u00a0</p>\n<p>Le curriculum vit\u00e6 doit clairement indiquer :</p>\n<ul>\n<li>la dur\u00e9e de vos fonctions (c.-\u00e0-d. pour une dur\u00e9e d\u00e9termin\u00e9e ou ind\u00e9termin\u00e9e);</li>\n<li>le groupe et le niveau de votre poste d\u2019attache.</li>\n</ul>\n<p>\u00a0</p>\n<p>Si vous avez des questions ou souhaitez obtenir de plus amples renseignements, veuillez-vous adresser \u00e0 Ryan McCullough \u00e0 l\u2019adresse Ryan.McCullough@canada.ca.</p>\n<p><br>\n<strong>Remarques :</strong></p>\n<ul>\n<li>Il s\u2019agit d\u2019une possibilit\u00e9 d\u2019affectation <strong>au niveau du poste d\u2019attache</strong>.</li>\n<li>Les employ\u00e9s qui souhaitent pr\u00e9senter leur candidature pour le poste doivent obtenir l\u2019approbation pr\u00e9alable de leur gestionnaire.</li>\n<li>Les communications relatives \u00e0 ce processus se feront par courriel.</li>\n<li>Les candidats pourraient devoir passer une entrevue.</li>\n<li>Les candidats pourraient \u00eatre appel\u00e9s \u00e0 subir un examen \u00e9crit.</li>\n<li>Une v\u00e9rification des r\u00e9f\u00e9rences pourrait \u00eatre faite.</li>\n</ul>\n<p>\u00a0</p>\n\n"
    },
    "breadcrumb": {
        "en": "Database Administrator (open to all classifications)",
        "fr": "Administrateur de base de donn\u00e9es (ouvert \u00e0 toutes les classifications)"
    },
    "empl": {
        "type": {
            "en": "Assignment",
            "fr": "Affectation"
        },
        "classification": {
            "en": "ZZ-1 and equivalent",
            "fr": "ZZ-1 et \u00e9quivalent"
        },
        "branch": {
            "en": "Programs Branch",
            "fr": "Direction g\u00e9n\u00e9rale des programmes"
        },
        "locations": {
            "en": "All AAFC work locations",
            "fr": "Tous les lieux de travail d'AAC"
        },
        "date_closing": {
            "en": "2020-11-06",
            "fr": "2020-11-06"
        },
        "open_to": {
            "en": "Open to all classifications",
            "fr": "Ouvert \u00e0 toutes les classifications"
        },
        "name": {
            "en": "Ryan McCullough",
            "fr": "Ryan McCullough"
        },
        "email": {
            "en": "Ryan.McCullough@canada.ca",
            "fr": "Ryan.McCullough@canada.ca"
        }
    }
}