{
    "dcr_id": "1517518905795",
    "lang": "en",
    "type_name": "empl-empl",
    "staffadvisor": "laura.corkum@canada.ca",
    "submitername": "Stephen Massey",
    "submiteremail": "stephen.massey@agr.gc.ca",
    "contactname": "Stephen Massey",
    "contactemail": "stephen.massey@agr.gc.ca",
    "contactphonenumber": "613-773-1824",
    "issued": "2018-02-09",
    "": ""
}