{
    "dcr_id": "1523977035244",
    "lang": "en",
    "type_name": "empl-empl",
    "staffadvisor": "Roberta.Battisti-Valle@agr.gc.ca",
    "submitername": "Stephen Desroches",
    "submiteremail": "stephen.desroches@agr.gc.ca",
    "contactname": "Suzie Da Costa",
    "contactemail": "suzie.dacosta@agr.gc.ca",
    "contactphonenumber": "613-773-2136",
    "issued": "2018-04-20",
    "": ""
}