{
    "dcr_id": "1524583489195",
    "lang": "en",
    "type_name": "empl-empl",
    "staffadvisor": "henderson.patrycja@canada.ca",
    "submitername": "julie.levert@canada.ca",
    "submiteremail": "julie.levert@canada.ca",
    "contactname": "julie.levert@canada.ca",
    "contactemail": "julie.levert@canada.ca",
    "contactphonenumber": "613-773-2807",
    "issued": "2018-04-26",
    "": ""
}