{
    "dcr_id": "1527279679083",
    "lang": "en",
    "type_name": "empl-empl",
    "staffadvisor": "Amanda.Dent@agr.gc.ca",
    "submitername": "Dwayne Cutler",
    "submiteremail": "dwayne.cutler@agr.gc.ca",
    "contactname": "Dwayne Cutler",
    "contactemail": "dwayne.cutler@agr.gc.ca",
    "contactphonenumber": "204-259-5151",
    "issued": "2018-05-28",
    "": ""
}