{
    "dcr_id": "1537287115477",
    "lang": "en",
    "type_name": "empl-empl",
    "staffadvisor": "amanda.dent@canada.ca",
    "submitername": "Blair Macfie",
    "submiteremail": "blair.macfie@canada.ca",
    "contactname": "Pamela Woods",
    "contactemail": "pamela.woods2@canada.ca",
    "contactphonenumber": "613-491-2911",
    "issued": "2018-09-19",
    "": ""
}