{
    "dcr_id": "1543959692305",
    "lang": "en",
    "type_name": "empl-empl",
    "staffadvisor": "patrycja.henderson@canada.ca",
    "submitername": "Pascale Boulerice",
    "submiteremail": "pascale.boulerice@canada.ca",
    "contactname": "Suzie Da Costa",
    "contactemail": "suzie.dacosta@canada.ca",
    "contactphonenumber": "613-773-2136",
    "issued": "2018-12-07",
    "": ""
}