{
    "dcr_id": "1544129876718",
    "lang": "en",
    "type_name": "empl-empl",
    "staffadvisor": "patrycja.henderson@canada.ca",
    "submitername": "Jackie Lorenz",
    "submiteremail": "jackie.lorenz@canada.ca",
    "contactname": "Suzie Da Costa",
    "contactemail": "suzie.dacosta@canada.ca",
    "contactphonenumber": "613-773-2136",
    "issued": "2018-12-10",
    "": ""
}