{
    "dcr_id": "1551475258803",
    "lang": "en",
    "type_name": "empl-empl",
    "staffadvisor": "mardi.pleskach@canada.ca",
    "submitername": "Pascal Tanguay",
    "submiteremail": "pascal.tanguay@canada.ca",
    "contactname": "Suzie Da Costa",
    "contactemail": "suzie.dacosta@canada.ca",
    "contactphonenumber": "613-773-2136",
    "issued": "2019-03-05",
    "": ""
}