{
    "dcr_id": "1552059755734",
    "lang": "en",
    "type_name": "empl-empl",
    "staffadvisor": "carole-anne.cusson2@canada.ca",
    "submitername": "Julie Levert",
    "submiteremail": "julie.levert@canada.ca",
    "contactname": "Julie Levert",
    "contactemail": "julie.levert@canada.ca",
    "contactphonenumber": "613-773-2807",
    "issued": "2019-03-11",
    "": ""
}