{
    "dcr_id": "1568827464677",
    "lang": "en",
    "type_name": "empl-empl",
    "staffadvisor": "rabab.gomaa@canada.ca",
    "submitername": "Rabab Gomaa",
    "submiteremail": "rabab.gomaa@canada.ca",
    "contactname": "Rabab Gomaa",
    "contactemail": "rabab.gomaa@canada.ca",
    "contactphonenumber": "613-890-0000",
    "issued": "2019-09-19",
    "": ""
}