{
    "dcr_id": "1571853051839",
    "lang": "en",
    "type_name": "empl-empl",
    "staffadvisor": "adriana.azzi3@canada.ca",
    "submitername": "Kevin Norris",
    "submiteremail": "Kevin.Norris@canada.ca",
    "contactname": "Julie Levert",
    "contactemail": "Julie.Levert@canada.ca",
    "contactphonenumber": "613-773-2807",
    "issued": "2019-10-24",
    "": ""
}