{
    "dcr_id": "1170431125051",
    "title": {
        "en": "Central Experimental Farm National Historic Site Management Plan (8 of 20)",
        "fr": "Plan directeur du lieu historique national de la Ferme expérimentale centrale (8 de 20)"
    },
    "modified": "2019-09-17",
    "issued": "2009-01-22",
    "dcr_type": "comm-comm/gene-gene",
    "templatetype": "content page 1 column",
    "page_type": "0",
    "node_id": "1365611371966",
    "dc_date_created": "2009-01-22",
    "managing_branch": "PAB",
    "teamsite_location": {
        "en": "/default/main/AAFC-AAC/Internet-Internet/Common-Commun/WORKAREA/Common-Commun/templatedata/comm-comm/gene-gene/data/02/cef_plan07_1170431125051_en",
        "fr": "/default/main/AAFC-AAC/Internet-Internet/Common-Commun/WORKAREA/Common-Commun/templatedata/comm-comm/gene-gene/data/02/cef_plan07_1170431125051_fr"
    },
    "layout_name": "content page 1 column",
    "type_name": "comm-comm/gene-gene",
    "lang": "en"
}