{
    "dcr_id": "1176728972381",
    "title": {
        "en": "Agricultural Pest Management Resources",
        "fr": "Ressources en matière de lutte antiparasitaire en agriculture"
    },
    "modified": "2020-12-10",
    "issued": "2009-06-01",
    "dcr_type": "comm-comm/gene-gene",
    "templatetype": "content page 1 column",
    "page_type": "1",
    "node_id": "1534850060420",
    "dc_date_created": "2009-06-01",
    "managing_branch": "PAB",
    "teamsite_location": {
        "en": "/default/main/AAFC-AAC/Internet-Internet/Group-Ensemble/ProgServ-ProgServ/WORKAREA/ProgServ-ProgServ/templatedata/comm-comm/gene-gene/data/04/pmc_publications_archive_doc_1176728972381_en",
        "fr": "/default/main/AAFC-AAC/Internet-Internet/Group-Ensemble/ProgServ-ProgServ/WORKAREA/ProgServ-ProgServ/templatedata/comm-comm/gene-gene/data/04/pmc_publications_archive_doc_1176728972381_fr"
    },
    "layout_name": "content page 1 column",
    "type_name": "comm-comm/gene-gene",
    "lang": "en"
}