{
    "dcr_id": "1187631191985",
    "title": {
        "en": "Riparian Area Management",
        "fr": "La gestion des zones riveraines"
    },
    "modified": "2020-07-29",
    "issued": "2009-02-04",
    "dcr_type": "comm-comm/gene-gene",
    "templatetype": "content page 1 column",
    "page_type": "0",
    "node_id": "1354137773751",
    "dc_date_created": "2009-02-04",
    "managing_branch": "PAB",
    "teamsite_location": {
        "en": "/default/main/AAFC-AAC/Internet-Internet/Common-Commun/WORKAREA/Common-Commun/templatedata/comm-comm/gene-gene/data/08/land-terre_water-eau_ram-gzr_1187631191985_en",
        "fr": "/default/main/AAFC-AAC/Internet-Internet/Common-Commun/WORKAREA/Common-Commun/templatedata/comm-comm/gene-gene/data/08/land-terre_water-eau_ram-gzr_1187631191985_fr"
    },
    "layout_name": "content page 1 column",
    "type_name": "comm-comm/gene-gene",
    "lang": "en"
}