{
    "dcr_id": "1207588534717",
    "title": {
        "en": "Canadian Pari-Mutuel Agency Email Notifications",
        "fr": "Avis par courriel de l’Agence canadienne du pari mutuel"
    },
    "modified": "2015-01-16",
    "issued": "2008-10-01",
    "dcr_type": "comm-comm/gene-gene",
    "templatetype": "content page 1 column",
    "page_type": "0",
    "node_id": "1354137773675",
    "dc_date_created": "2008-10-01",
    "managing_branch": "PAB",
    "teamsite_location": {
        "en": "/default/main/AAFC-AAC/Internet-Internet/Common-Commun/WORKAREA/Common-Commun/templatedata/comm-comm/gene-gene/data/04/test_elect_sub_1207588534717_en",
        "fr": "/default/main/AAFC-AAC/Internet-Internet/Common-Commun/WORKAREA/Common-Commun/templatedata/comm-comm/gene-gene/data/04/test_elect_sub_1207588534717_fr"
    },
    "layout_name": "content page 1 column",
    "type_name": "comm-comm/gene-gene",
    "lang": "en"
}