{
    "dcr_id": "1231363888838",
    "title": {
        "en": "Maple syrup flavour research",
        "fr": "La recherche sur la flaveur du sirop d'érable"
    },
    "modified": "2020-03-03",
    "issued": "2009-04-21",
    "dcr_type": "comm-comm/gene-gene",
    "templatetype": "content page 1 column",
    "page_type": "0",
    "node_id": "1378999410478",
    "dc_date_created": "2009-04-21",
    "managing_branch": "PAB",
    "teamsite_location": {
        "en": "/default/main/AAFC-AAC/Internet-Internet/Common-Commun/WORKAREA/Common-Commun/templatedata/comm-comm/gene-gene/data/01/sci-maple-erable_wheel-roue_1_1231363888838_en",
        "fr": "/default/main/AAFC-AAC/Internet-Internet/Common-Commun/WORKAREA/Common-Commun/templatedata/comm-comm/gene-gene/data/01/sci-maple-erable_wheel-roue_1_1231363888838_fr"
    },
    "layout_name": "content page 1 column",
    "type_name": "comm-comm/gene-gene",
    "lang": "en"
}