{
    "dcr_id": "1234732658131",
    "title": {
        "en": "Notice of Request for Proposals - Varieties supported for Registration in 2018 that remain available for licensing",
        "fr": "Avis de demande de propositions - Variétés offertes en 2018 et qui demeurent disponibles pour la commercialisation"
    },
    "modified": "2018-12-19",
    "issued": "2009-03-26",
    "dcr_type": "comm-comm/gene-gene",
    "templatetype": "content page 1 column",
    "page_type": "0",
    "node_id": "1366840528888",
    "dc_date_created": "2009-03-26",
    "managing_branch": "PAB",
    "teamsite_location": {
        "en": "/default/main/AAFC-AAC/Internet-Internet/Common-Commun/WORKAREA/Common-Commun/templatedata/comm-comm/gene-gene/data/02/variety_request_description_1234732658131_en",
        "fr": "/default/main/AAFC-AAC/Internet-Internet/Common-Commun/WORKAREA/Common-Commun/templatedata/comm-comm/gene-gene/data/02/variety_request_description_1234732658131_fr"
    },
    "layout_name": "content page 1 column",
    "type_name": "comm-comm/gene-gene",
    "lang": "en"
}