{
    "dcr_id": "1304452436561",
    "title": {
        "en": "Governor in Council and Ministerial Appointments",
        "fr": "Nominations faites par le gouverneur en conseil et le ministre"
    },
    "modified": "2011-05-04",
    "issued": "2011-05-04",
    "dcr_type": "comm-comm/gene-gene",
    "templatetype": "content page 1 column",
    "page_type": "0",
    "node_id": "1354137773675",
    "dc_date_created": "2011-05-04",
    "managing_branch": "PAB",
    "teamsite_location": {
        "en": "/default/main/AAFC-AAC/Internet-Internet/Common-Commun/WORKAREA/Common-Commun/templatedata/comm-comm/gene-gene/data/05/governor_council_minist_1304452436561_en",
        "fr": "/default/main/AAFC-AAC/Internet-Internet/Common-Commun/WORKAREA/Common-Commun/templatedata/comm-comm/gene-gene/data/05/governor_council_minist_1304452436561_fr"
    },
    "layout_name": "content page 1 column",
    "type_name": "comm-comm/gene-gene",
    "lang": "en"
}