{
    "dcr_id": "1333637676318",
    "title": {
        "en": "Canadian Agricultural Loans Act program: For lenders",
        "fr": "Programme de la Loi canadienne sur les prêts agricoles : Pour les prêteurs"
    },
    "modified": "2020-01-14",
    "issued": "2020-01-14",
    "dcr_type": "comm-comm/gene-gene",
    "templatetype": "content page 1 column",
    "page_type": "1",
    "node_id": "1572022494126",
    "dc_date_created": "2020-01-14",
    "managing_branch": "PAB",
    "teamsite_location": {
        "en": "/default/main/AAFC-AAC/Internet-Internet/Group-Ensemble/ProgServ-ProgServ/WORKAREA/ProgServ-ProgServ/templatedata/comm-comm/gene-gene/data/10/cala_step4_for_lenders_1333637676318_en",
        "fr": "/default/main/AAFC-AAC/Internet-Internet/Group-Ensemble/ProgServ-ProgServ/WORKAREA/ProgServ-ProgServ/templatedata/comm-comm/gene-gene/data/10/cala_step4_for_lenders_1333637676318_fr"
    },
    "layout_name": "content page 1 column",
    "type_name": "comm-comm/gene-gene",
    "lang": "en"
}