{
    "dcr_id": "1344639901615",
    "title": {
        "en": "Planning your shelterbelt",
        "fr": "Planification de votre brise-vent"
    },
    "modified": "2014-12-23",
    "issued": "2012-10-30",
    "dcr_type": "comm-comm/gene-gene",
    "templatetype": "content page 1 column",
    "page_type": "1",
    "node_id": "1369771857615",
    "dc_date_created": "2012-10-30",
    "managing_branch": "PAB",
    "teamsite_location": {
        "en": "/default/main/AAFC-AAC/Internet-Internet/Common-Commun/WORKAREA/Common-Commun/templatedata/comm-comm/gene-gene/data/08/agroforest_shltrblt_plan_1344639901615_en",
        "fr": "/default/main/AAFC-AAC/Internet-Internet/Common-Commun/WORKAREA/Common-Commun/templatedata/comm-comm/gene-gene/data/08/agroforest_shltrblt_plan_1344639901615_fr"
    },
    "layout_name": "content page 1 column",
    "type_name": "comm-comm/gene-gene",
    "lang": "en"
}