{
    "dcr_id": "1344888191892",
    "title": {
        "en": "Riparian buffers",
        "fr": "Bandes riveraines"
    },
    "modified": "2015-08-10",
    "issued": "2012-10-30",
    "dcr_type": "comm-comm/gene-gene",
    "templatetype": "content page 1 column",
    "page_type": "0",
    "node_id": "1369771883566",
    "dc_date_created": "2012-10-30",
    "managing_branch": "PAB",
    "teamsite_location": {
        "en": "/default/main/AAFC-AAC/Internet-Internet/Common-Commun/WORKAREA/Common-Commun/templatedata/comm-comm/gene-gene/data/08/agroforest_shltrblt_riparian_1344888191892_en",
        "fr": "/default/main/AAFC-AAC/Internet-Internet/Common-Commun/WORKAREA/Common-Commun/templatedata/comm-comm/gene-gene/data/08/agroforest_shltrblt_riparian_1344888191892_fr"
    },
    "layout_name": "content page 1 column",
    "type_name": "comm-comm/gene-gene",
    "lang": "en"
}