{
    "dcr_id": "1347469689149",
    "title": {
        "en": "Update on Domestic Low-Level Presence Policy Development",
        "fr": "Mise à jour - Développement d’une politique interne de gestion de la présence en faible concentration"
    },
    "modified": "2015-04-07",
    "issued": "2012-11-06",
    "dcr_type": "comm-comm/gene-gene",
    "templatetype": "content page 1 column",
    "page_type": "0",
    "node_id": "1354137773675",
    "dc_date_created": "2012-11-06",
    "managing_branch": "PAB",
    "teamsite_location": {
        "en": "/default/main/AAFC-AAC/Internet-Internet/Common-Commun/WORKAREA/Common-Commun/templatedata/comm-comm/gene-gene/data/09/consultation_llp_pfq_1347469689149_en",
        "fr": "/default/main/AAFC-AAC/Internet-Internet/Common-Commun/WORKAREA/Common-Commun/templatedata/comm-comm/gene-gene/data/09/consultation_llp_pfq_1347469689149_fr"
    },
    "layout_name": "content page 1 column",
    "type_name": "comm-comm/gene-gene",
    "lang": "en"
}