{
    "dcr_id": "1366308493939",
    "title": {
        "en": "Growing Forward 2 - AgriInvest Program Guidelines",
        "fr": "Cultivons l'avenir 2 - Agri-investissement - Lignes directrices du programme"
    },
    "modified": "2019-10-22",
    "issued": "2019-10-22",
    "dcr_type": "comm-comm/gene-gene",
    "templatetype": "content page 1 column",
    "page_type": "0",
    "node_id": "1571322247714",
    "dc_date_created": "2019-10-22",
    "managing_branch": "PAB",
    "teamsite_location": {
        "en": "/default/main/AAFC-AAC/Internet-Internet/Group-Ensemble/ProgServ-ProgServ/WORKAREA/ProgServ-ProgServ/templatedata/comm-comm/gene-gene/data/09/ai_gf2_guidelines_1366308493939_en",
        "fr": "/default/main/AAFC-AAC/Internet-Internet/Group-Ensemble/ProgServ-ProgServ/WORKAREA/ProgServ-ProgServ/templatedata/comm-comm/gene-gene/data/09/ai_gf2_guidelines_1366308493939_fr"
    },
    "layout_name": "content page 1 column",
    "type_name": "comm-comm/gene-gene",
    "lang": "en"
}