{
    "dcr_id": "1368026127650",
    "title": {
        "en": "Variable rate nutrient application : Should I consider it for my farm",
        "fr": "L'application à taux variable d'éléments nutritifs : Est-ce que je peux l'envisager pour ma ferme?"
    },
    "modified": "2020-01-31",
    "issued": "2013-05-22",
    "dcr_type": "comm-comm/gene-gene",
    "templatetype": "content page 1 column",
    "page_type": "0",
    "node_id": "1354137773757",
    "dc_date_created": "2013-05-22",
    "managing_branch": "PAB",
    "teamsite_location": {
        "en": "/default/main/AAFC-AAC/Internet-Internet/Common-Commun/WORKAREA/Common-Commun/templatedata/comm-comm/gene-gene/data/05/vrna-atven-que_1368026127650_en",
        "fr": "/default/main/AAFC-AAC/Internet-Internet/Common-Commun/WORKAREA/Common-Commun/templatedata/comm-comm/gene-gene/data/05/vrna-atven-que_1368026127650_fr"
    },
    "layout_name": "content page 1 column",
    "type_name": "comm-comm/gene-gene",
    "lang": "en"
}