{
    "dcr_id": "1370370434529",
    "title": {
        "en": "Components and Installation of an Aeration System",
        "fr": "Composants d'un système d'aération et méthode d'installation"
    },
    "modified": "2020-01-24",
    "issued": "2014-07-18",
    "dcr_type": "comm-comm/gene-gene",
    "templatetype": "content page 1 column",
    "page_type": "0",
    "node_id": "1354137773759",
    "dc_date_created": "2014-07-18",
    "managing_branch": "PAB",
    "teamsite_location": {
        "en": "/default/main/AAFC-AAC/Internet-Internet/Common-Commun/WORKAREA/Common-Commun/templatedata/comm-comm/gene-gene/data/06/land-terre_water-eau_aeration-compon_1370370434529_en",
        "fr": "/default/main/AAFC-AAC/Internet-Internet/Common-Commun/WORKAREA/Common-Commun/templatedata/comm-comm/gene-gene/data/06/land-terre_water-eau_aeration-compon_1370370434529_fr"
    },
    "layout_name": "content page 1 column",
    "type_name": "comm-comm/gene-gene",
    "lang": "en"
}