{
    "dcr_id": "1371564950593",
    "title": {
        "en": "Well design and wellhead protection",
        "fr": "Conception du puits et protection de la tête de puits"
    },
    "modified": "2020-01-24",
    "issued": "2014-07-18",
    "dcr_type": "comm-comm/gene-gene",
    "templatetype": "content page 1 column",
    "page_type": "0",
    "node_id": "1354137773764",
    "dc_date_created": "2014-07-18",
    "managing_branch": "PAB",
    "teamsite_location": {
        "en": "/default/main/AAFC-AAC/Internet-Internet/Common-Commun/WORKAREA/Common-Commun/templatedata/comm-comm/gene-gene/data/06/water-eau_well_design_1371564950593_en",
        "fr": "/default/main/AAFC-AAC/Internet-Internet/Common-Commun/WORKAREA/Common-Commun/templatedata/comm-comm/gene-gene/data/06/water-eau_well_design_1371564950593_fr"
    },
    "layout_name": "content page 1 column",
    "type_name": "comm-comm/gene-gene",
    "lang": "en"
}