{
    "dcr_id": "1371491156350",
    "title": {
        "en": "Public Involvement in Watershed Management",
        "fr": "Participation du public à la gestion des bassins hydrographiques"
    },
    "modified": "2020-01-24",
    "issued": "2014-07-18",
    "dcr_type": "comm-comm/gene-gene",
    "templatetype": "content page 1 column",
    "page_type": "1",
    "node_id": "1400189198893",
    "dc_date_created": "2014-07-18",
    "managing_branch": "PAB",
    "teamsite_location": {
        "en": "/default/main/AAFC-AAC/Internet-Internet/Common-Commun/WORKAREA/Common-Commun/templatedata/comm-comm/gene-gene/data/06/water-protect_05_mgmt_1371491156350_en",
        "fr": "/default/main/AAFC-AAC/Internet-Internet/Common-Commun/WORKAREA/Common-Commun/templatedata/comm-comm/gene-gene/data/06/water-protect_05_mgmt_1371491156350_fr"
    },
    "layout_name": "content page 1 column",
    "type_name": "comm-comm/gene-gene",
    "lang": "en"
}