{
    "dcr_id": "1374249496897",
    "title": {
        "en": "Saint-Hyacinthe Research and Development Centre's Industrial Program: Industrial project application form",
        "fr": "Programme industriel du Centre de recherche et de développement à Saint-Hyacinthe : Projet industriel - Inscription d’une demande"
    },
    "modified": "2020-07-15",
    "issued": "2020-07-15",
    "dcr_type": "comm-comm/gene-gene",
    "templatetype": "content page 1 column",
    "page_type": "0",
    "node_id": "1594232085807",
    "dc_date_created": "2020-07-15",
    "managing_branch": "PAB",
    "teamsite_location": {
        "en": "/default/main/AAFC-AAC/Internet-Internet/Group-Ensemble/ProgServ-ProgServ/WORKAREA/ProgServ-ProgServ/templatedata/comm-comm/gene-gene/data/07/st-hy_ip-pi_indus-proj-app_1374249496897_en",
        "fr": "/default/main/AAFC-AAC/Internet-Internet/Group-Ensemble/ProgServ-ProgServ/WORKAREA/ProgServ-ProgServ/templatedata/comm-comm/gene-gene/data/07/st-hy_ip-pi_indus-proj-app_1374249496897_fr"
    },
    "layout_name": "content page 1 column",
    "type_name": "comm-comm/gene-gene",
    "lang": "en"
}