{
    "dcr_id": "1382971713721",
    "title": {
        "en": "Livestock traceability",
        "fr": "Traçabilité  du bétail"
    },
    "modified": "2017-04-19",
    "issued": "2010-04-20",
    "dcr_type": "comm-comm/gene-gene",
    "templatetype": "content page 1 column",
    "page_type": "1",
    "node_id": "1382729212406",
    "dc_date_created": "2010-04-20",
    "managing_branch": "MISB",
    "teamsite_location": {
        "en": "/default/main/AAFC-AAC/Internet-Internet/MISB-DGSIM/IMB-BMI/WORKAREA/IMB-BMI/templatedata/comm-comm/gene-gene/data/trac_index_1382971713721_en",
        "fr": "/default/main/AAFC-AAC/Internet-Internet/MISB-DGSIM/IMB-BMI/WORKAREA/IMB-BMI/templatedata/comm-comm/gene-gene/data/trac_index_1382971713721_fr"
    },
    "layout_name": "content page 1 column",
    "type_name": "comm-comm/gene-gene",
    "lang": "en"
}