{
    "dcr_id": "1382649715173",
    "title": {
        "en": "Secretary's manual  (page 1 of 9)",
        "fr": "Guide à l'intention du secrétariat (page 1 de 9)"
    },
    "modified": "2020-03-17",
    "issued": "2003-02-24",
    "dcr_type": "comm-comm/gene-gene",
    "templatetype": "content page 1 column",
    "page_type": "1",
    "node_id": "1382649681825",
    "dc_date_created": "2003-02-24",
    "managing_branch": "MISB",
    "teamsite_location": {
        "en": "/default/main/AAFC-AAC/Internet-Internet/MISB-DGSIM/SDAD-DDAS/AG-GA/WORKAREA/AG-GA/templatedata/comm-comm/gene-gene/data/apasm_page1_secretary_manual_1382649715173_en",
        "fr": "/default/main/AAFC-AAC/Internet-Internet/MISB-DGSIM/SDAD-DDAS/AG-GA/WORKAREA/AG-GA/templatedata/comm-comm/gene-gene/data/apasm_page1_secretary_manual_1382649715173_fr"
    },
    "layout_name": "content page 1 column",
    "type_name": "comm-comm/gene-gene",
    "lang": "en"
}