{
    "dcr_id": "1384971854412",
    "title": {
        "en": "Canadian farm cash receipts",
        "fr": "Recettes monétaires à la ferme"
    },
    "modified": "2020-07-27",
    "issued": "2011-01-30",
    "dcr_type": "comm-comm/gene-gene",
    "templatetype": "content page 1 column",
    "page_type": "0",
    "node_id": "1384971799963",
    "dc_date_created": "2011-01-30",
    "managing_branch": "MISB",
    "teamsite_location": {
        "en": "/default/main/AAFC-AAC/Internet-Internet/MISB-DGSIM/SDAD-DDAS/PE-VO/WORKAREA/PE-VO/templatedata/comm-comm/gene-gene/data/farm_cash_receipts_1384971854412_en",
        "fr": "/default/main/AAFC-AAC/Internet-Internet/MISB-DGSIM/SDAD-DDAS/PE-VO/WORKAREA/PE-VO/templatedata/comm-comm/gene-gene/data/farm_cash_receipts_1384971854412_fr"
    },
    "layout_name": "content page 1 column",
    "type_name": "comm-comm/gene-gene",
    "lang": "en"
}