{
    "dcr_id": "1384265676755",
    "title": {
        "en": "Agriculture Trade Issues at the World Trade Organization",
        "fr": "Enjeux de commerce agricole à l'Organisation mondiale du commerce"
    },
    "modified": "2021-01-26",
    "issued": "2003-02-03",
    "dcr_type": "comm-comm/gene-gene",
    "templatetype": "<NULL>",
    "page_type": "1",
    "node_id": "1383760472716",
    "dc_date_created": "2003-02-03",
    "managing_branch": "MISB",
    "teamsite_location": {
        "en": "/default/main/AAFC-AAC/Internet-Internet/MISB-DGSIM/ITPD-DBCI/WORKAREA/ITPD-DBCI/templatedata/comm-comm/gene-gene/data/atp_ag_ac_trade-agreements_1384265676755_en",
        "fr": "/default/main/AAFC-AAC/Internet-Internet/MISB-DGSIM/ITPD-DBCI/WORKAREA/ITPD-DBCI/templatedata/comm-comm/gene-gene/data/atp_ag_ac_trade-agreements_1384265676755_fr"
    },
    "layout_name": "<NULL>",
    "type_name": "comm-comm/gene-gene",
    "lang": "en"
}