{
    "dcr_id": "1385757253931",
    "title": {
        "en": "Seed Sector Value Chain Roundtable",
        "fr": "Table ronde sur la chaîne de valeur du secteur des semences"
    },
    "modified": "2019-12-06",
    "issued": "2012-09-17",
    "dcr_type": "comm-comm/gene-gene",
    "templatetype": "content page 1 column",
    "page_type": "1",
    "node_id": "1384804194095",
    "dc_date_created": "2012-09-17",
    "managing_branch": "MISB",
    "teamsite_location": {
        "en": "/default/main/AAFC-AAC/Internet-Internet/MISB-DGSIM/VCR-TCV/WORKAREA/VCR-TCV/templatedata/comm-comm/gene-gene/data/vcr_seed_index_1385757253931_en",
        "fr": "/default/main/AAFC-AAC/Internet-Internet/MISB-DGSIM/VCR-TCV/WORKAREA/VCR-TCV/templatedata/comm-comm/gene-gene/data/vcr_seed_index_1385757253931_fr"
    },
    "layout_name": "content page 1 column",
    "type_name": "comm-comm/gene-gene",
    "lang": "en"
}