{
    "dcr_id": "1389383644592",
    "title": {
        "en": "Contact Form",
        "fr": "Formulaire de communication"
    },
    "modified": "2014-04-01",
    "issued": "2014-04-01",
    "dcr_type": "comm-comm/gene-gene",
    "templatetype": "content page 1 column",
    "page_type": "0",
    "node_id": "1354137774094",
    "dc_date_created": "2014-04-01",
    "managing_branch": "PAB",
    "teamsite_location": {
        "en": "/default/main/AAFC-AAC/Internet-Internet/CCB-DGCC/WORKAREA/CCB-DGCC/templatedata/comm-comm/gene-gene/data/contact-us_gen_1389383644592_en",
        "fr": "/default/main/AAFC-AAC/Internet-Internet/CCB-DGCC/WORKAREA/CCB-DGCC/templatedata/comm-comm/gene-gene/data/contact-us_gen_1389383644592_fr"
    },
    "layout_name": "content page 1 column",
    "type_name": "comm-comm/gene-gene",
    "lang": "en"
}