{
    "dcr_id": "1398795788947",
    "title": {
        "en": "Report: AgriInsurance Program Audit",
        "fr": "Rapport : Vérification du programme Agri-protection"
    },
    "modified": "2015-08-07",
    "issued": "2014-07-04",
    "dcr_type": "comm-comm/gene-gene",
    "templatetype": "content page 1 column",
    "page_type": "0",
    "node_id": "1587496160123",
    "dc_date_created": "2014-07-04",
    "managing_branch": "PAB",
    "teamsite_location": {
        "en": "/default/main/AAFC-AAC/Internet-Internet/Common-Commun/WORKAREA/Common-Commun/templatedata/comm-comm/gene-gene/data/04/audit_agriinsurance_1398795788947_en",
        "fr": "/default/main/AAFC-AAC/Internet-Internet/Common-Commun/WORKAREA/Common-Commun/templatedata/comm-comm/gene-gene/data/04/audit_agriinsurance_1398795788947_fr"
    },
    "layout_name": "content page 1 column",
    "type_name": "comm-comm/gene-gene",
    "lang": "en"
}