{
    "dcr_id": "1399921486433",
    "title": {
        "en": "Bringing Agriculture and Agri-Food Canada’s Research Results to the Farm",
        "fr": "Mettre les résultats des recherches d’Agriculture et Agroalimentaire Canada à la disposition des agriculteurs"
    },
    "modified": "2019-01-15",
    "issued": "2014-05-12",
    "dcr_type": "comm-comm/gene-gene",
    "templatetype": "content page 1 column",
    "page_type": "0",
    "node_id": "1378999410478",
    "dc_date_created": "2014-05-12",
    "managing_branch": "PAB",
    "teamsite_location": {
        "en": "/default/main/AAFC-AAC/Internet-Internet/CCB-DGCC/WORKAREA/CCB-DGCC/templatedata/comm-comm/gene-gene/data/feature_article_research_results_1399921486433_en",
        "fr": "/default/main/AAFC-AAC/Internet-Internet/CCB-DGCC/WORKAREA/CCB-DGCC/templatedata/comm-comm/gene-gene/data/feature_article_research_results_1399921486433_fr"
    },
    "layout_name": "content page 1 column",
    "type_name": "comm-comm/gene-gene",
    "lang": "en"
}