{
    "dcr_id": "1401972741624",
    "title": {
        "en": "Delineating a Watershed (Video)",
        "fr": "Délimiter le bassin versant (Vidéo)"
    },
    "modified": "2020-01-31",
    "issued": "2014-07-30",
    "dcr_type": "comm-comm/gene-gene",
    "templatetype": "content page 1 column",
    "page_type": "0",
    "node_id": "1400188048572",
    "dc_date_created": "2014-07-30",
    "managing_branch": "PAB",
    "teamsite_location": {
        "en": "/default/main/AAFC-AAC/Internet-Internet/Common-Commun/WORKAREA/Common-Commun/templatedata/comm-comm/gene-gene/data/06/water-eau_transcript_delineating_watershed_1401972741624_en",
        "fr": "/default/main/AAFC-AAC/Internet-Internet/Common-Commun/WORKAREA/Common-Commun/templatedata/comm-comm/gene-gene/data/06/water-eau_transcript_delineating_watershed_1401972741624_fr"
    },
    "layout_name": "content page 1 column",
    "type_name": "comm-comm/gene-gene",
    "lang": "en"
}