{
    "dcr_id": "1410083148449",
    "title": {
        "en": "Canadian Apple Industry - Varieties by Province",
        "fr": "Industrie canadienne de la pomme - Variétés par province"
    },
    "modified": "2017-05-05",
    "issued": "2011-06-02",
    "dcr_type": "comm-comm/gene-gene",
    "templatetype": "content page 1 column",
    "page_type": "0",
    "node_id": "1368480094434",
    "dc_date_created": "2011-06-02",
    "managing_branch": "MISB",
    "teamsite_location": {
        "en": "/default/main/AAFC-AAC/Internet-Internet/MISB-DGSIM/ATS-SEA/ATS-SEA-s2/WORKAREA/ATS-SEA-s2/templatedata/comm-comm/gene-gene/data/can_apple_industry_1410083148449_en",
        "fr": "/default/main/AAFC-AAC/Internet-Internet/MISB-DGSIM/ATS-SEA/ATS-SEA-s2/WORKAREA/ATS-SEA-s2/templatedata/comm-comm/gene-gene/data/can_apple_industry_1410083148449_fr"
    },
    "layout_name": "content page 1 column",
    "type_name": "comm-comm/gene-gene",
    "lang": "en"
}