{
    "dcr_id": "1415860000003",
    "title": {
        "en": "Red meat and livestock slaughter and carcass weights",
        "fr": "Rapports d'abattage et poids de carcasses pour le marché des viandes rouges"
    },
    "modified": "2020-10-18",
    "issued": "2003-02-24",
    "dcr_type": "comm-comm/gene-gene",
    "templatetype": "content page 1 column",
    "page_type": "1",
    "node_id": "1415863600004",
    "dc_date_created": "2003-02-24",
    "managing_branch": "MISB",
    "teamsite_location": {
        "en": "/default/main/AAFC-AAC/Internet-Internet/MISB-DGSIM/SDAD-DDAS/RML-VRB/WORKAREA/RML-VRB/templatedata/comm-comm/gene-gene/data/by_type_slaughter_1415860000003_en",
        "fr": "/default/main/AAFC-AAC/Internet-Internet/MISB-DGSIM/SDAD-DDAS/RML-VRB/WORKAREA/RML-VRB/templatedata/comm-comm/gene-gene/data/by_type_slaughter_1415860000003_fr"
    },
    "layout_name": "content page 1 column",
    "type_name": "comm-comm/gene-gene",
    "lang": "en"
}