{
    "dcr_id": "1415860000027",
    "title": {
        "en": "Market indicator reports",
        "fr": "Indicateurs des marchés"
    },
    "modified": "2020-10-30",
    "issued": "2014-06-05",
    "dcr_type": "comm-comm/gene-gene",
    "templatetype": "content page 1 column",
    "page_type": "1",
    "node_id": "1447528576378",
    "dc_date_created": "2014-06-05",
    "managing_branch": "MISB",
    "teamsite_location": {
        "en": "/default/main/AAFC-AAC/Internet-Internet/MISB-DGSIM/SDAD-DDAS/RML-VRB/WORKAREA/RML-VRB/templatedata/comm-comm/gene-gene/data/by_type_market_indicators_1415860000027_en",
        "fr": "/default/main/AAFC-AAC/Internet-Internet/MISB-DGSIM/SDAD-DDAS/RML-VRB/WORKAREA/RML-VRB/templatedata/comm-comm/gene-gene/data/by_type_market_indicators_1415860000027_fr"
    },
    "layout_name": "content page 1 column",
    "type_name": "comm-comm/gene-gene",
    "lang": "en"
}