{
    "dcr_id": "1419963017182",
    "title": {
        "en": "Red meat exports by month - year to date cumulative",
        "fr": "Exportations de viande rouge par mois - cumul annuel"
    },
    "modified": "2021-01-08",
    "issued": "2015-01-15",
    "dcr_type": "comm-comm/gene-gene",
    "templatetype": "content page 1 column",
    "page_type": "0",
    "node_id": "1415863600006",
    "dc_date_created": "2015-01-15",
    "managing_branch": "MISB",
    "teamsite_location": {
        "en": "/default/main/AAFC-AAC/Internet-Internet/MISB-DGSIM/SDAD-DDAS/RML-VRB/WORKAREA/RML-VRB/templatedata/comm-comm/gene-gene/data/beef_veal_exports_monthly_1419963017182_en",
        "fr": "/default/main/AAFC-AAC/Internet-Internet/MISB-DGSIM/SDAD-DDAS/RML-VRB/WORKAREA/RML-VRB/templatedata/comm-comm/gene-gene/data/beef_veal_exports_monthly_1419963017182_fr"
    },
    "layout_name": "content page 1 column",
    "type_name": "comm-comm/gene-gene",
    "lang": "en"
}