{
    "dcr_id": "1422987718261",
    "title": {
        "en": "Evaluation of the Beef Market Development Fund",
        "fr": "Évaluation du Fonds de développement du marché canadien du bœuf et des bovins"
    },
    "modified": "2015-08-06",
    "issued": "2015-06-26",
    "dcr_type": "comm-comm/gene-gene",
    "templatetype": "content page 1 column",
    "page_type": "0",
    "node_id": "1587496160123",
    "dc_date_created": "2015-06-26",
    "managing_branch": "PAB",
    "teamsite_location": {
        "en": "/default/main/AAFC-AAC/Internet-Internet/Common-Commun/WORKAREA/Common-Commun/templatedata/comm-comm/gene-gene/data/02/eval_beef_mrkt_dev_1422987718261_en",
        "fr": "/default/main/AAFC-AAC/Internet-Internet/Common-Commun/WORKAREA/Common-Commun/templatedata/comm-comm/gene-gene/data/02/eval_beef_mrkt_dev_1422987718261_fr"
    },
    "layout_name": "content page 1 column",
    "type_name": "comm-comm/gene-gene",
    "lang": "en"
}