{
    "dcr_id": "1423491580210",
    "title": {
        "en": "Italy-Canada Twinning Initiative",
        "fr": "Initiative de jumelage Italie-Canada"
    },
    "modified": "2019-03-15",
    "issued": "2015-02-19",
    "dcr_type": "comm-comm/gene-gene",
    "templatetype": "content page 1 column",
    "page_type": "0",
    "node_id": "1354137774019",
    "dc_date_created": "2015-02-19",
    "managing_branch": "PAB",
    "teamsite_location": {
        "en": "/default/main/AAFC-AAC/Internet-Internet/Group-Ensemble/ProgServ-ProgServ/WORKAREA/ProgServ-ProgServ/templatedata/comm-comm/gene-gene/data/02/foreign_research_participant_program_1423491580210_en",
        "fr": "/default/main/AAFC-AAC/Internet-Internet/Group-Ensemble/ProgServ-ProgServ/WORKAREA/ProgServ-ProgServ/templatedata/comm-comm/gene-gene/data/02/foreign_research_participant_program_1423491580210_fr"
    },
    "layout_name": "content page 1 column",
    "type_name": "comm-comm/gene-gene",
    "lang": "en"
}