{
    "dcr_id": "1435868137804",
    "title": {
        "en": "Evaluation of the Control of Diseases in the Hog Industry",
        "fr": "Évaluation de l’Initiative de lutte contre les maladies dans l’industrie porcine "
    },
    "modified": "2015-07-07",
    "issued": "2015-07-03",
    "dcr_type": "comm-comm/gene-gene",
    "templatetype": "content page 1 column",
    "page_type": "0",
    "node_id": "1566306181000",
    "dc_date_created": "2015-07-03",
    "managing_branch": "PAB",
    "teamsite_location": {
        "en": "/default/main/AAFC-AAC/Internet-Internet/CCB-DGCC/WORKAREA/CCB-DGCC/templatedata/comm-comm/gene-gene/data/evaluation_of_the_control_1435868137804_en",
        "fr": "/default/main/AAFC-AAC/Internet-Internet/CCB-DGCC/WORKAREA/CCB-DGCC/templatedata/comm-comm/gene-gene/data/evaluation_of_the_control_1435868137804_fr"
    },
    "layout_name": "content page 1 column",
    "type_name": "comm-comm/gene-gene",
    "lang": "en"
}