{
    "dcr_id": "1451508714600",
    "title": {
        "en": "Discovery could lead to drought-resistant alfalfa",
        "fr": "Une découverte pourrait mener au développement d’une luzerne résistante à la sécheresse"
    },
    "modified": "2016-01-04",
    "issued": "2016-01-04",
    "dcr_type": "comm-comm/gene-gene",
    "templatetype": "content page 1 column",
    "page_type": "0",
    "node_id": "1378999410478",
    "dc_date_created": "2016-01-04",
    "managing_branch": "PAB",
    "teamsite_location": {
        "en": "/default/main/AAFC-AAC/Internet-Internet/CCB-DGCC/WORKAREA/CCB-DGCC/templatedata/comm-comm/gene-gene/data/fa_alfalfa_1451508714600_en",
        "fr": "/default/main/AAFC-AAC/Internet-Internet/CCB-DGCC/WORKAREA/CCB-DGCC/templatedata/comm-comm/gene-gene/data/fa_alfalfa_1451508714600_fr"
    },
    "layout_name": "content page 1 column",
    "type_name": "comm-comm/gene-gene",
    "lang": "en"
}