{
    "dcr_id": "1453920946336",
    "title": {
        "en": "Agriculture and food market intelligence – United States and Mexico",
        "fr": "Information sur les marchés agricoles et alimentaires – États-Unis et Mexique"
    },
    "modified": "2021-01-26",
    "issued": "2016-01-29",
    "dcr_type": "comm-comm/gene-gene",
    "templatetype": "content page 1 column",
    "page_type": "1",
    "node_id": "1453480246311",
    "dc_date_created": "2016-01-29",
    "managing_branch": "MISB",
    "teamsite_location": {
        "en": "/default/main/AAFC-AAC/Internet-Internet/MISB-DGSIM/ATS-SEA/ATS-SEA-s2/WORKAREA/ATS-SEA-s2/templatedata/comm-comm/gene-gene/data/info_amr_marketintelligence_1453920946336_en",
        "fr": "/default/main/AAFC-AAC/Internet-Internet/MISB-DGSIM/ATS-SEA/ATS-SEA-s2/WORKAREA/ATS-SEA-s2/templatedata/comm-comm/gene-gene/data/info_amr_marketintelligence_1453920946336_fr"
    },
    "layout_name": "content page 1 column",
    "type_name": "comm-comm/gene-gene",
    "lang": "en"
}