{
    "dcr_id": "1454079206581",
    "title": {
        "en": "Elimination Guidelines 2020 -  Type of Drug Glossary",
        "fr": "Guide d’élimination 2020 - Glossaire des types de médicaments"
    },
    "modified": "2020-04-03",
    "issued": "2016-02-18",
    "dcr_type": "comm-comm/gene-gene",
    "templatetype": "content page 1 column",
    "page_type": "0",
    "node_id": "1365631599631",
    "dc_date_created": "2016-02-18",
    "managing_branch": "PAB",
    "teamsite_location": {
        "en": "/default/main/AAFC-AAC/Internet-Internet/Common-Commun/WORKAREA/Common-Commun/templatedata/comm-comm/gene-gene/data/01/equine_elimination_guide2016-2_1454079206581_en",
        "fr": "/default/main/AAFC-AAC/Internet-Internet/Common-Commun/WORKAREA/Common-Commun/templatedata/comm-comm/gene-gene/data/01/equine_elimination_guide2016-2_1454079206581_fr"
    },
    "layout_name": "content page 1 column",
    "type_name": "comm-comm/gene-gene",
    "lang": "en"
}