{
    "dcr_id": "1456837655003",
    "title": {
        "en": "AgriStability - Nova Scotia - 2015 Program Price List",
        "fr": "Agri-stabilité - Nouvelle-Écosse - Liste de prix du Programme 2015 "
    },
    "modified": "2020-07-13",
    "issued": "2020-07-13",
    "dcr_type": "comm-comm/gene-gene",
    "templatetype": "content page 1 column",
    "page_type": "0",
    "node_id": "1594037414103",
    "dc_date_created": "2020-07-13",
    "managing_branch": "PAB",
    "teamsite_location": {
        "en": "/default/main/AAFC-AAC/Internet-Internet/Group-Ensemble/ProgServ-ProgServ/WORKAREA/ProgServ-ProgServ/templatedata/comm-comm/gene-gene/data/06/as_2015_pricelist_ns_1456837655003_en",
        "fr": "/default/main/AAFC-AAC/Internet-Internet/Group-Ensemble/ProgServ-ProgServ/WORKAREA/ProgServ-ProgServ/templatedata/comm-comm/gene-gene/data/06/as_2015_pricelist_ns_1456837655003_fr"
    },
    "layout_name": "content page 1 column",
    "type_name": "comm-comm/gene-gene",
    "lang": "en"
}