{
    "dcr_id": "1458650476403",
    "title": {
        "en": "AgWeather Quebec: For better agricultural decision making",
        "fr": "Agrométéo Québec :  pour de meilleures décisions agricoles"
    },
    "modified": "2016-03-23",
    "issued": "2016-03-23",
    "dcr_type": "comm-comm/gene-gene",
    "templatetype": "content page 1 column",
    "page_type": "0",
    "node_id": "1378999410478",
    "dc_date_created": "2016-03-23",
    "managing_branch": "PAB",
    "teamsite_location": {
        "en": "/default/main/AAFC-AAC/Internet-Internet/CCB-DGCC/WORKAREA/CCB-DGCC/templatedata/comm-comm/gene-gene/data/feature_article_agweather_quebec_1458650476403_en",
        "fr": "/default/main/AAFC-AAC/Internet-Internet/CCB-DGCC/WORKAREA/CCB-DGCC/templatedata/comm-comm/gene-gene/data/feature_article_agweather_quebec_1458650476403_fr"
    },
    "layout_name": "content page 1 column",
    "type_name": "comm-comm/gene-gene",
    "lang": "en"
}