{
    "dcr_id": "1461005640133",
    "title": {
        "en": "Managing Soils to Benefit Crops",
        "fr": "Une gestion des sols favorable aux cultures"
    },
    "modified": "2016-04-19",
    "issued": "2016-04-19",
    "dcr_type": "comm-comm/gene-gene",
    "templatetype": "content page 1 column",
    "page_type": "0",
    "node_id": "1378999410478",
    "dc_date_created": "2016-04-19",
    "managing_branch": "PAB",
    "teamsite_location": {
        "en": "/default/main/AAFC-AAC/Internet-Internet/CCB-DGCC/WORKAREA/CCB-DGCC/templatedata/comm-comm/gene-gene/data/feature_article_managing_soil_1461005640133_en",
        "fr": "/default/main/AAFC-AAC/Internet-Internet/CCB-DGCC/WORKAREA/CCB-DGCC/templatedata/comm-comm/gene-gene/data/feature_article_managing_soil_1461005640133_fr"
    },
    "layout_name": "content page 1 column",
    "type_name": "comm-comm/gene-gene",
    "lang": "en"
}