{
    "dcr_id": "1463579901513",
    "title": {
        "en": "Drought Increases Erosion Concerns",
        "fr": "La sécheresse augmente les problèmes d'érosion"
    },
    "modified": "2016-06-17",
    "issued": "2016-06-17",
    "dcr_type": "comm-comm/gene-gene",
    "templatetype": "content page 1 column",
    "page_type": "0",
    "node_id": "1463687249668",
    "dc_date_created": "2016-06-17",
    "managing_branch": "PAB",
    "teamsite_location": {
        "en": "/default/main/AAFC-AAC/Internet-Internet/Group-Ensemble/ProgServ-ProgServ/WORKAREA/ProgServ-ProgServ/templatedata/comm-comm/gene-gene/data/05/drought_increases_erosion_concerns_1463579901513_en",
        "fr": "/default/main/AAFC-AAC/Internet-Internet/Group-Ensemble/ProgServ-ProgServ/WORKAREA/ProgServ-ProgServ/templatedata/comm-comm/gene-gene/data/05/drought_increases_erosion_concerns_1463579901513_fr"
    },
    "layout_name": "content page 1 column",
    "type_name": "comm-comm/gene-gene",
    "lang": "en"
}