{
    "dcr_id": "1465307019073",
    "title": {
        "en": "Harrington Research Farm gets certified organic for organic research plots",
        "fr": "La Ferme expérimentale de Harrington obtient la certification biologique"
    },
    "modified": "2016-06-08",
    "issued": "2016-06-08",
    "dcr_type": "comm-comm/gene-gene",
    "templatetype": "content page 1 column",
    "page_type": "0",
    "node_id": "1378999410478",
    "dc_date_created": "2016-06-08",
    "managing_branch": "PAB",
    "teamsite_location": {
        "en": "/default/main/AAFC-AAC/Internet-Internet/CCB-DGCC/WORKAREA/CCB-DGCC/templatedata/comm-comm/gene-gene/data/feature_article_harrington_research_1465307019073_en",
        "fr": "/default/main/AAFC-AAC/Internet-Internet/CCB-DGCC/WORKAREA/CCB-DGCC/templatedata/comm-comm/gene-gene/data/feature_article_harrington_research_1465307019073_fr"
    },
    "layout_name": "content page 1 column",
    "type_name": "comm-comm/gene-gene",
    "lang": "en"
}