{
    "dcr_id": "1478646189894",
    "title": {
        "en": "Statistical Overview of the Canadian Vegetable Industry - 2015",
        "fr": "Aperçu statistique de l'industrie des légumes du Canada pour 2015"
    },
    "modified": "2016-12-02",
    "issued": "2016-11-09",
    "dcr_type": "comm-comm/gene-gene",
    "templatetype": "content page 1 column",
    "page_type": "0",
    "node_id": "1368480094434",
    "dc_date_created": "2016-11-09",
    "managing_branch": "PAB",
    "teamsite_location": {
        "en": "/default/main/AAFC-AAC/Internet-Internet/CCB-DGCC/WORKAREA/CCB-DGCC/templatedata/comm-comm/gene-gene/data/stat_overview_vegetable-2015_1478646189894_en",
        "fr": "/default/main/AAFC-AAC/Internet-Internet/CCB-DGCC/WORKAREA/CCB-DGCC/templatedata/comm-comm/gene-gene/data/stat_overview_vegetable-2015_1478646189894_fr"
    },
    "layout_name": "content page 1 column",
    "type_name": "comm-comm/gene-gene",
    "lang": "en"
}