{
    "dcr_id": "1495662443310",
    "title": {
        "en": "Evaluation of programs under the Agricultural Marketing Programs Act – Summary Report",
        "fr": "Évaluation des programmes régis par la Loi sur les programmes de commercialisation agricole – rapport sommaire"
    },
    "modified": "2017-05-26",
    "issued": "2017-05-26",
    "dcr_type": "comm-comm/gene-gene",
    "templatetype": "content page 1 column",
    "page_type": "0",
    "node_id": "1587496160123",
    "dc_date_created": "2017-05-26",
    "managing_branch": "PAB",
    "teamsite_location": {
        "en": "/default/main/AAFC-AAC/Internet-Internet/Common-Commun/WORKAREA/Common-Commun/templatedata/comm-comm/gene-gene/data/05/oae_eval_ampa_sum_1495662443310_en",
        "fr": "/default/main/AAFC-AAC/Internet-Internet/Common-Commun/WORKAREA/Common-Commun/templatedata/comm-comm/gene-gene/data/05/oae_eval_ampa_sum_1495662443310_fr"
    },
    "layout_name": "content page 1 column",
    "type_name": "comm-comm/gene-gene",
    "lang": "en"
}