{
    "dcr_id": "1498852092050",
    "title": {
        "en": "Evaluation of Science 2.1.1: Science Supporting an Innovative and Sustainable Sector – Summary Report",
        "fr": "Évaluation des activités scientifiques 2.1.1 : Un secteur innovateur et durable appuyé par la science – rapport sommaire"
    },
    "modified": "2017-07-25",
    "issued": "2017-07-25",
    "dcr_type": "comm-comm/gene-gene",
    "templatetype": "content page 1 column",
    "page_type": "0",
    "node_id": "1587496160123",
    "dc_date_created": "2017-07-25",
    "managing_branch": "PAB",
    "teamsite_location": {
        "en": "/default/main/AAFC-AAC/Internet-Internet/Common-Commun/WORKAREA/Common-Commun/templatedata/comm-comm/gene-gene/data/06/oae_eval_sci_summary_1498852092050_en",
        "fr": "/default/main/AAFC-AAC/Internet-Internet/Common-Commun/WORKAREA/Common-Commun/templatedata/comm-comm/gene-gene/data/06/oae_eval_sci_summary_1498852092050_fr"
    },
    "layout_name": "content page 1 column",
    "type_name": "comm-comm/gene-gene",
    "lang": "en"
}