{
    "dcr_id": "1501265993652",
    "title": {
        "en": "2016-17 Departmental Results Report  - Internal audits and evaluations",
        "fr": "Rapport ministériel sur le rendement 2016-2017 - Audits et évaluations internes"
    },
    "modified": "2017-11-09",
    "issued": "2017-11-09",
    "dcr_type": "comm-comm/gene-gene",
    "templatetype": "content page 1 column",
    "page_type": "0",
    "node_id": "1508515190952",
    "dc_date_created": "2017-11-09",
    "managing_branch": "PAB",
    "teamsite_location": {
        "en": "/default/main/AAFC-AAC/Internet-Internet/Common-Commun/WORKAREA/Common-Commun/templatedata/comm-comm/gene-gene/data/07/drr-rrm_16-17_ia-vi_1501265993652_en",
        "fr": "/default/main/AAFC-AAC/Internet-Internet/Common-Commun/WORKAREA/Common-Commun/templatedata/comm-comm/gene-gene/data/07/drr-rrm_16-17_ia-vi_1501265993652_fr"
    },
    "layout_name": "content page 1 column",
    "type_name": "comm-comm/gene-gene",
    "lang": "en"
}