{
    "dcr_id": "1511186297666",
    "title": {
        "en": "AgriScience Program – Clusters: Step 3. How to apply",
        "fr": "Programme Agri-science – grappes : Étape 3. Comment présenter une demande"
    },
    "modified": "2020-10-22",
    "issued": "2017-11-24",
    "dcr_type": "comm-comm/gene-gene",
    "templatetype": "content page 1 column",
    "page_type": "0",
    "node_id": "1517240041847",
    "dc_date_created": "2017-11-24",
    "managing_branch": "PAB",
    "teamsite_location": {
        "en": "/default/main/AAFC-AAC/Internet-Internet/Group-Ensemble/ProgServ-ProgServ/WORKAREA/ProgServ-ProgServ/templatedata/comm-comm/gene-gene/data/11/agriscience_3_how_apply_1511186297666_en",
        "fr": "/default/main/AAFC-AAC/Internet-Internet/Group-Ensemble/ProgServ-ProgServ/WORKAREA/ProgServ-ProgServ/templatedata/comm-comm/gene-gene/data/11/agriscience_3_how_apply_1511186297666_fr"
    },
    "layout_name": "content page 1 column",
    "type_name": "comm-comm/gene-gene",
    "lang": "en"
}