{
    "dcr_id": "1515088228849",
    "title": {
        "en": "AgriMarketing Program: Small and Medium-sized Enterprises Component",
        "fr": "Programme Agri-marketing : Volet petites et moyennes entreprises"
    },
    "modified": "2020-06-29",
    "issued": "2018-02-13",
    "dcr_type": "comm-comm/gene-gene",
    "templatetype": "content page 1 column",
    "page_type": "1",
    "node_id": "1517240253878",
    "dc_date_created": "2018-02-13",
    "managing_branch": "PAB",
    "teamsite_location": {
        "en": "/default/main/AAFC-AAC/Internet-Internet/Group-Ensemble/ProgServ-ProgServ/WORKAREA/ProgServ-ProgServ/templatedata/comm-comm/gene-gene/data/01/agrimarketing_smec_1_1515088228849_en",
        "fr": "/default/main/AAFC-AAC/Internet-Internet/Group-Ensemble/ProgServ-ProgServ/WORKAREA/ProgServ-ProgServ/templatedata/comm-comm/gene-gene/data/01/agrimarketing_smec_1_1515088228849_fr"
    },
    "layout_name": "content page 1 column",
    "type_name": "comm-comm/gene-gene",
    "lang": "en"
}