{
    "dcr_id": "1515011407700",
    "title": {
        "en": "AgriAssurance Program: National Industry Association Component: Contact information",
        "fr": "Programme Agri-assurance : Volet Associations nationales de l'industrie : Pour nous joindre"
    },
    "modified": "2018-03-29",
    "issued": "2018-02-13",
    "dcr_type": "comm-comm/gene-gene",
    "templatetype": "content page 1 column",
    "page_type": "0",
    "node_id": "1517240181254",
    "dc_date_created": "2018-02-13",
    "managing_branch": "PAB",
    "teamsite_location": {
        "en": "/default/main/AAFC-AAC/Internet-Internet/Group-Ensemble/ProgServ-ProgServ/WORKAREA/ProgServ-ProgServ/templatedata/comm-comm/gene-gene/data/01/agriassurance_niac_6_1515011407700_en",
        "fr": "/default/main/AAFC-AAC/Internet-Internet/Group-Ensemble/ProgServ-ProgServ/WORKAREA/ProgServ-ProgServ/templatedata/comm-comm/gene-gene/data/01/agriassurance_niac_6_1515011407700_fr"
    },
    "layout_name": "content page 1 column",
    "type_name": "comm-comm/gene-gene",
    "lang": "en"
}