{
    "dcr_id": "1515508450935",
    "title": {
        "en": "Types of careers at Agriculture and Agri-Food Canada",
        "fr": "Types de carrières à Agriculture et Agroalimentaire Canada"
    },
    "modified": "2018-01-12",
    "issued": "2018-01-12",
    "dcr_type": "comm-comm/gene-gene",
    "templatetype": "content page 1 column",
    "page_type": "0",
    "node_id": "1354137774061",
    "dc_date_created": "2018-01-12",
    "managing_branch": "PAB",
    "teamsite_location": {
        "en": "/default/main/AAFC-AAC/Internet-Internet/CCB-DGCC/WORKAREA/CCB-DGCC/templatedata/comm-comm/gene-gene/data/types_careers_1515508450935_en",
        "fr": "/default/main/AAFC-AAC/Internet-Internet/CCB-DGCC/WORKAREA/CCB-DGCC/templatedata/comm-comm/gene-gene/data/types_careers_1515508450935_fr"
    },
    "layout_name": "content page 1 column",
    "type_name": "comm-comm/gene-gene",
    "lang": "en"
}