{
    "dcr_id": "1516213623883",
    "title": {
        "en": "2018 AgriStability Program - Statement B – Corporation/Co-operative and Special Individual",
        "fr": "Programmes d'Agri-stabilité en 2018 :  État B  – Sociétés, coopératives et particuliers de catégorie spéciale"
    },
    "modified": "2020-07-13",
    "issued": "2020-07-13",
    "dcr_type": "comm-comm/gene-gene",
    "templatetype": "content page 1 column",
    "page_type": "0",
    "node_id": "1594037384895",
    "dc_date_created": "2020-07-13",
    "managing_branch": "PAB",
    "teamsite_location": {
        "en": "/default/main/AAFC-AAC/Internet-Internet/Group-Ensemble/ProgServ-ProgServ/WORKAREA/ProgServ-ProgServ/templatedata/comm-comm/gene-gene/data/06/as_2018_statement_b_1516213623883_en",
        "fr": "/default/main/AAFC-AAC/Internet-Internet/Group-Ensemble/ProgServ-ProgServ/WORKAREA/ProgServ-ProgServ/templatedata/comm-comm/gene-gene/data/06/as_2018_statement_b_1516213623883_fr"
    },
    "layout_name": "content page 1 column",
    "type_name": "comm-comm/gene-gene",
    "lang": "en"
}