{
    "dcr_id": "1516216935259",
    "title": {
        "en": "2018 Statement A – Corporation/Co-operative and Special Individual",
        "fr": "État A 2018 – Sociétés, coopératives et particuliers de catégorie spéciale"
    },
    "modified": "2019-10-22",
    "issued": "2019-10-22",
    "dcr_type": "comm-comm/gene-gene",
    "templatetype": "content page 1 column",
    "page_type": "0",
    "node_id": "1571322247714",
    "dc_date_created": "2019-10-22",
    "managing_branch": "PAB",
    "teamsite_location": {
        "en": "/default/main/AAFC-AAC/Internet-Internet/Group-Ensemble/ProgServ-ProgServ/WORKAREA/ProgServ-ProgServ/templatedata/comm-comm/gene-gene/data/09/ai_as_2018_stmnta_1516216935259_en",
        "fr": "/default/main/AAFC-AAC/Internet-Internet/Group-Ensemble/ProgServ-ProgServ/WORKAREA/ProgServ-ProgServ/templatedata/comm-comm/gene-gene/data/09/ai_as_2018_stmnta_1516216935259_fr"
    },
    "layout_name": "content page 1 column",
    "type_name": "comm-comm/gene-gene",
    "lang": "en"
}