{
    "dcr_id": "1516042926178",
    "title": {
        "en": "Agroclimate Impact Reporter: Learn about AIR",
        "fr": "Rapports sur les impacts agroclimatiques: À propos de l'application RIA"
    },
    "modified": "2020-06-29",
    "issued": "2018-02-21",
    "dcr_type": "comm-comm/gene-gene",
    "templatetype": "content page 1 column",
    "page_type": "0",
    "node_id": "1463687311552",
    "dc_date_created": "2018-02-21",
    "managing_branch": "PAB",
    "teamsite_location": {
        "en": "/default/main/AAFC-AAC/Internet-Internet/Group-Ensemble/ProgServ-ProgServ/WORKAREA/ProgServ-ProgServ/templatedata/comm-comm/gene-gene/data/01/air_about_1516042926178_en",
        "fr": "/default/main/AAFC-AAC/Internet-Internet/Group-Ensemble/ProgServ-ProgServ/WORKAREA/ProgServ-ProgServ/templatedata/comm-comm/gene-gene/data/01/air_about_1516042926178_fr"
    },
    "layout_name": "content page 1 column",
    "type_name": "comm-comm/gene-gene",
    "lang": "en"
}