{
    "dcr_id": "1516993224729",
    "title": {
        "en": "AgriScience Program – Projects: Step 3. How to apply",
        "fr": "Programme Agri-science – projets : Étape 3. Comment présenter une demande"
    },
    "modified": "2020-02-26",
    "issued": "2018-02-13",
    "dcr_type": "comm-comm/gene-gene",
    "templatetype": "content page 1 column",
    "page_type": "1",
    "node_id": "1580142137214",
    "dc_date_created": "2018-02-13",
    "managing_branch": "PAB",
    "teamsite_location": {
        "en": "/default/main/AAFC-AAC/Internet-Internet/Group-Ensemble/ProgServ-ProgServ/WORKAREA/ProgServ-ProgServ/templatedata/comm-comm/gene-gene/data/01/agriscience_projects_3_1516993224729_en",
        "fr": "/default/main/AAFC-AAC/Internet-Internet/Group-Ensemble/ProgServ-ProgServ/WORKAREA/ProgServ-ProgServ/templatedata/comm-comm/gene-gene/data/01/agriscience_projects_3_1516993224729_fr"
    },
    "layout_name": "content page 1 column",
    "type_name": "comm-comm/gene-gene",
    "lang": "en"
}