{
    "dcr_id": "1517247441127",
    "title": {
        "en": "AgriMarketing Program: Annex A: How to complete the application form",
        "fr": "Programme Agri-marketing : Annexe A : Comment remplir le formulaire de demande"
    },
    "modified": "2020-11-02",
    "issued": "2018-02-13",
    "dcr_type": "comm-comm/gene-gene",
    "templatetype": "content page 1 column",
    "page_type": "0",
    "node_id": "1517246121939",
    "dc_date_created": "2018-02-13",
    "managing_branch": "PAB",
    "teamsite_location": {
        "en": "/default/main/AAFC-AAC/Internet-Internet/Group-Ensemble/ProgServ-ProgServ/WORKAREA/ProgServ-ProgServ/templatedata/comm-comm/gene-gene/data/01/agrimarketing_niac_5_1_1517247441127_en",
        "fr": "/default/main/AAFC-AAC/Internet-Internet/Group-Ensemble/ProgServ-ProgServ/WORKAREA/ProgServ-ProgServ/templatedata/comm-comm/gene-gene/data/01/agrimarketing_niac_5_1_1517247441127_fr"
    },
    "layout_name": "content page 1 column",
    "type_name": "comm-comm/gene-gene",
    "lang": "en"
}