{
    "dcr_id": "1517427753933",
    "title": {
        "en": "AgriMarketing Program:  Consent for Use, Disclosure and Copyright",
        "fr": "Programme Agri-marketing :  Consentement à l'utilisation et à la divulgation de renseignements"
    },
    "modified": "2020-11-02",
    "issued": "2018-02-13",
    "dcr_type": "comm-comm/gene-gene",
    "templatetype": "content page 1 column",
    "page_type": "0",
    "node_id": "1517246177283",
    "dc_date_created": "2018-02-13",
    "managing_branch": "PAB",
    "teamsite_location": {
        "en": "/default/main/AAFC-AAC/Internet-Internet/Group-Ensemble/ProgServ-ProgServ/WORKAREA/ProgServ-ProgServ/templatedata/comm-comm/gene-gene/data/01/agrimarketing_niac_consent_1517427753933_en",
        "fr": "/default/main/AAFC-AAC/Internet-Internet/Group-Ensemble/ProgServ-ProgServ/WORKAREA/ProgServ-ProgServ/templatedata/comm-comm/gene-gene/data/01/agrimarketing_niac_consent_1517427753933_fr"
    },
    "layout_name": "content page 1 column",
    "type_name": "comm-comm/gene-gene",
    "lang": "en"
}