{
    "dcr_id": "1517354366233",
    "title": {
        "en": "Potato Selection AR2018-06 (F13026)",
        "fr": "Sélections de pommes de terre AR2018-06  (F13026) "
    },
    "modified": "2020-03-11",
    "issued": "2018-02-02",
    "dcr_type": "comm-comm/gene-gene",
    "templatetype": "content page 1 column",
    "page_type": "0",
    "node_id": "1517351778666",
    "dc_date_created": "2018-02-02",
    "managing_branch": "PAB",
    "teamsite_location": {
        "en": "/default/main/AAFC-AAC/Internet-Internet/Common-Commun/WORKAREA/Common-Commun/templatedata/comm-comm/gene-gene/data/01/ar2018-06_1517354366233_en",
        "fr": "/default/main/AAFC-AAC/Internet-Internet/Common-Commun/WORKAREA/Common-Commun/templatedata/comm-comm/gene-gene/data/01/ar2018-06_1517354366233_fr"
    },
    "layout_name": "content page 1 column",
    "type_name": "comm-comm/gene-gene",
    "lang": "en"
}