{
    "dcr_id": "1520980765874",
    "title": {
        "en": "2018–19 Departmental Plan - 2017-2020 Departmental Sustainable Development Strategy (Updated March 2018)",
        "fr": "Plan ministériel de 2018-2019 -  Stratégie ministérielle de développement durable de 2017 à 2020 (Mise à jour en mars 2018)"
    },
    "modified": "2018-04-16",
    "issued": "2018-04-16",
    "dcr_type": "comm-comm/gene-gene",
    "templatetype": "content page 1 column",
    "page_type": "0",
    "node_id": "1523450438986",
    "dc_date_created": "2018-04-16",
    "managing_branch": "PAB",
    "teamsite_location": {
        "en": "/default/main/AAFC-AAC/Internet-Internet/Common-Commun/WORKAREA/Common-Commun/templatedata/comm-comm/gene-gene/data/03/dp-pm_2018-19_dsds_1520980765874_en",
        "fr": "/default/main/AAFC-AAC/Internet-Internet/Common-Commun/WORKAREA/Common-Commun/templatedata/comm-comm/gene-gene/data/03/dp-pm_2018-19_dsds_1520980765874_fr"
    },
    "layout_name": "content page 1 column",
    "type_name": "comm-comm/gene-gene",
    "lang": "en"
}