{
    "dcr_id": "1530817580909",
    "title": {
        "en": "AgriRisk Initiatives: Administrative Capacity Building Stream: Step 3. How to apply",
        "fr": "Initiatives Agri-risques : Volet de renforcement des capacités administratives : Étape 3. Comment présenter une demande"
    },
    "modified": "2019-12-20",
    "issued": "2018-07-20",
    "dcr_type": "comm-comm/gene-gene",
    "templatetype": "content page 1 column",
    "page_type": "1",
    "node_id": "1531852059667",
    "dc_date_created": "2018-07-20",
    "managing_branch": "PAB",
    "teamsite_location": {
        "en": "/default/main/AAFC-AAC/Internet-Internet/Group-Ensemble/ProgServ-ProgServ/WORKAREA/ProgServ-ProgServ/templatedata/comm-comm/gene-gene/data/07/agririsk_acb_3_how_1530817580909_en",
        "fr": "/default/main/AAFC-AAC/Internet-Internet/Group-Ensemble/ProgServ-ProgServ/WORKAREA/ProgServ-ProgServ/templatedata/comm-comm/gene-gene/data/07/agririsk_acb_3_how_1530817580909_fr"
    },
    "layout_name": "content page 1 column",
    "type_name": "comm-comm/gene-gene",
    "lang": "en"
}