{
    "dcr_id": "1530816648717",
    "title": {
        "en": "AgriRisk Initiatives: Administrative Capacity Building Stream: Step 1. What this program offers",
        "fr": "Initiatives Agri-risques  : Volet de renforcement des capacités administratives : Étape 1. En quoi consiste le programme"
    },
    "modified": "2019-12-20",
    "issued": "2018-07-20",
    "dcr_type": "comm-comm/gene-gene",
    "templatetype": "content page 1 column",
    "page_type": "1",
    "node_id": "1522161950674",
    "dc_date_created": "2018-07-20",
    "managing_branch": "PAB",
    "teamsite_location": {
        "en": "/default/main/AAFC-AAC/Internet-Internet/Group-Ensemble/ProgServ-ProgServ/WORKAREA/ProgServ-ProgServ/templatedata/comm-comm/gene-gene/data/07/agririsk_acb_1_program_1530816648717_en",
        "fr": "/default/main/AAFC-AAC/Internet-Internet/Group-Ensemble/ProgServ-ProgServ/WORKAREA/ProgServ-ProgServ/templatedata/comm-comm/gene-gene/data/07/agririsk_acb_1_program_1530816648717_fr"
    },
    "layout_name": "content page 1 column",
    "type_name": "comm-comm/gene-gene",
    "lang": "en"
}