{
    "dcr_id": "1530817049551",
    "title": {
        "en": "AgriRisk Initiatives: Administrative Capacity Building Stream: Step 2. Who is eligible ",
        "fr": "Initiatives Agri-risques  : Volet de renforcement des capacités administratives : Étape 2. Qui est admissible "
    },
    "modified": "2019-12-20",
    "issued": "2018-07-20",
    "dcr_type": "comm-comm/gene-gene",
    "templatetype": "content page 1 column",
    "page_type": "0",
    "node_id": "1522161950674",
    "dc_date_created": "2018-07-20",
    "managing_branch": "PAB",
    "teamsite_location": {
        "en": "/default/main/AAFC-AAC/Internet-Internet/Group-Ensemble/ProgServ-ProgServ/WORKAREA/ProgServ-ProgServ/templatedata/comm-comm/gene-gene/data/07/agririsk_acb_2_eligible_1530817049551_en",
        "fr": "/default/main/AAFC-AAC/Internet-Internet/Group-Ensemble/ProgServ-ProgServ/WORKAREA/ProgServ-ProgServ/templatedata/comm-comm/gene-gene/data/07/agririsk_acb_2_eligible_1530817049551_fr"
    },
    "layout_name": "content page 1 column",
    "type_name": "comm-comm/gene-gene",
    "lang": "en"
}