{
    "dcr_id": "1533044693140",
    "title": {
        "en": "Illinois-Canada agricultural trade",
        "fr": "Commerce agricole Illinois-Canada"
    },
    "modified": "2020-11-23",
    "issued": "2018-08-03",
    "dcr_type": "comm-comm/gene-gene",
    "templatetype": "content page 1 column",
    "page_type": "0",
    "node_id": "1453480440103",
    "dc_date_created": "2018-08-03",
    "managing_branch": "MISB",
    "teamsite_location": {
        "en": "/default/main/AAFC-AAC/Internet-Internet/MISB-DGSIM/ATS-SEA/ATS-SEA-s2/WORKAREA/ATS-SEA-s2/templatedata/comm-comm/gene-gene/data/amr_illinois-canada_1533044693140_en",
        "fr": "/default/main/AAFC-AAC/Internet-Internet/MISB-DGSIM/ATS-SEA/ATS-SEA-s2/WORKAREA/ATS-SEA-s2/templatedata/comm-comm/gene-gene/data/amr_illinois-canada_1533044693140_fr"
    },
    "layout_name": "content page 1 column",
    "type_name": "comm-comm/gene-gene",
    "lang": "en"
}