{
    "dcr_id": "1535648676031",
    "title": {
        "en": "Biological management of fusarium head blight and mycotoxin contamination in wheat",
        "fr": "Lutte biologique contre la brûlure de l'épi causée par fusarium et la contamination par mycotoxine du blé"
    },
    "modified": "2018-10-12",
    "issued": "2018-10-12",
    "dcr_type": "comm-comm/gene-gene",
    "templatetype": "content page 1 column",
    "page_type": "0",
    "node_id": "1535122427752",
    "dc_date_created": "2018-10-12",
    "managing_branch": "PAB",
    "teamsite_location": {
        "en": "/default/main/AAFC-AAC/Internet-Internet/Group-Ensemble/ProgServ-ProgServ/WORKAREA/ProgServ-ProgServ/templatedata/comm-comm/gene-gene/data/08/bpi07-110_1535648676031_en",
        "fr": "/default/main/AAFC-AAC/Internet-Internet/Group-Ensemble/ProgServ-ProgServ/WORKAREA/ProgServ-ProgServ/templatedata/comm-comm/gene-gene/data/08/bpi07-110_1535648676031_fr"
    },
    "layout_name": "content page 1 column",
    "type_name": "comm-comm/gene-gene",
    "lang": "en"
}