{
    "dcr_id": "1536774124604",
    "title": {
        "en": "Evaluation of Cyclone for the management of powdery mildew in cut gerbera",
        "fr": "Évaluation du Cyclone pour lutter contre l’oïdium dans les cultures de gerbera à couper"
    },
    "modified": "2018-10-12",
    "issued": "2018-10-12",
    "dcr_type": "comm-comm/gene-gene",
    "templatetype": "content page 1 column",
    "page_type": "0",
    "node_id": "1535122427752",
    "dc_date_created": "2018-10-12",
    "managing_branch": "PAB",
    "teamsite_location": {
        "en": "/default/main/AAFC-AAC/Internet-Internet/Group-Ensemble/ProgServ-ProgServ/WORKAREA/ProgServ-ProgServ/templatedata/comm-comm/gene-gene/data/09/bpr14-071_1536774124604_en",
        "fr": "/default/main/AAFC-AAC/Internet-Internet/Group-Ensemble/ProgServ-ProgServ/WORKAREA/ProgServ-ProgServ/templatedata/comm-comm/gene-gene/data/09/bpr14-071_1536774124604_fr"
    },
    "layout_name": "content page 1 column",
    "type_name": "comm-comm/gene-gene",
    "lang": "en"
}