{
    "dcr_id": "1536150888670",
    "title": {
        "en": "Les portes ouvertes sur les fermes du Québec",
        "fr": "Les portes ouvertes sur les fermes du Québec"
    },
    "modified": "2018-09-26",
    "issued": "2018-09-05",
    "dcr_type": "comm-comm/gene-gene",
    "templatetype": "content page 1 column",
    "page_type": "0",
    "node_id": "1354137774089",
    "dc_date_created": "2018-09-05",
    "managing_branch": "PAB",
    "teamsite_location": {
        "en": "/default/main/AAFC-AAC/Internet-Internet/CCB-DGCC/WORKAREA/CCB-DGCC/templatedata/comm-comm/gene-gene/data/events_portes_ouvertes_fermes_1536150888670_en",
        "fr": "/default/main/AAFC-AAC/Internet-Internet/CCB-DGCC/WORKAREA/CCB-DGCC/templatedata/comm-comm/gene-gene/data/events_portes_ouvertes_fermes_1536150888670_fr"
    },
    "layout_name": "content page 1 column",
    "type_name": "comm-comm/gene-gene",
    "lang": "en"
}