{
    "dcr_id": "1536942919765",
    "title": {
        "en": "Reduced risk herbicides for horticultural crops in organic soils: supplemental registration data and herbicide screening",
        "fr": "Herbicides à faible risque pour l'horticulture en sol organique : Examen des données d'enregistrement supplémentaires et des herbicides"
    },
    "modified": "2019-10-09",
    "issued": "2018-10-12",
    "dcr_type": "comm-comm/gene-gene",
    "templatetype": "content page 1 column",
    "page_type": "0",
    "node_id": "1535122427752",
    "dc_date_created": "2018-10-12",
    "managing_branch": "PAB",
    "teamsite_location": {
        "en": "/default/main/AAFC-AAC/Internet-Internet/Group-Ensemble/ProgServ-ProgServ/WORKAREA/ProgServ-ProgServ/templatedata/comm-comm/gene-gene/data/09/mur06-100_1536942919765_en",
        "fr": "/default/main/AAFC-AAC/Internet-Internet/Group-Ensemble/ProgServ-ProgServ/WORKAREA/ProgServ-ProgServ/templatedata/comm-comm/gene-gene/data/09/mur06-100_1536942919765_fr"
    },
    "layout_name": "content page 1 column",
    "type_name": "comm-comm/gene-gene",
    "lang": "en"
}