{
    "dcr_id": "1536858901775",
    "title": {
        "en": "Control of fire blight in the apple orchard and development of bacteriophages as biological control agents",
        "fr": "Protection contre le feu bactérien dans la pommeraie et mise au point de bactériophages comme agents de protection biologique"
    },
    "modified": "2018-10-12",
    "issued": "2018-10-12",
    "dcr_type": "comm-comm/gene-gene",
    "templatetype": "content page 1 column",
    "page_type": "0",
    "node_id": "1535122427752",
    "dc_date_created": "2018-10-12",
    "managing_branch": "PAB",
    "teamsite_location": {
        "en": "/default/main/AAFC-AAC/Internet-Internet/Group-Ensemble/ProgServ-ProgServ/WORKAREA/ProgServ-ProgServ/templatedata/comm-comm/gene-gene/data/09/mu03-path02_1536858901775_en",
        "fr": "/default/main/AAFC-AAC/Internet-Internet/Group-Ensemble/ProgServ-ProgServ/WORKAREA/ProgServ-ProgServ/templatedata/comm-comm/gene-gene/data/09/mu03-path02_1536858901775_fr"
    },
    "layout_name": "content page 1 column",
    "type_name": "comm-comm/gene-gene",
    "lang": "en"
}