{
    "dcr_id": "1537288702277",
    "title": {
        "en": "Reduced risk pest management for root weevils in berry crops",
        "fr": "Méthodes à risque réduit pour la lutte contre les charançons des racines des petits fruits"
    },
    "modified": "2018-10-12",
    "issued": "2018-10-12",
    "dcr_type": "comm-comm/gene-gene",
    "templatetype": "content page 1 column",
    "page_type": "0",
    "node_id": "1535122427752",
    "dc_date_created": "2018-10-12",
    "managing_branch": "PAB",
    "teamsite_location": {
        "en": "/default/main/AAFC-AAC/Internet-Internet/Group-Ensemble/ProgServ-ProgServ/WORKAREA/ProgServ-ProgServ/templatedata/comm-comm/gene-gene/data/09/prr03-350_1537288702277_en",
        "fr": "/default/main/AAFC-AAC/Internet-Internet/Group-Ensemble/ProgServ-ProgServ/WORKAREA/ProgServ-ProgServ/templatedata/comm-comm/gene-gene/data/09/prr03-350_1537288702277_fr"
    },
    "layout_name": "content page 1 column",
    "type_name": "comm-comm/gene-gene",
    "lang": "en"
}