{
    "dcr_id": "1537378636377",
    "title": {
        "en": "Weed management systems for strawberries: a project to evaluate and to provide tools to assist growers in adopting alternative strategies",
        "fr": "Systèmes de lutte contre les mauvaises herbes dans les fraisières : projet permettant d'évaluer et de fournir des outils qui aideront les cultivateurs à adopter des stratégies de rechange"
    },
    "modified": "2018-10-12",
    "issued": "2018-10-12",
    "dcr_type": "comm-comm/gene-gene",
    "templatetype": "content page 1 column",
    "page_type": "0",
    "node_id": "1535122427752",
    "dc_date_created": "2018-10-12",
    "managing_branch": "PAB",
    "teamsite_location": {
        "en": "/default/main/AAFC-AAC/Internet-Internet/Group-Ensemble/ProgServ-ProgServ/WORKAREA/ProgServ-ProgServ/templatedata/comm-comm/gene-gene/data/09/prr07-800_1537378636377_en",
        "fr": "/default/main/AAFC-AAC/Internet-Internet/Group-Ensemble/ProgServ-ProgServ/WORKAREA/ProgServ-ProgServ/templatedata/comm-comm/gene-gene/data/09/prr07-800_1537378636377_fr"
    },
    "layout_name": "content page 1 column",
    "type_name": "comm-comm/gene-gene",
    "lang": "en"
}