{
    "dcr_id": "1538745696162",
    "title": {
        "en": "2018 Corn Inbred Lines Release CO465",
        "fr": "Lignées de maïs autofécondées mises en circulation en 2018 - CO465"
    },
    "modified": "2018-10-29",
    "issued": "2018-10-29",
    "dcr_type": "comm-comm/gene-gene",
    "templatetype": "content page 1 column",
    "page_type": "0",
    "node_id": "1354137774015",
    "dc_date_created": "2018-10-29",
    "managing_branch": "PAB",
    "teamsite_location": {
        "en": "/default/main/AAFC-AAC/Internet-Internet/Common-Commun/WORKAREA/Common-Commun/templatedata/comm-comm/gene-gene/data/10/co465_corn_inbred_lines_1538745696162_en",
        "fr": "/default/main/AAFC-AAC/Internet-Internet/Common-Commun/WORKAREA/Common-Commun/templatedata/comm-comm/gene-gene/data/10/co465_corn_inbred_lines_1538745696162_fr"
    },
    "layout_name": "content page 1 column",
    "type_name": "comm-comm/gene-gene",
    "lang": "en"
}