{
    "dcr_id": "1541691888012",
    "title": {
        "en": "2017 Corn Inbred Lines Release CO464",
        "fr": "Lignées de maïs autofécondées mises en circulation en 2017 - CO464"
    },
    "modified": "2018-11-15",
    "issued": "2018-11-15",
    "dcr_type": "comm-comm/gene-gene",
    "templatetype": "content page 1 column",
    "page_type": "0",
    "node_id": "1354137774015",
    "dc_date_created": "2018-11-15",
    "managing_branch": "PAB",
    "teamsite_location": {
        "en": "/default/main/AAFC-AAC/Internet-Internet/Common-Commun/WORKAREA/Common-Commun/templatedata/comm-comm/gene-gene/data/11/co464_corn_inbred_lines_1541691888012_en",
        "fr": "/default/main/AAFC-AAC/Internet-Internet/Common-Commun/WORKAREA/Common-Commun/templatedata/comm-comm/gene-gene/data/11/co464_corn_inbred_lines_1541691888012_fr"
    },
    "layout_name": "content page 1 column",
    "type_name": "comm-comm/gene-gene",
    "lang": "en"
}