{
    "dcr_id": "1542987317998",
    "title": {
        "en": "A checklist for organizing a hackathon",
        "fr": "Liste de contrôle pour organiser un marathon de programmation"
    },
    "modified": "2018-11-30",
    "issued": "2018-11-30",
    "dcr_type": "comm-comm/gene-gene",
    "templatetype": "content page 1 column",
    "page_type": "0",
    "node_id": "1542989834899",
    "dc_date_created": "2018-11-30",
    "managing_branch": "PAB",
    "teamsite_location": {
        "en": "/default/main/AAFC-AAC/Internet-Internet/Common-Commun/WORKAREA/Common-Commun/templatedata/comm-comm/gene-gene/data/11/checklist_hackathon_1542987317998_en",
        "fr": "/default/main/AAFC-AAC/Internet-Internet/Common-Commun/WORKAREA/Common-Commun/templatedata/comm-comm/gene-gene/data/11/checklist_hackathon_1542987317998_fr"
    },
    "layout_name": "content page 1 column",
    "type_name": "comm-comm/gene-gene",
    "lang": "en"
}