{
    "dcr_id": "1544800508868",
    "title": {
        "en": "Managing leafy spurge with a hungry beetle",
        "fr": "Gestion de l'euphorbe ésule à l'aide d'un insecte prédateur"
    },
    "modified": "2018-12-17",
    "issued": "2018-12-17",
    "dcr_type": "comm-comm/gene-gene",
    "templatetype": "content page 1 column",
    "page_type": "0",
    "node_id": "1534850060420",
    "dc_date_created": "2018-12-17",
    "managing_branch": "PAB",
    "teamsite_location": {
        "en": "/default/main/AAFC-AAC/Internet-Internet/Group-Ensemble/ProgServ-ProgServ/WORKAREA/ProgServ-ProgServ/templatedata/comm-comm/gene-gene/data/12/sustainable_crop_protection_1544800508868_en",
        "fr": "/default/main/AAFC-AAC/Internet-Internet/Group-Ensemble/ProgServ-ProgServ/WORKAREA/ProgServ-ProgServ/templatedata/comm-comm/gene-gene/data/12/sustainable_crop_protection_1544800508868_fr"
    },
    "layout_name": "content page 1 column",
    "type_name": "comm-comm/gene-gene",
    "lang": "en"
}