{
    "dcr_id": "1544802043868",
    "title": {
        "en": "Health and wellness series – Naturally healthy products in Japan",
        "fr": "Série sur la santé et le mieux-être – Produits naturellement sains au Japon"
    },
    "modified": "2019-02-14",
    "issued": "2019-01-09",
    "dcr_type": "comm-comm/gene-gene",
    "templatetype": "content page 1 column",
    "page_type": "0",
    "node_id": "1549652534579",
    "dc_date_created": "2019-01-09",
    "managing_branch": "MISB",
    "teamsite_location": {
        "en": "/default/main/AAFC-AAC/Internet-Internet/MISB-DGSIM/ATS-SEA/ATS-SEA-s2/WORKAREA/ATS-SEA-s2/templatedata/comm-comm/gene-gene/data/hw_naturally_healthy_japan_1544802043868_en",
        "fr": "/default/main/AAFC-AAC/Internet-Internet/MISB-DGSIM/ATS-SEA/ATS-SEA-s2/WORKAREA/ATS-SEA-s2/templatedata/comm-comm/gene-gene/data/hw_naturally_healthy_japan_1544802043868_fr"
    },
    "layout_name": "content page 1 column",
    "type_name": "comm-comm/gene-gene",
    "lang": "en"
}