{
    "dcr_id": "1545421818557",
    "title": {
        "en": "Hands-Off Method for Application of Microbial Agents",
        "fr": "Application d'agents microbiens sans intervention"
    },
    "modified": "2018-12-31",
    "issued": "2018-12-31",
    "dcr_type": "comm-comm/gene-gene",
    "templatetype": "content page 1 column",
    "page_type": "0",
    "node_id": "1534850060420",
    "dc_date_created": "2018-12-31",
    "managing_branch": "PAB",
    "teamsite_location": {
        "en": "/default/main/AAFC-AAC/Internet-Internet/Group-Ensemble/ProgServ-ProgServ/WORKAREA/ProgServ-ProgServ/templatedata/comm-comm/gene-gene/data/12/application_of_microbial_agents_1545421818557_en",
        "fr": "/default/main/AAFC-AAC/Internet-Internet/Group-Ensemble/ProgServ-ProgServ/WORKAREA/ProgServ-ProgServ/templatedata/comm-comm/gene-gene/data/12/application_of_microbial_agents_1545421818557_fr"
    },
    "layout_name": "content page 1 column",
    "type_name": "comm-comm/gene-gene",
    "lang": "en"
}