{
    "dcr_id": "1545405940996",
    "title": {
        "en": "Resistance of apple scab pathogen to fungicides in Canadian orchards: Knowing and managing the risk",
        "fr": "Résistance de l’agent de la tavelure aux fongicides dans les vergers canadiens : connaître et gérer le risque"
    },
    "modified": "2018-12-21",
    "issued": "2018-12-21",
    "dcr_type": "comm-comm/gene-gene",
    "templatetype": "content page 1 column",
    "page_type": "0",
    "node_id": "1534850060420",
    "dc_date_created": "2018-12-21",
    "managing_branch": "PAB",
    "teamsite_location": {
        "en": "/default/main/AAFC-AAC/Internet-Internet/Group-Ensemble/ProgServ-ProgServ/WORKAREA/ProgServ-ProgServ/templatedata/comm-comm/gene-gene/data/12/apple_scab_pathogen_fungicides_1545405940996_en",
        "fr": "/default/main/AAFC-AAC/Internet-Internet/Group-Ensemble/ProgServ-ProgServ/WORKAREA/ProgServ-ProgServ/templatedata/comm-comm/gene-gene/data/12/apple_scab_pathogen_fungicides_1545405940996_fr"
    },
    "layout_name": "content page 1 column",
    "type_name": "comm-comm/gene-gene",
    "lang": "en"
}