{
    "dcr_id": "1546614914143",
    "title": {
        "en": "Health and wellness series – Nutrition and women's health",
        "fr": "Série santé et bien-être – Nutrition et santé des femmes"
    },
    "modified": "2020-02-06",
    "issued": "2019-01-23",
    "dcr_type": "comm-comm/gene-gene",
    "templatetype": "content page 1 column",
    "page_type": "0",
    "node_id": "1549652534579",
    "dc_date_created": "2019-01-23",
    "managing_branch": "MISB",
    "teamsite_location": {
        "en": "/default/main/AAFC-AAC/Internet-Internet/MISB-DGSIM/ATS-SEA/ATS-SEA-s2/WORKAREA/ATS-SEA-s2/templatedata/comm-comm/gene-gene/data/hw_nutrition_and_women_1546614914143_en",
        "fr": "/default/main/AAFC-AAC/Internet-Internet/MISB-DGSIM/ATS-SEA/ATS-SEA-s2/WORKAREA/ATS-SEA-s2/templatedata/comm-comm/gene-gene/data/hw_nutrition_and_women_1546614914143_fr"
    },
    "layout_name": "content page 1 column",
    "type_name": "comm-comm/gene-gene",
    "lang": "en"
}