{
    "dcr_id": "1546958427184",
    "title": {
        "en": "Customized report service – Powdered milk in Mexico",
        "fr": "Service de rapports sur mesure – Lait en poudre au Mexique"
    },
    "modified": "2019-02-14",
    "issued": "2019-01-23",
    "dcr_type": "comm-comm/gene-gene",
    "templatetype": "content page 1 column",
    "page_type": "0",
    "node_id": "1549652534579",
    "dc_date_created": "2019-01-23",
    "managing_branch": "MISB",
    "teamsite_location": {
        "en": "/default/main/AAFC-AAC/Internet-Internet/MISB-DGSIM/ATS-SEA/ATS-SEA-s2/WORKAREA/ATS-SEA-s2/templatedata/comm-comm/gene-gene/data/cr_powdered_milk_mexico_1546958427184_en",
        "fr": "/default/main/AAFC-AAC/Internet-Internet/MISB-DGSIM/ATS-SEA/ATS-SEA-s2/WORKAREA/ATS-SEA-s2/templatedata/comm-comm/gene-gene/data/cr_powdered_milk_mexico_1546958427184_fr"
    },
    "layout_name": "content page 1 column",
    "type_name": "comm-comm/gene-gene",
    "lang": "en"
}