{
    "dcr_id": "1549326243838",
    "title": {
        "en": "Canadian Agricultural Strategic Priorities Program - Step 2.  Who is eligible",
        "fr": "Programme canadien des priorités stratégiques de l’agriculture - Étape 2. Qui est admissible"
    },
    "modified": "2020-03-05",
    "issued": "2019-02-12",
    "dcr_type": "comm-comm/gene-gene",
    "templatetype": "content page 1 column",
    "page_type": "0",
    "node_id": "1549384482976",
    "dc_date_created": "2019-02-12",
    "managing_branch": "PAB",
    "teamsite_location": {
        "en": "/default/main/AAFC-AAC/Internet-Internet/Group-Ensemble/ProgServ-ProgServ/WORKAREA/ProgServ-ProgServ/templatedata/comm-comm/gene-gene/data/02/caspp_2_eligible_1549326243838_en",
        "fr": "/default/main/AAFC-AAC/Internet-Internet/Group-Ensemble/ProgServ-ProgServ/WORKAREA/ProgServ-ProgServ/templatedata/comm-comm/gene-gene/data/02/caspp_2_eligible_1549326243838_fr"
    },
    "layout_name": "content page 1 column",
    "type_name": "comm-comm/gene-gene",
    "lang": "en"
}