{
    "dcr_id": "1549325740130",
    "title": {
        "en": "Canadian Agricultural Strategic Priorities Program - Step 1.  What this program offers",
        "fr": "Programme canadien des priorités stratégiques de l’agriculture - Étape 1. Ce qu’offre ce programme"
    },
    "modified": "2021-01-25",
    "issued": "2019-02-12",
    "dcr_type": "comm-comm/gene-gene",
    "templatetype": "content page 1 column",
    "page_type": "1",
    "node_id": "1549384482976",
    "dc_date_created": "2019-02-12",
    "managing_branch": "PAB",
    "teamsite_location": {
        "en": "/default/main/AAFC-AAC/Internet-Internet/Group-Ensemble/ProgServ-ProgServ/WORKAREA/ProgServ-ProgServ/templatedata/comm-comm/gene-gene/data/02/caspp_1_program_offers_1549325740130_en",
        "fr": "/default/main/AAFC-AAC/Internet-Internet/Group-Ensemble/ProgServ-ProgServ/WORKAREA/ProgServ-ProgServ/templatedata/comm-comm/gene-gene/data/02/caspp_1_program_offers_1549325740130_fr"
    },
    "layout_name": "content page 1 column",
    "type_name": "comm-comm/gene-gene",
    "lang": "en"
}