{
    "dcr_id": "1549326775133",
    "title": {
        "en": "Canadian Agricultural Strategic Priorities Program - Step 3. How to apply ",
        "fr": "Programme canadien des priorités stratégiques de l’agriculture - Étape 3. Comment présenter une demande"
    },
    "modified": "2021-01-25",
    "issued": "2019-02-12",
    "dcr_type": "comm-comm/gene-gene",
    "templatetype": "content page 1 column",
    "page_type": "0",
    "node_id": "1549384482976",
    "dc_date_created": "2019-02-12",
    "managing_branch": "PAB",
    "teamsite_location": {
        "en": "/default/main/AAFC-AAC/Internet-Internet/Group-Ensemble/ProgServ-ProgServ/WORKAREA/ProgServ-ProgServ/templatedata/comm-comm/gene-gene/data/02/caspp_3_how_apply_1549326775133_en",
        "fr": "/default/main/AAFC-AAC/Internet-Internet/Group-Ensemble/ProgServ-ProgServ/WORKAREA/ProgServ-ProgServ/templatedata/comm-comm/gene-gene/data/02/caspp_3_how_apply_1549326775133_fr"
    },
    "layout_name": "content page 1 column",
    "type_name": "comm-comm/gene-gene",
    "lang": "en"
}