{
    "dcr_id": "1550068909773",
    "title": {
        "en": "2018 Corn Inbred Lines Release CO471",
        "fr": "Lignées de maïs autofécondées mises en circulation en 2018 - CO471"
    },
    "modified": "2019-03-08",
    "issued": "2019-03-08",
    "dcr_type": "comm-comm/gene-gene",
    "templatetype": "content page 1 column",
    "page_type": "0",
    "node_id": "1547567752049",
    "dc_date_created": "2019-03-08",
    "managing_branch": "PAB",
    "teamsite_location": {
        "en": "/default/main/AAFC-AAC/Internet-Internet/Common-Commun/WORKAREA/Common-Commun/templatedata/comm-comm/gene-gene/data/02/co471_corn_inbred_lines_1550068909773_en",
        "fr": "/default/main/AAFC-AAC/Internet-Internet/Common-Commun/WORKAREA/Common-Commun/templatedata/comm-comm/gene-gene/data/02/co471_corn_inbred_lines_1550068909773_fr"
    },
    "layout_name": "content page 1 column",
    "type_name": "comm-comm/gene-gene",
    "lang": "en"
}