{
    "dcr_id": "1550778500730",
    "title": {
        "en": "Animal Genetic Resources of Canada - Trends and Statistics",
        "fr": "Ressources génétiques animales du Canada - Tendances et statistiques"
    },
    "modified": "2020-11-24",
    "issued": "2019-02-22",
    "dcr_type": "comm-comm/gene-gene",
    "templatetype": "content page 1 column",
    "page_type": "0",
    "node_id": "1550752824954",
    "dc_date_created": "2019-02-22",
    "managing_branch": "PAB",
    "teamsite_location": {
        "en": "/default/main/AAFC-AAC/Internet-Internet/Common-Commun/WORKAREA/Common-Commun/templatedata/comm-comm/gene-gene/data/02/cagr_grin_trends_1550778500730_en",
        "fr": "/default/main/AAFC-AAC/Internet-Internet/Common-Commun/WORKAREA/Common-Commun/templatedata/comm-comm/gene-gene/data/02/cagr_grin_trends_1550778500730_fr"
    },
    "layout_name": "content page 1 column",
    "type_name": "comm-comm/gene-gene",
    "lang": "en"
}