{
    "dcr_id": "1552930584151",
    "title": {
        "en": "Thirty-first meeting of the Seafood Value Chain Roundtable: Record of decision",
        "fr": "Trente et unième réunion de la Table ronde sur la chaîne de valeur de l’industrie des produits de la mer : Compte rendu des décisions"
    },
    "modified": "2019-03-25",
    "issued": "2019-03-25",
    "dcr_type": "comm-comm/gene-gene",
    "templatetype": "<NULL>",
    "page_type": "0",
    "node_id": "1384804152012",
    "dc_date_created": "2019-03-25",
    "managing_branch": "PAB",
    "teamsite_location": {
        "en": "/default/main/AAFC-AAC/Internet-Internet/CCB-DGCC/WORKAREA/CCB-DGCC/templatedata/comm-comm/gene-gene/data/thirthyfirst_seafood_value_chain_1552930584151_en",
        "fr": "/default/main/AAFC-AAC/Internet-Internet/CCB-DGCC/WORKAREA/CCB-DGCC/templatedata/comm-comm/gene-gene/data/thirthyfirst_seafood_value_chain_1552930584151_fr"
    },
    "layout_name": "<NULL>",
    "type_name": "comm-comm/gene-gene",
    "lang": "en"
}