{
    "dcr_id": "1556216799636",
    "title": {
        "en": "Timeline of key activities: Canola seed exports to China",
        "fr": "Calendrier des principales activités : Exportations de graines de canola vers la Chine"
    },
    "modified": "2020-05-04",
    "issued": "2019-04-30",
    "dcr_type": "comm-comm/gene-gene",
    "templatetype": "<NULL>",
    "page_type": "0",
    "node_id": "1556217665031",
    "dc_date_created": "2019-04-30",
    "managing_branch": "MISB",
    "teamsite_location": {
        "en": "/default/main/AAFC-AAC/Internet-Internet/MISB-DGSIM/ITPD-DBCI/WORKAREA/ITPD-DBCI/templatedata/comm-comm/gene-gene/data/canola_seed_exports_china_1556216799636_en",
        "fr": "/default/main/AAFC-AAC/Internet-Internet/MISB-DGSIM/ITPD-DBCI/WORKAREA/ITPD-DBCI/templatedata/comm-comm/gene-gene/data/canola_seed_exports_china_1556216799636_fr"
    },
    "layout_name": "<NULL>",
    "type_name": "comm-comm/gene-gene",
    "lang": "en"
}