{
    "dcr_id": "1557423099457",
    "title": {
        "en": "Canadian Agricultural Strategic Priorities Program now accepting applications",
        "fr": "Le Programme des priorités stratégiques de l’agriculture canadienne accepte maintenant les demandes"
    },
    "modified": "2020-05-25",
    "issued": "2019-09-03",
    "dcr_type": "comm-comm/gene-gene",
    "templatetype": "content page 1 column",
    "page_type": "0",
    "node_id": "1567779011461",
    "dc_date_created": "2019-09-03",
    "managing_branch": "PAB",
    "teamsite_location": {
        "en": "/default/main/AAFC-AAC/Internet-Internet/CCB-DGCC/WORKAREA/CCB-DGCC/templatedata/comm-comm/gene-gene/data/agri-info_newsletter_2019_04-7_1557423099457_en",
        "fr": "/default/main/AAFC-AAC/Internet-Internet/CCB-DGCC/WORKAREA/CCB-DGCC/templatedata/comm-comm/gene-gene/data/agri-info_newsletter_2019_04-7_1557423099457_fr"
    },
    "layout_name": "content page 1 column",
    "type_name": "comm-comm/gene-gene",
    "lang": "en"
}