{
    "dcr_id": "1558556239593",
    "title": {
        "en": "Participant Information Form – Youth Employment and Skills Program",
        "fr": "Formulaire d'information sur le participant – Programme d’emploi et de compétences des jeunes"
    },
    "modified": "2020-01-07",
    "issued": "2019-06-03",
    "dcr_type": "comm-comm/gene-gene",
    "templatetype": "content page 1 column",
    "page_type": "0",
    "node_id": "1559744022534",
    "dc_date_created": "2019-06-03",
    "managing_branch": "PAB",
    "teamsite_location": {
        "en": "/default/main/AAFC-AAC/Internet-Internet/Group-Ensemble/ProgServ-ProgServ/WORKAREA/ProgServ-ProgServ/templatedata/comm-comm/gene-gene/data/05/yesp-pecj_participant_information_form_1558556239593_en",
        "fr": "/default/main/AAFC-AAC/Internet-Internet/Group-Ensemble/ProgServ-ProgServ/WORKAREA/ProgServ-ProgServ/templatedata/comm-comm/gene-gene/data/05/yesp-pecj_participant_information_form_1558556239593_fr"
    },
    "layout_name": "content page 1 column",
    "type_name": "comm-comm/gene-gene",
    "lang": "en"
}