{
    "dcr_id": "1560961994506",
    "title": {
        "en": "Canada: Outlook for Principal Field Crops, 2019-06-14",
        "fr": "Canada : perspectives des principales grandes cultures, 2019-06-14"
    },
    "modified": "2019-06-20",
    "issued": "2019-06-20",
    "dcr_type": "comm-comm/gene-gene",
    "templatetype": "<NULL>",
    "page_type": "0",
    "node_id": "1379000575516",
    "dc_date_created": "2019-06-20",
    "managing_branch": "MISB",
    "teamsite_location": {
        "en": "/default/main/AAFC-AAC/Internet-Internet/MISB-DGSIM/MAG-GAM/WORKAREA/MAG-GAM/templatedata/comm-comm/gene-gene/data/fco_2019-06-14_1560961994506_en",
        "fr": "/default/main/AAFC-AAC/Internet-Internet/MISB-DGSIM/MAG-GAM/WORKAREA/MAG-GAM/templatedata/comm-comm/gene-gene/data/fco_2019-06-14_1560961994506_fr"
    },
    "layout_name": "<NULL>",
    "type_name": "comm-comm/gene-gene",
    "lang": "en"
}