{
    "dcr_id": "1562166309974",
    "title": {
        "en": "Sector Trend Analysis – Fish and seafood trends in Lithuania",
        "fr": "Analyse sectorielle – Tendances dans le secteur des produits de la mer en Lituanie"
    },
    "modified": "2019-07-24",
    "issued": "2019-07-24",
    "dcr_type": "comm-comm/gene-gene",
    "templatetype": "content page 1 column",
    "page_type": "0",
    "node_id": "1549652534579",
    "dc_date_created": "2019-07-24",
    "managing_branch": "MISB",
    "teamsite_location": {
        "en": "/default/main/AAFC-AAC/Internet-Internet/MISB-DGSIM/ATS-SEA/ATS-SEA-s2/WORKAREA/ATS-SEA-s2/templatedata/comm-comm/gene-gene/data/sta_seafood_lithuania_1562166309974_en",
        "fr": "/default/main/AAFC-AAC/Internet-Internet/MISB-DGSIM/ATS-SEA/ATS-SEA-s2/WORKAREA/ATS-SEA-s2/templatedata/comm-comm/gene-gene/data/sta_seafood_lithuania_1562166309974_fr"
    },
    "layout_name": "content page 1 column",
    "type_name": "comm-comm/gene-gene",
    "lang": "en"
}