{
    "dcr_id": "1562249496843",
    "title": {
        "en": "Customized Service Report – Smoked salmon retail sector in Canada and the United States",
        "fr": "Service de rapport personnalisé – Secteur du commerce de détail du saumon fumé au Canada et aux États-Unis"
    },
    "modified": "2019-07-24",
    "issued": "2019-07-24",
    "dcr_type": "comm-comm/gene-gene",
    "templatetype": "content page 1 column",
    "page_type": "0",
    "node_id": "1549652534579",
    "dc_date_created": "2019-07-24",
    "managing_branch": "MISB",
    "teamsite_location": {
        "en": "/default/main/AAFC-AAC/Internet-Internet/MISB-DGSIM/ATS-SEA/ATS-SEA-s2/WORKAREA/ATS-SEA-s2/templatedata/comm-comm/gene-gene/data/cr_smoked_salmon_uscan_1562249496843_en",
        "fr": "/default/main/AAFC-AAC/Internet-Internet/MISB-DGSIM/ATS-SEA/ATS-SEA-s2/WORKAREA/ATS-SEA-s2/templatedata/comm-comm/gene-gene/data/cr_smoked_salmon_uscan_1562249496843_fr"
    },
    "layout_name": "content page 1 column",
    "type_name": "comm-comm/gene-gene",
    "lang": "en"
}