{
    "dcr_id": "1563894834877",
    "title": {
        "en": "Foodservice Profile – Indonesia",
        "fr": "Profil du secteur de la restauration – Indonésie"
    },
    "modified": "2019-08-21",
    "issued": "2019-08-21",
    "dcr_type": "comm-comm/gene-gene",
    "templatetype": "content page 1 column",
    "page_type": "0",
    "node_id": "1549652534579",
    "dc_date_created": "2019-08-21",
    "managing_branch": "MISB",
    "teamsite_location": {
        "en": "/default/main/AAFC-AAC/Internet-Internet/MISB-DGSIM/ATS-SEA/ATS-SEA-s2/WORKAREA/ATS-SEA-s2/templatedata/comm-comm/gene-gene/data/foodservice_india_1563894834877_en",
        "fr": "/default/main/AAFC-AAC/Internet-Internet/MISB-DGSIM/ATS-SEA/ATS-SEA-s2/WORKAREA/ATS-SEA-s2/templatedata/comm-comm/gene-gene/data/foodservice_india_1563894834877_fr"
    },
    "layout_name": "content page 1 column",
    "type_name": "comm-comm/gene-gene",
    "lang": "en"
}