{
    "dcr_id": "1565734115484",
    "title": {
        "en": "Indigenous Pathfinder – new personalized service for Indigenous agricultural businesses and communities",
        "fr": "Le service Explorateur pour les Autochtones – nouveau service personnalisé pour les entreprises agricoles et communautés autochtones "
    },
    "modified": "2020-05-25",
    "issued": "2019-09-03",
    "dcr_type": "comm-comm/gene-gene",
    "templatetype": "content page 1 column",
    "page_type": "0",
    "node_id": "1567779011461",
    "dc_date_created": "2019-09-03",
    "managing_branch": "PAB",
    "teamsite_location": {
        "en": "/default/main/AAFC-AAC/Internet-Internet/CCB-DGCC/WORKAREA/CCB-DGCC/templatedata/comm-comm/gene-gene/data/agri-info_newsletter_2018_10-3_1565734115484_en",
        "fr": "/default/main/AAFC-AAC/Internet-Internet/CCB-DGCC/WORKAREA/CCB-DGCC/templatedata/comm-comm/gene-gene/data/agri-info_newsletter_2018_10-3_1565734115484_fr"
    },
    "layout_name": "content page 1 column",
    "type_name": "comm-comm/gene-gene",
    "lang": "en"
}