{
    "dcr_id": "1565809491149",
    "title": {
        "en": "Farm innovation in Prince Edward Island just got a big boost",
        "fr": "L’innovation agricole à l’Île-du-Prince-Édouard reçoit un bon coup de pouce"
    },
    "modified": "2020-05-25",
    "issued": "2019-09-03",
    "dcr_type": "comm-comm/gene-gene",
    "templatetype": "content page 1 column",
    "page_type": "0",
    "node_id": "1567779011461",
    "dc_date_created": "2019-09-03",
    "managing_branch": "PAB",
    "teamsite_location": {
        "en": "/default/main/AAFC-AAC/Internet-Internet/CCB-DGCC/WORKAREA/CCB-DGCC/templatedata/comm-comm/gene-gene/data/agri-info_newsletter_2018_03-10_1565809491149_en",
        "fr": "/default/main/AAFC-AAC/Internet-Internet/CCB-DGCC/WORKAREA/CCB-DGCC/templatedata/comm-comm/gene-gene/data/agri-info_newsletter_2018_03-10_1565809491149_fr"
    },
    "layout_name": "content page 1 column",
    "type_name": "comm-comm/gene-gene",
    "lang": "en"
}