{
    "dcr_id": "1566502074838",
    "title": {
        "en": "Dairy Direct Payment Program: Step 1. What this program offers",
        "fr": "Programme de paiements directs pour les producteurs laitiers : Étape 1. Ce qu’offre ce programme"
    },
    "modified": "2021-01-18",
    "issued": "2019-09-03",
    "dcr_type": "comm-comm/gene-gene",
    "templatetype": "content page 1 column",
    "page_type": "1",
    "node_id": "1566817855922",
    "dc_date_created": "2019-09-03",
    "managing_branch": "PAB",
    "teamsite_location": {
        "en": "/default/main/AAFC-AAC/Internet-Internet/Group-Ensemble/ProgServ-ProgServ/WORKAREA/ProgServ-ProgServ/templatedata/comm-comm/gene-gene/data/08/ddpp-pdpl_1_1566502074838_en",
        "fr": "/default/main/AAFC-AAC/Internet-Internet/Group-Ensemble/ProgServ-ProgServ/WORKAREA/ProgServ-ProgServ/templatedata/comm-comm/gene-gene/data/08/ddpp-pdpl_1_1566502074838_fr"
    },
    "layout_name": "content page 1 column",
    "type_name": "comm-comm/gene-gene",
    "lang": "en"
}