{
    "dcr_id": "1571229520482",
    "title": {
        "en": "Farm Debt Mediation Service: Step 4. After you apply",
        "fr": "Service de médiation en matière d'endettement agricole : Étape 4. Après avoir présenté votre demande"
    },
    "modified": "2020-03-20",
    "issued": "2019-10-25",
    "dcr_type": "comm-comm/gene-gene",
    "templatetype": "content page 1 column",
    "page_type": "0",
    "node_id": "1536082487561",
    "dc_date_created": "2019-10-25",
    "managing_branch": "PAB",
    "teamsite_location": {
        "en": "/default/main/AAFC-AAC/Internet-Internet/Group-Ensemble/ProgServ-ProgServ/WORKAREA/ProgServ-ProgServ/templatedata/comm-comm/gene-gene/data/10/fdms_after_you_apply_1571229520482_en",
        "fr": "/default/main/AAFC-AAC/Internet-Internet/Group-Ensemble/ProgServ-ProgServ/WORKAREA/ProgServ-ProgServ/templatedata/comm-comm/gene-gene/data/10/fdms_after_you_apply_1571229520482_fr"
    },
    "layout_name": "content page 1 column",
    "type_name": "comm-comm/gene-gene",
    "lang": "en"
}