{
    "dcr_id": "1573847726312",
    "title": {
        "en": "Price Pooling Program: Step 2. Who is eligible",
        "fr": "Programme de mise en commun des prix : Étape 2. Qui est admissible"
    },
    "modified": "2019-12-09",
    "issued": "2019-12-09",
    "dcr_type": "comm-comm/gene-gene",
    "templatetype": "content page 1 column",
    "page_type": "0",
    "node_id": "1574440259412",
    "dc_date_created": "2019-12-09",
    "managing_branch": "PAB",
    "teamsite_location": {
        "en": "/default/main/AAFC-AAC/Internet-Internet/Group-Ensemble/ProgServ-ProgServ/WORKAREA/ProgServ-ProgServ/templatedata/comm-comm/gene-gene/data/11/ppp_step2_eligible_1573847726312_en",
        "fr": "/default/main/AAFC-AAC/Internet-Internet/Group-Ensemble/ProgServ-ProgServ/WORKAREA/ProgServ-ProgServ/templatedata/comm-comm/gene-gene/data/11/ppp_step2_eligible_1573847726312_fr"
    },
    "layout_name": "content page 1 column",
    "type_name": "comm-comm/gene-gene",
    "lang": "en"
}