{
    "dcr_id": "1574188299042",
    "title": {
        "en": "Price Pooling Program Application - Annex 2 - Market Information",
        "fr": "Demande de participation Programme de mise en commun des prix  - Annexe 2 - Formulaire d'information sur le marché"
    },
    "modified": "2019-12-09",
    "issued": "2019-12-09",
    "dcr_type": "comm-comm/gene-gene",
    "templatetype": "content page 1 column",
    "page_type": "0",
    "node_id": "1574440285661",
    "dc_date_created": "2019-12-09",
    "managing_branch": "PAB",
    "teamsite_location": {
        "en": "/default/main/AAFC-AAC/Internet-Internet/Group-Ensemble/ProgServ-ProgServ/WORKAREA/ProgServ-ProgServ/templatedata/comm-comm/gene-gene/data/11/ppp_annexe2_1574188299042_en",
        "fr": "/default/main/AAFC-AAC/Internet-Internet/Group-Ensemble/ProgServ-ProgServ/WORKAREA/ProgServ-ProgServ/templatedata/comm-comm/gene-gene/data/11/ppp_annexe2_1574188299042_fr"
    },
    "layout_name": "content page 1 column",
    "type_name": "comm-comm/gene-gene",
    "lang": "en"
}