{
    "dcr_id": "1576266185307",
    "title": {
        "en": "Dairy Processing Investment Fund: Project Summary Form",
        "fr": "Fonds d'investissement dans la transformation des produits laitiers : Formulaire de résumé de projet"
    },
    "modified": "2020-11-09",
    "issued": "2020-11-09",
    "dcr_type": "comm-comm/gene-gene",
    "templatetype": "content page 1 column",
    "page_type": "0",
    "node_id": "1494340590832",
    "dc_date_created": "2020-11-09",
    "managing_branch": "PAB",
    "teamsite_location": {
        "en": "/default/main/AAFC-AAC/Internet-Internet/Group-Ensemble/ProgServ-ProgServ/WORKAREA/ProgServ-ProgServ/templatedata/comm-comm/gene-gene/data/12/dpif_fpil_project_summary_1576266185307_en",
        "fr": "/default/main/AAFC-AAC/Internet-Internet/Group-Ensemble/ProgServ-ProgServ/WORKAREA/ProgServ-ProgServ/templatedata/comm-comm/gene-gene/data/12/dpif_fpil_project_summary_1576266185307_fr"
    },
    "layout_name": "content page 1 column",
    "type_name": "comm-comm/gene-gene",
    "lang": "en"
}