{
    "dcr_id": "1578504063079",
    "title": {
        "en": "Outline of opportunities in India – Priority sectors",
        "fr": "Aperçu des débouchés en Inde – Secteurs prioritaires"
    },
    "modified": "2020-02-14",
    "issued": "2020-01-22",
    "dcr_type": "comm-comm/gene-gene",
    "templatetype": "content page 1 column",
    "page_type": "0",
    "node_id": "1549652534579",
    "dc_date_created": "2020-01-22",
    "managing_branch": "MISB",
    "teamsite_location": {
        "en": "/default/main/AAFC-AAC/Internet-Internet/MISB-DGSIM/ATS-SEA/ATS-SEA-s1/WORKAREA/ATS-SEA-s1/templatedata/comm-comm/gene-gene/data/oo_india_priority_1578504063079_en",
        "fr": "/default/main/AAFC-AAC/Internet-Internet/MISB-DGSIM/ATS-SEA/ATS-SEA-s1/WORKAREA/ATS-SEA-s1/templatedata/comm-comm/gene-gene/data/oo_india_priority_1578504063079_fr"
    },
    "layout_name": "content page 1 column",
    "type_name": "comm-comm/gene-gene",
    "lang": "en"
}