{
    "dcr_id": "1578424066088",
    "title": {
        "en": "Minister Marie-Claude Bibeau returns to Agriculture and Agri-food file",
        "fr": "La ministre Marie-Claude Bibeau reprend le dossier de l’Agriculture et de l’Agroalimentaire "
    },
    "modified": "2020-05-25",
    "issued": "2020-01-15",
    "dcr_type": "comm-comm/gene-gene",
    "templatetype": "content page 1 column",
    "page_type": "0",
    "node_id": "1567779011461",
    "dc_date_created": "2020-01-15",
    "managing_branch": "PAB",
    "teamsite_location": {
        "en": "/default/main/AAFC-AAC/Internet-Internet/CCB-DGCC/WORKAREA/CCB-DGCC/templatedata/comm-comm/gene-gene/data/agri-info_newsletter_2020_01-1_1578424066088_en",
        "fr": "/default/main/AAFC-AAC/Internet-Internet/CCB-DGCC/WORKAREA/CCB-DGCC/templatedata/comm-comm/gene-gene/data/agri-info_newsletter_2020_01-1_1578424066088_fr"
    },
    "layout_name": "content page 1 column",
    "type_name": "comm-comm/gene-gene",
    "lang": "en"
}