{
    "dcr_id": "1578691127237",
    "title": {
        "en": "Customized report service – Canadian maple syrup",
        "fr": "Service de rapport personnalisé – Le sirop d'érable canadien"
    },
    "modified": "2020-03-03",
    "issued": "2020-02-05",
    "dcr_type": "comm-comm/gene-gene",
    "templatetype": "content page 1 column",
    "page_type": "0",
    "node_id": "1368480094434",
    "dc_date_created": "2020-02-05",
    "managing_branch": "MISB",
    "teamsite_location": {
        "en": "/default/main/AAFC-AAC/Internet-Internet/MISB-DGSIM/ATS-SEA/ATS-SEA-s1/WORKAREA/ATS-SEA-s1/templatedata/comm-comm/gene-gene/data/cr_canadian_maple_syrup_1578691127237_en",
        "fr": "/default/main/AAFC-AAC/Internet-Internet/MISB-DGSIM/ATS-SEA/ATS-SEA-s1/WORKAREA/ATS-SEA-s1/templatedata/comm-comm/gene-gene/data/cr_canadian_maple_syrup_1578691127237_fr"
    },
    "layout_name": "content page 1 column",
    "type_name": "comm-comm/gene-gene",
    "lang": "en"
}