{
    "dcr_id": "1579904587739",
    "title": {
        "en": "2020-2021 Consolidated Future-Oriented Statement of Operations (Unaudited)",
        "fr": "État des résultats prospectif consolidé (non audité)"
    },
    "modified": "2020-03-10",
    "issued": "2020-03-10",
    "dcr_type": "comm-comm/gene-gene",
    "templatetype": "content page 1 column",
    "page_type": "0",
    "node_id": "1598368547845",
    "dc_date_created": "2020-03-10",
    "managing_branch": "PAB",
    "teamsite_location": {
        "en": "/default/main/AAFC-AAC/Internet-Internet/Common-Commun/WORKAREA/Common-Commun/templatedata/comm-comm/gene-gene/data/01/fofs_2020-2021_1579904587739_en",
        "fr": "/default/main/AAFC-AAC/Internet-Internet/Common-Commun/WORKAREA/Common-Commun/templatedata/comm-comm/gene-gene/data/01/fofs_2020-2021_1579904587739_fr"
    },
    "layout_name": "content page 1 column",
    "type_name": "comm-comm/gene-gene",
    "lang": "en"
}