{
    "dcr_id": "1588245410631",
    "title": {
        "en": "Mandatory Isolation Support for Temporary Foreign Workers Program: Contact information ",
        "fr": "Programme d’aide pour l’isolement obligatoire des travailleurs étrangers temporaires : Pour nous joindre"
    },
    "modified": "2020-05-07",
    "issued": "2020-05-07",
    "dcr_type": "comm-comm/gene-gene",
    "templatetype": "content page 1 column",
    "page_type": "0",
    "node_id": "1588248992761",
    "dc_date_created": "2020-05-07",
    "managing_branch": "PAB",
    "teamsite_location": {
        "en": "/default/main/AAFC-AAC/Internet-Internet/Group-Ensemble/ProgServ-ProgServ/WORKAREA/ProgServ-ProgServ/templatedata/comm-comm/gene-gene/data/04/misp_6_1588245410631_en",
        "fr": "/default/main/AAFC-AAC/Internet-Internet/Group-Ensemble/ProgServ-ProgServ/WORKAREA/ProgServ-ProgServ/templatedata/comm-comm/gene-gene/data/04/misp_6_1588245410631_fr"
    },
    "layout_name": "content page 1 column",
    "type_name": "comm-comm/gene-gene",
    "lang": "en"
}