{
    "dcr_id": "1588862952557",
    "title": {
        "en": "Workplace guidance for sector employers and employees",
        "fr": "Directives sur le lieu de travail pour les employés et les employeurs du secteur"
    },
    "modified": "2020-10-16",
    "issued": "2020-05-07",
    "dcr_type": "comm-comm/gene-gene",
    "templatetype": "content page 1 column",
    "page_type": "1",
    "node_id": "1599569654162",
    "dc_date_created": "2020-05-07",
    "managing_branch": "PAB",
    "teamsite_location": {
        "en": "/default/main/AAFC-AAC/Internet-Internet/CCB-DGCC/WORKAREA/CCB-DGCC/templatedata/comm-comm/gene-gene/data/public_health_agric_1588862952557_en",
        "fr": "/default/main/AAFC-AAC/Internet-Internet/CCB-DGCC/WORKAREA/CCB-DGCC/templatedata/comm-comm/gene-gene/data/public_health_agric_1588862952557_fr"
    },
    "layout_name": "content page 1 column",
    "type_name": "comm-comm/gene-gene",
    "lang": "en"
}