{
    "dcr_id": "1590060450619",
    "title": {
        "en": "CPTPP benefits for Canadian fish and seafood exporters",
        "fr": "Les avantages du PTPGP pour les exportateurs canadiens de poisson et de fruits de mer"
    },
    "modified": "2020-05-25",
    "issued": "2020-05-25",
    "dcr_type": "comm-comm/gene-gene",
    "templatetype": "content page 1 column",
    "page_type": "0",
    "node_id": "1589285577853",
    "dc_date_created": "2020-05-25",
    "managing_branch": "MISB",
    "teamsite_location": {
        "en": "/default/main/AAFC-AAC/Internet-Internet/MISB-DGSIM/ATS-SEA/ATS-SEA-s1/WORKAREA/ATS-SEA-s1/templatedata/comm-comm/gene-gene/data/cptpp_fish_seafood_1590060450619_en",
        "fr": "/default/main/AAFC-AAC/Internet-Internet/MISB-DGSIM/ATS-SEA/ATS-SEA-s1/WORKAREA/ATS-SEA-s1/templatedata/comm-comm/gene-gene/data/cptpp_fish_seafood_1590060450619_fr"
    },
    "layout_name": "content page 1 column",
    "type_name": "comm-comm/gene-gene",
    "lang": "en"
}