{
    "dcr_id": "1590516793091",
    "title": {
        "en": "Canada: Outlook for Principal Field Crops, 2020-05-22",
        "fr": "Canada : perspectives des principales grandes cultures, 2020-05-22"
    },
    "modified": "2020-05-27",
    "issued": "2020-05-27",
    "dcr_type": "comm-comm/gene-gene",
    "templatetype": "content page 1 column",
    "page_type": "0",
    "node_id": "1379000575516",
    "dc_date_created": "2020-05-27",
    "managing_branch": "MISB",
    "teamsite_location": {
        "en": "/default/main/AAFC-AAC/Internet-Internet/MISB-DGSIM/MAG-GAM/WORKAREA/MAG-GAM/templatedata/comm-comm/gene-gene/data/fco_2020-05-22_1590516793091_en",
        "fr": "/default/main/AAFC-AAC/Internet-Internet/MISB-DGSIM/MAG-GAM/WORKAREA/MAG-GAM/templatedata/comm-comm/gene-gene/data/fco_2020-05-22_1590516793091_fr"
    },
    "layout_name": "content page 1 column",
    "type_name": "comm-comm/gene-gene",
    "lang": "en"
}