{
    "dcr_id": "1590805482178",
    "title": {
        "en": "2020 AgriStability enrolment deadline extended to July 3, 2020",
        "fr": "Inscription au programme Agri-stabilité 2020 délai reporté au 3 juillet 2020"
    },
    "modified": "2020-07-13",
    "issued": "2020-07-13",
    "dcr_type": "comm-comm/gene-gene",
    "templatetype": "content page 1 column",
    "page_type": "0",
    "node_id": "1594037384895",
    "dc_date_created": "2020-07-13",
    "managing_branch": "PAB",
    "teamsite_location": {
        "en": "/default/main/AAFC-AAC/Internet-Internet/Group-Ensemble/ProgServ-ProgServ/WORKAREA/ProgServ-ProgServ/templatedata/comm-comm/gene-gene/data/06/as_2020_deadline_ext_1590805482178_en",
        "fr": "/default/main/AAFC-AAC/Internet-Internet/Group-Ensemble/ProgServ-ProgServ/WORKAREA/ProgServ-ProgServ/templatedata/comm-comm/gene-gene/data/06/as_2020_deadline_ext_1590805482178_fr"
    },
    "layout_name": "content page 1 column",
    "type_name": "comm-comm/gene-gene",
    "lang": "en"
}