{
    "dcr_id": "1591883170753",
    "title": {
        "en": "Surplus Food Rescue Program: Step 2. Who is eligible",
        "fr": "Programme de récupération d’aliments excédentaires : Étape 2. Qui est admissible"
    },
    "modified": "2020-06-25",
    "issued": "2020-06-15",
    "dcr_type": "comm-comm/gene-gene",
    "templatetype": "content page 1 column",
    "page_type": "0",
    "node_id": "1591299492598",
    "dc_date_created": "2020-06-15",
    "managing_branch": "PAB",
    "teamsite_location": {
        "en": "/default/main/AAFC-AAC/Internet-Internet/Group-Ensemble/ProgServ-ProgServ/WORKAREA/ProgServ-ProgServ/templatedata/comm-comm/gene-gene/data/06/surplus_food_rescue_program-step2_1591883170753_en",
        "fr": "/default/main/AAFC-AAC/Internet-Internet/Group-Ensemble/ProgServ-ProgServ/WORKAREA/ProgServ-ProgServ/templatedata/comm-comm/gene-gene/data/06/surplus_food_rescue_program-step2_1591883170753_fr"
    },
    "layout_name": "content page 1 column",
    "type_name": "comm-comm/gene-gene",
    "lang": "en"
}