{
    "dcr_id": "1593778904948",
    "title": {
        "en": "New front-of-package warning seals and other labelling changes for foods and non-alcoholic beverages for retail sale in Mexico",
        "fr": "Nouveaux avertissements sur le devant des emballages et autres changements dans l’étiquetage des aliments et des boissons non alcoolisées destinés à la vente au détail au Mexique"
    },
    "modified": "2020-10-15",
    "issued": "2020-07-03",
    "dcr_type": "comm-comm/gene-gene",
    "templatetype": "content page 1 column",
    "page_type": "0",
    "node_id": "1410080965335",
    "dc_date_created": "2020-07-03",
    "managing_branch": "MISB",
    "teamsite_location": {
        "en": "/default/main/AAFC-AAC/Internet-Internet/MISB-DGSIM/ATS-SEA/ATS-SEA-s1/WORKAREA/ATS-SEA-s1/templatedata/comm-comm/gene-gene/data/mexico_labelling_2020_1593778904948_en",
        "fr": "/default/main/AAFC-AAC/Internet-Internet/MISB-DGSIM/ATS-SEA/ATS-SEA-s1/WORKAREA/ATS-SEA-s1/templatedata/comm-comm/gene-gene/data/mexico_labelling_2020_1593778904948_fr"
    },
    "layout_name": "content page 1 column",
    "type_name": "comm-comm/gene-gene",
    "lang": "en"
}