{
    "dcr_id": "1594840877043",
    "title": {
        "en": "Search for innovation equipment: Saint-Hyacinthe Research and Development Centre's Industrial Program",
        "fr": "Trouver l'équipement à la disponibilité de l’innovation du Programme industriel du Centre de recherche et de développement à Saint-Hyacinthe"
    },
    "modified": "2021-01-27",
    "issued": "2020-11-05",
    "dcr_type": "comm-comm/gene-gene",
    "templatetype": "content page 1 column",
    "page_type": "0",
    "node_id": "1594231994590",
    "dc_date_created": "2020-11-05",
    "managing_branch": "PAB",
    "teamsite_location": {
        "en": "/default/main/AAFC-AAC/Internet-Internet/Group-Ensemble/ProgServ-ProgServ/WORKAREA/ProgServ-ProgServ/templatedata/comm-comm/gene-gene/data/07/st-hy_ip-pi_equipement_1594840877043_en",
        "fr": "/default/main/AAFC-AAC/Internet-Internet/Group-Ensemble/ProgServ-ProgServ/WORKAREA/ProgServ-ProgServ/templatedata/comm-comm/gene-gene/data/07/st-hy_ip-pi_equipement_1594840877043_fr"
    },
    "layout_name": "content page 1 column",
    "type_name": "comm-comm/gene-gene",
    "lang": "en"
}