{
    "dcr_id": "1596029486473",
    "title": {
        "en": "Canadians invited to Step up to the plate and work in ag jobs",
        "fr": "Invitation aux Canadiens et aux Canadiennes à mettre la main à la pâte et à travailler dans le secteur agricole"
    },
    "modified": "2020-09-30",
    "issued": "2020-07-30",
    "dcr_type": "comm-comm/gene-gene",
    "templatetype": "content page 1 column",
    "page_type": "0",
    "node_id": "1567779011461",
    "dc_date_created": "2020-07-30",
    "managing_branch": "PAB",
    "teamsite_location": {
        "en": "/default/main/AAFC-AAC/Internet-Internet/CCB-DGCC/WORKAREA/CCB-DGCC/templatedata/comm-comm/gene-gene/data/canadians-invited-to-step-up-to-the-plate-and-work-in-ag-jobs_1596029486473_en",
        "fr": "/default/main/AAFC-AAC/Internet-Internet/CCB-DGCC/WORKAREA/CCB-DGCC/templatedata/comm-comm/gene-gene/data/canadians-invited-to-step-up-to-the-plate-and-work-in-ag-jobs_1596029486473_fr"
    },
    "layout_name": "content page 1 column",
    "type_name": "comm-comm/gene-gene",
    "lang": "en"
}