{
    "dcr_id": "1604606834113",
    "title": {
        "en": "Technology and youth on the farm: Bringing Alberta’s agriculture into a new age ",
        "fr": "La technologie et les jeunes à l’exploitation : Faire entrer l’agriculture de l’Alberta dans une nouvelle ère "
    },
    "modified": "2020-11-09",
    "issued": "2020-11-09",
    "dcr_type": "comm-comm/gene-gene",
    "templatetype": "content page 1 column",
    "page_type": "0",
    "node_id": "1567779011461",
    "dc_date_created": "2020-11-09",
    "managing_branch": "PAB",
    "teamsite_location": {
        "en": "/default/main/AAFC-AAC/Internet-Internet/CCB-DGCC/WORKAREA/CCB-DGCC/templatedata/comm-comm/gene-gene/data/gng_technology_youth_farm_1604606834113_en",
        "fr": "/default/main/AAFC-AAC/Internet-Internet/CCB-DGCC/WORKAREA/CCB-DGCC/templatedata/comm-comm/gene-gene/data/gng_technology_youth_farm_1604606834113_fr"
    },
    "layout_name": "content page 1 column",
    "type_name": "comm-comm/gene-gene",
    "lang": "en"
}