{
    "dcr_id": "1604963697821",
    "title": {
        "en": "2021 AgriStability Program Interim Payment Application Guide",
        "fr": "Guide pour remplir la demande de paiement provisoire du programme Agri-stabilité pour 2021"
    },
    "modified": "2020-12-09",
    "issued": "2020-11-17",
    "dcr_type": "comm-comm/gene-gene",
    "templatetype": "content page 1 column",
    "page_type": "0",
    "node_id": "1594037384895",
    "dc_date_created": "2020-11-17",
    "managing_branch": "PAB",
    "teamsite_location": {
        "en": "/default/main/AAFC-AAC/Internet-Internet/Group-Ensemble/ProgServ-ProgServ/WORKAREA/ProgServ-ProgServ/templatedata/comm-comm/gene-gene/data/11/as_2021_interim-app_guide_1604963697821_en",
        "fr": "/default/main/AAFC-AAC/Internet-Internet/Group-Ensemble/ProgServ-ProgServ/WORKAREA/ProgServ-ProgServ/templatedata/comm-comm/gene-gene/data/11/as_2021_interim-app_guide_1604963697821_fr"
    },
    "layout_name": "content page 1 column",
    "type_name": "comm-comm/gene-gene",
    "lang": "en"
}