{
    "dcr_id": "1526999369832",
    "lang": "en",
    "type_name": "empl-empl",
    "staffadvisor": "amanda.chaiban@agr.gc.ca",
    "submitername": "Holly McCoubrey",
    "submiteremail": "holly.mccoubrey@agr.gc.ca",
    "contactname": "Holly McCoubrey",
    "contactemail": "holly.mccoubrey@agr.gc.ca",
    "contactphonenumber": "613-773-2373",
    "issued": "2018-05-29"
}