{
    "dcr_id": "1531405189306",
    "lang": "en",
    "type_name": "empl-empl",
    "staffadvisor": "amanda.dent@agr.gc.ca",
    "submitername": "Susan Hayes",
    "submiteremail": "susan.hayes@agr.gc.ca",
    "contactname": "Susan Hayes",
    "contactemail": "susan.hayes@agr.gc.ca",
    "contactphonenumber": "613-773-0709",
    "issued": "2018-07-12"
}