{
    "dcr_id": "1542636261118",
    "lang": "en",
    "type_name": "empl-empl",
    "staffadvisor": "lisette.dias@canada.ca",
    "submitername": "Louise Grace",
    "submiteremail": "Louise.Grace@canada.ca",
    "contactname": "Veronique Ouellette",
    "contactemail": "Veronique.Ouellette@canada.ca",
    "contactphonenumber": "613-773-1470",
    "issued": "2018-11-21"
}