{
    "dcr_id": "1554214171106",
    "lang": "en",
    "type_name": "empl-empl",
    "staffadvisor": "Jocelyn.cousineau@canada.ca",
    "submitername": "Mari-Lou Cuillerier",
    "submiteremail": "mari-lou.cuillerier@canada.ca",
    "contactname": "Mari-Lou Cuillerier",
    "contactemail": "mari-lou.cuillerier@canada.ca",
    "contactphonenumber": "613-773-2340",
    "issued": "2019-04-02"
}