{
    "dcr_id": "1577121226224",
    "lang": "en",
    "type_name": "empl-empl",
    "staffadvisor": "chantal.desbiens@canada.ca",
    "submitername": "Marie-Noëlle Desrochers",
    "submiteremail": "marie-noelle.desrochers@canada.ca",
    "contactname": "Chantal Desbiens",
    "contactemail": "chantal.desbiens@canada.ca",
    "contactphonenumber": "613-773-2686",
    "issued": "2019-12-30"
}