{
    "dcr_id": "1583776367711",
    "lang": "en",
    "type_name": "empl-empl",
    "staffadvisor": "yasna.sarwar@canada.ca",
    "submitername": "Amanda McIntyre",
    "submiteremail": "amanda.mcintyre@canada.ca",
    "contactname": "Mariam El Dali",
    "contactemail": "mariam.eldali@canada.ca",
    "contactphonenumber": "613-733-0224",
    "issued": "2020-03-10"
}