{
    "dcr_id": "1591297550218",
    "lang": "en",
    "type_name": "empl-empl",
    "staffadvisor": "terrence.dabere@canada.ca",
    "submitername": "Amrane Boumghar",
    "submiteremail": "amrane.boumghar@canada.ca",
    "contactname": "Terrence Dabere",
    "contactemail": "terrence.dabere@canada.ca",
    "contactphonenumber": "343-550-4668",
    "issued": "2020-06-05"
}