{
    "dcr_id": "1596734632072",
    "lang": "en",
    "type_name": "empl-empl",
    "staffadvisor": "adriana.azzi3@canada.ca",
    "submitername": "Sandra Newsome",
    "submiteremail": "sandra.newsome@canada.ca",
    "contactname": "Erin Fernandez",
    "contactemail": "erin.fernandez@canada.ca",
    "contactphonenumber": "613-773-2261",
    "issued": "2020-08-06"
}