{
    "dcr_id": "1598562162136",
    "lang": "en",
    "type_name": "empl-empl",
    "staffadvisor": "terrence.dabere@canada.ca",
    "submitername": "Terrence Dabere",
    "submiteremail": "terrence.dabere@canada.ca",
    "contactname": "Terrence Dabere",
    "contactemail": "terrence.dabere@canada.ca",
    "contactphonenumber": "343-550-4668",
    "issued": "2020-08-31"
}