{
    "dcr_id": "1427987808646",
    "title": {
        "en": "Farm Income, Financial Conditions and Government Assistance Data Book, 2014",
        "fr": "Revenu agricole, situation financière et aide gouvernementale, Recueil de données, 2014"
    },
    "modified": "2015-04-13",
    "issued": "2015-04-13",
    "dcr_type": "exec-exec/summ-somm",
    "templatetype": "content page 1 column",
    "page_type": "0",
    "node_id": "1354137773675",
    "dc_date_created": "2015-04-13",
    "managing_branch": "PAB",
    "teamsite_location": {
        "en": "/default/main/AAFC-AAC/Internet-Internet/Group-Ensemble/RA-RA/WORKAREA/RA-RA/templatedata/exec-exec/summ-somm/data/2015/databook_2015_1427987808646_en",
        "fr": "/default/main/AAFC-AAC/Internet-Internet/Group-Ensemble/RA-RA/WORKAREA/RA-RA/templatedata/exec-exec/summ-somm/data/2015/databook_2015_1427987808646_fr"
    },
    "layout_name": "content page 1 column",
    "type_name": "exec-exec/summ-somm",
    "lang": "en"
}