[{
   "Branch": "Corporate Management Branch",
   "Topic": "Accounting",
   "Policy": "<a href=\"http://intranet.agr.gc.ca/resources/prod/doc/cmb_dggi/policies_guidelines/information_general-eng.doc\">General Information on Accounting Policy (Word, 49.5 KB)</a>",
   "Date": "2000"
 },
 {
   "Branch": "Corporate Management Branch",
   "Topic": "Accounting",
   "Policy": "<a href=\"http://intranet.agr.gc.ca/resources/prod/doc/cmb_dggi/policies_guidelines/apas_std_accounting_policy-eng.doc\">Accounting Policy on Accrued Salary and Wages (Word, 47 KB)</a>",
   "Date": "2001"
 },
 {
   "Branch": "Corporate Management Branch",
   "Topic": "Accounting",
   "Policy": "<a href=\"http://intranet.agr.gc.ca/resources/prod/doc/cmb_dggi/policies_guidelines/eap_accounting_policies-eng.doc\">Accounting Policy on Expenses (Word, 61 KB)</a>",
   "Date": "2001"
 },
 {
   "Branch": "Corporate Management Branch",
   "Topic": "Accounting",
   "Policy": "<a href=\"http://intranet.agr.gc.ca/resources/prod/doc/cmb_dggi/policies_guidelines/aplg_pcge_accounting_policy-eng.doc\">Accounting Policy on Loan Guarantees (Word, 44 KB)</a>",
   "Date": "2001"
 },
 {
   "Branch": "Corporate Management Branch",
   "Topic": "Accounting",
   "Policy": "<a href=\"http://intranet.agr.gc.ca/resources/prod/doc/cmb_dggi/policies_guidelines/aplia_pcpia_accounting_policy-eng.doc\">Accounting Policy on Loans, Investments, and Advances (Word, 58 KB)</a>",
   "Date": "2001"
 },
 {
   "Branch": "Corporate Management Branch",
   "Topic": "Accounting",
   "Policy": "<a href=\"http://intranet.agr.gc.ca/resources/prod/doc/cmb_dggi/policies_guidelines/acctg_plcy_non_monet_trans_polit_comp_op-eng.doc\">Accounting Policy on Non-Monetary Transactions (Word, 44 KB)</a>",
   "Date": "2001"
 },
 {
   "Branch": "Corporate Management Branch",
   "Topic": "Accounting",
   "Policy": "<a href=\"http://intranet.agr.gc.ca/resources/prod/doc/cmb_dggi/policies_guidelines/ppmaa_pmpgcb_assets-eng%20.doc\">Accounting Policy on Planning, Managing and Accounting for Assets (Word, 215 KB)</a>",
   "Date": "2000"
 },
 {
   "Branch": "Corporate Management Branch",
   "Topic": "Accounting",
   "Policy": "<a href=\"http://www.tbs-sct.gc.ca/pol/doc-eng.aspx?id=32499\">Directive on Accounting Standards</a>",
   "Date": "2017"
 },
 {
   "Branch": "Corporate Management Branch",
   "Topic": "Accounting",
   "Policy": "<a href=\"http://intranet.agr.gc.ca/resources/prod/doc/cmb_dggi/policies_guidelines/eap_accounting_policies-eng.doc\">Expenses, Accounts Payable and Accrued Liabilities (Word, 61 KB)</a>",
   "Date": "2001"
 },
 {
   "Branch": "Corporate Management Branch",
   "Topic": "Accounting",
   "Policy": "<a href=\"http://www.tbs-sct.gc.ca/pol/doc-eng.aspx?id=12182\">Financial Information Strategy Accounting Manual</a>",
   "Date": "2001"
 },
 {
   "Branch": "Corporate Management Branch",
   "Topic": "Accounting",
   "Policy": "<a href=\"http://intranet.agr.gc.ca/resources/prod/doc/cmb_dggi/policies_guidelines/foreign_currency_transact_devises_etrangeres-eng.doc\">Foreign Currency Transactions (Word, 43.5 KB)</a>",
   "Date": "2001"
 },
 {
   "Branch": "Corporate Management Branch",
   "Topic": "Accounting",
   "Policy": "<a href=\"http://intranet.agr.gc.ca/resources/prod/doc/cmb_dggi/policies_guidelines/1998_99_gating_sampling-eng.doc\">Gating and Sampling Policy (Word, 53 KB)</a>",
   "Date": "1998"
 },
 {
   "Branch": "Corporate Management Branch",
   "Topic": "Accounting",
   "Policy": "<a href=\"http://www.tbs-sct.gc.ca/pol/doc-eng.aspx?id=17067\">Guideline on Accountable Advances</a>",
   "Date": "2009"
 },
 {
   "Branch": "Corporate Management Branch",
   "Topic": "Accounting",
   "Policy": "<a href=\"http://intranet.agr.gc.ca/resources/prod/doc/cmb_dggi/policies_guidelines/journal_vouchers_pieces_journal-eng.doc\">Journal Vouchers (Word, 39.5 KB)</a>",
   "Date": "2012"
 },
 {
   "Branch": "Corporate Management Branch",
   "Topic": "Accounting",
   "Policy": "<a href=\"http://intranet.agr.gc.ca/resources/prod/doc/cmb_dggi/policies_guidelines/policy_acctg_specified_purp_accts-eng.doc\">Policy on Accounting for Specified Purpose Accounts (Word, 61.5 KB)</a>",
   "Date": "2002"
 },
 {
   "Branch": "Corporate Management Branch",
   "Topic": "Accounting",
   "Policy": "<a href=\"http://intranet.agr.gc.ca/agrisource/eng/branches-and-offices/corporate-management-branch/policies-and-guidelines/policy-on-contingencies?id=1357915434409\">Policy on Contingencies</a>",
   "Date": "2017"
 },
 {
   "Branch": "Corporate Management Branch",
   "Topic": "Accounting",
   "Policy": "<a href=\"http://intranet.agr.gc.ca/resources/prod/doc/cmb_dggi/policies_guidelines/prepaid_expenses-eng.doc\">Prepaid Expenses (Word, 45.5 KB)</a>",
   "Date": "2001"
 },
 {
   "Branch": "Corporate Management Branch",
   "Topic": "Acquisition cards",
   "Policy": "<a href=\"http://intranet.agr.gc.ca/resources/prod/doc/cmb_dggi/policies_guidelines/2016-01-07_acquisition_cards_policy-eng.doc\">Policy on Acquisition Cards (Word, 167 KB)</a>",
   "Date": "2011"
 },
 {
   "Branch": "Corporate Management Branch",
   "Topic": "Acquisition cards",
   "Policy": "<a href=\"http://intranet.agr.gc.ca/resources/prod/doc/cmb_dggi/policies_guidelines/rms_credit_cards_use-eng.doc\">Risk Management Strategy for Credit Card Use (Word, 43.5 KB)</a>",
   "Date": "2001"
 },
 {
   "Branch": "Corporate Management Branch",
   "Topic": "Asset management",
   "Policy": "<a href=\"http://intranet.agr.gc.ca/agrisource/eng?id=1574187438833\">Departmental Policy on Motor Vehicles</a>",
   "Date": "2020"
 },
 {
   "Branch": "Corporate Management Branch",
   "Topic": "Asset management",
   "Policy": "<a href=\"http://intranet.agr.gc.ca/agrisource/AgriDoc.do?id=100341827&lang=eng\">Departmental Procedures for the Provision of Potable Water (Word)</a>",
   "Date": "2014"
 },
 {
   "Branch": "Corporate Management Branch",
   "Topic": "Asset management",
   "Policy": "<a href=\"http://www.tbs-sct.gc.ca/pol/doc-eng.aspx?id=12066\">Directive on Disposal of Surplus Materiel</a>",
   "Date": "2006"
 },
 {
   "Branch": "Corporate Management Branch",
   "Topic": "Asset management",
   "Policy": "<a href=\"http://www.tbs-sct.gc.ca/pol/doc-eng.aspx?id=12022\">Policy Framework for the Management of Assets and Acquired Services</a>",
   "Date": "2006"
 },
 {
   "Branch": "Corporate Management Branch",
   "Topic": "Asset management",
   "Policy": "<a href=\"http://www.tpsgc-pwgsc.gc.ca/ecologisation-greening/achats-procurement/politique-policy-eng.html\">Policy on Green Procurement</a>",
   "Date": "2006"
 },
 {
   "Branch": "Corporate Management Branch",
   "Topic": "Asset management",
   "Policy": "<a href=\"https://www.tbs-sct.gc.ca/pol/doc-eng.aspx?id=18225\">Policy on Investment Planning - Assets and Acquired Services</a>",
   "Date": "2007"
 },
 {
   "Branch": "Corporate Management Branch",
   "Topic": "Material management",
   "Policy": "<a href=\"http://www.tbs-sct.gc.ca/pol/doc-eng.aspx?id=12062\">Policy on Management of Materiel</a>",
   "Date": "2006"
 },
 {
   "Branch": "Corporate Management Branch",
   "Topic": "Asset management",
   "Policy": "<a href=\"http://www.tbs-sct.gc.ca/pol/doc-eng.aspx?id=12074\">Procurement Review Policy</a>",
   "Date": "1994"
 },
 {
   "Branch": "Corporate Management Branch",
   "Topic": "Asset management",
   "Policy": "<a href=\"http://intranet.agr.gc.ca/resources/prod/doc/cmb_dggi/policies_guidelines/ias_bil_intangible_assets_software-eng.doc\">Capitalization of Intangible Assets and Software (Word, 41 KB)</a>",
   "Date": "2001"
 },
 {
   "Branch": "Corporate Management Branch",
   "Topic": "Asset management",
   "Policy": "<a href=\"http://intranet.agr.gc.ca/resources/prod/doc/cmb_dggi/policies_guidelines/leasehold_improvements-eng.doc\">Leasehold Improvements (Word, 45.5 KB)</a>",
   "Date": "2001"
 },
 {
   "Branch": "Corporate Management Branch",
   "Topic": "Asset management",
   "Policy": "<a href=\"http://intranet.agr.gc.ca/resources/prod/doc/cmb_dggi/policies_guidelines/dollar_value_assets-eng.doc\">Low Dollar Value Assets - New Requirements (Word, 47.5 KB)</a>",
   "Date": "2004"
 },
 {
   "Branch": "Corporate Management Branch",
   "Topic": "Asset management",
   "Policy": "<a href=\"http://intranet.agr.gc.ca/resources/prod/doc/cmb_dggi/policies_guidelines/asset_mgmt_gloss_lex_gestion_biens-eng.doc\">Asset Management Glossary (Word, 81 KB)</a>",
   "Date": "2012"
 },
 {
   "Branch": "Corporate Management Branch",
   "Topic": "Asset management",
   "Policy": "<a href=\"http://intranet.agr.gc.ca/resources/prod/doc/cmb_dggi/policies_guidelines/ds_disposal_surplus_moveable_crown-eng.doc\">Disposal of Surplus Moveable Crown Assets (Word, 64.5 KB)</a>",
   "Date": "2001"
 },
 {
   "Branch": "Corporate Management Branch",
   "Topic": "Asset management",
   "Policy": "<a href=\"http://intranet.agr.gc.ca/resources/prod/doc/cmb_dggi/policies_guidelines/faq_frequently_asked_questions-eng.doc\">Frequently Asked Questions on Assets (Word, 65.5 KB)</a>",
   "Date": "2013"
 },
 {
   "Branch": "Corporate Management Branch",
   "Topic": "Asset management",
   "Policy": "<a href=\"http://intranet.agr.gc.ca/resources/prod/doc/cmb_dggi/policies_guidelines/gpca_dvci_capital_assets-eng.doc\">Guidelines on Planning for Capital Assets (Word, 70.5 KB)</a>",
   "Date": "2013"
 },
 {
   "Branch": "Corporate Management Branch",
   "Topic": "Asset management",
   "Policy": "<a href=\"http://intranet.agr.gc.ca/resources/prod/doc/cmb_dggi/policies_guidelines/procedure_recording_assets-eng.doc\">Procedure for recording assets in more than one cost centre (Word, 169 KB)</a>",
   "Date": "2004"
 },
 {
   "Branch": "Corporate Management Branch",
   "Topic": "Claims by and against the Crown",
   "Policy": "<a href=\"http://intranet.agr.gc.ca/resources/prod/doc/cmb_dggi/policies_guidelines/dpcac_pmrcc_departmental_policy-eng.doc\">Policy on Claims By and Against the Crown (Word, 66.5 KB)</a>",
   "Date": "2013"
 },
 {
   "Branch": "Corporate Management Branch",
   "Topic": "Commitment control",
   "Policy": "<a href=\"http://intranet.agr.gc.ca/resources/prod/doc/cmb_dggi/policies_guidelines/commitment_gs_cs_engagement_sc-eng.doc\">Commitment of Grants and Contributions (Word, 31.5 KB)</a>",
   "Date": "2006"
 },
 {
   "Branch": "Corporate Management Branch",
   "Topic": "Commitment control",
   "Policy": "<a href=\"http://intranet.agr.gc.ca/resources/prod/doc/cmb_dggi/policies_guidelines/commit_grants_contribut_subvent_contribut-eng.doc\">Bulletin to clarify the Commitment of Grants and Contributions Policy (Word, 25 KB)</a>",
   "Date": "2006"
 },
 {
   "Branch": "Corporate Management Branch",
   "Topic": "Commitment control",
   "Policy": "<a href=\"http://intranet.agr.gc.ca/resources/prod/doc/cmb_dggi/policies_guidelines/fin_plan_rpt_proc_planif_rppts_fin_permet-eng.doc\">Enhancement to the Financial Planning and Reporting Process to allow for the Recording and Processing of Funds Reservations (Word, 35 KB)</a>",
   "Date": "2013"
 },
 {
   "Branch": "Corporate Management Branch",
   "Topic": "Delegation of financial authorities",
   "Policy": "<a href=\"http://intranet.agr.gc.ca/agrisource/AgriDoc.do?id=3644423&lang=eng\">Acting Authorities (Word)</a>",
   "Date": "1995"
 },
 {
   "Branch": "Corporate Management Branch",
   "Topic": "Delegation of financial authorities",
   "Policy": "<a href=\"http://intranet.agr.gc.ca/agrisource/AgriDoc.do?id=3644423&lang=eng\">Restrictions applicable to exercising \"Expenditure Initiation with availability of funds\" by electronic mail (Word)</a>",
   "Date": "2005"
 },
 {
   "Branch": "Corporate Management Branch",
   "Topic": "Delegation of financial authorities",
   "Policy": "<a href=\"http://intranet.agr.gc.ca/agrisource/AgriDoc.do?id=3644423&lang=eng\">Authority Delegation Training (ADT) under the Policy on Learning, Training and Development (Word)</a>",
   "Date": "2006"
 },
 {
   "Branch": "Corporate Management Branch",
   "Topic": "Delegation of financial authorities",
   "Policy": "<a href=\"http://intranet.agr.gc.ca/agrisource/AgriDoc.do?id=3643682&lang=eng\">Delegation of Signing Authority Policy (Word)</a>",
   "Date": "2013"
 },
 {
   "Branch": "Corporate Management Branch",
   "Topic": "Delegation of financial authorities",
   "Policy": "<a href=\"http://intranet.agr.gc.ca/agrisource/AgriDoc.do?id=3644323&lang=eng\">Description of the Departmental Application of Delegated Financial Signing Authorities (Word)</a>",
   "Date": "2013"
 },
 {
   "Branch": "Corporate Management Branch",
   "Topic": "Delegation of financial authorities",
   "Policy": "<a href=\"http://www.tbs-sct.gc.ca/pol/doc-eng.aspx?id=32503\">Directive on Delegation of Spending and Financial Authorities</a>",
   "Date": "2017"
 },
 {
   "Branch": "Corporate Management Branch",
   "Topic": "Delegation of financial authorities",
   "Policy": "<a href=\"http://intranet.agr.gc.ca/agrisource/AgriDoc.do?id=3643898&lang=eng\">Granting, Communicating and Reviewing Authority (Word)</a>",
   "Date": "2012"
 },
 {
   "Branch": "Corporate Management Branch",
   "Topic": "Delegation of financial authorities",
   "Policy": "<a href=\"http://intranet.agr.gc.ca/agrisource/AgriDoc.do?id=3644266&lang=eng\">Specimen Signature Cards / Records (Word)</a>",
   "Date": "2012"
 },
 {
   "Branch": "Corporate Management Branch",
   "Topic": "Department bank accounts",
   "Policy": "<a href=\"http://intranet.agr.gc.ca/resources/prod/doc/cmb_dggi/policies_guidelines/dbay_cbmv_bank_accounts-eng.doc\">Departmental Bank Accounts (DBA) and You (Word, 113 KB)</a>",
   "Date": "2000"
 },
 {
   "Branch": "Corporate Management Branch",
   "Topic": "Department bank accounts",
   "Policy": "<a href=\"http://intranet.agr.gc.ca/resources/prod/doc/cmb_dggi/policies_guidelines/dept_bank_accts_comp_banc_minist-eng.doc\">Departmental Bank Accounts (Word, 137 KB)</a>",
   "Date": "2000"
 },
 {
   "Branch": "Corporate Management Branch",
   "Topic": "Extra gratia payments",
   "Policy": "<a href=\"http://intranet.agr.gc.ca/resources/prod/doc/cmb_dggi/policies_guidelines/dpgp_pmpg_grati_payments-eng.doc\">Policy on Ex Gratia Payments (Word, 47.5 KB)</a>",
   "Date": "2013"
 },
 {
   "Branch": "Corporate Management Branch",
   "Topic": "Extra gratia payments",
   "Policy": "<a href=\"http://intranet.agr.gc.ca/resources/prod/doc/cmb_dggi/policies_guidelines/procedure_gratia_payment-eng.doc\">Procedure for Ex Gratia Payment Authority Request (Word, 34.5 KB)</a>",
   "Date": "2013"
 },
 {
   "Branch": "Corporate Management Branch",
   "Topic": "Financial management",
   "Policy": "<a href=\"http://www.tbs-sct.gc.ca/pol/doc-eng.aspx?id=32495\">Policy on Financial Management</a>",
   "Date": "2017"
 },
 {
   "Branch": "Corporate Management Branch",
   "Topic": "Financial management",
   "Policy": "<a href=\"http://www.tbs-sct.gc.ca/pol/doc-eng.aspx?id=30641\">Guide on Financial Arrangements and Funding Options</a>",
   "Date": "1995"
 },
 {
   "Branch": "Corporate Management Branch",
   "Topic": "Financial management",
   "Policy": "<a href=\"http://publiservice.tbs-sct.gc.ca/fm-gf/tools-outils/guides/rf-fr/rf-fr00-eng.asp\">Guide on Revolving Funds</a>",
   "Date": "1997"
 },
 {
   "Branch": "Corporate Management Branch",
   "Topic": "Insurance",
   "Policy": "<a href=\"http://intranet.agr.gc.ca/resources/prod/doc/cmb_dggi/policies_guidelines/ins_proof_insurance-eng.doc\">Proof of Insurance (Word, 26 KB)</a>",
   "Date": "2012"
 },
 {
   "Branch": "Corporate Management Branch",
   "Topic": "Interchange Canada",
   "Policy": "<a href=\"http://www.tbs-sct.gc.ca/pol/doc-eng.aspx?id=12552\">Policy on Interchange Canada</a>",
   "Date": "2012"
 },
 {
   "Branch": "Corporate Management Branch",
   "Topic": "Interdepartmental settlements",
   "Policy": "<a href=\"http://intranet.agr.gc.ca/resources/prod/doc/cmb_dggi/policies_guidelines/aafc_aac_is_ri_gen_info-eng.doc\">AAFC Interdepartmental Settlement (IS) - Processing Guidelines (Word, 28.9 KB)</a>",
   "Date": "2012"
 },
 {
   "Branch": "Corporate Management Branch",
   "Topic": "Interdepartmental settlements",
   "Policy": "<a href=\"http://intranet.agr.gc.ca/resources/prod/doc/cmb_dggi/policies_guidelines/aafc_aac_is_ri_guide-eng.doc\">Departmental guide intended for use by other government departments (Word, 30.3 KB)</a>",
   "Date": "2012"
 },
 {
   "Branch": "Corporate Management Branch",
   "Topic": "Interdepartmental settlements",
   "Policy": "<a href=\"http://intranet.agr.gc.ca/resources/prod/doc/cmb_dggi/policies_guidelines/aafc_aac_is_ri_ogd_obt_pmt_amg-eng.doc\">Interdepartmental Settlements initiated by AAFC to obtain payment from another Government Department (Word, 29 KB)</a>",
   "Date": "2012"
 },
 {
   "Branch": "Corporate Management Branch",
   "Topic": "Interdepartmental settlements",
   "Policy": "<a href=\"http://intranet.agr.gc.ca/resources/prod/doc/cmb_dggi/policies_guidelines/aafc_aac_is_ri_ogd_pay_paie_amg-eng.doc\">Interdepartmental Settlements initiated by AAFC to pay another government department (Word, 29.8 KB)</a>",
   "Date": "2012"
 },
 {
   "Branch": "Corporate Management Branch",
   "Topic": "Interdepartmental settlements",
   "Policy": "<a href=\"http://intranet.agr.gc.ca/resources/prod/doc/cmb_dggi/policies_guidelines/aafc_aac_is_ri_other_autre_gov-eng.doc\">Interdepartmental Settlements initiated by another Government Department to obtain payment from AAFC (Word, 66.5 KB)</a>",
   "Date": "2012"
 },
 {
   "Branch": "Corporate Management Branch",
   "Topic": "Interdepartmental settlements",
   "Policy": "<a href=\"http://intranet.agr.gc.ca/resources/prod/doc/cmb_dggi/policies_guidelines/aafc_aac_is_ri_ogd_obt_pmt_amg-eng.doc\">Interdepartmental Settlements initiated by another Government Department to pay AAFC (Word, 29 KB)</a>",
   "Date": "2012"
 },
 {
   "Branch": "Corporate Management Branch",
   "Topic": "Interdepartmental settlements",
   "Policy": "<a href=\"http://gcintranet.tpsgc-pwgsc.gc.ca/rg/manuels-manuals/chap12/index-eng.html\">Receiver General Manual - Interdepartmental settlement processing</a>",
   "Date": "2017"
 },
 {
   "Branch": "Corporate Management Branch",
   "Topic": "Losses of money",
   "Policy": "<a href=\"http://intranet.agr.gc.ca/resources/prod/doc/cmb_dggi/policies_guidelines/loss_money_illegal_pertes_%20deniers_illegaux-eng.doc\">Losses of Money and/or Other Illegal Acts Against the Crown (Word, 94 KB) </a>",
   "Date": "2012"
 },
 {
   "Branch": "Corporate Management Branch",
   "Topic": "Losses of money",
   "Policy": "<a href=\"http://publiservice.tbs-sct.gc.ca/tbsib-bisct/messages/070207-eng.asp\">Penalties for Fraud Involving Taxpayers&apos; Money</a>",
   "Date": "2007"
 },
 {
   "Branch": "Corporate Management Branch",
   "Topic": "Material management",
   "Policy": "<a href=\"http://intranet.agr.gc.ca/agrisource/AgriDoc.do?id=3168798&lang=eng\">Material Management Archives (Word)</a>",
   "Date": "2016"
 },
 {
   "Branch": "Corporate Management Branch",
   "Topic": "Material management",
   "Policy": "<a href=\"http://intranet.agr.gc.ca/agrisource/AgriDoc.do?id=3168600&lang=eng\">Material Management Bulletins (Word)</a>",
   "Date": "2018"
 },
 {
   "Branch": "Corporate Management Branch",
   "Topic": "Material management",
   "Policy": "<a href=\"http://intranet.agr.gc.ca/agrisource/AgriDoc.do?id=3168784&lang=eng\">Material Management Guides and Quick References (Word)</a>",
   "Date": "2018"
 },
 {
   "Branch": "Corporate Management Branch",
   "Topic": "Membership fees",
   "Policy": "<a href=\"http://publiservice.tbs-sct.gc.ca/pubs_pol/hrpubs/tbm_113/inmfp-avplc-eng.asp\">Membership Fees Policy - Level of Approval - Collective Agreement</a>",
   "Date": "2002"
 },
 {
   "Branch": "Corporate Management Branch",
   "Topic": "Membership fees",
   "Policy": "<a href=\"http://publiservice.tbs-sct.gc.ca/Pubs_pol/hrpubs/TBM_113/inmfp-avplc-eng.asp\">Membership Fees Policy</a>",
   "Date": "2002"
 },
 {
   "Branch": "Corporate Management Branch",
   "Topic": "Membership fees",
   "Policy": "<a href=\"http://intranet.agr.gc.ca/resources/prod/doc/cmb_dggi/policies_guidelines/f8_membership_fees-eng.doc\">Membership Fees Policy (Word, 78 KB)</a>",
   "Date": "2002"
 },
 {
   "Branch": "Corporate Management Branch",
   "Topic": "Non-monetary transactions",
   "Policy": "<a href=\"http://intranet.agr.gc.ca/resources/prod/doc/cmb_dggi/policies_guidelines/policy_non_monetary_transactions-eng.doc\">Policy on Non-Monetary Transactions (Word, 49 KB)</a>",
   "Date": "2013"
 },
 {
   "Branch": "Corporate Management Branch",
   "Topic": "Payments",
   "Policy": "<a href=\"http://www.tbs-sct.gc.ca/pol/doc-eng.aspx?id=32504\">Directive on Payments</a>",
   "Date": "2017"
 },
 {
   "Branch": "Corporate Management Branch",
   "Topic": "Public money",
   "Policy": "<a href=\"http://www.tbs-sct.gc.ca/pol/doc-eng.aspx?id=32505\">Directive on Public Money and Receivables</a>",
   "Date": "2017"
 },
 {
   "Branch": "Corporate Management Branch",
   "Topic": "Public money",
   "Policy": "<a href=\"http://gcintranet.tpsgc-pwgsc.gc.ca/rg/drg-rgd/2008-2/index-eng.html\">Receiver General directive 2008-2: Deposit of public money to the credit of the Receiver General for Canada</a>",
   "Date": "2008"
 },
 {
   "Branch": "Corporate Management Branch",
   "Topic": "Real property",
   "Policy": "<a href=\"http://www.tbs-sct.gc.ca/pol/doc-eng.aspx?id=12044\">Accessibility Standard for Real Property</a>",
   "Date": "2006"
 },
 {
   "Branch": "Corporate Management Branch",
   "Topic": "Real property",
   "Policy": "<a href=\"http://intranet.agr.gc.ca/agrisource/AgriDoc.do?id=2620058&lang=eng\">Agriculture and Agri-Food Canada&apos;s Parking Policy (Word)</a>",
   "Date": "2010"
 },
 {
   "Branch": "Corporate Management Branch",
   "Topic": "Real property",
   "Policy": "<a href=\"http://www.tbs-sct.gc.ca/pol/doc-eng.aspx?id=17316\">Fire Protection Standard</a>",
   "Date": "2010"
 },
 {
   "Branch": "Corporate Management Branch",
   "Topic": "Real property",
   "Policy": "<a href=\"http://intranet.agr.gc.ca/agrisource/AgriDoc.do?id=101342156&lang=eng\">Policy on the Use of Real Property (Word)</a>",
   "Date": "2015"
 },
 {
   "Branch": "Corporate Management Branch",
   "Topic": "Real property",
   "Policy": "<a href=\"https://www.canada.ca/en/treasury-board-secretariat/services/federal-real-property-management.html\">Real Property - Policies and Publications</a>",
   "Date": "2016"
 },
 {
   "Branch": "Corporate Management Branch",
   "Topic": "Real property",
   "Policy": "<a href=\"http://intranet.agr.gc.ca/agrisource/AgriDoc.do?id=101316729&lang=eng\">Real Property Management Framework (Word)</a>",
   "Date": "2015"
 },
 {
   "Branch": "Corporate Management Branch",
   "Topic": "Real property",
   "Policy": "<a href=\"http://intranet.agr.gc.ca/agrisource/AgriDoc.do?id=101316732&lang=eng\">Real Property Policy (Word)</a>",
   "Date": "2015"
 },
 {
   "Branch": "Corporate Management Branch",
   "Topic": "Receivables, revenue & receipts",
   "Policy": "<a href=\"https://www.canada.ca/en/treasury-board-secretariat/services/reporting-government-spending/what-we-are-doing/revised-debt-write-off-regulations.html\">Debt Write off Regulations</a>",
   "Date": "1994"
 },
 {
   "Branch": "Corporate Management Branch",
   "Topic": "Receivables, revenue & receipts",
   "Policy": "<a href=\"http://intranet.agr.gc.ca/resources/prod/doc/cmb_dggi/policies_guidelines/collection_comptes_overdue_accts-eng.doc\">Collection of Overdue Accounts (Word, 80.5 KB) </a>",
   "Date": "2013"
 },
 {
   "Branch": "Corporate Management Branch",
   "Topic": "Receivables, revenue & receipts",
   "Policy": "<a href=\"http://intranet.agr.gc.ca/resources/prod/doc/cmb_dggi/policies_guidelines/deletions_debts_2018_radiation_creances-eng.doc\">Deletion of Debts (Word, 174 KB)</a>",
   "Date": "2003"
 },
 {
   "Branch": "Corporate Management Branch",
   "Topic": "Receivables, revenue & receipts",
   "Policy": "<a href=\"http://intranet.agr.gc.ca/resources/prod/doc/cmb_dggi/policies_guidelines/private_collection_agenc_recouv_privees-eng.doc\">Private Collection Agencies (Word, 73.5 KB)</a>",
   "Date": "2012"
 },
 {
   "Branch": "Corporate Management Branch",
   "Topic": "Receivables, revenue & receipts",
   "Policy": "<a href=\"http://intranet.agr.gc.ca/resources/prod/doc/cmb_dggi/policies_guidelines/receipts_accts_receiv_encaisse_compt_debite-eng.doc\">Receipts and Accounts Receivable (Word, 106 KB)</a>",
   "Date": "2013"
 },
 {
   "Branch": "Corporate Management Branch",
   "Topic": "Receivables, revenue & receipts",
   "Policy": "<a href=\"http://publiservice.tbs-sct.gc.ca/pubs_pol/hrpubs/tbm_11a/701-eng.asp\">Recovery of Amounts due to the Crown (by employees)</a>",
   "Date": "1991"
 },
 {
   "Branch": "Corporate Management Branch",
   "Topic": "Receivables, revenue & receipts",
   "Policy": "<a href=\"http://publiservice.tbs-sct.gc.ca/pubs_pol/dcgpubs/tbm_142/rias-eng.asp\">Regulatory Impact Analysis Statement</a>",
   "Date": "1996"
 },
 {
   "Branch": "Corporate Management Branch",
   "Topic": "Receivables, revenue & receipts",
   "Policy": "<a href=\"http://intranet.agr.gc.ca/resources/prod/doc/cmb_dggi/policies_guidelines/revenue_accts_receivables_deferred_revenue-eng.doc\">Revenue, Accounts Receivable, and Deferred Revenue (Word, 53 KB)</a>",
   "Date": "2001"
 },
 {
   "Branch": "Corporate Management Branch",
   "Topic": "Receivables, revenue & receipts",
   "Policy": "<a href=\"http://publiservice.tbs-sct.gc.ca/fm-gf/pol/in-ai/2002/0704-eng.asp\">Revised Policy on Receivables Management</a>",
   "Date": "2002"
 },
 {
   "Branch": "Corporate Management Branch",
   "Topic": "Relocation",
   "Policy": "<a href=\"https://www.canada.ca/en/treasury-board-secretariat/services/travel-relocation/executive-group-governor-in-council-appointees-relocation-provisions.html\">Executive Group and Governor In Council Appointees - Relocation Provision</a>",
   "Date": "2009"
 },
 {
   "Branch": "Corporate Management Branch",
   "Topic": "Relocation",
   "Policy": "<a href=\"https://www.canada.ca/en/treasury-board-secretariat/services/travel-relocation/addendum-initial-appointees-relocation-program.html\">Initial Appointees Integrated Relocation Program</a>",
   "Date": "2007"
 },
 {
   "Branch": "Corporate Management Branch",
   "Topic": "Relocation",
   "Policy": "<a href=\"http://intranet.agr.gc.ca/resources/prod/doc/cmb_dggi/relocation_faq_stb1-eng.doc\">Managers&apos; Frequently Asked Questions on Relocation (Word, 68 KB)</a>",
   "Date": "2017"
 },
 {
   "Branch": "Corporate Management Branch",
   "Topic": "Relocation",
   "Policy": "<a href=\"http://www.njc-cnm.gc.ca/directive/d3/en\">National Joint Council Foreign Service Directives</a>",
   "Date": "2013"
 },
 {
   "Branch": "Corporate Management Branch",
   "Topic": "Relocation",
   "Policy": "<a href=\"http://www.njc-cnm.gc.ca/directive/d6/en\">National Joint Council Relocation Directive</a>",
   "Date": "2009"
 },
 {
   "Branch": "Corporate Management Branch",
   "Topic": "Relocation",
   "Policy": "<a href=\"http://intranet.agr.gc.ca/resources/prod/doc/cmb_dggi/policies_guidelines/njc_cnm_relocation_directive-eng.doc\">NJC Relocation Directive: Items requiring Departmental National Coordinator&apos;s Approval (Word, 48.5 KB)\n</a>",
   "Date": "2012"
 },
 {
   "Branch": "Corporate Management Branch",
   "Topic": "Relocation",
   "Policy": "<a href=\"http://intranet.agr.gc.ca/resources/prod/doc/cmb_dggi/bulletins-eng.doc\">Relocation Bulletins, 1998-2010 (Word, 64 KB)</a>",
   "Date": "2012"
 },
 {
   "Branch": "Corporate Management Branch",
   "Topic": "Risk management",
   "Policy": "<a href=\"http://www.tbs-sct.gc.ca/pol/doc-eng.aspx?id=19422\">Framework for the Management of Risk</a>",
   "Date": "2010"
 },
 {
   "Branch": "Corporate Management Branch",
   "Topic": "Risk management",
   "Policy": "<a href=\"http://intranet.agr.gc.ca/agrisource/AgriDoc.do?id=4364840&lang=eng\">Framework for Integrated Risk and Opportunity Management (PDF)</a>",
   "Date": "2012"
 },
 {
   "Branch": "Corporate Management Branch",
   "Topic": "Risk management",
   "Policy": "<a href=\"http://intranet.agr.gc.ca/agrisource/AgriDoc.do?id=4364877&lang=eng\">Guide to Integrated Risk and Opportunity Management (PDF)</a>",
   "Date": "2012"
 },
 {
   "Branch": "Corporate Management Branch",
   "Topic": "Risk management",
   "Policy": "<a href=\"http://intranet.agr.gc.ca/agrisource/AgriDoc.do?id=4401386&lang=eng\">Integrated Program Risk Management Directive (PDF)</a>",
   "Date": "2012"
 },
 {
   "Branch": "Corporate Management Branch",
   "Topic": "Risk management",
   "Policy": "<a href=\"http://intranet.agr.gc.ca/agrisource/AgriDoc.do?id=101302517&lang=eng\">Integrated Risk and Opportunity Management Legislation, Guides, Tools and Policy Instruments (Word)</a>",
   "Date": "2017"
 },
 {
   "Branch": "Corporate Management Branch",
   "Topic": "Security",
   "Policy": "<a href=\"http://intranet.agr.gc.ca/agrisource/AgriDoc.do?id=101076815&lang=eng\">Administrative Investigation Directive (Word)</a>",
   "Date": "2013"
 },
 {
   "Branch": "Corporate Management Branch",
   "Topic": "Security",
   "Policy": "<a href=\"http://intranet.agr.gc.ca/agrisource/AgriDoc.do?id=3612506&lang=eng\">Agriculture and Agri-Food Canada Emergency Management Coordination Model (Word)</a>",
   "Date": "2011"
 },
 {
   "Branch": "Corporate Management Branch",
   "Topic": "Security",
   "Policy": "<a href=\"http://intranet.agr.gc.ca/agrisource/AgriDoc.do?id=3128433&lang=eng\">Departmental Security Plan (Word)</a>",
   "Date": "2012"
 },
 {
   "Branch": "Corporate Management Branch",
   "Topic": "Security",
   "Policy": "<a href=\"http://intranet.agr.gc.ca/agrisource/AgriDoc.do?id=3110828&lang=eng\">Departmental Security Policy (Word)</a>",
   "Date": "2011"
 },
 {
   "Branch": "Corporate Management Branch",
   "Topic": "Security",
   "Policy": "<a href=\"http://intranet.agr.gc.ca/agrisource/AgriDoc.do?id=3110851&lang=eng\">Deputy Minister&apos;s Direction on the Departmental Security Program (Word)</a>",
   "Date": "2012"
 },
 {
   "Branch": "Corporate Management Branch",
   "Topic": "Security",
   "Policy": "<a href=\"http://www.tbs-sct.gc.ca/pol/doc-eng.aspx?id=16579\">Directive on Departmental Security Management (TBS)</a>",
   "Date": "2009"
 },
 {
   "Branch": "Corporate Management Branch",
   "Topic": "Security",
   "Policy": "<a href=\"http://intranet.agr.gc.ca/agrisource/AgriDoc.do?id=3110825&lang=eng\">Directive on Departmental Security Management (AAFC) (Word)</a>",
   "Date": "2011"
 },
 {
   "Branch": "Corporate Management Branch",
   "Topic": "Security",
   "Policy": "<a href=\"http://intranet.agr.gc.ca/agrisource/AgriDoc.do?id=102794519&lang=eng\">Fraud Risk Management Program Directive (PDF)</a>",
   "Date": "2016"
 },
 {
   "Branch": "Corporate Management Branch",
   "Topic": "Security",
   "Policy": "<a href=\"http://intranet.agr.gc.ca/agrisource/AgriDoc.do?id=3122172&lang=eng\">Guide to Classification and Handling of Sensitive Information (Word)</a>",
   "Date": "2015"
 },
 {
   "Branch": "Corporate Management Branch",
   "Topic": "Security",
   "Policy": "<a href=\"https://collab.agr.gc.ca/co/dss-ssm/_layouts/DocIdRedir.aspx?ID=AGR-5715036\">Guideline on Building Emergency and Evacuation Plan </a>",
   "Date": "2015"
 },
 {
   "Branch": "Corporate Management Branch",
   "Topic": "Security",
   "Policy": "<a href=\"http://intranet.agr.gc.ca/agrisource/AgriDoc.do?id=3110831&lang=eng\">Information Technology (IT) Security Framework (Word)</a>",
   "Date": "2004"
 },
 {
   "Branch": "Corporate Management Branch",
   "Topic": "Security",
   "Policy": "<a href=\"http://intranet.agr.gc.ca/resources/prod/doc/cmb_dggi/dept_politi_min_passports_visas_policy-eng.doc\">Passports and Visas Policy (Word, 64.5 KB)</a>",
   "Date": "2012"
 },
 {
   "Branch": "Corporate Management Branch",
   "Topic": "Security",
   "Policy": "<a href=\"http://www.tbs-sct.gc.ca/pol/doc-eng.aspx?id=16578\">Policy on Government Security</a>",
   "Date": "2012"
 },
 {
   "Branch": "Corporate Management Branch",
   "Topic": "Security",
   "Policy": "<a href=\"http://intranet.agr.gc.ca/agrisource/AgriDoc.do?id=4427738&lang=eng\">Security Incident Management Program (Word)</a>",
   "Date": "2013"
 },
 {
   "Branch": "Corporate Management Branch",
   "Topic": "Security",
   "Policy": "<a href=\"http://intranet.agr.gc.ca/agrisource/AgriDoc.do?id=3535879&lang=eng\">Standard on Physical Security (Word)</a>",
   "Date": "2012"
 },
 {
   "Branch": "Corporate Management Branch",
   "Topic": "Security",
   "Policy": "<a href=\"http://www.tbs-sct.gc.ca/pol/doc-eng.aspx?id=28115\">Standard on Security Screening</a>",
   "Date": "2014"
 },
 {
   "Branch": "Corporate Management Branch",
   "Topic": "Security",
   "Policy": "<a href=\"http://intranet.agr.gc.ca/agrisource/AgriDoc.do?id=3535891&lang=eng\">Sweeps Disposal Regional Guide (Word)</a>",
   "Date": "2012"
 },
 {
   "Branch": "Corporate Management Branch",
   "Topic": "Special financial authorities",
   "Policy": "<a href=\"http://www.tbs-sct.gc.ca/pol/doc-eng.aspx?id=32502\">Directive on Charging and Special Financial Authorities</a>",
   "Date": "2017"
 },
 {
   "Branch": "Corporate Management Branch",
   "Topic": "Specified purpose accounts",
   "Policy": "<a href=\"http://intranet.agr.gc.ca/resources/prod/doc/cmb_dggi/policies_guidelines/fm_funding_mechanism-eng.doc\">Funding Mechanism (Word, 35 KB)</a>",
   "Date": "1996"
 },
 {
   "Branch": "Corporate Management Branch",
   "Topic": "Specified purpose accounts",
   "Policy": "<a href=\"http://intranet.agr.gc.ca/resources/prod/doc/cmb_dggi/policies_guidelines/spa_cfd_specified_purpose_acc-eng.doc\">Change in GST/HST Treatment for Specified Purpose Accounts (Word, 26 KB)  </a>",
   "Date": "2002"
 },
 {
   "Branch": "Corporate Management Branch",
   "Topic": "Specified purpose accounts",
   "Policy": "<a href=\"http://intranet.agr.gc.ca/resources/prod/doc/cmb_dggi/policies_guidelines/bulletin_financial_management-eng.doc\">Financial Management of Specified Purpose Accounts (Word, 27.5 KB)</a>",
   "Date": "2002"
 },
 {
   "Branch": "Corporate Management Branch",
   "Topic": "Tax",
   "Policy": "<a href=\"http://intranet.agr.gc.ca/resources/prod/doc/cmb_dggi/policies_guidelines/app_gst_tps_pai_transf-eng.doc\">Application of the Goods and Services Tax on Transfer Payments (Subsidies, Grants and Contributions) (Word, 50 KB)</a>",
   "Date": "1992"
 },
 {
   "Branch": "Corporate Management Branch",
   "Topic": "Tax",
   "Policy": "<a href=\"http://intranet.agr.gc.ca/resources/prod/doc/cmb_dggi/policies_guidelines/intellectual_property_tevenues-eng.doc\">Intellectual property revenues are subject to sales taxes (Word, 33.5 KB)</a>",
   "Date": "2005"
 },
 {
   "Branch": "Corporate Management Branch",
   "Topic": "Tax",
   "Policy": "<a href=\"http://intranet.agr.gc.ca/resources/prod/doc/cmb_dggi/policies_guidelines/reduction_rate_gst_hst-eng.doc\">Reduction in the rate of the Goods and Services Tax/Harmonized Sales Tax (Word, 35.5 KB)</a>",
   "Date": "2006"
 },
 {
   "Branch": "Corporate Management Branch",
   "Topic": "Tax",
   "Policy": "<a href=\"http://intranet.agr.gc.ca/resources/prod/doc/cmb_dggi/policies_guidelines/bulletin_1995_mapp-eng.doc\">Contracting for the Services of Individuals (Word, 32.5 KB)</a>",
   "Date": "1995"
 },
 {
   "Branch": "Corporate Management Branch",
   "Topic": "Tax",
   "Policy": "<a href=\"http://www.tbs-sct.gc.ca/pol/doc-eng.aspx?id=19018\">Guideline on the Application of Goods and Services Tax/Harmonized Sales Tax</a>",
   "Date": "2010"
 },
 {
   "Branch": "Corporate Management Branch",
   "Topic": "Tax",
   "Policy": "<a href=\"http://intranet.agr.gc.ca/resources/prod/doc/cmb_dggi/policies_guidelines/1995_fppm_mpmf_bulletin-eng.doc\">Motor Vehicles (Word, 39 KB)</a>",
   "Date": "1995"
 },
 {
   "Branch": "Corporate Management Branch",
   "Topic": "Tax",
   "Policy": "<a href=\"http://intranet.agr.gc.ca/resources/prod/doc/cmb_dggi/policies_guidelines//tax_gst_hst_goods_services-eng.doc\">Policy on the Application of the Goods and Services Tax and the Harmonized Sales Tax on Expenditures (Word, 96 KB)</a>",
   "Date": "2008"
 },
 {
   "Branch": "Corporate Management Branch",
   "Topic": "Tax",
   "Policy": "<a href=\"http://intranet.agr.gc.ca/resources/prod/doc/cmb_dggi/policies_guidelines/plcy_app_goods_services_tax-eng.doc\">Policy on the Application of the Goods and Services Tax and the Harmonized Sales Tax on Revenue (Word, 99.5 KB)</a>",
   "Date": "2007"
 },
 {
   "Branch": "Corporate Management Branch",
   "Topic": "Tax",
   "Policy": "<a href=\"http://intranet.agr.gc.ca/resources/prod/doc/cmb_dggi/policies_guidelines/payment_collection_prov-eng.doc\">Policy on the Payment, Collection and Remittance of Provincial Taxes and Fees (Word, 114 KB)</a>",
   "Date": "2011"
 },
 {
   "Branch": "Corporate Management Branch",
   "Topic": "Tax",
   "Policy": "<a href=\"http://www.tbs-sct.gc.ca/pol/doc-eng.aspx?id=19028\">Summary of Reciprocal Taxation Agreements with Provinces and Territories</a>",
   "Date": "2013"
 },
 {
   "Branch": "Corporate Management Branch",
   "Topic": "Tax",
   "Policy": "<a href=\"http://intranet.agr.gc.ca/resources/prod/doc/cmb_dggi/policies_guidelines/mapp_mpma_bulletin-eng.doc\">Supplemental Invoicing Instructions (Word, 41.5 KB)  </a>",
   "Date": "1998"
 },
 {
   "Branch": "Corporate Management Branch",
   "Topic": "Tax",
   "Policy": "<a href=\"https://buyandsell.gc.ca/policy-and-guidelines/supply-manual\">Supply Manual</a>",
   "Date": "2017"
 },
 {
   "Branch": "Corporate Management Branch",
   "Topic": "Tax",
   "Policy": "<a href=\"http://intranet.agr.gc.ca/resources/prod/doc/cmb_dggi/policies_guidelines/fppm_mpmf_bulletin_tuit_reimbursements-eng.doc\">Tuition Reimbursements (Word, 35 KB)</a>",
   "Date": "1993"
 },
 {
   "Branch": "Corporate Management Branch",
   "Topic": "Taxi",
   "Policy": "<a href=\"http://intranet.agr.gc.ca/resources/prod/doc/cmb_dggi/policies_guidelines/proced_method_bons_taxi_chits-eng.doc\">Taxi - Use of Taxi Chits (Word, 19.2 KB)</a>",
   "Date": "2006"
 },
 {
   "Branch": "Corporate Management Branch",
   "Topic": "Transfer payments",
   "Policy": "<a href=\"http://publiservice.tbs-sct.gc.ca/pubs_pol/dcgpubs/tbm_142/tpiic-ptqe-eng.asp\">Policy on Transfer Payments - Implementation Issues and Clarification </a>",
   "Date": "2001"
 },
 {
   "Branch": "Corporate Management Branch",
   "Topic": "Transfer payments",
   "Policy": "<a href=\"http://intranet.agr.gc.ca/resources/prod/doc/cmb_dggi/policies_guidelines/fin_transfert-eng.doc\">Changes to the Policy on Transfer Payments and Directive on Transfer Payments (Word, 45.5 KB)</a>",
   "Date": "2009"
 },
 {
   "Branch": "Corporate Management Branch",
   "Topic": "Transfer payments",
   "Policy": "<a href=\"http://publiservice.tbs-sct.gc.ca/fm-gf/tools-outils/guides/ggcotp-gscapttb-eng.asp\">Guide on Grants, Contributions and Other Transfer Payments</a>",
   "Date": "2002"
 },
 {
   "Branch": "Corporate Management Branch",
   "Topic": "Transfer payments",
   "Policy": "<a href=\"http://intranet.agr.gc.ca/resources/prod/doc/cmb_dggi/policies_guidelines/ikk_contri_transfpay_contri_ntr_paietransf_4-eng.docx\">In-Kind Contributions - Transfer Payments (Word, 33 KB)</a>",
   "Date": "2015"
 },
 {
   "Branch": "Corporate Management Branch",
   "Topic": "Transfer payments",
   "Policy": "<a href=\"http://www.tbs-sct.gc.ca/pol/doc-eng.aspx?id=13525\">Policy on Transfer Payments</a>",
   "Date": "2012"
 },
 {
   "Branch": "Corporate Management Branch",
   "Topic": "Transfer payments",
   "Policy": "<a href=\"http://intranet.agr.gc.ca/resources/prod/doc/cmb_dggi/policies_guidelines/acctg_plcy_transf_pay_gc_paie_transf_sc-eng.doc\">Transfer Payments (Grants and Contributions) (Word, 61.5 KB)</a>",
   "Date": "2001"
 },
 {
   "Branch": "Corporate Management Branch",
   "Topic": "Travel & hospitality",
   "Policy": "<a href=\"http://intranet.agr.gc.ca/agrisource/AgriDoc.do?id=3659041&lang=eng\">AAFC Guidelines for Hospitality under $1,500 (Word)</a>",
   "Date": "2017"
 },
 {
   "Branch": "Corporate Management Branch",
   "Topic": "Travel & hospitality",
   "Policy": "<a href=\"http://intranet.agr.gc.ca/agrisource/AgriDoc.do?id=101748667&lang=eng\">Directive on Travel Costs for Grants and Contributions Programs (Word)</a>",
   "Date": "2015"
 },
 {
   "Branch": "Corporate Management Branch",
   "Topic": "Travel & hospitality",
   "Policy": "<a href=\"http://www.njc-cnm.gc.ca/directive/d10/v238/s659/sv3/en\">National Joint Council Travel Directive - Domestic Meal Allowances</a>",
   "Date": "2017"
 },
 {
   "Branch": "Corporate Management Branch",
   "Topic": "Travel & hospitality",
   "Policy": "<a href=\"http://www.tbs-sct.gc.ca/pol/doc-eng.aspx?id=27228\">Directive on Travel, Hospitality, Conference and Event Expenditures</a>",
   "Date": "2017"
 },
 {
   "Branch": "Corporate Management Branch",
   "Topic": "Travel & hospitality",
   "Policy": "<a href=\"http://publiservice.tbs-sct.gc.ca/pd-dp/dthe-dfva/index-eng.asp\">Disclosure of Travel and Hospitality Expenses</a>",
   "Date": "2013"
 },
 {
   "Branch": "Corporate Management Branch",
   "Topic": "Travel & hospitality",
   "Policy": "<a href=\"http://www.njc-cnm.gc.ca/directive/app_d.php?lang=en&drv_id=48\">National Joint Council Travel Directive - Foreign Meal Allowances</a>",
   "Date": "2017"
 },
 {
   "Branch": "Corporate Management Branch",
   "Topic": "Travel & hospitality",
   "Policy": "<a href=\"https://www.canada.ca/en/treasury-board-secretariat/services/travel-relocation/travel-government-business.html\">Travel on government business</a>",
   "Date": "2015"
 },
 {
   "Branch": "Human Resources Directorate",
   "Topic": "Accessibility & workplace accommodation",
   "Policy": "<a href=\"http://intranet.agr.gc.ca/agrisource/AgriDoc.do?id=2866613&lang=eng\">Workplace Accommodation Policy (Word)</a>",
   "Date": "2002"
 },
 {
   "Branch": "Human Resources Directorate",
   "Topic": "Accessibility & workplace accommodation",
   "Policy": "<a href=\"https://www.canada.ca/en/treasury-board-secretariat/services/values-ethics/diversity-equity/duty-accommodate-general-process-managers.html\">Duty to Accommodate: A General Process for Managers</a>",
   "Date": "2011"
 },
 {
   "Branch": "Human Resources Directorate",
   "Topic": "Accessibility & workplace accommodation",
   "Policy": "<a href=\"http://intranet.agr.gc.ca/agrisource/AgriDoc.do?id=100099888&lang=eng\">Duty to Accommodate: Workplace Accommodation Guidelines (Word)</a>",
   "Date": "2014"
 },
 {
   "Branch": "Human Resources Directorate",
   "Topic": "Accessibility & workplace accommodation",
   "Policy": "<a href=\"https://www.canada.ca/en/treasury-board-secretariat/services/values-ethics/diversity-equity/disability-management/handling-disability-management-cases-accommodation.html\">Handling Disability Management Cases - Accommodation</a>",
   "Date": "2011"
 },
 {
   "Branch": "Human Resources Directorate",
   "Topic": "Accessibility & workplace accommodation",
   "Policy": "<a href=\"http://www.tbs-sct.gc.ca/pol/doc-eng.aspx?id=12541\">Policy on the Duty to Accommodate Persons with Disabilities in the Federal Public Service</a>",
   "Date": "2002"
 },
 {
   "Branch": "Human Resources Directorate",
   "Topic": "Injury-on-duty",
   "Policy": "<a href=\"http://www.tbs-sct.gc.ca/pol/doc-eng.aspx?id=12139\">Injury-on-Duty Leave</a>",
   "Date": "1992"
 },
 {
   "Branch": "Human Resources Directorate",
   "Topic": "Alternative working arrangements",
   "Policy": "<a href=\"http://intranet.agr.gc.ca/resources/prod/pdf/hrb_dgrh/AWAd2-eng.pdf\">Checklist for Managers - Approval of Telework/Occasional Work from Home (PDF, 19.7 KB)</a>",
   "Date": "2007"
 },
 {
   "Branch": "Human Resources Directorate",
   "Topic": "Alternative working arrangements",
   "Policy": "<a href=\"http://intranet.agr.gc.ca/resources/prod/pdf/hrb_dgrh/AWAb-eng.pdf\">Collective Agreement Reference Chart (PDF, 34.7 KB)</a>",
   "Date": "2007"
 },
 {
   "Branch": "Human Resources Directorate",
   "Topic": "Alternative working arrangements",
   "Policy": "<a href=\"http://intranet.agr.gc.ca/resources/prod/pdf/hrb_dgrh/AWAa-eng.pdf\">Departmental Alternative Working Arrangements - Definitions (PDF, 19.9 KB)</a>",
   "Date": "2007"
 },
 {
   "Branch": "Human Resources Directorate",
   "Topic": "Alternative working arrangements",
   "Policy": "<a href=\"http://intranet.agr.gc.ca/resources/prod/pdf/hrb_dgrh/AWAd4c-eng.pdf\">Departmental Checklist for Evaluation of Telework Arrangements (PDF, 15.8 KB)</a>",
   "Date": "2007"
 },
 {
   "Branch": "Human Resources Directorate",
   "Topic": "Alternative working arrangements",
   "Policy": "<a href=\"http://intranet.agr.gc.ca/resources/prod/pdf/hrb_dgrh/AWAf-eng.pdf\">Departmental Guidelines for Flexible Hours of Work (PDF, 64.9 KB)</a>",
   "Date": "2007"
 },
 {
   "Branch": "Human Resources Directorate",
   "Topic": "Alternative working arrangements",
   "Policy": "<a href=\"http://intranet.agr.gc.ca/resources/prod/pdf/hrb_dgrh/AWAg-eng.pdf\">Departmental Guidelines for Part-time Employment/ Job-Sharing (PDF, 79.5 KB)</a>",
   "Date": "2007"
 },
 {
   "Branch": "Human Resources Directorate",
   "Topic": "Alternative working arrangements",
   "Policy": "<a href=\"http://intranet.agr.gc.ca/resources/prod/pdf/hrb_dgrh/AWAd-eng.pdf\">Departmental Guidelines for Telework/Occasional Work from Home (PDF, 209.3 KB)</a>",
   "Date": "2007"
 },
 {
   "Branch": "Human Resources Directorate",
   "Topic": "Alternative working arrangements",
   "Policy": "<a href=\"http://intranet.agr.gc.ca/resources/prod/pdf/hrb_dgrh/AWAe-eng.pdf\">Departmental Guidelines for Variable Hours of Work (Compressed) (PDF, 177.8 KB)</a>",
   "Date": "2007"
 },
 {
   "Branch": "Human Resources Directorate",
   "Topic": "Alternative working arrangements",
   "Policy": "<a href=\"http://intranet.agr.gc.ca/resources/prod/pdf/hrb_dgrh/AWAh-eng.pdf\">Departmental Monitoring and Evaluation (PDF, 19.7 KB)</a>",
   "Date": "2007"
 },
 {
   "Branch": "Human Resources Directorate",
   "Topic": "Alternative working arrangements",
   "Policy": "<a href=\"https://forms-formulaires.agr.gc.ca/pdf/A5216-E.pdf\">Departmental Telework Agreement and Safety Checklist (PDF, 1.36 MB)</a>",
   "Date": "2018"
 },
 {
   "Branch": "Human Resources Directorate",
   "Topic": "Alternative working arrangements",
   "Policy": "<a href=\"http://intranet.agr.gc.ca/resources/prod/pdf/hrb_dgrh/A3193-eng.pdf\">Departmental Variable Hours of Work (Compressed) Approval Form (PDF, 592.8 KB)</a>",
   "Date": "2007"
 },
 {
   "Branch": "Human Resources Directorate",
   "Topic": "Alternative working arrangements",
   "Policy": "<a href=\"http://www.tbs-sct.gc.ca/pol/doc-eng.aspx?id=15774\">Directive on Leave and Special Working Arrangements</a>",
   "Date": "2009"
 },
 {
   "Branch": "Human Resources Directorate",
   "Topic": "Alternative working arrangements",
   "Policy": "<a href=\"http://intranet.agr.gc.ca/resources/prod/pdf/hrb_dgrh/AWA-eng.pdf\">Policy on Alternative Working Arrangements (PDF, 375.6 KB)</a>",
   "Date": "2007"
 },
 {
   "Branch": "Human Resources Directorate",
   "Topic": "Alternative working arrangements",
   "Policy": "<a href=\"http://intranet.agr.gc.ca/agrisource/AgriDoc.do?id=3057644&lang=eng\">Science and Technology Branch Post-Retirement Options (Word)</a>",
   "Date": "2011"
 },
 {
   "Branch": "Human Resources Directorate",
   "Topic": "Alternative working arrangements",
   "Policy": "<a href=\"http://www.tbs-sct.gc.ca/pol/doc-eng.aspx?id=12559\">Telework Policy</a>",
   "Date": "1999"
 },
 {
   "Branch": "Human Resources Directorate",
   "Topic": "Awards & recognition",
   "Policy": "<a href=\"https://www.canada.ca/en/revenue-agency/services/tax/businesses/topics/payroll/benefits-allowances/gifts-awards-social-events/gifts-awards-long-service-awards.html\">Canada Revenue Agency Policy for Gifts and Awards</a>",
   "Date": "2016"
 },
 {
   "Branch": "Human Resources Directorate",
   "Topic": "Awards & recognition",
   "Policy": "<a href=\"https://collab.agr.gc.ca/co/stb-prp_ppr-dgst/_layouts/DocIdRedir.aspx?ID=AGR-5464224\">Agriculture and Agri-Food Canada Inventions and Innovations Award Policy and Guidelines</a>",
   "Date": "2014"
 },
 {
   "Branch": "Human Resources Directorate",
   "Topic": "Awards & recognition",
   "Policy": "<a href=\"http://intranet.agr.gc.ca/agrisource/AgriDoc.do?id=2593447&lang=eng\">Career Milestone Award Guidelines (Word)</a>",
   "Date": "2017"
 },
 {
   "Branch": "Human Resources Directorate",
   "Topic": "Awards & recognition",
   "Policy": "<a href=\"http://intranet.agr.gc.ca/agrisource/AgriDoc.do?id=2558190&lang=eng\">Departmental Awards and Recognition Policy (Word)</a>",
   "Date": "2016"
 },
 {
   "Branch": "Human Resources Directorate",
   "Topic": "Awards & recognition",
   "Policy": "<a href=\"http://intranet.agr.gc.ca/agrisource/AgriDoc.do?id=2468564&lang=eng\">Deputy Minister Commendation Award Guidelines (Word)</a>",
   "Date": "2017"
 },
 {
   "Branch": "Human Resources Directorate",
   "Topic": "Awards & recognition",
   "Policy": "<a href=\"http://intranet.agr.gc.ca/agrisource/AgriDoc.do?id=2468551&lang=eng\">Gold Harvest Award Guidelines (Word)</a>",
   "Date": "2016"
 },
 {
   "Branch": "Human Resources Directorate",
   "Topic": "Awards & recognition",
   "Policy": "<a href=\"http://intranet.agr.gc.ca/agrisource/AgriDoc.do?id=2476907&lang=eng\">Instant Awards Guidelines (Word)</a>",
   "Date": "2016"
 },
 {
   "Branch": "Human Resources Directorate",
   "Topic": "Awards & recognition",
   "Policy": "<a href=\"http://intranet.agr.gc.ca/agrisource/AgriDoc.do?id=2594233&lang=eng\">Retirement Gift Guidelines (Word)</a>",
   "Date": "2017"
 },
 {
   "Branch": "Human Resources Directorate",
   "Topic": "Career advancement (research scientists)",
   "Policy": "<a href=\"http://intranet.agr.gc.ca/resources/prod/doc/hrb_dgrh/career_prog_avance_prof_int-eng.doc\">Career Progression Management Framework for Federal Researchers (Word, 227 KB)</a>",
   "Date": "2006"
 },
 {
   "Branch": "Human Resources Directorate",
   "Topic": "Career advancement (research scientists)",
   "Policy": "<a href=\"http://intranet.agr.gc.ca/agrisource/AgriDoc.do?id=3104393&lang=eng\">Independent Recourse Mechanism - Addendum to the Career Progression Management Framework for Federal Researchers (Word)</a>",
   "Date": "2011"
 },
 {
   "Branch": "Human Resources Directorate",
   "Topic": "Classification",
   "Policy": "<a href=\"http://www.tbs-sct.gc.ca/pol/doc-eng.aspx?id=28697\">Policy on Classification</a>",
   "Date": "2015"
 },
 {
   "Branch": "Human Resources Directorate",
   "Topic": "Classification",
   "Policy": "<a href=\"http://www.tbs-sct.gc.ca/pol/doc-eng.aspx?id=28700\">Directive on Classification</a>",
   "Date": "2015"
 },
 {
   "Branch": "Human Resources Directorate",
   "Topic": "Classification",
   "Policy": "<a href=\"http://www.tbs-sct.gc.ca/pol/doc-eng.aspx?id=28698\">Directive on Classification Grievances</a>",
   "Date": "2015"
 },
 {
   "Branch": "Human Resources Directorate",
   "Topic": "Compensation",
   "Policy": "<a href=\"http://intranet.agr.gc.ca/agrisource/AgriDoc.do?id=2966297&lang=eng\">Compensation Monitoring Framework (Word)</a>",
   "Date": "2010"
 },
 {
   "Branch": "Human Resources Directorate",
   "Topic": "Delegation of human resources authorities",
   "Policy": "<a href=\"http://intranet.agr.gc.ca/resources/prod/pdf/hrb_dgrh/cal_ndm-eng.pdf\">Administration of Oath Sub-delegates document (PDF, 7.4 KB)</a>",
   "Date": "2006"
 },
 {
   "Branch": "Human Resources Directorate",
   "Topic": "Delegation of human resources authorities",
   "Policy": "<a href=\"https://www.canada.ca/en/public-service-commission/services/appointment-framework/delegation-overview/appointment-delegation-accountability-instrument.html\">Appointment Delegation and Accountability Instrument</a>",
   "Date": "2016"
 },
 {
   "Branch": "Human Resources Directorate",
   "Topic": "Delegation of human resources authorities",
   "Policy": "<a href=\"http://intranet.agr.gc.ca/agrisource/AgriDoc.do?id=3398553&lang=eng\">Instrument of Human Resources Authorities (PDF)</a>",
   "Date": "2017"
 },
 {
   "Branch": "Human Resources Directorate",
   "Topic": "Employment equity & inclusiveness",
   "Policy": "<a href=\"http://www.tbs-sct.gc.ca/pol/doc-eng.aspx?id=12543\">Employment Equity Policy</a>",
   "Date": "1999"
 },
 {
   "Branch": "Human Resources Directorate",
   "Topic": "Learning & development",
   "Policy": "<a href=\"http://intranet.agr.gc.ca/resources/prod/doc/cmb_dggi/policies_guidelines/continuous_learning_policy-eng.doc\">Departmental Continuous Learning Policy (Word)</a>",
   "Date": "2019"
 },
 {
   "Branch": "Human Resources Directorate",
   "Topic": "Learning & development",
   "Policy": "<a href=\"http://www.tbs-sct.gc.ca/pol/doc-eng.aspx?id=12407\">Directive on the Administration of Required Training</a>",
   "Date": "2006"
 },
 {
   "Branch": "Human Resources Directorate",
   "Topic": "Learning & development",
   "Policy": "<a href=\"https://forms-formulaires.agr.gc.ca/pdf/A6171-E.pdf\">Education Leave - Assessment of Application (PDF, 187.7 KB)</a>",
   "Date": "2014"
 },
 {
   "Branch": "Human Resources Directorate",
   "Topic": "Learning & development",
   "Policy": "<a href=\"http://intranet.agr.gc.ca/agrisource/AgriDoc.do?id=4148024&lang=eng\">Education Leave - Roles and Responsibilities (PDF)</a>",
   "Date": "2012"
 },
 {
   "Branch": "Human Resources Directorate",
   "Topic": "Learning & development",
   "Policy": "<a href=\"http://intranet.agr.gc.ca/resources/prod/doc/hrb_dgrh/education_leave_2019-eng.DOCX\">Education Leave Directive (Word)</a>",
   "Date": "2019"
 },
 {
   "Branch": "Human Resources Directorate",
   "Topic": "Learning & development",
   "Policy": "<a href=\"http://www.tbs-sct.gc.ca/pol/doc-eng.aspx?id=12405\">Policy on Learning, Training and Development</a>",
   "Date": "2006"
 },
 {
   "Branch": "Human Resources Directorate",
   "Topic": "Occupational health & safety",
   "Policy": "<a href=\"http://intranet.agr.gc.ca/agrisource/AgriDoc.do?id=2275286&lang=eng\">Chemical Emergency Response Teams Standard (Word)</a>",
   "Date": "2008"
 },
 {
   "Branch": "Human Resources Directorate",
   "Topic": "Occupational health & safety",
   "Policy": "<a href=\"http://intranet.agr.gc.ca/agrisource/AgriDoc.do?id=2055765&lang=eng\">Departmental Policy on Occupational Health and Safety (PDF)</a>",
   "Date": "2007"
 },
 {
   "Branch": "Human Resources Directorate",
   "Topic": "Occupational health & safety",
   "Policy": "<a href=\"http://intranet.agr.gc.ca/agrisource/AgriDoc.do?id=101162102&lang=eng\">Directive on Smoking and the Use of Electronic Cigarettes in the Workplace (Word)</a>",
   "Date": "2015"
 },
 {
   "Branch": "Human Resources Directorate",
   "Topic": "Occupational health & safety",
   "Policy": "<a href=\"http://intranet.agr.gc.ca/agrisource/AgriDoc.do?id=3670488&lang=eng\">Directive on the Safe Use of In-Vehicle Telematics (Word)</a>",
   "Date": "2012"
 },
 {
   "Branch": "Human Resources Directorate",
   "Topic": "Occupational health & safety",
   "Policy": "<a href=\"http://intranet.agr.gc.ca/agrisource/AgriDoc.do?id=100091648&lang=eng\">Firearm Use Directive (Word)</a>",
   "Date": "2014"
 },
 {
   "Branch": "Human Resources Directorate",
   "Topic": "Occupational health & safety",
   "Policy": "<a href=\"http://intranet.agr.gc.ca/agrisource/AgriDoc.do?id=3513429&lang=eng\">Five Departmental Standards for Adjustment Features on Office Chairs (Word)</a>",
   "Date": "2017"
 },
 {
   "Branch": "Human Resources Directorate",
   "Topic": "Occupational health & safety",
   "Policy": "<a href=\"http://intranet.agr.gc.ca/agrisource/AgriDoc.do?id=3397955&lang=eng\">Guideline on Office Ergonomics (PDF)</a>",
   "Date": "2011"
 },
 {
   "Branch": "Human Resources Directorate",
   "Topic": "Occupational health & safety",
   "Policy": "<a href=\"http://www.njc-cnm.gc.ca/directive/d7/en\">National Joint Council Occupational Health and Safety Directive</a>",
   "Date": "2011"
 },
 {
   "Branch": "Human Resources Directorate",
   "Topic": "Occupational health & safety",
   "Policy": "<a href=\"http://intranet.agr.gc.ca/agrisource/AgriDoc.do?id=2083724&lang=eng\">Occupational Exposure to Sunlight, Heat and High Humidity Policy (Word)</a>",
   "Date": "2010"
 },
 {
   "Branch": "Human Resources Directorate",
   "Topic": "Occupational health & safety",
   "Policy": "<a href=\"http://intranet.agr.gc.ca/agrisource/AgriDoc.do?id=3670480&lang=eng\">Policy Concerning the Occupational Health and Safety of Employees (Word)</a>",
   "Date": "2012"
 },
 {
   "Branch": "Human Resources Directorate",
   "Topic": "Occupational health & safety",
   "Policy": "<a href=\"http://intranet.agr.gc.ca/agrisource/AgriDoc.do?id=2083721&lang=eng\">Policy on the Safe Use of Cell Phones and Other Wireless Communication Devices (Word)</a>",
   "Date": "2002"
 },
 {
   "Branch": "Human Resources Directorate",
   "Topic": "Occupational health & safety",
   "Policy": "<a href=\"http://intranet.agr.gc.ca/agrisource/AgriDoc.do?id=2083726&lang=eng\">Policy on Working Alone (Word)</a>",
   "Date": "2003"
 },
 {
   "Branch": "Human Resources Directorate",
   "Topic": "Occupational health & safety",
   "Policy": "<a href=\"http://intranet.agr.gc.ca/agrisource/AgriDoc.do?id=1690447&lang=eng\">Procedures for Hazardous Occurrence Reporting and Recording (Word)</a>",
   "Date": "2016"
 },
 {
   "Branch": "Human Resources Directorate",
   "Topic": "Occupational health & safety",
   "Policy": "<a href=\"http://intranet.agr.gc.ca/agrisource/AgriDoc.do?id=4372881&lang=eng\">Working Alone Directive  (Word)</a>",
   "Date": "2014"
 },
 {
   "Branch": "Human Resources Directorate",
   "Topic": "Occupational health & safety",
   "Policy": "<a href=\"http://intranet.agr.gc.ca/agrisource/AgriDoc.do?id=2991658&lang=eng\">Workplace Violence Prevention Policy and Guideline (Word)</a>",
   "Date": "2015"
 },
 {
   "Branch": "Human Resources Directorate",
   "Topic": "Official languages",
   "Policy": "<a href=\"http://intranet.agr.gc.ca/agrisource/AgriDoc.do?id=3191356&lang=eng\">Agriculture and Agri-Food Canada Guidelines on Official Languages and Language of Supervision (Word)</a>",
   "Date": "2014"
 },
 {
   "Branch": "Human Resources Directorate",
   "Topic": "Official languages",
   "Policy": "<a href=\"http://intranet.agr.gc.ca/agrisource/AgriDoc.do?id=3112133&lang=eng\">Agriculture and Agri-Food Canada Policy on Language of Work (Word)</a>",
   "Date": "2014"
 },
 {
   "Branch": "Human Resources Directorate",
   "Topic": "Official languages",
   "Policy": "<a href=\"http://intranet.agr.gc.ca/agrisource/AgriDoc.do?id=3715240&lang=eng\">Agriculture and Agri-Food Canada&apos;s Official Languages Accountability Framework (Word)</a>",
   "Date": "2015"
 },
 {
   "Branch": "Human Resources Directorate",
   "Topic": "Official languages",
   "Policy": "<a href=\"http://www.tbs-sct.gc.ca/pol/doc-eng.aspx?id=26164\">Directive on Official Languages for Communications and Services</a>",
   "Date": "2012"
 },
 {
   "Branch": "Human Resources Directorate",
   "Topic": "Official languages",
   "Policy": "<a href=\"http://www.tbs-sct.gc.ca/pol/doc-eng.aspx?id=26168\">Directive on Official Languages for People Management</a>",
   "Date": "2012"
 },
 {
   "Branch": "Human Resources Directorate",
   "Topic": "Official languages",
   "Policy": "<a href=\"http://www.tbs-sct.gc.ca/pol/doc-eng.aspx?id=26163\">Directive on the Implementation of the Official Languages (Communications with and Services to the Public) Regulations</a>",
   "Date": "2012"
 },
 {
   "Branch": "Human Resources Directorate",
   "Topic": "Official languages",
   "Policy": "<a href=\"http://www.tbs-sct.gc.ca/pol/doc-eng.aspx?id=26160\">Policy on Official Languages</a>",
   "Date": "2012"
 },
 {
   "Branch": "Human Resources Directorate",
   "Topic": "Performance management",
   "Policy": "<a href=\"http://www.tbs-sct.gc.ca/pol/doc-eng.aspx?id=27146\">Directive on Performance Management</a>",
   "Date": "2014"
 },
 {
   "Branch": "Human Resources Directorate",
   "Topic": "Performance management",
   "Policy": "<a href=\"http://www.tbs-sct.gc.ca/pol/doc-eng.aspx?id=14226\">Directive on the Performance Management Program (PMP) for Executives</a>",
   "Date": "2007"
 },
 {
   "Branch": "Human Resources Directorate",
   "Topic": "Performance management",
   "Policy": "<a href=\"http://intranet.canada.ca/hr-rh/ptm-grt/pm-gr/pmc-dgr/faq-eng.asp\">Frequently Asked Questions on the Directive on Performance Management</a>",
   "Date": "2016"
 },
 {
   "Branch": "Human Resources Directorate",
   "Topic": "Performance management",
   "Policy": "<a href=\"http://www.tbs-sct.gc.ca/gui/gpmpr-eng.asp\">Guidelines on Performance Management for Certain Senior Excluded or Unrepresented Managers and Specialists</a>",
   "Date": "2008"
 },
 {
   "Branch": "Human Resources Directorate",
   "Topic": "Performance management",
   "Policy": "<a href=\"https://www.canada.ca/en/treasury-board-secretariat/services/performance-talent-management/performance-management-program-employees.html\">Performance Management Program for Employees</a>",
   "Date": "2015"
 },
 {
   "Branch": "Human Resources Directorate",
   "Topic": "Performance management",
   "Policy": "<a href=\"http://intranet.agr.gc.ca/agrisource/AgriDoc.do?id=100276241&lang=eng\">Performance Management Review Panels - Guidelines (PDF)</a>",
   "Date": "2016"
 },
 {
   "Branch": "Human Resources Directorate",
   "Topic": "Separations",
   "Policy": "<a href=\"http://intranet.agr.gc.ca/agrisource/AgriDoc.do?id=2644746&lang=eng\">AAFC Guide to Separations (Word)</a>",
   "Date": "2015"
 },
 {
   "Branch": "Human Resources Directorate",
   "Topic": "Separations",
   "Policy": "<a href=\"http://intranet.agr.gc.ca/agrisource/AgriDoc.do?id=2174814&lang=eng\">Departmental Separation Policy (Word)</a>",
   "Date": "2010"
 },
 {
   "Branch": "Human Resources Directorate",
   "Topic": "Separations",
   "Policy": "<a href=\"http://intranet.agr.gc.ca/agrisource/AgriDoc.do?id=3111430&lang=eng\">Exit Survey Policy (Word)</a>",
   "Date": "1997"
 },
 {
   "Branch": "Human Resources Directorate",
   "Topic": "Staffing",
   "Policy": "<a href=\"https://www.canada.ca/en/treasury-board-secretariat/services/terms-conditions-employment/terms-conditions-employment-public-service-employees.html\">Terms and Conditions of Employment</a>",
   "Date": "2013"
 },
 {
   "Branch": "Human Resources Directorate",
   "Topic": "Staffing",
   "Policy": "<a href=\"http://intranet.agr.gc.ca/agrisource/AgriDoc.do?id=102779123&lang=eng\">Agriculture and Agri-Food Canada Appointment Policy (Word)</a>",
   "Date": "2017"
 },
 {
   "Branch": "Human Resources Directorate",
   "Topic": "Staffing",
   "Policy": "<a href=\"http://intranet.agr.gc.ca/agrisource/AgriDoc.do?id=2919556&lang=eng\">Departmental Term Employment Policy (Word)</a>",
   "Date": "2017"
 },
 {
   "Branch": "Human Resources Directorate",
   "Topic": "Staffing",
   "Policy": "<a href=\"http://www.tbs-sct.gc.ca/pol/doc-eng.aspx?id=15772\">Directive on Terms and Conditions of Employment</a>",
   "Date": "2014"
 },
 {
   "Branch": "Human Resources Directorate",
   "Topic": "Staffing",
   "Policy": "<a href=\"http://www.tbs-sct.gc.ca/pol/doc-eng.aspx?id=15773\">Directive on Terms and Conditions of Employment for Certain Excluded/Unrepresented Employees</a>",
   "Date": "2009"
 },
 {
   "Branch": "Human Resources Directorate",
   "Topic": "Staffing",
   "Policy": "<a href=\"http://www.tbs-sct.gc.ca/pol/doc-eng.aspx?id=15771\">Policy on Terms and Conditions of Employment</a>",
   "Date": "2009"
 },
 {
   "Branch": "Human Resources Directorate",
   "Topic": "Staffing",
   "Policy": "<a href=\"https://www.canada.ca/en/public-service-commission/services/appointment-framework/appointment-policy.html\">Public Service Commission Appointment Policy</a>",
   "Date": "2016"
 },
 {
   "Branch": "Human Resources Directorate",
   "Topic": "Staffing",
   "Policy": "<a href=\"https://www.canada.ca/en/treasury-board-secretariat/services/staffing/qualification-standards/core.html\">Qualification standards for the core public administration by occupational group or classification</a>",
   "Date": "2015"
 },
 {
   "Branch": "Human Resources Directorate",
   "Topic": "Staffing",
   "Policy": "<a href=\"http://www.tbs-sct.gc.ca/pol/doc-eng.aspx?id=12582\">Student Employment Policy</a>",
   "Date": "1999"
 },
 {
   "Branch": "Human Resources Directorate",
   "Topic": "Staffing",
   "Policy": "<a href=\"http://www.tbs-sct.gc.ca/pol/doc-eng.aspx?id=12584\">Term Employment Policy</a>",
   "Date": "2011"
 },
 {
   "Branch": "Human Resources Directorate",
   "Topic": "Statutory & policy authorities",
   "Policy": "<a href=\"http://intranet.agr.gc.ca/resources/prod/pdf/hrb_dgrh/statutory_statutaires_guide-eng.pdf\">Key Human Resources Statutory and Policy Authorities - A Reference Guide for AAFC  Managers and Employees (PDF, 457.6 KB)</a>",
   "Date": "2007"
 },
 {
   "Branch": "Human Resources Directorate",
   "Topic": "Values & ethics",
   "Policy": "<a href=\"https://www.canada.ca/en/treasury-board-secretariat/services/values-ethics/conflict-interest-post-employment/apparent-conflict-interest.html\">Apparent Conflict of Interest</a>",
   "Date": "2015"
 },
 {
   "Branch": "Human Resources Directorate",
   "Topic": "Values & ethics",
   "Policy": "<a href=\"http://intranet.agr.gc.ca/agrisource/AgriDoc.do?id=2915388&lang=eng\">Directive for Assessing Employee Memberships on External Boards of Directors (Word)</a>",
   "Date": "2016"
 },
 {
   "Branch": "Human Resources Directorate",
   "Topic": "Values & ethics",
   "Policy": "<a href=\"https://www.canada.ca/en/treasury-board-secretariat/services/values-ethics/code/duty-loyalty.html\">Duty of Loyalty</a>",
   "Date": "2011"
 },
 {
   "Branch": "Human Resources Directorate",
   "Topic": "Values & ethics",
   "Policy": "<a href=\"http://www.tbs-sct.gc.ca/pol/doc-eng.aspx?id=25178\">Policy on Conflict of Interest and Post-Employment</a>",
   "Date": "2012"
 },
 {
   "Branch": "Human Resources Directorate",
   "Topic": "Values & ethics",
   "Policy": "<a href=\"http://intranet.agr.gc.ca/agrisource/AgriDoc.do?id=3202762&lang=eng\">Values and Ethics Code for Agriculture and Agri-Food Canada (PDF)</a>",
   "Date": "2012"
 },
 {
   "Branch": "Human Resources Directorate",
   "Topic": "Values & ethics",
   "Policy": "<a href=\"http://www.tbs-sct.gc.ca/pol/doc-eng.aspx?id=25049\">Values and Ethics Code for the Public Sector</a>",
   "Date": "2011"
 },
 {
   "Branch": "Human Resources Directorate",
   "Topic": "Workforce adjustment",
   "Policy": "<a href=\"https://www.canada.ca/en/public-service-commission/services/appointment-framework/archives/guidance-leave-absence-selection-employees-retention-lay-off-12-10.html\">Guidance on Leave of Absence and Selection of Employees for Retention or Lay-off</a>",
   "Date": "2012"
 },
 {
   "Branch": "Human Resources Directorate",
   "Topic": "Workforce adjustment",
   "Policy": "<a href=\"http://intranet.agr.gc.ca/agrisource/AgriDoc.do?id=3361920&lang=eng\">Agriculture and Agri-Food Canada Principles for Employee Placement (Word)</a>",
   "Date": "2012"
 },
 {
   "Branch": "Human Resources Directorate",
   "Topic": "Workforce adjustment",
   "Policy": "<a href=\"http://intranet.agr.gc.ca/agrisource/AgriDoc.do?id=3538936&lang=eng\">Assigning Meaningful Work (Word)</a>",
   "Date": "2016"
 },
 {
   "Branch": "Human Resources Directorate",
   "Topic": "Workforce adjustment",
   "Policy": "<a href=\"http://www.tbs-sct.gc.ca/pol/doc-eng.aspx?id=14218\">Directive on Career Transition for Executives</a>",
   "Date": "2007"
 },
 {
   "Branch": "Human Resources Directorate",
   "Topic": "Workforce adjustment",
   "Policy": "<a href=\"http://www.njc-cnm.gc.ca/directive/d12/en\">National Joint Council Work Force Adjustment Directive</a>",
   "Date": "2010"
 },
 {
   "Branch": "Human Resources Directorate",
   "Topic": "Workforce adjustment",
   "Policy": "<a href=\"https://www.canada.ca/en/public-service-commission/services/information-priority-administration.html\">Public Service Commission Priority Administration</a>",
   "Date": "2017"
 },
 {
   "Branch": "Human Resources Directorate",
   "Topic": "Workforce adjustment",
   "Policy": "<a href=\"http://intranet.agr.gc.ca/agrisource/AgriDoc.do?id=3538928&lang=eng\">Reasonable Job Offer (Word)</a>",
   "Date": "2016"
 },
 {
   "Branch": "Human Resources Directorate",
   "Topic": "Workplace & labour relations",
   "Policy": "<a href=\"http://www.tbs-sct.gc.ca/agreements-conventions/index-eng.aspx\">Collective Agreements</a>",
   "Date": "N/A"
 },
 {
   "Branch": "Human Resources Directorate",
   "Topic": "Workplace & labour relations",
   "Policy": "<a href=\"http://www.tbs-sct.gc.ca/pol/doc-eng.aspx?id=22370\">Guidelines for Discipline</a>",
   "Date": "2011"
 },
 {
   "Branch": "Human Resources Directorate",
   "Topic": "Workplace & labour relations",
   "Policy": "<a href=\"http://www.tbs-sct.gc.ca/pol/doc-eng.aspx?id=12542\">Policy on Employee Assistance Program</a>",
   "Date": "1999"
 },
 {
   "Branch": "Human Resources Directorate",
   "Topic": "Workplace & labour relations",
   "Policy": "<a href=\"http://www.tbs-sct.gc.ca/pol/doc-eng.aspx?id=26041\">Policy on Harassment Prevention and Resolution</a>",
   "Date": "2012"
 },
 {
   "Branch": "Information Systems Branch",
   "Topic": "Information management",
   "Policy": "<a href=\"http://intranet.agr.gc.ca/agrisource/AgriDoc.do?id=3102969&lang=eng\">Departmental Social Insurance Number Handbook (PDF)</a>",
   "Date": "2010"
 },
 {
   "Branch": "Information Systems Branch",
   "Topic": "Information management",
   "Policy": "<a href=\"https://www.tbs-sct.gc.ca/pol/doc-eng.aspx?id=32601\">Directive on Service and Digital</a>",
   "Date": "2020"
 },
 {
   "Branch": "Information Systems Branch",
   "Topic": "Information management",
   "Policy": "<a href=\"http://intranet.agr.gc.ca/agrisource/AgriDoc.do?id=1630080&lang=eng\">Electronic Messaging Directive (Word)</a>",
   "Date": "2009"
 },
 {
   "Branch": "Information Systems Branch",
   "Topic": "Information management",
   "Policy": "<a href=\"http://www.tbs-sct.gc.ca/pol/doc-eng.aspx?id=16557\">Guideline for Employees of the Government of Canada: Information Management (IM) Basics</a>",
   "Date": "2015"
 },
 {
   "Branch": "Information Systems Branch",
   "Topic": "Information management",
   "Policy": "<a href=\"http://www.tbs-sct.gc.ca/pol/doc-eng.aspx?id=26154\">Guidelines for Privacy Breaches</a>",
   "Date": "2014"
 },
 {
   "Branch": "Information Systems Branch",
   "Topic": "Information management",
   "Policy": "<a href=\"https://collab.agr.gc.ca/co/ima_sgi/_layouts/15/DocIdRedir.aspx?ID=AGR-8787293\">Information Management Exit Directive (Word)</a>",
   "Date": "2010"
 },
 {
   "Branch": "Information Systems Branch",
   "Topic": "Information management",
   "Policy": "<a href=\"http://intranet.agr.gc.ca/agrisource/AgriDoc.do?id=3102848&lang=eng\">Policy on Data Matching (Word)</a>",
   "Date": "2012"
 },
 {
   "Branch": "Information Systems Branch",
   "Topic": "Information management",
   "Policy": "<a href=\"https://www.tbs-sct.gc.ca/pol/doc-eng.aspx?id=32603\">Policy on Service and Digital</a>",
   "Date": "2020"
 },
 {
   "Branch": "Information Systems Branch",
   "Topic": "Information management",
   "Policy": "<a href=\"http://intranet.agr.gc.ca/agrisource/AgriDoc.do?id=3102887&lang=eng\">Privacy Breach Policy (Word)</a>",
   "Date": "2009"
 },
 {
   "Branch": "Information Systems Branch",
   "Topic": "Information management",
   "Policy": "<a href=\"http://intranet.agr.gc.ca/agrisource/AgriDoc.do?id=3133260&lang=eng\">Privacy Impact Assessment Directive (Word)</a>",
   "Date": "2012"
 },
 {
   "Branch": "Information Systems Branch",
   "Topic": "Information management",
   "Policy": "<a href=\"http://intranet.agr.gc.ca/agrisource/AgriDoc.do?id=2909784&lang=eng\">Privacy Management Framework (Word)</a>",
   "Date": "2012"
 },
 {
   "Branch": "Information Systems Branch",
   "Topic": "Information management",
   "Policy": "<a href=\"http://intranet.agr.gc.ca/agrisource/AgriDoc.do?id=3133566&lang=eng\">Privacy Protocol (Word)</a>",
   "Date": "2012"
 },
 {
   "Branch": "Information Systems Branch",
   "Topic": "Information management",
   "Policy": "<a href=\"https://collab.agr.gc.ca/co/ima_sgi/Lists/AAFC_Record_Retention_Periods/Records Retention.aspx\">Record Retention Periods</a>",
   "Date": "2020"
 },
 {
   "Branch": "Information Systems Branch",
   "Topic": "Information management",
   "Policy": "<a href=\"http://intranet.agr.gc.ca/agrisource/AgriDoc.do?id=2491733&lang=eng\">Social Media Usage Directive (Word)</a>",
   "Date": "2011"
 },
 {
   "Branch": "Information Systems Branch",
   "Topic": "Information management",
   "Policy": "<a href=\"http://intranet.agr.gc.ca/agrisource/AgriDoc.do?id=2737692&lang=eng\">Social Media Usage: Questions and Answers (Word)</a>",
   "Date": "2015"
 },
 {
   "Branch": "Information Systems Branch",
   "Topic": "Information management",
   "Policy": "<a href=\"http://www.tbs-sct.gc.ca/pol/doc-eng.aspx?id=27600\">Standard on Email Management</a>",
   "Date": "2014"
 },
 {
   "Branch": "Information Systems Branch",
   "Topic": "Information management",
   "Policy": "<a href=\"http://intranet.agr.gc.ca/agrisource/AgriDoc.do?id=3102929&lang=eng\">Use of Mailing Lists and Information Enclosures (Word)</a>",
   "Date": "1990"
 },
 {
   "Branch": "Information Systems Branch",
   "Topic": "Information management",
   "Policy": "<a href=\"http://intranet.agr.gc.ca/agrisource/AgriDoc.do?id=3102990&lang=eng\">Use of Social Insurance Number (SIN) (Word)</a>",
   "Date": "1988"
 },
 {
   "Branch": "Information Systems Branch",
   "Topic": "Information architecture",
   "Policy": "<a href=\"http://www.tbs-sct.gc.ca/pol/doc-eng.aspx?id=16553\">Standard on Geospatial Data</a>",
   "Date": "2012"
 },
 {
   "Branch": "Information Systems Branch",
   "Topic": "Information architecture",
   "Policy": "<a href=\"http://www.tbs-sct.gc.ca/pol/doc-eng.aspx?id=18909\">Standard on Metadata</a>",
   "Date": "2010"
 },
 {
   "Branch": "Information Systems Branch",
   "Topic": "Information technology",
   "Policy": "<a href=\"http://www.tbs-sct.gc.ca/pol/doc-eng.aspx?id=27122\">Policy on Acceptable Network and Device Use</a>",
   "Date": "2013"
 },
 {
   "Branch": "Information Systems Branch",
   "Topic": "Information technology",
   "Policy": "<a href=\"http://intranet.agr.gc.ca/agrisource/AgriDoc.do?id=1596428&lang=eng\">Evergreen Policy for Desktops, Laptops and Monitors (Word)</a>",
   "Date": "2005"
 },
 {
   "Branch": "Information Systems Branch",
   "Topic": "Information technology",
   "Policy": "<a href=\"http://intranet.agr.gc.ca/agrisource/AgriDoc.do?id=101055452&lang=eng\">Information Technology Security Policy (Word)</a>",
   "Date": "2017"
 },
 {
   "Branch": "Information Systems Branch",
   "Topic": "Information technology",
   "Policy": "<a href=\"http://intranet.agr.gc.ca/agrisource/AgriDoc.do?id=1630053&lang=eng\">Internet Usage Directive (Word)</a>",
   "Date": "2009"
 },
 {
   "Branch": "Information Systems Branch",
   "Topic": "Information technology",
   "Policy": "<a href=\"http://intranet.agr.gc.ca/agrisource/AgriDoc.do?id=1630069&lang=eng\">Network Usage Directive (Word)</a>",
   "Date": "2009"
 },
 {
   "Branch": "Information Systems Branch",
   "Topic": "Information technology",
   "Policy": "<a href=\"http://intranet.agr.gc.ca/agrisource/AgriDoc.do?id=2077588&lang=eng\">Policy on Mobile Wireless Devices (Word)</a>",
   "Date": "2009"
 },
 {
   "Branch": "Information Systems Branch",
   "Topic": "Information technology",
   "Policy": "<a href=\"http://intranet.agr.gc.ca/agrisource/AgriDoc.do?id=970396&lang=eng\">Printer Directive (Word)</a>",
   "Date": "2009"
 },
 {
   "Branch": "Legal Services",
   "Topic": "Legal services",
   "Policy": "<a href=\"http://www.tbs-sct.gc.ca/pol/doc-eng.aspx?id=13937\">Policy on Legal Assistance and Indemnification</a>",
   "Date": "2008"
 },
 {
   "Branch": "Office for Internal Disclosure",
   "Topic": "Internal disclosure",
   "Policy": "<a href=\"http://www.tbs-sct.gc.ca/pubs_pol/hrpubs/tb_851/idicww-diicaft-eng.asp\">Policy on the Internal Disclosure of Information Concerning Wrongdoing in the Workplace</a>",
   "Date": "2004"
 },
 {
   "Branch": "Office for Internal Disclosure",
   "Topic": "Internal disclosure",
   "Policy": "<a href=\"http://intranet.agr.gc.ca/agrisource/AgriDoc.do?id=2907645&lang=eng\">Background information about the disclosure policy and act (Word)</a>",
   "Date": "2011"
 },
 {
   "Branch": "Office for Internal Disclosure",
   "Topic": "Internal disclosure",
   "Policy": "<a href=\"http://intranet.agr.gc.ca/agrisource/AgriDoc.do?id=2907652&lang=eng\">Internal Disclosure - Confidentiality and Privacy (Word)</a>",
   "Date": "2011"
 },
 {
   "Branch": "Office for Internal Disclosure",
   "Topic": "Internal disclosure",
   "Policy": "<a href=\"https://collab.agr.gc.ca/co/dss-ssm/Documents/PROCEDURES-GUIDELINES-TEMPLATES/Internal%20Disclosure%20of%20Wrongdoing%20-%20Guidelines%20for%20AAFC%20Managers%2C%20Supervisors%20and%20Employees%20-%20EN.doc\">Internal Disclosure of Wrongdoing: Guidelines for AAFC Managers, Supervisors and Employees (Word)</a>",
   "Date": "2019"
 },
 {
   "Branch": "Office for Internal Disclosure",
   "Topic": "Internal disclosure",
   "Policy": "<a href=\"https://www.canada.ca/en/treasury-board-secretariat/topics/values-ethics/disclosure-protection.html\">Public servants disclosure protection</a>",
   "Date": "2015"
 },
 {
   "Branch": "Office of Audit & Evaluation",
   "Topic": "Audit",
   "Policy": "<a href=\"http://intranet.agr.gc.ca/resources/prod/doc/oae_bve/internal_audit_charter-eng.doc\">AAFC Internal Audit Charter (Word, 1.2 MB)</a>",
   "Date": "2013"
 },
 {
   "Branch": "Office of Audit & Evaluation",
   "Topic": "Audit",
   "Policy": "<a href=\"http://www.tbs-sct.gc.ca/pol/doc-eng.aspx?id=31306\">Directive on Results</a>",
   "Date": "2016"
 },
 {
   "Branch": "Office of Audit & Evaluation",
   "Topic": "Evaluation",
   "Policy": "<a href=\"http://intranet.agr.gc.ca/resources/prod/doc/oae_bve/policy_evaluation-eng.doc\">Policy on Evaluation (AAFC) (Word, 62 KB)</a>",
   "Date": "2003"
 },
 {
   "Branch": "Office of Audit & Evaluation",
   "Topic": "Evaluation",
   "Policy": "<a href=\"https://www.tbs-sct.gc.ca/pol/doc-eng.aspx?id=16484\">Policy on Internal Audit</a>",
   "Date": "2017"
 },
 {
   "Branch": "Office of Audit & Evaluation",
   "Topic": "Evaluation",
   "Policy": "<a href=\"http://www.tbs-sct.gc.ca/pol/doc-eng.aspx?id=31300\">Policy on Results </a>",
   "Date": "2016"
 },
 {
   "Branch": "Programs Branch",
   "Topic": "Aboriginal consultation",
   "Policy": "<a href=\"http://www.aadnc-aandc.gc.ca/eng/1100100014664/1100100014675\">Aboriginal Consultation and Accommodation - Updated Guidelines for Federal Officials to Fulfill the Duty to Consult</a>",
   "Date": "2011"
 },
 {
   "Branch": "Programs Branch",
   "Topic": "Asset management",
   "Policy": "<a href=\"https://forms-formulaires.agr.gc.ca/pdf/A9337-E.pdf\">Capital Asset Pre-approval for Grants and Contributions Programs (PDF, 68.7 KB)</a>",
   "Date": "2017"
 },
 {
   "Branch": "Programs Branch",
   "Topic": "Asset management",
   "Policy": "<a href=\"http://intranet.agr.gc.ca/agrisource/AgriDoc.do?id=103203217&lang=eng\">Directive on Capital Assets for Grants and Contributions (Word)</a>",
   "Date": "2017"
 },
 {
   "Branch": "Programs Branch",
   "Topic": "Audit",
   "Policy": "<a href=\"http://intranet.agr.gc.ca/agrisource/AgriDoc.do?id=3057565&lang=eng\">Escalation Process for Alleged Wrongful Disclosure, Fraud, Privacy Breach or Misappropriation (Word)</a>",
   "Date": "2011"
 },
 {
   "Branch": "Programs Branch",
   "Topic": "Audit",
   "Policy": "<a href=\"http://intranet.agr.gc.ca/agrisource/AgriDoc.do?id=101771757&lang=eng\">Process for Dealing with Overpayments Arising from Recipient Audits (Word)</a>",
   "Date": "2015"
 },
 {
   "Branch": "Programs Branch",
   "Topic": "Due diligence",
   "Policy": "<a href=\"http://intranet.agr.gc.ca/agrisource/AgriDoc.do?id=3130855&lang=eng\">Administer Due Diligence Guide for Grant and Contribution Programs (Word)</a>",
   "Date": "2012"
 },
 {
   "Branch": "Programs Branch",
   "Topic": "Due diligence",
   "Policy": "<a href=\"http://intranet.agr.gc.ca/agrisource/AgriDoc.do?id=3130859&lang=eng\">Assess Due Diligence Guide for Grant and Contribution Programs (Word)</a>",
   "Date": "2012"
 },
 {
   "Branch": "Programs Branch",
   "Topic": "Due diligence",
   "Policy": "<a href=\"http://intranet.agr.gc.ca/agrisource/AgriDoc.do?id=3644450&lang=eng\">Due Diligence (8 As) Checklist (Word)</a>",
   "Date": "2014"
 },
 {
   "Branch": "Programs Branch",
   "Topic": "Evaluation",
   "Policy": "<a href=\"https://www.tbs-sct.gc.ca/pol/doc-eng.aspx?id=19420\">Guideline on Performance Measurement Strategy under the Policy on Transfer Payments </a>",
   "Date": "2010"
 },
 {
   "Branch": "Programs Branch",
   "Topic": "Evaluation",
   "Policy": "<a href=\"https://www.canada.ca/en/treasury-board-secretariat/services/audit-evaluation/centre-excellence-evaluation/guide-developing-performance-measurement-strategies.html\">Supporting Effective Evaluations: A Guide to Developing Performance Measurement Strategies </a>",
   "Date": "2010"
 },
 {
   "Branch": "Programs Branch",
   "Topic": "Contribution agreements",
   "Policy": "<a href=\"http://intranet.agr.gc.ca/agrisource/AgriDoc.do?id=100514446&lang=eng\">Advances of the Minister's Contribution in non-BRM Contribution Agreements (Word)</a>",
   "Date": "2014"
 },
 {
   "Branch": "Programs Branch",
   "Topic": "Contribution agreements",
   "Policy": "<a href=\"http://intranet.agr.gc.ca/agrisource/AgriDoc.do?id=100517668&lang=eng\">Holdbacks of the Minister's Contribution in non-BRM Contribution Agreements (Word)</a>",
   "Date": "2014"
 },
 {
   "Branch": "Programs Branch",
   "Topic": "Contribution agreements",
   "Policy": "<a href=\"http://intranet.agr.gc.ca/agrisource/AgriDoc.do?id=100648808&lang=eng\">Reallocating Funds within a Contribution Agreement Between Fiscal Years (Word)</a>",
   "Date": "2011"
 },
 {
   "Branch": "Programs Branch",
   "Topic": "Transfer payments",
   "Policy": "<a href=\"http://www.tbs-sct.gc.ca/pol/doc-eng.aspx?id=14208\">Directive on Transfer Payments</a>",
   "Date": "2008"
 },
 {
   "Branch": "Programs Branch",
   "Topic": "Transfer payments",
   "Policy": "<a href=\"http://www.tbs-sct.gc.ca/pol/doc-eng.aspx?id=19421\">Guideline on the Directive on Transfer Payments</a>",
   "Date": "2013"
 },
 {
   "Branch": "Programs Branch",
   "Topic": "Risk management",
   "Policy": "<a href=\"http://intranet.agr.gc.ca/agrisource/AgriDoc.do?id=2655093&lang=eng\">Recipient/Project Risk Management Framework (Word)</a>",
   "Date": "2014"
 },
 {
   "Branch": "Programs Branch",
   "Topic": "Risk management",
   "Policy": "<a href=\"http://intranet.agr.gc.ca/agrisource/AgriDoc.do?id=101411712&lang=eng\">Management Control Framework for Non-BRM Programs, March 2015 (Word)</a>",
   "Date": "2015"
 },
 {
   "Branch": "Programs Branch",
   "Topic": "Risk management",
   "Policy": "<a href=\"http://intranet.agr.gc.ca/agrisource/AgriDoc.do?id=101411719&lang=eng\">Program Controls Self-Assessment Checklist for the Non-BRM Management Control Framework, March 2015 (Word)</a>",
   "Date": "2015"
 },
 {
   "Branch": "Programs Branch",
   "Topic": "Service standards",
   "Policy": "<a href=\"https://www.tbs-sct.gc.ca/pol/doc-eng.aspx?id=25750\">Guideline on Service Standards</a>",
   "Date": "2012"
 },
 {
   "Branch": "Programs Branch",
   "Topic": "Values & ethics",
   "Policy": "<a href=\"http://intranet.agr.gc.ca/agrisource/AgriDoc.do?id=3203700&lang=eng\">Conflict of Interest Guidelines for Grant and Contribution Programs (PDF)</a>",
   "Date": "2016"
 },
 {
   "Branch": "Public Affairs Branch",
   "Topic": "Access to information & privacy",
   "Policy": "<a href=\"http://intranet.agr.gc.ca/agrisource/AgriDoc.do?id=102390480&lang=eng\">General Access Questions (Word)</a>",
   "Date": "2016"
 },
 {
   "Branch": "Public Affairs Branch",
   "Topic": "Access to information & privacy",
   "Policy": "<a href=\"http://intranet.agr.gc.ca/agrisource/AgriDoc.do?id=102390420&lang=eng\">General Privacy Questions (Word)</a>",
   "Date": "2016"
 },
 {
   "Branch": "Public Affairs Branch",
   "Topic": "Access to information & privacy",
   "Policy": "<a href=\"http://www.tbs-sct.gc.ca/pol/doc-eng.aspx?id=18310\">Interim Directive on the Administration of the Access to Information Act</a>",
   "Date": "2016"
 },
 {
   "Branch": "Public Affairs Branch",
   "Topic": "Access to information & privacy",
   "Policy": "<a href=\"http://intranet.agr.gc.ca/agrisource/AgriDoc.do?id=102363629&lang=eng\">Social Insurance Number (SIN) Directives (Word)</a>",
   "Date": "2016"
 },
 {
   "Branch": "Public Affairs Branch",
   "Topic": "Access to information & privacy",
   "Policy": "<a href=\"http://www.tbs-sct.gc.ca/pol/doc-eng.aspx?section=text&id=18308\">Directive on Privacy Impact Assessment</a>",
   "Date": "2010"
 },
 {
   "Branch": "Public Affairs Branch",
   "Topic": "Access to information & privacy",
   "Policy": "<a href=\"http://www.tbs-sct.gc.ca/pol/doc-eng.aspx?section=text&id=18309\">Directive on Privacy Practices</a>",
   "Date": "2014"
 },
 {
   "Branch": "Public Affairs Branch",
   "Topic": "Access to information & privacy",
   "Policy": "<a href=\"http://www.tbs-sct.gc.ca/atip-aiprp/tpa-pcp/tpa-pcp00-eng.asp\">Guidance Document: Taking Privacy into Account Before Making Contracting Decisions</a>",
   "Date": "2010"
 },
 {
   "Branch": "Public Affairs Branch",
   "Topic": "Access to information & privacy",
   "Policy": "<a href=\"http://www.tbs-sct.gc.ca/atip-aiprp/isa-eer/isa-eer00-eng.asp\">Guidance on Preparing Information Sharing Agreements Involving Personal Information</a>",
   "Date": "2010"
 },
 {
   "Branch": "Public Affairs Branch",
   "Topic": "Access to information & privacy",
   "Policy": "<a href=\"http://www.tbs-sct.gc.ca/pol/doc-eng.aspx?id=12453\">Policy on Access to Information</a>",
   "Date": "2014"
 },
 {
   "Branch": "Public Affairs Branch",
   "Topic": "Access to information & privacy",
   "Policy": "<a href=\"http://www.tbs-sct.gc.ca/pol/doc-eng.aspx?id=12510\">Policy on Privacy Protection</a>",
   "Date": "2014"
 },
 {
   "Branch": "Public Affairs Branch",
   "Topic": "Access to information & privacy",
   "Policy": "<a href=\"http://intranet.agr.gc.ca/agrisource/AgriDoc.do?id=102428221&lang=eng\">Privacy Breach Checklist (PDF)</a>",
   "Date": "2016"
 },
 {
   "Branch": "Public Affairs Branch",
   "Topic": "Access to information & privacy",
   "Policy": "<a href=\"http://intranet.agr.gc.ca/agrisource/AgriDoc.do?id=102428213&lang=eng\">Privacy Breach Response Plan (PDF)</a>",
   "Date": "2016"
 },
 {
   "Branch": "Public Affairs Branch",
   "Topic": "Communications",
   "Policy": "<a href=\"http://www.tbs-sct.gc.ca/pol/doc-eng.aspx?id=30682\">Directive on the Management of Communications</a>",
   "Date": "2016"
 },
 {
   "Branch": "Public Affairs Branch",
   "Topic": "Communications",
   "Policy": "<a href=\"http://www.tbs-sct.gc.ca/pol/doc-eng.aspx?id=23601\">Standard on Web Accessibility</a>",
   "Date": "2013"
 },
 {
   "Branch": "Public Affairs Branch",
   "Topic": "Marketing & publishing",
   "Policy": "<a href=\"https://www.canada.ca/en/treasury-board-secretariat/services/government-communications/federal-identity-program/manual.html\">Federal Identity Program Manual</a>",
   "Date": "2015"
 },
 {
   "Branch": "Public Affairs Branch",
   "Topic": "Marketing & publishing",
   "Policy": "<a href=\"http://www.tbs-sct.gc.ca/pol/doc-eng.aspx?id=27167\">Procedures for Publishing</a>",
   "Date": "2013"
 },
 {
   "Branch": "Public Affairs Branch",
   "Topic": "Social media",
   "Policy": "<a href=\"http://intranet.agr.gc.ca/agrisource/eng/the-department/social-media/general-guidelines-for-employees-submitting-content-to-a-corporate-social-media-account?id=1445281028919\">General Guidelines for Employees Submitting Content to a Corporate Social Media Account</a>",
   "Date": "2017"
 },
 {
   "Branch": "Public Affairs Branch",
   "Topic": "Social media",
   "Policy": "<a href=\"http://intranet.agr.gc.ca/agrisource/eng/the-department/social-media/guidelines-used-when-publishing-a-video-to-agriculture-canada-youtube-channel?id=1445262140905\">Guidelines Used by the Social Media Team When Publishing a Video to the Agriculture Canada YouTube Channel</a>",
   "Date": "2017"
 },
 {
   "Branch": "Public Affairs Branch",
   "Topic": "Social media",
   "Policy": "<a href=\"http://intranet.agr.gc.ca/agrisource/eng/the-department/social-media/requirements-for-publishing-photos-on-departmental-flickr-account?id=1445283865885\">Requirements for Publishing Photos on Departmental Flickr Account</a>",
   "Date": "2017"
 },
 {
   "Branch": "Public Affairs Branch",
   "Topic": "Social media",
   "Policy": "<a href=\"http://intranet.agr.gc.ca/agrisource/eng/the-department/social-media/requirements-for-submitting-twitter-content-to-aafccanada?id=1445285057490\">Requirements for Submitting Twitter Content to @AAFC_Canada</a>",
   "Date": "2017"
 },
 {
   "Branch": "Public Affairs Branch",
   "Topic": "Translation & revision",
   "Policy": "<a href=\"http://intranet.agr.gc.ca/agrisource/eng/branches-and-offices/public-affairs-branch/translation-and-revision-services/services-offered/translation-and-revision-policies?id=1298988214813#revision\">Revision Policy</a>",
   "Date": "2017"
 },
 {
   "Branch": "Public Affairs Branch",
   "Topic": "Translation & revision",
   "Policy": "<a href=\"http://intranet.agr.gc.ca/agrisource/eng/branches-and-offices/public-affairs-branch/translation-and-revision-services/services-offered/translation-and-revision-policies?id=1298988214813#copyright\">Translation of Material Protected by Copyright</a>",
   "Date": "2017"
 },
 {
   "Branch": "Public Affairs Branch",
   "Topic": "Video production",
   "Policy": "<a href=\"http://intranet.agr.gc.ca/agrisource/AgriDoc.do?id=4040750&lang=eng\">Framework for Video Production at AAFC (Word)</a>",
   "Date": "2015"
 },
 {
   "Branch": "Science and Technology Branch",
   "Topic": "Intellectual property",
   "Policy": "<a href=\"http://intranet.agr.gc.ca/agrisource/eng/branches-and-offices/science-and-technology-branch/references/intellectual-property-decision-making-manual-1-of-6?id=1456413774611\">Intellectual Property Decision-Making Manual</a>",
   "Date": "2017"
 },
 {
   "Branch": "Science and Technology Branch",
   "Topic": "Intellectual property",
   "Policy": "<a href=\"http://intranet.agr.gc.ca/agrisource/eng/branches-and-offices/science-and-technology-branch/references/intellectual-property-procedures-1-of-16?id=1455030301336\">Intellectual Property Procedures </a>",
   "Date": "2016"
 },
 {
   "Branch": "Science and Technology Branch",
   "Topic": "Occupational health & safety",
   "Policy": "<a href=\"https://collab.agr.gc.ca/co/ncbbc-cncbsb/Documents/NCBBC_Original_Documents_Originaux_CNCBB/AAFC_CBB_Program_Containment_Biosafety_Biosecurity_Guidelines.pdf\">Containment, Biosafety and Biosecurity Guidelines for Research Facilities</a>",
   "Date": "2015"
 },
 {
   "Branch": "Science and Technology Branch",
   "Topic": "Occupational health & safety",
   "Policy": "<a href=\"https://collab.agr.gc.ca/co/ncbbc-cncbsb/Documents/NCBBC_Original_Documents_Originaux_CNCBB/AAFC_CBB_Program_Policy.pdf\">Containment, Biosafety, and Biosecurity Policy</a>",
   "Date": "2015"
 },
 {
   "Branch": "Science and Technology Branch",
   "Topic": "Values & ethics",
   "Policy": "<a href=\"http://intranet.agr.gc.ca/agrisource/AgriDoc.do?id=4481334&lang=eng\">Science Ethics Policy Framework and Terms of Reference (Word)</a>",
   "Date": "2013"
 },
 {
   "Branch": "Science and Technology Branch",
   "Topic": "Values & ethics",
   "Policy": "<a href=\"http://intranet.agr.gc.ca/agrisource/AgriDoc.do?id=4481338&lang=eng\">Human Research Ethics Policy Framework (Word)</a>",
   "Date": "2013"
 },

  {
   "Branch": "Science and Technology Branch",
   "Topic": "Values & ethics",
   "Policy": "<a href=\"http://intranet.agr.gc.ca/agrisourceprev/eng?id=1545396786033\">Agriculture and Agri-Food Canada Science Integrity Policy</a>",
   "Date": "2019"
 },

 {
   "Branch": "Science and Technology Branch",
   "Topic": "Values & ethics",
   "Policy": "<a href=\"http://intranet.agr.gc.ca/agrisource/AgriDoc.do?id=4481357&lang=eng\">Science Ethics Policy Framework: Frequently Asked Questions (PDF)</a>",
   "Date": "2011"
 },
{
   "Branch": "Human Resources",
   "Topic": "Workplace & labour relations",
   "Policy": "<a href=\"http://intranet.agr.gc.ca/resources/prev/pdf/human_ressources/Union_Management_Consultation_Framework.pdf\">Union-Management Consultation Framework (PDF)</a>",
   "Date": "2019"
 }
		  ]
