{
    "dcr_id": "1602615516320",
    "lang": "en",
    "title": {
        "en": "Scheduled Maintenance of ISB Services - October 17-18",
        "fr": "Entretien pr\u00e9vu des services de la DGSI \u2013 du 17 au 18 octobre"
    },
    "modified": "2020-10-15 00:00:00.0",
    "issued": "2020-10-15 00:00:00.0",
    "type_name": "intra-intra/news-nouv",
    "node_id": "1279030006975",
    "layout_name": null,
    "dc_date_created": "2020-10-13",
    "breadcrumb_label": "",
    "trigger_date": "2020-10-15 09:24:47.0",
    "meta": {
        "issued": {
            "en": "2020-10-15",
            "fr": "2020-10-15"
        },
        "modified": {
            "en": "2020-10-15",
            "fr": "2020-10-15"
        },
        "format": {
            "en": "gcformat",
            "fr": "gcformat"
        },
        "title": {
            "en": "Scheduled Maintenance of ISB Services - October 17-18",
            "fr": "Entretien pr\u00e9vu des services de la DGSI \u2013 du 17 au 18 octobre"
        },
        "subject": {
            "en": "communications",
            "fr": "communications"
        },
        "description": {
            "en": "Please be advised that preventative maintenance of ISB services will be performed between Saturday, October 17, and Sunday, October 18.",
            "fr": "Veuillez noter qu\u2019un entretien pr\u00e9ventif des services de la DGSI aura lieu du samedi 17 octobre au dimanche 18 octobre."
        },
        "language": {
            "en": "eng",
            "fr": "fra"
        },
        "audience": {
            "en": "gcaudience",
            "fr": "gcaudience"
        },
        "creator": {
            "en": "Agriculture and Agri-Food Canada",
            "fr": "Agriculture et Agroalimentaire Canada"
        },
        "spatial": {
            "en": "gcregions",
            "fr": "gcregions"
        },
        "service": {
            "en": "AAFC_AgriSource",
            "fr": "AAC_AgriSource"
        },
        "accessRights": {
            "en": "3",
            "fr": "3"
        }
    },
    "body": {
        "en": "<br>\n<br>\n<p>Please be advised that preventative maintenance of ISB services will be performed between Saturday, October 17, and Sunday, October 18.<br>\n<br>\nThe following downtime is part of a management plan to upgrade our infrastructure systems. These measures are performed regularly to improve performance and to ensure that the department does not experience any outages that would affect employees and the delivery of our services.<br>\n<br>\nConsequently, the following services may not be available during the following periods:</p>\n<p><strong>*Saturday, </strong><strong>Oct 17 \u2013 6:00\u00a0- 7:00 a.m. (ET)</strong></p>\n<ul>\n<li>AAFC Online</li>\n<li>Agricultural Industry Market Information System</li>\n<li>Enterprise Secure Access Services</li>\n<li>Government of Canada Secure Remote Access (GCSRA) service</li>\n<li>PeopleSoft</li>\n<li>SAP</li>\n</ul>\n<p><strong>*Sunday, October 18 \u2013 8:00 a.m. - 12:00 p.m. (ET)</strong></p>\n<ul>\n<li>AgriApps</li>\n<li>Knowledge Workspace</li>\n<li>Skype for Business</li>\n</ul>\n<p>*Please click here for a <a href=\"https://collab.agr.gc.ca/co/ccc/_layouts/15/guestaccess.aspx?guestaccesstoken=lvpQ5hCsF1TBiS7a534fFLe%2bEhP5AgDk9vvsqgbRiSY%3d&amp;docid=2_05166fcfce50d45cfbb2074e8b0989d35&amp;rev=1\">complete listing of affected services</a> (Word) during these periods.</p>\n<p>Should you have any questions or concerns, please do not hesitate to contact IT Centre TI.</p>\n<p><br>\n<br>\n<strong>IT Centre TI</strong><br>\nTelephone: 1-855-545-4411<br>\n<a href=\"http://myitcentreti-monitcentreti/\">My IT Centre TI</a></p>\n<p><img src=\"https://intranet.agr.gc.ca/resources/prod/news/images/ITCentreTI2.png\" class=\"center-block\"></p>\n\n\t\t",
        "fr": "<br>\n<br>\n<p>Veuillez noter qu\u2019un entretien pr\u00e9ventif des services de la DGSI aura lieu du samedi 17 octobre au dimanche 18 octobre.<br>\n<br>\nLes interruptions suivantes sont pr\u00e9vues dans le cadre d\u2019un plan de gestion visant la mise \u00e0 niveau de nos syst\u00e8mes d\u2019infrastructure. Ces mesures sont prises r\u00e9guli\u00e8rement afin d\u2019am\u00e9liorer le rendement et d\u2019\u00e9viter que le Minist\u00e8re subisse des pannes qui pourraient nuire aux employ\u00e9s et \u00e0 la prestation de nos services.<br>\n<br>\nPar cons\u00e9quent, les services suivants pourraient ne pas \u00eatre accessibles pendant les p\u00e9riodes indiqu\u00e9es :</p>\n<p><strong>*Le samedi 17 octobre, de 6 h \u00e0 7 h (HE)</strong></p>\n<ul>\n<li>AAC en direct</li>\n<li>Syst\u00e8me d\u2019information sur les march\u00e9s de l\u2019industrie agricole</li>\n<li>Services d\u2019acc\u00e8s s\u00e9curis\u00e9 pour les entreprises</li>\n<li>Service d\u2019acc\u00e8s \u00e0 distance prot\u00e9g\u00e9 du gouvernement du Canada (ADPGC)</li>\n<li>PeopleSoft</li>\n<li>SAP</li>\n</ul>\n<p><strong>*Le dimanche 18 octobre, de 8 h \u00e0 12 h (HE)</strong></p>\n<ul>\n<li>AgriApps</li>\n<li>Espace de travail du savoir</li>\n<li>Skype Entreprise</li>\n</ul>\n<p>*Veuillez cliquer ici pour avoir acc\u00e8s \u00e0 la <a href=\"https://collab.agr.gc.ca/co/ccc/_layouts/15/guestaccess.aspx?guestaccesstoken=E%2bXoJuT3iIGocbLNwntpdfaV%2fO3sBs9ys1slkOZVYcU%3d&amp;docid=2_0a17509c2f72741feb069f462335ea3fe&amp;rev=1\">liste compl\u00e8te des services touch\u00e9s</a> (Word) pendant cette p\u00e9riode.</p>\n<p>Si vous avez des questions ou des pr\u00e9occupations \u00e0 ce sujet, n\u2019h\u00e9sitez pas \u00e0 communiquer avec le IT Centre TI.</p>\n<p><br>\n<br>\n<strong>IT Centre TI</strong><br>\nT\u00e9l\u00e9phone : 1-855-545-4411<br>\n<a href=\"http://myitcentreti-monitcentreti/\">Mon IT Centre TI</a></p>\n<p><img src=\"https://intranet.agr.gc.ca/resources/prod/news/images/ITCentreTI2.png\" class=\"center-block\"></p>\n\t\t"
    },
    "breadcrumb": {
        "en": "Scheduled Maintenance of ISB Services - October 17-18",
        "fr": "Entretien pr\u00e9vu des services de la DGSI \u2013 du 17 au 18 octobre"
    },
    "news": {
        "date_posted": {
            "en": "2020-10-15",
            "fr": "2020-10-15"
        },
        "to": {
            "en": "All staff",
            "fr": "Tous les employ\u00e9s"
        },
        "by": {
            "en": "IT Centre TI",
            "fr": "IT Centre TI"
        }
    }
}