{
    "dcr_id": "1602595108474",
    "lang": "en",
    "title": {
        "en": "Reminder - Register Now: Managers\u2019 Community Webinar on Conducting Employee Check-Ins",
        "fr": "Rappel - Inscrivez-vous: Webinaire de la communaut\u00e9 des gestionnaires sur comment prendre le pouls avec les employ\u00e9s"
    },
    "modified": "2020-10-22 00:00:00.0",
    "issued": "2020-10-15 00:00:00.0",
    "type_name": "intra-intra/news-nouv",
    "node_id": "1279030006975",
    "layout_name": null,
    "dc_date_created": "2020-10-13",
    "breadcrumb_label": "Reminder - Register Now: Managers' Community Webinar on Conducting Employee Check-Ins",
    "trigger_date": "2020-10-22 11:58:31.0",
    "meta": {
        "issued": {
            "en": "2020-10-15",
            "fr": "2020-10-15"
        },
        "modified": {
            "en": "2020-10-22",
            "fr": "2020-10-22"
        },
        "format": {
            "en": "gcformat",
            "fr": "gcformat"
        },
        "title": {
            "en": "Reminder - Register Now: Managers\u2019 Community Webinar on Conducting Employee Check-Ins",
            "fr": "Rappel - Inscrivez-vous: Webinaire de la communaut\u00e9 des gestionnaires sur comment prendre le pouls avec les employ\u00e9s"
        },
        "subject": {
            "en": "communications",
            "fr": "communications"
        },
        "description": {
            "en": "The Managers' Community invites all managers and aspiring managers to participate in the upcoming virtual sessions on conducting employee check-ins, facilitated by the Informal Conflict Management Services (ICMS) team.",
            "fr": "La communaut\u00e9 des gestionnaires invite tous les gestionnaires et aspirants gestionnaires \u00e0 participer aux prochaines s\u00e9ances virtuelles intitul\u00e9es Prendre le pouls anim\u00e9es par l'\u00e9quipe des Services de gestion informelle des conflits (SGIC)."
        },
        "language": {
            "en": "eng",
            "fr": "fra"
        },
        "audience": {
            "en": "gcaudience",
            "fr": "gcaudience"
        },
        "creator": {
            "en": "Agriculture and Agri-Food Canada",
            "fr": "Agriculture et Agroalimentaire Canada"
        },
        "spatial": {
            "en": "gcregions",
            "fr": "gcregions"
        },
        "service": {
            "en": "AAFC_AgriSource",
            "fr": "AAC_AgriSource"
        },
        "accessRights": {
            "en": "3",
            "fr": "3"
        }
    },
    "body": {
        "en": "<br>\n<br>\n<p>The Managers\u2019 Community invites all managers and aspiring managers to participate in the upcoming virtual sessions on conducting employee check-ins, facilitated by the Informal Conflict Management Services (ICMS) team.</p>\n<p>\nJoin us on October 28 (English) or 29 (French) so that you can add a powerful new tool to your leadership tool kit as we learn:</p>\n<ul>\n<li>how to find the time to check in with employees</li>\n<li>how to overcome challenges in connecting with employees while working remotely</li>\n<li>a tried-and-true check-in approach that will save you time and yield better results\u00a0\u00a0</li>\n</ul>\n<h2><strong>Event information</strong></h2>\n<p><strong>English session</strong></p>\n<p><strong>Date and time: </strong>Wednesday, October 28 | 1:00 to 2:30 pm (ET)<br>\n<strong>Location: </strong>MS Teams<br>\n<strong>Registration: </strong><a href=\"https://collab.agr.gc.ca/co/mc_cdg/Lists/Enrollments/NewForm.aspx?EventList=03a506aa-88ef-4fc8-912a-1334f982734f&amp;EventID=57&amp;Source=https%3A%2F%2Fcollab%2Eagr%2Egc%2Eca%2Fco%2Fmc%5Fcdg%2FLists%2FEvents%2FCurrent%2Easpx\">Enroll via Knowledge Workspace</a></p>\n<p><strong>French session</strong></p>\n<p><strong>Date and time: </strong>Thursday, October 29 | 1:00 to 2:30 pm (ET)<br>\n<strong>Location: </strong>MS Teams<br>\n<strong>Registration: </strong><a href=\"https://collab.agr.gc.ca/co/mc_cdg/Lists/Enrollments/NewForm.aspx?EventList=03a506aa-88ef-4fc8-912a-1334f982734f&amp;EventID=58&amp;Source=https%3A%2F%2Fcollab%2Eagr%2Egc%2Eca%2Fco%2Fmc%5Fcdg%2FLists%2FEvents%2FCurrent%2Easpx\">Enroll via Knowledge Workspace</a>\n</p>\n<p>Should you have any questions about these sessions, please contact the Managers\u2019 Community by email at <a href=\"mailto:aafc.managerscommunity-communautedesgestionnaires.aac@canada.ca\">aafc.managerscommunity-communautedesgestionnaires.aac@canada.ca</a>.</p>\n<p>\nIf you are unable to participate in the sessions but would like to improve the quality of your interactions, the ICMS team is available to help. Send an email to <a href=\"mailto:aafc.conflictresolution-resolutiondeconflits.aac@canada.ca\">aafc.conflictresolution-resolutiondeconflits.aac@canada.ca</a> or visit the <a href=\"https://intranet.agr.gc.ca/agrisource/eng/human-resources/workplace-relations/informal-conflict-management-services?id=1288027396522\">ICMS AgriSource page</a> to contact one of the advisors directly.\u00a0</p>\n<p>We look forward to your participation!<br>\n<strong>\u00a0</strong></p>\n<p><strong>\u00a0</strong></p>\n<p><strong>Jennifer Conlin and Carl Dubeau</strong><br>\nCo-chairs, Managers' Community</p>\n<p><strong>Steven Jurgutis</strong><br>\nChampion, Managers' Community</p>\n<p><img src=\"https://intranet.agr.gc.ca/resources/prod/news/images/ManagersCommunity2019-EN.png\" class=\"center-block\"></p>\n\n\t\t",
        "fr": "<br>\n<br>\n<p>La communaut\u00e9 des gestionnaires invite tous les gestionnaires et aspirants gestionnaires \u00e0 participer aux prochaines s\u00e9ances virtuelles intitul\u00e9es Prendre le pouls anim\u00e9es par l\u2019\u00e9quipe des Services de gestion informelle des conflits (SGIC).\n</p>\n<p>Joignez-vous \u00e0 nous le 28 octobre (s\u00e9ance en anglais) ou le 29 octobre (s\u00e9ance en fran\u00e7ais) pour ajouter un nouvel outil puissant \u00e0 votre trousse sur le leadership afin d\u2019apprendre :<strong> </strong></p>\n<ul>\n<li>comment trouver le temps pour prendre le pouls avec les employ\u00e9s</li>\n<li>comment surmonter les d\u00e9fis de communication avec les employ\u00e9s dans la nouvelle r\u00e9alit\u00e9 du travail \u00e0 distance</li>\n<li>une approche \u00e9prouv\u00e9e pour prendre le pouls qui vous permettra de gagner un temps pr\u00e9cieux et de produire de meilleurs r\u00e9sultats</li>\n</ul>\n<h2><strong>Renseignements sur l\u2019activit\u00e9</strong></h2>\n<p><strong>S\u00e9ance en anglais<br>\nDate et heure : </strong>Mercredi 28 octobre | De 13 h \u00e0 14 h 30 (HE)<br>\n<strong>Lieu : </strong>MS teams<br>\n<strong>Inscription: </strong><a href=\"https://collab.agr.gc.ca/co/mc_cdg/Lists/Enrollments/NewForm.aspx?EventList=03a506aa-88ef-4fc8-912a-1334f982734f&amp;EventID=57&amp;Source=https%3A%2F%2Fcollab%2Eagr%2Egc%2Eca%2Fco%2Fmc%5Fcdg%2FLists%2FEvents%2FCurrent%2Easpx\">S'inscrire \u00e0 partir de l\u2019Espace de travail du savoir</a></p>\n<p><strong>S\u00e9ance en fran\u00e7ais</strong><br>\n<strong>Date et heure : </strong>Jeudi 29 octobre | De 13 h \u00e0 14 h 30 (HE)<br>\n<strong>Lieu : </strong>MS Teams<br>\n<strong>Inscription : </strong><a href=\"https://collab.agr.gc.ca/co/mc_cdg/Lists/Enrollments/NewForm.aspx?EventList=03a506aa-88ef-4fc8-912a-1334f982734f&amp;EventID=58&amp;Source=https%3A%2F%2Fcollab%2Eagr%2Egc%2Eca%2Fco%2Fmc%5Fcdg%2FLists%2FEvents%2FCurrent%2Easpx\">S'inscrire \u00e0 partir de l\u2019Espace de travail du savoir</a>\u00a0</p>\n<p>Si vous avez des questions au sujet des s\u00e9ances, veuillez communiquer avec la communaut\u00e9 des gestionnaires par courriel \u00e0 <a href=\"mailto:aafc.managerscommunity-communautedesgestionnaires.aac@canada.ca\">aafc.managerscommunity-communautedesgestionnaires.aac@canada.ca</a>.</p>\n<p>\nSi vous ne pouvez pas participer aux s\u00e9ances, mais que vous souhaitez am\u00e9liorer la qualit\u00e9 de vos interactions, l\u2019\u00e9quipe des SGIC est disponible pour vous aider. Envoyez un courriel \u00e0 <a href=\"mailto:aafc.conflictresolution-resolutiondeconflits.aac@canada.ca\">aafc.conflictresolution-resolutiondeconflits.aac@canada.ca</a> ou visitez <a href=\"https://intranet.agr.gc.ca/agrisource/fra/ressources-humaines/relations-en-milieu-de-travail/equipe-des-services-informels-de-gestion-des-conflits?id=1288027396522\">la page AgriSource des SGIC</a> pour communiquer directement avec l'un des conseillers.</p>\n<p>Nous comptons sur votre participation!</p>\n<p>\u00a0</p>\n<p><strong>Jennifer Conlin et Carl Dubeau <br></strong>Copr\u00e9sidents de la communaut\u00e9 des gestionnaires\u00a0</p>\n<p><strong>Steven Jurgutis</strong><br>\nChampion de la communaut\u00e9 des gestionnaires</p>\n<p><img src=\"https://intranet.agr.gc.ca/resources/prod/news/images/ManagersCommunity2019-FR.png\" class=\"center-block\"></p>\n\t\t"
    },
    "breadcrumb": {
        "en": "Reminder - Register Now: Managers' Community Webinar on Conducting Employee Check-Ins",
        "fr": "Rappel - Inscrivez-vous: Webinaire de la communaut\u00e9 des gestionnaires sur comment prendre le..."
    },
    "news": {
        "date_posted": {
            "en": "2020-10-15",
            "fr": "2020-10-15"
        },
        "to": {
            "en": "All staff",
            "fr": "Tous les employ\u00e9s"
        },
        "by": {
            "en": "AAFC Managers\u2019 Community",
            "fr": "Communaut\u00e9 des gestionnaires d\u2019AAC"
        }
    }
}