{
    "dcr_id": "1603215883768",
    "lang": "en",
    "title": {
        "en": "First Report Published by Workplace Well-Being Ombuds",
        "fr": "Premier rapport publi\u00e9 par l'ombudsman du mieux-\u00eatre en milieu de travail"
    },
    "modified": "2020-10-21 00:00:00.0",
    "issued": "2020-10-21 00:00:00.0",
    "type_name": "intra-intra/news-nouv",
    "node_id": "1279030006975",
    "layout_name": null,
    "dc_date_created": "2020-10-21",
    "breadcrumb_label": "",
    "trigger_date": "2020-10-21 13:30:10.0",
    "meta": {
        "issued": {
            "en": "2020-10-21",
            "fr": "2020-10-21"
        },
        "modified": {
            "en": "2020-10-21",
            "fr": "2020-10-21"
        },
        "format": {
            "en": "gcformat",
            "fr": "gcformat"
        },
        "title": {
            "en": "First Report Published by Workplace Well-Being Ombuds",
            "fr": "Premier rapport publi\u00e9 par l'ombudsman du mieux-\u00eatre en milieu de travail"
        },
        "subject": {
            "en": "communications",
            "fr": "communications"
        },
        "description": {
            "en": "I am pleased to share with you my First Ombuds' Report (September 2019 to September 2020).",
            "fr": "J'ai le plaisir de vous pr\u00e9senter mon premier Rapport de l\u2019ombudsman (de septembre 2019 \u00e0 septembre 2020)."
        },
        "language": {
            "en": "eng",
            "fr": "fra"
        },
        "audience": {
            "en": "gcaudience",
            "fr": "gcaudience"
        },
        "creator": {
            "en": "Agriculture and Agri-Food Canada",
            "fr": "Agriculture et Agroalimentaire Canada"
        },
        "spatial": {
            "en": "gcregions",
            "fr": "gcregions"
        },
        "service": {
            "en": "AAFC_AgriSource",
            "fr": "AAC_AgriSource"
        },
        "accessRights": {
            "en": "3",
            "fr": "3"
        }
    },
    "body": {
        "en": "<br>\n<br>\n<p>I am pleased to share with you my <a href=\"https://multimedia.agr.gc.ca/COVID-19/ombuds_first_report-eng.html\">First Ombuds\u2019 Report (September 2019 to September 2020)</a>. The Report provides a review of the Ombuds function, a summary of the work completed over the past year, some key takeaways and most importantly, reflects what I have heard from employees. The Report also includes recommendations that I believe will contribute to further supporting workplace well-being. I encourage you to read the Report, which is also available on <a href=\"https://intranet.agr.gc.ca/agrisource/eng/branches-and-offices/office-of-the-ombudsperson/first-report-september-2019-to-september-2020?id=1602685727969\">AgriSource</a>.</p>\n<p>My aim remains to ensure the Ombuds Office provides employees with a trusted safe space to discuss well-being and harassment without the fear of reprisal, and helps navigate the existing systems. To send questions, feedback or suggestions or to schedule an appointment with the Ombudsperson, please send an email to <a href=\"mailto:AAFC.Ombuds.AAC@canada.ca\">AAFC.Ombuds.AAC@canada.ca</a>.</p>\n<p>I\u00a0look forward to continue hearing from you, learning from you and working with you to make AAFC an even better place to work.</p>\n<p><strong>\u00a0</strong></p>\n<p><strong>Jane Taylor</strong><br>\nWorkplace Well-Being Ombudsperson</p>\n\n\t\t",
        "fr": "<br>\n<br>\n<p>J\u2019ai le plaisir de vous pr\u00e9senter mon premier <a href=\"https://multimedia.agr.gc.ca/COVID-19/ombuds_first_report-fra.html\">Rapport de l\u2019ombudsman (de septembre 2019 \u00e0 septembre 2020)</a>. Ce rapport comprend un examen de la fonction d\u2019ombudsman, un r\u00e9sum\u00e9 du travail accompli au cours de l\u2019ann\u00e9e \u00e9coul\u00e9e, quelques \u00e9l\u00e9ments cl\u00e9s et, surtout, il correspond \u00e0 ce que j\u2019ai entendu de la part des employ\u00e9s. Le Rapport comprend \u00e9galement des recommandations qui, je pense, contribueront \u00e0 am\u00e9liorer le mieux-\u00eatre en milieu de travail. Je vous invite \u00e0 en faire la lecture \u2013 il est aussi disponible sur <a href=\"https://intranet.agr.gc.ca/agrisource/fra/directions-generales-et-bureaux/bureau-de-lombudsman/premier-rapport-septembre-2019-septembre-2020?id=1602685727969\">AgriSource</a>.</p>\n<p>Mon objectif demeure de veiller \u00e0 ce que le Bureau de l\u2019ombudsman offre aux employ\u00e9s un espace s\u00fbr leur permettant de discuter de mieux-\u00eatre et de harc\u00e8lement en toute confiance, sans crainte de repr\u00e9sailles et qu\u2019il aide les employ\u00e9s \u00e0 utiliser les divers syst\u00e8mes mis en place. Pour faire part de vos questions, commentaires ou suggestions, ou pour fixer un rendez-vous avec l\u2019ombudsman, veuillez envoyer un courriel \u00e0 l\u2019adresse <a href=\"mailto:AAFC.Ombuds.AAC@canada.ca\">AAFC.Ombuds.AAC@canada.ca</a>.</p>\n<p>Au plaisir de continuer de vous entendre, d\u2019apprendre de vous et de travailler avec vous pour faire d\u2019AAC un milieu de travail encore plus agr\u00e9able.</p>\n<p>\u00a0</p>\n<p><strong>Jane Taylor</strong><br>\nOmbudsman du mieux-\u00eatre en milieu de travail</p>\n\t\t"
    },
    "breadcrumb": {
        "en": "First Report Published by Workplace Well-Being Ombuds",
        "fr": "Premier rapport publi\u00e9 par l'ombudsman du mieux-\u00eatre en milieu de travail"
    },
    "news": {
        "date_posted": {
            "en": "2020-10-20",
            "fr": "2020-10-20"
        },
        "to": {
            "en": "All staff",
            "fr": "Tous les employ\u00e9s"
        },
        "by": {
            "en": "Workplace Well-Being Ombudsperson",
            "fr": "Ombudsman du mieux-\u00eatre en milieu de travail"
        }
    }
}