{
    "dcr_id": "1455140391347",
    "lang": "en",
    "type_name": "intra-intra/news-nouv",
    "created": "2016-02-11 00:00:00.0",
    "expirydate": "2016-02-25 00:00:00.0",
    "news_category_type_id": "1308334182981"
}