{
    "dcr_id": "1459961120301",
    "lang": "en",
    "type_name": "intra-intra/news-nouv",
    "created": "2016-04-07 00:00:00.0",
    "expirydate": "2016-04-14 00:00:00.0",
    "news_category_type_id": "1308325693175"
}