{
    "dcr_id": "1460558089348",
    "lang": "en",
    "type_name": "intra-intra/news-nouv",
    "created": "2016-04-13 00:00:00.0",
    "expirydate": "2016-04-21 00:00:00.0",
    "news_category_type_id": "1308334182982"
}