{
    "dcr_id": "1461245476287",
    "lang": "en",
    "type_name": "intra-intra/news-nouv",
    "created": "2016-04-21 00:00:00.0",
    "expirydate": "2016-05-05 00:00:00.0",
    "news_category_type_id": "1308334182981"
}