{
    "dcr_id": "1464787348294",
    "lang": "en",
    "type_name": "intra-intra/news-nouv",
    "created": "2016-06-02 00:00:00.0",
    "expirydate": "2016-06-06 00:00:00.0",
    "news_category_type_id": "1308334182982"
}