{
    "dcr_id": "1467310115843",
    "lang": "en",
    "type_name": "intra-intra/news-nouv",
    "created": "2016-07-07 00:00:00.0",
    "expirydate": "2016-07-28 00:00:00.0",
    "news_category_type_id": "1379951494338"
}