{
    "dcr_id": "1474663276226",
    "lang": "en",
    "type_name": "intra-intra/news-nouv",
    "created": "2016-09-27 00:00:00.0",
    "expirydate": "2016-10-20 00:00:00.0",
    "news_category_type_id": "1308325693175"
}