{
    "dcr_id": "1475856487639",
    "lang": "en",
    "type_name": "intra-intra/news-nouv",
    "created": "2016-10-07 00:00:00.0",
    "expirydate": "2016-10-20 00:00:00.0",
    "news_category_type_id": "1308325693175"
}