{
    "dcr_id": "1476985559102",
    "lang": "en",
    "type_name": "intra-intra/news-nouv",
    "created": "2016-10-20 00:00:00.0",
    "expirydate": "2016-10-27 00:00:00.0",
    "news_category_type_id": "1308334182983"
}