{
    "dcr_id": "1479326112285",
    "lang": "en",
    "type_name": "intra-intra/news-nouv",
    "created": "2016-11-17 00:00:00.0",
    "expirydate": "2016-11-30 00:00:00.0",
    "news_category_type_id": "1308334182981"
}