{
    "dcr_id": "1480620420432",
    "lang": "en",
    "type_name": "intra-intra/news-nouv",
    "created": "2016-12-01 00:00:00.0",
    "expirydate": "2016-12-08 00:00:00.0",
    "news_category_type_id": "1308325693175"
}