{
    "dcr_id": "1481558487662",
    "lang": "en",
    "type_name": "intra-intra/news-nouv",
    "created": "2016-12-12 00:00:00.0",
    "expirydate": "2016-12-22 00:00:00.0",
    "news_category_type_id": "1308334182983"
}