{
    "dcr_id": "1482353689214",
    "lang": "en",
    "type_name": "intra-intra/news-nouv",
    "created": "2016-12-21 00:00:00.0",
    "expirydate": "2016-12-29 00:00:00.0",
    "news_category_type_id": "1308325693175"
}