{
    "dcr_id": "1483555429543",
    "lang": "en",
    "type_name": "intra-intra/news-nouv",
    "created": "2017-01-05 00:00:00.0",
    "expirydate": "2017-01-14 00:00:00.0",
    "news_category_type_id": "1308334182981"
}