{
    "dcr_id": "1499788765543",
    "lang": "en",
    "type_name": "intra-intra/news-nouv",
    "created": "2017-07-13 00:00:00.0",
    "expirydate": "2017-07-20 00:00:00.0",
    "news_category_type_id": "1308325693175"
}