{
    "dcr_id": "1517338955606",
    "lang": "en",
    "type_name": "intra-intra/news-nouv",
    "created": "2018-01-30 00:00:00.0",
    "expirydate": "2018-02-12 00:00:00.0",
    "news_category_type_id": "1308334182982"
}