{
    "dcr_id": "1524595794581",
    "lang": "en",
    "type_name": "intra-intra/news-nouv",
    "created": "2018-04-26 00:00:00.0",
    "expirydate": "2018-05-10 00:00:00.0",
    "news_category_type_id": "1308334182981"
}