{
    "dcr_id": "1532372958188",
    "lang": "en",
    "type_name": "intra-intra/news-nouv",
    "created": "2018-07-23 00:00:00.0",
    "expirydate": "2018-08-02 00:00:00.0",
    "news_category_type_id": "1308334182983"
}