{
    "dcr_id": "1536177893926",
    "lang": "en",
    "type_name": "intra-intra/news-nouv",
    "created": "2018-09-06 00:00:00.0",
    "expirydate": "2018-09-13 00:00:00.0",
    "news_category_type_id": "1379951494338"
}