{
    "dcr_id": "1541539031651",
    "lang": "en",
    "type_name": "intra-intra/news-nouv",
    "created": "2018-11-07 00:00:00.0",
    "expirydate": "2018-11-12 00:00:00.0",
    "news_category_type_id": "1308325693175"
}