{
    "dcr_id": "1545160633420",
    "lang": "en",
    "type_name": "intra-intra/news-nouv",
    "created": "2018-12-20 00:00:00.0",
    "expirydate": "2019-01-03 00:00:00.0",
    "news_category_type_id": "1308325693175"
}