{
    "dcr_id": "1547493442135",
    "lang": "en",
    "type_name": "intra-intra/news-nouv",
    "created": "2019-01-14 00:00:00.0",
    "expirydate": "2019-01-24 00:00:00.0",
    "news_category_type_id": "1308334182983"
}