{
    "dcr_id": "1548342575440",
    "lang": "en",
    "type_name": "intra-intra/news-nouv",
    "created": "2019-01-24 00:00:00.0",
    "expirydate": "2019-01-29 00:00:00.0",
    "news_category_type_id": "1508942999196"
}