{
    "dcr_id": "1565704728385",
    "lang": "en",
    "type_name": "intra-intra/news-nouv",
    "created": "2019-08-15 00:00:00.0",
    "expirydate": "2019-08-17 00:00:00.0",
    "news_category_type_id": "1308334182982"
}