{
    "dcr_id": "1570209308029",
    "lang": "en",
    "type_name": "intra-intra/news-nouv",
    "created": "2019-10-07 00:00:00.0",
    "expirydate": "2019-10-17 00:00:00.0",
    "news_category_type_id": "1308334182982"
}