{
    "dcr_id": "1572982753962",
    "lang": "en",
    "type_name": "intra-intra/news-nouv",
    "created": "2019-11-07 00:00:00.0",
    "expirydate": "2019-11-21 00:00:00.0",
    "news_category_type_id": "1308325693175"
}