{
    "dcr_id": "1573047656177",
    "lang": "en",
    "type_name": "intra-intra/news-nouv",
    "created": "2019-11-07 00:00:00.0",
    "expirydate": "2019-11-14 00:00:00.0",
    "news_category_type_id": "1508942999196"
}