{
    "dcr_id": "1581439202812",
    "lang": "en",
    "type_name": "intra-intra/news-nouv",
    "created": "2020-02-13 00:00:00.0",
    "expirydate": "2020-02-20 00:00:00.0",
    "news_category_type_id": "1308334182981"
}