{
    "dcr_id": "1584362309481",
    "lang": "en",
    "type_name": "intra-intra/news-nouv",
    "created": "2020-03-13 00:00:00.0",
    "expirydate": "2020-03-15 00:00:00.0",
    "news_category_type_id": "1308334182983"
}