{
    "dcr_id": "1587504531874",
    "lang": "en",
    "type_name": "intra-intra/news-nouv",
    "created": "2020-04-21 00:00:00.0",
    "expirydate": "2020-04-28 00:00:00.0",
    "news_category_type_id": "1308334182983"
}