{
    "dcr_id": "1588065479820",
    "lang": "en",
    "type_name": "intra-intra/news-nouv",
    "created": "2020-04-30 00:00:00.0",
    "expirydate": "2020-05-14 00:00:00.0",
    "news_category_type_id": "1308334182982"
}