{
    "dcr_id": "1592927594795",
    "lang": "en",
    "type_name": "intra-intra/news-nouv",
    "created": "2020-06-25 00:00:00.0",
    "expirydate": "2020-07-02 00:00:00.0",
    "news_category_type_id": "1308334182982"
}