{
    "dcr_id": "1595943034941",
    "lang": "en",
    "type_name": "intra-intra/news-nouv",
    "created": "2020-07-29 00:00:00.0",
    "expirydate": "2020-08-06 00:00:00.0",
    "news_category_type_id": "1308325693175"
}