{
    "dcr_id": "1597068601421",
    "lang": "en",
    "type_name": "intra-intra/news-nouv",
    "created": "2020-08-10 00:00:00.0",
    "expirydate": "2020-08-20 00:00:00.0",
    "news_category_type_id": "1308334182983"
}