{
    "dcr_id": "1598377704673",
    "lang": "en",
    "type_name": "intra-intra/news-nouv",
    "created": "2020-08-27 00:00:00.0",
    "expirydate": "2020-09-10 00:00:00.0",
    "news_category_type_id": "1308334182981"
}