{
    "dcr_id": "1516910397405",
    "lang": "en",
    "type_name": "empl-empl",
    "staffadvisor": "Roberta.Battisti-Valle@agr.gc.ca",
    "submitername": "Rémi Villeneuve",
    "submiteremail": "Remi.Villeneuve@agr.gc.ca",
    "contactname": "Rémi Villeneuve",
    "contactemail": "Remi.Villeneuve@agr.gc.ca",
    "contactphonenumber": "613-773-1758",
    "issued": "2018-01-30"
}