{
    "dcr_id": "1531749734214",
    "lang": "en",
    "type_name": "empl-empl",
    "staffadvisor": "natalie.daigle2@canada.ca",
    "submitername": "Kathryn Jarrett",
    "submiteremail": "kathryn.jarrett@canada.ca",
    "contactname": "Kathryn Jarrett",
    "contactemail": "kathryn.jarrett@canada.ca",
    "contactphonenumber": "613-773-0979",
    "issued": "2018-07-16"
}