{
    "dcr_id": "1540315888335",
    "lang": "en",
    "type_name": "empl-empl",
    "staffadvisor": "catherine.deacon@canada.ca",
    "submitername": "Ryan Wilkes",
    "submiteremail": "ryan.wilkes@canada.ca",
    "contactname": "Catherine Deacon",
    "contactemail": "catherine.deacon@canada.ca",
    "contactphonenumber": "613-773-3485",
    "issued": "2018-10-25"
}