{
    "dcr_id": "1542662199841",
    "lang": "en",
    "type_name": "empl-empl",
    "staffadvisor": "amanda.dent@canada.ca",
    "submitername": "Mark Tremblay",
    "submiteremail": "mark.tremblay@canada.ca",
    "contactname": "Trudy Devine",
    "contactemail": "trudy.devine@canada.ca",
    "contactphonenumber": "613-773-1857",
    "issued": "2018-11-21"
}