{
    "dcr_id": "1544806040513",
    "lang": "en",
    "type_name": "empl-empl",
    "staffadvisor": "amanda.chaiban@canada.ca",
    "submitername": "Robert Griffith",
    "submiteremail": "robert.griffith2@canada.ca",
    "contactname": "Robert Griffith",
    "contactemail": "robert.griffith2@canada.ca",
    "contactphonenumber": "613-773-2247",
    "issued": "2018-12-14"
}