{
    "dcr_id": "1555601079846",
    "lang": "en",
    "type_name": "empl-empl",
    "staffadvisor": "chantal.desbiens@canada.ca",
    "submitername": "Anne-Marie Boisvert",
    "submiteremail": "anne-marie.boisvert@canada.ca",
    "contactname": "Anne-Marie Boisvert",
    "contactemail": "anne-marie.boisvert@canada.ca",
    "contactphonenumber": "613-773-1510",
    "issued": "2019-04-23"
}