{
    "dcr_id": "1580839359740",
    "lang": "en",
    "type_name": "empl-empl",
    "staffadvisor": "adriana.azzi3@canada.ca",
    "submitername": "Martine McFarlane",
    "submiteremail": "martine.mcfarlane@canada.ca",
    "contactname": "Martine McFarlane",
    "contactemail": "martine.mcfarlane@canada.ca",
    "contactphonenumber": "613-773-5891",
    "issued": "2020-02-05"
}