{
    "dcr_id": "1591968963462",
    "lang": "en",
    "type_name": "empl-empl",
    "staffadvisor": "Amanda.chaiban@canada.ca",
    "submitername": "Leanne Whelan",
    "submiteremail": "leanne.whelan@canada.ca",
    "contactname": "Leanne Whelan",
    "contactemail": "leanne.whelan@canada.ca",
    "contactphonenumber": "709-793-0206",
    "issued": "2020-06-16"
}