{
    "dcr_id": "1593175553771",
    "lang": "en",
    "type_name": "empl-empl",
    "staffadvisor": "catherine.deacon@canada.ca",
    "submitername": "Catherine Deacon",
    "submiteremail": "catherine.deacon@canada.ca",
    "contactname": "Catherine Deacon",
    "contactemail": "Catherine.deacon@canada.ca",
    "contactphonenumber": "613-668-2312",
    "issued": "2020-06-26"
}