{
    "dcr_id": "1594734116525",
    "lang": "en",
    "type_name": "empl-empl",
    "staffadvisor": "prescille.lebrun@canada.ca",
    "submitername": "Préscille Lebrun",
    "submiteremail": "prescille.lebrun@canada.ca",
    "contactname": "Préscille Lebrun",
    "contactemail": "prescille.lebrun@canada.ca",
    "contactphonenumber": "613-773-2809",
    "issued": "2020-07-16"
}