{
    "dcr_id": "1599586388804",
    "lang": "en",
    "type_name": "empl-empl",
    "staffadvisor": "erica.shadford@canada.ca",
    "submitername": "Bill Edwardson",
    "submiteremail": "william.edwardson@canada.ca",
    "contactname": "Bill Edwardson",
    "contactemail": "william.edwardson@canada.ca",
    "contactphonenumber": "613-818-3103",
    "issued": "2020-09-21"
}