{
    "dcr_id": "1360700688523",
    "title": {
        "en": "What we do",
        "fr": "Ce que nous faisons"
    },
    "modified": "2016-12-21",
    "issued": "2013-02-21",
    "templatetype": "content page 1 column",
    "page_type": "1",
    "node_id": "1354137774028",
    "dc_date_created": "2013-02-21",
    "managing_branch": "PAB",
    "parent_node_id": "1354137774027",
    "label": {
        "en": "What We Do",
        "fr": "Ce que nous faisons"
    },
    "exturl": "",
    "teamsite_location": {
        "en": "/default/main/AAFC-AAC/Internet-Internet/CCB-DGCC/WORKAREA/CCB-DGCC/templatedata/comm-comm/gene-gene/data/mandate_1360700688523_en",
        "fr": "/default/main/AAFC-AAC/Internet-Internet/CCB-DGCC/WORKAREA/CCB-DGCC/templatedata/comm-comm/gene-gene/data/mandate_1360700688523_fr"
    },
    "type_name": "sitemapinit",
    "has_dcr_id": true,
    "breadcrumb": {
        "en": "What We Do",
        "fr": "Ce que nous faisons"
    },
    "layout_name": "content page 1 column",
    "lang": "en",
    "meta": {
        "issued": {
            "en": "2013-02-21",
            "fr": "2013-02-21"
        },
        "modified": {
            "en": "2016-12-21",
            "fr": "2016-12-21"
        },
        "format": {
            "en": "gcformat",
            "fr": "gcformat"
        },
        "title": {
            "en": "What we do",
            "fr": "Ce que nous faisons"
        },
        "subject": {
            "en": "economic development;drugs;agriculture",
            "fr": "agriculture;rep\u00e8re"
        },
        "description": {
            "en": "We publish service standards to the public to highlight our commitment to: transparent management accountability for results public-centered service delivery Performance against service standards will be tracked and the results will be made available to clients on a yearly basis.",
            "fr": "Le Minist\u00e8re utilisera ces rapports de rendement pour identifier : les tendances dans le rendement des services les points forts les points \u00e0 am\u00e9liorer Visionnez le Rapport bisannuel sur les normes de service d'AAC : Exercices 2010-2012 et le Rapport annuel sur les normes de service : Exercice 2012-2013."
        },
        "language": {
            "en": "eng",
            "fr": "fra"
        },
        "keywords": {
            "en": "vital role;Fiscal Years;normal circumstances;Agri-Food Canada;service standards",
            "fr": "rendement des services;\u00e9conomie agroalimentaire de classe mondiale;circonstances normales;Agroalimentaire Canada;normes de service"
        },
        "audience": {
            "en": "gcaudience",
            "fr": "gcaudience"
        },
        "type": {
            "en": "organizational description",
            "fr": "description de l'organisation"
        },
        "creator": {
            "en": "Agriculture and Agri-Food Canada;Government of Canada",
            "fr": "Agriculture et Agroalimentaire Canada;Gouvernement du Canada"
        },
        "spatial": {
            "en": "gcregions",
            "fr": "gcregions"
        },
        "service": {
            "en": "AAFC-AAC",
            "fr": "AAFC-AAC"
        },
        "accessRights": {
            "en": "2",
            "fr": "2"
        },
        "legalName": {
            "en": "agriculture_and_agri_food_canada",
            "fr": "agriculture_et_agroalimentaire_canada"
        },
        "areaServed": {
            "en": "Canada",
            "fr": "Canada"
        }
    },
    "css": {
        "fr": null
    },
    "js": {
        "en": null,
        "fr": null
    },
    "body": {
        "en": "<!-- D&eacute;but du contenu -->\r\n    <h2>Our vision</h2>\n<blockquote>\n<p>Driving innovation and ingenuity to build a world leading agricultural and food economy for the benefit of all Canadians.</p>\n</blockquote>\n<h2>Our mission</h2>\n<blockquote>\n<p>Agriculture and Agri-Food Canada provides leadership in the growth and development of a competitive, innovative and sustainable Canadian agriculture and agri-food sector.</p>\n</blockquote>\n<h2>Our responsibilities</h2>\n<p>The activities of the Department range from the farmer to the consumer, from the farm to global markets, through all phases of producing, processing and marketing of farm, food and bio-based products. Agriculture is also a shared jurisdiction in Canada, and the Department works closely with provincial and territorial governments in the development and delivery of policies and programs.</p>\n<p>The Department is also responsible for ensuring collaboration with its <a href=\"/eng/about-our-department/partners-and-agencies-agriculture-and-agri-food-canada/?id=1360701203481#a2\">portfolio partners</a> which are also involved in regulating and supporting Canadian agriculture.</p>\n<p>The Department includes the <a href=\"/eng/about-our-department/partners-and-agencies-agriculture-and-agri-food-canada/canadian-pari-mutuel-agency/?id=1204043533186\">Canadian Pari-Mutuel Agency</a>. This special operating agency regulates and supervises pari-mutuel betting on horse racing at racetracks across Canada.</p>\n<h2>Our organization structure</h2>\n<p>Consult the Department's <a href=\"/eng/about-our-department/what-we-do/organization-structure/?id=1174311378019\">organization structure</a> for information on senior managers and key personnel.</p>\n\n<h2 id=\"a1\">Our service pledge</h2>\n\n<p>At Agriculture and Agri-Food Canada, we take pride in what we do. We are an organization dedicated to serving the public. We are here to provide support to both our clients and colleagues. We are committed to delivering high quality service because we understand the importance of agriculture to our economy, communities, environment and human health.</p>\n\n<p>At Agriculture and Agri-Food Canada, we are...</p>\n<dl class=\"list-unstyled mrgn-lft-lg mrgn-lft-md\">\n<dt class=\"mrgn-tp-md\"><b>Client-Focused</b></dt>\n<dd class=\"mrgn-lft-0\">We take the time to understand the needs of our clients and colleagues.</dd>\n<dt class=\"mrgn-tp-md\"><b>Helpful</b></dt>\n<dd class=\"mrgn-lft-0\">We provide assistance and reduce unnecessary burden placed on our clients.</dd>\n<dt class=\"mrgn-tp-md\"><b>Accountable</b></dt>\n<dd class=\"mrgn-lft-0\">We are accountable to our clients, ourselves, and our colleagues.</dd>\n<dt class=\"mrgn-tp-md\"><b>Respectful</b></dt>\n<dd class=\"mrgn-lft-0\">We demonstrate respect to both our clients and colleagues.</dd>\n<dt class=\"mrgn-tp-md\"><b>Timely</b></dt>\n<dd class=\"mrgn-lft-0\">We provide timely and courteous services to clients and colleagues alike.</dd>\n<dt class=\"mrgn-tp-md\"><b>Accurate</b></dt>\n<dd class=\"mrgn-lft-0\">We provide information that is accurate, accessible and up-to-date.</dd>\n</dl>\n\n<p>At Agriculture and Agri-Food Canada, we are dedicated to making a continual effort to improve our services.</p>\n\n<h2 id=\"a2\">Our service standards</h2>\n\n<p>Find out when you can expect to receive the service you requested and how Agriculture and Agri-Food Canada is meeting its service goals on our <a href=\"?id=1481145978400\">Service Standards</a>  page.</p>\n\n<h2>Related links</h2>\n\n<ul>\n      <li><a href=\"?id=1360699683758\">About Agriculture and Agri-Food Canada</a></li>\n      <li><a href=\"?id=1174311378019\">Organizational structure</a></li>\n      <li><a href=\"?id=1360701203481#a2\">Partners</a></li>\n      <li><a href=\"?id=1448297869529\">Values and ethics</a></li>\n</ul>\n\n\n\r\n    <!-- Fin du contenu -->",
        "fr": "\r\n    \r\n    <!-- MainContentStart -->\r\n    <!-- D&eacute;but du contenu -->\r\n    <h2>Notre vision</h2>\n\n<blockquote>\n<p>Stimuler l'innovation et faire preuve d'ing\u00e9niosit\u00e9 pour cr\u00e9er, dans l'int\u00e9r\u00eat de tous les Canadiens, une \u00e9conomie agroalimentaire de classe mondiale.</p>\n</blockquote>\n\n<h2>Notre mission</h2>\n\n<blockquote>\n<p>Agriculture et Agroalimentaire Canada oriente la croissance et le d\u00e9veloppement d'un secteur canadien de l'agriculture et de l'agroalimentaire comp\u00e9titif, innovateur et durable.</p>\n</blockquote>\n\n<h2>Nos responsabilit\u00e9s</h2>\n\n<p>Les activit\u00e9s du Minist\u00e8re s'adressent \u00e0 tous les intervenants entre l'agriculteur et le consommateur, entre l'exploitation agricole et les march\u00e9s mondiaux, et concernent toutes les phases de la production, de la transformation et de la commercialisation de produits agricoles, alimentaires et biologiques. En outre, l'agriculture rel\u00e8ve d'une comp\u00e9tence partag\u00e9e au Canada, et le Minist\u00e8re collabore \u00e9troitement avec les gouvernements provinciaux et territoriaux dans le cadre de l'\u00e9laboration et de l'ex\u00e9cution de politiques et de programmes.</p>\n\n<p>De plus, le Minist\u00e8re doit assurer la collaboration avec ses <a href=\"/fra/a-propos-de-notre-ministere/partenaires-et-agences-agriculture-et-agroalimentaire-canada/?id=1360701203481#a2\">partenaires du portefeuille</a>, qui participent \u00e9galement \u00e0 la r\u00e9glementation et au soutien de l'agriculture canadienne.</p>\n\n<p>Le Minist\u00e8re comprend aussi l'<a href=\"/fra/a-propos-de-notre-ministere/partenaires-et-agences-agriculture-et-agroalimentaire-canada/agence-canadienne-du-pari-mutuel/?id=1204043533186\">Agence canadienne du pari mutuel</a>. Cet organisme de service sp\u00e9cial r\u00e9glemente et supervise les activit\u00e9s de pari mutuel men\u00e9es sur les courses de chevaux aux hippodromes du Canada.</p>\n<h2>Notre structure organisationnelle</h2>\n\n<p>Consultez la <a href=\"/fra/a-propos-de-notre-ministere/ce-que-nous-faisons/structure-organisationnelle/?id=1174311378019\">structure organisationnelle</a> du Minist\u00e8re pour obtenir des renseignements au sujet des cadres sup\u00e9rieurs et des membres cl\u00e9s du personnel.</p>\n\n<h2 id=\"a1\">Notre engagement en mati\u00e8re de service</h2>\n\n<p>\u00c0 Agriculture et Agroalimentaire Canada, nous sommes fiers de ce que nous faisons. Nous sommes une organisation qui a le service au public \u00e0 c\u0153ur. Nous sommes ici pour appuyer nos clients et nos coll\u00e8gues. Nous tenons \u00e0 assurer une prestation de services de haute qualit\u00e9 parce que nous comprenons l'importance de l'agriculture pour notre \u00e9conomie, nos collectivit\u00e9s et notre environnement ainsi que pour la sant\u00e9 humaine.</p>\n\n<p>\u00c0 Agriculture et Agroalimentaire Canada, nous sommes ...</p>\n\n<dl class=\"list-unstyled mrgn-lft-lg mrgn-lft-md\">\n<dt class=\"mrgn-tp-md\"><b>Soucieux du service \u00e0 la client\u00e8le</b></dt>\n<dd class=\"mrgn-lft-0\">Nous prenons le temps de comprendre les besoins de nos clients et de nos coll\u00e8gues.</dd>\n<dt class=\"mrgn-tp-md\"><b>Utiles</b></dt>\n<dd class=\"mrgn-lft-0\">Nous pr\u00eatons assistance \u00e0 nos clients et tentons de r\u00e9duire le fardeau inutile qui leur est impos\u00e9.</dd>\n\n<dt class=\"mrgn-tp-md\"><b>Responsables</b></dt>\n<dd class=\"mrgn-lft-0\">Nous sommes responsables envers nos clients, nous-m\u00eames et nos coll\u00e8gues.</dd>\n<dt class=\"mrgn-tp-md\"><b>Respectueux</b></dt>\n<dd class=\"mrgn-lft-0\">Nous respectons nos clients et nos coll\u00e8gues.</dd>\n\n<dt class=\"mrgn-tp-md\"><b>Opportuns</b></dt>\n<dd class=\"mrgn-lft-0\">Nous offrons \u00e0 nos clients et \u00e0 nos coll\u00e8gues des services courtois dans des d\u00e9lais appropri\u00e9s.</dd>\n<dt class=\"mrgn-tp-md\"><b>Pr\u00e9cis</b></dt>\n<dd class=\"mrgn-lft-0\">Nous fournissons de l'information qui est exacte, accessible et \u00e0 jour.</dd>\n</dl>\n\n<p>\u00c0 Agriculture et Agroalimentaire Canada, nous avons \u00e0 c\u0153ur d'am\u00e9liorer constamment nos services.</p>\n\n<h2 id=\"a2\">Nos normes de service</h2>\n\n <p>D\u00e9couvrez quand vous pouvez vous attendre \u00e0 recevoir le service que vous avez demand\u00e9 et comment Agriculture et Agroalimentaire Canada atteint ses objectifs de service sur notre page des <a href=\"?id=1481145978400\">Normes de service d\u2019Agriculture et Agroalimentaire Canada</a>.</p>\n\n\n<h2>Liens connexes</h2>\n\n<ul>\n      <li><a href=\"?id=1360699683758\">\u00c0 propos d'Agriculture et Agroalimentaire Canada</a></li>\n      <li><a href=\"?id=1174311378019\">Structure organisationnelle</a></li>\n      <li><a href=\"?id=1360701203481#a2\">Partenaires</a></li>\n      <li><a href=\"?id=1448297869529\">Code de valeurs et d'\u00e9thique</a></li>\n</ul>\n\n\n\r\n    <!-- Fin du contenu -->\r\n\t\r\n\t\r\n\t\r\n  "
    }
}