{
    "dcr_id": "1360881916382",
    "title": {
        "en": "Food products",
        "fr": "Produits alimentaires"
    },
    "modified": "2020-09-25",
    "issued": "2013-02-21",
    "templatetype": "content page 1 column",
    "page_type": "1",
    "node_id": "1354137773765",
    "dc_date_created": "2013-02-21",
    "managing_branch": "PAB",
    "parent_node_id": "1354137773675",
    "label": {
        "en": "Food products",
        "fr": "Produits alimentaires"
    },
    "exturl": "",
    "teamsite_location": {
        "en": "/default/main/AAFC-AAC/Internet-Internet/CCB-DGCC/WORKAREA/CCB-DGCC/templatedata/comm-comm/gene-gene/data/markets_and_trade_1360881916382_en",
        "fr": "/default/main/AAFC-AAC/Internet-Internet/CCB-DGCC/WORKAREA/CCB-DGCC/templatedata/comm-comm/gene-gene/data/markets_and_trade_1360881916382_fr"
    },
    "type_name": "sitemapinit",
    "has_dcr_id": true,
    "breadcrumb": {
        "en": "Food products",
        "fr": "Produits alimentaires"
    },
    "layout_name": "content page 1 column",
    "lang": "en",
    "meta": {
        "issued": {
            "en": "2013-02-21",
            "fr": "2013-02-21"
        },
        "modified": {
            "en": "2020-09-25",
            "fr": "2020-09-25"
        },
        "format": {
            "en": "gcformat",
            "fr": "gcformat"
        },
        "title": {
            "en": "Food products",
            "fr": "Produits alimentaires"
        },
        "subject": {
            "en": "functional foods",
            "fr": "aliment fonctionnel"
        },
        "description": {
            "en": "Sector specific market information, functional foods, natural health and organic products, food and beverage processing",
            "fr": "Information sur les march\u00e9s sectoriels, aliments fonctionnels, produits de sant\u00e9 naturels et biologiques, transformation des aliments et des boissons"
        },
        "language": {
            "en": "eng",
            "fr": "fra"
        },
        "keywords": {
            "en": " natural health products ; organice products; Spirit Drinks;Industry information",
            "fr": " produits biologiques ; produits de sant\u00e9 naturels; spiritueux;tendances du march\u00e9"
        },
        "audience": {
            "en": "gcaudience",
            "fr": "gcaudience"
        },
        "type": {
            "en": "administrative page",
            "fr": "page administrative"
        },
        "creator": {
            "en": "Agriculture and Agri-Food Canada;Government of Canada",
            "fr": "Agriculture et Agroalimentaire Canada;Gouvernement du Canada"
        },
        "spatial": {
            "en": "gcregions",
            "fr": "gcregions"
        },
        "service": {
            "en": "AAFC-AAC",
            "fr": "AAFC-AAC"
        },
        "accessRights": {
            "en": "2",
            "fr": "2"
        },
        "legalName": {
            "en": "agriculture_and_agri_food_canada",
            "fr": "agriculture_et_agroalimentaire_canada"
        },
        "areaServed": {
            "en": "Canada",
            "fr": "Canada"
        }
    },
    "body": {
        "en": "<!-- D&eacute;but du contenu -->\r\n    <noscript>\n<div class=\"row profile\">\n<div class=\"col-md-6\">\n     \n        <p>Processed food and beverages, help with regulatory requirements, regulatory approval process , regulations in the sector, Spirit Drinks Trade Act</p>\n\n\n <!-- START Social Buttons -->\n<div class=\"pull-left\">\n<section class=\"followus mrgn-tp-0\"> \n   <h2>Follow:</h2> \n   <ul> \n    <li><a href=\"https://www.facebook.com/CanadianAgriculture/\" class=\"facebook gl-follow\" rel=\"external\"> <span class=\"wb-inv\">Facebook</span></a></li> \n    <li><a href=\"https://twitter.com/AAFC_Canada\" class=\"twitter gl-follow\" rel=\"external\"> <span class=\"wb-inv\">Twitter</span></a></li> \n    \n    <li><a href=\"https://www.linkedin.com/company/aafc-aac/?viewAsMember=true\" class=\"linkedin gl-follow\" rel=\"external\"><span class=\"wb-inv\">LinkedIn</span></a></li>    \n    \n    <li><a href=\"https://www.youtube.com/user/AgricultureCanadaEng\" class=\"youtube gl-follow\" rel=\"external\"><span class=\"wb-inv\">YouTube</span></a></li> \n   </ul> \n  </section>\n</div>\n<!-- END Social Buttons -->\n</div>\n<div class=\"col-md-6 mrgn-tp-sm hidden-sm hidden-xs\">\n<img src=\"https://www.agr.gc.ca/resources/prod/img/topic_food_products.jpg\" class=\"img-responsive\" alt=\"\"><br>\n</div></div></noscript>\n\n<script src=\"https://ajax.googleapis.com/ajax/libs/jquery/2.2.4/jquery.js\"></script>\n<script>\n$( document ).ready( function() {\nvar h1 = document.getElementsByTagName(\"h1\")[0];\nh1.parentNode.removeChild(h1);\ndocument.getElementsByTagName(\"main\")[0].innerHTML = \n'<div class=\"row profile\"><div class=\"col-md-6\"><h1>Food products<p>Processed food and beverages, help with regulatory requirements, regulatory approval process , regulations in the sector, Spirit Drinks Trade Act. <!-- START Social Buttons --> <div class=\"pull-left\"> <section class=\"followus mrgn-tp-0\"> <h2>Follow: <ul> <li><a href=\"https://www.facebook.com/CanadianAgriculture/\" class=\"facebook gl-follow\" rel=\"external\"> <span class=\"wb-inv\">Facebook <li><a href=\"https://twitter.com/AAFC_Canada\" class=\"twitter gl-follow\" rel=\"external\"> <span class=\"wb-inv\">Twitter <li><a href=\"https://www.linkedin.com/company/aafc-aac/?viewAsMember=true\" class=\"linkedin gl-follow\" rel=\"external\"><span class=\"wb-inv\">LinkedIn <li><a href=\"https://www.youtube.com/user/AgricultureCanadaEng\" class=\"youtube gl-follow\" rel=\"external\"><span class=\"wb-inv\">YouTube  <!-- END Social Buttons --> <div class=\"col-md-6 mrgn-tp-sm hidden-sm hidden-xs\"><img src=\"https://www.agr.gc.ca/resources/prod/img/topic_food_products.jpg\" class=\"pull-right img-responsive thumbnail\" alt=\"\"/><br/>'\n+ document.getElementsByTagName(\"main\")[0].innerHTML;\n})\n</script>\n\n<div class=\"clearfix\"></div>\n\n<div class=\"row\">\n<section class=\"col-md-4 col-xs-12 pull-right lnkbx\">\n<h2>Most requested</h2>\n<ul>\n  <li><a href=\"?id=1174563085690\">Overview of the Food and Beverage Processing Industry</a></li>\n  <li><a href=\"?id=1274467299466\">Canada's Regulatory System for Foods with Health Benefits - An Overview for Industry</a></li>\n  <li><a href=\"?id=1397673574797\">\"Gluten Free\" Claims in the Marketplace</a></li>\n</ul>\n</section>\n\n<section class=\"col-md-8 col-xs-12 pull-left\">\n\n<div class=\"wb-eqht row wb-init wb-eqht-inited\" id=\"wb-auto-1\">\n\n<h2 class=\"col-md-6 nowrap\">Services and information</h2>\n\n<div class=\"clearfix\"></div>\n\n<div class=\"col-md-6\">\n<h3 class=\"h5\"><a href=\"?id=1361290991391\">Processed food and beverages</a></h3>\n<p>Information on the industry, sub-sector profiles and related regulatory requirements</p>\n</div>\n\n<div class=\"col-md-6\">\n<h3 class=\"h5\"><a href=\"?id=1490277756182\">Navigating through food regulatory requirements</a></h3>\n<p>Resources, relevant regulatory approval processes, scientific substantiation, innovative food products, market access, food processing facilities</p>\n</div>\n\n<div class=\"clearfix\"></div>\n\n<div class=\"col-md-6\">\n<h3 class=\"h5\"><a href=\"?id=1275404623675\"><cite>Spirit Drinks Trade Act</cite><br>Compliance and Enforcement Policy</a></h3>\n<p>Guidance on the legislative requirements, use of names of spirit drinks, list of the protected spirit drink names, options for compliance, roles and functions of decision makers, non-compliance</p>\n</div>\n\n<div class=\"col-md-6\">\n<h3 class=\"h5\"><a href=\"http://www.ic.gc.ca/eic/site/cipointernet-internetopic.nsf/eng/wr04244.html\">Request for Protection of a Geographical Indication</a></h3>\n<p>Process, request submission, sample forms for wines or agricultural products, fees, documents</p>\n</div>\n\n</div>\n</section>\n\n<div class=\"pull-right col-xs-12 col-md-4\">\n<section class=\"lnkbx\">\n<h2>Contributors</h2>\n<ul>\n    <li><a href=\"?id=1395690825741\">Agriculture and Agri-Food Canada</a></li>\n</ul>\n</section>\n\n</div>\n\n\n\n<section>\n\n<div class=\"wb-eqht row wb-init wb-eqht-inited\">\n\n<h2 class=\"col-md-6\">Related information</h2>\n\n<div class=\"clearfix\"></div>\n\n<div class=\"col-md-4\">\n<h3 class=\"h5\"><a href=\"?id=1361290241756\">Canadian agri-food sector</a></h3>\n<p>Economic outlook reports and sector overviews, value chain roundtables</p>\n</div>\n\n<div class=\"col-md-4\">\n<h3 class=\"h5\"><a href=\"?id=1432136045585\">International trade of agri-food products</a></h3>\n<p>Trade services for Canadian exporters, market information, business opportunities, trade shows, in-market expertise, Canada Brand</p>\n</div>\n\n</div>\n</section>\n\n</div>\n\r\n    <!-- Fin du contenu -->",
        "fr": "\r\n    \r\n    <!-- MainContentStart -->\r\n    <!-- D&eacute;but du contenu -->\r\n    <noscript>\n<div class=\"row profile\">\n<div class=\"col-md-6\">\n     \n        <p>Aliments transform\u00e9s et boissons, aide relative aux exigences r\u00e9glementaires, processus d\u2019approbation r\u00e9glementaire, r\u00e9glementation du secteur, Loi sur le commerce des spiritueux.</p>\n\n\n<!-- START Social Buttons -->\n<div class=\"pull-left\">\n<section class=\"followus mrgn-tp-0\"> \n <h2>Suivez\u00a0:</h2> \n <ul> \n    <li><a href=\"https://www.facebook.com/AgricultureCanadienne\" class=\"facebook gl-follow\" rel=\"external\"> <span class=\"wb-inv\">Facebook</span></a></li> \n    <li><a href=\"https://twitter.com/AAC_Canada\" class=\"twitter gl-follow\" rel=\"external\"> <span class=\"wb-inv\">Twitter</span></a></li> \n    \n    <li><a href=\"https://www.linkedin.com/company/aafc-aac/?viewAsMember=true\" class=\"linkedin gl-follow\" rel=\"external\"><span class=\"wb-inv\">LinkedIn</span></a></li>\n    \n    <li><a href=\"https://www.youtube.com/user/AgricultureCanadaFra\" class=\"youtube gl-follow\" rel=\"external\"><span class=\"wb-inv\">YouTube</span></a></li> \n </ul> \n  </section> \n  </div>\n<!-- END Social Buttons -->    \n</div>\n<div class=\"col-md-6 mrgn-tp-sm hidden-sm hidden-xs\">\n<img src=\"https://www.agr.gc.ca/resources/prod/img/topic_food_products.jpg\" class=\"img-responsive\" alt=\"\"><br>\n</div></div></noscript>\n\n<script src=\"https://ajax.googleapis.com/ajax/libs/jquery/2.2.4/jquery.js\"></script>\n<script>\n$( document ).ready( function() {\nvar h1 = document.getElementsByTagName(\"h1\")[0];\nh1.parentNode.removeChild(h1);\ndocument.getElementsByTagName(\"main\")[0].innerHTML = \n'<div class=\"row profile\"><div class=\"col-md-6\"><h1>Produits alimentaires<p>Aliments transform&eacute;s et boissons, aide relative aux exigences r&eacute;glementaires, processus d&rsquo;approbation r&eacute;glementaire, r&eacute;glementation du secteur, Loi sur le commerce des spiritueux. <!-- START Social Buttons --> <div class=\"pull-left\"> <section class=\"followus mrgn-tp-0\"> <h2>Suivez&nbsp;: <ul> <li><a href=\"https://www.facebook.com/AgricultureCanadienne\" class=\"facebook gl-follow\" rel=\"external\"> <span class=\"wb-inv\">Facebook <li><a href=\"https://twitter.com/AAC_Canada\" class=\"twitter gl-follow\" rel=\"external\"> <span class=\"wb-inv\">Twitter <li><a href=\"https://www.linkedin.com/company/aafc-aac/?viewAsMember=true\" class=\"linkedin gl-follow\" rel=\"external\"><span class=\"wb-inv\">LinkedIn <li><a href=\"https://www.youtube.com/user/AgricultureCanadaFra\" class=\"youtube gl-follow\" rel=\"external\"><span class=\"wb-inv\">YouTube    <!-- END Social Buttons -->  <div class=\"col-md-6 mrgn-tp-sm hidden-sm hidden-xs\"> <img src=\"https://www.agr.gc.ca/resources/prod/img/topic_food_products.jpg\" class=\"pull-right img-responsive thumbnail\" alt=\"\"/><br/>'\n+ document.getElementsByTagName(\"main\")[0].innerHTML;\n})\n</script>\n\n\n<div class=\"clearfix\"></div>\n\n<div class=\"row\">\n<section class=\"col-md-4 col-xs-12 pull-right lnkbx\">\n<h2>En demande</h2>\n<ul>\n  <li><a href=\"?id=1449236177345\">Innovations alimentaires \u00e9mergentes\u00a0: tendances et opportunit\u00e9s</a></li>\n  <li><a href=\"?id=1171560813521\">Industrie canadienne de la bi\u00e8re</a></li>\n  <li><a href=\"?id=1449838956652\">Industrie canadienne de la fabrication  de produits laitiers</a></li>\n</ul>\n</section>\n\n<section class=\"col-md-8 col-xs-12 pull-left\">\n\n<div class=\"wb-eqht row wb-init wb-eqht-inited\" id=\"wb-auto-1\">\n\n<h2 class=\"col-md-6 nowrap\">Services et renseignements</h2>\n\n<div class=\"clearfix\"></div>\n\n<div class=\"col-md-6\">\n<h3 class=\"h5\"><a href=\"?id=1361290991391\">Aliments et boissons transform\u00e9s</a></h3>\n<p>Information sur l'industrie, profils des sous-secteurs et les exigences r\u00e9glementaires connexes</p>\n</div>\n\n<div class=\"col-md-6\">\n<h3 class=\"h5\"><a href=\"?id=1490277756182\">Comprendre les exigences r\u00e9glementaires touchant les aliments</a></h3>\n<p>Ressources, processus d\u2019approbation r\u00e9glementaires pertinents, corroboration scientifique, produits alimentaires innovateurs, acc\u00e8s aux march\u00e9s, \u00e9tablissements de transformation des aliments</p>\n</div>\n\n<div class=\"clearfix\"></div>\n\n<div class=\"col-md-6\">\n<h3 class=\"h5\"><a href=\"?id=1275404623675\">Politique de conformit\u00e9 et d\u2019application de la <cite>Loi sur le commerce des spiritueux</cite></a></h3>\n<p>Directives relatives aux exigences l\u00e9gislatives, utilisation des noms de spiritueux, liste des noms de spiritueux prot\u00e9g\u00e9s, options pour la conformit\u00e9, r\u00f4les et fonction des d\u00e9cideurs, non-conformit\u00e9</p>\n</div>\n\n<div class=\"col-md-6\">\n<h3 class=\"h5\"><a href=\"http://www.ic.gc.ca/eic/site/cipointernet-internetopic.nsf/fra/wr04244.html\">Demande de protection d\u2019une indication g\u00e9ographique</a></h3>\n<p>Processus, pr\u00e9sentation de la demande, formulaires types pour les vins ou les produits agricoles, frais, documents</p>\n</div>\n\n</div>\n</section>\n\n<div class=\"pull-right col-xs-12 col-md-4\">\n<section class=\"lnkbx\">\n<h2>Collaborateurs</h2>\n<ul>\n    <li><a href=\"?id=1395690825741\">Agriculture et Agroalimentaire Canada</a></li>\n</ul>\n</section>\n\n</div>\n\n\n<section>\n\n<div class=\"wb-eqht row wb-init wb-eqht-inited\">\n\n<h2 class=\"col-md-6\">Information connexe</h2>\n\n<div class=\"clearfix\"></div>\n\n<div class=\"col-md-4\">\n<h3 class=\"h5\"><a href=\"?id=1361290241756\">Secteur agroalimentaire canadien</a></h3>\n<p>Rapports sur les perspectives \u00e9conomiques et aper\u00e7u des secteurs, tables rondes sur les cha\u00eenes de valeur</p>\n</div>\n\n<div class=\"col-md-4\">\n<h3 class=\"h5\"><a href=\"?id=1432136045585\">Commerce international des produits agroalimentaires</a></h3>\n<p>Services commerciaux pour les exportateurs canadiens, information sur les march\u00e9s, d\u00e9bouch\u00e9s, salons professionnels, expertise sur les march\u00e9s, image de marque du Canada</p>\n</div>\n\n</div>\n</section>\n\n</div>\n\r\n    <!-- Fin du contenu -->\r\n\t\r\n\t\r\n\t\r\n  "
    },
    "css": {
        "fr": null
    },
    "js": {
        "en": null,
        "fr": null
    }
}