{
    "dcr_id": "1415860000001",
    "title": {
        "en": "Red meat and livestock market information - Canadian industry",
        "fr": "Information sur le march\u00e9 des viandes rouges"
    },
    "modified": "2021-01-11",
    "issued": "2003-02-24",
    "templatetype": "content page 1 column",
    "page_type": "1",
    "node_id": "1354137773862",
    "dc_date_created": "2003-02-24",
    "managing_branch": "MISB",
    "parent_node_id": "1579021763702",
    "label": {
        "en": "Red Meat and Livestock",
        "fr": "Viande rouge et b\u00e9tail"
    },
    "exturl": "",
    "teamsite_location": {
        "en": "/default/main/AAFC-AAC/Internet-Internet/MISB-DGSIM/SDAD-DDAS/RML-VRB/WORKAREA/RML-VRB/templatedata/comm-comm/gene-gene/data/redmeat_main_page_1415860000001_en",
        "fr": "/default/main/AAFC-AAC/Internet-Internet/MISB-DGSIM/SDAD-DDAS/RML-VRB/WORKAREA/RML-VRB/templatedata/comm-comm/gene-gene/data/redmeat_main_page_1415860000001_fr"
    },
    "type_name": "sitemapinit",
    "has_dcr_id": true,
    "breadcrumb": {
        "en": "Red Meat and Livestock",
        "fr": "Viande rouge et b\u00e9tail"
    },
    "layout_name": "content page 1 column",
    "lang": "en",
    "meta": {
        "issued": {
            "en": "2003-02-24",
            "fr": "2003-02-24"
        },
        "modified": {
            "en": "2021-02-12",
            "fr": "2021-02-12"
        },
        "format": {
            "en": "gcformat",
            "fr": "gcformat"
        },
        "title": {
            "en": "Red meat and livestock market information - Canadian industry",
            "fr": "Information sur le march\u00e9 des viandes rouges"
        },
        "subject": {
            "en": "architectural heritage;architecture;statistics",
            "fr": "commerce;alimentation animale;apiculture"
        },
        "description": {
            "en": "Red Meat Market Information Index",
            "fr": "Information sur le march&eacute; des viandes rouges - Indexe"
        },
        "language": {
            "en": "eng",
            "fr": "fra"
        },
        "keywords": {
            "en": "sheep;hogs;carcass weights;inventory;condemnations;trade;prices;slaughter;artificial insemination;swine;animal pedigree act;alternative livestock;calves;cattle;goats;lambs;Information;Red Meat Market",
            "fr": "consommation;demande;poides de carcasses;inventaires;condamnations;commerce;prix;g&eacute;n&eacute;tique;abattage;ins&egrave;mination artificielle;exportations;loi sur la g&eacute;n&eacute;alogie des animaux;esp&egrave;ces alternatifs;veaux;bovins;cr&egrave;vres;moutons;agneaux;porcs;viandes rouges;Information sur le march&eacute;"
        },
        "audience": {
            "en": "gcaudience",
            "fr": "gcaudience"
        },
        "type": {
            "en": "form",
            "fr": "terminologie"
        },
        "creator": {
            "en": "Agriculture and Agri-Food Canada;Government of Canada;Agriculture and Agri-Food Canada;Market and Industry Services Branch",
            "fr": "Agriculture et Agroalimentaire Canada;Gouvernement du Canada;Agriculture et Agroalimentaire Canada;Direction g&eacute;n&eacute;rale des services &agrave; l'industrie et aux march&eacute;s"
        },
        "spatial": {
            "en": "gcregions",
            "fr": "gcregions"
        },
        "service": {
            "en": "AAFC-AAC",
            "fr": "AAFC-AAC"
        },
        "accessRights": {
            "en": "2",
            "fr": "2"
        },
        "legalName": {
            "en": "agriculture_and_agri_food_canada",
            "fr": "agriculture_et_agroalimentaire_canada"
        },
        "areaServed": {
            "en": "Canada",
            "fr": "Canada"
        }
    },
    "css": {
        "fr": null
    },
    "js": {
        "en": null,
        "fr": null
    },
    "body": {
        "en": "<!-- D&eacute;but du contenu -->\r\n    <!-- Start content --><!-- InstanceBeginEditable name=\"ContentTitle\" --><!-- InstanceEndEditable --><!-- InstanceBeginEditable name=\"Content\" -->\n<!--\n<div _mce_name=\"section\" class=\"alert alert-warning\">\n<h2> ATTENTION: Website preventative maintenance notice</h2>\n<p>As part of our ongoing efforts to improve service to our clients, please be advised that we will be performing preventative maintenance Saturday, January 9 from 7:00 a.m. until Sunday, January 10, 4:00 p.m. <abbr title=\"Eastern Time\">ET</abbr>, which may affect the Agricultural Industry Market Information System (AIMIS) database and several web reports. We apologize for the inconvenience.</p>\n</div> \n<div _mce_name=\"section\" class=\"alert alert-warning\">\n<h2> ATTENTION: We are experiencing technical difficulties</h2>\n <p>We are experiencing some technical difficulties, which affects the Agricultural Industry Market Information System (AIMIS) database and several web reports. If you require personalized reports please send an e-mail to <a href=\"mailto:aafc.redmeat-vianderouge.aac@canada.ca\" title=\"Email: Animal Industry Division - Market Information Section\">aafc.redmeat-vianderouge.aac@canada.ca</a>. We apologize for the inconvenience.</p>\n</div>-->\n\n\n\n<noscript>\n<div class=\"row profile\">\n<div class=\"col-md-6\">\n     \n <!-- START Social Buttons -->\n<div class=\"pull-left\">\n<div _mce_name=\"section\" class=\"followus mrgn-tp-0\"> \n   <h2>Follow:</h2> \n   <ul> \n    <li><a href=\"https://www.facebook.com/CanadianAgriculture/\" class=\"facebook gl-follow\" rel=\"external\"> <span class=\"wb-inv\">Facebook</span></a></li> \n    <li><a href=\"https://twitter.com/AAFC_Canada\" class=\"twitter gl-follow\" rel=\"external\"> <span class=\"wb-inv\">Twitter</span></a></li> \n    \n    <li><a href=\"https://www.linkedin.com/company/aafc-aac/?viewAsMember=true\" class=\"linkedin gl-follow\" rel=\"external\"><span class=\"wb-inv\">LinkedIn</span></a></li>    \n    \n    <li><a href=\"https://www.youtube.com/user/AgricultureCanadaEng\" class=\"youtube gl-follow\" rel=\"external\"><span class=\"wb-inv\">YouTube</span></a></li> \n   </ul> \n  </div>\n</div>\n<!-- END Social Buttons -->\n</div>\n<div class=\"col-md-4 mrgn-tp-sm hidden-sm hidden-xs\">\n<img src=\"https://www5.agr.gc.ca/resources/prod/Internet-Internet/MISB-DGSIM/SDAD-DDAS/RML-VRB/images/Cows.jpg\" class=\"img-responsive\" alt=\"\"><br>\n</div></div></noscript>\n<script src=\"https://ajax.googleapis.com/ajax/libs/jquery/2.2.4/jquery.js\"></script>\n<script>\n$( document ).ready( function() {\nvar h1 = document.getElementsByTagName(\"h1\")[0];\nh1.parentNode.removeChild(h1);\ndocument.getElementsByTagName(\"main\")[0].innerHTML = \n'<div class=\"row profile\"><div class=\"col-md-8\"><h1>Red Meat and Livestock Market Information<p>Statistics and market information on red meat sectors including cattle and beef, hogs and pork, sheep, lamb, goats, wild game, and bison. <!-- START Social Buttons --> <div class=\"pull-left\"> <section class=\"followus mrgn-tp-0\"> <h2>Follow: <ul> <li><a rel=\"external\" class=\"facebook gl-follow\" href=\"https://www.facebook.com/CanadianAgriculture/\"> <span class=\"wb-inv\">Facebook <li><a rel=\"external\" class=\"twitter gl-follow\" href=\"https://twitter.com/AAFC_Canada\"> <span class=\"wb-inv\">Twitter <li><a rel=\"external\" class=\"linkedin gl-follow\" href=\"https://www.linkedin.com/company/aafc-aac/?viewAsMember=true\"><span class=\"wb-inv\">LinkedIn <li><a rel=\"external\" class=\"youtube gl-follow\" href=\"https://www.youtube.com/user/AgricultureCanadaEng\"><span class=\"wb-inv\">YouTube  <!-- END Social Buttons --> <div class=\"col-md-4 mrgn-tp-sm hidden-sm hidden-xs\"><img class=\"pull-right img-responsive thumbnail\" src=\"https://www5.agr.gc.ca/resources/prod/Internet-Internet/MISB-DGSIM/SDAD-DDAS/RML-VRB/images/Cows.jpg\" />'\n+ document.getElementsByTagName(\"main\")[0].innerHTML;\n})\n</script>\n<div class=\"clearfix\"></div>\n<section class=\"alert alert-info\">\n<h2 class=\"h4\">Looking for a quick reference document?</h2>\n<p> Then access our <a href=\"/eng/?id=1415860000002\">Red Meat Industry Profile</a> for the most up-to-date information.</p>\n</section>\n<div class=\"row\">\n<div class=\"col-md-8 pull-left\">\n<div class=\"well mrgn-bttm-md\">\n<h2>By Data Type</h2>\n<div class=\"row\">\n<div class=\"col-md-5\">\n<ul>\n<li><a href=\"/eng/?id=1382649715169\">Animal Genetics</a></li>\n<li><a href=\"/eng/?id=1415860000017\">Inventories</a></li>\n<li><a href=\"/eng/?id=1415860000018\">Farming Revenues and Expenses</a></li>\n<li><a href=\"/eng/?id=1415860000014\">Condemnations</a></li>\n<li><a href=\"/eng/?id=1415860000003\">Slaughter and Carcass Weights</a></li>\n</ul>\n</div>\n<div class=\"col-xs-6\">\n<ul>\n<li><a href=\"/eng/?id=1415860000026\">Production, Stocks, Supply and Disposition</a></li>\n<li><a href=\"/eng/?id=1415860000022\">Protein Available and Demand</a></li>\n<li><a href=\"/eng/?id=1415860000004\">Prices</a></li>\n<li><a href=\"/eng/?id=1415860000005\">Trade</a></li>\n<li><a href=\"/eng/?id=1415860000027\">Market Indicators</a></li>\n</ul>\n\n</div>\n</div>\n</div>\n</div>\n<div class=\"col-md-4 pull-right\">\n<div class=\"well mrgn-bttm-xl\">\n<h2 class=\"text-center\"> By Commodity</h2>\n<p class=\"text-center\">\n<a href=\"/eng/?id=1597089058872\" title=\"Link to the Cattle/Beef sector page\">Cattle/Beef</a><br>\n<a title=\"Link to the Hogs/Pork sector page\" href=\"/eng/animal-industry/red-meat-and-livestock-market-information/hogs-pork/?id=1605028722041\">Hogs/Pork</a><br>\nSheep and Lamb (Coming soon)<br>\nOther Livestock (Coming soon)\n</p>\n</div>\n</div>\n</div>\n<div class=\"clearfix\"></div>\n<h2>Additional information</h2>\n<ul>\n<li><a title=\"Animal Market Information \u2013 Definitions/Methodology Reference Guide\" href=\"/eng/?id=1602852563439\">Animal Market Information \u2013 Definitions/Methodology Reference Guide</a></li>\n<li><a href=\"/eng/?id=1415860000122\">Livestock Associations</a></li>\n<li><a href=\"/eng/?id=1415860000123\">Weekly Livestock Report Schedule / Calendar</a></li>\n<li><a title=\"Externel link to the Government of Canada Customized Report Services\" rel=\"external\" href=\"https://www.agr.gc.ca/eng/customized-report-services-canadian-meat-and-beef-trends/?id=1565807938480\">Customized Report Services \u2013 Canadian meat and beef trends</a></li>\n<li><a title=\"Externel link to Statistics Canada overview: COVID-19 and the beef supply chain\" rel=\"external\" href=\"https://www150.statcan.gc.ca/n1/pub/45-28-0001/2020001/article/00086-eng.htm?utm_source=clients1&amp;utm_medium=email&amp;utm_campaign=statcan_ppd_2020\">COVID-19 and the beef supply chain: An overview</a></li>\n</ul>\n<p>\u00a0</p>\n<div class=\"well\">\n<p>If you have any questions or require additional information, please send an e-mail to <a href=\"mailto:redmeat-vianderouge@agr.gc.ca\" title=\"Email: Animal Industry Division - Market Information Section\"> redmeat-vianderouge@agr.gc.ca</a></p>\n<h2>Our service standards</h2>\n<p>Service standards play a vital role in our market information program\u2019s commitment to planning, reporting and performance management. \nThey clearly define the level of service that clients can expect under normal circumstances.</p>\n<p>View the <a href=\"https://www.agr.gc.ca/eng/animal-industry/red-meat-and-livestock-market-information/service-standards-for-red-meat-and-livestock-reports/?id=1480968240072\" title=\"Service standards for red meat and livestock reports\">Service standards for red meat and livestock reports.</a></p>\n</div>\n<div class=\"clearfix\"></div>\n<!-- InstanceEndEditable --><!-- End content -->\n\r\n    <!-- Fin du contenu -->",
        "fr": "\r\n    \r\n    <!-- MainContentStart -->\r\n    <!-- D&eacute;but du contenu -->\r\n    <!-- Start content --><!-- InstanceBeginEditable name=\"ContentTitle\" --><!-- InstanceEndEditable --><!-- InstanceBeginEditable name=\"Content\" -->\n<!--\n<div _mce_name=\"section\" class=\"alert alert-warning\">\n<h2>ATTENTION: Entretien pr&eacute;ventif du site web</h2>\n<p>\nAfin d'am&eacute;liorer le service &agrave; la client&egrave;le, nous ex&eacute;cuterons un entretien pr&eacute;ventif du samedi 9 janvier, 7 h 00 au dimanche 10 janvier, 16 h 00 <abbr title=\"Heure normal de l'est\">HNE</abbr>. Cet entretien pourrait affecter notre base de donn&eacute;e du Syst&egrave;me d'information sur les march&eacute;s de l'industrie agricole (SIMIA) ainsi que plusieurs rapports web. Nous nous excusons pour les inconv&eacute;nients.</p>\n</div>\n\n<div _mce_name=\"section\" class=\"alert alert-warning\">\n<h2>ATTENTION: Nous &eacute;prouvons des difficult&eacute;s techniques</h2>\n<p>Nous &eacute;prouvons actuellement des difficult&eacute;s techniques qui affectent notre base de donn&eacute;e du Syst&egrave;me d'information sur les march&eacute;s de l'industrie agricole (SIMIA) ainsi que plusieurs rapports web. Pour des rapports personalis&eacute;s veuillez communiquer avec nous par courriel &agrave; <a href=\"mailto:aafc.redmeat-vianderouge.aac@canada.ca\" title=\"Courriel : Division de l'industrie animale, Section de l'information sur les march&eacute;s\"> aafc.redmeat-vianderouge.aac@canada.ca</a>. Nous nous excusons pour les inconv&eacute;nients.</p>\n</div>\n-->\n\n<noscript>\n<div class=\"row profile\">\n<div class=\"col-md-6\">\n     \n  <!-- START Social Buttons -->\n<div class=\"pull-left\">\n<div class=\"followus mrgn-tp-0\"> \n   <h2>Suivez :</h2> \n   <ul> \n    <li><a href=\"https://www.facebook.com/CanadianAgriculture/\" class=\"facebook gl-follow\" rel=\"external\"> <span class=\"wb-inv\">Facebook</span></a></li> \n    <li><a href=\"https://twitter.com/AAFC_Canada\" class=\"twitter gl-follow\" rel=\"external\"> <span class=\"wb-inv\">Twitter</span></a></li> \n    \n    <li><a href=\"https://www.linkedin.com/company/aafc-aac/?viewAsMember=true\" class=\"linkedin gl-follow\" rel=\"external\"><span class=\"wb-inv\">LinkedIn</span></a></li>    \n    \n    <li><a href=\"https://www.youtube.com/user/AgricultureCanadaEng\" class=\"youtube gl-follow\" rel=\"external\"><span class=\"wb-inv\">YouTube</span></a></li> \n   </ul> \n</div>\n </div>\n<!-- END Social Buttons -->\n</div>\n<div class=\"col-md-4 mrgn-tp-sm hidden-sm hidden-xs\">\n<img src=\"https://www5.agr.gc.ca/resources/prod/Internet-Internet/MISB-DGSIM/SDAD-DDAS/RML-VRB/images/Cows.jpg\" class=\"img-responsive\" alt=\"\"><br>\n</div></div></noscript>\n<script src=\"https://ajax.googleapis.com/ajax/libs/jquery/2.2.4/jquery.js\"></script>\n<script>\n$( document ).ready( function() {\nvar h1 = document.getElementsByTagName(\"h1\")[0];\nh1.parentNode.removeChild(h1);\ndocument.getElementsByTagName(\"main\")[0].innerHTML = \n'<div class=\"row profile\"><div class=\"col-md-8\"><h1>Information sur le march&eacute; des viandes rouges<p>Information sur le secteur de la viande rouge incluant les bovins et le b&oelig;uf, le porc, les moutons, les agneaux, les ch&egrave;vres, le gibier et le bison <!-- START Social Buttons --> <div class=\"pull-left\"> <section class=\"followus mrgn-tp-0\"> <h2>Suivez : <ul> <li><a rel=\"external\" href=\"https://www.facebook.com/CanadianAgriculture/\" class=\"facebook gl-follow\"> <span class=\"wb-inv\">Facebook <li><a rel=\"external\" href=\"https://twitter.com/AAFC_Canada\" class=\"twitter gl-follow\"> <span class=\"wb-inv\">Twitter <li><a rel=\"external\" href=\"https://www.linkedin.com/company/aafc-aac/?viewAsMember=true\" class=\"linkedin gl-follow\"><span class=\"wb-inv\">LinkedIn <li><a rel=\"external\" href=\"https://www.youtube.com/user/AgricultureCanadaEng\" class=\"youtube gl-follow\"><span class=\"wb-inv\">YouTube  <!-- END Social Buttons --> <div class=\"col-md-4 mrgn-tp-sm hidden-sm hidden-xs\"><img class=\"pull-right img-responsive thumbnail\" src=\"https://www5.agr.gc.ca/resources/prod/Internet-Internet/MISB-DGSIM/SDAD-DDAS/RML-VRB/images/Cows.jpg\" />'\n+ document.getElementsByTagName(\"main\")[0].innerHTML;\n})\n</script>\n<div class=\"clearfix\"></div>\n<section class=\"alert alert-info\">\n<h2 class=\"h4\"> \u00c0 la recherche d'un document de r\u00e9f\u00e9rence rapide?</h2>\n<p> Alors aller \u00e0 notre <a href=\"/fra/?id=1415860000002\">Profil d'industrie de viande rouge</a> pour les informations les plus \u00e0 jour disponibles.</p>\n</section>\n<div class=\"row\">\n<div class=\"col-md-8 pull-left\">\n<div class=\"well mrgn-bttm-md\">\n<h2>Par type de donn\u00e9es</h2>\n<div class=\"row\">\n<div class=\"col-md-5\">\n<ul>\n<li><a href=\"/fra/?id=1382649715169\">G\u00e9n\u00e9tique animale</a></li>\n<li><a href=\"/fra/?id=1415860000017\">Inventaires</a></li>\n<li><a href=\"/fra/?id=1415860000018\">Revenues et d\u00e9penses agricoles </a></li>\n<li><a href=\"/fra/?id=1415860000014\">Condamnations</a></li>\n<li><a href=\"/fra/?id=1415860000003\">Abattages et Poids des carcasses</a></li>\n</ul>\n</div>\n<div class=\"col-xs-6\">\n  \n<ul>\n<li><a href=\"/fra/?id=1415860000026\">Production, stocks et approvisionnement et \u00e9coulement</a></li>\n<li><a href=\"/fra/?id=1415860000022\">Disponibilit\u00e9 des aliments par esp\u00e8ces</a></li>\n<li><a href=\"/fra/?id=1415860000004\">Prix</a></li>\n<li><a href=\"/fra/?id=1415860000005\">Commerce international</a></li>\n<li><a href=\"/fra/?id=1415860000027\">Indicateurs des march\u00e9s</a></li>\n</ul>\n</div>\n</div>\n</div>\n</div>\n<div class=\"col-md-4 pull-right\">\n<div class=\"well mrgn-bttm-xl\">\n<h2 class=\"text-center\"> Par produit</h2>\n<p class=\"text-center\">\n<a href=\"/fra/?id=1597089058872\" title=\"Lien vers la page sur le secteur du bovin et boeuf\">bovin/boeuf</a><br>\n<a href=\"/fra/?id=1605028722041\" title=\"Lien ver la page sur le secteur du porc\">Porc </a><br>\nMoutons et agneaux (disponible bient\u00f4t)<br>\nB\u00e9tail alternatif (disponible bient\u00f4t)<br><br>\n</p>\n</div>\n</div>\n</div>\n<div class=\"clearfix\"></div>\n<h2>Informations additionnelles</h2>\n<ul>\n<li><a title=\"Information sur le march\u00e9 des animaux \u2013 D\u00e9finitions et guide de r\u00e9f\u00e9rence sur la m\u00e9thodologie\" href=\"/fra/?id=1602852563439\">Information sur le march\u00e9 des animaux \u2013 D\u00e9finitions et guide de r\u00e9f\u00e9rence sur la m\u00e9thodologie</a></li>\n<li><a href=\"/fra/?id=1415860000122\">Associations</a></li>\n<li><a href=\"/fra/?id=1415860000123\">Calendrier des rapports hebdomadaires</a></li>\n<li><a title=\"Lien externe vers Service de rapport personnalis\u00e9 du gouvernement du Canada\" rel=\"external\" href=\"https://www.agr.gc.ca/fra/industrie-marches-et-commerce/renseignements-sur-les-secteurs-canadiens-de-l-agroalimentaire/service-de-rapport-personnalise-tendances-canadiennes-relatives-a-la-viande-et-au-buf/?id=1565807938480\">Service de rapport personnalis\u00e9 \u2013 Tendances canadiennes relatives \u00e0 la viande et au b\u0153uf</a></li>\n\n<li><a title=\"Lien externe vers le rapport de Statistique Canada - La COVID-19 et la cha\u00eene d\u2019approvisionnement en b\u0153uf\" rel=\"external\" href=\"https://www150.statcan.gc.ca/n1/pub/45-28-0001/2020001/article/00086-fra.htm?utm_source=clients1&amp;utm_medium=email&amp;utm_campaign=statcan_ppd_2020\">La COVID-19 et la cha\u00eene d\u2019approvisionnement en b\u0153uf : un aper\u00e7u</a></li>\n\n</ul>\n<p>\u00a0 </p>\n<div class=\"clearfix\"></div>\n<div class=\"well\">\n<p>Pour toute question ou information additionnelle, veuillez communiquer avec nous par courriel \u00e0 <a title=\"Courriel : Division de l'industrie animale, Section de l'information sur les march\u00e9s\" href=\"mailto:aafc.redmeat-vianderouge.aac@canada.ca\"> aafc.redmeat-vianderouge.aac@canada.ca</a></p>\n<h2>Nos normes de service</h2>\n<p>Les normes de service jouent un r\u00f4le cl\u00e9 dans les processus de gestion de la planification, des rapports et du rendement de notre programme d'information sur le march\u00e9. Elles d\u00e9finissent clairement le niveau de rendement auquel les clients peuvent s'attendre lorsqu'ils re\u00e7oivent un service dans des circonstances normales.</p>\n<p>Visionnez les  <a title=\"Normes de service relatives aux rapports sur les animaux \u00e0 viande rouge et le b\u00e9tail\" href=\"https://www.agr.gc.ca/fra/industrie-marches-et-commerce/statistiques-et-information-sur-les-marches/par-produit-secteur/viande-rouge-et-betail/normes-de-service-relatives-aux-rapports-sur-les-animaux-a-viande-rouge-et-le-betail/?id=1480968240072\">Normes de service relatives aux rapports sur les animaux \u00e0 viande rouge et le b\u00e9tail.</a></p>\n</div>\n<div class=\"clearfix\"></div>\n<!-- InstanceEndEditable --><!-- End content -->\n\r\n    <!-- Fin du contenu -->\r\n\t\r\n\t\r\n\t\r\n  "
    }
}