{
    "dcr_id": "1370346218601",
    "title": {
        "en": "Soil management",
        "fr": "Gestion des sols"
    },
    "modified": "2020-01-30",
    "issued": "2014-06-09",
    "templatetype": "content page 1 column",
    "page_type": "1",
    "node_id": "1354137773752",
    "dc_date_created": "2014-06-09",
    "managing_branch": "PAB",
    "parent_node_id": "1354137773751",
    "label": {
        "en": "Soil Management",
        "fr": "Gestion des sols"
    },
    "exturl": "",
    "teamsite_location": {
        "en": "/default/main/AAFC-AAC/Internet-Internet/CCB-DGCC/WORKAREA/CCB-DGCC/templatedata/comm-comm/gene-gene/data/soil_management_1370346218601_en",
        "fr": "/default/main/AAFC-AAC/Internet-Internet/CCB-DGCC/WORKAREA/CCB-DGCC/templatedata/comm-comm/gene-gene/data/soil_management_1370346218601_fr"
    },
    "type_name": "sitemapinit",
    "has_dcr_id": true,
    "breadcrumb": {
        "en": "Soil Management",
        "fr": "Gestion des sols"
    },
    "layout_name": "content page 1 column",
    "lang": "en",
    "meta": {
        "issued": {
            "en": "2014-06-09",
            "fr": "2014-06-09"
        },
        "modified": {
            "en": "2020-01-30",
            "fr": "2020-01-30"
        },
        "format": {
            "en": "gcformat",
            "fr": "gcformat"
        },
        "title": {
            "en": "Soil management",
            "fr": "Gestion des sols"
        },
        "subject": {
            "en": "water;soil",
            "fr": "eau;sol"
        },
        "description": {
            "en": "Erosion is the wearing down of the surface of the earth due to the action of wind, water and gravity. It is a natural process and shapes the landscape around us. Use of land by man for agriculture, forestry, and transportation has accelerated these processes. Accelerated erosion has occurred in all the agricultural regions of Canada.",
            "fr": "L'\u00e9rosion d\u00e9signe l'usure de la surface de la terre sous l'action du vent, de l'eau et de la gravit\u00e9. Il s'agit d'un processus naturel qui fa\u00e7onne le paysage qui nous entoure. L'utilisation des terres par l'homme pour l'agriculture, la foresterie et les moyens de transport a acc\u00e9l\u00e9r\u00e9 ce processus d'usure. L'acc\u00e9l\u00e9ration de l'\u00e9rosion s'est produite dans toutes les r\u00e9gions agricoles du Canada."
        },
        "language": {
            "en": "eng",
            "fr": "fra"
        },
        "keywords": {
            "en": " Direct Seeding and No-Till; Tillage; Impacts of Wind Erosion; Impacts of Water Erosion;Soil Erosion",
            "fr": " Semis direct et culture sans travail du sol; Travail du sol; Cons\u00e9quences de l'\u00e9rosion \u00e9olienne; Cons\u00e9quences de l'\u00e9rosion hydrique;\u00c9rosion des sols"
        },
        "audience": {
            "en": "gcaudience",
            "fr": "gcaudience"
        },
        "type": {
            "en": "resource list",
            "fr": "liste de r\u00e9f\u00e9rence"
        },
        "creator": {
            "en": "Agriculture and Agri-Food Canada;Government of Canada",
            "fr": "Agriculture et Agroalimentaire Canada;Gouvernement du Canada"
        },
        "spatial": {
            "en": "gcregions",
            "fr": "gcregions"
        },
        "service": {
            "en": "AAFC-AAC",
            "fr": "AAFC-AAC"
        },
        "accessRights": {
            "en": "2",
            "fr": "2"
        },
        "legalName": {
            "en": "agriculture_and_agri_food_canada",
            "fr": "agriculture_et_agroalimentaire_canada"
        },
        "areaServed": {
            "en": "Canada",
            "fr": "Canada"
        }
    },
    "css": {
        "fr": null
    },
    "js": {
        "en": null,
        "fr": null
    },
    "body": {
        "en": "<!-- D&eacute;but du contenu -->\r\n    <h2>Soil erosion</h2>\n\n<p>Erosion is the wearing down of the surface of the earth due to the action of wind, water and gravity. It is a natural process and shapes the landscape around us. Use of land by man for agriculture, forestry, and transportation has accelerated these processes. Accelerated erosion has occurred in all the agricultural regions of Canada.</p>\n<p>Erosion and runoff from agricultural land affects surface and groundwater quality as well as agricultural productivity. For an overview of these issues and their solutions:</p>\n\n<nav>\n<ul>\n<li><a href=\"#a\">Impacts of erosion</a></li>\n<li><a href=\"#b\">Water erosion</a></li>\n<li><a href=\"#c\">Wind erosion</a></li>\n<li><a href=\"#d\">Tillage</a></li>\n<li><a href=\"?id=1294678601507\">Diagnosis and solutions for field erosion and surface drainage problems</a></li>\n</ul>\n</nav>\n\n<h2 id=\"a\">Impacts of erosion</h2>\n\n<p>Loss of soil from agricultural land may cause environmental impacts as well as reducing soil productivity.</p>\n\n<p>Dust from wind erosion reduces air quality and in extreme cases may reduce visibility resulting in hazardous driving conditions and potential impacts to human health. On May 14 and 15, 1984 visibilities were reduced to less than one kilometer over 155,400 square kilometres (km<sup>2</sup>) of the Prairies (Anderson 1984). Farm practices on the Prairies have changed since 1984 reducing the severity of wind erosion but localized dust storms do still occur during periods of drought.</p>\n\n<p>Sediment from water erosion causes turbidity in streams and lakes, and accumulation of sediment over time may reduce the volume of lakes and reservoirs. Plant nutrients and pesticides dissolved in runoff and attached to eroded soil may pollute surface water and have the potential to harm living organisms. Phosphorus is a particular concern since algal growth may stimulated to the extent that much of the oxygen needed by other organisms may be removed from the water by the rapidly growing algae.</p>\n\n<p>Soil productivity loss following erosion may be significant. This may result simply from loss of soil depth over rock reducing the volume available for plant roots. More commonly crop yields are reduced by the loss of plant nutrients, and the degradation of soil physical properties such as soil crusting and in the reduction of water holding capacity. Also soil variability is increased resulting in patchy crops which are difficult to manage and generally do not yield well.</p>\n\n<p>Topsoil, which is the most fertile layer of the soil, is most exposed to erosion and is lost first; also the mechanisms of erosion preferentially remove soil organic matter, clay, and fine silt material. The combination of topsoil loss and the finer soil fractions may have significant impacts on crop yields. Larney et al. (1995) reported that removal of topsoil reduced unfertilized crop yields by 50% for 4 out of 6 soils in Alberta. In most cases extra fertilizer can compensate for the impacts of erosion on soil fertility but this is an extra expense for the farmer and does little to offset the physical impacts of erosion on soil productivity.</p>\n\n<h2 id=\"b\">Water erosion</h2>\n\n<p>Water erosion is a threat to soil productivity on most annual crop land in Canada. It is caused by rain pounding on an inadequately protected soil surface and by the action of runoff when water flows have enough energy to cut into the soil.</p>\n\n<p>A general rule of thumb is that if you can observe erosion then you probably have a problem. That is because soil is at best a slowly renewable resource and once it has been lost the field probably won't be as productive for many years. Over time even small soil losses accumulate to reduce yields.</p>\n\n<p>There are several forms of water erosion. Sheet, sometimes called inter-rill, erosion is caused by the impact of raindrops which remove a thin layer of soil. Rill erosion occurs when enough runoff accumulates to form small channels up to 15 centimetres deep at the soil surface. Rills can either follow channels formed by tillage equipment or form a dendritic pattern, like tree branches. Gullies occur when rills join, resulting in more concentrated flow that cuts deeply into the soil. Rills can be leveled by tillage, whereas gullies require grading and leveling. Gullies tend to form in the same location year after year and if not repaired will disrupt field operations.</p>\n\n<p>Rainstorms causing erosion are most frequent in coastal British Columbia, Central Canada and Atlantic Canada. Rain on thawing soil can cause severe erosion, particularly on Prince Edward Island. Despite the fact that the Prairies receive less precipitation than the rest of Canada, water erosion can occasionally be a problem due to snowmelt and intense summer thunderstorms.</p>\n\n<p>Numerous factors interact to determine the severity of water erosion:</p>\n\n<ul>\n<li>rainfall intensity, amount, and timing;</li>\n<li>rate of snowmelt;</li>\n<li>soil factors such as texture, aggregate stability, surface roughness, infiltration rates, and moisture content;</li>\n<li>slope length and steepness;</li>\n<li>the area contributing runoff;</li>\n<li>the protection provided by growing crops and residue from previous crops and;</li>\n<li>the effectiveness of any soil conservation practice such as grassed waterways and terraces.</li>\n</ul>\n\n<p>The net result is that water erosion can be very variable within a field and over time. This requires continued vigilance to keep the soil productive.</p>\n\n<p>Water erosion is most effectively controlled by crop residues or growing plants which absorb the energy of raindrops and reduce the cutting energy of runoff. The amount of plant material required depends on the intensity of rain, the amount of runoff, soil conditions, the type and distribution of the residues, and the configuration of the slope. Conditions vary a great deal across Canada, even within individual fields; but generally on slopes of 6 to 9%, about 800 to 1,150 kilograms per hectare (700 to 1,000 pounds per acre) of flat cereal residue are recommended. This is equivalent to having about 35 to 50% of the soil covered with residue, which in many continuous cropping situations would require the adoption of reduced or minimum tillage. Low disturbance direct seeding or zero till is usually needed to maintain the 50 to 70% soil cover recommended on slopes between 10 and 15%. Slopes much above 15% are not recommended for annual crop production. It is recommended that a conservation plan, designed by a local agrologist, conservation technician, or agricultural engineer, be implemented to control water erosion.</p>\n\n<p>When agronomic or other conditions dictate that recommended crop residue levels cannot be maintained, other practices such as cover crops, spreading of residues, contour stripcropping, and terraces will be required to control water erosion. In locations where runoff concentrates it may be possible to prevent the formation of gullies by adding extra residue or double seeding, but usually a grassed waterway is required. Again, advice from a local specialist is recommended.</p>\n\n<h2 id=\"c\">Wind erosion</h2>\n\n<p>Wind erosion most frequently affects soils on the Prairies but wind may also cause problems on sandy soils in Ontario and during the winter on exposed fields in Prince Edward Island. Peat soils may also be affected.</p>\n\n<p>Wind erosion occurs when strong winds blow over a smooth, exposed, loose, and dry soil surface. Depending on conditions, the wind speeds required to initiate erosion of mineral soils vary between 25 and 50 kilometres per hour measured at 30 centimetres above the soil surface. Soil particles between 0.1 and 0.5 millimetre diameter are first to move. The wind pressure causes them to vibrate and, if their resonant frequency is achieved, they are ejected into the wind stream. Gravity quickly brings these particles back to earth but meanwhile they have gained considerable energy from the wind and they collide into the soil surface dislodging other particles. The process is called saltation and is very like an atomic chain reaction. Once a few soil particles are in motion the erosion process spreads very rapidly. Small soil particles and aggregates dislodged by these collisions are carried aloft by eddies in the wind, where they form dust clouds and may be transported for thousands of kilometers. Soil aggregates between 0.5 and 1 millimetre diameter generally does not travel far. They are rolled by impacts of saltating particles and the pressure of the wind. Saltation is just like sandblasting and can be very damaging to the soil and to growing crops.</p>\n\n<p>Wind erosion is curtailed when the wind dies down, when all loose particles have been removed, or when moist, compacted or frozen soil is exposed at the surface. However there have been situations in Canada where the soil to the entire depth of tillage has been lost. When wind speeds die down, loose soil material is deposited on the soil surface. This makes the field especially susceptible to further erosion, unless a rain shower causes soil crusting or a tillage operation roughens the soil surface.</p>\n\n<p>Peat soils, being much less dense than mineral soils, are more easily eroded by wind. Wind erosion of peat soils has not received much attention in Canada and the extent of the problem on agricultural soils has not been determined. Peat soils are frequently wet either at, or close to the surface thus limiting the amount of material which can be lost. Nevertheless, peat soils do blow causing spectacular dust clouds and degradation of this valuable resource.</p>\n\n<p>Winds strong enough to cause wind erosion are a fact of life in many agricultural areas of Canada. In most situations there is enough vegetation and straw to prevent erosion. However, intensive tillage exposes soils, and the production of vegetation may be much reduced during extended periods of drought. In these cases, if the soil is dry and loose it will erode.</p>\n\n<p>All forms of erosion reduce soil productivity due to loss of plant nutrients, soil organic matter loss, a reduction in the availability of water for crop growth, and ultimately a limitation in the volume of soil available for root growth.</p>\n\n<p>Sandblast of growing plants is unique to wind erosion. It causes yield and quality losses. Plants vary in their tolerance with small grains being relatively tolerant of abrasion resulting from an 11 tonnes per hectare wind erosion event. Corn, soybeans and mature alfalfa have a moderate tolerance, vegetables have a low to very low tolerance, and seedling alfalfa and sugar beets have a very low tolerance to abrasion. Seedlings are usually worst affected by sandblast and in some situations re-seeding may be required.</p>\n\n<p>Control of wind erosion usually relies upon the protection afforded by crop residues or growing crop; generally about 1,200 kilograms per hectare  (1,000 pounds per acre) of straw is required. Small grain residue is more effective than oilseed residues and corn stover. Standing and anchored residues are about four times more effective than flat residues for erosion control. Growing crops are also effective in reducing wind erosion once there is enough material to absorb the force of the wind. Low disturbance direct seeding and chemical fallow are effective in maintaining enough residue for wind erosion control under most conditions.</p>\n\n<p>In situations where intensive tillage is used, practices such as stripcropping, shelterbelts, and annual barriers must be used to control erosion. Erosion begins first at over-tilled field margins, from pockets of sandy soils, in locations where the wind is funneled, or at the top of ridges or knolls. These areas require special attention to control wind erosion. The assistance of a local agrologist or conservation technician is recommended to design and guide the implementation of a soil conservation plan to control wind erosion.</p>\n\n<h2 id=\"d\">Tillage</h2>\n\n<h3>Direct seeding and no-till</h3>\n\n<p>Direct seeding, no till and similar low soil disturbance seeding practices provide numerous benefits and yet pose unique management challenges. Discover how farmers have adopted and benefited from these practices and how they are adjusting these practices to adapt to ever changing management challenges.</p>\n\n<ul>\n<li><a href=\"/eng/agriculture-and-the-environment/agricultural-practices/soil-and-land/soil-management/issues-management-problems-and-solutions-for-maintaining-a-zero-tillage-system-and-other-beneficial-soil-management-practices/?id=1238006852354\">Issues, management problems and solutions for maintaining a zero tillage system and other beneficial soil management practices</a></li>\n<li><a href=\"/eng/agriculture-and-the-environment/agricultural-practices/soil-and-land/soil-management/flexibility-of-no-till-and-reduced-till-systems-ensures-success-in-the-long-term/?id=1219778199286\">Flexibility of no till and reduced till systems ensures success in the long term </a></li>\n</ul>\n\n\n\r\n    <!-- Fin du contenu -->",
        "fr": "\r\n    \r\n    <!-- MainContentStart -->\r\n    <!-- D&eacute;but du contenu -->\r\n    \n<h2>\u00c9rosion des sols</h2>\n\n<p>L'\u00e9rosion d\u00e9signe l'usure de la surface de la terre sous l'action du vent, de l'eau et de la gravit\u00e9. Il s'agit d'un processus naturel qui fa\u00e7onne le paysage qui nous entoure. L'utilisation des terres par l'homme pour l'agriculture, la foresterie et les moyens de transport a acc\u00e9l\u00e9r\u00e9 ce processus d'usure. L'acc\u00e9l\u00e9ration de l'\u00e9rosion s'est produite dans toutes les r\u00e9gions agricoles du Canada.</p>\n\n<p>L'\u00e9rosion et le ruissellement sur les terres agricoles ont une incidence sur la qualit\u00e9 de l'eau de surface et sur la qualit\u00e9 de l'eau souterraine aussi bien que sur la productivit\u00e9 agricole. Pour un aper\u00e7u de ces enjeux et les solutions, veuillez consulter\u00a0:</p>\n\n\n<nav>\n<ul>\n<li><a href=\"#a\">Cons\u00e9quences de l'\u00e9rosion</a></li>\n<li><a href=\"#b\">\u00c9rosion hydrique</a></li>\n<li><a href=\"#c\">\u00c9rosion \u00e9olienne</a></li>\n<li><a href=\"#d\">Travail du sol</a></li>\n<li><a href=\"?id=1294678601507\">Diagnostic et solutions de probl\u00e8mes d'\u00e9rosion au champ et de drainage de surface</a></li>\n</ul>\n</nav>\n\n<h2 id=\"a\">Cons\u00e9quences de l'\u00e9rosion</h2>\n\n<p>Les pertes de sol des terres agricoles peuvent avoir de graves r\u00e9percussions sur l'environnement en plus de r\u00e9duire la productivit\u00e9 des sols.</p>\n\n<p>Les poussi\u00e8res soulev\u00e9es par l'\u00e9rosion \u00e9olienne nuisent \u00e0 la qualit\u00e9 de l'air et, dans les cas extr\u00eames, peuvent r\u00e9duire la visibilit\u00e9, ce qui se traduit par des conditions de conduite dangereuses et d'\u00e9ventuels impacts sur la sant\u00e9 humaine. Les 14 et 15 mai 1984, la visibilit\u00e9 a \u00e9t\u00e9 r\u00e9duite \u00e0 moins de un kilom\u00e8tre sur 155\u00a0400\u00a0km<sup>2</sup> des Prairies (Anderson, 1984). Les pratiques agricoles dans les Prairies ont \u00e9volu\u00e9 depuis 1984, r\u00e9duisant ainsi la gravit\u00e9 de l'\u00e9rosion \u00e9olienne, m\u00eame si des temp\u00eates de poussi\u00e8re localis\u00e9es surviennent toujours en p\u00e9riode de s\u00e9cheresse.</p>\n\n<p>Les s\u00e9diments r\u00e9sultant de l'\u00e9rosion hydrique provoquent la turbidit\u00e9 de l'eau dans les cours d'eau et les lacs, et l'accumulation de s\u00e9diments dans le temps risque de r\u00e9duire le volume des lacs et des r\u00e9servoirs. Les \u00e9l\u00e9ments nutritifs des v\u00e9g\u00e9taux et les pesticides dissous dans les eaux de ruissellement et li\u00e9s aux particules de sol \u00e9rod\u00e9es peuvent polluer les eaux de surface et nuire aux organismes vivants. Le phosphore est particuli\u00e8rement pr\u00e9occupant \u00e9tant donn\u00e9 qu'il peut stimuler la croissance des algues, \u00e0 tel point qu'une bonne partie de l'oxyg\u00e8ne dont ont besoin d'autres organismes risque de dispara\u00eetre de l'eau \u00e0 cause des algues \u00e0 croissance rapide.</p>\n\n<p>La baisse de productivit\u00e9 d'un sol attribuable \u00e0 l'\u00e9rosion peut \u00eatre importante. Cela peut d\u00e9couler tout simplement de l'amincissement de la couche de sol sur la roche, ce qui r\u00e9duit le volume disponible pour les racines des v\u00e9g\u00e9taux. Il est plus courant que les rendements culturaux soient r\u00e9duits par la perte d'\u00e9l\u00e9ments nutritifs des v\u00e9g\u00e9taux et que les propri\u00e9t\u00e9s physiques du sol soient d\u00e9grad\u00e9es, notamment le cro\u00fbtage du sol et la r\u00e9duction de la capacit\u00e9 de r\u00e9tention de l'eau. Par ailleurs, cela augmente la variabilit\u00e9 des sols, ce qui se traduit par des cultures \u00e9parses difficiles \u00e0 g\u00e9rer et qui n'ont g\u00e9n\u00e9ralement pas un bon rendement.</p>\n\n<p>La terre v\u00e9g\u00e9tale, qui est la couche du sol la plus fertile, est la plus vuln\u00e9rable \u00e0 l'\u00e9rosion et c'est elle qui dispara\u00eet en premier; par ailleurs, les m\u00e9canismes d'\u00e9rosion \u00e9liminent de pr\u00e9f\u00e9rence la mati\u00e8re organique du sol, l'argile et les substances limoneuses fines. L'association de perte de terre v\u00e9g\u00e9tale et de fractions plus fines du sol peut avoir de graves cons\u00e9quences sur les rendements culturaux. Larney et al. (1995) affirment que l'\u00e9limination d'une certaine couche de terre v\u00e9g\u00e9tale peut r\u00e9duire de  les rendements de cultures non fertilis\u00e9es de 4 sols sur 6 en Alberta. Dans la plupart des cas, l'\u00e9pandage suppl\u00e9mentaire d'engrais peut neutraliser les cons\u00e9quences de l'\u00e9rosion sur la fertilit\u00e9 du sol, mais cela repr\u00e9sente une d\u00e9pense suppl\u00e9mentaire pour l'agriculteur. L'\u00e9pandage suppl\u00e9mentaire fait peut pour neutraliser les cons\u00e9quences physiques de l'\u00e9rosion sur la productivit\u00e9 d'un sol.</p>\n\n<h2 id=\"b\">\u00c9rosion hydrique</h2>\n\n<p>L'\u00e9rosion hydrique menace la productivit\u00e9 des sols sur la plupart des terres cultiv\u00e9es annuelles au Canada. Elle r\u00e9sulte de la pluie qui s'abat sur la surface d'un sol insuffisamment prot\u00e9g\u00e9 et de l'action de l'eau de ruissellement lorsque le d\u00e9bit de l'eau d'\u00e9coulement est suffisamment fort pour creuser des rigoles dans le sol.</p>\n\n<p>En r\u00e8gle g\u00e9n\u00e9rale, si l'on constate la pr\u00e9sence d'\u00e9rosion hydrique, c'est qu'on est sans doute en butte \u00e0 un probl\u00e8me. En effet, le sol est au mieux une ressource qui se renouvelle lentement et qui, une fois perdu, donne un champ qui ne sera pas aussi productif pendant de nombreuses ann\u00e9es. Avec le temps, m\u00eame de petites pertes de sol s'accumulent pour r\u00e9duire le rendement.</p>\n\n<p>Il existe plusieurs formes d'\u00e9rosion hydrique. L'\u00e9rosion en nappe est caus\u00e9e par l'impact des gouttes de pluie qui enl\u00e8vent une mince couche de sol. On parle d'\u00e9rosion en rigoles lorsqu'une quantit\u00e9 suffisante d'eau de ruissellement s'accumule pour former de petits canaux de jusqu'\u00e0 15\u00a0centim\u00e8tres de profondeur \u00e0 la surface du sol. Les rigoles peuvent soit suivre les canaux form\u00e9s par le mat\u00e9riel aratoire, soit former un motif dendritique, qui ressemble aux branches d'un arbre. Des ravins se forment aux confluents des rigoles, ce qui se traduit par un \u00e9coulement plus concentr\u00e9 qui s'incruste plus profond\u00e9ment dans le sol. Il est possible de niveler les rigoles par le travail du sol, tandis que les ravins n\u00e9cessitent un nivellement. Les ravins se forment g\u00e9n\u00e9ralement au m\u00eame endroit une ann\u00e9e apr\u00e8s l'autre et, s'ils ne sont pas r\u00e9par\u00e9s, ils risquent de perturber les activit\u00e9s culturales.</p>\n\n<p>Les temp\u00eates de pluie qui provoquent l'\u00e9rosion des sols sont particuli\u00e8rement fr\u00e9quentes sur le littoral de la Colombie-Britannique, dans le centre du Canada et dans le Canada atlantique. La pluie qui s'abat sur un sol en d\u00e9gel peut provoquer une grave \u00e9rosion, en particulier \u00e0 l'\u00cele du Prince \u00c9douard. En d\u00e9pit du fait que les Prairies re\u00e7oivent moins de pr\u00e9cipitations que le reste du Canada, l'\u00e9rosion hydrique peut y \u00eatre un probl\u00e8me \u00e0 l'occasion en raison de la fonte des neiges et des violents orages l'\u00e9t\u00e9.</p>\n\n<p>De nombreux facteurs interagissent pour d\u00e9terminer la gravit\u00e9 de l'\u00e9rosion hydrique\u00a0:</p>\n<ul>\n  <li>intensit\u00e9, quantit\u00e9 et moment des chutes de pluie;</li>\n  <li>rythme de fonte des neiges;</li>\n  <li>facteurs p\u00e9dologiques comme texture du sol, stabilit\u00e9 structurale, rugosit\u00e9 de la surface, taux d'infiltration et teneur en humidit\u00e9;</li>\n  <li>longueur et d\u00e9clivit\u00e9 d'une pente;</li>\n  <li>zone d'o\u00f9 provient l'eau de ruissellement;</li>\n  <li>protection offerte par les cultures en croissance et les r\u00e9sidus de cultures ant\u00e9rieures;</li>\n  <li>efficacit\u00e9 de toute m\u00e9thode de conservation des sols comme les voies d'eau gazonn\u00e9es et les terrasses.</li>\n</ul>\n<p>Cela a pour r\u00e9sultat que l'\u00e9rosion hydrique peut \u00eatre \u00e9minemment variable dans un champ et dans le temps. Il faut faire preuve d'une vigilance sans rel\u00e2che pour assurer la productivit\u00e9 du sol.</p>\n\n<p>Pour lutter contre l'\u00e9rosion hydrique, on utilise les r\u00e9sidus de cultures ou les v\u00e9g\u00e9taux en croissance qui absorbent l'\u00e9nergie des gouttes de pluie et r\u00e9duisent ainsi l'\u00e9nergie coupante de l'eau de ruissellement. La quantit\u00e9 de mati\u00e8res v\u00e9g\u00e9tales n\u00e9cessaires d\u00e9pend de l'intensit\u00e9 des chutes de pluie, du volume d'eau de ruissellement, de l'\u00e9tat du sol, du type et de la r\u00e9partition des r\u00e9sidus et de la configuration de la pente. Les conditions varient beaucoup au Canada, m\u00eame dans les limites d'un m\u00eame champ; mais, g\u00e9n\u00e9ralement, sur les pentes de 6 \u00e0 9\u00a0%, on recommande environ de 800 \u00e0 <span class=\"nowrap\">1\u00a0150\u00a0kilogrammes</span> l'hectare (de 700 \u00e0 <span class=\"nowrap\">1\u00a0000\u00a0livres</span> l'acre) de r\u00e9sidus c\u00e9r\u00e9aliers plats. Cela repr\u00e9sente entre 35 et 50\u00a0% du sol recouvert de r\u00e9sidus, ce qui, dans de nombreuses situations de culture continue, n\u00e9cessite l'adoption de pratiques de travail r\u00e9duit du sol. Le semis direct ou la culture sans travail du sol est g\u00e9n\u00e9ralement n\u00e9cessaire pour maintenir la couverture v\u00e9g\u00e9tale de 50 \u00e0 70\u00a0% recommand\u00e9e sur les pentes entre 10 et 15\u00a0%. Les pentes nettement sup\u00e9rieures \u00e0 15\u00a0% ne sont pas recommand\u00e9es pour les cultures agricoles annuelles. Il est conseill\u00e9 d'adopter un plan de conservation, \u00e9tabli par un ing\u00e9nieur agronome local, un technicien en conservation ou un ing\u00e9nieur agricole, afin de lutter contre l'\u00e9rosion hydrique.</p>\n\n<p>Lorsque les conditions culturales ou autres conditions emp\u00eachent de maintenir les niveaux recommand\u00e9s de r\u00e9sidus de culture, il faut alors d'autres pratiques comme les cultures couvre sol, l'\u00e9pandage de r\u00e9sidus, la culture en bandes et l'am\u00e9nagement de terrasses pour lutter contre l'\u00e9rosion hydrique. L\u00e0 o\u00f9 l'eau de ruissellement s'accumule, il est possible d'emp\u00eacher la formation de ravins en ajoutant des r\u00e9sidus suppl\u00e9mentaires ou en proc\u00e9dant au double ensemencement, mais, en g\u00e9n\u00e9ral, une voie d'eau gazonn\u00e9e est n\u00e9cessaire. \u00c0 nouveau, il est souhaitable de faire appel aux conseils d'un sp\u00e9cialiste local.</p>\n\n<h2 id=\"c\">\u00c9rosion \u00e9olienne</h2>\n\n<p>L'\u00e9rosion \u00e9olienne touche le plus fr\u00e9quemment les sols dans les Prairies, mais le vent peut \u00e9galement entra\u00eener des probl\u00e8mes sur les sols sablonneux de l'Ontario et, durant l'hiver, sur les champs expos\u00e9s de l'\u00cele-du-Prince-\u00c9douard. Les sols tourbeux peuvent \u00e9galement \u00eatre touch\u00e9s.</p>\n\n<p>Il y a \u00e9rosion \u00e9olienne lorsque des vents violents soufflent \u00e0 la surface d'un sol lisse, expos\u00e9, a\u00e9r\u00e9 et sec. Selon la situation, la vitesse du vent n\u00e9cessaire \u00e0 l'\u00e9rosion des sols min\u00e9raux varie entre 25\u00a0et 50\u00a0km/h mesur\u00e9e \u00e0 30\u00a0centim\u00e8tres au-dessus de la surface du sol. Les particules de sol d'un diam\u00e8tre entre 0,1\u00a0et 0,5\u00a0millim\u00e8tres sont les premi\u00e8res \u00e0 \u00eatre souffl\u00e9es. La pression du vent les fait vibrer et, si leur fr\u00e9quence de r\u00e9sonance est atteinte, elles sont emport\u00e9es par l'\u00e9coulement du vent. La gravit\u00e9 ram\u00e8ne rapidement ces particules sur le sol mais, en attendant, elles ont acquis une \u00e9nergie consid\u00e9rable gr\u00e2ce au vent et elles percutent la surface du sol en d\u00e9logeant d'autres particules. Le processus porte le nom de saltation et \u00e9voque de tr\u00e8s pr\u00e8s une r\u00e9action de cha\u00eene atomique. Une fois quelques particules de sol en mouvement, le processus d'\u00e9rosion se propage tr\u00e8s rapidement. Les petites particules de sol et les agr\u00e9gats d\u00e9plac\u00e9s par ces collisions sont emport\u00e9s par des tourbillons de vent, o\u00f9 ils forment des nuages de poussi\u00e8re qui peuvent \u00eatre transport\u00e9s sur des milliers de kilom\u00e8tres. Les agr\u00e9gats d'un diam\u00e8tre entre 0,5\u00a0et 1\u00a0millim\u00e8tres ne vont g\u00e9n\u00e9ralement pas tr\u00e8s loin. Ils sont aplatis par l'impact des particules en saltation et la pression du vent. La saltation \u00e9voque de tr\u00e8s pr\u00e8s le sablage et peut \u00eatre tr\u00e8s dommageable pour le sol et les cultures en croissance.</p>\n\n<p>L'\u00e9rosion \u00e9olienne cesse lorsque le vent tombe, que toutes les particules l\u00e2ches ont \u00e9t\u00e9 \u00e9limin\u00e9es ou que le sol mouill\u00e9, compact\u00e9 ou gel\u00e9 est expos\u00e9 \u00e0 la surface. Il est toutefois arriv\u00e9 au Canada que le sol sur toute la profondeur de travail du sol ait \u00e9t\u00e9 \u00e9limin\u00e9. Lorsque la vitesse du vent tombe, les particules de sol l\u00e2ches se d\u00e9posent \u00e0 la surface du sol. Cela rend un champ particuli\u00e8rement vuln\u00e9rable \u00e0 l'\u00e9rosion, \u00e0 moins qu'une averse de pluie n'entra\u00eene son cro\u00fbtage ou qu'une op\u00e9ration de travail du sol rende la surface plus rugueuse.</p>\n\n<p>Les sols tourbeux, qui sont beaucoup moins denses que les sols min\u00e9raux, subissent beaucoup plus facilement l'\u00e9rosion du vent. L'\u00e9rosion \u00e9olienne des sols tourbeux n'a gu\u00e8re retenu l'attention au Canada, et l'ampleur du probl\u00e8me sur les sols agricoles n'a pas \u00e9t\u00e9 \u00e9tablie. Les sols tourbeux sont fr\u00e9quemment humides \u00e0 la surface ou pr\u00e8s de la surface, ce qui limite la quantit\u00e9 de mati\u00e8res qui peuvent \u00eatre \u00e9limin\u00e9es. Il n'en reste pas moins que les sols tourbeux peuvent \u00eatre emport\u00e9s par le vent, ce qui provoque des nuages de poussi\u00e8re spectaculaires et la d\u00e9gradation de cette ressource pr\u00e9cieuse.</p>\n\n<p>Des vents suffisamment violents pour provoquer l'\u00e9rosion \u00e9olienne sont un ph\u00e9nom\u00e8ne de l'existence dans de nombreuses r\u00e9gions agricoles du Canada. Dans la plupart des cas, il y a suffisamment de v\u00e9g\u00e9tation et de paille pour emp\u00eacher l'\u00e9rosion. Toutefois, le travail intensif du sol expose les sols, et la production de v\u00e9g\u00e9tation peut \u00eatre nettement r\u00e9duite durant les p\u00e9riodes prolong\u00e9es de s\u00e9cheresse. Dans ces cas, si le sol est sec et l\u00e2che, il s'\u00e9rode.</p>\n\n<p>Toutes les formes d'\u00e9rosion r\u00e9duisent la productivit\u00e9 du sol en raison de la perte d'\u00e9l\u00e9ments nutritifs des v\u00e9g\u00e9taux, de la mati\u00e8re organique du sol, d'une r\u00e9duction de la disponibilit\u00e9 d'eau pour la croissance des cultures et, en d\u00e9finitive, d'une limitation du volume de sol disponible pour la croissance des racines.</p>\n\n<p>Le d\u00e9capage des v\u00e9g\u00e9taux en croissance est un ph\u00e9nom\u00e8ne propre \u00e0 l'\u00e9rosion \u00e9olienne. Il entra\u00eene des pertes de rendement et de qualit\u00e9. Les v\u00e9g\u00e9taux ont une tol\u00e9rance variable, les v\u00e9g\u00e9taux \u00e0 petits grains \u00e9tant relativement tol\u00e9rants \u00e0 l'abrasion r\u00e9sultant d'un ph\u00e9nom\u00e8ne d'\u00e9rosion \u00e9olienne de 11\u00a0tonnes/hectare. Le ma\u00efs, le soja et la luzerne parvenue \u00e0 maturit\u00e9 ont une tol\u00e9rance mod\u00e9r\u00e9e, les l\u00e9gumes ont une tol\u00e9rance faible \u00e0 tr\u00e8s faible et les semis de luzerne et de betteraves \u00e0 sucre ont une tr\u00e8s faible tol\u00e9rance \u00e0 l'abrasion. Les semis sont en g\u00e9n\u00e9ral les plus durement touch\u00e9s par le d\u00e9capage, et il se peut m\u00eame que, dans certains cas, il faille r\u00e9ensemencer.</p>\n\n<p>La lutte contre l'\u00e9rosion \u00e9olienne est g\u00e9n\u00e9ralement fond\u00e9e sur la protection offerte par les r\u00e9sidus de cultures ou les cultures en croissance; il faut en g\u00e9n\u00e9ral environ <span class=\"nowrap\">1\u00a0200\u00a0kilogrammes</span> l'hectare (<span class=\"nowrap\">1\u00a0000\u00a0livres</span> l'acre) de paille. Les r\u00e9sidus \u00e0 petits grains sont plus efficaces que les r\u00e9sidus d'ol\u00e9agineux et que la canne de ma\u00efs. Les r\u00e9sidus sur pied et ancr\u00e9s ont quatre fois plus d'efficacit\u00e9 que les r\u00e9sidus plats pour lutter contre l'\u00e9rosion. Les cultures en croissance contribuent efficacement \u00e0 lutter contre l'\u00e9rosion \u00e9olienne d\u00e8s lors qu'il y a suffisamment de mati\u00e8re pour absorber la force du vent. Le semis direct \u00e0 faible d\u00e9rangement et la jach\u00e8re chimique contribuent \u00e0 maintenir un volume suffisant de r\u00e9sidus pour lutter contre l'\u00e9rosion \u00e9olienne dans la plupart des situations.</p>\n\n<p>Dans les cas o\u00f9 l'on a recours au travail intensif du sol, on peut utiliser des pratiques comme la culture en bandes, les brise-vent et les barri\u00e8res annuelles pour lutter contre l'\u00e9rosion. L'\u00e9rosion commence \u00e0 la p\u00e9riph\u00e9rie des champs qui ont fait l'objet d'un travail intensif du sol, l\u00e0 o\u00f9 il y a des foyers de sols sablonneux, l\u00e0 o\u00f9 le vent est pris en entonnoir ou au sommet des cr\u00eates ou des coteaux. Ces secteurs r\u00e9clament une vigilance accrue pour lutter contre l'\u00e9rosion \u00e9olienne. Il est conseill\u00e9 de faire appel \u00e0 un agronome local ou \u00e0 un technicien en conservation pour concevoir et orienter la mise en \u0153uvre d'un plan de conservation des sols afin de lutter contre l'\u00e9rosion \u00e9olienne.</p>\n\n<h2 id=\"d\">Travail du sol</h2>\n\n<h3>Semis direct et culture sans travail du sol</h3>\n\n<p>Le semis direct, la culture sans travail du sol et les pratiques d'ensemencement analogues qui d\u00e9rangent peu les sols procurent de nombreux avantages tout en pr\u00e9sentant des difficult\u00e9s de gestion exceptionnelles. Apprenez-en davantage au sujet de la fa\u00e7on dont les agriculteurs ont adopt\u00e9 ces pratiques et en ont profit\u00e9, et comment ils les am\u00e9nagent pour s'adapter aux difficult\u00e9s de gestion qui ne cessent de changer.</p>\n\n<ul>\n<li><a href=\"/fra/agriculture-et-environnement/pratiques-agricoles/sols-et-terres/gestion-des-sols/enjeux-problemes-de-gestion-et-solutions-pour-le-maintien-d-un-systeme-de-semis-direct-et-l-adoption-d-autres-pratiques-benefiques-de-gestion-du-sol/?id=1238006852354\">Enjeux, probl\u00e8mes de gestion et solutions pour le maintien d'un syst\u00e8me de semis direct et l'adoption d'autres pratiques b\u00e9n\u00e9fiques de gestion du sol</a></li> \n<li><a href=\"/fra/agriculture-et-environnement/pratiques-agricoles/sols-et-terres/gestion-des-sols/la-souplesse-de-la-culture-sans-travail-et-de-la-culture-a-travail-reduit-du-sol-garantit-la-reussite-a-long-terme/?id=1219778199286\">La souplesse de la culture sans travail et de la culture \u00e0 travail r\u00e9duit du sol garantit la r\u00e9ussite \u00e0 long terme</a></li>\n</ul>\n\n\r\n    <!-- Fin du contenu -->\r\n\t\r\n\t\r\n\t\r\n  "
    }
}