{
    "dcr_id": "1360701203481",
    "title": {
        "en": "Partners and agencies, Agriculture and Agri-food Canada",
        "fr": "Partenaires et agences, Agriculture et Agroalimentaire Canada"
    },
    "modified": "2019-10-29",
    "issued": "2013-02-21",
    "templatetype": "content page 1 column",
    "page_type": "1",
    "node_id": "1354137774056",
    "dc_date_created": "2013-02-21",
    "managing_branch": "PAB",
    "parent_node_id": "1354137774027",
    "label": {
        "en": "Partners and Agencies",
        "fr": "Partenaires et agences"
    },
    "exturl": "",
    "teamsite_location": {
        "en": "/default/main/AAFC-AAC/Internet-Internet/CCB-DGCC/WORKAREA/CCB-DGCC/templatedata/comm-comm/gene-gene/data/partners_and_agencies_1360701203481_en",
        "fr": "/default/main/AAFC-AAC/Internet-Internet/CCB-DGCC/WORKAREA/CCB-DGCC/templatedata/comm-comm/gene-gene/data/partners_and_agencies_1360701203481_fr"
    },
    "type_name": "sitemapinit",
    "has_dcr_id": true,
    "breadcrumb": {
        "en": "Partners and Agencies",
        "fr": "Partenaires et agences"
    },
    "layout_name": "content page 1 column",
    "lang": "en",
    "meta": {
        "issued": {
            "en": "2013-02-21",
            "fr": "2013-02-21"
        },
        "modified": {
            "en": "2019-10-29",
            "fr": "2019-10-29"
        },
        "format": {
            "en": "gcformat",
            "fr": "gcformat"
        },
        "title": {
            "en": "Partners and agencies, Agriculture and Agri-food Canada",
            "fr": "Partenaires et agences, Agriculture et Agroalimentaire Canada"
        },
        "subject": {
            "en": "policy;drugs;agriculture",
            "fr": "d\u00e9veloppement durable;politique;agriculture"
        },
        "description": {
            "en": "Portfolio Partners We are responsible for making sure that policies and programs of the organizations within the Agriculture and Agri-Food portfolio are coordinated and work to serve the interests of the sector and Canadians.",
            "fr": "Voici la liste de nos partenaires provinciaux et territoriaux : Colombie-Britannique (en anglais seulement) Alberta (en anglais seulement) Saskatchewan (en anglais seulement) Manitoba (en anglais seulement) Ontario Qu\u00e9bec Nouveau-Brunswick Nouvelle-\u00c9cosse (en anglais seulement) Terre-Neuve-et-Labrador (en anglais seulement) \u00cele-du-Prince-\u00c9douard (en anglais seulement) Territoires du Nord-Ouest (en anglais seulement) Nunavut Yukon Des r\u00e9unions des ministres de l'agriculture des gouvernements f\u00e9d\u00e9ral provinciaux et territoriaux ont lieu fr\u00e9quemment \u00e0 des fins de collaboration en mati\u00e8re de politiques de priorit\u00e9s"
        },
        "language": {
            "en": "eng",
            "fr": "fra"
        },
        "keywords": {
            "en": "Agency's goal;provincial and territorial partners;British Columbia Alberta Saskatchewan Manitoba Ontario Quebec;Agri-Food Canada;Canadian Food Inspection Agency",
            "fr": "\u00e9lev\u00e9 de coop\u00e9ration;r\u00e8gles efficaces;mati\u00e8re de paris;Agroalimentaire Canada;Agence canadienne du pari mutuel"
        },
        "audience": {
            "en": "gcaudience",
            "fr": "gcaudience"
        },
        "type": {
            "en": "publication",
            "fr": "page administrative"
        },
        "creator": {
            "en": "Agriculture and Agri-Food Canada;Government of Canada",
            "fr": "Agriculture et Agroalimentaire Canada;Gouvernement du Canada"
        },
        "spatial": {
            "en": "gcregions",
            "fr": "gcregions"
        },
        "service": {
            "en": "AAFC-AAC",
            "fr": "AAFC-AAC"
        },
        "accessRights": {
            "en": "2",
            "fr": "2"
        },
        "legalName": {
            "en": "agriculture_and_agri_food_canada",
            "fr": "agriculture_et_agroalimentaire_canada"
        },
        "areaServed": {
            "en": "Canada",
            "fr": "Canada"
        }
    },
    "body": {
        "en": "<!-- D&eacute;but du contenu -->\r\n    <div class=\"row profile\">\n<div class=\"col-md-12\">\n     \n        <p>The department works with partnering organizations and agencies to  guide, regulate and develop the agriculture sector on behalf of Canadians.</p>\n          <p>The  Department, along with its portfolio partners, reports to Parliament and  Canadians through the\u00a0<a href=\"?id=1369864009036\">Minister of  Agriculture and Agri-Food</a>.</p>\n          \n        <p>Note: The  Canadian Food Inspection Agency reports to the Minister of Health.\u00a0<a href=\"http://www.inspection.gc.ca/about-the-cfia/organizational-information/eng/1323224617636/1323224814073\">Canadian Food Inspection Agency organizational information</a>.</p>\n\n<!-- START Social Buttons -->\n<div class=\"pull-left\">\n<section class=\"followus mrgn-tp-0\"> \n   <h2>Follow:</h2> \n   <ul> \n    <li><a href=\"https://www.facebook.com/CanadianAgriculture/\" class=\"facebook gl-follow\" rel=\"external\"> <span class=\"wb-inv\">Facebook</span></a></li> \n    <li><a href=\"https://twitter.com/AAFC_Canada\" class=\"twitter gl-follow\" rel=\"external\"> <span class=\"wb-inv\">Twitter</span></a></li> \n    \n    <li><a href=\"https://www.linkedin.com/company/aafc-aac/?viewAsMember=true\" class=\"linkedin gl-follow\" rel=\"external\"><span class=\"wb-inv\">LinkedIn</span></a></li>    \n    \n    <li><a href=\"https://www.youtube.com/user/AgricultureCanadaEng\" class=\"youtube gl-follow\" rel=\"external\"><span class=\"wb-inv\">YouTube</span></a></li> \n   </ul> \n</section>\n</div>\n<!-- END Social Buttons -->\n</div>\n\n</div> \n\n<h2 class=\"mrgn-tp-md\">Services and information</h2>\n\n<div class=\"row\">\n\n<section class=\"col-md-6\">\n<h3 class=\"h5\" id=\"a2\">Portfolio partners</h3>\n<p>We are responsible  for making sure that policies and programs of the organizations within the  Agriculture and Agri-Food portfolio are coordinated and work to serve the  interests of the sector and Canadians. These organizations include:</p>\n<ul>\n  <li><a href=\"http://cart-crac.gc.ca/index-en.html\">Canada       Agricultural Review Tribunal</a></li>\n  <li><a href=\"http://www.cdc-ccl.gc.ca/CDC/index-eng.php\">Canadian Dairy Commission</a></li>\n  <li><a href=\"https://www.grainscanada.gc.ca/en/\">Canadian Grain       Commission</a></li>\n  <li><a href=\"http://www.fcc-fac.ca/en/index.asp\">Farm Credit       Canada</a></li>\n  <li><a href=\"http://fpcc-cpac.gc.ca/index.php/en-GB/\">Farm Products       Council of Canada</a></li>\n</ul>\n</section>\n\n<section class=\"col-md-6\">\n<h3 class=\"h5\"><a href=\"?id=1204043533186\">Canadian Pari-Mutuel Agency</a></h3>\n<p>A special operating agency within Agriculture and Agri-Food Canada that regulates and oversees pari-mutuel betting on horse races to ensure it is fair for the public.</p>\n\n<p>The Agency's goal is to maintain and enforce national standards based on effective betting rules, to protect bettors.</p>\n</section>\n\n</div>\n\n<div class=\"clearfix\"></div>\n\n<h2 id=\"a3\">Provincial and territorial partners</h2>\n\n<p>Agriculture is a shared jurisdiction and federal-provincial-territorial\u00a0(FPT) governments work closely in the development of agriculture policy frameworks and the delivery of programs across the country.</p>\n\n<p>The <a href=\"?id=1461767369849\">Canadian Agricultural Partnership</a>, launched in April 2018,  is a five-year, $3 billion  investment by federal, provincial and territorial governments to strengthen the  agriculture and agri-food sector.</p>\n\n<p>The Partnership features:</p>\n<ul>\n  <li>simplified  and streamlined programs and services that are easier to access</li>\n  <li>key enhancements to programs that help farmers manage significant risks that  threaten the viability of their farm and are beyond their capacity to manage</li>\n</ul>\n\n<p>Below is a list of our provincial and territorial partners:</p>\n\n<ul>\n    <li><a href=\"http://www2.gov.bc.ca/gov/content/governments/organizational-structure/ministries-organizations/ministries/agriculture\">British Columbia</a></li>\n    <li><a href=\"http://www.agric.gov.ab.ca/app21/rtw/index.jsp\">Alberta</a></li>\n    <li><a href=\"http://www.saskatchewan.ca/business/agriculture-natural-resources-and-industry\">Saskatchewan</a></li>\n    <li><a href=\"http://www.gov.mb.ca/agriculture/index.shtml\">Manitoba</a></li>\n    <li><a href=\"http://www.omafra.gov.on.ca/english/index.html\">Ontario</a></li>\n    <li><a href=\"http://www.mapaq.gouv.qc.ca/fr/Pages/Accueil.aspx\">Quebec (in French only)</a></li>\n    <li><a href=\"http://www2.gnb.ca/content/gnb/en/departments/10.html\">New Brunswick</a></li>\n    <li><a href=\"http://www.gov.ns.ca/agri/\">Nova Scotia</a></li>\n    <li><a href=\"http://www.gov.nl.ca/\">Newfoundland and Labrador</a></li>\n    <li><a href=\"http://www.gov.pe.ca/af/index.php3\">Prince Edward Island</a></li>\n    <li><a href=\"http://www.gov.nt.ca/\">Northwest Territories</a></li>\n    <li><a href=\"http://www.gov.nu.ca/\">Nunavut</a></li>\n    <li><a href=\"http://www.gov.yk.ca/\">Yukon</a></li>\n</ul>\n\n<p><a href=\"/eng/about-our-department/partners-and-agencies-agriculture-and-agri-food-canada/meetings-of-federal-provincial-and-territorial-ministers-of-agriculture/?id=1173979162358\">Meetings and conferences of federal, provincial and territorial ministers of agriculture</a> are held frequently to collaborate on agricultural policies, priorities and programs across Canada.</p>\n\r\n    <!-- Fin du contenu -->",
        "fr": "\r\n    \r\n    <!-- MainContentStart -->\r\n    <!-- D&eacute;but du contenu -->\r\n    \n<div class=\"row profile\">\n<div class=\"col-md-12\">\n     \n        <p>Le Minist\u00e8re collabore  avec des organisations et des organismes partenaires pour orienter, r\u00e9glementer  et d\u00e9velopper le secteur de l'agriculture au nom des Canadiens.</p>\n        \n        <p>Le Minist\u00e8re, en collaboration avec ses partenaires de  portefeuille, est responsable devant le Parlement et les Canadiens par le biais  du\u00a0<a href=\"?id=1369864009036\">ministre de l'Agriculture et de l'Agroalimentaire</a>.</p>\n        \n        <p>Note\u00a0: L'Agence canadienne d'inspection des  aliments rel\u00e8ve de la ministre de la Sant\u00e9.\u00a0<a href=\"http://www.inspection.gc.ca/au-sujet-de-l-acia/information-organisationnelle/fra/1323224617636/1323224814073\">Information  organisationnelle de l'Agence canadienne d'inspection des aliments</a>.</p>\n\n<!-- START Social Buttons -->\n<div class=\"pull-left\">\n<section class=\"followus mrgn-tp-0\"> \n <h2>Suivez\u00a0:</h2> \n <ul> \n    <li><a href=\"https://www.facebook.com/AgricultureCanadienne\" class=\"facebook gl-follow\" rel=\"external\"> <span class=\"wb-inv\">Facebook</span></a></li> \n    <li><a href=\"https://twitter.com/AAC_Canada\" class=\"twitter gl-follow\" rel=\"external\"> <span class=\"wb-inv\">Twitter</span></a></li> \n    \n    <li><a href=\"https://www.linkedin.com/company/aafc-aac/?viewAsMember=true\" class=\"linkedin gl-follow\" rel=\"external\"><span class=\"wb-inv\">LinkedIn</span></a></li>\n    \n    <li><a href=\"https://www.youtube.com/user/AgricultureCanadaFra\" class=\"youtube gl-follow\" rel=\"external\"><span class=\"wb-inv\">YouTube</span></a></li> \n </ul> \n  </section> \n  </div>\n<!-- END Social Buttons -->     \n</div>\n\n</div> \n        \n\n\n\n<h2 class=\"mrgn-tp-md\">Services et renseignements</h2>\n\n<div class=\"row\">\n\n<section class=\"col-md-6\">\n<h3 class=\"h5\" id=\"a2\">Partenaires du portefeuille</h3>\n<p>Nous devons veiller \u00e0 ce que les politiques et les programmes des organisations du portefeuille de l'agriculture et de l'agroalimentaire soient coordonn\u00e9s et \u00e0 ce qu'ils servent les int\u00e9r\u00eats du secteur et des Canadiens. Parmi ces organisations, mentionnons\u00a0:</p>\n\n<ul>\n<li><a href=\"http://www.cdc-ccl.gc.ca/CDC/index-fra.php?id=3781\">La Commission canadienne du lait</a></li>\n<li><a href=\"https://www.grainscanada.gc.ca/index-fra.htm\">La Commission canadienne des grains</a></li>\n<li><a href=\"http://cart-crac.gc.ca/index-fr.html\">La Commission de r\u00e9vision agricole du Canada</a></li>\n<li><a href=\"http://fpcc-cpac.gc.ca/index.php/fr-FR/\">Le Conseil des produits agricoles du Canada</a></li>\n<li><a href=\"http://www.fcc-fac.ca/fr/index.asp\">Financement agricole Canada</a></li>\n</ul>\n\n</section>\n\n<section class=\"col-md-6\">\n<h3 class=\"h5\"><a href=\"?id=1204043533186\">Agence canadienne du pari mutuel</a></h3>\n<p>Un organisme de service sp\u00e9cial d'Agriculture et Agroalimentaire Canada, elle est charg\u00e9e de r\u00e9glementer et de superviser les activit\u00e9s de pari-mutuel sur les courses de chevaux, afin d'assurer que ce soit \u00e9quitable pour le public.</p>\n\n<p>L'Agence a pour but de maintenir et d'appliquer des normes nationales fond\u00e9es sur des r\u00e8gles efficaces en mati\u00e8re de paris, afin de prot\u00e9ger les parieurs.</p>\n</section>\n</div>\n\n<div class=\"clearfix\"></div>\n\n<h2 id=\"a3\">Partenaires provinciaux et territoriaux</h2>\n\n<p>L'agriculture est une comp\u00e9tence partag\u00e9e, et les gouvernements f\u00e9d\u00e9ral, provinciaux et territoriaux\u00a0(FPT) collaborent \u00e9troitement \u00e0 l'\u00e9tablissement de cadres strat\u00e9giques pour l'agriculture et \u00e0 la mise en \u0153uvre de programmes \u00e0 l'\u00e9chelle du pays.</p>\n\n<p>Le <a href=\"?id=1461767369849\">Partenariat canadien pour l'agriculture</a>, lanc\u00e9 en avril 2018,  est un investissement de 3 milliards de dollars sur cinq ans par les gouvernements f\u00e9d\u00e9ral, provinciaux et territoriaux qui vise \u00e0 renforcer le secteur de l'agriculture et de l'agroalimentaire.</p>\n\n<p>Le Partenariat pr\u00e9voit :</p>\n\n<ul>\n<li>des programmes et services simplifi\u00e9s qui sont plus facilement accessibles,</li>\n<li>des am\u00e9liorations cl\u00e9s aux programmes qui aident les agriculteurs \u00e0 g\u00e9rer les risques importants pour la viabilit\u00e9 de leur exploitation qui exc\u00e8dent leur capacit\u00e9 de gestion.</li>\n</ul>\n\n\n<p>Voici la liste de nos partenaires provinciaux et territoriaux :</p>\n\n<ul>\n<li><a href=\"http://www2.gov.bc.ca/gov/content/governments/organizational-structure/ministries-organizations/ministries/agriculture\">Colombie-Britannique (en anglais seulement)</a></li>\n<li><a href=\"http://www.agric.gov.ab.ca/app21/rtw/index.jsp\">Alberta (en anglais seulement)</a></li>\n<li><a href=\"http://www.saskatchewan.ca/business/agriculture-natural-resources-and-industry\">Saskatchewan (en anglais seulement)</a></li>\n<li><a href=\"http://www.gov.mb.ca/agriculture/index.html\">Manitoba (en anglais seulement)</a></li>\n<li><a href=\"http://www.omafra.gov.on.ca/french/\">Ontario</a></li>\n<li><a href=\"http://www.mapaq.gouv.qc.ca/fr/Pages/Accueil.aspx\">Qu\u00e9bec</a></li>\n<li><a href=\"http://www2.gnb.ca/content/gnb/fr/ministeres/10.html\">Nouveau-Brunswick</a></li>\n<li><a href=\"http://www.gov.ns.ca/agri/\">Nouvelle-\u00c9cosse (en anglais seulement)</a></li>\n<li><a href=\"http://www.gov.nl.ca/\">Terre-Neuve-et-Labrador (en anglais seulement)</a></li>\n<li><a href=\"http://www.gov.pe.ca/agriculture/index.php3\">\u00cele-du-Prince-\u00c9douard (en anglais seulement)</a></li>\n<li><a href=\"http://www.gov.nt.ca/fr\">Territoires du Nord-Ouest</a></li>\n<li><a href=\"http://www.gov.nu.ca/fr/\">Nunavut</a></li>\n<li><a href=\"http://www.gov.yk.ca/fr/index.html\">Yukon</a></li>\n</ul>\n\n<p>Des <a href=\"/fra/a-propos-de-notre-ministere/partenaires-et-agences-agriculture-et-agroalimentaire-canada/reunions-des-ministres-de-l-agriculture-des-gouvernements-federal-provinciaux-et-territoriaux/?id=1173979162358\">r\u00e9unions des ministres de l'Agriculture des gouvernements f\u00e9d\u00e9ral, provinciaux et territoriaux</a> ont lieu fr\u00e9quemment afin d'assurer la collaboration aux politiques, aux priorit\u00e9s et aux programmes pour l'agriculture \u00e0 l'\u00e9chelle du Canada.</p>\n\r\n    <!-- Fin du contenu -->\r\n\t\r\n\t\r\n\t\r\n  "
    },
    "css": {
        "fr": null
    },
    "js": {
        "en": null,
        "fr": null
    }
}