{
    "dcr_id": "1210885869244",
    "title": {
        "en": "Careers at Agriculture and Agri-Food Canada",
        "fr": "Carri\u00e8res \u00e0 Agriculture et Agroalimentaire Canada"
    },
    "modified": "2020-05-27",
    "issued": "2009-06-09",
    "templatetype": "content page 1 column",
    "page_type": "1",
    "node_id": "1354137774061",
    "dc_date_created": "2009-06-09",
    "managing_branch": "PAB",
    "parent_node_id": "1354137774027",
    "label": {
        "en": "Employment Opportunities",
        "fr": "Possibilit\u00e9s d'emploi"
    },
    "exturl": "",
    "teamsite_location": {
        "en": "/default/main/AAFC-AAC/Internet-Internet/CCB-DGCC/WORKAREA/CCB-DGCC/templatedata/comm-comm/gene-gene/data/about-us_careers_intro_1210885869244_en",
        "fr": "/default/main/AAFC-AAC/Internet-Internet/CCB-DGCC/WORKAREA/CCB-DGCC/templatedata/comm-comm/gene-gene/data/about-us_careers_intro_1210885869244_fr"
    },
    "type_name": "sitemapinit",
    "has_dcr_id": true,
    "breadcrumb": {
        "en": "Employment Opportunities",
        "fr": "Possibilit\u00e9s d'emploi"
    },
    "layout_name": "content page 1 column",
    "lang": "en",
    "meta": {
        "issued": {
            "en": "2009-06-09",
            "fr": "2009-06-09"
        },
        "modified": {
            "en": "2020-05-27",
            "fr": "2020-05-27"
        },
        "format": {
            "en": "text/html",
            "fr": "text/html"
        },
        "title": {
            "en": "Careers at Agriculture and Agri-Food Canada",
            "fr": "Carri\u00e8res \u00e0 Agriculture et Agroalimentaire Canada"
        },
        "subject": {
            "en": "employment",
            "fr": "emploi"
        },
        "description": {
            "en": "Agriculture and Agri-Food Canada (AAFC) offers a variety of exciting careers in a number of disciplines.",
            "fr": "Agriculture et Agroalimentaire Canada (AAC) offre des possibilit\u00e9s de carri\u00e8re int\u00e9ressantes dans divers domaines."
        },
        "language": {
            "en": "eng",
            "fr": "fra"
        },
        "keywords": {
            "en": null,
            "fr": null
        },
        "audience": {
            "en": "gcaudience",
            "fr": "gcaudience"
        },
        "type": {
            "en": "employment opportunity",
            "fr": "occasion d'emploi"
        },
        "creator": {
            "en": "Human Resources Branch;Agriculture and Agri-Food Canada;Government of Canada",
            "fr": "Direction g\u00e9n\u00e9rale des ressources humaines;Agriculture et Agroalimentaire Canada;Gouvernement du Canada"
        },
        "spatial": {
            "en": "gcregions",
            "fr": "gcregions"
        },
        "service": {
            "en": "AAFC-AAC",
            "fr": "AAFC-AAC"
        },
        "accessRights": {
            "en": "2",
            "fr": "2"
        },
        "legalName": {
            "en": "agriculture_and_agri_food_canada",
            "fr": "agriculture_et_agroalimentaire_canada"
        },
        "areaServed": {
            "en": "Canada",
            "fr": "Canada"
        }
    },
    "body": {
        "en": "<!-- D&eacute;but du contenu -->\r\n    <noscript>\n<div class=\"row profile\">\n<div class=\"col-md-6\">\n     \n   <p>Agriculture and Agri-Food Canada (AAFC) offers a variety of exciting careers in a number of disciplines. Visit our <a href=\"/eng/?id=1360699683758\">about us</a> section, or <a href=\"/eng/?id=1360700688523\">what we do</a> to learn more about Agriculture and Agri-Food Canada.</p>\n\n <!-- START Social Buttons -->\n<div class=\"pull-left\">\n<section class=\"followus mrgn-tp-0\"> \n   <h2>Follow:</h2> \n   <ul> \n    <li><a href=\"https://www.facebook.com/CanadianAgriculture/\" class=\"facebook gl-follow\" rel=\"external\"> <span class=\"wb-inv\">Facebook</span></a></li> \n    <li><a href=\"https://twitter.com/AAFC_Canada\" class=\"twitter gl-follow\" rel=\"external\"> <span class=\"wb-inv\">Twitter</span></a></li> \n    \n    <li><a href=\"https://www.linkedin.com/company/aafc-aac/?viewAsMember=true\" class=\"linkedin gl-follow\" rel=\"external\"><span class=\"wb-inv\">LinkedIn</span></a></li>    \n    \n    <li><a href=\"https://www.youtube.com/user/AgricultureCanadaEng\" class=\"youtube gl-follow\" rel=\"external\"><span class=\"wb-inv\">YouTube</span></a></li> \n   </ul> \n  </section> \n</div>\n<!-- END Social Buttons -->\n\n</div>\n<div class=\"col-md-6 mrgn-tp-sm hidden-sm hidden-xs\">\n\n        <figure>\n<img src=\"https://www.agr.gc.ca/resources/prod/img/scientific520.jpg\" class=\"img-responsive\" alt=\"\"><br>\n</figure> \n</div>\n</div></noscript>\n        \n\n<script src=\"https://ajax.googleapis.com/ajax/libs/jquery/2.2.4/jquery.js\"></script>\n<script>\n$( document ).ready( function() {\nvar h1 = document.getElementsByTagName(\"h1\")[0];\nh1.parentNode.removeChild(h1);\ndocument.getElementsByTagName(\"main\")[0].innerHTML = \n'<div class=\"row profile\"><div class=\"col-md-6\"><h1>Careers at Agriculture and Agri-Food Canada<p>Agriculture and Agri-Food Canada (AAFC) offers a variety of exciting careers in a number of disciplines. Visit our <a href=\"/eng/?id=1360699683758\">about us section, or <a href=\"/eng/?id=1360700688523\">what we do to learn more about Agriculture and Agri-Food Canada. <!-- START Social Buttons --> <div class=\"pull-left\"> <section class=\"followus mrgn-tp-0\"> <h2>Follow: <ul> <li><a href=\"https://www.facebook.com/CanadianAgriculture/\" class=\"facebook gl-follow\" rel=\"external\"> <span class=\"wb-inv\">Facebook <li><a href=\"https://twitter.com/AAFC_Canada\" class=\"twitter gl-follow\" rel=\"external\"> <span class=\"wb-inv\">Twitter <li><a href=\"https://www.linkedin.com/company/aafc-aac/?viewAsMember=true\" class=\"linkedin gl-follow\" rel=\"external\"><span class=\"wb-inv\">LinkedIn <li><a href=\"https://www.youtube.com/user/AgricultureCanadaEng\" class=\"youtube gl-follow\" rel=\"external\"><span class=\"wb-inv\">YouTube  <!-- END Social Buttons --> <div class=\"col-md-6 mrgn-tp-sm hidden-sm hidden-xs\"><figure> <img src=\"https://www.agr.gc.ca/resources/prod/img/scientific520.jpg\" class=\"pull-right img-responsive thumbnail\" alt=\"\"/><br/>'\n+ document.getElementsByTagName(\"main\")[0].innerHTML;\n})\n</script>\n\n\n<div class=\"clearfix\"></div>\n\n\n<h2 class=\"nowrap\">Services and information</h2>\n\n<div class=\"row\">\n\n\n <div class=\"col-md-6\">\n  <h2 class=\"h5\"><a href=\"https://emploisfp-psjobs.cfp-psc.gc.ca/psrs-srfp/applicant/page2440?classificationInfos=&amp;locationsFilter=&amp;selectionProcessNumber=&amp;officialLanguage=&amp;title=&amp;tab=1&amp;search=Search%20jobs&amp;department=4&amp;departments=&amp;log=false\">Current openings at Agriculture and Agri-Food Canada</a></h2>\n  <p>Search for opportunities available at AAFC.</p>\n   </div>\n <div class=\"col-md-6\">\n  <h2 class=\"h5\"><a href=\"https://emploisfp-psjobs.cfp-psc.gc.ca/psrs-srfp/applicant/page2440?fromMenu=true&amp;toggleLanguage=en\">Current openings in the public service</a></h2>\n    <p>Search for opportunities available in the public service.</p>\n </div>\n</div>\n\n<div class=\"row\">\n <div class=\"col-md-6\">\n  <h2 class=\"h5\"><a href=\"https://www.canada.ca/en/public-service-commission/jobs/services/gc-jobs/applying-government-canada-jobs-what-expect.html\">How to apply</a></h2>\n    <p>Understand the steps required to successfully apply for a job in the public service.</p>\n </div>\n <div class=\"col-md-6\">\n  <h2 class=\"h5\"><a href=\"/eng/?id=1515504619391\">Recruitment opportunities</a></h2>\n    <p>Find out more about opportunities at AAFC including development programs, recruitment initiatives and opportunities for students and graduates.</p>    \n </div>\n</div>\n\n<div class=\"row\">\n <div class=\"col-md-6\">\n  <h2 class=\"h5\"><a href=\"/eng/?id=1491493049051\">Indigenous Student Recruitment Initiative</a></h2>\n    <p>AAFC\u2019s Indigenous Student Recruitment Initiative offers Indigenous students work experience that allows for personal growth while contributing to the goals of the department.</p>\n </div>\n\n <div class=\"col-md-6\">\n  <h2 class=\"h5\"><a href=\"/eng/?id=1515508450935\">Types of careers at Agriculture and Agri-Food Canada</a></h2>\n    <p>Learn about the types of careers that exist at AAFC.</p>\n </div>\n \n</div>\n\n<div class=\"row\">\n\n<div class=\"col-md-6\">\n  <h2 class=\"h5\"><a href=\"/eng/?id=1515510048856\">Reasons to grow with us</a></h2>\n    <p>Find out why you should join AAFC.</p>\n </div>\n <div class=\"col-md-6\">\n  <h2 class=\"h5\"><a href=\"/eng/?id=1467665206659\">Governor in Council appointments</a></h2>\n   <p>Apply for a Governor in Council appointment.</p>\n </div>\n</div>\n\n<div class=\"row\">\n <div class=\"col-md-6\">\n  <h2 class=\"h5\"><a href=\"/eng/?id=1467669625216\">Ministerial appointments</a></h2>\n    <p>Apply for a Ministerial appointment.</p>\n </div>\n\n</div>\n\n\n\n<div class=\"clearfix\"></div>\n\n\n\n\r\n    <!-- Fin du contenu -->",
        "fr": "\r\n    \r\n    <!-- MainContentStart -->\r\n    <!-- D&eacute;but du contenu -->\r\n    <noscript>\n<div class=\"row profile\">\n<div class=\"col-md-6\">\n     \n   <p>Agriculture et Agroalimentaire Canada (AAC) offre des possibilit\u00e9s de carri\u00e8re int\u00e9ressantes dans divers domaines. Visitez notre section <a href=\"/fra/?id=1360699683758\">\u00e0 propos de nous</a>, ou <a href=\"/fra/?id=1360700688523\">ce que nous faisons</a> pour avoir une meilleure id\u00e9e d'Agriculture et Agroalimentaire.</p>\n   \n<!-- START Social Buttons -->\n<div class=\"pull-left\">\n<section class=\"followus mrgn-tp-0\"> \n <h2>Suivez\u00a0:</h2> \n <ul> \n    <li><a href=\"https://www.facebook.com/AgricultureCanadienne\" class=\"facebook gl-follow\" rel=\"external\"> <span class=\"wb-inv\">Facebook</span></a></li> \n    <li><a href=\"https://twitter.com/AAC_Canada\" class=\"twitter gl-follow\" rel=\"external\"> <span class=\"wb-inv\">Twitter</span></a></li> \n    \n    <li><a href=\"https://www.linkedin.com/company/aafc-aac/?viewAsMember=true\" class=\"linkedin gl-follow\" rel=\"external\"><span class=\"wb-inv\">LinkedIn</span></a></li>\n    \n    <li><a href=\"https://www.youtube.com/user/AgricultureCanadaFra\" class=\"youtube gl-follow\" rel=\"external\"><span class=\"wb-inv\">YouTube</span></a></li> \n </ul> \n  </section> \n  </div>\n<!-- END Social Buttons -->     \n\n</div>\n<div class=\"col-md-6 mrgn-tp-sm hidden-sm hidden-xs\">\n        <figure>\n<img src=\"https://www.agr.gc.ca/resources/prod/img/scientific520.jpg\" class=\"img-responsive\" alt=\"\"><br>\n</figure> \n</div></div></noscript>\n        \n<script src=\"https://ajax.googleapis.com/ajax/libs/jquery/2.2.4/jquery.js\"></script>\n<script>\n$( document ).ready( function() {\nvar h1 = document.getElementsByTagName(\"h1\")[0];\nh1.parentNode.removeChild(h1);\ndocument.getElementsByTagName(\"main\")[0].innerHTML = \n'<div class=\"row profile\"><div class=\"col-md-6\"><h1>Carri&egrave;res &agrave; Agriculture et Agroalimentaire Canada<p>Agriculture et Agroalimentaire Canada (AAC) offre des possibilit&eacute;s de carri&egrave;re int&eacute;ressantes dans divers domaines. Visitez notre section <a href=\"/fra/?id=1360699683758\">&agrave; propos de nous, ou <a href=\"/fra/?id=1360700688523\">ce que nous faisons pour avoir une meilleure id&eacute;e d&apos;Agriculture et Agroalimentaire. <!-- START Social Buttons --> <div class=\"pull-left\"> <section class=\"followus mrgn-tp-0\"> <h2>Suivez&nbsp;: <ul> <li><a href=\"https://www.facebook.com/AgricultureCanadienne\" class=\"facebook gl-follow\" rel=\"external\"> <span class=\"wb-inv\">Facebook <li><a href=\"https://twitter.com/AAC_Canada\" class=\"twitter gl-follow\" rel=\"external\"> <span class=\"wb-inv\">Twitter <li><a href=\"https://www.linkedin.com/company/aafc-aac/?viewAsMember=true\" class=\"linkedin gl-follow\" rel=\"external\"><span class=\"wb-inv\">LinkedIn <li><a href=\"https://www.youtube.com/user/AgricultureCanadaFra\" class=\"youtube gl-follow\" rel=\"external\"><span class=\"wb-inv\">YouTube    <!-- END Social Buttons -->  <div class=\"col-md-6 mrgn-tp-sm hidden-sm hidden-xs\"> <figure> <img src=\"https://www.agr.gc.ca/resources/prod/img/scientific520.jpg\" class=\"pull-right img-responsive thumbnail\" alt=\"\"/><br/>  '\n+ document.getElementsByTagName(\"main\")[0].innerHTML;\n})\n</script>\n\n\n<div class=\"clearfix\"></div>\n\n\n<h2 class=\"nowrap\">Services et renseignements</h2>\n\n<div class=\"row\">\n\n <div class=\"col-md-6\">\n  <h2 class=\"h5\"><a href=\"https://emploisfp-psjobs.cfp-psc.gc.ca/psrs-srfp/applicant/page2440?classificationInfos=&amp;locationsFilter=&amp;selectionProcessNumber=&amp;officialLanguage=&amp;title=&amp;tab=1&amp;search=Chercher%20un%20emploi&amp;department=4&amp;departments=&amp;log=false\">Offres d\u2019emploi \u00e0 Agriculture et Agroalimentaire</a></h2>\n  <p>Cherchez les offres d\u2019emploi disponibles \u00e0 AAC.</p>\n </div>\n <div class=\"col-md-6\">\n  <h2 class=\"h5\"><a href=\"https://emploisfp-psjobs.cfp-psc.gc.ca/psrs-srfp/applicant/page2440?fromMenu=true&amp;toggleLanguage=fr\">Offres d\u2019emploi dans la fonction publique</a></h2>\n    <p>Cherchez les offres d\u2019emploi disponibles dans la fonction publique.</p>\n </div>\n</div>\n\n<div class=\"row\">\n <div class=\"col-md-6\">\n  <h2 class=\"h5\"><a href=\"https://www.canada.ca/fr/commission-fonction-publique/emplois/services/emplois-gc/postuler-emploi-gouvernement-canada-quoi-vous-attendre.html\">Comment postuler un emploi</a></h2>\n    <p>Voyez les \u00e9tapes \u00e0 suivre pour postuler un emploi \u00e0 la fonction publique.</p>\n </div>\n <div class=\"col-md-6\">\n  <h2 class=\"h5\"><a href=\"/fra/?id=1515504619391\">Possibilit\u00e9s de recrutement</a></h2>\n    <p>Renseignez-vous sur les possibilit\u00e9s offertes \u00e0 AAC, notamment sur les programmes de perfectionnement, les initiatives de recrutement et les emplois offerts aux \u00e9tudiants et aux dipl\u00f4m\u00e9s.</p>\n     </div>\n</div>\n\n<div class=\"row\">\n <div class=\"col-md-6\">\n  <h2 class=\"h5\"><a href=\"/fra/?id=1491493049051\">Initiative de recrutement d\u2019\u00e9tudiants autochtones</a></h2>\n    <p>Gr\u00e2ce \u00e0 l\u2019Initiative de recrutement d\u2019\u00e9tudiants autochtones, AAC offre aux \u00e9tudiants autochtones des exp\u00e9riences de travail qui favorisent la croissance personnelle tout en contribuant \u00e0 l'atteinte de ses objectifs.</p>\n </div>\n <div class=\"col-md-6\">\n  <h2 class=\"h5\"><a href=\"/fra/?id=1515508450935\">Types de carri\u00e8res \u00e0 Agriculture et Agroalimentaire Canada</a></h2>\n    <p>Renseignez-vous sur les types de carri\u00e8res offerts \u00e0 AAC.</p>\n </div>\n</div>\n\n<div class=\"row\">\n <div class=\"col-md-6\">\n  <h2 class=\"h5\"><a href=\"/fra/?id=1515510048856\">Raisons de cultivez votre avenir avec nous</a></h2>\n    <p>D\u00e9couvrez pourquoi vous devriez joindre AAC.</p>\n </div>\n <div class=\"col-md-6\">\n  <h2 class=\"h5\"><a href=\"/fra/?id=1467665206659\">Nominations par le gouverneur en conseil</a></h2>\n   <p>Soumettez votre candidature pour une nomination faite par le gouverneur en conseil.</p>\n </div>\n</div>\n\n<div class=\"row\">\n <div class=\"col-md-6\">\n  <h2 class=\"h5\"><a href=\"/fra/?id=1467669625216\">Nominations minist\u00e9rielles</a></h2>\n    <p>Soumettez votre candidature pour une nomination faite par le ministre.</p>\n </div>\n</div>\n\n<div class=\"clearfix\"></div>\n\r\n    <!-- Fin du contenu -->\r\n\t\r\n\t\r\n\t\r\n  "
    },
    "css": {
        "fr": null
    },
    "js": {
        "en": null,
        "fr": null
    }
}