{
    "dcr_id": "1204672301124",
    "title": {
        "en": "Acts and Regulations - Canadian Pari-Mutuel Agency",
        "fr": "Lois et r&egrave;glements - Agence canadienne du pari mutuel"
    },
    "modified": "2019-04-04",
    "issued": "2009-04-30",
    "templatetype": "content page 1 column",
    "page_type": "1",
    "node_id": "1365631329692",
    "dc_date_created": "2009-04-30",
    "managing_branch": "PAB",
    "parent_node_id": "1354137774057",
    "label": {
        "en": "Acts and Regulations",
        "fr": "Lois et r\u00e8glements"
    },
    "exturl": "",
    "teamsite_location": {
        "en": "/default/main/AAFC-AAC/Internet-Internet/Common-Commun/WORKAREA/Common-Commun/templatedata/comm-comm/gene-gene/data/03/cbma_aboutus_leg_policy_1204672301124_en",
        "fr": "/default/main/AAFC-AAC/Internet-Internet/Common-Commun/WORKAREA/Common-Commun/templatedata/comm-comm/gene-gene/data/03/cbma_aboutus_leg_policy_1204672301124_fr"
    },
    "type_name": "sitemapinit",
    "has_dcr_id": true,
    "breadcrumb": {
        "en": "Acts and Regulations",
        "fr": "Lois et r\u00e8glements"
    },
    "layout_name": "content page 1 column",
    "lang": "en",
    "meta": {
        "issued": {
            "en": "2009-04-30",
            "fr": "2009-04-30"
        },
        "modified": {
            "en": "2019-04-04",
            "fr": "2019-04-04"
        },
        "format": {
            "en": "text/html",
            "fr": "text/html"
        },
        "title": {
            "en": "Acts and Regulations - Canadian Pari-Mutuel Agency",
            "fr": "Lois et r&egrave;glements - Agence canadienne du pari mutuel"
        },
        "subject": {
            "en": "agricultural policy",
            "fr": "politique agricole"
        },
        "description": {
            "en": null,
            "fr": null
        },
        "language": {
            "en": "eng",
            "fr": "fra"
        },
        "keywords": {
            "en": " inter-track betting; itb form; foreign organization application; foreign race inter-track betting;pdf version",
            "fr": null
        },
        "audience": {
            "en": "general public",
            "fr": "grand public"
        },
        "type": {
            "en": "resource list",
            "fr": "liste de r\u00e9f\u00e9rence"
        },
        "creator": {
            "en": "Corporate Management Branch;Agriculture and Agri-Food Canada;Government of Canada",
            "fr": "Direction g\u00e9n\u00e9rale de la gestion int\u00e9gr\u00e9e;Agriculture et Agroalimentaire Canada;Gouvernement du Canada"
        },
        "spatial": {
            "en": "gcregions",
            "fr": "gcregions"
        },
        "service": {
            "en": "AAFC-AAC",
            "fr": "AAFC-AAC"
        },
        "accessRights": {
            "en": "2",
            "fr": "2"
        },
        "legalName": {
            "en": "agriculture_and_agri_food_canada",
            "fr": "agriculture_et_agroalimentaire_canada"
        },
        "areaServed": {
            "en": "Canada",
            "fr": "Canada"
        }
    },
    "css": {
        "fr": null
    },
    "js": {
        "en": null,
        "fr": null
    },
    "body": {
        "en": "<!-- D&eacute;but du contenu -->\r\n    <p>The Canadian Pari-Mutuel Agency's (CPMA) regulatory framework consists of laws, regulations, regulatory documents (for example, Policy Papers), licences and authorizations.</p>\n\n<p>Section\u00a0204 of the <cite>Criminal Code</cite> is the legislative authority by which the Minister of Agriculture and Agri-Food may make regulations in respect of pari-mutuel betting (<cite>Pari-Mutuel Betting Supervision Regulations</cite>). CPMA maintains this regulatory framework to govern and ensure the integrity of pari-mutuel betting systems in Canada. The key objective is to establish compliance with the Regulations in an efficient and effective manner, thereby protecting the interest of the betting public.</p>\n\n<p>When required, the CPMA pre publishes in the <cite>Canada Gazette</cite>, Part\u00a0I proposals for new regulations or proposed amendments to existing Regulations.</p>\n\n<p>Comments may be submitted at any time. Please address comments to the attention of \"Policy and Planning\" by any of the following methods:</p>\n\n<p><b>Mail:</b> Canadian Pari-Mutuel Agency<br>\nP.O. Box 5904<br>\nLCD Merivale<br>\nOttawa, ON K2C 3X7</p>\n\n<p><b>E-mail:</b> <a href=\"mailto:aafc.cpmawebacpm.aac@canada.ca\">aafc.cpmawebacpm.aac@canada.ca</a></p>\n\n<p><b>Fax:</b> 613-759-6230</p>\n\n\n<h2>What are we doing?</h2>\n\n<p>As an agency, CPMA  is responsible for administering  acts and regulations, and for implementing government-wide regulatory  initiatives. View the CMPA\u2019s Regulatory Framework Overview at the following link: <a href=\"?id=1204750809082\">Canadian Pari-Mutuel Agency Regulatory Framework Overview</a></p>\n\n<!--ul>\n  <li>List of Acts\n  <ul>\n    <li><a href=\"http://laws-lois.justice.gc.ca/eng/acts/C-46/page-48.html#docCont\">Section 204 of the <cite>Criminal Code</cite></a></li>\n  </ul></li>\n<li>List of Regulations\n  <ul>\n    <li><a href=\"http://laws-lois.justice.gc.ca/eng/regulations/SOR-91-365/page-1.html\"><cite>Pari-Mutuel Betting Supervision Regulations</cite></a></li>\n    <li><a href=\"http://laws-lois.justice.gc.ca/eng/regulations/SI-83-72/page-1.html\"><cite>Pari-Mutuel Payments Order</cite></a></li>\n    <li><a href=\"http://laws-lois.justice.gc.ca/eng/regulations/SOR-85-730/page-1.html#ord\"><cite>Racing Products Transfer and Loan Regulations</cite></a></li>\n    <li><a href=\"http://arci.com/model-rules-standards/\"><cite>Association of Racing Commissioners International Model Rules</cite></a></li>\n  </ul></li>\n<li><a href=\"/eng/?id=1362069110631\">Forward Regulatory Plan</a></li>\n<li><a href=\"/eng/?id=1553544127516\">Regulatory Stock Review Plan</a></li>\n<li><a href=\"/eng/?id=1362071297940\">Service Standards for High-Volume Regulatory Authorizations</a></li>\n\n<li><a href=\"/eng/?id=1410356386866\">Interpretation Policy</a></li>\n\n<li><a href=\"/eng/?id=1410359004838\">Frequently Asked Questions About Regulations</a></li>\n\n<li><a href=\"/eng/?id=1204750809082\">Canadian Pari-Mutuel Agency Regulatory Framework Overview</a></li>\n<li><a href=\"/eng/?id=1475085221077\">Administrative Burden Baseline</a></li>\n</ul-->\n\n<!-- NEW CONTENT START -->\n\n<dl>\n    <dt><b>Acts and Regulations</b></dt>\n    <dd>\n      <p>CPMA is responsible for administering  certain federal acts and regulations.</p>\n      <p>Access  these federal acts and regulations at the following link(s): </p>\n      <ul>\n        <li>Act \n        <ul>\n          <li><a href=\"https://laws-lois.justice.gc.ca/eng/acts/C-46/page-46.html#s-204\">Section 204 of the <cite>Criminal Code</cite></a></li>\n        </ul></li>\n        <li>Regulations \n        <ul>\n          <li><a href=\"http://laws-lois.justice.gc.ca/eng/regulations/SOR-91-365/page-1.html\"><cite>Pari-Mutuel Betting Supervision Regulations</cite></a></li>\n          <li><a href=\"http://laws-lois.justice.gc.ca/eng/regulations/SI-83-72/page-1.html\"><cite>Pari-Mutuel Payments Order</cite></a></li>\n          <li><a href=\"http://laws-lois.justice.gc.ca/eng/regulations/SOR-85-730/page-1.html#ord\"><cite>Racing Products Transfer and Loan Regulations</cite></a></li>\n          <li><a href=\"http://arci.com/model-rules-standards/\"><cite>Association of Racing Commissioners International Model Rules</cite></a></li>\n        </ul></li>\n      </ul>\n    </dd>\n\n    <dt><b>Planned or anticipated changes to regulations (Forward Regulatory Plan and the Stock Review plan)</b></dt>\n    <dd>\n      <p>CPMA publishes a public list, with  descriptions, of planned or anticipated federal regulatory changes that CPMA intends to bring  forward over a 24-month period (Forward Regulatory Plan).</p>\n      <p>The Forward Regulatory Plan landing  page includes a link to the CPMA\u2019s stock review plan, which is CPMA\u2019s plan to review its entire regulatory  stock over a set period of time. The stock review plan includes:</p>\n      <ul>\n        <li>a list of the regulations that will undergo a review, prioritized in a way       that makes sense to the regulator and stakeholders;</li>\n        <li>a time frame for the review(s).</li>\n      </ul>\n      \n<p>View the Forward Regulatory Plan at the following  link: <a href=\"?id=1362069110631\">Forward Regulatory Plan</a></p></dd>\n\n\n    <dt><b>Timeliness service standards and performance information</b></dt>\n    <dd>\n      <p>CPMA publishes timeliness service standards and performance  information for its services, including services for regulated parties to  obtain regulatory authorization such as a permit or licence to engage in a  regulated activity.</p>\n\n<p>View timeliness service standards and performance  information at the following link: <a href=\"?id=1362071297940\">Service  Standards for High-Volume Regulatory Authorizations</a>.</p></dd>\n      \n    <dt><b>How guidance on regulatory requirements is provided (<cite>Policy on Providing Guidance on Regulatory Requirements</cite>)</b></dt>\n    <dd>\n      <p>CPMA\u2019s <cite>Policy  on Providing Guidance on Regulatory Requirements</cite>:</p>\n      <ul>\n        <li>outlines the commitments, practices and tools that CPMA applies when providing Canadians and businesses with information and guidance on regulatory obligations to be met;</li>\n        <li>identifies the conditions under which written responses to questions will be provided.</li>\n      </ul>\n\n<p>View CPMA\u2019s <cite>Policy on  Providing Guidance on Regulatory Requirements</cite> at the following link: <a href=\"?id=1410356386866\"><cite>Policy  on Providing Guidance on Regulatory Requirements</cite></a>.</p></dd>\n      \n    <dt><b>Number of administrative burden requirements in regulations (Administrative Burden Baseline initiative)</b></dt>\n    <dd>\n      <p>The Administrative Burden Baseline  initiative requires departments and agencies to:</p>\n      <ul>\n        <li>establish a baseline count of federal regulatory requirements that impose administrative burden on business;</li>\n        <li>annually update and report publicly on the count of baseline requirements.</li>\n      </ul>\n\n<p>View the number of administrative burden requirements  in regulations administered by CPMA at the following link: <a href=\"?id=1475085221077\">Administrative  Burden Baseline count and annual updates</a>.</p></dd>\n      \n    <dt><b>Frequently Asked Questions - Regulations</b></dt>\n    <dd>\n     <p>The  Frequently Asked Questions are meant to provide Canadians and businesses with  basic information about all of the regulations that CPMA administers directly.</p>\n     \n     <p>View the Frequently Asked Questions at the following link: <a href=\"?id=1410359004838\">Frequently  Asked Questions - Regulations</a>.</p></dd>                  \n</dl>\n\n<!-- NEW END -->\n\n<p>All of the government's Acts and Regulations can be found on the <a href=\"http://laws-lois.justice.gc.ca/eng/index.html\">Justice Laws Website</a>. Access to the full text of federal Acts and Regulations is provided by the Department of Justice Canada, which is responsible for maintaining the Consolidated Statutes of Canada. Please read the <a href=\"http://laws.justice.gc.ca/eng/ImportantNote/\">note from the Department of Justice Canada</a>.</p>\n\n\n<h2>For more information</h2>\n\n<p>Consult the following for links to the <cite>Cabinet Directive on Regulation</cite> and supporting policies and  guidance, and for information on government-wide regulatory initiatives  implemented by departments and agencies across the Government of Canada:</p>\n\n<ul>\n  <li><a href=\"https://www.canada.ca/en/treasury-board-secretariat/services/federal-regulatory-management.html\">Federal regulatory management and modernization</a></li>\n  <li><a href=\"https://www.canada.ca/en/treasury-board-secretariat/services/regulatory-cooperation/learn-about-regulatory-cooperation.html\">Learn  more about regulatory cooperation</a></li>\n</ul>\n\n<p>To learn about  upcoming or ongoing consultations on proposed federal regulations, visit:</p>\n\n<ul>\n  <li><a href=\"http://www1.canada.ca/consultingcanadians/\">Consulting  with Canadians</a></li>\n\n  <li><a href=\"http://www.gazette.gc.ca/accueil-home-eng.html\">Canada Gazette</a></li>\n</ul>\n\r\n    <!-- Fin du contenu -->",
        "fr": "\r\n    \r\n    <!-- MainContentStart -->\r\n    <!-- D&eacute;but du contenu -->\r\n    <p>Le cadre r\u00e9glementaire de l'Agence canadienne du pari mutuel (ACPM) comporte des lois, des r\u00e8glements, des documents r\u00e9glementaires (par exemple, expos\u00e9s de principes), des licences et des autorisations.</p>\n\n<p>L'article 204 du <cite>Code criminel</cite> constitue le pouvoir l\u00e9gislatif par lequel le ministre de l'Agriculture et de l'Agroalimentaire peut promulguer un r\u00e8glement relativement au pari mutuel (<cite>R\u00e8glement sur la surveillance du pari mutuel</cite>). L'ACPM maintient ce cadre de r\u00e9glementation pour r\u00e9gir et assurer l'int\u00e9grit\u00e9 des syst\u00e8mes de pari mutuel au Canada. Le principal objectif consiste \u00e0 \u00e9tablir la conformit\u00e9 avec le R\u00e8glement d'une mani\u00e8re efficiente et efficace et, par le fait m\u00eame, \u00e0 prot\u00e9ger l'int\u00e9r\u00eat des parieurs.</p>\n\n<p>Au besoin, l'ACPM publie au pr\u00e9alable dans la Partie\u00a0I de la <cite>Gazette du Canada</cite>, les demandes de nouveaux r\u00e8glements ou les modifications propos\u00e9es au R\u00e8glement actuellement en vigueur.</p>\n\n<p>Les commentaires peuvent \u00eatre soumis \u00e0 tout moment. Veuillez adresser vos commentaires \u00e0 \u00ab\u00a0l'attention de\u00a0: Politiques et planification\u00a0\u00bb par les moyens suivants\u00a0:</p>\n\n<p><b>Courrier\u00a0:</b> Agence canadienne de pari mutuel<br>\nCase postale 5904<br>\nPDF Merivale<br>\nOttawa (Ontario)  K2C 3X7</p>\n\n<p><b>Courriel\u00a0:</b> <a href=\"mailto:aafc.cpmawebacpm.aac@canada.ca\">aafc.cpmawebacpm.aac@canada.ca</a></p>\n\n<p><b>T\u00e9l\u00e9copieur\u00a0:</b> 613-759-6230</p>\n\n<h2>Que faisons-nous ?</h2>\n\n<p>En tant qu'organisme, l'ACPM est responsable de l\u2019application des lois et des r\u00e8glements  ainsi que de la mise en \u0153uvre d\u2019initiatives r\u00e9glementaires \u00e0 l\u2019\u00e9chelle  gouvernementale. Visualisez  le Sommaire du cadre r\u00e9glementaire de l\u2019ACPM \u00e0 l\u2019adresse suivante\u00a0: <a href=\"?id=1204750809082\">Sommaire  du cadre r\u00e9glementaire de l\u2019ACPM</a></p>\n\n<!--ul>\t\n<li>Liste des lois\n  <ul>\n    <li><a href=\"http://laws-lois.justice.gc.ca/fra/lois/C-46/page-48.html\">Article 204 du <cite>Code criminel</cite></a></li>\n  </ul></li>    \n<li>Liste des r&egrave;glements\n  <ul>\n    <li><a href=\"http://laws-lois.justice.gc.ca/fra/reglements/DORS-91-365/page-1.html\"><cite>R&egrave;glement sur la surveillance du pari mutuel</cite></a></li>\n    <li><a href=\"http://laws-lois.justice.gc.ca/fra/reglements/TR-83-72/page-1.html\"><cite>D&eacute;cret sur les paiements du pari mutuel</cite></a></li>\n    <li><a href=\"http://laws-lois.justice.gc.ca/fra/reglements/DORS-85-730/page-1.html\"><cite>R&egrave;glement sur le transfert et le pr&ecirc;t de mat&eacute;riel de courses</cite></a></li>\n    <li><a href=\"http://arci.com/model-rules-standards/\"><cite>Association of Racing Commissioners International Model Rules</cite> (en anglais seulement)</a></li>\n  </ul></li>  \n<li><a href=\"/fra/?id=1362069110631\">Plan prospectif de la r&eacute;glementation</a></li>    \n<li><a href=\"/fra/?id=1553544127516\">Plan d&rsquo;examen de l&rsquo;inventaire des r&egrave;glements</a></li>\n<li><a href=\"/fra/?id=1362071297940\">Normes de service pour les autorisations r&eacute;glementaires &agrave; demande &eacute;lev&eacute;e</a></li>\n\n<li><a href=\"/fra/?id=1410356386866\">Politique sur l'interpr&eacute;tation de la r&eacute;glementation</a></li>\n\n<li><a href=\"/fra/?id=1410359004838\">Foire aux questions au sujet de la r&eacute;glementation</a></li>\n\n<li><a href=\"/fra/?id=1204750809082\">Sommaire du cadre r&eacute;glementaire de l'Agence canadienne du pari mutuel</a></li>\n<li><a href=\"/fra/?id=1475085221077\">Base de r&eacute;f&eacute;rence du fardeau administratif</a></li>\n</ul-->\n\n\n<dl>\n    <dt><b>Lois et r\u00e8glements</b></dt>\n    <dd>\n      <p>L'ACPM  est responsable de  l\u2019application de certaines lois et de certains r\u00e8glements f\u00e9d\u00e9raux.</p>\n      \n      <p>Consultez ces lois et r\u00e8glements f\u00e9d\u00e9raux \u00e0 l\u2019adresse  suivante\u00a0:</p>\n      <ul>\n        <li>La lois \n        <ul>\n          <li><a href=\"https://laws-lois.justice.gc.ca/fra/lois/C-46/page-46.html#s-204\">Article 204 du <cite>Code criminel</cite></a></li>\n        </ul></li>\n        <li>Les r\u00e8glements \n        <ul>\n          <li><a href=\"http://laws-lois.justice.gc.ca/fra/reglements/DORS-91-365/page-1.html\"><cite>R\u00e8glement sur la surveillance du pari mutuel</cite></a></li>\n          <li><a href=\"http://laws-lois.justice.gc.ca/fra/reglements/TR-83-72/page-1.html\"><cite>D\u00e9cret sur les paiements du pari mutuel</cite></a></li>\n          <li><a href=\"http://laws-lois.justice.gc.ca/fra/reglements/DORS-85-730/page-1.html\"><cite>R\u00e8glement sur le transfert et le pr\u00eat de mat\u00e9riel de courses</cite></a></li>\n          <li><a href=\"http://arci.com/model-rules-standards/\"><cite>Association of Racing Commissioners International Model Rules</cite> (en        anglais seulement)</a></li>\n        </ul></li>\n      </ul>\n    </dd>\n    \n    <dt><b>Modifications pr\u00e9vues ou anticip\u00e9es aux r\u00e8glements (plan prospectif de la r\u00e9glementation, et le plan d\u2019examen de l\u2019inventaire des r\u00e8glements)</b></dt>\n    <dd>\n      <p>ACPM publie  une liste publique qui contient des descriptions des modifications r\u00e9glementaires  pr\u00e9vues ou anticip\u00e9es qu\u2019ACPM  a  l\u2019intention de pr\u00e9senter au cours d\u2019une p\u00e9riode de 24\u00a0mois (plan prospectif de la  r\u00e9glementation).</p>\n      <p>La  page d\u2019accueil du plan prospectif de la r\u00e9glementation comprend un hyperlien  vers le plan d\u2019examen de l\u2019inventaire des r\u00e8glements d\u2019ACPM ,  qui correspond au plan d\u2019ACPM  visant \u00e0 examiner l\u2019inventaire de r\u00e8glements dans son int\u00e9gralit\u00e9 au cours  d\u2019une p\u00e9riode de temps donn\u00e9e. Le  plan d\u2019examen de l\u2019inventaire comprend ce qui suit\u00a0:</p>\n      <ul>\n        <li>la liste des r\u00e8glements qui feront l\u2019objet d\u2019un examen et dont l\u2019ordre de priorit\u00e9s suit le mandat de l\u2019organisme de r\u00e9glementation et des intervenants;</li>\n        <li>l\u2019\u00e9ch\u00e9ancier pour les examens.</li>\n      </ul>\n      \n<p>Visualisez le plan prospectif de la r\u00e9glementation \u00e0  l\u2019adresse suivante\u00a0: <a href=\"?id=1362069110631\">Plan  prospectif de la r\u00e9glementation</a>.</p>\n\t</dd>    \n    \n    <dt><b>Normes de service en mati\u00e8re de rapidit\u00e9 et renseignements sur le rendement</b></dt>\n    <dd>\n      <p>L\u2019ACPM publie des normes de service en  mati\u00e8re de rapidit\u00e9 et des renseignements sur le rendement pour ses services, y  compris les services pour les parties r\u00e9glement\u00e9es en vue d\u2019obtenir une  autorisation r\u00e9glementaire comme un permis ou une licence afin de se livrer \u00e0  une activit\u00e9 r\u00e9glement\u00e9e.</p>\n\n<p>Visualisez les normes de service en  mati\u00e8re de rapidit\u00e9 et les renseignements sur le rendement \u00e0 l\u2019adresse  suivante\u00a0: <a href=\"?id=1362071297940\">Normes  de service pour les autorisations r\u00e9glementaires \u00e0 demande \u00e9lev\u00e9e</a></p>\n\t</dd>    \n    \n    <dt><b>Fa\u00e7on dont les lignes directrices sur les exigences en mati\u00e8re de r\u00e9glementation sont fournies (<cite>Politique sur la prestation de lignes directrices sur les exigences r\u00e9glementaires</cite>)</b></dt>\n    <dd>\n      <p>La <cite>Politique sur la prestation de lignes  directrices sur les exigences r\u00e9glementaires</cite> d\u2019ACPM\u00a0:</p>\n\n      <ul>\n        <li>d\u00e9crit les engagements, pratiques et outils qu\u2019ACPM applique pour fournir aux Canadiens et aux entreprises des renseignements et des lignes directrices sur les obligations r\u00e9glementaires \u00e0 respecter;</li>\n        <li>\u00e9tablit les conditions dans lesquelles des r\u00e9ponses \u00e9crites aux questions seront fournies.</li>\n      </ul>\n      \n<p>Visualisez la <cite>Politique sur la prestation de lignes directrices sur les exigences  r\u00e9glementaires</cite> d\u2019ACPM \u00e0 l\u2019adresse suivante\u00a0: <a href=\"?id=1410356386866\"><cite>Politique  sur la prestation de lignes directrices sur les exigences r\u00e9glementaires</cite></a>.</p></dd>    \n    \n    <dt><b>Nombre d\u2019exigences imposant un fardeau administratif dans les r\u00e8glements (initiative de la base de r\u00e9f\u00e9rence du fardeau administratif)</b></dt>\n    <dd>\n      <p>L\u2019initiative  de la base de r\u00e9f\u00e9rence du fardeau administratif exige que les minist\u00e8res et  les organismes\u00a0:</p>\n\n      <ul>\n        <li>\u00e9tablissent un nombre de r\u00e9f\u00e9rence d\u2019exigences r\u00e9glementaires f\u00e9d\u00e9rales qui imposent un fardeau administratif aux entreprises;</li>\n        <li>pr\u00e9sentent des mises \u00e0 jour et des rapports publics sur le nombre d\u2019exigences de base.</li>\n      </ul>\n      \n<p>Visualisez le nombre d\u2019exigences imposant un  fardeau administratif dans les r\u00e8glements qui rel\u00e8vent d\u2019ACPM \u00e0 l\u2019adresse  suivante\u00a0: <a href=\"?id=1475085221077\">le  nombre d\u2019exigences imposant un fardeau administratif dans les r\u00e8glements</a>.</p></dd>    \n    \n    <dt><b>Foire aux questions - R\u00e9glementation</b></dt>\n    <dd>\n      <p>La  Foire aux questions vise \u00e0 fournir aux Canadiens et aux entreprises des renseignements  g\u00e9n\u00e9raux sur les r\u00e8glements directement administr\u00e9s par ACPM.</p>\n      \n<p>Visualisez la Foire  aux questions au sujet de la r\u00e9glementation \u00e0 l\u2019adresse suivante\u00a0: <a href=\"?id=1410359004838\">Foire  aux questions au sujet de la r\u00e9glementation</a>.</p></dd>                    \n    \n</dl>    \n\n<p>L'ensemble des lois et des r\u00e8glements du gouvernement sont publi\u00e9s sur le <a href=\"http://laws-lois.justice.gc.ca/fra/\">site Web des lois du Canada</a>. L'acc\u00e8s au texte complet des Lois et des r\u00e8glements est fourni par le minist\u00e8re de la Justice du Canada, qui a la responsabilit\u00e9 de tenir \u00e0 jour les Lois codifi\u00e9es du Canada. Veuillez lire la <a href=\"http://laws.justice.gc.ca/fra/NoteImportante/\">note du minist\u00e8re de la Justice Canada</a>.</p>\n\n<h2>Pour de plus amples renseignements\u00a0:</h2>\n\n<p>Cliquez sur les hyperliens ci\u2011dessous pour acc\u00e9der \u00e0  la <cite>Directive du Cabinet sur la  r\u00e9glementation</cite> ainsi  qu\u2019aux politiques et lignes directrices \u00e0 l\u2019appui, et pour obtenir des  renseignements sur les initiatives r\u00e9glementaires pangouvernementales mises en  \u0153uvre par les minist\u00e8res et organismes  dans l\u2019ensemble du gouvernement du Canada\u00a0:</p>\n\n<ul>\n  <li><a href=\"https://www.canada.ca/fr/secretariat-conseil-tresor/services/gestion-reglementation-federale.html\">Gestion et modernisation de la r\u00e9glementation f\u00e9d\u00e9rale</a></li>\n  <li><a href=\"https://www.canada.ca/fr/secretariat-conseil-tresor/services/cooperation-matiere-reglementation/a-propos-cooperation-matiere-reglementation.html\">Apprenez-en       davantage sur la coop\u00e9ration en mati\u00e8re de r\u00e9glementation</a></li>\n</ul>\n\n<p>Pour en apprendre davantage sur les consultations \u00e0 venir ou en cours  concernant les projets de r\u00e9glementation f\u00e9d\u00e9raux, visitez les pages  suivantes\u00a0:</p>\n\n<ul>\n  <li><a href=\"https://www1.canada.ca/consultationdescanadiens\">Consultation des Canadiens</a></li>\n  <li><a href=\"http://www.gazette.gc.ca/accueil-home-fra.html\">Gazette du Canada</a></li>\n</ul>\n\r\n    <!-- Fin du contenu -->\r\n\t\r\n\t\r\n\t\r\n  "
    }
}