{
    "dcr_id": "1197398786512",
    "title": {
        "en": "Notice of Variety Request for Proposals",
        "fr": "Demandes de propositions relatives aux vari\u00e9t\u00e9s"
    },
    "modified": "2020-10-05",
    "issued": "2009-05-25",
    "templatetype": "content page 1 column",
    "page_type": "1",
    "node_id": "1366840503822",
    "dc_date_created": "2009-05-25",
    "managing_branch": "PAB",
    "parent_node_id": "1354137774015",
    "label": {
        "en": "Notice of Request for Proposals 2013 Varieties",
        "fr": "Demandes de propositions relatives aux vari\u00e9t\u00e9s d'AAC - 2013"
    },
    "exturl": "",
    "teamsite_location": {
        "en": "/default/main/AAFC-AAC/Internet-Internet/Common-Commun/WORKAREA/Common-Commun/templatedata/comm-comm/gene-gene/data/12/variety_request_proposals_2007_1197398786512_en",
        "fr": "/default/main/AAFC-AAC/Internet-Internet/Common-Commun/WORKAREA/Common-Commun/templatedata/comm-comm/gene-gene/data/12/variety_request_proposals_2007_1197398786512_fr"
    },
    "type_name": "sitemapinit",
    "has_dcr_id": true,
    "breadcrumb": {
        "en": "Notice of Request for Proposals 2013 Varieties",
        "fr": "Demandes de propositions relatives aux vari\u00e9t\u00e9s d'AAC - 2013"
    },
    "layout_name": "content page 1 column",
    "lang": "en",
    "meta": {
        "issued": {
            "en": "2009-05-25",
            "fr": "2009-05-25"
        },
        "modified": {
            "en": "2021-02-03",
            "fr": "2021-02-03"
        },
        "format": {
            "en": "text/html",
            "fr": "text/html"
        },
        "title": {
            "en": "Notice of Variety Request for Proposals",
            "fr": "Demandes de propositions relatives aux vari\u00e9t\u00e9s"
        },
        "subject": {
            "en": "research;agricultural technology",
            "fr": "recherche;technologie agricole"
        },
        "description": {
            "en": "Agriculture and Agri-Food Canada (AAFC) is pleased to announce its 2010 Variety Request for Proposals. Interested parties can obtain all necessary information from the links below:",
            "fr": "Agriculture et Agroalimentaire Canada (AAC) est heureux d'annoncer l'Avis de demande de propositions de 2010 pour les vari\u00e9t\u00e9s. Les parties int\u00e9ress\u00e9es peuvent obtenir toute l'information n\u00e9cessaire \u00e0 partir des liens ci-dessous:"
        },
        "language": {
            "en": "eng",
            "fr": "fra"
        },
        "keywords": {
            "en": " Material Transfer Agreement; License Agreement;Variety Request for Proposals",
            "fr": " Accord de transfert de mat\u00e9riel; contrat de mise sous licence;demande de propositions de 2010 pour les vari\u00e9t\u00e9s"
        },
        "audience": {
            "en": "general public",
            "fr": "grand public"
        },
        "type": {
            "en": "notice",
            "fr": "fiche de renseignements"
        },
        "creator": {
            "en": "Research Branch;Agriculture and Agri-Food Canada;Government of Canada ",
            "fr": "Direction g\u00e9n\u00e9rale de la recherche;Agriculture et Agroalimentaire Canada;Gouvernement du Canada"
        },
        "spatial": {
            "en": "gcregions",
            "fr": "gcregions"
        },
        "service": {
            "en": "AAFC-AAC",
            "fr": "AAFC-AAC"
        },
        "accessRights": {
            "en": "2",
            "fr": "2"
        },
        "legalName": {
            "en": "agriculture_and_agri_food_canada",
            "fr": "agriculture_et_agroalimentaire_canada"
        },
        "areaServed": {
            "en": "Canada",
            "fr": "Canada"
        }
    },
    "css": {
        "fr": null
    },
    "js": {
        "en": null,
        "fr": null
    },
    "body": {
        "en": "<!-- D&eacute;but du contenu -->\r\n    <p>Agriculture and Agri-Food Canada (AAFC) is pleased to announce its Variety Request for Proposals. Interested parties can obtain all necessary information from the links below:</p>\n\n<ul class=\"lst-spcd\">\n  <li class=\"mrgn-bttm-lg\"><a href=\"?id=1234733551376\">Notice of Request for Proposals\u00a0- 2021 Varieties</a>\u00a0- closes March\u00a024,\u00a02021<br>\nLists the varieties available for licensing and gives their attendant traits, characteristics and performance data.</li>\n  <li class=\"mrgn-bttm-lg\"><a href=\"?id=1203473548544\">Guidelines for Submitting Proposals</a></li>\n  <li class=\"mrgn-bttm-lg\"><a href=\"?id=1203473840530\">Proposal Submission Form</a></li>\n  <li><a href=\"?id=1241813367145\">Results of Request for Proposals 2020</a></li>\n</ul>\n\n<h2>Other Agriculture and Agri-Food Canada Pre-release Processes</h2>\n\n<ul>\n  <li class=\"mrgn-bttm-lg\"><a href=\"?id=1235051374828\">Notice of AAFC Food-type Soybean Lines Available for Food-quality Evaluation</a></li>\n</ul>\n\n<p class=\"mrgn-lft-lg\">If you would like to join the mailing list to receive updates about AAFC's Notice of Request for Proposals, please contact Stephen Capelle at <a href=\"mailto:stephen.capelle@canada.ca\">stephen.capelle@canada.ca</a>.</p>\n\r\n    <!-- Fin du contenu -->",
        "fr": "\r\n    \r\n    <!-- MainContentStart -->\r\n    <!-- D&eacute;but du contenu -->\r\n    <p>Agriculture et Agroalimentaire Canada (AAC) est heureux d'annoncer l'Avis de demande de propositions pour les vari\u00e9t\u00e9s. Les parties int\u00e9ress\u00e9es peuvent obtenir toute l'information n\u00e9cessaire \u00e0 partir des liens ci-dessous\u00a0:</p>\n\n<ul class=\"lst-spcd\">\n  <li class=\"mrgn-bttm-lg\"><a href=\"?id=1234733551376\">Avis de demande de propositions 2021 - Vari\u00e9t\u00e9s</a>\u00a0- ferme le 24 mars 2021<br>\nOn peut consulter les vari\u00e9t\u00e9s ainsi que leurs traits, caract\u00e9ristiques et donn\u00e9es de rendement.</li>\n  <li class=\"mrgn-bttm-lg\"><a href=\"?id=1203473548544\">Lignes directrices pour la pr\u00e9sentation de propositions</a></li>\n  <li class=\"mrgn-bttm-lg\"><a href=\"?id=1203473840530\">Le formulaire de soumission de propositions</a></li>\n  <li><a href=\"?id=1241813367145\">R\u00e9sultats des propositions 2020</a></li>\n</ul><h2>Autres processus de pr\u00e9-distribution d'Agriculture et Agroalimentaire Canada</h2>\n\n<ul class=\"lst-spcd\">\n  <li><a href=\"?id=1235051374828\">Cultivars de soja alimentaire d'AAC disponible pour une \u00e9valuation de la qualit\u00e9 alimentaire</a></li>\n</ul>\n\n<p class=\"mrgn-lft-lg\">Si vous souhaitez que votre compagnie soit ajouter \u00e0 la liste d'envoi, afin de recevoir les informations concernant l'Avis de demande de proposition d'AAC, veuillez envoyer un courriel \u00e0 Stephen Capelle\u00a0: <a href=\"mailto:stephen.capelle@canada.ca\">stephen.capelle@canada.ca</a>.</p>\n\r\n    <!-- Fin du contenu -->\r\n\t\r\n\t\r\n\t\r\n  "
    }
}