{
    "dcr_id": "1199997881628",
    "title": {
        "en": "Certified Organic Commodity Harmonized Import Codes",
        "fr": "Codes d'importation harmonis\u00e9s des produits certifi\u00e9s biologiques"
    },
    "modified": "2017-02-10",
    "issued": "2009-03-06",
    "templatetype": "content page 1 column",
    "page_type": "1",
    "node_id": "1367495702950",
    "dc_date_created": "2009-03-06",
    "managing_branch": "PAB",
    "parent_node_id": "1354137773918",
    "label": {
        "en": "Organic, Natural and Health Foods - Foreign and Domestic Market Opportunities",
        "fr": "Aliments biologiques, naturels et de sant\u00e9 - Opportunit\u00e9s dans les march\u00e9s nationaux et \u00e0 l\u2019\u00e9tranger"
    },
    "exturl": "",
    "teamsite_location": {
        "en": "/default/main/AAFC-AAC/Internet-Internet/Common-Commun/WORKAREA/Common-Commun/templatedata/comm-comm/gene-gene/data/01/prod_org_trade_db_1199997881628_en",
        "fr": "/default/main/AAFC-AAC/Internet-Internet/Common-Commun/WORKAREA/Common-Commun/templatedata/comm-comm/gene-gene/data/01/prod_org_trade_db_1199997881628_fr"
    },
    "type_name": "sitemapinit",
    "has_dcr_id": true,
    "breadcrumb": {
        "en": "Organic, Natural and Health Foods - Foreign and Domestic Market Opportunities",
        "fr": "Aliments biologiques, naturels et de sant\u00e9 - Opportunit\u00e9s dans les march\u00e9s nationaux et \u00e0 l\u2019\u00e9tranger"
    },
    "layout_name": "content page 1 column",
    "lang": "en",
    "meta": {
        "issued": {
            "en": "2009-03-06",
            "fr": "2009-03-06"
        },
        "modified": {
            "en": "2017-02-10",
            "fr": "2017-02-10"
        },
        "format": {
            "en": "text/html",
            "fr": "text/html"
        },
        "title": {
            "en": "Certified Organic Commodity Harmonized Import Codes",
            "fr": "Codes d'importation harmonis\u00e9s des produits certifi\u00e9s biologiques"
        },
        "subject": {
            "en": "agriculture",
            "fr": "agriculture"
        },
        "description": {
            "en": "customs tariff 2007 customs certified organic commodity imports tariff harmonized codes initiated for 2007 10 digit (imports) dairy products chapter 4 0403.10.10.10 yogourt, within access commitment 0403.10.20.10 yogourt, over access commitment fresh vegetables chapter 7 0701.90.00.10 potatoes, except seed 0702.00.29.10 tomatoes, cherry 0702.00.99.21 tomatoes, roma 0702.00.99.29 tomatoes, other 0703.10.99.10 onions, other 0703.10.39.10 onions or shallots, green 0704.10.90.10 cauliflower 0704.90.29.10 broccoli 0704.20.90.10 brussels sprouts 0704.90.39.10 cabbage 0704.90.49.10 cabbage, chinese 0705.11.90.20 lettuce, head 0705.19.90.20 lettuce, other 0706.10.40.10 carrots, other 0706.90.30.10 beets 0706.90.59.10 radishes 0707.00.99.20 cucumbers and gherkins 0709.20.99.10",
            "fr": "agence des services frontaliers au canada - tarif des douanes 2007 tarif des douanes les codes \u00e0 10 chiffresdu syst\u00e8me harmonis\u00e9 (importations) importations des produits au certifi\u00e9e biologiques lanc\u00e9 pour 2007 les produits de la laiterie chapitre 4 0403.10.10.10 yogourt, dans les limites de l'engagement d'acc\u00e8s 0403.10.20.10 yogourt, au-dessus des limites de l'engagement d'acc\u00e9s les legumes frais chapitre 7 0701.90.00.10 pommes de terre, sauf les semences 0702.00.29.10 tomates, cerise 0702.00.99.21 tomates, roma 0702.00.99.29 tomates, autres 0703.10.99.10 oignons, autres 0703.10.39.10 oignons ou \u00e9chalottes, verts 0704.10.90.10 chou-fleur 0704.90.29.10"
        },
        "language": {
            "en": "eng",
            "fr": "fra"
        },
        "keywords": {
            "en": " granny smith; canada border; milk beverages;access commitment",
            "fr": " produits certifi\u00e9s; granny smith; choux de bruxelles; certifi\u00e9e biologiques;agence des services frontaliers"
        },
        "audience": {
            "en": "general public",
            "fr": "grand public"
        },
        "type": {
            "en": "educational material",
            "fr": "interface de recherche"
        },
        "creator": {
            "en": "Market and Industry Services Branch;Agriculture and Agri-Food Canada;Government of Canada",
            "fr": "Direction g\u00e9n\u00e9rale des services \u00e0 l'industrie et aux march\u00e9s ;CanadaAgriculture et Agroalimentaire Canada;Gouvernement du "
        },
        "spatial": {
            "en": "gcregions",
            "fr": "gcregions"
        },
        "service": {
            "en": "AAFC-AAC",
            "fr": "AAFC-AAC"
        },
        "accessRights": {
            "en": "2",
            "fr": "2"
        },
        "legalName": {
            "en": "agriculture_and_agri_food_canada",
            "fr": "agriculture_et_agroalimentaire_canada"
        },
        "areaServed": {
            "en": "Canada",
            "fr": "Canada"
        }
    },
    "css": {
        "fr": null
    },
    "js": {
        "en": null,
        "fr": null
    },
    "body": {
        "en": "<!-- D&eacute;but du contenu -->\r\n     <p>Search for commodities at the 10-digit Harmonized System import levels. Select and download commodity trade data in \"txt, dif, cdf, slk, html\" formats. Pay for your retrievals by credit card.</p>\n\n<p><a href=\"http://www5.statcan.gc.ca/bsolc/olc-cel/olc-cel?lang=eng&amp;catno=65F0013X\">Canadian International Merchandise Trade Database (Statistics Canada)</a></p>\n\n<h2>Current list of certified organic commodity import codes</h2>\n\n<h3>Chapter 4 - Dairy products, eggs, natural honey</h3>\n<dl>\n<dt>0403101010</dt>\n<dd>Yogourt within access commitment</dd>\n<dt>0403102010</dt>\n<dd>Yogourt over access commitment</dd>\n</dl>\n\n<h3>Chapter 7 - Edible vegetables and certain roots and tubers</h3>\n\n<dl>\n<dt>0701900010</dt>\n<dd>Potatoes, except seed</dd>\n<dt>0702002910</dt>\n<dd>Tomatoes, Cherry, except process</dd>\n<dt>0702009921</dt>\n<dd>Tomatoes, Roma, excluding greenhouse</dd>\n<dt>0702009929</dt>\n<dd>Tomatoes, excluding greenhouse</dd>\n<dt>0703103910</dt>\n<dd>Onions or shallots, green</dd>\n<dt>0703109910</dt>\n<dd>Onions</dd>\n<dt>0704109010</dt>\n<dd>Cauliflowers and headed broccoli</dd>\n<dt>0704209010</dt>\n<dd>Brussels sprouts</dd>\n<dt>0704902910</dt>\n<dd>Broccoli</dd>\n<dt>0704903910</dt>\n<dd>Cabbage, except Chinese</dd>\n<dt>0704904910</dt>\n<dd>Chinese cabbage or chinese lettuce</dd>\n<dt>0705119020</dt>\n<dd>Cabbage lettuce, head lettuce, excluding greenhouse</dd>\n<dt>0705199020</dt>\n<dd>Lettuce / Ceased in December 2008 - Replaced by Harmonized System (HS) Code 0705199029</dd>\n<dt>0705199029</dt>\n<dd>Lettuce / New HS code as of 2009</dd>\n<dt>0705199021</dt>\n<dd>Lettuce, pack fresh salad cut mixes, of a weight &lt;=1 kilograms</dd>\n<dt>0705199022</dt>\n<dd>Lettuce, pack fresh salad cut mixes, of a weight &gt;1 kilograms</dd>\n<dt>0706102011</dt>\n<dd>Baby carrots, in pack of a weight &lt;=1 kilograms each</dd>\n<dt>0706102012</dt>\n<dd>Baby carrots, in bulk or pack of a weight &gt;1 kilograms each</dd>\n<dt>0706104010</dt>\n<dd>Carrots</dd>\n<dt>0706903010</dt>\n<dd>Beets</dd>\n<dt>0706905910</dt>\n<dd>Radishes</dd>\n<dt>0707009920</dt>\n<dd>Cucumbers &amp; gherkins, excluding greenhouse</dd>\n<dt>0708109910</dt>\n<dd>Peas, (Pisum sativum)</dd>\n<dt>0709209910</dt>\n<dd>Asparagus</dd>\n<dt>0709300010</dt>\n<dd>Eggplants, aubergines</dd>\n<dt>0709409010</dt>\n<dd>Celery, other than celeriac</dd>\n<dt>0709609020</dt>\n<dd>Peppers of the genus Capsicum or Pimenta, excluding greenhouse</dd>\n<dt>0709700011</dt>\n<dd>Spinach, New Zealand &amp; orache spinach (garden), in pack &lt;=500g</dd>\n<dt>0709700012</dt>\n<dd>Spinach, New Zealand &amp; orache spinach (garden), in pack &gt;500g</dd>\n<dt>0709700019</dt>\n<dd>Spinach, New Zealand &amp; orache spinach (garden)</dd>\n<dt>0709904010</dt>\n<dd>Sweet corn-on-the-cob /  Ceased in December 2011 \u2013 Replaced by 0709994010</dd>\n<dt>0709994010</dt>\n<dd>Sweet corn-on-the-cob / New HS code as of 2012</dd>\n</dl>\n\n\n\n<h3>Chapter 8 - Edible fruit and nuts; peel of citrus fruit or melons</h3>\n\n<dl>\n<dt>0803000011</dt>\n<dd>Bananas, including plantains / Ceased in December 2011 \u2013 Replaced by HS code 0803900011</dd>\n<dt>0803900011</dt>\n<dd>Bananas, other than plantains / New HS code as of 2012</dd>\n<dt>0804300011</dt>\n<dd>Pineapples</dd>\n<dt>0805100012</dt>\n<dd>Oranges, except Temple</dd>\n<dt>0805400010</dt>\n<dd>Grapefruit, including pomelos</dd>\n<dt>0805500011</dt>\n<dd>Lemons</dd>\n<dt>0805500012</dt>\n<dd>Limes</dd>\n<dt>0806109110</dt>\n<dd>Grapes, o/t species Vitis labrusca</dd>\n<dt>0807110010</dt>\n<dd>Watermelons</dd>\n<dt>0807200010</dt>\n<dd>Papaws (papayas)</dd>\n<dt>0808101081</dt>\n<dd>Apples, Golden Delicious, other than for processing</dd>\n<dt>0808101082</dt>\n<dd>Apples, Red Delicious, other than for processing</dd>\n<dt>0808101083</dt>\n<dd>Apples, Granny Smith, other than for processing</dd>\n<dt>0808101084</dt>\n<dd>Apples, Gala, other than for processing</dd>\n<dt>0808101089</dt>\n<dd>Apples, other than for processing</dd>\n<dt>0808202910</dt>\n<dd>Pears / Ceased as of December 2011 \u2013 Replaced by HS code 0808309910</dd>\n<dt>0808309910</dt>\n<dd>Pears / New HS code as of 2012</dd>\n<dt>0809203910</dt>\n<dd>Cherries / Ceased as of December 2011 \u2013 Replaced by HS code 0809292910</dd>\n<dt>0809292910</dt>\n<dd>Cherries / New HS code as of 2012</dd>\n<dt>0809302910</dt>\n<dd>Peaches, excluding nectarines</dd>\n<dt>0810109910</dt>\n<dd>Strawberries, except for processing</dd>\n<dt>0810201910</dt>\n<dd>Raspberries &amp; loganberries</dd>\n<dt>0810401011</dt>\n<dd>Cranberries</dd>\n<dt>0810401022</dt>\n<dd>Blueberries, cultivated</dd>\n</dl>\n\n\n<h3>Chapter 9 - Coffee, tea, mat\u00e9 and spices</h3>\n\n<dl>\n<dt>0901110010</dt>\n<dd>Coffee, not roasted, not decaffeinated</dd>\n<dt>0901210010</dt>\n<dd>Coffee, roasted, not decaffeinated</dd>\n<dt>0902101010</dt>\n<dd>Green tea, not fermented, in bags for individual servings</dd>\n<dt>0902109010</dt>\n<dd>Green tea, not fermented, in packages &lt;= 3 kilograms</dd>\n<dt>0902200010</dt>\n<dd>Green tea, not fermented, in packages exceeding 3 kilograms</dd>\n<dt>0902301011</dt>\n<dd>Black tea, ferm &amp; partly ferm, not decaf, bags for individual servings</dd>\n<dt>0902309011</dt>\n<dd>Black tea, ferm &amp; partly ferm, not decaf, in pack &lt;= 3 kilograms</dd>\n</dl>\n\n\n<h3>Chapter 12 - Oil seeds and oleaginous fruits; seeds and fruits; medicinal plants</h3>\n\n<dl>\n<dt>1211901010</dt>\n<dd>Herbal tea, in bags, for individual servings</dd>\n</dl>\n\n\n<h3>Chapter 15 - Animal or vegetable fats and oils</h3>\n\n<dl>\n<dt>1509100011</dt>\n<dd>Olive oil, virgin, in container sizes of less than 18 kilograms</dd>\n</dl>\n\n\n<h3>Chapter 19 - Preparations of cereals, flour, starch or milk; bakers' wares</h3>\n\n<dl>\n<dt>1901102010</dt>\n<dd>Food preparation containing &gt;10% dry weight basis of milk solid, infant use, retail sale</dd>\n</dl>\n\n\n<h3>Chapter 21 - Miscellaneous edible preparations</h3>\n\n<dl>\n<dt>2103209091</dt>\n<dd>Tomato sauces</dd></dl>\n\n\n<h3>Chapter 22 - Beverages, spirits and vinegar</h3>\n<dl>\n<dt>2202904910</dt>\n<dd>Milk beverages</dd>\n</dl>\n\n\n\r\n    <!-- Fin du contenu -->",
        "fr": "\r\n    \r\n    <!-- MainContentStart -->\r\n    <!-- D&eacute;but du contenu -->\r\n    <p>Choisir le produit, correspondant \u00e0 un code de 10\u00a0chiffres du syst\u00e8me harmonis\u00e9. Choisissez et t\u00e9l\u00e9chargez des donn\u00e9es sur le commerce de marchandises avec les structures \"txt, dif, cdf, slk, html\", et payez vos extractions par carte de cr\u00e9dit.</p>\n<p><a href=\"http://www5.statcan.gc.ca/bsolc/olc-cel/olc-cel?lang=fra&amp;catno=65F0013X\">Base de donn\u00e9es sur le commerce international canadien de marchandises (Statistique Canada)</a></p>\n\n<h2>Liste des codes d'importation des produits certifi\u00e9s biologiques</h2>\n  \n<h3>Chapitre\u00a04 - Produits laitier, \u0153ufs, miel naturel</h3>\n    \n<dl>\n<dt>0403101010</dt>\n<dd>Yoghourt, dans les limites de l'engagement d'acc\u00e8s</dd>\n\n<dt>0403102010</dt>\n<dd>Yoghourt, sup\u00e9rieur \u00e0 l'engagement</dd>\n</dl>\n  \n<h3>Chapitre 7 - L\u00e9gumes, plantes, racines et tubercules alimentaires</h3>\n    \n<dl>    \n<dt>0701900010</dt>\n<dd>Pommes de terre, sauf les semences</dd>\n<dt>0702002910</dt>\n<dd>Tomates, Cerise</dd>\n<dt>0702009921</dt>\n<dd>Tomates, Roma, excluant de serre</dd>\n<dt>0702009929</dt>\n<dd>Tomates, excluant de serre</dd>\n<dt>0703103910</dt>\n<dd>Oignons ou \u00e9chalotes, verts</dd>\n<dt>0703109910</dt>\n<dd>Oignons</dd>\n<dt>0704109010</dt>\n<dd>Choux-fleurs et brocolis</dd>\n<dt>0704209010</dt>\n<dd>Choux de Bruxelles</dd>\n<dt>0704902910</dt>\n<dd>Brocolis</dd>\n<dt>0704903910</dt>\n<dd>Choux, autres que choux chinois</dd>\n<dt>0704904910</dt>\n<dd>Choux chinois, laitues chinoises</dd>\n<dt>0705119020</dt>\n<dd>Laitues pomm\u00e9es, excluant de serre</dd>\n<dt>0705199020</dt>\n<dd>Laitues / Annul\u00e9 en d\u00e9cembre 2008 \u2013 Remplac\u00e9 par le code 0705199029</dd>\n<dt>0705199029</dt>\n<dd>Laitues / Nouveau code cr\u00e9\u00e9 en 2009</dd>\n<dt>0705199021</dt>\n<dd>Laitues, m\u00e9lange de salade fra\u00eeche emball\u00e9e, d'un poids&lt;=1kilogrammes</dd>\n<dt>0705199022</dt>\n<dd>Laitues, m\u00e9lange de salade fra\u00eeche emball\u00e9e, d'un poids &gt;1kilogrammes</dd>\n<dt>0706102011</dt>\n<dd>Jeunes carottes, en paquet d'un poids &lt;=1kilogrammes chacun</dd>\n<dt>0706102012</dt>\n<dd>Jeunes carottes, en vrac/paquet d'un poids &gt;1kilogrammes chacun</dd>\n<dt>0706104010</dt>\n<dd>Carottes</dd>\n<dt>0706903010</dt>\n<dd>Betteraves</dd>\n<dt>0706905910</dt>\n<dd>Radis</dd>\n<dt>0707009920</dt>\n<dd>Concombres &amp; cornichons, excluant de serre</dd>\n<dt>0708109910</dt>\n<dd>Pois (Pisum sativum)</dd>\n<dt>0709209910</dt>\n<dd>Asperges</dd>\n<dt>0709300010</dt>\n<dd>Aubergines</dd>\n<dt>0709409010</dt>\n<dd>C\u00e9leris, autres que c\u00e9leris-raves</dd>\n<dt>0709609020</dt>\n<dd>Piments du genre Capsicum ou Pimenta, excluant de serre</dd>\n<dt>0709700011</dt>\n<dd>\u00c9pinards, t\u00e9tragones (Nouvelle-Z\u00e9lande) &amp; arroches(g\u00e9ants), paquet &lt;=500g</dd>\n<dt>0709700012</dt>\n<dd>\u00c9pinards, t\u00e9tragones (Nouvelle-Z\u00e9lande) &amp; arroches(g\u00e9ants), paquet &gt;500g</dd>\n<dt>0709700019</dt>\n<dd>\u00c9pinards, t\u00e9tragones (de Nouvelle-Z\u00e9lande) et arroches (g\u00e9ants)</dd>\n<dt>0709904010</dt>\n<dd>Ma\u00efs doux en \u00e9pis / Annul\u00e9 en d\u00e9cembre 2011 \u2013 Remplac\u00e9 par le code 0709994010</dd>\n<dt>0709994010</dt>\n<dd>Ma\u00efs doux en \u00e9pi / Nouveau code cr\u00e9\u00e9 en 2012</dd>\n</dl> \n  \n<h3>Chapitre 8 - Fruits comestibles; \u00e9cores d'agrumes ou de melons</h3>\n    \n<dl>    \n<dt>0803000011</dt>\n<dd>Bananes, incluant bananes plantains / Annul\u00e9 en d\u00e9cembre 2011 \u2013 Remplac\u00e9 par le code 0803900011</dd>\n<dt>0803900011</dt>\n<dd>Bananes, autres que plantains / Nouveau code cr\u00e9\u00e9 en 2012</dd>\n<dt>0804300011</dt>\n<dd>Ananas</dd>\n<dt>0805100012</dt>\n<dd>Oranges, autre que Temple</dd>\n<dt>0805400010</dt>\n<dd>Pamplemousses et pomelos</dd>\n<dt>0805500011</dt>\n<dd>Citrons</dd>\n<dt>0805500012</dt>\n<dd>Limes</dd>\n<dt>0806109110</dt>\n<dd>Raisins, autre que type Vitis labrusca, \u00e0 l'\u00e9tat naturel</dd>\n<dt>0807110010</dt>\n<dd>Past\u00e8ques (melons d'eau)</dd>\n<dt>0807200010</dt>\n<dd>Papayes, fra\u00eeches</dd>\n<dt>0808101081</dt>\n<dd>Pommes <span lang=\"en\">Golden Delicious</span>, autre que pour la transformation</dd>\n<dt>0808101082</dt>\n<dd>Pommes <span lang=\"en\">Red Delicious</span>, autre que pour transformation</dd>\n<dt>0808101083</dt>\n<dd>Pommes <span lang=\"en\">Granny Smith</span>, autre que pour transformation</dd>\n<dt>0808101084</dt>\n<dd>Pommes Gala, autre que pour transformation</dd>\n<dt>0808101089</dt>\n<dd>Pommes, autre que pour transformation</dd>\n<dt>0808202910</dt>\n<dd>Poires / Annul\u00e9 en d\u00e9cembre 2011 \u2013 Remplac\u00e9 par le code 0808309910</dd>\n<dt>0808309910</dt>\n<dd>Poires / Nouveau code cr\u00e9\u00e9 en 2012</dd>\n<dt>0809203910</dt>\n<dd>Cerises / Annul\u00e9 en d\u00e9cembre 2011 \u2013 Remplac\u00e9 par le code 0809292910</dd>\n<dt>0809292910</dt>\n<dd>Cerises / Nouveau code cr\u00e9\u00e9 en 2012</dd>\n<dt>0809302910</dt>\n<dd>P\u00eaches, autre que brugnons et nectarines</dd>\n<dt>0810109910</dt>\n<dd>Fraises, fra\u00eeches, autre que pour la transformation</dd>\n<dt>0810201910</dt>\n<dd>Framboises et m\u00fbres-framboises</dd>\n<dt>0810401011</dt>\n<dd>Canneberges, airelles rouges</dd>\n<dt>0810401022</dt>\n<dd>Bleuets (myrtilles ou airelles bleues), cultiv\u00e9s</dd>\n</dl>\n    \n<h3>Chapitre 9 - Caf\u00e9, th\u00e9, mat\u00e9 et \u00e9pices</h3>\n    \n<dl>    \n<dt>0901110010</dt>\n<dd>Caf\u00e9, non torr\u00e9fi\u00e9, non d\u00e9caf\u00e9in\u00e9</dd>\n<dt>0901210010</dt>\n<dd>Caf\u00e9, torr\u00e9fi\u00e9, non d\u00e9caf\u00e9in\u00e9</dd>\n<dt>0902101010</dt>\n<dd>Th\u00e9 vert, non ferment\u00e9, sachets de portion individuelle</dd>\n<dt>0902109010</dt>\n<dd>Th\u00e9 vert, non ferment\u00e9, en emballages &lt;=3 kilogrammes</dd>\n<dt>0902200010</dt>\n<dd>Th\u00e9 vert, non ferment\u00e9, en emballages &gt; 3 kilogrammes</dd>\n<dt>0902301011</dt>\n<dd>Th\u00e9 noir, ferment\u00e9, non d\u00e9caf, en sachets de portion individuelle</dd>\n<dt>0902309011</dt>\n<dd>Th\u00e9 noir, ferment\u00e9, non d\u00e9caf\u00e9in\u00e9, en emb &lt;=3 kilogrammes</dd>\n</dl>  \n  \n<h3>Chapitre 12 - Graines et fruits ol\u00e9agineux; graines, semences, et fruits divers; plantes m\u00e9dicinales</h3>\n    \n<dl>    \n<dt>1211901010</dt>\n<dd>Tisanes de plantes, en sachets, en portion individuelle</dd>\n</dl>\n    <h3>Chapitre 15 - Graisses et huiles animales ou v\u00e9g\u00e9tales</h3>\n    \n<dl>    \n<dt>1509100011</dt>\n<dd>Huile d'olive vierge, en bo\u00eetes de moins de 18 kilogrammes</dd>\n</dl>\n  \n<h3>Chapitre 19 - Pr\u00e9parations \u00e0 base de c\u00e9r\u00e9ales, de farines, d'amidons, de f\u00e9cules ou de lait; p\u00e2tisseries</h3>\n\n<dl>    \n<dt>1901102010</dt>\n<dd>Pr\u00e9paration alimentaire contenant &gt;10% solides de lait en poids sec, pour enfants, vente au d\u00e9tail</dd>\n </dl>  \n  \n<h3>Chapitre 21 - Pr\u00e9parations alimentaires diverses</h3>\n    \n<dl>    \n<dt>2103209091</dt>\n<dd>Sauces tomates</dd>\n</dl>\n  \n  \n<h3>Chapitre 22 - Boissons, liquides alcooliques et vinaigres</h3>\n    \n<dl>    \n<dt>2202904910</dt>\n<dd>Boissons contenant du lait</dd>\n</dl> \n\r\n    <!-- Fin du contenu -->\r\n\t\r\n\t\r\n\t\r\n  "
    }
}