{
    "dcr_id": "1184762902179",
    "title": {
        "en": "Horticulture Associations",
        "fr": "Associations horticoles"
    },
    "modified": "2020-11-24",
    "issued": "2009-03-25",
    "templatetype": "content page 1 column",
    "page_type": "1",
    "node_id": "1368480341437",
    "dc_date_created": "2009-03-25",
    "managing_branch": "PAB",
    "parent_node_id": "1579021815766",
    "label": {
        "en": "Horticultural associations",
        "fr": "Associations horticoles"
    },
    "exturl": "",
    "teamsite_location": {
        "en": "/default/main/AAFC-AAC/Internet-Internet/Common-Commun/WORKAREA/Common-Commun/templatedata/comm-comm/gene-gene/data/07/prod_crop-prod_associations_1184762902179_en",
        "fr": "/default/main/AAFC-AAC/Internet-Internet/Common-Commun/WORKAREA/Common-Commun/templatedata/comm-comm/gene-gene/data/07/prod_crop-prod_associations_1184762902179_fr"
    },
    "type_name": "sitemapinit",
    "has_dcr_id": true,
    "breadcrumb": {
        "en": "Horticultural associations",
        "fr": "Associations horticoles"
    },
    "layout_name": "content page 1 column",
    "lang": "en",
    "meta": {
        "issued": {
            "en": "2009-03-25",
            "fr": "2009-03-25"
        },
        "modified": {
            "en": "2020-11-24",
            "fr": "2020-11-24"
        },
        "format": {
            "en": "text/html",
            "fr": "text/html"
        },
        "title": {
            "en": "Horticulture Associations",
            "fr": "Associations horticoles"
        },
        "subject": {
            "en": "food safety;agricultural policy",
            "fr": "politique agricole"
        },
        "description": {
            "en": "1368480341437 1 Web sites email or telephone numbers for provincial and national associations are listed below organized nationally and by Province.",
            "fr": "13684803414371Les adresses des sites Web les adresses de courriel ou les num\u00e9ros de t\u00e9l\u00e9phone des associations nationales et provinciales (regroup\u00e9es par province) sont donn\u00e9s ci-dessous."
        },
        "language": {
            "en": "eng",
            "fr": "fra"
        },
        "keywords": {
            "en": "Prince Edward Island;Agri-Food Canada;Labrador Nova;specific programs;National Associations",
            "fr": "r\u00e9gionaux du Service d'exportation agroalimentaire;adresses des sites;Agroalimentaire Canada;Terre-Neuve-et-Labrador Nouvelle;interm\u00e9diaire de ses bureaux"
        },
        "audience": {
            "en": "gcaudience",
            "fr": "gcaudience"
        },
        "type": {
            "en": "frequently asked questions",
            "fr": "foire aux questions"
        },
        "creator": {
            "en": "Market and Industry Services Branch;Agriculture and Agri-Food Canada;Government of Canada",
            "fr": "Direction g\u00e9n\u00e9rale des services \u00e0 l'industrie et aux march\u00e9s;Agriculture et Agroalimentaire Canada;Gouvernement du Canada"
        },
        "spatial": {
            "en": "gcregions",
            "fr": "gcregions"
        },
        "service": {
            "en": "AAFC-AAC",
            "fr": "AAFC-AAC"
        },
        "accessRights": {
            "en": "2",
            "fr": "2"
        },
        "legalName": {
            "en": "agriculture_and_agri_food_canada",
            "fr": "agriculture_et_agroalimentaire_canada"
        },
        "areaServed": {
            "en": "Canada",
            "fr": "Canada"
        }
    },
    "css": {
        "fr": null
    },
    "js": {
        "en": null,
        "fr": null
    },
    "body": {
        "en": "<!-- D&eacute;but du contenu -->\r\n    <p>Websites, email or telephone numbers for provincial and national associations are listed below, organized nationally and by province. Agriculture and Agri-Food Canada also provides assistance to producers through its <a href=\"?id=1410072148298\">Agri-Food Trade Service Regional Offices</a>. A list of <a href=\"/eng/?id=1360701203481#a3\">provincial and territorial ministries of Agriculture</a> is available for province or territory specific programs and services.</p>\n<nav>\n<ul>\n<li><a href=\"#na\">National associations</a></li>\n<li><a href=\"#pei\">Prince Edward Island</a></li>\n<li><a href=\"#nl\">Newfoundland and Labrador</a></li>\n<li><a href=\"#ns\">Nova Scotia</a></li>\n<li><a href=\"#nb\">New Brunswick</a></li>\n<li><a href=\"#qc\">Quebec</a></li>\n<li><a href=\"#on\">Ontario</a></li>\n<li><a href=\"#ma\">Manitoba</a></li>\n<li><a href=\"#sa\">Saskatchewan</a></li>\n<li><a href=\"#al\">Alberta</a></li>\n<li><a href=\"#bc\">British Columbia</a></li>\n</ul>\n</nav>\n<h2 id=\"na\">National associations</h2>\n<ul>\n  <li><a href=\"http://www.canadianchristmastrees.ca/\">Canadian  Christmas Tree Growers Association</a></li>\n  <li>Canadian Clean  Energy Associations</li>\n  <li><a href=\"http://www.cfa-fca.ca/\">Canadian Federation  of Agriculture</a></li>\n  <li><a href=\"http://www.honeycouncil.ca/\">Canadian  Honey Council</a></li>\n  <li><a href=\"http://www.hortcouncil.ca/\">Canadian  Horticultural Council</a></li>\n  <li><a href=\"http://www.mushrooms.ca/\">Canadian  Mushroom Growers' Association</a></li>\n  <li><a href=\"http://www.canadanursery.com/\">Canadian  Nursery Landscape Association</a></li>\n  <li><a href=\"http://www.cog.ca/\">Canadian Organic  Growers</a></li>\n  <li><a href=\"http://www.coha-acho.ca/\">Canadian Ornamental Horticulture Alliance</a></li>\n  <li><a href=\"http://www.cpma.ca/\">Canadian Produce  Marketing Association</a></li>\n  <li><a href=\"https://www.restaurantscanada.org/\">Canadian  Restaurant and Food Services Association</a></li>\n  <li><a href=\"http://www.cdnseed.org/\">Canadian  Seed Trade Association</a></li>\n  <li>Canadian Snack Food Association\u00a0- <a href=\"mailto:ileanal@fcpmc.com\">ileanal@fcpmc.com</a>\u00a0- Telephone: 416-510-8036</li>\n  <li><a href=\"http://www.cscb.ca/\">Canadian Society of  Customs Brokers</a></li>\n  <li><a href=\"http://www.peatmoss.com/\">Canadian  Sphagnum Peat Moss Association</a></li>\n  <li><a href=\"http://www.canadianvintners.com/\">Canadian  Vintners Association</a></li>\n  <li><a href=\"http://www.farmersmarketscanada.ca/index.cfm\">Farmers' Markets Canada</a></li>\n  <li><a href=\"https://www.flowerscanadagrowers.com/home%20%20\">Flowers  Canada</a></li>\n  <li><a href=\"http://www.flowerscanadagrowers.com/\">Flowers  Canada Growers</a></li>\n  <li><a href=\"https://foodprocessorsofcanada.ca/\">Food  Processors of Canada</a></li>\n  <li><a href=\"http://www.fvdrc.com/\">Fruit and Vegetable Dispute  Resolution</a></li>\n  <li><a href=\"http://www.wildblueberries.com/\">Wild  Blueberry Association of North America</a></li>\n</ul>\n\t\n<h2 id=\"pei\">Prince Edward Island</h2>\n<ul>\n  <li>Prince Edward Island  Blueberry Marketing Cooperative\u00a0- Telephone: 902-687-2382</li>\n  <li><a href=\"http://islandapples.com/growers/association/\">Prince Edward Island Commercial Apple Growers\u2019  Association</a></li>\n  <li>Prince Edward Island  Cranberry Growers Association\u00a0- Telephone: 902-676-3042</li>\n  <li><a href=\"http://www.peifa.ca/\">Prince Edward Island Federation of Agriculture</a></li>\n  <li><a href=\"http://www.peipotato.org/\">Prince Edward Island Potato  Board</a></li>\n  <li>Prince Edward Island  Potato Producers Association\u00a0- Telephone: 902-892-6551</li>\n  <li>Prince Edward Island  Potato Quality Institute\u00a0- Telephone: 902-368-8378</li>\n  <li>Prince Edward Island  Vegetable Growers Cooperative\u00a0- <a href=\"mailto:peiveg@eastlink.ca\">peiveg@eastlink.ca</a></li>\n  <li><a href=\"http://peiwildblueberries.com/\">Prince Edward Island Wild  Blueberry Growers Association</a></li>\n</ul>\n\n<h2 id=\"nl\">Newfoundland and Labrador</h2>\n<ul>\n  <li><a href=\"http://landscapenl.com/\">Landscape Newfoundland and Labrador</a></li>\n  <li><a href=\"http://www.nlfa.ca/\">Newfoundland and Labrador Federation of Agriculture</a></li>\n  <li><a href=\"http://www.hortnl.com\"> Newfoundland and Labrador Horticulture Producers Council</a></li>\n</ul>\n\n<h2 id=\"ns\">Nova Scotia</h2>\n<ul>\n  <li><a href=\"http://www.ctcns.com/\">Christmas Tree Council of Nova Scotia</a></li>\n  <li><a href=\"http://farmersmarketsnovascotia.ca/\">Farmers' Markets of Nova Scotia</a></li>\n  <li>Grapes Growers  Association of Nova Scotia\u00a0- <a href=\"mailto:ralfwuhren@ns.sympatico.ca\">ralfwuhren@ns.sympatico.ca</a></li>\n  <li>Greenhouse Growers  Association of Nova Scotia\u00a0- <a href=\"mailto:thyagrissen@ns.sympatico.ca\">thyagrissen@ns.sympatico.ca</a></li>\n  <li><a href=\"http://horticulturens.ca\">Horticulture Nova Scotia</a></li>\n  <li>Landscape Nova Scotia  Horticultural Trades Association\u00a0- <a href=\"mailto:lavigne@accesscable.net\">lavigne@accesscable.net</a></li>\n  <li><a href=\"http://www.novascotiamaplesyrup.com/\">Maple Producers Association of Nova Scotia</a></li>\n  <li>Nova Scotia Beekeepers  Association\u00a0- <a href=\"mailto:nsba@glinx.com\">nsba@glinx.com</a></li>\n  <li><a href=\"https://www.novascotiacranberries.com/\">Nova Scotia Cranberry Growers Association</a></li>\n  <li><a href=\"http://www.nsfa-fane.ca/\">Nova Scotia Federation of  Agriculture</a></li>\n  <li><a href=\"http://www.nsapples.com/\">Nova Scotia Fruit Growers Association</a></li>\n  <li><a href=\"http://www.nswildblueberries.com/\">Wild Blueberry Producers  Association of Nova Scotia</a></li>\n  <li><a href=\"http://www.winesofnovascotia.ca/\">Winery Association of Nova  Scotia</a></li>\n</ul>\n<h2 id=\"nb\">New Brunswick</h2>\n<ul>\n  <li><a href=\"http://applesnb.ca/\">Apple Growers of New  Brunswick</a></li>\n  <li><a href=\"http://www.acornorganic.org/\">Atlantic Canadian Organic  Regional Network</a></li>\n  <li><a href=\"https://tourismnewbrunswick.ca/listings\">Farmer's Markets of New Brunswick</a></li>\n  <li>F\u00e9d\u00e9ration des  Agriculteurs et Agricultrices Francophones du Nouveau-Brunswick - <a href=\"mailto:faafnb@nbnet.nb.ca\">faafnb@nbnet.nb.ca</a></li>\n  <li>Horticultural Producers  Association of Southern New Brunswick\u00a0- Telephone: 506-362-5215</li>\n  <li>Local Horticultural  Cooperative\u00a0- <a href=\"mailto:hortcoop@nb.aibn.com\">hortcoop@nb.aibn.com</a></li>\n  <li>Maritime Certified  Organic Growers\u00a0- <a href=\"mailto:ageddry@nbnet.nb.ca\">ageddry@nbnet.nb.ca</a></li>\n  <li><a href=\"http://www.nbcranberries.com/\">New Brunswick Cranberry  Growers Association</a></li>\n  <li>New Brunswick Fruit  Growers Association\u00a0- <a href=\"mailto:nbapple@nbnet.nb.ca\">nbapple@nbnet.nb.ca</a></li>\n  <li>New Brunswick Maple  Syrup Association\u00a0- <a href=\"mailto:yrp@nb.aibn.com\">yrp@nb.aibn.com</a></li>\n  <li>New Brunswick Potato  Shippers Association\u00a0- Telephone: 506-328-4366</li>\n  <li>New Brunswick Seed  Potato Growers Association\u00a0- Telephone: 506-553-6633</li>\n  <li>Organic Crop  Improvement Association\u00a0- <a href=\"mailto:wgbf@nbnet.nb.ca\">wgbf@nbnet.nb.ca</a></li>\n  <li><a href=\"http://www.potatoesnb.com/\">Potatoes New Brunswick</a></li>\n</ul>\n<h2 id=\"qc\">Quebec</h2>\n<ul>\n  <li><a href=\"http://ail.quebec/\">Ail Qu\u00e9bec, Association  des producteurs (in French only)</a></li>\n  <li>Association des  emballeurs de pommes du Qu\u00e9bec\u00a0- Telephone:  450-991-1005</li>\n  <li>Association des  emballeurs de pommes de terre du Qu\u00e9bec\u00a0-  Telephone: 418-285-6507</li>\n  <li><a href=\"http://www.notrecanneberge.com/Home\">Association des producteurs de  canneberges du Qu\u00e9bec</a></li>\n  <li>Association des  producteurs de plants de pommes de terre de l'est du Qu\u00e9bec\u00a0- Telephone: 418-862-7739</li>\n  <li>Citadelle, coop\u00e9rative  de producteurs de sucre et sirop d'\u00e9rable du Qu\u00e9bec\u00a0-  Telephone: 819-362-3241</li>\n  <li>Coop\u00e9rative des  producteurs de miel du Qu\u00e9bec\u00a0- Telephone:  819-362-3241</li>\n  <li><a href=\"http://www.marchespublics-mtl.com/en/\">Farmers' Markets in Montreal</a></li>\t\n  <li><a href=\"http://www.fihoq.qc.ca/\">F\u00e9d\u00e9ration  interdisciplinaire de l'horticulture ornementale du Qu\u00e9bec (in French only)</a></li>\n  <li><a href=\"https://ppaq.ca/en/\">Federation of Quebec Maple Syrup Producers</a></li>\n  <li><a href=\"http://www.citadelle-camp.coop/maple-syrup/index.aspx\">Maple Syrup Producer's Cooperative</a></li>\n  <li><a href=\"http://www.iqdho.com/index.php/en/\">Quebec Institute for the  Development of Ornamental Horticulture</a></li> \n  <li><a href=\"https://apmquebec.com/en/\">Quebec Produce Growers  Association</a></li>\n  <li><a href=\"http://www.aqdfl.ca/en/\">Quebec Produce Marketing Association</a></li>\n  <li><a href=\"http://www.wild-blueberries.com/pages-eg/entreprise.htm\">Quebec Wild Blueberries</a></li>\n  <li><a href=\"http://www.upa.qc.ca/en/\">Union des producteurs  agricoles du Qu\u00e9bec</a>\n    <ul>\n    <li><a href=\"http://www.fraisesetframboisesduquebec.com/\">Association des producteurs de fraises et  framboises du Qu\u00e9bec (in French only)</a></li>\n    <li>F\u00e9d\u00e9ration des apiculteurs du Qu\u00e9bec\u00a0- Telephone: 450-679-0530, extension 8601</li>\n    <li><a href=\"http://www.lapommeduquebec.ca/\">F\u00e9d\u00e9ration des producteurs de  pomme au Qu\u00e9bec (in French only)</a></li>\n    <li><a href=\"https://epatantepatate.ca/les-associations/\">F\u00e9d\u00e9ration des producteurs de pomme de terre au  Qu\u00e9bec (in French only)</a></li>\n    <li><a href=\"http://perlebleue.ca/\">Syndicat des producteurs de bleuets du Qu\u00e9bec (in French only)</a></li>\n    <li>Syndicat des producteurs en serres du Qu\u00e9bec\u00a0- <a href=\"mailto:Echagnon@upa.qc.ca\">Echagnon@upa.qc.ca</a></li>\n    <li>F\u00e9d\u00e9ration qu\u00e9b\u00e9coise de producteurs de fruits et l\u00e9gumes de  transformation\u00a0-  Telephone: 450-679-0530, extension 8260</li>\n  </ul>\n  </li>\n</ul>\n<h2 id=\"on\">Ontario</h2>\n<ul>\n  <li><a href=\"http://www.farmersmarketsontario.com/\">Farmers' Markets Ontario</a></li>\n  <li><a href=\"http://www.garlicgrowers.on.ca/\">Garlic Growers Association of  Ontario</a></li>\n  <li><a href=\"http://www.grapegrowersofontario.com/\">Grape Growers of Ontario</a></li>\n  <li><a href=\"http://www.horttrades.com/\">Landscape Ontario Horticulture  Trades Association</a></li>\n  <li><a href=\"http://www.onapples.com/\">Ontario Apple Growers</a></li>\n  <li><a href=\"http://www.asparagus.on.ca/\">Ontario Asparagus Growers'  Marketing Board</a></li>\n  <li><a href=\"http://www.ontariobee.com/\">Ontario Beekeepers Association</a></li>\n  <li><a href=\"http://ontarioberries.com/\">Ontario Berry Growers  Association</a></li>\n  <li><a href=\"http://www.ofa.on.ca/\">Ontario Federation of Agriculture</a></li>\n  <li>Ontario Fresh Grape Growers  Marketing Board<br>\n    E-mail: <a href=\"mailto:grapeont@vaxxinne.com\">grapeont@vaxxinne.com</a></li>\n  <li><a href=\"http://www.ofvga.org/\">Ontario Fruit and Vegetable Growers Association</a></li>\n  <li><a href=\"http://ginsengontario.com/\">Ontario Ginseng Growers\u2019 Association</a></li>\n  <li><a href=\"http://www.theontariogreenhousealliance.com/\">Ontario Greenhouse Alliance</a></li>\n  <li><a href=\"http://www.ontariogreenhouse.com/\">Ontario Greenhouse Vegetable  Growers</a></li>\n  <li><a href=\"https://lavenderontario.org/\">Ontario Lavender Association</a></li>\n  <li><a href=\"http://www.ontariomaple.com/\">Ontario Maple Syrup Producers  Association</a></li>\n  <li><a href=\"http://www.ontariopotatoes.ca/\">Ontario Potato Board</a></li>\n  <li><a href=\"http://www.opvg.org/\">Ontario Processing Vegetable Growers</a></li>\n  <li><a href=\"http://www.opma-assn.com/\">Ontario Produce Marketing  Association</a></li>\n  <li><a href=\"http://www.ontariotenderfruit.ca/\">Ontario Tender Fruit Producers  Marketing Board</a></li>\n  <li>Ontario Tomato Seedling Growers Marketing Board\u00a0- Telephone:  519-326-4481</li>\n</ul>\n<h2 id=\"ma\">Manitoba</h2>\n<ul>\n  <li>Keystone Vegetable  Producers Association\u00a0- Telephone: 204-697-1140</li>\n  <li><a href=\"https://mbnla.com/about/\">Manitoba Nursery Landscape Association</a></li>\n  <li><a href=\"http://www.manitobabee.org/\">Manitoba Beekeepers  Association</a></li>\n  <li><a href=\"http://www.realchristmastrees.mb.ca/\">Manitoba Christmas Tree Growers'  Association</a></li>\n  <li><a href=\"http://www.beemaid.com/manitoba-honey-producers\">Manitoba Cooperative Honey Producers</a></li>\n  <li><a href=\"https://www.gov.mb.ca/agriculture/local-food/local-produce-guide.html\">Manitoba Farmers'  Markets</a></li>\n  <li><a href=\"http://www.peakmarket.com/\">Peak of the Market</a></li>\n  <li><a href=\"http://www.pfga.com/\">Prairie Fruit Growers Association</a></li>\n  <li>Seed Potato Growers Association of Manitoba\u00a0- <a href=\"mailto:kgk@southernpotato.com\">kgk@southernpotato.com</a></li>\n  <li>Vegetable Growers Association of Manitoba\u00a0- <a href=\"mailto:vgam@escape.ca\">vgam@escape.ca</a></li>\n</ul>\n<h2 id=\"sa\">Saskatchewan</h2>\n<ul>\n  <li><a href=\"http://www.apas.ca/index.php\">Agriculture Producers  Association of Saskatchewan</a></li>\n  <li><a href=\"http://www.saskbeekeepers.ca/\">Saskatchewan Beekeepers  Association</a></li>\n  <li><a href=\"http://www.prairiechristmastrees.org/\">Saskatchewan Christmas Tree  Growers Association</a></li>\n  <li><a href=\"https://saskfruit.ca/\">Saskatchewan Fruit Growers Association</a></li>\n  <li><a href=\"http://www.saskgreenhouses.com/\">Saskatchewan Greenhouse  Growers Association</a></li>\n  <li>Saskatchewan Nursery  Landscape Association\u00a0- <a href=\"mailto:info@landscape.alberta.com\">info@landscape.alberta.com</a></li>\n  <li><a href=\"http://www.sspga.ca/\">Saskatchewan Seed Potato Growers Association</a></li>\n</ul>\n<h2 id=\"al\">Alberta</h2>\n<ul>\n  <li><a href=\"http://www.albertafarmersmarket.com/\">Alberta Farmers' Market Association</a></li>\n  <li><a href=\"http://www.albertafarmfresh.com/\">Alberta Farm Fresh Producers  Association</a></li>\n  <li><a href=\"http://www.afaonline.ca/\">Alberta Federation of  Agriculture</a></li>\n  <li><a href=\"http://www.agga.ca/\">Alberta Greenhouse Growers Association</a></li>\n  <li><a href=\"http://www.beemaid.com/alberta-honey-producers\">Alberta Honey Producers</a></li>\n  <li><a href=\"http://www.albertaorganicproducers.org/\">Alberta Organic Producers  Association</a></li>\n  <li>Alberta Vegetable  Growers (processing)\u00a0- <a href=\"mailto:avgp@telusplanet.net\">avgp@telusplanet.net</a></li>\n  <li><a href=\"http://www.landscape-alberta.com/\">Landscape Alberta Nursery  Trades Association</a></li>\n  <li><a href=\"http://www.albertapotatoes.ca/\">Potato Growers of Alberta</a></li>\n</ul>\n<h2 id=\"bc\">British Columbia</h2>\n<ul>\n  <li><a href=\"http://www.bcac.ca\">British Columbia Agriculture Council</a></li>\n  <li><a href=\"http://www.bcfarmersmarket.org/\">British Columbia Association of Farmers' Markets</a></li>\n  <li><a href=\"http://www.bcblueberry.com/\">British Columbia Blueberry  Council</a></li>\n  <li><a href=\"http://bccherry.com/\">British Columbia Cherry  Association</a></li>\n  <li><a href=\"http://www.bccranberrygrowers.com/\">British Columbia Cranberry  Growers Association</a></li>\n  <li><a href=\"http://www.bcfga.com/\">British Columbia Fruit Growers Association</a></li>\n  <li><a href=\"http://www.grapegrowers.bc.ca/\">British Columbia Grape Growers  Association</a></li>\n  <li><a href=\"http://www.bcgreenhouse.ca/\">British Columbia Greenhouse  Growers Association</a></li>\n  <li><a href=\"http://www.bclna.com/\">British Columbia Landscape Nursery Association</a></li>\n  <li>British Columbia Potato  and Vegetable Growers Association\u00a0- <a href=\"mailto:jgaley@shaw.ca\">jgaley@shaw.ca</a></li>\n  <li>British Columbia  Produce Marketing Association\u00a0- <a href=\"mailto:info@bcpma.com\">info@bcpma.com</a></li>\n  <li><a href=\"http://www.bcraspberries.com/\">British Columbia Raspberry Growers Association</a></li>\n  <li><a href=\"http://www.bcstrawberries.com/\">British Columbia Strawberry Growers Association</a></li>\n  <li><a href=\"http://www.bcveg.com/\">British Columbia Vegetable Marketing Commission</a></li>\n  <li><a href=\"http://www.winebc.com/\">British Columbia Wine Institute</a></li>\n  <li><a href=\"http://www.certifiedorganic.bc.ca/\">Certified Organics Associations of British Columbia</a></li>\n  <li>Fraser Valley Cole Crop Growers Association\u00a0- <a href=\"mailto:wienhl@telus.net\">wienhl@telus.net</a></li>\n</ul>\n\r\n    <!-- Fin du contenu -->",
        "fr": "\r\n    \r\n    <!-- MainContentStart -->\r\n    <!-- D&eacute;but du contenu -->\r\n    \n<p>Les adresses des sites Web, les adresses de courriel ou les num\u00e9ros de t\u00e9l\u00e9phone des associations nationales et provinciales (regroup\u00e9es par province) sont donn\u00e9s ci-dessous. Agriculture et Agroalimentaire Canada procure aussi de l'aide aux producteurs par l'interm\u00e9diaire de ses <a href=\"\">bureaux r\u00e9gionaux du Service d'exportation agroalimentaire</a>. Une liste des <a href=\"/fra/?id=1360701203481#a3\">minist\u00e8res provinciaux et territoriaux de l'Agriculture</a> est disponible pour les programmes et services propres \u00e0 une province ou \u00e0 un territoire.</p>\n\n<nav>\n<ul>\n  <li><a href=\"#na\">Associations nationales</a></li>\n  <li><a href=\"#ipe\">\u00cele-du-Prince-\u00c9douard</a></li>\n  <li><a href=\"#tnl\">Terre-Neuve-et-Labrador</a></li>\n  <li><a href=\"#ne\">Nouvelle-\u00c9cosse</a></li>\n  <li><a href=\"#nb\">Nouveau-Brunswick</a></li>\n  <li><a href=\"#qc\">Qu\u00e9bec</a></li>\n  <li><a href=\"#on\">Ontario</a></li>\n  <li><a href=\"#ma\">Manitoba</a></li>\n  <li><a href=\"#sa\">Saskatchewan</a></li>\n  <li><a href=\"#al\">Alberta</a></li>\n  <li><a href=\"#cb\">Colombie-Britannique</a></li>\n</ul>\n</nav>\n\t\n<h2 id=\"na\">Associations nationales</h2>\n<ul>\n  <li><a href=\"https://coha-acho.ca/fr/home-2/\">Alliance Canadienne de l\u2019Horticulture Ornementale</a></li>\n  <li>Associations       canadiennes d'\u00e9nergie non polluante</li>\n  <li><a href=\"https://cpma.ca/fr/home\">Association canadienne de la distribution       de fruits et l\u00e9gumes</a></li>\n  <li><a href=\"http://www.canadanursery.com/\">Association       canadienne des p\u00e9pini\u00e9ristes et des paysagistes (en anglais seulement)</a></li>\n  <li><a href=\"http://canadianchristmastrees.ca/\">Association canadienne des producteurs       d'arbres de No\u00ebl (en anglais seulement)</a></li>\n  <li><a href=\"http://www.mushrooms.ca/\">Association canadienne des producteurs de       champignons (en anglais seulement)</a></li>\n  <li><a href=\"https://www.restaurantscanada.org/?lang=fr\">Association canadienne des restaurateurs et des       services alimentaires</a></li>\n  <li><a href=\"http://www.cdnseed.org/\">Association canadienne du commerce des semences (en       anglais seulement)</a></li>\n  <li><a href=\"http://www.canadianvintners.com/\">Association       des vignerons du Canada (en anglais seulement)</a></li>\n  <li>Canadian Snack Food       Association\u00a0- <a href=\"mailto:ileanal@fcpmc.com\">ileanal@fcpmc.com</a>\u00a0- T\u00e9l\u00e9phone\u00a0:       416-510-8036</li>\n  <li><a href=\"https://www.hortcouncil.ca/fr/\">Conseil       canadien de l'horticulture</a></li>\n  <li><a href=\"http://www.honeycouncil.ca/\">Conseil       canadien du miel (en anglais seulement)</a></li>\n  <li><a href=\"http://fvdrc.com/fr/\">Corporation       de r\u00e8glement des diff\u00e9rends dans les fruits et l\u00e9gumes</a></li>\n  <li><a href=\"http://www.cog.ca/\">Cultivons biologique Canada (en anglais       seulement)</a></li>\n  <li><a href=\"https://foodprocessorsofcanada.ca/\">Fabricants       de produits alimentaires du Canada (en anglais seulement)</a></li>\n  <li><a href=\"http://www.cfa-fca.ca/fr\">F\u00e9d\u00e9ration       canadienne de l'agriculture</a></li>\n  <li><a href=\"https://www.flowerscanadagrowers.com/home\">Flowers       Canada (en anglais seulement)</a></li>\n  <li><a href=\"http://www.flowerscanadagrowers.com/\">Flowers       Canada Growers (en anglais seulement)</a></li>\n  <li><a href=\"http://www.farmersmarketscanada.ca/index.cfm\">Les March\u00e9s       agricoles Canada (en anglais seulement)</a></li>\n  <li><a href=\"http://www.cscb.ca/\">Soci\u00e9t\u00e9 canadienne des courtiers en douane (en       anglais seulement)</a></li>\n  <li><a href=\"http://www.peatmoss.com/\">Tourbe de sphaigne canadienne (en anglais seulement)</a></li>\n  <li><a href=\"http://www.wildblueberries.com/\">Wild       Blueberry Association of North America (en anglais seulement)</a></li>\n</ul>\n<h2 id=\"ipe\">\u00cele-du-Prince-\u00c9douard</h2>\n<ul>\n  <li>Prince Edward Island Blueberry       Marketing Cooperative\u00a0- T\u00e9l\u00e9phone\u00a0:\u00a0902-687-2382</li>\n  <li><a href=\"http://islandapples.com/growers/association/\">Prince Edward Island Commercial Apple Growers\u2019       Association (en anglais       seulement)</a></li>\n  <li>Prince Edward Island Cranberry       Growers Association\u00a0- T\u00e9l\u00e9phone\u00a0:\u00a0902-676-3042 </li>\n  <li><a href=\"http://www.peifa.ca/\">Prince Edward Island Federation of Agriculture (en anglais seulement)</a></li>\n  <li><a href=\"http://www.peipotato.org/fr\">Prince Edward Island Potato Board</a></li>\n  <li>Prince Edward Island Potato       Producers Association\u00a0- T\u00e9l\u00e9phone\u00a0:\u00a0902-892-6551</li>\n  <li>Prince Edward Island Potato       Quality Institute\u00a0- T\u00e9l\u00e9phone\u00a0:\u00a0902-368-8378</li>\n  <li>Prince Edward Island Vegetable       Growers Cooperative\u00a0- <a href=\"mailto:peiveg@eastlink.ca\">peiveg@eastlink.ca</a></li>\n  <li><a href=\"http://peiwildblueberries.com/\">Prince Edward Island Wild Blueberry       Growers Association (en anglais seulement)</a></li>\n</ul>\n<h2 id=\"tnl\">Terre-Neuve-et-Labrador</h2>\n<ul>\n  <li><a href=\"http://landscapenl.com/\">Landscape Newfoundland and Labrador (en anglais seulement)</a></li>\n  <li><a href=\"http://www.nlfa.ca/\">Newfoundland and Labrador Federation of Agriculture       (en anglais seulement)</a></li>\n  <li><a href=\"http://www.hortnl.com\"> Newfoundland and Labrador Horticulture Producers Council (en anglais seulement)</a></li>\n</ul>\n<h2 id=\"ne\">Nouvelle-\u00c9cosse</h2>\n<ul>\n  <li><a href=\"http://www.ctcns.com/\">Christmas Tree Council of Nova Scotia       (en anglais seulement)</a></li>\n  <li><a href=\"http://farmersmarketsnovascotia.ca/\">Farmers'       Markets of Nova Scotia (en anglais seulement)</a></li>\n  <li>Grapes       Growers Association of Nova Scotia\u00a0- <a href=\"mailto:ralfwuhren@ns.sympatico.ca\">ralfwuhren@ns.sympatico.ca</a></li>\n  <li>Greenhouse       Growers Association of Nova Scotia\u00a0- <a href=\"mailto:thyagrissen@ns.sympatico.ca\">thyagrissen@ns.sympatico.ca</a></li>\n  <li><a href=\"http://horticulturens.ca/\">Horticulture Nova Scotia (en anglais seulement)</a></li>\n  <li>Landscape       Nova Scotia Horticultural Trades Association\u00a0- <a href=\"mailto:lavigne@accesscable.net\">lavigne@accesscable.net</a></li>\n  <li><a href=\"http://www.novascotiamaplesyrup.com/\">Maple       Producers Association of Nova Scotia (en anglais seulement)</a></li>\n  <li>Nova       Scotia Beekeepers Association\u00a0- <a href=\"mailto:nsba@glinx.com\">nsba@glinx.com</a></li>\n  <li><a href=\"https://www.novascotiacranberries.com/\">Nova Scotia Cranberry Growers Association (en  anglais seulement)</a></li>\n  <li><a href=\"http://www.nsfa-fane.ca/\">Nova Scotia Federation of Agriculture (en anglais seulement)</a></li>\n  <li><a href=\"http://www.nsapples.com/\">Nova Scotia\u00a0- Fruit Growers       Association (en anglais       seulement)</a></li>\n  <li><a href=\"http://www.nswildblueberries.com/\">Wild Blueberry Producers Association of       Nova Scotia (en anglais seulement)</a></li>\n  <li><a href=\"http://www.winesofnovascotia.ca/\">Winery Association of Nova Scotia (en anglais seulement)</a></li>\n</ul>\n<h2 id=\"nb\">Nouveau-Brunswick</h2>\n<ul>\n  <li><a href=\"http://applesnb.ca/\">Apple Growers       of New Brunswick (en anglais seulement)</a></li>\n  <li>Association       Ac\u00e9ricole du Nouveau-Brunswick\u00a0- <a href=\"mailto:yrp@nb.aibn.com\">yrp@nb.aibn.com</a></li>\n  <li><a href=\"http://www.acornorganic.org/\">Atlantic Canadian Organic Regional Network       (en anglais seulement)</a></li>\n  <li>F\u00e9d\u00e9ration       des Agriculteurs et Agricultrices Francophones du Nouveau-Brunswick\u00a0- <a href=\"mailto:faafnb@nbnet.nb.ca\">faafnb@nbnet.nb.ca</a></li>\n  <li>Horticultural Producers Association of Southern New Brunswick\u00a0-\u00a0T\u00e9l\u00e9phone\u00a0:\u00a0506-362-5215</li>\n  <li>Local       Horticultural Cooperative\u00a0- <a href=\"mailto:hortcoop@nb.aibn.com\">hortcoop@nb.aibn.com</a></li>\n  <li><a href=\"https://tourismenouveaubrunswick.ca/repertoire?_ga=2.190943274.1419437831.1605704525-435652085.1605704525\">March\u00e9s       des fermiers au Nouveau-Brunswick</a></li>\n  <li>Maritime       Certified Organic Growers\u00a0- <a href=\"mailto:ageddry@nbnet.nb.ca\">ageddry@nbnet.nb.ca</a></li>\n  <li><a href=\"http://www.nbcranberries.com/\">New Brunswick Cranberry Growers       Association (en anglais seulement)</a></li>\n  <li>New       Brunswick Fruit Growers Association\u00a0- <a href=\"mailto:nbapple@nbnet.nb.ca\">nbapple@nbnet.nb.ca</a></li>\n  <li>New       Brunswick Potato Shippers Association\u00a0-\u00a0T\u00e9l\u00e9phone\u00a0:\u00a0506-328-4366</li>\n  <li>New       Brunswick Seed Potato Growers Association\u00a0-\u00a0T\u00e9l\u00e9phone\u00a0:\u00a0506-553-6633</li>\n  <li>Organic       Crop Improvement Association\u00a0- <a href=\"mailto:wgbf@nbnet.nb.ca\">wgbf@nbnet.nb.ca</a></li>\n  <li><a href=\"https://www.potatoesnb.com/fr/\">Pommes de terre Nouveau-Brunswick</a></li>\n</ul>\n<h2 id=\"qc\">Qu\u00e9bec</h2>\n<ul>\n  <li><a href=\"http://ail.quebec/\">Ail Qu\u00e9bec, Association  des producteurs</a></li>\n  <li>Association des  emballeurs de pommes de terre du Qu\u00e9bec\u00a0- T\u00e9l\u00e9phone\u00a0: 418-285-6507</li>\n  <li>Association des  emballeurs de pommes du Qu\u00e9bec\u00a0- T\u00e9l\u00e9phone\u00a0: 450-991-1005</li>\n  <li><a href=\"https://apmquebec.com/\">Association des jardiniers mara\u00eechers du Qu\u00e9bec</a></li>\n  <li><a href=\"http://www.notrecanneberge.com/Accueil\">Association des producteurs de  canneberges du Qu\u00e9bec</a></li>\n  <li>Association des  producteurs de plants de pommes de terre de l'est du Qu\u00e9bec\u00a0-  T\u00e9l\u00e9phone\u00a0: 418-862-7739</li>\n  <li><a href=\"https://aqdfl.ca/fr/\">Association qu\u00e9b\u00e9coise de la distribution de fruits et l\u00e9gumes</a></li>\n  <li>Citadelle, coop\u00e9rative  de producteurs de sucre et sirop d'\u00e9rable du Qu\u00e9bec\u00a0- T\u00e9l\u00e9phone\u00a0:  819-362-3241</li>\n  <li><a href=\"http://www.citadelle-camp.coop/sirop-erable/index.aspx\">Coop\u00e9rative  de producteurs de sirop d'\u00e9rable</a></li>\n  <li>Coop\u00e9rative des  producteurs de miel du Qu\u00e9bec\u00a0- T\u00e9l\u00e9phone\u00a0: 819-362-3241</li>\n  <li><a href=\"http://www.fihoq.qc.ca/\">F\u00e9d\u00e9ration interdisciplinaire de l'horticulture  ornementale du Qu\u00e9bec</a></li>\n  <li><a href=\"http://www.iqdho.com/index.php/fr/\">Institut qu\u00e9b\u00e9cois de d\u00e9veloppement de  l'horticulture ornementale</a></li>\n  <li><a href=\"https://ppaq.ca/\">La F\u00e9d\u00e9ration des producteurs  ac\u00e9ricoles du Qu\u00e9bec</a></li>\n  <li><a href=\"http://www.wild-blueberries.com/pages-fr/entreprise.htm\">Les bleuets sauvages du  Qu\u00e9bec</a></li>\n  <li><a href=\"http://www.marchespublics-mtl.com/\">Les march\u00e9s publics de Montr\u00e9al</a></li>\n  <li><a href=\"http://www.upa.qc.ca/fr/\">Union des producteurs  agricoles du Qu\u00e9bec</a>\n  <ul>\n    <li><a href=\"http://www.fraisesetframboisesduquebec.com/\">Association des producteurs de fraises et  framboises du Qu\u00e9bec</a></li>\n    <li>F\u00e9d\u00e9ration des apiculteurs du Qu\u00e9bec\u00a0-  T\u00e9l\u00e9phone\u00a0: 450-679-0530, poste\u00a08601</li>\n    <li>F\u00e9d\u00e9ration qu\u00e9b\u00e9coise de producteurs de fruits et l\u00e9gumes  de transformation\u00a0- T\u00e9l\u00e9phone\u00a0: 450-679-0530, poste\u00a08260</li>\n    <li><a href=\"http://www.lapommeduquebec.ca/\">F\u00e9d\u00e9ration des producteurs de  pomme au Qu\u00e9bec</a></li>\n    <li><a href=\"https://epatantepatate.ca/les-associations/\">F\u00e9d\u00e9ration des producteurs de pomme de terre au  Qu\u00e9bec</a></li>\n    <li><a href=\"http://perlebleue.ca/\">Syndicat des producteurs de bleuets du Qu\u00e9bec</a></li>\n    <li>Syndicat des producteurs en serres du Qu\u00e9bec\u00a0- <a href=\"mailto:Echagnon@upa.qc.ca\">Echagnon@upa.qc.ca</a></li>\n  </ul>\n  </li>\n</ul>\n<h2 id=\"on\">Ontario</h2>\n<ul>\n  <li><a href=\"http://www.farmersmarketsontario.com/\">Farmers' Markets Ontario (en anglais seulement)</a></li>\n  <li><a href=\"http://www.garlicgrowers.on.ca/\">Garlic Growers Association of Ontario (en anglais seulement)</a></li>\n  <li><a href=\"http://www.grapegrowersofontario.com/\">Grape Growers of Ontario (en anglais seulement)</a></li>\n  <li><a href=\"http://www.horttrades.com/\">Landscape Ontario Horticulture Trades       Association (en anglais       seulement)</a></li>\n  <li><a href=\"http://www.onapples.com/\">Ontario Apple Growers (en anglais seulement)</a></li>\n  <li><a href=\"http://www.asparagus.on.ca/\">Ontario Asparagus Growers' Marketing Board (en anglais seulement)</a></li>\n  <li><a href=\"http://www.ontariobee.com/\">Ontario Beekeepers Association (en anglais seulement)</a></li>\n  <li><a href=\"http://ontarioberries.com/\">Ontario Berry Growers Association (en anglais seulement)</a></li>\n  <li><a href=\"http://www.ofa.on.ca/\">Ontario Federation of Agriculture (en anglais seulement)</a></li>\n  <li>Ontario Fresh Grape Growers Marketing Board\u00a0- <a href=\"mailto:grapeont@vaxxinne.com\">grapeont@vaxxinne.com</a></li>\n  <li><a href=\"http://www.ofvga.org/\">Ontario Fruit and Vegetable Growers Association (en anglais seulement)</a></li>\n  <li><a href=\"http://ginsengontario.com/\">Ontario Ginseng Growers\u2019 Association (en anglais seulement)</a></li>\n  <li><a href=\"http://www.theontariogreenhousealliance.com/\">Ontario Greenhouse Alliance (en anglais seulement)</a></li>\n  <li><a href=\"http://www.ontariogreenhouse.com/\">Ontario Greenhouse Vegetable Growers (en anglais seulement)</a></li>\n  <li><a href=\"http://https://lavenderontario.org/\">Ontario Lavender Association (en anglais seulement)</a></li>\n  <li><a href=\"http://www.ontariomaple.com/\">Ontario Maple Syrup Producers       Association (en anglais       seulement)</a></li>\n  <li><a href=\"http://www.ontariopotatoes.ca/\">Ontario Potato Board (en anglais seulement)</a></li>\n  <li><a href=\"http://www.opvg.org/\">Ontario Processing Vegetable Growers (en anglais seulement)</a></li>\n  <li><a href=\"http://www.opma-assn.com/\">Ontario Produce Marketing Association (en anglais seulement)</a></li>\n  <li><a href=\"http://www.ontariotenderfruit.ca/\">Ontario Tender Fruit Producers Marketing       Board (en anglais       seulement)</a></li>\n  <li>Ontario Tomato Seedling Growers Marketing       Board\u00a0- T\u00e9l\u00e9phone\u00a0: 519-326-4481</li>\n</ul>\n<h2 id=\"ma\">Manitoba</h2>\n<ul>\n  <li>Keystone  Vegetable Producers Association\u00a0-\u00a0T\u00e9l\u00e9phone\u00a0: 204-697-1140</li>\n  <li><a href=\"https://mbnla.com/about/\">Manitoba Nursery Landscape Association (en anglais seulement)</a></li>\n  <li><a href=\"http://www.manitobabee.org/\">Manitoba Beekeepers Association (en anglais seulement)</a></li>\n  <li><a href=\"http://www.realchristmastrees.mb.ca/\">Manitoba Christmas Tree Growers'       Association (en anglais       seulement)</a></li>\n  <li><a href=\"http://www.beemaid.com/manitoba-honey-producers\">Manitoba Cooperative Honey Producers (en anglais seulement)</a></li>\n  <li><a href=\"https://www.gov.mb.ca/agriculture/local-food/local-produce-guide.html\">Manitoba       Farmers' Markets (en anglais seulement)</a></li>\n  <li><a href=\"http://www.peakmarket.com/\">Peak of the Market (en anglais seulement)</a></li>\n  <li><a href=\"http://www.pfga.com/\">Prairie Fruit Growers Association (en anglais seulement)</a></li>\n  <li>Seed Potato Growers Association of       Manitoba\u00a0-\u00a0<a href=\"mailto:kgk@southernpotato.com\">kgk@southernpotato.com</a></li>\n  <li>Vegetable Growers Association of Manitoba\u00a0-\u00a0<a href=\"mailto:vgam@escape.ca\">vgam@escape.ca</a></li>\n</ul>\n<h2 id=\"sa\">Saskatchewan</h2>\n<ul>\n  <li><a href=\"http://www.apas.ca/index.php\">Agriculture Producers Association of       Saskatchewan (en anglais       seulement)</a></li>\n  <li><a href=\"http://www.saskbeekeepers.ca/\">Saskatchewan Beekeepers Association (en anglais seulement)</a></li>\n  <li><a href=\"http://www.prairiechristmastrees.org/\">Saskatchewan Christmas Tree Growers       Association (en anglais       seulement)</a></li>\n  <li><a href=\"https://saskfruit.ca/\">Saskatchewan Fruit Growers Association (en anglais seulement)</a></li>\n  <li><a href=\"http://www.saskgreenhouses.com/\">Saskatchewan Greenhouse Growers       Association (en anglais       seulement)</a></li>\n  <li>Saskatchewan       Nursery Landscape Association\u00a0- <a href=\"mailto:info@landscape.alberta.com\">info@landscape.alberta.com</a></li>\n  <li><a href=\"http://www.sspga.ca/\">Saskatchewan Seed Potato Growers Association (en anglais seulement)</a></li>\n</ul>\n<h2 id=\"al\">Alberta</h2>\n<ul>\n  <li><a href=\"http://www.albertafarmersmarket.com/\">Alberta       Farmers' Market Association (en anglais seulement)</a></li>\n  <li><a href=\"http://www.albertafarmfresh.com/\">Alberta Farm Fresh Producers Association (en anglais seulement)</a></li>\n  <li><a href=\"http://www.afaonline.ca/\">Alberta       Federation of Agriculture (en anglais seulement)</a></li>\n  <li><a href=\"http://www.agga.ca/\">Alberta Greenhouse Growers Association (en anglais seulement)</a></li>\n  <li><a href=\"http://www.beemaid.com/alberta-honey-producers\">Alberta Honey Producers (en anglais seulement)</a></li>\n  <li><a href=\"http://www.albertaorganicproducers.org/\">Alberta Organic Producers Association (en anglais seulement)</a></li>\n  <li>Alberta       Vegetable Growers (processing)\u00a0- <a href=\"mailto:avgp@telusplanet.net\">avgp@telusplanet.net</a></li>\n  <li><a href=\"http://www.landscape-alberta.com/\">Landscape Alberta Nursery Trades       Association (en anglais       seulement)</a></li>\n  <li><a href=\"http://www.albertapotatoes.ca/\">Potato Growers of Alberta (en anglais seulement)</a></li>\n</ul>\n<h2 id=\"cb\">Colombie-Britannique</h2>\n<ul>\n  <li><a href=\"http://www.bcac.ca\">British Columbia Agriculture Council (en anglais seulement)</a></li>\n  <li><a href=\"http://www.bcfarmersmarket.org/\">British       Columbia Association of Farmers' Markets (en anglais seulement)</a></li>\n  <li><a href=\"http://www.bcblueberry.com/\">British Columbia Blueberry Council       (en anglais seulement)</a></li>\n  <li><a href=\"http://bccherry.com/\">British       Columbia Cherry Association (en anglais seulement)</a></li>\n  <li><a href=\"http://www.bccranberrygrowers.com/\">British Columbia Cranberry Growers       Association (en anglais       seulement)</a></li>\n  <li><a href=\"http://www.bcfga.com/\">British Columbia Fruit Growers Association (en anglais seulement)</a></li>\n  <li><a href=\"http://www.grapegrowers.bc.ca/\">British Columbia Grape Growers Association (en anglais seulement)</a></li>\n  <li><a href=\"http://www.bcgreenhouse.ca/\">British Columbia Greenhouse Growers       Association (en anglais       seulement)</a></li>\n  <li><a href=\"http://www.bclna.com/\">British Columbia Landscape Nursery Association (en anglais seulement)</a></li>\n  <li>British       Columbia Potato and Vegetable Growers Association\u00a0- <a href=\"mailto:jgaley@shaw.ca\">jgaley@shaw.ca</a></li>\n  <li>British       Columbia Produce Marketing Association\u00a0- <a href=\"mailto:info@bcpma.com\">info@bcpma.com</a></li>\n  <li><a href=\"http://www.bcraspberries.com/\">British Columbia Raspberry Growers       Association (en anglais       seulement)</a></li>\n  <li><a href=\"http://www.bcstrawberries.com/\">British       Columbia Strawberry Growers Association (en anglais       seulement)</a></li>\n  <li><a href=\"http://www.bcveg.com/\">British Columbia Vegetable Marketing Commission (en anglais seulement)</a></li>\n  <li><a href=\"http://www.winebc.com/\">British Columbia Wine Institute (en anglais seulement)</a></li>\n  <li><a href=\"http://www.certifiedorganic.bc.ca/\">Certified       Organics Associations of British Columbia (en anglais       seulement)</a></li>\n  <li>Fraser Valley Cole Crop Growers       Association\u00a0- <a href=\"mailto:wienhl@telus.net\">wienhl@telus.net</a></li>\n</ul>\n\r\n    <!-- Fin du contenu -->\r\n\t\r\n\t\r\n\t\r\n  "
    }
}