{
    "dcr_id": "1605708289229",
    "title": {
        "en": "Potato reports",
        "fr": "Rapports sur les pommes de terre"
    },
    "modified": "2020-12-18",
    "issued": "2020-12-18",
    "templatetype": "content page 1 column",
    "page_type": "1",
    "node_id": "1368483750924",
    "dc_date_created": "2020-12-18",
    "managing_branch": "PAB",
    "parent_node_id": "1368480271586",
    "label": {
        "en": "Potato Reports",
        "fr": "Rapports sur les pommes de terre"
    },
    "exturl": "https://infohort.agr.gc.ca/IH5_Reports/potatoReports.xhtml?lang=e&ref=potato_reports&pageMenuId=IH3000",
    "teamsite_location": {
        "en": "/default/main/AAFC-AAC/Internet-Internet/Common-Commun/WORKAREA/Common-Commun/templatedata/comm-comm/gene-gene/data/11/infohort_potato_reports_1605708289229_en",
        "fr": "/default/main/AAFC-AAC/Internet-Internet/Common-Commun/WORKAREA/Common-Commun/templatedata/comm-comm/gene-gene/data/11/infohort_potato_reports_1605708289229_fr"
    },
    "type_name": "sitemapinit",
    "has_dcr_id": true,
    "breadcrumb": {
        "en": "Potato Reports",
        "fr": "Rapports sur les pommes de terre"
    },
    "layout_name": "content page 1 column",
    "lang": "en",
    "meta": {
        "issued": {
            "en": "2020-12-18",
            "fr": "2020-12-18"
        },
        "modified": {
            "en": "2020-12-18",
            "fr": "2020-12-18"
        },
        "format": {
            "en": "text/html",
            "fr": "text/html"
        },
        "title": {
            "en": "Potato reports",
            "fr": "Rapports sur les pommes de terre"
        },
        "subject": {
            "en": "architecture;trade;statistics",
            "fr": "actif;\u00e9conomie agricole;p\u00e2turage"
        },
        "description": {
            "en": "Some sections of these materials have been redacted based on the. With respect to market diversification, discussions have focused on increasing opportunities for canola-based biofuels both domestically and in the European Union, as well as on increasing exports to growing Asian markets.On May 1, 2019, the GOC announced enhanced financial support to producers through the implementation of the new regulations to strengthen the Advance Payments Program (APP). The amendments increase loan limits from $400,000 to $1\u00a0million for all producers on a permanent basis and increase the interest-free portion of loans on canola advances from $100,000 to $500,000 in the 2019 program year. In 2019, Canadian canola seed exports to China were valued at $822.8 million (1,544.6 thousand tonnes), which represents a 71% decline from 2018 canola seed exports of $2.8 billion (4,872.9 thousand tonnes).Market diversification efforts have seen canola seed exports increase significantly in specific markets.",
            "fr": "Canada\u00a0: perspectives des principales grandes cultures (Version PDF, 553\u00a0Ko). Donn\u00e9es historiques. t/ha\u00a0: tonnes par hectare. kt\u00a0: milliers de tonnes m\u00e9triques. 50\u00a0876. 52\u00a0371. Utilisation int\u00e9rieure totale (kt). 45\u00a0533."
        },
        "language": {
            "en": "eng",
            "fr": "fra"
        },
        "keywords": {
            "en": null,
            "fr": "l\u00e9gumineuses.Pour;\u00e9l\u00e9ment.Total;agroclimatiques.Total"
        },
        "audience": {
            "en": "gcaudience",
            "fr": "gcaudience"
        },
        "type": {
            "en": "notice",
            "fr": "\u00e9valuation"
        },
        "creator": {
            "en": "Agriculture and Agri-Food Canada;Government of Canada",
            "fr": "Agriculture et Agroalimentaire Canada;Gouvernement du Canada"
        },
        "spatial": {
            "en": "gcregions",
            "fr": "gcregions"
        },
        "service": {
            "en": "AAFC-AAC",
            "fr": "AAFC-AAC"
        },
        "accessRights": {
            "en": "2",
            "fr": "2"
        },
        "legalName": {
            "en": "agriculture_and_agri_food_canada",
            "fr": "agriculture_et_agroalimentaire_canada"
        },
        "areaServed": {
            "en": "Canada",
            "fr": "Canada"
        }
    },
    "css": {
        "fr": null
    },
    "js": {
        "en": null,
        "fr": null
    },
    "body": {
        "en": "<!-- D&eacute;but du contenu -->\r\n    <p>Storage and utilization reports will be updated by 3:00 pm EST on a monthly basis, excluding summer.</p>\n\n<p><a href=\"https://aimis-simia.agr.gc.ca/rp/index.cfm?action=pr&amp;r=326&amp;pdctc=&amp;lang=en\">Weekly Potato FOB Market Prices</a>: This report provides data on 'Free On Board' potato prices on a weekly basis reported from Canadian producing areas.  The weekly FOB market prices are available commencing October 7, 2011.</p>\n\n<p><a href=\"https://aimis-simia.agr.gc.ca/rp/index.cfm?action=pr&amp;r=323&amp;pdctc=&amp;lang=en\">Daily Potato FOB Market Prices</a>: This report provides data on 'Free On Board' potato prices on a daily basis reported from Canadian producing areas.  Daily FOB market prices are available up to June 3, 2011.</p>\n\n<p><a href=\"https://aimis-simia.agr.gc.ca/rp/index.cfm?action=pr&amp;r=307&amp;pdctc=&amp;lang=en\">Canadian Potato Storage by Province</a>: This report provides data by province across Canada as reported by the storage operators (except Prince Edward Island and New Brunswick) and represents volumes as of the first of each month from November to June.</p>\n\n<p><a href=\"https://aimis-simia.agr.gc.ca/rp/index.cfm?action=pr&amp;r=308&amp;pdctc=&amp;lang=en\">Intended Utilization of Potatoes</a>: This report is done in conjunction with the storage holdings and provides for the intended utilization suggested by the storage operator's to either the fresh market, seed market or processing market. The storage operator's intent may change during the month depending on the situation.</p>\n\n<p><a href=\"https://aimis-simia.agr.gc.ca/rp/index.cfm?action=pr&amp;r=320&amp;pdctc=&amp;lang=en\">Canadian Monthly Intended Utilization of Potatoes Summary</a>: This report provides intended utilization of potato data by growing province and represents the holdings as of the first day of each month from November to June.</p>\n\n<p><a href=\"https://aimis-simia.agr.gc.ca/rp/index.cfm?action=pr&amp;r=319&amp;pdctc=&amp;lang=en\">Canadian Monthly Potato Storage Summary</a>: This report provides potato data by growing province and represents the holdings as of the first day of each month from November to June.</p>\n\n<p><b>Potato Storage Release Dates - 2020-2021 Season</b><br>\n  Please note that every effort will be made to ensure that the storage data is released at 3:00 PM (15:00) eastern standard time.</p>\n\n<ul class=\"list-unstyled mrgn-lft-md\">\n  <li>December 9, 2020</li>\n  <li>January 12, 2021</li>\n  <li>February 8, 2021</li>\n  <li>March 8, 2021</li>\n  <li>April 9, 2021</li>\n  <li>May 7, 2021</li>\n  <li>June 7, 2021</li>\n</ul>\n\n<p><b>To receive e-mail notification to advise that the Potato Storage Report is available on the Infohort website:</b></p>\n\n<p>Send email to: <a href=\"mailto:post-subscribe-request@www.agr.gc.ca\">post-subscribe-request@www.agr.gc.ca</a> leaving the subject line and body blank.</p>\n\n<p><b>To stop receiving e-mail notification of the Potato Storage Report:</b></p>\n\n<p>Send email to: <a href=\"mailto:post-unsubscribe-request@www.agr.gc.ca\">post-unsubscribe-request@www.agr.gc.ca</a> leaving the subject line and body blank.</p>\n\r\n    <!-- Fin du contenu -->",
        "fr": "\r\n    \r\n    <!-- MainContentStart -->\r\n    <!-- D&eacute;but du contenu -->\r\n    <p>Les rapports sur l'entreposage et l'utilisation seront mis \u00e0 jour au plus tard \u00e0 15 h (HNE) une fois par mois, sauf l'\u00e9t\u00e9.</p>\n\n<p><a href=\"https://aimis-simia.agr.gc.ca/rp/index.cfm?action=pr&amp;r=326&amp;pdctc=&amp;lang=fr\">Prix hebdomadaires du march\u00e9 F.A.B. des pommes de terre</a>\u00a0: Ce rapport fournit les donn\u00e9es sur les prix \u00ab Franco \u00e0 bord \u00bb des pommes de terre sur une base hebdomadaire, obtenues des r\u00e9gions de production canadiennes.  Les prix hebdomadaires du march\u00e9 F.A.B sont disponibles \u00e0 compter du 7 octobre 2011.</p>\n\n<p><a href=\"https://aimis-simia.agr.gc.ca/rp/index.cfm?action=pr&amp;r=323&amp;pdctc=&amp;lang=fr\">Prix quotidiens du march\u00e9 F.A.B. des pommes de terre</a>\u00a0: Ce rapport fournit quotidiennement les donn\u00e9es sur les prix \u00ab Franco \u00e0 bord \u00bb des pommes de terre, obtenues des r\u00e9gions de production canadiennes. Les prix quotidiens du march\u00e9 F.A.B sont disponibles jusqu'au 3 juin 2011.</p>\n\n<p><a href=\"https://aimis-simia.agr.gc.ca/rp/index.cfm?action=pr&amp;r=307&amp;pdctc=&amp;lang=fr\">Stocks de pommes de terre entrepos\u00e9es selon la province</a>\u00a0:  Ce rapport fournit les donn\u00e9es par province, pour l'ensemble du Canada, d\u00e9clar\u00e9es par les exploitants d'entrep\u00f4ts (\u00e0 l'exception de l'\u00cele-du-Prince-\u00c9douard et du Nouveau-Brunswick); ces donn\u00e9es correspondent aux volumes en entrep\u00f4t, en date du premier jour de chaque mois, de novembre \u00e0 juin.</p>\n\n<p><a href=\"https://aimis-simia.agr.gc.ca/rp/index.cfm?action=pr&amp;r=308&amp;pdctc=&amp;lang=fr\">Utilisation pr\u00e9vue des pommes de terre</a>\u00a0: Ce rapport fournit le total provincial des pommes de terre de semence certifi\u00e9es, qui ont \u00e9t\u00e9 soumises avec succ\u00e8s \u00e0 l'inspection, ainsi que les principales vari\u00e9t\u00e9s par hectare, dans chaque province. Cette information provient du personnel de l'Agence canadienne d'inspection des aliments (ACIA).</p>\n\n<p><a href=\"https://aimis-simia.agr.gc.ca/rp/index.cfm?action=pr&amp;r=320&amp;pdctc=&amp;lang=fr\">Sommaire des stocks mensuels de pommes de terre canadiennes entrepos\u00e9es selon l'utilisation</a>\u00a0: Ce rapport fournit les donn\u00e9es sur l'utilisation pr\u00e9vue de pommes de terre par province de production; ces donn\u00e9es correspondent aux stocks en entrep\u00f4t, en date du premier jour de chaque mois, de novembre \u00e0 juin.</p>\n\n<p><a href=\"https://aimis-simia.agr.gc.ca/rp/index.cfm?action=pr&amp;r=319&amp;pdctc=&amp;lang=fr\">Sommaire des stocks mensuels de pommes de terre canadiennes entrepos\u00e9es</a>\u00a0: Ce rapport fournit les donn\u00e9es par province de production de pommes de terre; ces donn\u00e9es correspondent aux stocks en entrep\u00f4t, en date du premier jour de chaque mois, de novembre \u00e0 juin.</p>\n\n<p><b>Dates de publication des donn\u00e9es sur l'entreposage des pommes de terre - 2020-2021 Saison</b><br>\n  Veuillez noter que toutes les mesures seront prises pour que les donn\u00e9es d'entreposage soient publi\u00e9es \u00e0 15\u00a0h (heure normale de l'est).</p>\n  \n<ul class=\"list-unstyled mrgn-lft-md\">\n  <li>9 d\u00e9cembre 2020</li>\n  <li>12 janvier 2021</li>\n  <li>8 f\u00e9vrier 2021</li>\n  <li>8 mars 2021</li>\n  <li>9 avril 2021</li>\n  <li>7 mai 2021</li>\n  <li>7 juin 2021</li>\n</ul>\n\n<p><b>Pour \u00eatre avis\u00e9 par courriel que le rapport sur l'entreposage des pommes de terre est disponible sur le site Web Infohort\u00a0:</b></p>\n\n<p>Envoyez un courriel pour\u00a0: <a href=\"mailto:post-subscribe-request@www.agr.gc.ca\">post-subscribe-request@www.agr.gc.ca</a>. N'\u00e9crivez rien dans l'objet et le corps du message.</p>\n\n<p><b>Pour cesser de recevoir les avis concernant le rapport sur l'entreposage des pommes de terre</b></p>\n\n<p>Envoyez un courriel pour\u00a0: <a href=\"mailto:post-unsubscribe-request@www.agr.gc.ca\">post-unsubscribe-request@www.agr.gc.ca</a>. N'\u00e9crivez rien dans l'objet et le corps du message.</p>\n\n\r\n    <!-- Fin du contenu -->\r\n\t\r\n\t\r\n\t\r\n  "
    }
}