{
    "dcr_id": "1344895876238",
    "title": {
        "en": "Selecting trees and shrubs species",
        "fr": "Choix des essences d'arbres et d'arbustes"
    },
    "modified": "2014-07-18",
    "issued": "2012-10-30",
    "templatetype": "content page 1 column",
    "page_type": "1",
    "node_id": "1369771907468",
    "dc_date_created": "2012-10-30",
    "managing_branch": "PAB",
    "parent_node_id": "1354137773742",
    "label": {
        "en": "Selecting Trees and Shrubs Species",
        "fr": "Choix des essences d'arbres et d'arbustes"
    },
    "exturl": "",
    "teamsite_location": {
        "en": "/default/main/AAFC-AAC/Internet-Internet/Common-Commun/WORKAREA/Common-Commun/templatedata/comm-comm/gene-gene/data/08/select-choix_trees-arbres_1344895876238_en",
        "fr": "/default/main/AAFC-AAC/Internet-Internet/Common-Commun/WORKAREA/Common-Commun/templatedata/comm-comm/gene-gene/data/08/select-choix_trees-arbres_1344895876238_fr"
    },
    "type_name": "sitemapinit",
    "has_dcr_id": true,
    "breadcrumb": {
        "en": "Selecting Trees and Shrubs Species",
        "fr": "Choix des essences d'arbres et d'arbustes"
    },
    "layout_name": "content page 1 column",
    "lang": "en",
    "meta": {
        "issued": {
            "en": "2012-10-30",
            "fr": "2012-10-30"
        },
        "modified": {
            "en": "2014-07-18",
            "fr": "2014-07-18"
        },
        "format": {
            "en": "text/html",
            "fr": "text/html"
        },
        "title": {
            "en": "Selecting trees and shrubs species",
            "fr": "Choix des essences d'arbres et d'arbustes"
        },
        "subject": {
            "en": "forestry;land management",
            "fr": "foresterie;gestion des terres"
        },
        "description": {
            "en": "A variety of trees and shrubs provides a wider range of benefits which includes lowering the risk of losing the entire shelterbelt to events such as drought insects or disease.",
            "fr": "Arbustes Caragana arborescent Cerisier de Virginie y Aub\u00e9pine Rosier hybride Sureau rouge Cornouiller stolonif\u00e8re Am\u00e9lanchier \u00e0 feuilles d'aulne Argousier faux-nerprun Sh\u00e9pherdie argent\u00e9e Symphorine Lilas velu Trees Ch\u00eane \u00e0 gros fruits Peuplier delto\u00efde de l'Ouest DELETE agrofor_cottonwood_1345832080586_en Fr\u00eane vert Peuplier hybride \u00c9rable \u00e0 Gigu\u00e8re Cerisier de Pennsylvanie Pommier de Sib\u00e9rie Peuplier faux-tremble Saule \u00e0 feuilles aigu\u00ebs Saule \u00e0 feuilles de p\u00eacher Saule blanc soyeux Conif\u00e8res M\u00e9l\u00e8ze de Sib\u00e9rie Pin sylvestre \u00c9pinette du Colorado \u00c9pinette blanche"
        },
        "language": {
            "en": "eng",
            "fr": "fra"
        },
        "keywords": {
            "en": " content of the page; Siberian Larch; Caragana Choke Cherry Hawthorn Hedge; new page;variety of trees",
            "fr": " choix des arbres; Peuplier hybride; feuilles de p\u00eacher; Cerisier de Pennsylvanie Pommier de Sib\u00e9rie;risque moindre"
        },
        "audience": {
            "en": "gcaudience",
            "fr": "gcaudience"
        },
        "type": {
            "en": "resource list",
            "fr": "liste de r\u00e9f\u00e9rence"
        },
        "creator": {
            "en": "Agriculture and Agri-Food Canada;Government of Canada",
            "fr": "Agriculture et Agroalimentaire Canada;Gouvernement du Canada"
        },
        "spatial": {
            "en": "gcregions",
            "fr": "gcregions"
        },
        "service": {
            "en": "AAFC-AAC",
            "fr": "AAFC-AAC"
        },
        "accessRights": {
            "en": "2",
            "fr": "2"
        },
        "legalName": {
            "en": "agriculture_and_agri_food_canada",
            "fr": "agriculture_et_agroalimentaire_canada"
        },
        "areaServed": {
            "en": "Canada",
            "fr": "Canada"
        }
    },
    "css": {
        "fr": null
    },
    "js": {
        "en": null,
        "fr": null
    },
    "body": {
        "en": "<!-- D&eacute;but du contenu -->\r\n    <p>Consider the purpose for your shelterbelt and the site characteristics when selecting suitable trees and shrubs. It is better to plant a multi-row shelterbelt using a variety of trees or shrubs rather than planting two or more rows of the same. A variety of trees and shrubs provides a wider range of benefits, which includes lowering the risk of losing the entire shelterbelt to events such as drought, insects or disease.</p>\n<p>Each species has its own characteristic height, width, density, longevity, growth, invasiveness potential and resistance to insects and disease. </p>\n<nav>\n<h2>Shrubs</h2>\n<ul class=\"list-unstyled mrgn-lft-lg\">\n<li><a href=\"/eng/agriculture-and-the-environment/agricultural-practices/agroforestry/shelterbelt-planning-and-establishment/selecting-trees-and-shrubs-species/caragana/?id=1345828831113\">Caragana</a></li>\n<li><a href=\"/eng/agriculture-and-the-environment/agricultural-practices/agroforestry/shelterbelt-planning-and-establishment/selecting-trees-and-shrubs-species/choke-cherry/?id=1345829513877\">Choke Cherry</a></li>\n<li><a href=\"/eng/agriculture-and-the-environment/agricultural-practices/agroforestry/shelterbelt-planning-and-establishment/selecting-trees-and-shrubs-species/hawthorn/?id=1345839317164\">Hawthorn</a></li>\n<li><a href=\"/eng/agriculture-and-the-environment/agricultural-practices/agroforestry/shelterbelt-planning-and-establishment/selecting-trees-and-shrubs-species/hedge-rose/?id=1345839625575\">Hedge Rose</a></li>\n<li><a href=\"/eng/agriculture-and-the-environment/agricultural-practices/agroforestry/shelterbelt-planning-and-establishment/selecting-trees-and-shrubs-species/red-elder/?id=1345845931784\">Red Elder</a></li>\n<li><a href=\"/eng/agriculture-and-the-environment/agricultural-practices/agroforestry/shelterbelt-planning-and-establishment/selecting-trees-and-shrubs-species/red-osier-dogwood/?id=1345845710463\">Red-osier Dogwood</a></li>\n<li><a href=\"/eng/agriculture-and-the-environment/agricultural-practices/agroforestry/shelterbelt-planning-and-establishment/selecting-trees-and-shrubs-species/sea-buckthorn/?id=1345846726859\">Sea Buckthorn</a></li>\n<li><a href=\"/eng/agriculture-and-the-environment/agricultural-practices/agroforestry/shelterbelt-planning-and-establishment/selecting-trees-and-shrubs-species/silver-buffaloberry/?id=1346092079483\">Silver Buffaloberry</a></li>\n<li><a href=\"/eng/agriculture-and-the-environment/agricultural-practices/agroforestry/shelterbelt-planning-and-establishment/selecting-trees-and-shrubs-species/snowberry/?id=1346093672452\">Snowberry</a></li>\n<li><a href=\"/eng/agriculture-and-the-environment/agricultural-practices/agroforestry/shelterbelt-planning-and-establishment/selecting-trees-and-shrubs-species/villosa-lilac/?id=1346094035607\">Villosa Lilac</a></li>\n</ul>\n<h2>Trees</h2>\n<ul class=\"list-unstyled mrgn-lft-lg\">\n<li><a href=\"/eng/agriculture-and-the-environment/agricultural-practices/agroforestry/shelterbelt-planning-and-establishment/selecting-trees-and-shrubs-species/bur-oak/?id=1344899822985\">Bur Oak</a></li>\n<li><a href=\"/eng/agriculture-and-the-environment/agricultural-practices/agroforestry/shelterbelt-planning-and-establishment/selecting-trees-and-shrubs-species/cottonwood/?id=1344900017993\">Cottonwood</a></li>\n<li><a href=\"/eng/agriculture-and-the-environment/agricultural-practices/agroforestry/shelterbelt-planning-and-establishment/selecting-trees-and-shrubs-species/green-ash/?id=1345840775012\">Green Ash</a></li>\n<li><a href=\"/eng/agriculture-and-the-environment/agricultural-practices/agroforestry/shelterbelt-planning-and-establishment/selecting-trees-and-shrubs-species/hybrid-poplar/?id=1345840327877\">Hybrid Poplar</a></li>\n<li><a href=\"/eng/agriculture-and-the-environment/agricultural-practices/agroforestry/shelterbelt-planning-and-establishment/selecting-trees-and-shrubs-species/manitoba-maple/?id=1345841401925\">Manitoba Maple</a></li>\n<li><a href=\"/eng/agriculture-and-the-environment/agricultural-practices/agroforestry/shelterbelt-planning-and-establishment/selecting-trees-and-shrubs-species/pincherry/?id=1345842980958\">Pincherry</a></li>\n<li><a href=\"/eng/agriculture-and-the-environment/agricultural-practices/agroforestry/shelterbelt-planning-and-establishment/selecting-trees-and-shrubs-species/siberian-crabapple/?id=1346083827957\">Siberian Crabapple</a></li>\n<li><a href=\"/eng/agriculture-and-the-environment/agricultural-practices/agroforestry/shelterbelt-planning-and-establishment/selecting-trees-and-shrubs-species/trembling-aspen/?id=1346096119728\">Trembling Aspen</a></li>\n<li><a href=\"/eng/agriculture-and-the-environment/agricultural-practices/agroforestry/shelterbelt-planning-and-establishment/selecting-trees-and-shrubs-species/acute-willow/?id=1345832420911\">Acute Willow</a></li>\n<li><a href=\"/eng/agriculture-and-the-environment/agricultural-practices/agroforestry/shelterbelt-planning-and-establishment/selecting-trees-and-shrubs-species/peachleaf-willow/?id=1345842040417\">Peachleaf Willow</a></li>\n<li><a href=\"/eng/agriculture-and-the-environment/agricultural-practices/agroforestry/shelterbelt-planning-and-establishment/selecting-trees-and-shrubs-species/silverleaf-willow/?id=1346096790202\">Silverleaf Willow</a></li>\n</ul>\n<h3>Conifers</h3>\n<ul class=\"list-unstyled mrgn-lft-lg\">\n<li><a href=\"/eng/agriculture-and-the-environment/agricultural-practices/agroforestry/shelterbelt-planning-and-establishment/selecting-trees-and-shrubs-species/siberian-larch/?id=1346097328376\">Siberian Larch</a></li>\n<li><a href=\"/eng/agriculture-and-the-environment/agricultural-practices/agroforestry/shelterbelt-planning-and-establishment/selecting-trees-and-shrubs-species/scots-pine/?id=1345846341975\">Scots Pine</a></li>\n<li><a href=\"/eng/agriculture-and-the-environment/agricultural-practices/agroforestry/shelterbelt-planning-and-establishment/selecting-trees-and-shrubs-species/colorado-spruce/?id=1345830682621\">Colorado Spruce</a></li>\n<li><a href=\"/eng/agriculture-and-the-environment/agricultural-practices/agroforestry/shelterbelt-planning-and-establishment/selecting-trees-and-shrubs-species/white-spruce/?id=1346103412346\">White Spruce</a></li>\n</ul>\n</nav>\n\r\n    <!-- Fin du contenu -->",
        "fr": "\r\n    \r\n    <!-- MainContentStart -->\r\n    <!-- D&eacute;but du contenu -->\r\n    <p>Vous devez tenir compte du but vis\u00e9 par votre brise-vent et des caract\u00e9ristiques de la parcelle lors du choix des arbres et des arbustes. Il est pr\u00e9f\u00e9rable de planter un brise-vent compos\u00e9 de plusieurs rang\u00e9es d'arbres ou d'arbustes vari\u00e9s plut\u00f4t que de planter deux ou plusieurs rang\u00e9es de la m\u00eame essence. Un tel assortiment aura de multiples avantages, notamment un risque moindre de perdre la totalit\u00e9 du brise-vent en cas de s\u00e9cheresse, d'invasion d'insectes ou de maladie.</p>\n<p>Chaque esp\u00e8ce a une hauteur, une largeur, une densit\u00e9, une dur\u00e9e de vie, un taux de croissance et une r\u00e9sistance aux insectes et aux maladies qui lui sont propres.</p>\n<nav>\n  <h2>Arbustes</h2>\n  <ul class=\"list-unstyled mrgn-lft-lg\">\n    <li><a href=\"/fra/agriculture-et-environnement/pratiques-agricoles/agroforesterie/planification-et-etablissement-des-brise-vent/choix-des-essences-d-arbres-et-d-arbustes/caragana-arborescent/?id=1345828831113\">Caragana arborescent </a></li>\n    <li><a href=\"/fra/agriculture-et-environnement/pratiques-agricoles/agroforesterie/planification-et-etablissement-des-brise-vent/choix-des-essences-d-arbres-et-d-arbustes/cerisier-de-virginie/?id=1345829513877\">Cerisier de Virginie</a></li>\n    <li><a href=\"/fra/agriculture-et-environnement/pratiques-agricoles/agroforesterie/planification-et-etablissement-des-brise-vent/choix-des-essences-d-arbres-et-d-arbustes/aubepine/?id=1345839317164\">Aub\u00e9pine</a></li>\n    <li><a href=\"/fra/agriculture-et-environnement/pratiques-agricoles/agroforesterie/planification-et-etablissement-des-brise-vent/choix-des-essences-d-arbres-et-d-arbustes/rosier-hybride/?id=1345839625575\">Rosier hybride </a></li>\n    <li><a href=\"/fra/agriculture-et-environnement/pratiques-agricoles/agroforesterie/planification-et-etablissement-des-brise-vent/choix-des-essences-d-arbres-et-d-arbustes/sureau-rouge/?id=1345845931784\">Sureau rouge </a></li>\n    <li><a href=\"/fra/agriculture-et-environnement/pratiques-agricoles/agroforesterie/planification-et-etablissement-des-brise-vent/choix-des-essences-d-arbres-et-d-arbustes/cornouiller-stolonifere/?id=1345845710463\">Cornouiller stolonif\u00e8re </a></li>\n    <li><a href=\"/fra/agriculture-et-environnement/pratiques-agricoles/agroforesterie/planification-et-etablissement-des-brise-vent/choix-des-essences-d-arbres-et-d-arbustes/argousier-faux-nerprun/?id=1345846726859\">Argousier faux-nerprun </a></li>\n    <li><a href=\"/fra/agriculture-et-environnement/pratiques-agricoles/agroforesterie/planification-et-etablissement-des-brise-vent/choix-des-essences-d-arbres-et-d-arbustes/shepherdie-argentee/?id=1346092079483\">Sh\u00e9pherdie argent\u00e9e </a></li>\n    <li><a href=\"/fra/agriculture-et-environnement/pratiques-agricoles/agroforesterie/planification-et-etablissement-des-brise-vent/choix-des-essences-d-arbres-et-d-arbustes/symphorine-de-l-ouest/?id=1346093672452\">Symphorine</a></li>\n    <li><a href=\"/fra/agriculture-et-environnement/pratiques-agricoles/agroforesterie/planification-et-etablissement-des-brise-vent/choix-des-essences-d-arbres-et-d-arbustes/lilas-velu/?id=1346094035607\">Lilas velu </a></li>\n  </ul>\n  <h2>Arbres</h2>\n  <ul class=\"list-unstyled mrgn-lft-lg\">\n    <li><a href=\"/fra/agriculture-et-environnement/pratiques-agricoles/agroforesterie/planification-et-etablissement-des-brise-vent/choix-des-essences-d-arbres-et-d-arbustes/chene-a-gros-fruits/?id=1344899822985\">Ch\u00eane \u00e0 gros fruits </a></li>\n    <li><a href=\"/fra/agriculture-et-environnement/pratiques-agricoles/agroforesterie/planification-et-etablissement-des-brise-vent/choix-des-essences-d-arbres-et-d-arbustes/peuplier-deltoide-de-l-ouest/?id=1344900017993\">Peuplier delto\u00efde de l'Ouest</a></li>\n    <li><a href=\"/fra/agriculture-et-environnement/pratiques-agricoles/agroforesterie/planification-et-etablissement-des-brise-vent/choix-des-essences-d-arbres-et-d-arbustes/frene-vert/?id=1345840775012\">Fr\u00eane vert</a></li>\n    <li><a href=\"/fra/agriculture-et-environnement/pratiques-agricoles/agroforesterie/planification-et-etablissement-des-brise-vent/choix-des-essences-d-arbres-et-d-arbustes/peuplier-hybride/?id=1345840327877\">Peuplier hybride</a></li>\n    <li><a href=\"/fra/agriculture-et-environnement/pratiques-agricoles/agroforesterie/planification-et-etablissement-des-brise-vent/choix-des-essences-d-arbres-et-d-arbustes/erable-a-giguere/?id=1345841401925\">\u00c9rable \u00e0 Gigu\u00e8re</a></li>\n    <li><a href=\"/fra/agriculture-et-environnement/pratiques-agricoles/agroforesterie/planification-et-etablissement-des-brise-vent/choix-des-essences-d-arbres-et-d-arbustes/cerisier-de-pennsylvanie/?id=1345842980958\">Cerisier de Pennsylvanie </a></li>\n    <li><a href=\"/fra/agriculture-et-environnement/pratiques-agricoles/agroforesterie/planification-et-etablissement-des-brise-vent/choix-des-essences-d-arbres-et-d-arbustes/pommier-de-siberie/?id=1346083827957\">Pommier de Sib\u00e9rie </a></li>\n    <li><a href=\"/fra/agriculture-et-environnement/pratiques-agricoles/agroforesterie/planification-et-etablissement-des-brise-vent/choix-des-essences-d-arbres-et-d-arbustes/peuplier-faux-tremble/?id=1346096119728\">Peuplier faux-tremble </a></li>\n    <li><a href=\"/fra/agriculture-et-environnement/pratiques-agricoles/agroforesterie/planification-et-etablissement-des-brise-vent/choix-des-essences-d-arbres-et-d-arbustes/saule-a-feuilles-aigues/?id=1345832420911\">Saule \u00e0 feuilles aigu\u00ebs </a></li>\n    <li><a href=\"/fra/agriculture-et-environnement/pratiques-agricoles/agroforesterie/planification-et-etablissement-des-brise-vent/choix-des-essences-d-arbres-et-d-arbustes/saule-a-feuilles-de-pecher/?id=1345842040417\">Saule \u00e0 feuilles de p\u00eacher </a></li>\n    <li><a href=\"/fra/agriculture-et-environnement/pratiques-agricoles/agroforesterie/planification-et-etablissement-des-brise-vent/choix-des-essences-d-arbres-et-d-arbustes/saule-blanc-soyeux/?id=1346096790202\">Saule blanc soyeux </a></li>\n  </ul>\n  <h3>Conif\u00e8res</h3>\n  <ul class=\"list-unstyled mrgn-lft-lg\">\n    <li><a href=\"/fra/agriculture-et-environnement/pratiques-agricoles/agroforesterie/planification-et-etablissement-des-brise-vent/choix-des-essences-d-arbres-et-d-arbustes/meleze-de-siberie/?id=1346097328376\">M\u00e9l\u00e8ze de Sib\u00e9rie</a></li>\n    <li><a href=\"/fra/agriculture-et-environnement/pratiques-agricoles/agroforesterie/planification-et-etablissement-des-brise-vent/choix-des-essences-d-arbres-et-d-arbustes/pin-sylvestre/?id=1345846341975\">Pin sylvestre</a></li>\n    <li><a href=\"/fra/agriculture-et-environnement/pratiques-agricoles/agroforesterie/planification-et-etablissement-des-brise-vent/choix-des-essences-d-arbres-et-d-arbustes/epinette-du-colorado/?id=1345830682621\">\u00c9pinette du Colorado</a></li>\n    <li><a href=\"/fra/agriculture-et-environnement/pratiques-agricoles/agroforesterie/planification-et-etablissement-des-brise-vent/choix-des-essences-d-arbres-et-d-arbustes/epinette-blanche/?id=1346103412346\">\u00c9pinette blanche</a></li>\n  </ul>\n</nav>\n\n\r\n    <!-- Fin du contenu -->\r\n\t\r\n\t\r\n\t\r\n  "
    }
}