{
    "dcr_id": "1384971854421",
    "title": {
        "en": "Production reports",
        "fr": "Rapports de production"
    },
    "modified": "2020-07-20",
    "issued": "2011-01-30",
    "templatetype": "content page 1 column",
    "page_type": "1",
    "node_id": "1384971799966",
    "dc_date_created": "2011-01-30",
    "managing_branch": "MISB",
    "parent_node_id": "1354137773899",
    "label": {
        "en": "Production",
        "fr": "Production"
    },
    "exturl": "",
    "teamsite_location": {
        "en": "/default/main/AAFC-AAC/Internet-Internet/MISB-DGSIM/SDAD-DDAS/PE-VO/WORKAREA/PE-VO/templatedata/comm-comm/gene-gene/data/by_type_production_1384971854421_en",
        "fr": "/default/main/AAFC-AAC/Internet-Internet/MISB-DGSIM/SDAD-DDAS/PE-VO/WORKAREA/PE-VO/templatedata/comm-comm/gene-gene/data/by_type_production_1384971854421_fr"
    },
    "type_name": "sitemapinit",
    "has_dcr_id": true,
    "breadcrumb": {
        "en": "Production",
        "fr": "Production"
    },
    "layout_name": "content page 1 column",
    "lang": "en",
    "meta": {
        "issued": {
            "en": "2011-01-30",
            "fr": "2003-02-24"
        },
        "modified": {
            "en": "2020-07-20",
            "fr": "2020-07-20"
        },
        "format": {
            "en": "gcformat",
            "fr": "gcformat"
        },
        "title": {
            "en": "Production reports",
            "fr": "Rapports de production"
        },
        "subject": {
            "en": "statistics",
            "fr": "transformation des aliments;horticulture;bact\u00e9rie"
        },
        "description": {
            "en": "Canada's poultry and egg industry is mainly composed of the following sectors: chicken, ducks and geese, hatching eggs, table eggs, and turkey. Poultry and Egg Market Information \u2013 Canadian Industry provides weekly, monthly, and annual reports on: condemnations, egg production (processed and table eggs), hatcheries, imports and exports, inter-provincial movements, producer and retail prices, slaughter, storage stocks. Also includes product-based reports and information on chicken, ducks and geese, hatching eggs, table eggs, and turkey.",
            "fr": "L'industrie canadienne de la volaille et des oeufs comprend principalement les secteurs suivants : le poulet, le canard et l'oie, les oeufs d'incubation, les oeufs de consommation et le dindon. Information sur le march\u00e9 de la volaille et oeufs \u2013 Industrie canadienne Pr\u00e9sente des rapports hebdomadaires, mensuels et annuels sur les sujets suivants: condamnations, production d\u2019oeufs (oeufs transform\u00e9s et oeufs de consommation), couvoirs, importations / exportations, exp\u00e9ditions interprovinciales, producteurs et prix \u00e0 la consommation, abattages, stocks en entrep\u00f4t. Comprend \u00e9galement des rapports fond\u00e9s sur les produits ainsi que des renseignements sur le poulet, le canard et l'oie, les oeufs d'incubation, les oeufs de consommation et le dindon."
        },
        "language": {
            "en": "eng",
            "fr": "fra"
        },
        "keywords": {
            "en": "Production Reports;Processed Eggs;Ducks and Geese;Turkey;Mature Chicken;Chicken",
            "fr": "Rapports de production;Oeufs transform\u00e9s;canardes et oies;dindons;poulets adultes;Poulets"
        },
        "audience": {
            "en": "gcaudience",
            "fr": "gcaudience"
        },
        "type": {
            "en": "business plan",
            "fr": "\u00e9nonc\u00e9 sur la propri\u00e9t\u00e9 intellectuelle"
        },
        "creator": {
            "en": "Market and Industry Services Branch;Agriculture and Agri-Food Canada;Government of Canada",
            "fr": "Direction g\u00e9n\u00e9rale des services \u00e0 l'industrie et aux march\u00e9s;Agriculture et Agroalimentaire Canada;Gouvernement du Canada"
        },
        "spatial": {
            "en": "gcregions",
            "fr": "gcregions"
        },
        "service": {
            "en": "AAFC-AAC",
            "fr": "AAFC-AAC"
        },
        "accessRights": {
            "en": "2",
            "fr": "2"
        },
        "legalName": {
            "en": "agriculture_and_agri_food_canada",
            "fr": "agriculture_et_agroalimentaire_canada"
        },
        "areaServed": {
            "en": "Canada",
            "fr": "Canada"
        }
    },
    "css": {
        "fr": null
    },
    "js": {
        "en": null,
        "fr": null
    },
    "body": {
        "en": "<!-- D&eacute;but du contenu -->\r\n    <!-- Start content --><!-- InstanceBeginEditable name=\"ContentTitle\" --><!-- InstanceEndEditable --><!-- InstanceBeginEditable name=\"Content\" -->\n\n<h2>Chicken, Mature Chicken, Turkey, Ducks and Geese</h2>\n<ul>\n<li><a href=\"http://aimis-simia.agr.gc.ca/rp/index-eng.cfm?action=pR&amp;r=24&amp;pdctc=\">036 - Poultry Production Report by Week</a>\n<p>Report displays the total production within each province for a selected week or weeks. It calculates the number of local birds killed within a province plus the number of locally raised birds sent to other provinces minus the number of birds coming from other provinces or countries included in the local slaughter total.</p>\n</li>\n<li><a href=\"http://aimis-simia.agr.gc.ca/rp/index-eng.cfm?action=pR&amp;r=6&amp;pdctc=\">036 - Poultry Production Report by Month/Year</a>\n<p>Report displays the total production within each province for a selected month(s) or year. It calculates the number of local birds killed within a province plus the number of locally raised birds exported to other provinces minus the number of birds raised in other provinces or countries included in the local slaughter total.</p>\n</li>\n</ul>\n\n<h2>Processed Eggs</h2>\n<ul>\n<li><a href=\"http://aimis-simia.agr.gc.ca/rp/index-eng.cfm?menupos=1.01.09&amp;pdctc=&amp;r=211&amp;action=pR&amp;LANG=EN\">075/081 - Weekly/Monthly Processed Egg Production Report</a><br>\n<p>Report displays\u00a0either weekly or\u00a0monthly\u00a0processed egg production, liquid break and shell eggs cooked, for a selected year and an optional week-ending date, with prior year comparison. </p>\n</li>\n<li><a href=\"http://aimis-simia.agr.gc.ca/rp/index-eng.cfm?menupos=1.01.09&amp;pdctc=&amp;r=212&amp;action=pR&amp;LANG=EN\">077/078/082 - Weekly/Monthly Eggs Broken Report</a>\n<p>Report displays\u00a0either weekly or\u00a0monthly\u00a0shell eggs broken by grade and region, for a selected year and an optional week-ending date, with prior year comparison. </p>\n</li>\n</ul>\n\n<h2> Link to inventory report provided by Statistics Canada:</h2>\n<h3> Poultry and egg production</h3>\n<ul>\n<li><a href=\"https://www150.statcan.gc.ca/n1/pub/95-634-x/2017001/article/54899/catm-ctra-374-eng.htm\" rel=\"external\">Number of farms classified under \"Poultry and egg production\" in the North American Industry Classification System by census division, 2016</a></li>\n</ul>\n\n<h2>Other reports with egg production information</h2>\n<ul>\n<li><a rel=\"external\" href=\"http://www.eggfarmers.ca/market-information-tables/#tableau-3\">Canadian egg production (Grading - eggs)</a><br> Source: Egg Farmers of Canada<br><br></li>\n\n<div class=\"clearfix\"></div>\n\n<div class=\"clearfix\"></div>\n\n<div class=\"well\">\n<p>If you have any questions or require additional information, please send an e-mail to <a href=\"mailto:aafc.poultry-volaille.aac@canada.ca\" title=\"Email: Animal Industry Division - Market Information Section\"> aafc.poultry-volaille.aac@canada.ca </a></p>\n\n<h2>Our service standards</h2>\n<p>Service standards play a vital role in our market information program\u2019s commitment to planning, reporting and performance management. \nThey clearly define the level of service that clients can expect under normal circumstances.</p>\n\n<p>View the <a href=\"http://www.agr.gc.ca/eng/industry-markets-and-trade/statistics-and-market-information/by-product-sector/poultry-and-eggs/service-standards-for-poultry-and-egg-market-information/?id=1481029938239\" title=\"Service standards for poultry reports\">Service standards for poultry reports.</a></p>\n</div>\n<div class=\"clearfix\"></div>\n\n\n<!-- InstanceEndEditable --><!-- End content -->\n\r\n    <!-- Fin du contenu --></ul>",
        "fr": "\r\n    \r\n    <!-- MainContentStart -->\r\n    <!-- D&eacute;but du contenu -->\r\n    <!-- D&eacute;but du contenu --><!-- InstanceBeginEditable name=\"ContentTitle\" --><!-- InstanceEndEditable --><!-- InstanceBeginEditable name=\"Content\" -->\n<h2>Poulets, poulets adultes, dindons, canardes et oies </h2>\n<ul>\n<li><a href=\"http://aimis-simia.agr.gc.ca/rp/index-fra.cfm?action=pR&amp;r=524&amp;pdctc=\">Rapport hebdomadaire de la production de volailles</a><br>\n<p>Ce rapport affiche la production totale de chaque province pour la/les semaine(s) s\u00e9lectionn\u00e9e(s). Il calcule le nombre d'oiseaux abattus localement dans chaque province plus le nombre d'oiseaux \u00e9lev\u00e9s localement envoy\u00e9s dans d'autres provinces moins le nombre d'oiseaux provenant d'autres provinces ou pays qui sont inclus dans le total d'abattage local.</p>\n</li>\n<li><a href=\"http://aimis-simia.agr.gc.ca/rp/index-fra.cfm?action=pR&amp;r=506&amp;pdctc=\">Rapport mensuel/annuel de la production de volailles</a>\n<p>Ce rapport affiche la production totale de chaque province pour le/les mois ou l'ann\u00e9e s\u00e9lectionn\u00e9(s). Il calcule le nombre d'oiseaux abattus localement dans chaque province plus le nombre d'oiseaux \u00e9lev\u00e9s localement envoy\u00e9s dans d'autres provinces moins le nombre d'oiseaux provenant d'autres provinces ou pays qui sont inclus dans le total d'abattage local.</p>\n</li>\n</ul>\n\n<h2>Oeufs transform\u00e9s</h2>\n<ul>\n<li><a href=\"http://aimis-simia.agr.gc.ca/rp/index-fra.cfm?menupos=1.02.10&amp;pdctc=&amp;r=711&amp;LANG=FR&amp;action=pR\">075/081 - Rapport hebdomadaire/mensuel de production d'\u0153ufs transform\u00e9s</a>\n<p>Ce rapport affiche la production hebdomadaire ou mensuelle d'\u0153ufs transform\u00e9s, liquide cass\u00e9 et \u0153ufs en coquille cuits, en comparaison avec l'ann\u00e9e pr\u00e9c\u00e9dente, pour la semaine ou l'ann\u00e9e s\u00e9lectionn\u00e9e.</p>\n</li>\n</ul>\n<ul>\n<li><a href=\"http://aimis-simia.agr.gc.ca/rp/index-fra.cfm?menupos=1.02.10&amp;pdctc=&amp;r=712&amp;LANG=FR&amp;action=pR\">077/078/082 - Rapport hebdomadaire/mensuel d'\u0153ufs en coquille cass\u00e9e</a>\n<p>Ce rapport affiche la production hebdomadaire ou mensuelle d'\u0153ufs en coquille cass\u00e9s par cat\u00e9gorie et r\u00e9gion, en comparaison avec l'ann\u00e9e pr\u00e9c\u00e9dente, pour la semaine ou l'ann\u00e9e s\u00e9lectionn\u00e9e.</p>\n</li>\n</ul>\n\n<h2> Acc\u00e9der \u00e0 divers liens de rapports d'inventaire par Statistique Canada :</h2>\n<h3>\u00c9levage de volailles et de production d'oeufs</h3>\n<ul>\n<li><a href=\"https://www150.statcan.gc.ca/n1/pub/95-634-x/2017001/article/54899/catm-ctra-374-fra.htm\" rel=\"external\">Nombre de fermes class\u00e9es comme \u00ab \u00c9levage de volailles et de production d'oeufs \u00bb selon le Syst\u00e8me de classification des industries de l'Am\u00e9rique du Nord selon les divisions de recensement, 2016</a></li>\n</ul>\n\n<h2>Autres rapports avec de l'information sur la production d'oeuf</h2>\n<ul>\n<li><a rel=\"external\" href=\"https://www.producteursdoeufs.ca/information-sur-le-marche-tables/#tableau-3\">Production d\u2019\u0153ufs au Canada (classification - oeufs)</a><br> Source : Les producteurs d'oeufs du Canada<br><br></li>\n\n\n\n<div class=\"well\">\n<p>Pour toute question ou information additionnelle, veuillez communiquer avec nous par courriel \u00e0 <a href=\"mailto:aafc.poultry-volaille.aac@canada.ca\" title=\"Courriel : Division de l'industrie animale, Section de l'information sur les march\u00e9s\"> aafc.poultry-volaille.aac@canada.ca</a></p>\n\n<h2>Nos normes de service</h2>\n<p>Les normes de service jouent un r\u00f4le cl\u00e9 dans les processus de gestion de la planification, des rapports et du rendement de notre programme d'information sur le march\u00e9. Elles d\u00e9finissent clairement le niveau de rendement auquel les clients peuvent s'attendre lorsqu'ils re\u00e7oivent un service dans des circonstances normales.</p>\n\n<p>Visionnez les  <a href=\"http://www.agr.gc.ca/fra/industrie-marches-et-commerce/statistiques-et-information-sur-les-marches/par-produit-secteur/volaille-et-oeufs/normes-de-service-pour-l-information-sur-le-marche-de-la-volaille-et-des-ufs/?id=1481029938239\" title=\"Normes de service relatives aux rapports sur la volaille\">Normes de service relatives aux rapports sur la volaille.</a></p>\n</div>\n<div class=\"clearfix\"></div>\n\n\n<!-- InstanceEndEditable --><!-- Fin du contenu -->\n\r\n    <!-- Fin du contenu -->\r\n\t\r\n\t\r\n\t\r\n  </ul>"
    }
}