{
    "dcr_id": "1385740744721",
    "title": {
        "en": "Pork Value Chain Roundtable",
        "fr": "Table ronde sur la cha\u00eene de valeur de l\u2019industrie porcine"
    },
    "modified": "2019-12-16",
    "issued": "2011-01-14",
    "templatetype": "content page 1 column",
    "page_type": "1",
    "node_id": "1384804115003",
    "dc_date_created": "2011-01-14",
    "managing_branch": "MISB",
    "parent_node_id": "1384803392547",
    "label": {
        "en": "Pork",
        "fr": "Porc"
    },
    "exturl": "",
    "teamsite_location": {
        "en": "/default/main/AAFC-AAC/Internet-Internet/MISB-DGSIM/VCR-TCV/WORKAREA/VCR-TCV/templatedata/comm-comm/gene-gene/data/vcr_pork_index_1385740744721_en",
        "fr": "/default/main/AAFC-AAC/Internet-Internet/MISB-DGSIM/VCR-TCV/WORKAREA/VCR-TCV/templatedata/comm-comm/gene-gene/data/vcr_pork_index_1385740744721_fr"
    },
    "type_name": "sitemapinit",
    "has_dcr_id": true,
    "breadcrumb": {
        "en": "Pork",
        "fr": "Porc"
    },
    "layout_name": "content page 1 column",
    "lang": "en",
    "meta": {
        "issued": {
            "en": "2011-01-14",
            "fr": "2011-01-14"
        },
        "modified": {
            "en": "2019-12-16",
            "fr": "2019-12-16"
        },
        "format": {
            "en": "gcformat",
            "fr": "gcformat"
        },
        "title": {
            "en": "Pork Value Chain Roundtable",
            "fr": "Table ronde sur la cha\u00eene de valeur de l\u2019industrie porcine"
        },
        "subject": {
            "en": "meat;agri-food industry",
            "fr": "viande;industrie agro-alimentaire"
        },
        "description": {
            "en": "The Pork Value Chain Roundtable (PVCRT) was launched In March 2003. The table initially focussed on undertaking market research to identify existing and emerging global markets, evaluate key competitors and benchmark Canadian performance. Various challenges impacting the sector's competitiveness moved the PVCRT to develop and adopt a 5-year Canadian Pork Value Chain Strategic Framework. The four pillars of the strategic framework include Competitive Environment, Market Penetration, Value Chain Integrity and Innovation.",
            "fr": "La Table ronde sur la cha\u00eene de valeur de l'industrie du porc (TRCVIP) a \u00e9t\u00e9 constitu\u00e9e en mars 2003. Elle a d'abord ax\u00e9 ses efforts sur des \u00e9tudes de march\u00e9 visant \u00e0 d\u00e9finir les d\u00e9bouch\u00e9s existants ou naissants du march\u00e9 international, sur l'\u00e9valuation des principaux concurrents, ainsi que sur la comparaison du rendement du Canada. Les divers probl\u00e8mes de comp\u00e9titivit\u00e9 ayant des incidences sur l'industrie porcine ont amen\u00e9 la TRCVIP \u00e0 \u00e9laborer et \u00e0 adopter un cadre strat\u00e9gique quinquennal relativement \u00e0 la cha\u00eene de valeur de l'industrie du porc canadienne. Le cadre strat\u00e9gique comporte quatre volets, \u00e0 savoir : l'environnement concurrentiel, la p\u00e9n\u00e9tration des march\u00e9s, l'int\u00e9grit\u00e9 de la cha\u00eene de valeur, ainsi que l'innovation."
        },
        "language": {
            "en": "eng",
            "fr": "fra"
        },
        "keywords": {
            "en": " pork; sectors; roundtables;value chain",
            "fr": " porc; secteurs; tables rondes;cha\u00eenes de valeur"
        },
        "audience": {
            "en": "gcaudience",
            "fr": "gcaudience"
        },
        "type": {
            "en": "meeting material",
            "fr": "documentation de r\u00e9union"
        },
        "creator": {
            "en": "International Policy and Coordination Division;Multilateral Relations;Market and Industry Services Branch;Agriculture and Agri-Food Canada;Government of Canada",
            "fr": "Division de la coordination et des politiques internationales;Relations multilat\u00e9rales;Direction g\u00e9n\u00e9rale des services \u00e0 l'industrie et aux march\u00e9s;Agriculture et agroalimentaire Canada;Gouvernement du Canada"
        },
        "spatial": {
            "en": "gcregions",
            "fr": "gcregions"
        },
        "service": {
            "en": "AAFC-AAC",
            "fr": "AAFC-AAC"
        },
        "accessRights": {
            "en": "2",
            "fr": "2"
        },
        "legalName": {
            "en": "agriculture_and_agri_food_canada",
            "fr": "agriculture_et_agroalimentaire_canada"
        },
        "areaServed": {
            "en": "Canada",
            "fr": "Canada"
        }
    },
    "css": {
        "fr": null
    },
    "js": {
        "en": null,
        "fr": null
    },
    "body": {
        "en": "<!-- D&eacute;but du contenu -->\r\n    <p><a href=\"#roundtable\">Learn more about each roundtable</a></p>\n\n<p>The Canadian pork industry is  world-renowned for its high quality products and superior safety standards. To  maintain an advantage over global competitors, the industry must continue to  offer products that exceed expectations and are second-to-none.  As a collaborative effort between government  and industry the Pork Value Chain Roundtable provides an important platform for  discussing ideas, priorities, solutions and contributes to the success of  Canada's pork industry. Key priorities include:</p>\n\n<ul>\n  <li>industry competitiveness</li>\n  <li>innovation</li>\n  <li>market access</li>\n</ul>\n\n<h2>Contact us</h2>\n\n<p>If you have any questions or would  like more information, please email us at <a href=\"mailto:aafc.roundtable-tableronde.aac@canada.ca\">aafc.roundtable-tableronde.aac@canada.ca</a>.</p>\n\n<h2>Upcoming meeting</h2>\n\n<p>The next Roundtable meeting will take  place in 2020.</p>\n\n<h2>Meeting summary</h2>\n\n<ul>\n  <li><a href=\"?id=1572027040270\">May 8 to 9, 2019</a></li>\n  <li><a href=\"?id=1544110874216\">October 11 to 12, 2018</a></li>\n  <li><a href=\"?id=1530045414834\">May 10 to 11, 2018</a></li>\n  <li><a href=\"?id=1515440973153\">October 18 to 19, 2017</a></li>\n</ul>\n\n<h2>Members</h2>\n\n<h3>Co-chairs</h3>\n<ul>\n  <li>John Ross \u2013 Canadian Pork Council</li>\n  <li>TBD \u2013  Agriculture and Agri-Food Canada</li>\n</ul>\n\n<h3>Industry</h3>\n\n<ul>\n  <li>Martin Waldner \u2013 Alberta Pork</li>\n  <li>Ben Woolley \u2013 Sunterra Farms</li>\n  <li>Melissa Dumont \u2013 Animal Nutrition Association of Canada</li>\n  <li>Neil Ketilson \u2013 Canada Pork  International </li>\n  <li>Brian Sullivan \u2013 Canadian Centre for  Swine Improvement</li>\n  <li>Jorge  Correa \u2013 Canadian Meat Council</li>\n  <li>Jurgen Preugschas \u2013 International  Meat Secretariat</li>\n  <li>Rick Bergmann \u2013 Canadian Pork Council</li>\n  <li>Arnold Drung \u2013 Conestoga Meat Packers</li>\n  <li>Randy Doctoroff \u2013 Costco</li>\n  <li>Vincent Cloutier \u2013 Les \u00e9leveurs de porcs du Qu\u00e9bec</li>\n  <li>Claude Vielfaure \u2013 Manitoba Pork  Council / Hylife</li>\n  <li>Rory McAlpine \u2013 Maple Leaf Foods Inc.</li>\n  <li>Iain Stewart \u2013 Maple Leaf Foods Inc.</li>\n  <li>Tim Faveri \u2013 Maple Leaf Foods Inc.</li>\n  <li>Sylvain Fournaise \u2013 Olymel</li>\n  <li>Eric  Schwindt \u2013 Ontario Pork</li>\n  <li>Luis  Alfonso Londono \u2013 Retail Ready Foods</li>\n  <li>Steward Cressman \u2013 Swine Innovation Porc</li>\n</ul>\n\n<h3>Provincial governments</h3>\n\n<ul>\n  <li>Ron Geitz \u2013 Alberta Agriculture and  Rural Development</li>\n  <li>Carlyle Bennett \u2013 Manitoba Agriculture,  Food and Rural Initiatives</li>\n  <li>Rejeanne  Asselin \u2013 Minist\u00e8re de l'Agriculture, des  P\u00eacheries et de l'Alimentation du Qu\u00e9bec</li>\n  <li>Christoph Wand \u2013 Ontario Ministry of  Agriculture, Food, and Rural Affairs</li>\n  <li>Brad Marceniuk \u2013 Saskatchewan Ministry  of Agriculture</li>\n</ul>\n\n<h3>Federal government</h3>\n\n<ul>\n  <li>Eric Van Bochove \u2013 Agriculture and  Agri-Food Canada</li>\n  <li>Geoff Adams \u2013 Global Affairs Canada</li>\n  <li>Marty Seymoure \u2013 Farm Credit Canada</li>\n</ul>\n\n<h2 id=\"roundtable\">Learn more about each roundtable:</h2> \n\n<ul> \n <li><a href=\"?id=1385752573698\">Agri-Subcommittee on Food Safety</a></li> \n <li><a href=\"?id=1385491202669\">All Chairs Forum</a></li> \n <li><a href=\"?id=1409832956249\">Bee Health</a></li> \n <li><a href=\"?id=1385491900787\">Beef</a></li> \n <li><a href=\"?id=1385742632592\">Food Processing</a></li> \n <li><a href=\"?id=1385582114523\">Grains</a></li> \n <li><a href=\"?id=1385585397604\">Horticulture</a></li>\n <li><a href=\"?id=1385568234264\">Industrial Bioproducts</a></li>\n <li><a href=\"?id=1481809401467\">Neonicotinoids</a></li> \n <li><a href=\"?id=1385666883750\">Organics</a></li> \n <li><a href=\"?id=1385740744721\">Pork</a></li> \n <li><a href=\"?id=1492806638190\">Poultry</a></li> \n <li><a href=\"?id=1385733134280\">Pulses</a></li>\n <li><a href=\"?id=1385755866700\">Seafood</a></li> \n <li><a href=\"?id=1385757253931\">Seed</a></li> \n <li><a href=\"?id=1385758986961\">Sheep</a></li> \n <li><a href=\"?id=1385995694580\">Special Crops</a></li> \n</ul> \n\n\r\n    <!-- Fin du contenu -->",
        "fr": "\r\n    \r\n    <!-- MainContentStart -->\r\n    <!-- D&eacute;but du contenu -->\r\n    <p><a href=\"#roundtable\">Apprenez-en plus sur chaque table ronde</a></p>\n\n<p>L'industrie  porcine canadienne est reconnue mondialement pour la grande qualit\u00e9 de ses  produits et ses normes sup\u00e9rieures de salubrit\u00e9. Afin de conserver l'avantage  dont elle b\u00e9n\u00e9ficie par rapport \u00e0 ses concurrents mondiaux, l'industrie doit  continuer \u00e0 offrir des aliments in\u00e9galables qui d\u00e9passent les attentes de  qualit\u00e9. Effort de collaboration entre le gouvernement et l'industrie, la Table  ronde sur la cha\u00eene de valeur de l'industrie du porc procure une tribune  importante pour l'\u00e9change d'id\u00e9es et la d\u00e9termination des priorit\u00e9s et des  solutions, et elle contribue ainsi au succ\u00e8s de l'industrie porcine du Canada.</p>\n\n<p>Grandes priorit\u00e9s\u00a0:</p>\n\n<ul>\n  <li>comp\u00e9titivit\u00e9  de l'industrie</li>\n  <li>innovation</li>\n  <li>acc\u00e8s aux march\u00e9s</li>\n</ul>\n\n<h2>Contactez-nous</h2>\n\n<p>Si vous avez des questions ou voulez en savoir plus,  veuillez nous envoyer un courriel \u00e0 <a href=\"mailto:aafc.roundtable-tableronde.aac@canada.ca\">aafc.roundtable-tableronde.aac@canada.ca</a>.</p>\n\n<h2>Prochaine r\u00e9union</h2>\n\n<p>La prochaine r\u00e9union de la Table ronde aura lieu en 2020.</p>\n\n<h2>R\u00e9sum\u00e9 des r\u00e9unions</h2>\n\n<ul>\n  <li><a href=\"?id=1572027040270\">8 \u00e0 9 mai 2019</a></li>\n  <li><a href=\"?id=1544110874216\">11 \u00e0 12 octobre 2018</a></li>\n  <li><a href=\"?id=1530045414834\">10 \u00e0 11 mai 2018</a></li>\n  <li><a href=\"?id=1515440973153\">18 \u00e0 19 octobre 2017</a></li>\n  </ul>\n\n<h2>Membres</h2>\n\n<h3>Copr\u00e9sidents</h3>\n<ul>\n  <li>John Ross \u2013 Canada Porc International</li>\n  <li>\u00c0  d\u00e9terminer   \u2013 Agriculture et Agroalimentaire Canada</li>\n</ul>\n\n<h3>Industrie</h3>\n\n<ul>\n  <li>Martin Waldner \u2013 Alberta Pork </li>\n  <li>Ben Woolley \u2013 Sunterra Farms</li>\n  <li>Melissa Dumont  \u2013 Association de nutrition animale du Canada</li>\n  <li>Neil Ketilson \u2013 Canada Porc  International </li>\n  <li>Brian Sullivan  \u2013 Centre canadien pour l'am\u00e9lioration des porcs</li>\n  <li>Jorge  Correa \u2013  Conseil des viandes du Canada</li>\n  <li>Jurgen Preugschas \u2013 International Meat  Secretariat</li>\n  <li>Rick Bergmann \u2013 Canada Porc  International</li>\n  <li>Arnold Drung \u2013 Conestoga Meat Packers </li>\n  <li>Randy Doctoroff \u2013 Costco</li>\n  <li>Vincent Cloutier \u2013 Les \u00e9leveurs de porcs du Qu\u00e9bec</li>\n  <li>Claude Vielfaure \u2013 Manitoba Pork Council/ Hylife</li>\n  <li>Rory McAlpine \u2013 Maple Leaf Food Inc. </li>\n  <li>Iain Stewart \u2013 Maple Leaf Foods Inc. </li>\n  <li>Tim Faveri \u2013 Maple Leaf Foods Inc.</li>\n  <li>Sylvain Fournaise \u2013 Olymel </li>\n  <li>Eric Schwind \u2013 Ontario Pork </li>\n  <li>Luis Alfonso Londono \u2013 Retail Ready Foods </li>\n  <li>Stewart Cressman \u2013 Swine Innovation Porc</li>\n</ul>\n\n<h3>Gouvernements provinciaux</h3>\n\n<ul>\n  <li>Ron Geitz \u2013  Minist\u00e8re de l'Agriculture et du D\u00e9veloppement rural de l'Alberta</li>\n  <li>Carlyle Bennett \u2013 Manitoba Agriculture, Food and Rural Initiatives</li>\n  <li>Rejeanne  Asselin \u2013 Minist\u00e8re de l'Agriculture, des P\u00eacheries et de l'Alimentation du  Qu\u00e9bec  </li>\n  <li>Christoph Wand \u2013 Minist\u00e8re de l'Agriculture, de l'Alimentation et des Affaires rurales de  l'Ontario</li>\n  <li>Brad Marceniuk \u2013 de l'Agriculture de la Saskatchewan</li>\n</ul>\n\n<h3>Gouvernement f\u00e9d\u00e9ral</h3>\n\n<ul>\n  <li>Eric Van Bochove \u2013 Agriculture et Agroalimentaire Canada</li>\n  <li>Geoff Adams \u2013 Affaires mondiales Canada</li>\n  <li>Marty Seymoure \u2013 Financement agricole Canada</li>\n</ul>\n\n<h2 id=\"roundtable\">Apprenez-en plus sur chaque table ronde\u00a0:</h2> \n\n<ul> \n <li><a href=\"?id=1385568234264\">Bioproduits industriels</a></li> \n <li><a href=\"?id=1385491900787\">B\u0153uf</a></li> \n <li><a href=\"?id=1385995694580\">Cultures sp\u00e9ciales</a></li> \n <li><a href=\"?id=1385582114523\">Grains</a></li> \n <li><a href=\"?id=1385585397604\">Horticulture</a></li> \n <li><a href=\"?id=1385733134280\">L\u00e9gumineuses</a></li> \n <li><a href=\"?id=1481809401467\">N\u00e9onicotino\u00efdes</a></li> \n <li><a href=\"?id=1385758986961\">Ovin</a></li> \n <li><a href=\"?id=1385740744721\">Porc</a></li> \n <li><a href=\"?id=1385666883750\">Produits biologiques</a></li> \n <li><a href=\"?id=1385755866700\">Produits de la mer</a></li> \n <li><a href=\"?id=1409832956249\">Sant\u00e9 des abeilles</a></li> \n <li><a href=\"?id=1385757253931\">Semences</a></li> \n <li><a href=\"?id=1385752573698\">Sous-comit\u00e9 sur la salubrit\u00e9 des aliments de l'agriculture et de l'agroalimentaire</a></li> \n <li><a href=\"?id=1385742632592\">Transformation des aliments</a></li> \n <li><a href=\"?id=1385491202669\">Tribune de tous les pr\u00e9sidents</a></li> \n <li><a href=\"?id=1492806638190\">Volaille</a></li> \n</ul> \n\n\r\n    <!-- Fin du contenu -->\r\n\t\r\n\t\r\n\t\r\n  "
    }
}