{
    "dcr_id": "1371491156350",
    "title": {
        "en": "Public Involvement in Watershed Management",
        "fr": "Participation du public \u00e0 la gestion des bassins hydrographiques"
    },
    "modified": "2020-01-24",
    "issued": "2014-07-18",
    "templatetype": "content page 1 column",
    "page_type": "1",
    "node_id": "1400189198893",
    "dc_date_created": "2014-07-18",
    "managing_branch": "PAB",
    "parent_node_id": "1354137773763",
    "label": {
        "en": "Public Involvement in Watershed Management",
        "fr": "Participation du public \u00e0 la gestion des bassins hydrographiques"
    },
    "exturl": "",
    "teamsite_location": {
        "en": "/default/main/AAFC-AAC/Internet-Internet/Common-Commun/WORKAREA/Common-Commun/templatedata/comm-comm/gene-gene/data/06/water-protect_05_mgmt_1371491156350_en",
        "fr": "/default/main/AAFC-AAC/Internet-Internet/Common-Commun/WORKAREA/Common-Commun/templatedata/comm-comm/gene-gene/data/06/water-protect_05_mgmt_1371491156350_fr"
    },
    "type_name": "sitemapinit",
    "has_dcr_id": true,
    "breadcrumb": {
        "en": "Public Involvement in Watershed Management",
        "fr": "Participation du public \u00e0 la gestion des bassins hydrographiques"
    },
    "layout_name": "content page 1 column",
    "lang": "en",
    "meta": {
        "issued": {
            "en": "2014-07-18",
            "fr": "2014-07-18"
        },
        "modified": {
            "en": "2020-01-24",
            "fr": "2020-01-24"
        },
        "format": {
            "en": "text/html",
            "fr": "text/html"
        },
        "title": {
            "en": "Public Involvement in Watershed Management",
            "fr": "Participation du public \u00e0 la gestion des bassins hydrographiques"
        },
        "subject": {
            "en": "water quality;watersheds",
            "fr": "bassin hydrologique;qualit\u00e9 de l'eau"
        },
        "description": {
            "en": "Common Challenges Top 10 Watershed Lessons Common Challenges Common challenges and pitfalls faced by watershed groups include: Timing of funding decisions; Difficulty concerning the carryover of funding to another year; Lack of group funds and in-kind contributions; Limited volunteer and agency staff time and; The health of the farm economy as it relates to the adoption rate of BMPs.",
            "fr": "Difficult\u00e9s communes Dix principales le\u00e7ons apprises sur les bassins hydrographiques Difficult\u00e9s communes Voici quelques embuches et difficult\u00e9s communes auxquelles les groupes de protection de bassins hydrographiques font face : moment de la prise des d\u00e9cisions relatives au financement; difficult\u00e9 concernant le report de fonds d'un exercice \u00e0 l'autre; manque de fonds de groupe et de contributions en nature; temps limit\u00e9 des b\u00e9n\u00e9voles et du personnel d'agence; sant\u00e9 de l'\u00e9conomie agricole par rapport aux taux d'adoption des PGB."
        },
        "language": {
            "en": "eng",
            "fr": "fra"
        },
        "keywords": {
            "en": "A sense of mutual success;solving problems;in-kind contributions;community-based approach;watershed plan",
            "fr": "approche communautaire;membres du conseil d'administration;principales le\u00e7ons;Planification communautaire;suivi des mesures"
        },
        "audience": {
            "en": "gcaudience",
            "fr": "gcaudience"
        },
        "type": {
            "en": "resource list",
            "fr": "liste de r\u00e9f\u00e9rence"
        },
        "creator": {
            "en": "Agriculture and Agri-Food Canada;Government of Canada",
            "fr": "Agriculture et Agroalimentaire Canada;Gouvernement du Canada"
        },
        "spatial": {
            "en": "gcregions",
            "fr": "gcregions"
        },
        "service": {
            "en": "AAFC-AAC",
            "fr": "AAFC-AAC"
        },
        "accessRights": {
            "en": "2",
            "fr": "2"
        },
        "legalName": {
            "en": "agriculture_and_agri_food_canada",
            "fr": "agriculture_et_agroalimentaire_canada"
        },
        "areaServed": {
            "en": "Canada",
            "fr": "Canada"
        }
    },
    "css": {
        "fr": null
    },
    "js": {
        "en": null,
        "fr": null
    },
    "body": {
        "en": "<!-- D&eacute;but du contenu -->\r\n    <p>On this page:</p>\n\n<nav>\n<ul>\n<li><a href=\"#a1\">Community-based Planning</a></li>\n<li><a href=\"#a2\">Forming a Group</a></li>\n<li><a href=\"#a3\">The Planning Process</a></li>\n<li><a href=\"#a4\">Fundraising</a></li>\n</ul>\n</nav>\n\n<p>Watershed management can be defined as the control, enhancement, or restoration of watershed functions. Effective watershed management results in both a healthy environment and a healthy economy. This module will illustrate why this work is important, how groups can form around an issue, how these groups function and how planning can focus efforts and lead to action. </p>\n\n\n<h2 id=\"a1\">Community-Based Planning</h2>\n\n<p>Watershed groups can help create meaningful, relevant programs, projects, and practices. A community-based approach is aimed at reducing non-point source pollution and the destruction of aquatic habitat from land-use activities through the efforts of the local community. It is a community that consists of local stakeholders working together with government and other agencies that have an interest in the watershed. </p>\n\n<p>The principles of community-based watershed management are:</p>\n\n<ul>\n<li>First, collaboration. Community-based watershed management requires a collaborative effort of local stakeholders and agencies;</li>\n<li>Second, a whole system approach. Effective management has to consider the environment, society, and the economy;</li>\n<li>Third, any effort has to feature the integration of scientific information and social values;</li>\n<li>And finally adaptive management. The group has to be able to learn from experience and respond to change.</li>\n</ul>\n\n<p>Why take a community-based approach? Partnerships can provide:</p>\n\n<ul>\n<li>Shared financial resources;</li>\n<li>A spirit of cooperation and fairness;</li>\n<li>A sense of mutual success that reduces negativity;</li>\n<li>A focus on practices that are economically viable, socially acceptable and environmentally sound;</li>\n<li>More creativity in solving problems.</li>\n</ul>\n\n<p>Even within community groups, people have difficulty discovering the right balance of process and results. We need measurable results to learn from and to highlight success. What is the right mix of participation and results?</p>\n\n<p>To strive for consensus on a course of action within a large and diverse group is often difficult and time-consuming. The participatory process may stimulate conflict as opposing interests are exposed. There is a need to link planning to action. In other words, there has to be a point to the process.</p>\n\n<p>That being said, process is important because </p>\n\n<ul>\n<li>People who participate in making decisions are more willing to act when it comes to solving problems;</li>\n<li>People given good information in a forum where they can discuss their problems can come up with workable solutions. </li>\n</ul>\n\n<p>To better understand the watershed, an inventory is conducted and this information is analyzed. The inventory and analysis form the basis for a watershed plan, which can include recommendations and guidelines to help decision makers. A watershed plan can also offer the group a path forward to help restore the watershed. </p>\n\n<p>The inventory, analysis, and planning can be used to educate and inform people. </p>\n\n<p>Monitoring and evaluation of results will allow the group to understand if conditions are stable, degrading, or improving. Actions are then implemented at the local level\u00a0- for example, the completion of an environmental farm plan and the implementation of beneficial management practices (BMPs).</p>\n\n<p>Over time, the watershed plan is reevaluated to determine whether it remains current. As new information becomes available through monitoring and evaluation, it may be necessary to update the plan so that it represents changing conditions.</p>\n\n\n<figure>\n<figcaption><b>Representation of Watershed Planning Process</b></figcaption><br>\n<img class=\"mrgn-bttm-md\" src=\"https://www.agr.gc.ca/resources/prod/img/env/water/monitoring_figure4-eng.gif\" alt=\"Description of this chart follows.\">\n<details>\n<summary>Description of the chart above</summary>\n<p>Chart showing the watershed management planning process in which landowners organize first, then identify the problem, then set goals, then perform an inventory and analysis of the watershed, then simultaneously develop a watershed plan, educate and inform the public in the area, monitor and evaluate the watershed, create a farm plan and implement it.</p>\n</details>\n</figure>\n\n\n<h2 id=\"a2\">Forming a Group</h2>\n\n<p>A group usually forms around an issue. This issue may be water quality in general, or perhaps algae blooms in a nearby lake or it may be a falling water table affecting well water supplies.</p>\n\n<p>When people come together around an issue, they need to find common ground and direction. They need to involve the right people from the community. The group will select its own leader from within. The group will establish its own ground rules, but getting off to a good start and being positive, is crucial to success.</p>\n\n<p>In the initial meetings, the group needs to build a common purpose and state it clearly. Goals need to be established to help the group achieve its purpose. Reasonable time frames need to be agreed upon and then followed. The group can learn what has worked in the past and what hasn't from other groups addressing similar issues. </p>\n\n<p>There are various participant roles available in the group: leadership, coordination, a secretary, a treasurer, and members at large. The group may decide to establish a board and committees. </p>\n\n<p>Board members fulfill a range of coordination functions. A chairperson provides overall leadership. A secretary records the minutes and action items and files correspondence. A treasurer tracks expenditures and receipts. </p>\n\n<p>Committees are a way to spread the work around so that goals are achieved. Board directors may serve as committee chairs. Typical committees may include finance, education, communications, fundraising, demonstrations, and tours.</p>\n\n<p>A coordinator is something like a chief executive officer (CEO). It could be a volunteer position, but some groups hire a part-time or full-time staff person. The coordinator is focused on the watershed, maintains contact with the members and provides liaison with other interested parties. A group in its infancy may need a year or two before it is ready for a coordinator and smaller watershed groups may decide they don't need one at all.</p>\n\n<p>The duties of a coordinator may include:</p>\n\n<ul>\n<li>Calling, facilitating, and summing up meetings;</li>\n<li>Helping to secure funds and training;</li>\n<li>Keeping track of action items;</li>\n<li>Tracking budget items;</li>\n<li>Staying on top of application and reporting deadlines;</li>\n<li>Keeping the momentum of the watershed group moving forward.</li>\n</ul>\n\n\n\n<h2 id=\"a3\">The Planning Process</h2>\n\n<p>Forming a coherent volunteer group is a difficult process. Unfortunately, the hard part is not over once the group has begun to work together. Coordinating the work of many volunteers presents challenges that can be different and sometimes much more difficult to overcome than those in a paid workplace. Careful planning is essential to the effectiveness and longevity of a volunteer group.</p>\n\n\n\n<h2 id=\"a4\">Fundraising</h2>\n\n<p>Funding is absolutely necessary to help a volunteer group reach its goals. Funds may be needed to pay for:</p>\n\n<ul>\n<li>coordinating;</li>\n<li>for assessing watershed health \u2013 for example, water quality testing and riparian health assessments;</li>\n<li>for hosting tours, including bus rental and lunch costs; </li>\n<li>for producing brochures and newsletters, including printing costs;</li>\n<li>for demonstrating BMP;</li>\n<li>for assisting with BMP adoption. </li>\n</ul>\n\n<div><figure>\n<p><img src=\"https://www.agr.gc.ca/resources/prod/img/env/water/monitoring_photo1-eng.jpg\" alt=\"People launching boats into a river.\"></p>\n</figure></div>\n\n\n<p>Funding sources may be public or private. Government funding usually requires matching funds or in-kind contributions from participants or other partners. Funding from private sources, or money the group raises itself at events like raffles, auctions or socials, usually has no, or at least fewer, strings attached. </p>\n\n<p>Fundraising from outside sources requires a sound and persuasive proposal. You should include an executive summary, describe your organization and details of the proposed project, outline the budget, and state your need for support. You should end your presentation with a compelling conclusion.</p>\n\n<p>It's been said that success is its own reward, but for group morale, recognizing successes might be just as important. An annual celebration combined with the yearly general meeting, or a tour where people can see the progress that's been made are great ways to motivate current members, recruit new ones and possibly raise money. Just remember-whatever you do, keep it fun! </p>\n\n<nav>\n<ul>\n<li><a href=\"#a6\">Common Challenges</a></li>\n<li><a href=\"#a7\">Top 10 Watershed Lessons</a></li>\n</ul>\n</nav>\n\n\n<h3 id=\"a6\">Common Challenges</h3>\n\n<p>Common challenges and pitfalls faced by watershed groups include:</p>\n\n<ul>\n<li>Timing of funding decisions;</li>\n<li>Difficulty concerning the carryover of funding to another year;</li>\n<li>Lack of group funds and in-kind contributions;</li>\n<li>Limited volunteer and agency staff time;</li>\n<li>The health of the farm economy as it relates to the adoption rate of BMPs.</li>\n</ul>\n\n<p>The watershed group should be made aware of each of these challenges and a plan to address each of these potential and common issues should be developed in the event that they occur.</p>\n\n\n\n<h3 id=\"a7\">Top 10 Watershed Lessons</h3>\n\n<p>The top 10 watershed lessons learned by watershed groups, as reported by the United States Environmental Protection Agency (for encouragement) are:</p>\n\n<ul>\n<li>Clear visions</li>\n<li>Good leaders</li>\n<li>Coordinators</li>\n<li>Compatible needs</li>\n<li>Implementation of their plan</li>\n<li>Partnerships</li>\n<li>Good tools</li>\n<li>Measuring progress</li>\n<li>Involvement</li>\n<li>Small successes</li>\n</ul>\n\n\n\r\n    <!-- Fin du contenu -->",
        "fr": "\r\n    \r\n    <!-- MainContentStart -->\r\n    <!-- D&eacute;but du contenu -->\r\n    <p>Sur cette page\u00a0:</p>\n\n<nav>\n<ul>\n<li><a href=\"#a1\">Planification communautaire</a></li>\n<li><a href=\"#a2\">Former un groupe</a></li>\n<li><a href=\"#a3\">Le processus de planification</a></li>\n<li><a href=\"#a4\">Collecter des fonds</a></li>\n</ul>\n</nav>\n\n<p>La gestion des bassins hydrographiques se d\u00e9finit par le contr\u00f4le, l'am\u00e9lioration et la restauration des fonctions des bassins hydrographiques. La gestion efficace des bassins hydrographiques entraine un environnement sain et une \u00e9conomie solide. Ce module illustre l'importance de ce travail, la fa\u00e7on dont un groupe peut \u00eatre cr\u00e9\u00e9 pour un probl\u00e8me particulier, la fa\u00e7on dont ces groupes fonctionnent et la fa\u00e7on dont la planification peuvent concentrer les efforts et mener \u00e0 l'action. </p>\n\n\n<h2 id=\"a1\">Planification communautaire</h2>\n\n<p>Les groupes de bassin versant peuvent aider \u00e0 mettre au point des programmes, des projets et des pratiques utiles. L'approche communautaire vise \u00e0 r\u00e9duire la pollution diffuse et la destruction de l'habitat aquatique caus\u00e9e par les activit\u00e9s d'utilisation des terres gr\u00e2ce \u00e0 la mobilisation de la communaut\u00e9 locale. Une communaut\u00e9 au sein de laquelle les intervenants locaux collaborent avec des organismes gouvernementaux et autres qui s'int\u00e9ressent au bassin versant.</p>\n\n<p>Les principes de la gestion communautaire du bassin versant sont\u00a0:</p>\n\n<ul>\n<li>Premi\u00e8rement, la collaboration. La gestion communautaire exige la collaboration des intervenants et des organismes locaux;</li>\n<li>Deuxi\u00e8mement, une approche globale. Il faut tenir compte de l'environnement, de la soci\u00e9t\u00e9 et de l'\u00e9conomie;</li>\n<li>Troisi\u00e8mement, l'int\u00e9gration de l'information scientifique et des valeurs sociales;</li>\n<li>Et enfin, la gestion adaptative. Le groupe doit \u00eatre capable d'apprendre de ses exp\u00e9riences et de r\u00e9agir au changement.</li>\n</ul>\n\n<p>Pourquoi adopter une approche communautaire? Les partenariats procurent divers avantages\u00a0:</p>\n\n<ul>\n<li>la mise en commun des ressources financi\u00e8res;</li>\n<li>l'instauration d'un climat de coop\u00e9ration et d'\u00e9quit\u00e9; </li>\n<li>le renforcement positif et le soutien mutuel;</li>\n<li>l'accent mis sur des pratiques \u00e9conomiquement viables, socialement acceptables et respectueuses de l'environnement;</li>\n<li>une plus grande cr\u00e9ativit\u00e9 dans la r\u00e9solution des probl\u00e8mes.</li>\n</ul>\n\n<p>M\u00eame \u00e0 l'int\u00e9rieur des groupes communautaires, il est difficile de trouver le juste \u00e9quilibre entre le processus et les r\u00e9sultats. Il faut obtenir des r\u00e9sultats mesurables afin de tirer des le\u00e7ons et de souligner les r\u00e9ussites. Quel est le bon \u00e9quilibre entre la participation et l'obtention de r\u00e9sultats?</p>\n\n<p>La recherche d'un consensus au sein d'un groupe nombreux et diversifi\u00e9 est souvent ardue et co\u00fbteuse en temps. Le processus participatif peut exacerber les diff\u00e9rends. La planification et l'action doivent aller de pair. En d'autres mots, le processus doit aboutir.</p>\n\n<p>Cela dit, la participation est importante pour deux raisons\u00a0:</p>\n\n<ul>\n<li>Les personnes qui participent \u00e0 la prise de d\u00e9cision sont plus enclines \u00e0 agir pour r\u00e9gler les probl\u00e8mes;</li>\n<li>Les personnes bien renseign\u00e9es peuvent trouver des solutions int\u00e9ressantes.</li>\n</ul>\n\n<p>Pour mieux comprendre le bassin versant, un inventaire est r\u00e9alis\u00e9 et l'information est analys\u00e9e. L'inventaire et l'analyse constituent la pierre angulaire d'un plan de bassin versant, qui peut inclure des recommandations et des directives pour aider les d\u00e9cideurs. Un plan de bassin versant peut \u00e9galement guider le groupe et l'aider \u00e0 mettre en place des mesures de restauration.</p>\n\n<p>L'inventaire, l'analyse et la planification peuvent servir \u00e0 \u00e9duquer et informer la population.</p>\n\n<p>Le suivi et l'\u00e9valuation des r\u00e9sultats permettront au groupe de savoir si la situation est stable, se d\u00e9grade ou s'am\u00e9liore. Des mesures sont ensuite mises en \u0153uvre \u00e0 l'\u00e9chelle locale\u00a0: il peut s'agit de l'\u00e9laboration d'un plan agroenvironnemental et de la mise en \u0153uvre de pratiques de gestion b\u00e9n\u00e9fiques (PGB).</p>\n\n<p>Apr\u00e8s un certain temps, on r\u00e9\u00e9value le plan de bassin versant afin de d\u00e9terminer s'il est \u00e0 jour. \u00c0 mesure que  le suivi et l'\u00e9valuation produiront de nouvelles informations, il faudra peut-\u00eatre mettre \u00e0 jour le plan pour qu'il refl\u00e8te les conditions r\u00e9elles. </p>\n\n<figure>\n<figcaption><b>Diagramme illustrant le processus de planification<br> de la gestion des bassins hydrographiques</b></figcaption><br>\n<img class=\"mrgn-bttm-md\" src=\"https://www.agr.gc.ca/resources/prod/img/env/water/monitoring_figure4a-fra.jpg\" alt=\"Description du diagramme suit.\">\n<details>\n<summary>Description du diagramme ci-dessus</summary>\n<p>Diagramme illustrant le processus de planification de la gestion des bassins hydrographiques dans le cadre duquel les propri\u00e9taires fonciers commencent par s\u2019organiser, passent ensuite \u00e0 la d\u00e9termination du probl\u00e8me, \u00e0 l\u2019\u00e9tablissement des objectifs, \u00e0 l\u2019inventaire et l\u2019analyse du bassin hydrographique, avant de s\u2019occuper simultan\u00e9ment de l\u2019\u00e9tablissement d\u2019un plan, de l\u2019\u00e9ducation et de l\u2019information du public dans la r\u00e9gion, de la surveillance et de l\u2019\u00e9valuation du bassin, puis de la cr\u00e9ation et de la mise en \u0153uvre d\u2019un plan agricole.</p>\n</details>\n</figure>\n\n<h2 id=\"a2\">Former un groupe</h2>\n\n<p>Un groupe est habituellement form\u00e9 pour s'occuper d'un probl\u00e8me. Il peut s'agit d'un probl\u00e8me de qualit\u00e9 de l'eau en g\u00e9n\u00e9ral, de la prolif\u00e9ration d'algues dans un lac \u00e0 proximit\u00e9 ou de l'abaissement de la nappe aquif\u00e8re qui alimente les puits.</p>\n\n<p>Lorsque plusieurs personnes se mobilisent en vue de r\u00e9gler un probl\u00e8me, elles doivent trouver des int\u00e9r\u00eats et des buts communs, demander aux bonnes personnes de la communaut\u00e9 de participer et d\u00e9signer un chef. Le groupe \u00e9tablira ses propres r\u00e8gles de base, mais il est primordial de partir du bon pied.</p>\n\n<p>Au cours des rencontres pr\u00e9liminaires, le groupe doit d\u00e9finir un but commun et l'\u00e9noncer clairement. Il doit \u00e9galement fixer des objectifs, convenir d'\u00e9ch\u00e9anciers r\u00e9alistes et les respecter. Le groupe peut mettre \u00e0 profit l'exp\u00e9rience d'autres groupes confront\u00e9s \u00e0 des probl\u00e8mes similaires.</p>\n\n<p>Les participants peuvent remplir divers r\u00f4les\u00a0: animateur, coordonnateur, secr\u00e9taire, tr\u00e9sorier et membres en g\u00e9n\u00e9ral. Le groupe peut nommer un conseil d'administration et \u00e9tablir des comit\u00e9s.</p>\n\n<p>Les membres du conseil d'administration remplissent diverses fonctions de coordination. Le pr\u00e9sident assure la direction g\u00e9n\u00e9rale. Le secr\u00e9taire r\u00e9dige les comptes rendus, assure le suivi des mesures \u00e0 prendre et classe la correspondance. Le tr\u00e9sorier comptabilise les d\u00e9penses et les rentr\u00e9es de fonds.</p>\n\n<p>La cr\u00e9ation de comit\u00e9s permet de r\u00e9partir la charge de travail de mani\u00e8re \u00e0 ce que les objectifs qui ont \u00e9t\u00e9 fix\u00e9s soient atteints. Les comit\u00e9s peuvent \u00eatre pr\u00e9sid\u00e9s par des membres du conseil d'administration. Ils s'occupent habituellement des questions suivantes\u00a0: finances, \u00e9ducation, communications, collecte de fonds, d\u00e9monstrations et visites.</p>\n\n<p>Un coordonnateur est un peu comme un pr\u00e9sident-directeur g\u00e9n\u00e9ral (PDG). Il peut s'agit d'un b\u00e9n\u00e9vole, mais certains groupes embauchent un employ\u00e9 \u00e0 temps partiel ou \u00e0 temps plein. Le coordonnateur met l'accent sur le bassin versant, maintient le contact avec les membres et assure la liaison avec d'autres parties int\u00e9ress\u00e9es. Un an ou deux peuvent s'\u00e9couler avant qu'un groupe nouvellement form\u00e9 ait la maturit\u00e9 voulue pour nommer un coordonnateur; parfois, des groupes de bassin versant plus restreints d\u00e9cideront qu'ils n'en ont pas besoin.</p>\n\n<p>Le coordonnateur s'acquitte de diff\u00e9rentes t\u00e2ches\u00a0:</p>\n\n<ul>\n<li>il convoque et anime les r\u00e9unions et en fait le r\u00e9sum\u00e9;</li>\n<li>il aide \u00e0 collecter des fonds et \u00e0 assurer la formation;</li>\n<li>il fait le suivi des mesures \u00e0 prendre;</li>\n<li>il fait le suivi des postes budg\u00e9taires;</li>\n<li>il voit au respect des d\u00e9lais;</li>\n<li>il maintient l'\u00e9lan.</li>\n</ul>\n\n\n\n<h2 id=\"a3\">Le processus de planification</h2>\n\n<p>La cr\u00e9ation d'un groupe de b\u00e9n\u00e9voles coh\u00e9rent est un processus difficile. Malheureusement, la partie difficile n'est pas finie lorsque le groupe commence \u00e0 travailler ensemble. La coordination des travaux d'un grand nombre de b\u00e9n\u00e9voles pr\u00e9sente diff\u00e9rentes difficult\u00e9s qui peuvent \u00eatre plus difficiles \u00e0 surmonter que celles dans le milieu de travail. La planification soigneuse est essentielle pour assurer l'efficacit\u00e9 et la long\u00e9vit\u00e9 d'un groupe de b\u00e9n\u00e9voles.</p>\n\n\n\n<h2 id=\"a4\">Collecter des fonds</h2>\n\n<p>Un financement est absolument n\u00e9cessaire pour aider les groupes de b\u00e9n\u00e9voles \u00e0 atteindre leurs objectifs. Il peut s'av\u00e9rer n\u00e9cessaire pour\u00a0:</p>\n\n<ul>\n<li>coordonner des initiatives;</li>\n<li>\u00e9valuer l'\u00e9tat du bassin versant \u2013 par exemple, analyser des \u00e9chantillons d'eau et \u00e9valuer l'\u00e9tat des zones riveraines;</li>\n<li>organiser des visites, y compris louer des autobus et payer pour les collations;</li>\n<li>publier des brochures et des bulletins, y compris les co\u00fbts d'impression;</li>\n<li>faire la d\u00e9monstration de PGB;</li>\n<li>faciliter l'adoption de PGB.</li>\n</ul>\n\n<div><figure>\n<p><img src=\"https://www.agr.gc.ca/resources/prod/img/env/water/monitoring_photo1-fra.jpg\" alt=\"Des gens mettent des bateaux \u00e0 l'eau sur une rivi\u00e8re.\"></p>\n</figure></div>\n\n<p>Les sources de financement peuvent \u00eatre publiques ou priv\u00e9es. Lorsque le financement est public, des fonds de contrepartie ou des contributions en nature sont habituellement exig\u00e9s des participants ou d'autres partenaires. Lorsque le financement est priv\u00e9 ou que le groupe s'autofinance, par exemple par des loteries, des ventes aux ench\u00e8res ou des activit\u00e9s sociales, aucune condition n'est assortie ou, s'il y en a, elles sont moins nombreuses.</p>\n\n<p>Pour obtenir des fonds de sources ext\u00e9rieures, vous devez pr\u00e9senter une proposition convaincante et juste. Vous devriez inclure un r\u00e9sum\u00e9, d\u00e9crire votre organisation et le projet, donner un aper\u00e7u des co\u00fbts, d\u00e9finir vos besoins et terminer votre pr\u00e9sentation par une conclusion. La Direction g\u00e9n\u00e9rale des services agroenvironnementaux et d'autres organismes peuvent vous aider \u00e0 r\u00e9diger votre proposition.</p>\n\n<p>On dit que le succ\u00e8s est autogratifiant, mais c\u00e9l\u00e9brer les r\u00e9ussites peut s'av\u00e9rer tout aussi important. Une c\u00e9l\u00e9bration \u00e0 l'occasion de l'assembl\u00e9e g\u00e9n\u00e9rale annuelle ou une visite au cours de laquelle les visiteurs peuvent constater les progr\u00e8s r\u00e9alis\u00e9s sont d'excellentes fa\u00e7ons de motiver les membres, d'en recruter de nouveaux et, peut-\u00eatre, de recueillir des fonds. Mais rappelez-vous\u00a0- quoique vous fassiez, amusez-vous!</p>\n\n<nav>\n<ul>\n<li><a href=\"#a6\">Difficult\u00e9s communes</a></li>\n<li><a href=\"#a7\">Dix principales le\u00e7ons apprises sur les bassins hydrographiques</a></li>\n</ul>\n</nav>\n\n\n<h3 id=\"a6\">Difficult\u00e9s communes</h3>\n\n<p>Voici quelques embuches et difficult\u00e9s communes auxquelles les groupes de protection de bassins hydrographiques font face\u00a0:</p>\n\n<ul>\n<li>moment de la prise des d\u00e9cisions relatives au financement;</li>\n<li>difficult\u00e9 concernant le report de fonds d'un exercice \u00e0 l'autre;</li>\n<li>manque de fonds de groupe et de contributions en nature;</li>\n<li>temps limit\u00e9 des b\u00e9n\u00e9voles et du personnel d'agence;</li>\n<li>sant\u00e9 de l'\u00e9conomie agricole par rapport aux taux d'adoption des PGB.</li>\n</ul>\n\n<p>Le groupe de protection de bassins hydrographiques doit \u00eatre conscient de ces difficult\u00e9s et pr\u00e9voir des mesures pour aborder chacun de ces probl\u00e8mes \u00e9ventuels et communs au cas o\u00f9 ils se produiraient.</p>\n\n\n\n<h3 id=\"a7\">Dix principales le\u00e7ons apprises sur les bassins hydrographiques</h3>\n\n<p>Les dix principales le\u00e7ons apprises par les groupes de protection de bassins hydrographiques, selon la <span lang=\"en-ca\" xml:lang=\"en-ca\">United States Environmental Protection Agency</span> (aux fins d'encouragement) sont les suivantes\u00a0:</p>\n\n<ul>\n<li>visions claires</li>\n<li>bons dirigeants</li>\n<li>coordonnateurs</li>\n<li>besoins compatibles</li>\n<li>mise en \u0153uvre du plan</li>\n<li>partenariats</li>\n<li>bons outils</li>\n<li>\u00e9valuation des progr\u00e8s</li>\n<li>participation</li>\n<li>petites r\u00e9ussites</li>\n</ul>\n\n\n\r\n    <!-- Fin du contenu -->\r\n\t\r\n\t\r\n\t\r\n  "
    }
}