{
    "dcr_id": "1415860000122",
    "title": {
        "en": "Livestock meat associations",
        "fr": "Associations du secteur de la viande et du b\u00e9tail"
    },
    "modified": "2020-11-10",
    "issued": "2013-02-07",
    "templatetype": "content page 1 column",
    "page_type": "1",
    "node_id": "1415863600025",
    "dc_date_created": "2013-02-07",
    "managing_branch": "MISB",
    "parent_node_id": "1354137773862",
    "label": {
        "en": "Associations",
        "fr": "Associations"
    },
    "exturl": "",
    "teamsite_location": {
        "en": "/default/main/AAFC-AAC/Internet-Internet/MISB-DGSIM/SDAD-DDAS/RML-VRB/WORKAREA/RML-VRB/templatedata/comm-comm/gene-gene/data/associations_1415860000122_en",
        "fr": "/default/main/AAFC-AAC/Internet-Internet/MISB-DGSIM/SDAD-DDAS/RML-VRB/WORKAREA/RML-VRB/templatedata/comm-comm/gene-gene/data/associations_1415860000122_fr"
    },
    "type_name": "sitemapinit",
    "has_dcr_id": true,
    "breadcrumb": {
        "en": "Associations",
        "fr": "Associations"
    },
    "layout_name": "content page 1 column",
    "lang": "en",
    "meta": {
        "issued": {
            "en": "2013-02-07",
            "fr": "2013-02-07"
        },
        "modified": {
            "en": "2020-11-10",
            "fr": "2020-11-10"
        },
        "format": {
            "en": "gcformat",
            "fr": "gcformat"
        },
        "title": {
            "en": "Livestock meat associations",
            "fr": "Associations du secteur de la viande et du b\u00e9tail"
        },
        "subject": {
            "en": "architecture;consultations;livestock",
            "fr": "industrie laiti\u00e8re;aliment;alimentation animale"
        },
        "description": {
            "en": "Red Meat Associations",
            "fr": "Associations de l'industrie de la viande rouge"
        },
        "language": {
            "en": "eng",
            "fr": "fra"
        },
        "keywords": {
            "en": "Alpaca",
            "fr": "Llama;Hippique;Alpaca"
        },
        "audience": {
            "en": "gcaudience",
            "fr": "gcaudience"
        },
        "type": {
            "en": "presentation",
            "fr": "fiche de renseignements"
        },
        "creator": {
            "en": "Agriculture and Agri-Food Canada;Red Meat Associations",
            "fr": "Agriculture et Agroalimentaire Canada;Associations de l'industrie de la viande rouge"
        },
        "spatial": {
            "en": "gcregions",
            "fr": "gcregions"
        },
        "service": {
            "en": "AAFC-AAC",
            "fr": "AAFC-AAC"
        },
        "accessRights": {
            "en": "2",
            "fr": "2"
        },
        "legalName": {
            "en": "agriculture_and_agri_food_canada",
            "fr": "agriculture_et_agroalimentaire_canada"
        },
        "areaServed": {
            "en": "Canada",
            "fr": "Canada"
        }
    },
    "css": {
        "fr": null
    },
    "js": {
        "en": null,
        "fr": null
    },
    "body": {
        "en": "<!-- D&eacute;but du contenu -->\r\n    <!-- Start content -->             <!-- InstanceBeginEditable name=\"ContentTitle\" -->                        <!-- InstanceEndEditable --> <!-- InstanceBeginEditable name=\"Content\" -->            \n<section>\n<h2>Cattle / Beef</h2>\n<ul class=\"list-unstyled mrgn-lft-lg\">\n<li><a href=\"http://www.cattle.ca/\" rel=\"external\">Canadian Cattlemen's Association</a></li>\n<li><a href=\"https://canadabeef.ca/national-check-off/\" rel=\"external\">Canadian Beef Cattle Check-Off</a></li>\n<li><a href=\"http://www.canadianbeefbreeds.com\" rel=\"external\">Canadian Beef Breeds Council</a></li>\n</ul>\n</section>\n<section>\n<h2>Hog / Pork</h2>\n<ul class=\"list-unstyled mrgn-lft-lg\">\n<li><a href=\"http://www.cpc-ccp.com/\" rel=\"external\">Canadian Pork Council</a></li>\n<li><a href=\"http://www.canadapork.com/\" rel=\"external\">Canada Pork</a></li>\n<li><a href=\"http://www.canadianswine.com/\" rel=\"external\">The Canadian Swine Exporters Association</a></li>\n<li><a href=\"http://www.canswine.ca/\" rel=\"external\">Canadian Swine Breeders Association</a></li>\n<li><a href=\"http://www.swineinnovationporc.ca/\" title=\"External link to Swine Innovation Porc\" rel=\"external\">Swine Innovation Porc</a></li>\n<li><a href=\"http://www.ccsi.ca/\" title=\"External link to Canadian Centre for Swine Improvement\" rel=\"external\">Canadian Centre for Swine Improvement</a></li>\n</ul>\n</section>\n<section>\n<h2>Meat</h2>\n<ul class=\"list-unstyled mrgn-lft-lg\">\n<li><a href=\"http://www.cmc-cvc.com/\" rel=\"external\">Canadian Meat Council</a></li>\n</ul>\n</section>\n<section>\n<h2>Sheep</h2>\n<ul class=\"list-unstyled mrgn-lft-lg\">\n<li><a href=\"http://www.cansheep.ca/\" rel=\"external\">Canadian Sheep Federation</a></li>\n<li><a href=\"http://sheepbreeders.ca/\" rel=\"external\">Canadian Sheep Breeders' Association</a></li>\n<li><a href=\"http://www.wool.ca/\" rel=\"external\">Canadian Co-operative Wool Growers Limited </a></li>\n</ul>\n</section>\n<section>\n<h2>Goat</h2>\n<ul class=\"list-unstyled mrgn-lft-lg\">\n<li><a href=\"http://canadianmeatgoat.com/index.php/site\" rel=\"external\">Canadian Meat Goat Association</a></li>\n</ul>\n</section>\n<section>\n<h2>Other livestock</h2>\n<ul class=\"list-unstyled mrgn-lft-lg\">\n<li><a href=\"http://www.clrc.ca/index2010.shtml\" rel=\"external\">The Canadian Livestock Records Corporation (C.L.R.C.)</a></li>\n<li><a href=\"http://www.canadianbison.ca/\" rel=\"external\">Canadian Bison Association</a></li>\n<li><a href=\"http://www5.agr.gc.ca/eng/industry-markets-and-trade/statistics-and-market-information/by-product-sector/animal-genetics/animal-pedigree-act/incorporated-breed-associations/?id=1382649715171\" rel=\"external\">Incorporated Breed Associations</a></li>\n<li><a href=\"http://www.llamacanada.com/\" rel=\"external\">Llama Canada</a></li>\n<li><a href=\"http://www.alpacainfo.ca/\" rel=\"external\">Alpaca Canada</a></li>\n<li><a href=\"http://www.equinecanada.ca/index.php?option=com_content&amp;Itemid=106&amp;lang=en&amp;view=frontpage\" rel=\"external\">Equine Canada</a></li>\n<li><a href=\"http://www.clivegen.org/default.aspx\" rel=\"external\">Canadian Livestock Genetics Association</a></li>\n<li><a href=\"http://www.webtext.ca/canadamink.ca/\" rel=\"external\">Canada Mink Breeders Association</a></li>\n<li><a href=\"http://www.nafa.ca/\" rel=\"external\">North American Fur Auctions (NAFA)</a></li>\n<li><a rel=\"external\" title=\"External link to the Canadian Cervid Alliance website\" href=\"https://www.canadiancervid.com/%20\">Canadian Cervid Alliance</a></li>\n</ul>\n</section>\n<div class=\"clearfix\"></div>\n<p>\u00a0</p>\n<div class=\"well\">\n<p>If you have any questions or require additional information, please send an e-mail to <a title=\"Email: Animal Industry Division - Market Information Section\" href=\"mailto:aafc.redmeat-vianderouge.aac@canada.ca\"> aafc.redmeat-vianderouge.aac@canada.ca</a></p>\n<h2>Our service standards</h2>\n<p>Service standards play a vital role in our market information program\u2019s commitment to planning, reporting and performance management. \nThey clearly define the level of service that clients can expect under normal circumstances.</p>\n<p>View the <a title=\"Service standards for red meat and livestock reports\" href=\"http://www.agr.gc.ca/eng/industry-markets-and-trade/statistics-and-market-information/by-product-sector/red-meat-and-livestock/?id=1480968240072\">Service standards for red meat and livestock reports.</a></p>\n</div>\n<div class=\"clearfix\"></div>\n<!-- InstanceEndEditable -->             <!-- End content -->\n\r\n    <!-- Fin du contenu -->",
        "fr": "\r\n    \r\n    <!-- MainContentStart -->\r\n    <!-- D&eacute;but du contenu -->\r\n    <!-- D&eacute;but du contenu --><!-- InstanceBeginEditable name=\"ContentTitle\" -->                        <!-- InstanceEndEditable -->                    <!-- InstanceBeginEditable name=\"Content\" -->            <section>\n<h2>B\u00e9tail / boeuf</h2>\n<ul class=\"list-unstyled mrgn-lft-lg\">\n<li><a rel=\"external\" href=\"http://www.cattle.ca/\">Association canadienne des \u00e9leveurs de bovins</a> (en anglais seulement)</li>\n<li><a rel=\"external\" href=\"http://www.canadabeef.ca\"><span lang=\"en\">Canadian Beef Cattle Check-Off</span></a> (en anglais seulement)</li>\n<li><a rel=\"external\" href=\"http://fr.canadianbeefbreeds.com/index.php\">Conseil canadien des races de boucherie</a></li>\n</ul>\n</section>            \n<section>\n<h2>Porc</h2>\n<ul class=\"list-unstyled mrgn-lft-lg\">\n<li><a rel=\"external\" href=\"http://www.cpc-ccp.com/\">Conseil canadien du porc</a></li>\n<li><a rel=\"external\" href=\"http://www.canadapork.com/fr\"><span xml:lang=\"en-ca\" lang=\"en-ca\">Canada porc international</span></a></li>\n<li><a rel=\"external\" href=\"http://www.canadianswine.com/\">L'association canadienne des exportateurs de porcs</a> (en anglais seulement)</li>\n<li><a rel=\"external\" href=\"http://www.canswine.ca/\">L'association canadienne des \u00e9leveurs de porcs</a> (en anglais seulement)</li>\n<li><a rel=\"external\" title=\"Lien externe vers Swine Innovation Porc\" href=\"http://www.innovationporc.ca/\">Swine Innovation Porc</a></li>\n<li><a rel=\"external\" title=\"Lien externe vers Centre canadien pour l'am\u00e9lioration des porcs Inc.\" href=\"http://www.ccsi.ca/\">Centre canadien pour l'am\u00e9lioration des porcs Inc.</a></li>\n</ul>\n</section>            \n<section>\n<h2>Viande</h2>\n<ul class=\"list-unstyled mrgn-lft-lg\">\n<li><a rel=\"external\" href=\"http://www.cmc-cvc.com/\">Conseil des viandes du Canada</a></li>\n</ul>\n</section>            \n<section>\n<h2>Ovin</h2>\n<ul class=\"list-unstyled mrgn-lft-lg\">\n<li><a rel=\"external\" href=\"http://www.cansheep.ca/\">F\u00e9d\u00e9ration canadienne du mouton</a></li>\n<li><a rel=\"external\" href=\"http://sheepbreeders.ca/\"> La Soci\u00e9t\u00e9 Canadienne des \u00c9leveurs de Moutons</a> (en anglais seulement)</li>\n<li><a rel=\"external\" href=\"http://www.wool.ca/\"><span lang=\"en\">Canadian Co-operative Wool Growers Limited</span></a> (en anglais seulement)</li>\n</ul>\n</section>            \n<section>\n<h2>Ch\u00e8vre</h2>\n<ul class=\"list-unstyled mrgn-lft-lg\">\n<li><a rel=\"external\" href=\"http://canadianmeatgoat.com/index.php/fr\">Association canadienne de la ch\u00e8vre de boucherie</a></li>\n</ul>\n</section>            \n<section>\n<h2>B\u00e9tail divers</h2>\n<ul class=\"list-unstyled mrgn-lft-lg\">\n<li><a rel=\"external\" href=\"https://www.clrc.ca/fr\">Soci\u00e9t\u00e9 canadienne d'enregistrement des animaux (S.C.E.A.)</a></li>\n<li><a rel=\"external\" href=\"http://www.canadianbison.ca/\">Association canadienne du bison</a> (en anglais seulement)</li>\n<li><a rel=\"external\" href=\"http://www5.agr.gc.ca/fra/industrie-marches-et-commerce/statistiques-et-information-sur-les-marches/par-produit-secteur/genetique-animale/loi-sur-la-genealogie-des-animaux/associations-de-race-constituees/?id=1382649715171\">Associations de race constitu\u00e9es</a></li>\n<li><a rel=\"external\" href=\"http://www.llamacanada.com/\"><span xml:lang=\"en-ca\" lang=\"en-ca\">Llama Canada</span></a> (en anglais seulement)</li>\n<li><a rel=\"external\" href=\"http://www.alpacainfo.ca/\"><span xml:lang=\"en-ca\" lang=\"en-ca\">Alpaca Canada</span></a> (en anglais seulement)</li>\n<li><a rel=\"external\" href=\"http://www.equinecanada.ca/index.php?option=com_content&amp;Itemid=106&amp;lang=fr&amp;view=frontpage\">Canada Hippique</a></li>\n<li><a rel=\"external\" href=\"http://www.clivegen.org/Francais/default.aspx\"><span xml:lang=\"en-ca\" lang=\"en-ca\">Canadian Livestock Genetics Association</span></a></li>\n<li><a rel=\"external\" href=\"http://www.webtext.ca/canadamink.ca/\"><span xml:lang=\"en-ca\" lang=\"en-ca\">Canada Mink Breeders Association</span></a> (en anglais seulement)</li>\n<li><a rel=\"external\" href=\"http://www.nafa.ca/fr/\"><span xml:lang=\"en-ca\" lang=\"en-ca\">North American Fur Auctions (NAFA)</span></a></li>\n<li><a rel=\"external\" title=\"Lien externe vers le site web Canadian Cervid Alliance\" href=\"https://www.canadiancervid.com/%20\">Canadian Cervid Alliance</a> (en anglais seulement)</li>\n\n</ul>\n<div class=\"clearfix\"></div>\n<br>\n<div class=\"well\">\n<p>Pour toute question ou information additionnelle, veuillez communiquer avec nous par courriel \u00e0 <a href=\"mailto:aafc.redmeat-vianderouge.aac@canada.ca\" title=\"Courriel : Division de l'industrie animale, Section de l'information sur les march\u00e9s\"> aafc.redmeat-vianderouge.aac@canada.ca</a></p>\n\n<h2>Nos normes de service</h2>\n<p>Les normes de service jouent un r\u00f4le cl\u00e9 dans les processus de gestion de la planification, des rapports et du rendement de notre programme d'information sur le march\u00e9. Elles d\u00e9finissent clairement le niveau de rendement auquel les clients peuvent s'attendre lorsqu'ils re\u00e7oivent un service dans des circonstances normales.</p>\n\n<p>Visionnez les  <a href=\"http://www.agr.gc.ca/fra/industrie-marches-et-commerce/statistiques-et-information-sur-les-marches/par-produit-secteur/viande-rouge-et-betail/normes-de-service-relatives-aux-rapports-sur-les-animaux-a-viande-rouge-et-le-betail/?id=1480968240072\" title=\"Normes de service relatives aux rapports sur les animaux \u00e0 viande rouge et le b\u00e9tail\">Normes de service relatives aux rapports sur les animaux \u00e0 viande rouge et le b\u00e9tail.</a></p>\n</div>\n<div class=\"clearfix\"></div>\n\n</section>            \n<!-- InstanceEndEditable --><!-- Fin du contenu -->\n\r\n    <!-- Fin du contenu -->\r\n\t\r\n\t\r\n\t\r\n  "
    }
}