{
    "dcr_id": "1291045147723",
    "title": {
        "en": "Trends and market opportunities for the food processing sector",
        "fr": "Tendances des march\u00e9s et d\u00e9bouch\u00e9s pour le secteur de la transformation alimentaire"
    },
    "modified": "2021-01-26",
    "issued": "2010-12-07",
    "templatetype": "content page 1 column",
    "page_type": "1",
    "node_id": "1449158401189",
    "dc_date_created": "2010-12-07",
    "managing_branch": "PAB",
    "parent_node_id": "1354137773919",
    "label": {
        "en": "Reports and Resources",
        "fr": "Rapports et ressources"
    },
    "exturl": "",
    "teamsite_location": {
        "en": "/default/main/AAFC-AAC/Internet-Internet/Common-Commun/WORKAREA/Common-Commun/templatedata/comm-comm/gene-gene/data/11/reports_reviews_1291045147723_en",
        "fr": "/default/main/AAFC-AAC/Internet-Internet/Common-Commun/WORKAREA/Common-Commun/templatedata/comm-comm/gene-gene/data/11/reports_reviews_1291045147723_fr"
    },
    "type_name": "sitemapinit",
    "has_dcr_id": true,
    "breadcrumb": {
        "en": "Reports and Resources",
        "fr": "Rapports et ressources"
    },
    "layout_name": "content page 1 column",
    "lang": "en",
    "meta": {
        "issued": {
            "en": "2010-12-07",
            "fr": "2010-12-07"
        },
        "modified": {
            "en": "2021-01-26",
            "fr": "2021-01-26"
        },
        "format": {
            "en": "text/html",
            "fr": "text/html"
        },
        "title": {
            "en": "Trends and market opportunities for the food processing sector",
            "fr": "Tendances des march\u00e9s et d\u00e9bouch\u00e9s pour le secteur de la transformation alimentaire"
        },
        "subject": {
            "en": "genetic engineering;nutrition;scientific research",
            "fr": "cultures;recherche scientifique;alimentation"
        },
        "description": {
            "en": "13541377737971Agriculture and Agri-Food Canada prepares reports and articles designed to raise awareness of the regulatory requirements and marketplace opportunities associated with innovative products in the growing category of foods with added health benefits.",
            "fr": "Les all\u00e9gations \u00ab sans gluten \u00bb sur le march\u00e9 (avril 2014) Pratiques exemplaires pour les essais cliniques sur les aliments (mai 2013) Les efforts de r\u00e9duction du sodium entrepris par l'industrie alimentaire canadienne (f\u00e9vrier 2013) D\u00e9bouch\u00e9s pour les aliments procurant \u00e0 la population canadienne vieillissante des bienfaits suppl\u00e9mentaires pour la sant\u00e9 (novembre 2012) Syst\u00e8me de r\u00e9glementation du Canada pour les aliments procurant des bienfaits pour la sant\u00e9 - Un aper\u00e7u pour l'industrie (octobre 2012) Produits technologies et processus alimentaires en \u00e9mergence : perspectives pour les r\u00e9gulateurs (juin"
        },
        "language": {
            "en": "eng",
            "fr": "fra"
        },
        "keywords": {
            "en": "Canada's Regulatory System;Added Health Benefits;Health Claim Validation;Review of the Health Benefits of Pulses;Canada's Agri-Food Sector",
            "fr": "secteur agroalimentaire canadien;validation des all\u00e9gations;Reporting Trials;Pratiques exemplaires;Examen des bienfaits"
        },
        "audience": {
            "en": "gcaudience",
            "fr": "gcaudience"
        },
        "type": {
            "en": "frequently asked questions",
            "fr": "foire aux questions"
        },
        "creator": {
            "en": "Agriculture and Agri-Food Canada;Government of Canada",
            "fr": "Agriculture et Agroalimentaire Canada;Gouvernement du Canada"
        },
        "spatial": {
            "en": "gcregions",
            "fr": "gcregions"
        },
        "service": {
            "en": "AAFC-AAC",
            "fr": "AAFC-AAC"
        },
        "accessRights": {
            "en": "2",
            "fr": "2"
        },
        "legalName": {
            "en": "agriculture_and_agri_food_canada",
            "fr": "agriculture_et_agroalimentaire_canada"
        },
        "areaServed": {
            "en": "Canada",
            "fr": "Canada"
        }
    },
    "css": {
        "fr": null
    },
    "js": {
        "en": null,
        "fr": null
    },
    "body": {
        "en": "<!-- D&eacute;but du contenu -->\r\n    <p>Learn about emerging  trends, consumer preferences and market opportunities for the food processing sector.</p>\n\n<ul>\n<li><a href=\"?id=1449236177345\">Emerging Food Innovation: Trends and Opportunities</a> <span class=\"small\">November 2015</span></li>\n <li><a href=\"?id=1397673574797\">\"Gluten Free\" Claims in the Marketplace</a> <span class=\"small\">April 2014</span></li>  \n <li><a href=\"?id=1363026410711\">Sodium Reduction Efforts by the Canadian Food Industry</a> <span class=\"small\">February 2013</span></li>\n <li><a href=\"?id=1351859627654\">Market Opportunities for Foods with Added Health Benefits for an Aging Canadian Population</a> <span class=\"small\">November 2012</span></li>\n <li><a href=\"?id=1339618362423\">Emerging Food Products, Technologies and Processes: Insights for Regulators</a> <span class=\"small\">June 2012</span></li>\n <li><a href=\"?id=1329944262611\">Whole Grain Claims in the Marketplace</a> <span class=\"small\">February 2012</span></li>\n</ul> \n\n<p>More <a href=\"?id=1361290241756\">Canadian agri-food sector intelligence</a> reports.</p>\n\r\n    <!-- Fin du contenu -->",
        "fr": "\r\n    \r\n    <!-- MainContentStart -->\r\n    <!-- D&eacute;but du contenu -->\r\n    <p>Apprenez-en  davantage sur les nouvelles tendances, les pr\u00e9f\u00e9rences des consommateurs et les  d\u00e9bouch\u00e9s du secteur de la transformation des aliments.</p>\n\n<ul>\n <li><a href=\"/fra/produits-alimentaires/aliments-et-boissons-transformes/tendances-des-marches-et-debouches-pour-le-secteur-de-la-transformation-alimentaire/innovations-alimentaires-emergentes-tendances-et-opportunites/?id=1449236177345\">Innovations alimentaires \u00e9mergentes\u00a0: tendances et opportunit\u00e9s</a> <span class=\"small\">novembre 2015</span></li>\n\n <li><a href=\"/fra/produits-alimentaires/aliments-et-boissons-transformes/tendances-des-marches-et-debouches-pour-le-secteur-de-la-transformation-alimentaire/les-allegations-sans-gluten-sur-le-marche/?id=1397673574797\">Les all\u00e9gations \u00ab\u00a0sans gluten\u00a0\u00bb sur le march\u00e9</a> <span class=\"small\">avril 2014</span></li>\n <li><a href=\"/fra/produits-alimentaires/aliments-et-boissons-transformes/tendances-des-marches-et-debouches-pour-le-secteur-de-la-transformation-alimentaire/les-efforts-de-reduction-du-sodium-entrepris-par-l-industrie-alimentaire-canadienne/?id=1363026410711\">Les efforts de r\u00e9duction du sodium entrepris par l'industrie alimentaire canadienne</a> <span class=\"small\">f\u00e9vrier 2013</span></li>\n <li><a href=\"/fra/produits-alimentaires/aliments-et-boissons-transformes/tendances-des-marches-et-debouches-pour-le-secteur-de-la-transformation-alimentaire/debouches-pour-les-aliments-procurant-a-la-population-canadienne-vieillissante-des-bienfaits-supplementaires-pour-la-sante/?id=1351859627654\">D\u00e9bouch\u00e9s pour les aliments procurant \u00e0 la population canadienne vieillissante des bienfaits suppl\u00e9mentaires pour la sant\u00e9</a> <span class=\"small\">novembre 2012</span></li>\n <li><a href=\"/fra/produits-alimentaires/aliments-et-boissons-transformes/tendances-des-marches-et-debouches-pour-le-secteur-de-la-transformation-alimentaire/produits-technologies-et-processus-alimentaires-en-emergence-perspectives-pour-les-regulateurs/?id=1339618362423\">Produits, technologies et processus alimentaires en \u00e9mergence\u00a0: perspectives pour les r\u00e9gulateurs</a> <span class=\"small\">juin 2012</span></li>\n <li><a href=\"/fra/produits-alimentaires/aliments-et-boissons-transformes/tendances-des-marches-et-debouches-pour-le-secteur-de-la-transformation-alimentaire/les-allegations-concernant-les-grains-entiers-sur-le-marche/?id=1329944262611\">Les all\u00e9gations concernant les grains entiers sur le march\u00e9</a> <span class=\"small\">f\u00e9vrier 2012</span></li>\n</ul>\n\n<p>Plus de <a href=\"?id=1361290241756\">renseignements sur les secteurs canadiens de l'agroalimentaire</a>.</p>\n\r\n    <!-- Fin du contenu -->\r\n\t\r\n\t\r\n\t\r\n  "
    }
}