{
    "dcr_id": "1515088228849",
    "title": {
        "en": "AgriMarketing Program: Small and Medium-sized Enterprises Component",
        "fr": "Programme Agri-marketing : Volet petites et moyennes entreprises"
    },
    "modified": "2020-06-29",
    "issued": "2018-02-13",
    "templatetype": "content page 1 column",
    "page_type": "1",
    "node_id": "1517240253878",
    "dc_date_created": "2018-02-13",
    "managing_branch": "PAB",
    "parent_node_id": "1354137773676",
    "label": {
        "en": "AgriMarketing Program: Small and Medium Enterprises Component - 1. What this program offers",
        "fr": "Programme Agri-marketing : Volet Petites et moyennes entreprises"
    },
    "exturl": "",
    "teamsite_location": {
        "en": "/default/main/AAFC-AAC/Internet-Internet/Group-Ensemble/ProgServ-ProgServ/WORKAREA/ProgServ-ProgServ/templatedata/comm-comm/gene-gene/data/01/agrimarketing_smec_1_1515088228849_en",
        "fr": "/default/main/AAFC-AAC/Internet-Internet/Group-Ensemble/ProgServ-ProgServ/WORKAREA/ProgServ-ProgServ/templatedata/comm-comm/gene-gene/data/01/agrimarketing_smec_1_1515088228849_fr"
    },
    "type_name": "sitemapinit",
    "has_dcr_id": true,
    "breadcrumb": {
        "en": "AgriMarketing Program: Small and Medium Enterprises Component - 1. What this program offers",
        "fr": "Programme Agri-marketing : Volet Petites et moyennes entreprises"
    },
    "layout_name": "content page 1 column",
    "lang": "en",
    "meta": {
        "issued": {
            "en": "2018-02-13",
            "fr": "2018-02-13"
        },
        "modified": {
            "en": "2020-06-29",
            "fr": "2020-06-29"
        },
        "format": {
            "en": "text/html",
            "fr": "text/html"
        },
        "title": {
            "en": "AgriMarketing Program: Small and Medium-sized Enterprises Component",
            "fr": "Programme Agri-marketing : Volet petites et moyennes entreprises"
        },
        "subject": {
            "en": "agriculture;architectural heritage;architecture",
            "fr": "engrais;commerce ext\u00e9rieur;viande"
        },
        "description": {
            "en": "AgriMarketing Program: Small and Medium-sized Enterprise Component. Applicant guide. Contact information. Step 1. What this program offers. Next.",
            "fr": "AgriAssurance - Small and Medium-sized Enterprise Component. 4.Apr\u00e8s avoir pr\u00e9sent\u00e9 votre demande. Suivant."
        },
        "language": {
            "en": "eng",
            "fr": "fra"
        },
        "keywords": {
            "en": "otherwise announced by the program.The",
            "fr": "to be added later.Navigation du document;Medium-sized Enterprise Component"
        },
        "audience": {
            "en": "gcaudience",
            "fr": "gcaudience"
        },
        "type": {
            "en": "business plan",
            "fr": "foire aux questions"
        },
        "creator": {
            "en": "Agriculture and Agri-Food Canada;Government of Canada",
            "fr": "Agriculture et Agroalimentaire Canada;Gouvernement du Canada"
        },
        "spatial": {
            "en": "gcregions",
            "fr": "gcregions"
        },
        "service": {
            "en": "AAFC-AAC",
            "fr": "AAFC-AAC"
        },
        "accessRights": {
            "en": "2",
            "fr": "2"
        },
        "legalName": {
            "en": "agriculture_and_agri_food_canada",
            "fr": "agriculture_et_agroalimentaire_canada"
        },
        "areaServed": {
            "en": "Canada",
            "fr": "Canada"
        }
    },
    "css": {
        "fr": null
    },
    "js": {
        "en": null,
        "fr": null
    },
    "body": {
        "en": "<!-- D&eacute;but du contenu -->\r\n    <section class=\"alert alert-info\">\n<h2>The AgriMarketing Program: Small and Medium-sized Enterprises Component is moving to CanExport</h2>\n<p class=\"mrgn-lft-md\">Small and Medium-sized Enterprises who operate in the agriculture, agri-food, or agri-based sectors, will now be able to access the CanExport Small and Medium-sized Enterprises (SME) Program which is delivered by Global Affairs Canada. As of <b>August\u00a022, 2019</b>, the CanExport SME Program will be available to Small and Medium-sized Enterprises that were previously eligible under the AgriMarketing Program in an effort to provide consistent export development services for Canadian businesses.\n\n</p><p class=\"mrgn-lft-md\">The AgriMarketing Program: National Industry Association Component will continue to be delivered by Agriculture and Agri-Food Canada.</p>\n</section>\n\n\n<h2>About the CanExport Small and Medium-sized Enterprises Program</h2>\n\n<p>The CanExport SME Program provides direct financial assistance to Small and Medium-sized Enterprises registered in Canada to help them develop new export opportunities and markets, especially high-growth emerging markets. It is delivered by the Trade Commissioner Service (TCS) of Global Affairs Canada and provides financial support for a wide range of export development activities.</p>\n\n\n<h2>Small and Medium-sized Enterprises who have applied to or have an existing agreement under the AgriMarketing Program</h2>\n\n<p>The AgriMarketing Program will continue to honour any signed contribution agreements that already exist under the Program, both single and two-year agreements. This includes the processing and payment of the associated claims for reimbursement for activities included in the agreement. Small and Medium-sized Enterprises will no longer be able to apply to the AgriMarketing Program and can begin applying to the CanExport SME Program as of <b>August\u00a022, 2019</b>.</p>\n\n<p>Please visit the <a href=\"https://www.tradecommissioner.gc.ca/funding-financement/canexport/sme-pme/index.aspx?lang=eng\">CanExport SME Program</a> for more details.</p>\n\n<p>Small and Medium-sized Enterprises will be contacted in the coming weeks for more information on how to make informed decision regarding their applications or agreements. For those who have applied to the AgriMarketing Program, please contact your assigned program officer. Applicants may also call 1-866-367-8506 to obtain more information.</p>\n\r\n    <!-- Fin du contenu -->",
        "fr": "\r\n    \r\n    <!-- MainContentStart -->\r\n    <!-- D&eacute;but du contenu -->\r\n    \n<section class=\"alert alert-info\">\n<h2>Programme Agri-marketing : le volet petites et moyennes entreprises passe \u00e0 CanExport</h2>\n<p class=\"mrgn-lft-md\">Les petites et moyennes entreprises qui exercent leurs activit\u00e9s dans les secteurs de l\u2019agriculture, de l\u2019agroalimentaire ou des produits agro-industriels pourront dor\u00e9navant acc\u00e9der au programme CanExport offert aux petites et moyennes entreprises (PME), par Affaires mondiales Canada. \u00c0 compter du <b>22\u00a0ao\u00fbt 2019</b>, le Programme CanExport offert aux PME sera offert aux petites et moyennes entreprises qui \u00e9taient auparavant admissibles au Programme Agri-marketing dans le but de fournir des services uniformes d\u2019expansion des exportations aux entreprises canadiennes.</p>\n\n<p class=\"mrgn-lft-md\">Programme Agri-marketing\u00a0: Le volet Associations nationales de l\u2019industrie continuera d\u2019\u00eatre g\u00e9r\u00e9 par Agriculture et Agroalimentaire Canada.</p>\n</section>\n\n<h2>\u00c0 propos du programme de CanExport pour les petites et moyennes entreprises</h2>\n\n<p>Le Programme CanExport offert aux PME offre une aide financi\u00e8re directe aux petites et moyennes entreprises enregistr\u00e9es au Canada pour les aider \u00e0 d\u00e9velopper de nouveaux d\u00e9bouch\u00e9s et march\u00e9s d\u2019exportation, particuli\u00e8rement les march\u00e9s \u00e9mergents \u00e0 forte croissance. Il est offert par le Service des d\u00e9l\u00e9gu\u00e9s commerciaux (SDC) d\u2019Affaires mondiales Canada et octroie une aide financi\u00e8re pour un large \u00e9ventail d\u2019activit\u00e9s de d\u00e9veloppement des exportations.</p>\n\n<h2>Pour les petites et moyennes entreprises ayant pr\u00e9sent\u00e9 une demande ou ayant d\u00e9j\u00e0 conclu une entente dans le cadre du Programme Agri-marketing</h2>\n\n<p>Le Programme Agri-marketing continuera d\u2019honorer toutes les ententes de contribution sign\u00e9es qui existent d\u00e9j\u00e0 dans le cadre du Programme, qu\u2019il s\u2019agisse d\u2019ententes d\u2019une ou de deux ann\u00e9es. Cela comprend le traitement et le paiement des demandes de remboursement connexes pour les activit\u00e9s comprises dans l\u2019entente. Les petites et moyennes entreprises ne pourront plus pr\u00e9senter de demande au Programme Agri-marketing et pourront commencer \u00e0 pr\u00e9senter une demande au Programme CanExport offert aux PME \u00e0 compter du <b>22\u00a0ao\u00fbt 2019</b>.</p>\n\n<p>Veuillez visiter le site Web du <a href=\"https://www.deleguescommerciaux.gc.ca/funding-financement/canexport/sme-pme/index.aspx?lang=fra\">programme CanExport offert aux PME</a> pour obtenir plus de d\u00e9tails.</p>\n\n<p>Nous communiquerons avec les petites et moyennes entreprises au cours des prochaines semaines pour de plus amples renseignements sur la fa\u00e7on de prendre des d\u00e9cisions \u00e9clair\u00e9es concernant leurs demandes ou ententes. Pour ceux qui ont pr\u00e9sent\u00e9 une demande dans le cadre du Programme Agri-marketing, veuillez communiquer avec l\u2019agent de programme qui vous a \u00e9t\u00e9 assign\u00e9. Les demandeurs peuvent \u00e9galement composer le 1-866-367-8506 pour obtenir plus d\u2019information.</p>\n\n\r\n    <!-- Fin du contenu -->\r\n\t\r\n\t\r\n\t\r\n  "
    }
}