{
    "dcr_id": "1517867394365",
    "title": {
        "en": "AgriAssurance:  Small and Medium-sized Enterprise Component:  Applicant guide",
        "fr": "Programme Agri-assurance : Volet Petites et moyennes entreprises : Guide du demandeur"
    },
    "modified": "2018-04-23",
    "issued": "2018-02-13",
    "templatetype": "content page 1 column",
    "page_type": "1",
    "node_id": "1517924361492",
    "dc_date_created": "2018-02-13",
    "managing_branch": "PAB",
    "parent_node_id": "1517240214286",
    "label": {
        "en": "AgriAssurance Program: Small and Medium Enterprises Component \u2013 Applicant guide",
        "fr": "Programme Agri-assurance : Volet Petites et moyennes entreprises \u2013 Guide du demandeur"
    },
    "exturl": "",
    "teamsite_location": {
        "en": "/default/main/AAFC-AAC/Internet-Internet/Group-Ensemble/ProgServ-ProgServ/WORKAREA/ProgServ-ProgServ/templatedata/comm-comm/gene-gene/data/02/agriassurance_smec_5_1517867394365_en",
        "fr": "/default/main/AAFC-AAC/Internet-Internet/Group-Ensemble/ProgServ-ProgServ/WORKAREA/ProgServ-ProgServ/templatedata/comm-comm/gene-gene/data/02/agriassurance_smec_5_1517867394365_fr"
    },
    "type_name": "sitemapinit",
    "has_dcr_id": true,
    "breadcrumb": {
        "en": "AgriAssurance Program: Small and Medium Enterprises Component \u2013 Applicant guide",
        "fr": "Programme Agri-assurance : Volet Petites et moyennes entreprises \u2013 Guide du demandeur"
    },
    "layout_name": "content page 1 column",
    "lang": "en",
    "meta": {
        "issued": {
            "en": "2018-02-13",
            "fr": "2018-02-13"
        },
        "modified": {
            "en": "2018-04-23",
            "fr": "2018-04-23"
        },
        "format": {
            "en": "text/html",
            "fr": "text/html"
        },
        "title": {
            "en": "AgriAssurance:  Small and Medium-sized Enterprise Component:  Applicant guide",
            "fr": "Programme Agri-assurance : Volet Petites et moyennes entreprises : Guide du demandeur"
        },
        "subject": {
            "en": "architectural heritage;architecture;statistics",
            "fr": "commerce ext\u00e9rieur;engrais;b\u00e2timent"
        },
        "description": {
            "en": "Applicant Guide. Step 1.What this program offers. website.The AgriAssurance Small and Medium-sized Enterprise Component is a program under the Canadian Agricultural Partnership.1.1 About the AgriAssurance Small and Medium-sized Enterprise Component. travelling to enable the certification. To be eligible, a project must be aimed at meeting actual market-specific certification requirements.",
            "fr": "Guide du demandeur. \u00c9tape 1.Ce qu'offre ce programme. \u00c9tape 1\u00a0: Pr\u00e9s\u00e9lection. Objectif du programme. Ce programme fournit des contributions remboursables pour des projets qui visent \u00e0 acc\u00e9l\u00e9rer la d\u00e9monstration, la commercialisation et/ou l\u2019adoption de produits, de technologies, de proc\u00e9d\u00e9s ou de services agro-industriels innovateurs dans le secteur des produits agricoles, agroalimentaires et agro-industriels (\u00e0 valeur ajout\u00e9e) afin d\u2019accro\u00eetre la comp\u00e9titivit\u00e9 et la durabilit\u00e9 du secteur.D\u00e9finition de l\u2019innovation."
        },
        "language": {
            "en": "eng",
            "fr": "fra"
        },
        "keywords": {
            "en": "Component.Provide",
            "fr": "vers\u00e9.Quelle;vente.Produits;r\u00e9colt\u00e9es.Les avoirs"
        },
        "audience": {
            "en": "gcaudience",
            "fr": "gcaudience"
        },
        "type": {
            "en": "presentation",
            "fr": "avis"
        },
        "creator": {
            "en": "Agriculture and Agri-Food Canada;Government of Canada",
            "fr": "Agriculture et Agroalimentaire Canada;Gouvernement du Canada"
        },
        "spatial": {
            "en": "gcregions",
            "fr": "gcregions"
        },
        "service": {
            "en": "AAFC-AAC",
            "fr": "AAFC-AAC"
        },
        "accessRights": {
            "en": "2",
            "fr": "2"
        },
        "legalName": {
            "en": "agriculture_and_agri_food_canada",
            "fr": "agriculture_et_agroalimentaire_canada"
        },
        "areaServed": {
            "en": "Canada",
            "fr": "Canada"
        }
    },
    "css": {
        "fr": null
    },
    "js": {
        "en": null,
        "fr": null
    },
    "body": {
        "en": "<!-- D&eacute;but du contenu -->\r\n          <div class=\"mrgn-tp-md mrgn-bttm-lg brdr-bttm\">\n<div class=\"row\">\n<ul class=\"toc lst-spcd col-md-12 list-unstyled\">\n<li class=\"col-md-4 col-sm-6\"><span class=\"list-group-item\">Step 1. <a href=\"?id=1517865477303\">What this program offers</a></span></li>\n\n<li class=\"col-md-4 col-sm-6\"><span class=\"list-group-item\">Step 2. <a href=\"?id=1517865989179\">Who is eligible</a></span></li>\n\n<li class=\"col-md-4 col-sm-6 clr-lft-sm\"><span class=\"list-group-item\">Step 3. <a href=\"?id=1517866832743\">How to apply</a></span></li>\n\n<li class=\"col-md-4 col-sm-6\"><span class=\"list-group-item\">Step 4.  <a href=\"?id=1517867001401\">After you apply</a></span></li>\n\n<li class=\"col-md-4 col-sm-6\"><span class=\"list-group-item active\">Applicant guide</span></li>\n\n<li class=\"col-md-4 col-sm-6 clr-lft-sm\"><span class=\"list-group-item\"><a href=\"?id=1517867591352\">Contact Information</a></span></li>\n</ul>\n</div>\n</div>\n \n<h2>Applicant guide</h2>\n\n<p><a href=\"#alt\">Alternative formats</a></p>\n\n<p>This guide will: </p>\n<ul>\n  <li>help you determine if you may be eligible for funding from Agriculture and Agri-Food Canada (AAFC) under the AgriAssurance Program: Small and Medium-sized Enterprise (SME) component</li>\n  <li>provide you with directions and explanations to assist you in completing the project application form</li>\n</ul>\n\n<nav>\n  <h2>Table of contents</h2>\n<ul class=\"list-unstyled\">\n<li><a href=\"#a1.0\">1.0 Canadian Agricultural Partnership</a>\n<ul class=\"list-unstyled mrgn-lft-lg\">\n  <li><a href=\"#a1.1\">1.1 About the AgriAssurance Program: Small and Medium-sized Enterprise Component</a></li>\n  <li><a href=\"#a1.2\">1.2 Eligible  applicants</a></li>\n  <li><a href=\"#a1.3\">1.3 Funding  and cost-sharing</a></li>\n  <li><a href=\"#a1.4\">1.4 Eligible  activities</a></li>\n  <li><a href=\"#a1.5\">1.5 Application  deadlines</a></li>\n  </ul>\n  </li>\n  <li><a href=\"#a2.0\">2.0 Expected results.</a></li>\n  <li><a href=\"#a3.0\">3.0 Assessment criteria.</a></li>\n  <li><a href=\"#a4.0\">4.0 Reporting on your  Project</a></li>\n  <li><a href=\"#a5.0\">5.0 Considerations</a>\n  <ul class=\"list-unstyled mrgn-lft-lg\">\n    <li><a href=\"#a5.1\">5.1 M-30  Act (Quebec only)</a></li>\n    <li><a href=\"#a5.2\">5.2 Intellectual Property</a></li>\n    </ul>\n    </li>\n       <li><a href=\"#a6.0\">6.0 After you apply</a></li>\n   <li><a href=\"#a7.0\">7.0 Contact us</a></li>\n   \n<li class=\"mrgn-tp-sm\"><a href=\"?id=1518023242064\">Annex A: How to Apply</a></li></ul>\n</nav>\n\n<h2 id=\"a1.0\">1.0 Canadian Agricultural Partnership</h2>\n \n<p>The Canadian Agricultural Partnership is a five-year, $3\u00a0billion investment by federal, provincial and territorial governments to strengthen the agriculture, agri-food and agri-based products sector. In addition, producers will continue to have access to a robust suite of Business Risk Management (BRM) programs.</p>\n\n<p>The Partnership will come into force April 1, 2018.</p>\n\n<p>The Canadian Agricultural Partnership will focus on six priority areas:</p>\n\n<ul>\n<li><b>Science, research, and innovation</b> \u2013 to help industry use science and innovation to improve resiliency and increase productivity</li>\n<li><b>Markets and trade</b> \u2013 to open new markets and help farmers and food processors improve their competitiveness through skills development, improved export capacity, underpinned by a strong and efficient regulatory system</li>\n<li><b>Environmental sustainability and climate change</b> \u2013 to help the sector reduce its greenhouse gas emissions, protect the environment and adapt to climate change by enhancing sustainable growth while increasing production</li>\n<li><b>Value-added agriculture and agri-food processing</b> \u2013 to support the continued growth of the value-added agriculture and agri-food processing sector</li>\n<li><b>Public trust</b> \u2013 to build a firm foundation for public trust through solid regulations, improving assurance systems and traceability</li>\n<li><b>Risk Management</b> \u2013 to enable proactive and effective risk management, mitigation and adaptation to create a resilient sector</li>\n</ul>\n\n<p>For more information, please visit the <a href=\"?id=1461767369849\">Canadian  Agricultural Partnership</a> website. </p>\n\n<p>The AgriAssurance Program: Small and Medium-sized Enterprise component is a program under the Canadian Agricultural Partnership.</p>\n\n<h3 id=\"a1.1\">1.1 About the AgriAssurance Program: Small and Medium-sized Enterprise Component</h3>\n \n<h4>Program Objective</h4>\n \n <p>The AgriAssurance Program: Small and Medium-sized Enterprise (SME) component provides targeted support to companies to help implement third-party assurance certification projects that address international market requirements, thus helping expand export opportunities for Canadian agricultural and agri-food products.</p>\n \n <p>(There is a separate application process for the AgriAssurance Program: National Industry Association component that provides funding to not-for-profit organizations to help industry develop and adopt systems, standards and tools to support health, safety and quality claims about Canadian agricultural and agri-food products.)</p>\n\n<h3 id=\"a1.2\">1.2 Eligible applicants</h3>\n\n <p>The following organization types are eligible under this program:</p>\n \n <p><strong>For-profit:</strong> organizations operating in the agriculture, agri-food and agri-based sector industry, including the fish and seafood industry, that exist to make a profit. They can include:</p>\n <ul>\n   <li>businesses and/or corporations</li>\n   <li>co-operatives </li>\n   <li>Indigenous groups</li>\n </ul>\n <p><b>Other:</b> If none of the selections apply, select 'Other' and specify the organization type.</p>\n\n <p><b>Note:</b>  Eligible applicants must be legal entities capable of entering into legally binding agreements.</p>\n\n <p>SMEs must operate in the agriculture, agri-food and agri-products industry including the fish and seafood industry. They must be directly involved in growing, harvesting, processing, or otherwise transforming or consolidating their products. They must have up to 250 employees and their annual revenues shall not exceed $50 million.</p>\n \n <p>Any SME that is independently incorporated, and meets the eligibility requirements, can apply; however, in reviewing applications, priority may be given to organizations that are not subsidiaries or members of a larger group of companies.</p>\n \n <p>While decisions will be made on a case-by-case basis, generally, third-party representatives, such as trading houses, export brokers, agents, or promoters, are not eligible under the AgriAssurance Program: SME component. Also, generally excluded are individuals and sole proprietors, not-for-profit organizations, marketing boards, and governments and their agencies.</p>\n\n<h3 id=\"a1.3\">1.3 Funding and cost-sharing</h3>\n\n<h4>Available funding </h4>\n\n<p>The maximum AAFC contribution for a project will normally not exceed $50,000. If you have multiple funding projects within the program, the total contribution towards all projects cannot exceed $100,000.</p>\n\n<h4>Cost sharing</h4>\n\n<p>Please note that this program has a cost-shared requirement. </p>\n\n<p>Eligible project costs will normally be shared between AAFC and you as follows:</p>\n\n<ul>\n<li>a maximum of 50% AAFC and a minimum of 50% Applicant</li>\n</ul>\n\n<p>You must clearly indicate all sources of funding for the project, including your contribution, and other industry and/or partner sources of funding including:</p>\n\n<ul>\n<li>other federal government departments and agencies*</li>\n<li>provincial/territorial governments*</li>\n<li>municipal government*</li>\n<li>project participants</li>\n<li>industry supporters</li>\n</ul>\n\n<p>*Total government funding (other federal departments and agencies, provincial/territorial, and municipal governments) cannot exceed 85%.</p>\n\n<p>Your portion of the cost-share must be cash contributions.  In-kind contributions are ineligible. In-kind means the fair market value attributed for goods and the fair value attributed for services that are contributed to the project and require no outlay of cash during the term of the Contribution Agreement by you or a contributor.</p>\n\n<h4>What  is a cash contribution?</h4>\n\n<p>A cash contribution is an expense requiring a cash outlay, by either your organization or by a participant/contributor (such as a partner or other government), during the term of the contribution agreement (CA). Specifically, a cash contribution is an expenditure for an eligible project cost incurred and paid for by your organization, or another project participant. AAFC will only reimburse cash contributions for eligible project costs that are incurred and paid for by your organization. A cash contribution made by another project participant should be reported as part of your sources of funding, and must be an eligible project cost.</p>\n\n<h4>Eligible costs</h4>\n\n<p>All costs claimed or contributed under the program must fall within the program cost categories and respect all limitations. For more information and details on cost categories, eligible/ineligible costs and other limitations, refer to <a href=\"?id=1518023242064\">Annex A: How to apply</a>.</p>\n\n<h3 id=\"a1.4\">1.4\tEligible activities </h3>\n\n<p>The program will prioritize projects that help Canadian agricultural and agri-food sector including fish and seafood sector SMEs get a third-party certification for the first time required to meet a specific export opportunity (e.g., with a defined grocery retailer, for clearly identified market segmentation).</p>\n\n<p>Eligible activities include those required to obtain a third-party certification to address international market requirements to expand export opportunities for Canadian agriculture and agri-food including fish and seafood products. Eligible activities include:</p>\n\n<ul>\n<li>contracting professional services to obtain third-party certification for agricultural and agri-food products required to access a specific export opportunity</li>\n<li>hiring individuals dedicated to making arrangements for such certification</li>\n<li>travelling to enable the certification</li>\n</ul>\n\n<p>To be eligible, a project must be aimed at meeting actual market-specific certification requirements. Funding will not be made available if there is no such certification requirement by the target market.</p>\n\n<p>In addition, support will not be available for projects to renew a third-party certification.</p>\n\n<h3 id=\"a1.5\">1.5 Application deadlines</h3>\n \n<p>Applications will be accepted from <strong>February 13, 2018 until September 30, 2022</strong>, or until funding has been fully committed or until otherwise announced by the program. The program ends March 31, 2023.</p>\n\n<p>For information on how to complete a project application, refer to <a href=\"?id=1518023242064\">Annex A: How to apply</a>.</p>\n \n<h2 id=\"a2.0\">2.0 Expected results</h2>\n\n<p>The AgriAssurance Program: SME component will contribute to fostering public trust and building consumer confidence in export markets. It will achieve this by funding industry to adopt assurance systems and supporting tools (i.e., third-party certifications) to make verifiable claims in order to meet export markets\u2019 requirements.</p>\n\n<p>Performance indicators, which are used to measure the relevance and effectiveness of the program, will include:</p>\n\n<ul>\n  <li>number and value of successfully completed projects</li>\n  <li>increased export value associated with completed projects</li>\n</ul>\n\n<h2 id=\"a3.0\">3.0\tAssessment criteria</h2>\n\n<p>All eligible projects are assessed on their individual merit. However, those with potential for the greatest benefits may have a better chance of being approved for funding. When preparing a proposal, consider the following criteria to help develop the project application:</p>\n\n<ul>\n  <li>the application is complete and the proposed project is eligible</li>\n  <li>the applicant\u2019s capacity to deliver the project through consideration of resources and timelines</li>\n  <li>the proposed activities, including outcomes, support the program objectives</li>\n  <li>the degree to which the proposed project can demonstrate that it addresses a current or potential market opportunity or need</li>\n  <li>the proposed activities and costs are eligible, reasonable and required to meet the project objectives</li>\n  <li>all sources of funding for the project to be funded under this program are identified</li>\n</ul>\n\n<h2 id=\"a4.0\">4.0\tReporting on your Project </h2>\n\n<p>Should you be approved for funding, you will be required to report on finances, performance and results. These reports include:</p>\n\n<h3>Progress Reports:</h3>\n\n<p>You will be required to provide progress reports describing the activities completed and progress made towards deliverables, as described in the Project Work Plan.</p>\n\n<h3>Performance Reports:</h3>\n\n<p>You will also be required to provide a performance report at the end of the project.  The reports will track progress against mutually agreed to performance measures outlined in the CA.</p>\n\n<h3>Financial Reports:</h3>\n\n<p>Financial reporting is required with each request for reimbursement of expenditures, in addition to year-end accounting and other financial reports.</p>\n\n<p>Other reports may be required at AAFC\u2019s discretion.</p>\n\n<h2 id=\"a5.0\">5.0 Considerations</h2>\n\n<h3 id=\"a5.1\">5.1 M-30 Act (Quebec only)</h3>\n\n<p>The Province of Quebec's M-30 legislation  may apply to Quebec based applicants only. It is the <cite>Act Respecting the  Minist\u00e8re du Conseil ex\u00e9cutif</cite> (R.S.Q., c. M-30).</p>\n\n<p>More information on the Act is available  online or by contacting the <span lang=\"fr\">Minist\u00e8re de l'Agriculture, des P\u00eacheries et de  l'Alimentation</span> (MAPAQ) at <a href=\"mailto:dpci@mapaq.gouv.qc.ca\">dpci@mapaq.gouv.qc.ca</a>.</p>\n\n<p>M-30 applies to various types of Quebec organizations, for example, organizations located in Quebec and receiving more than half of their financing from the Government of Quebec may be subject to the Act.</p>\n\n<p>All Quebec based organizations will have to address this matter and demonstrate their compliance with the Act during the project assessment process, and prior to entering into a contribution agreement.</p>\n \n<h3 id=\"a5.2\">5.2 Intellectual Property</h3>\n\n<p>The Contribution Agreement will contain an intellectual property clause which will confirm that all title to the intellectual property in any materials created or developed by or for the applicant of contribution funding will vest in the applicant or in a third party, as may be negotiated by the applicant. However, AAFC may, at its sole discretion, include a provision in the Contribution Agreement requiring the applicant to grant, or ensure, a non-exclusive, worldwide, perpetual, royalty-free licence to the Crown to such material, in whole or in part, in any form or medium, for internal government administration purposes.</p>\n\n<h2 id=\"a6.0\">6.0 After you apply</h2>\n\n<p>Once an application has been submitted, an acknowledgment notice will be forwarded to the applicant.</p>\n\n<p>Note: You should not consider an application as submitted to the program until you receive the acknowledgement notice.</p>\n\n<p>Our goal is  to:</p>\n<ul>\n  <li>respond to general inquiries made to our phone number or email address before the end of the next business day</li>\n  <li>acknowledge receipt of your application within one business day</li>\n  <li>assess your application and send you an approval or a rejection notification letter within 75 business days of receiving a complete application package</li>\n</ul>\n\n<p>Please note that the submission of an application creates no obligation on the part of Agriculture and Agri-Food Canada to provide funding for the proposed project.</p>\n\n<h2 id=\"a7.0\">7.0 Contact us</h2>\n\n<p>Before you apply, please read <a href=\"?id=1518023242064\">Annex A: How to apply</a> for detailed information on the application process.</p>\n\n<p>For more information on the AgriAssurance Program: Small and Medium-sized Enterprise (SME) component, please contact us by:</p>\n\n<p>E-mail: <a href=\"mailto:aafc.assurance.aac@canada.ca\">aafc.assurance.aac@canada.ca</a></p>\n\n<p>Telephone: 1-877-246-4682<br>\nTDD/TTY: 613-773-2600</p>\n\n<p>Mail:<br>\n  Agriculture and Agri-Food Canada<br>\n  AgriAssurance Program: SME<br>\n  1341 Baseline Road<br>\n  Tower 7, Floor 6, Room 215<br>\nOttawa, Ontario, K1A 0C5</p>\n\n<h2 id=\"alt\">Alternative Formats</h2>\n\n<p><a href=\"/eng/?id=1168622342753\">Help with Alternate Formats</a></p>\n\n<p><a href=\"https://www.agr.gc.ca/resources/prod/doc/pdf/agriassurance_sme_applicant_guide-eng.pdf\">AgriAssurance: Small and Medium-sized Enterprise Component: Applicant guide (PDF, 183\u00a0KB)</a></p>\n\n<nav>\n  <h2 class=\"wb-inv\">Previous-next document navigation - bottom</h2>\n<div class=\"row\">\n<div class=\"col-md-12 mrgn-lft-0 mrgn-rght-0\">\n<ul class=\"pager\">\n<li class=\"previous\"><a href=\"?id=1517867001401\" title=\"Step 4. After you apply\">Previous</a></li>\n<li class=\"next\"><a href=\"?id=1517867591352\" title=\"Contact Information\">Next</a></li>\n</ul>\n</div>\n</div>\n</nav>\n\r\n    <!-- Fin du contenu -->",
        "fr": "\r\n    \r\n    <!-- MainContentStart -->\r\n    <!-- D&eacute;but du contenu -->\r\n     \n\n \n <div class=\"mrgn-tp-md mrgn-bttm-lg brdr-bttm\">\n<div class=\"row\">\n<ul class=\"toc lst-spcd col-md-12 list-unstyled\">\n<li class=\"col-md-4 col-sm-6\"><span class=\"list-group-item\">\u00c9tape 1. <a href=\"?id=1517865477303\">Ce qu\u2019offre ce programme</a></span></li>\n\n<li class=\"col-md-4 col-sm-6\"><span class=\"list-group-item\">\u00c9tape 2. <a href=\"?id=1517865989179\">Qui est admissible</a></span></li>\n\n<li class=\"col-md-4 col-sm-6 clr-lft-sm\"><span class=\"list-group-item\">\u00c9tape 3. <a href=\"?id=1517866832743\">Comment pr\u00e9senter une demande</a></span></li>\n\n<li class=\"col-md-4 col-sm-6\"><span class=\"list-group-item\">\u00c9tape 4. <a href=\"?id=1517867001401\">Apr\u00e8s avoir pr\u00e9sent\u00e9 votre demande</a></span></li>\n\n<li class=\"col-md-4 col-sm-6\"><span class=\"list-group-item active\">Guide du demandeur</span></li>\n\n<li class=\"col-md-4 col-sm-6 clr-lft-sm\"><span class=\"list-group-item\"><a href=\"?id=1517867591352\">Pour nous joindre</a></span></li>\n</ul>\n</div>\n</div>\n\n\n<h2>Guide du demandeur</h2>\n\n<p><a href=\"#alt\">Formats de rechange</a></p>\n\n<p>Le pr\u00e9sent guide\u00a0: </p>\n<ul>\n <li>vous aidera \u00e0 d\u00e9terminer si vous \u00eates admissible \u00e0 un financement d\u2019Agriculture et Agroalimentaire Canada (AAC) dans le cadre du volet Petites et moyennes entreprises (PME) du programme Agri-assurance; et</li>\n <li>vous fournira des instructions et des explications pour vous aider \u00e0 remplir le formulaire de pr\u00e9sentation de projet.</li>\n</ul>\n\n\n<nav>\n <h2>Table des mati\u00e8res</h2>\n<ul class=\"list-unstyled\">\n<li><a href=\"#a1.0\">1.0 Partenariat  canadien pour l\u2019agriculture</a>\n<ul class=\"list-unstyled mrgn-lft-md\">\n<li><a href=\"#a1.1\">1.1 \u00c0 propos du volet Petites et moyennes entreprises du programme Agri-assurance</a></li>\n<li><a href=\"#a1.2\">1.2 Demandeurs admissibles. </a></li>\n<li><a href=\"#a1.3\">1.3 Financement et partage des co\u00fbts</a></li>\n<li><a href=\"#a1.4\">1.4 Activit\u00e9s admissibles. </a></li>\n<li><a href=\"#a1.5\">1.5 Dates limites de d\u00e9p\u00f4t des demandes</a></li>\n</ul>\n</li>\n<li><a href=\"#a2.0\">2.0 R\u00e9sultats attendus</a></li>\n<li><a href=\"#a3.0\">3.0 Crit\u00e8res d\u2019\u00e9valuation</a></li>\n<li><a href=\"#a4.0\">4.0 Production de rapports sur le projet</a></li>\n<li><a href=\"#a5.0\">5.0 Consid\u00e9rations</a>\n<ul class=\"list-unstyled mrgn-lft-md\">\n<li><a href=\"#a5.1\">5.1 Loi\u00a0M-30 (Qu\u00e9bec seulement)</a></li>\n<li><a href=\"#a5.2\">5.2 Propri\u00e9t\u00e9 intellectuelle</a></li>\n</ul>\n</li>\n<li><a href=\"#a6.0\">6.0 Apr\u00e8s avoir pr\u00e9sent\u00e9 votre demande</a></li>\n<li><a href=\"#a7.0\">7.0 Contactez-nous</a></li>\n\n<li class=\"mrgn-tp-sm\"><a href=\"?id=1518023242064\">Annexe A : Comment pr\u00e9senter une demande</a></li></ul>\n</nav>\n\n\n<h2 id=\"a1.0\">1.0 Partenariat canadien pour l\u2019agriculture</h2>\n \n<p>Le Partenariat canadien pour l\u2019agriculture repr\u00e9sente un investissement de trois milliards de dollars r\u00e9parti sur cinq ans r\u00e9alis\u00e9 par les gouvernements f\u00e9d\u00e9ral, provinciaux et territoriaux pour renforcer le secteur de l\u2019agriculture, de l\u2019agroalimentaire et des produits agro-industriels. De plus, les producteurs continueront d\u2019avoir acc\u00e8s \u00e0 une gamme bien \u00e9tablie de programmes de gestion des risques de l\u2019entreprise (GRE).</p>\n\n<p>Ce partenariat sera \u00e9tabli d\u2019ici le 1er avril 2018.</p>\n\n<p>Le Partenariat canadien pour l\u2019agriculture mettra l\u2019accent sur six domaines prioritaires\u00a0:</p>\n\n<ul>\n <li><b>Science, recherche et    innovation</b>\u00a0\u2013    aider l\u2019industrie \u00e0 utiliser la science et l\u2019innovation pour am\u00e9liorer la    r\u00e9silience et accro\u00eetre la productivit\u00e9 </li>\n <li><b>March\u00e9s et commerce</b>\u00a0\u2013 ouvrir de nouveaux march\u00e9s    et aider les agriculteurs et les transformateurs alimentaires \u00e0 am\u00e9liorer    leur capacit\u00e9 concurrentielle par le perfectionnement des comp\u00e9tences et    l\u2019expansion de la capacit\u00e9 d\u2019exportation, le tout soutenu par un syst\u00e8me    de r\u00e9glementation rigoureux et efficace</li>\n <li><b>Durabilit\u00e9 environnementale et    changements climatiques</b>\u00a0\u2013 aider le secteur \u00e0 r\u00e9duire ses \u00e9missions de gaz \u00e0 effet de    serre, \u00e0 prot\u00e9ger l\u2019environnement et \u00e0 s\u2019adapter aux changements    climatiques en favorisant une croissance durable tout en augmentant la    production</li>\n <li><b>Agriculture et transformation    agroalimentaire \u00e0 valeur ajout\u00e9e</b>\u00a0\u2013 appuyer la croissance soutenue du    secteur de l\u2019agriculture et de la transformation agroalimentaire \u00e0 valeur    ajout\u00e9e</li>\n <li><b>Confiance du public</b>\u00a0\u2013 mettre en place une    base solide sur laquelle reposera la confiance du public \u00e0 l\u2019aide de    syst\u00e8mes d\u2019assurance et de tra\u00e7abilit\u00e9 am\u00e9lior\u00e9s</li>\n<li><b>Gestion des risques</b>\u00a0\u2013 favoriser la gestion et l\u2019att\u00e9nuation efficaces et proactives des risques, ainsi que l\u2019adaptation \u00e0 ceux-ci, pour assurer la r\u00e9silience du secteur</li>\n</ul>\n\n<p>Pour de plus amples renseignements, consultez le site du <a href=\"?id=1461767369849\">Partenariat canadien pour l\u2019agriculture</a>.</p>\n\n<p>Le volet Petites et moyennes entreprises\u00a0(PME) du programme Agri-assurance est encadr\u00e9 par le Partenariat canadien pour l\u2019agriculture. </p>\n\n<h3 id=\"a1.1\">1.1 \u00c0 propos du volet Petites et moyennes entreprises du programme Agri-assurance</h3>\n \n<h4>Objectif du programme</h4>\n \n <p>Le volet Petites et moyennes entreprises (PME) du programme Agri-assurance fournit un soutien cibl\u00e9 aux entreprises, afin de les aider \u00e0 mettre en \u0153uvre des projets de certification de syst\u00e8mes d\u2019assurance de tiers qui tiennent compte des exigences des march\u00e9s internationaux, contribuant ainsi \u00e0 accro\u00eetre les possibilit\u00e9s d\u2019exportation des produits agricoles et agroalimentaires canadiens.</p>\n \n <p>(Le programme Agri-assurance\u00a0: Volet Associations nationales de l\u2019industrie comporte un processus de demande distinct pour les associations nationales de l\u2019industrie, qui fournit un financement aux organismes sans but lucratif, afin d\u2019aider l\u2019industrie \u00e0 \u00e9laborer des syst\u00e8mes, des normes et des outils permettant de formuler des all\u00e9gations relatives \u00e0 la sant\u00e9 ainsi qu\u2019\u00e0 la qualit\u00e9 et la salubrit\u00e9 des produits agricoles et agroalimentaires canadiens.)</p>\n \n<h3 id=\"a1.2\">1.2 Demandeurs admissibles</h3>\n\n <p>Les types d\u2019organisations ci-dessous sont admissibles dans le cadre du pr\u00e9sent programme\u00a0:</p>\n \n <p><strong>Organisations \u00e0 but lucratif\u00a0:</strong> organisations qui exercent leurs activit\u00e9s dans les secteurs de l\u2019agriculture, de l\u2019agroalimentaire et des produits agro industriels, y compris le secteur du poisson et des fruits de mer qui ont pour but de faire des profits. Elles peuvent comprendre des\u00a0:</p>\n<ul>\n  <li>entreprises ou des soci\u00e9t\u00e9s par    actions;</li>\n  <li>coop\u00e9ratives; ou </li>\n  <li>groupes autochtones.</li>\n </ul>\n \n <p><strong>Autre\u00a0:</strong> Si aucun des choix pr\u00e9c\u00e9dents ne s\u2019applique, s\u00e9lectionnez \u00ab\u00a0Autre\u00a0\u00bb et pr\u00e9cisez votre type d\u2019organisation.</p>\n \n <p><strong>Remarque\u00a0:</strong> Pour \u00eatre admissible, un demandeur doit \u00eatre une entit\u00e9 juridique habilit\u00e9e \u00e0 conclure des accords juridiquement contraignants.</p>\n <p>Les\u00a0PME doivent exercer leurs activit\u00e9s dans les secteurs de l\u2019agriculture, de l\u2019agroalimentaire et des produits agro\u2011industriels y compris le secteur du poisson et des fruits de mer. Elles doivent mener des activit\u00e9s directement li\u00e9es \u00e0 la culture, \u00e0 la r\u00e9colte, \u00e0 la transformation ou au traitement et au groupement de leurs produits. Elles doivent compter au plus 250\u00a0employ\u00e9s et leur chiffre d\u2019affaires annuel ne doit pas exc\u00e9der 50\u00a0millions de dollars.</p>\n <p>Toute PME constitu\u00e9e l\u00e9galement de fa\u00e7on ind\u00e9pendante et r\u00e9pondant aux crit\u00e8res d\u2019admissibilit\u00e9 peut pr\u00e9senter une demande; toutefois, lors de l\u2019examen des demandes, la priorit\u00e9 peut \u00eatre accord\u00e9e aux organisations qui ne sont pas des filiales ou des membres d\u2019un groupe d\u2019entreprises plus important. </p>\n <p>Bien que les d\u00e9cisions soient prises au cas par cas, les repr\u00e9sentants de tierces parties, comme les maisons de commerce, les courtiers en exportation, les agents ou les promoteurs, ne sont g\u00e9n\u00e9ralement pas admissibles au volet\u00a0PME. En outre, sont g\u00e9n\u00e9ralement exclus les particuliers et les propri\u00e9taires uniques, les organismes sans but lucratif, les offices de commercialisation, les gouvernements et les organismes gouvernementaux.</p>\n<h3 id=\"a1.3\">1.3 Financement et partage des co\u00fbts</h3>\n\n<h4>Financement disponible</h4>\n\n<p>En g\u00e9n\u00e9ral, la contribution maximale vers\u00e9e par AAC pour un projet ne d\u00e9passera pas 50\u00a0000\u00a0$. Si vous avez plusieurs projets dont le financement a \u00e9t\u00e9 accept\u00e9 dans le cadre du pr\u00e9sent programme, le montant total que vous accordera AAC pour tous vos projets ne peut \u00eatre sup\u00e9rieur \u00e0 100\u00a0000\u00a0$. </p>\n\n<h4>Partage des co\u00fbts</h4>\n\n<p>Veillez noter que le pr\u00e9sent programme comporte une exigence de partage des co\u00fbts. </p>\n<p>En g\u00e9n\u00e9ral, les co\u00fbts admissibles du projet seront partag\u00e9s comme suit entre AAC et vous\u00a0:</p>\n<ul>\n <li>un maximum de 50\u00a0% par AAC et un minimum de 50\u00a0% par le demandeur.<br>\n </li>\n</ul>\n<p>Vous devez indiquer clairement toutes les sources de financement du projet, y compris votre contribution et les autres sources de financement provenant de l\u2019industrie ou de partenaires, notamment\u00a0: </p>\n<ul>\n <li>autres minist\u00e8res et organismes f\u00e9d\u00e9raux*;</li>\n <li>gouvernements provinciaux ou territoriaux*;</li>\n <li>administrations municipales*;</li>\n <li>participants au projet; et</li>\n <li>partenaires de l\u2019industrie.</li>\n</ul>\n \n<p>*La portion totale de financement gouvernemental (autres minist\u00e8res et organismes f\u00e9d\u00e9raux, gouvernements provinciaux et territoriaux et administrations municipales) ne peut d\u00e9passer 85\u00a0%. </p>\n<p>Votre part du partage des co\u00fbts doit \u00eatre constitu\u00e9e de contributions en esp\u00e8ces. Les contributions en nature ne sont pas admissibles. Une contribution en nature repr\u00e9sente la juste valeur marchande d\u2019un bien ou la juste valeur d\u2019un service, laquelle est fournie pour le projet et pour laquelle vous ou un contributeur au projet n\u2019avez pas besoin de sortir des fonds pendant la dur\u00e9e de l\u2019entente de contribution.</p>\n<h4>Qu\u2019est-ce qu\u2019une contribution en esp\u00e8ces?</h4>\n\n<p>Une contribution en esp\u00e8ces d\u00e9signe une d\u00e9pense n\u00e9cessitant un d\u00e9bours\u00e9 en esp\u00e8ces r\u00e9alis\u00e9 par votre organisme ou un autre participant ou contributeur (tel qu\u2019un partenaire ou un autre palier de gouvernement) pendant la dur\u00e9e de l\u2019entente de contribution (EC). Plus particuli\u00e8rement, une contribution en esp\u00e8ces est une d\u00e9pense effectu\u00e9e pour couvrir les co\u00fbts de projets admissibles engag\u00e9s et r\u00e9gl\u00e9s par votre organisme ou un autre participant au projet. AAC ne remboursera que les contributions en esp\u00e8ces destin\u00e9es \u00e0 couvrir les co\u00fbts des projets admissibles engag\u00e9s et r\u00e9gl\u00e9s par votre organisme. Une contribution en esp\u00e8ces effectu\u00e9e par un autre participant au projet doit \u00eatre signal\u00e9e comme un \u00e9l\u00e9ment de vos sources de financement et doit couvrir un co\u00fbt de projet admissible.</p>\n \n<h4>Co\u00fbts admissibles</h4>\n\n<p>L\u2019ensemble des co\u00fbts r\u00e9clam\u00e9s ou des sommes vers\u00e9es dans le cadre du programme doivent correspondre aux cat\u00e9gories de co\u00fbts du programme et respecter toutes les restrictions \u00e9nonc\u00e9es. Pour obtenir de plus amples renseignements et des pr\u00e9cisions sur les cat\u00e9gories de co\u00fbts, les co\u00fbts admissibles ou non admissibles et les autres limitations, consultez l\u2019<a href=\"?id=1518023242064\">Annexe A : Comment pr\u00e9senter une demande</a>.</p>\n\n<h3 id=\"a1.4\">1.4 Activit\u00e9s admissibles</h3>\n\n<p>Le programme favorisera en priorit\u00e9 les projets aidant les PME canadiennes des secteurs de l\u2019agriculture, de l\u2019agroalimentaire y compris le secteur du poisson et des fruits de mer \u00e0 obtenir une certification de tiers permettant de satisfaire pour une premi\u00e8re fois \u00e0 des exigences d\u2019exportation pr\u00e9cises (p.\u00a0ex. celles d\u2019un d\u00e9taillant en alimentation particulier, concernant un segment de march\u00e9 clairement d\u00e9fini). </p>\n<p>Les activit\u00e9s admissibles incluent celles qui sont requises pour obtenir une certification de tiers afin de satisfaire aux exigences de march\u00e9s internationaux, en vue d\u2019accro\u00eetre les possibilit\u00e9s d\u2019exportation des produits agricoles et agroalimentaires y compris le secteur du poisson et des fruits mer canadiens. Les activit\u00e9s admissibles comprennent\u00a0:</p>\n<ul>\n <li>recourir \u00e0 des services professionnels en    vue d\u2019obtenir une certification de tiers pour des produits agricoles et    agroalimentaires, permettant d\u2019acc\u00e9der \u00e0 une possibilit\u00e9 d\u2019exportation    pr\u00e9cise;</li>\n <li>embaucher du personnel sp\u00e9cialis\u00e9 dans les    d\u00e9marches entourant le processus d\u2019une telle certification; et</li>\n <li>effectuer les d\u00e9placements relatifs au    processus de certification.</li>\n</ul>\n \n<p>Pour \u00eatre admissible, un projet doit chercher \u00e0 r\u00e9pondre aux exigences de certification r\u00e9elles d\u2019un march\u00e9 particulier. Le financement ne sera pas offert s\u2019il n\u2019existe pas d\u2019exigences de certification pour le march\u00e9 cibl\u00e9.</p>\n<p>De plus, aucun soutien financier ne sera disponible pour le renouvellement d\u2019une certification de tiers. </p>\n\n\n<h3 id=\"a1.5\">1.5 Dates limites de d\u00e9p\u00f4t des demandes</h3>\n \n<p>Les demandes seront accept\u00e9es entre le <strong>13\u00a0f\u00e9vrier\u00a02018 et le 30\u00a0septembre\u00a02022</strong>, ou jusqu\u2019\u00e0 ce que l\u2019int\u00e9gralit\u00e9 des fonds ait \u00e9t\u00e9 affect\u00e9e ou qu\u2019une annonce contraire soit publi\u00e9e dans le cadre du programme. Ce programme prend fin le 31\u00a0mars\u00a02023.</p>\n\n<p>Pour conna\u00eetre la fa\u00e7on de remplir votre demande, consultez l\u2019<a href=\"?id=1518023242064\">Annexe A : Comment pr\u00e9senter une demande</a></p>\n\n<h2 id=\"a2.0\">2.0 R\u00e9sultats attendus</h2>\n\n<p>Le volet PME du programme Agri-assurance contribuera \u00e0 renforcer la confiance du public et des consommateurs envers les march\u00e9s d\u2019exportation. Il fournira un financement \u00e0 l\u2019industrie afin qu\u2019elle adopte des syst\u00e8mes d\u2019assurance et des outils de soutien (c.-\u00e0-d. les certifications de tiers) afin de formuler des affirmations v\u00e9rifiables permettant de r\u00e9pondre aux exigences des march\u00e9s d\u2019exportation.</p>\n<p>Les indicateurs de rendement suivants seront utilis\u00e9s pour \u00e9valuer la pertinence et l\u2019efficacit\u00e9 du programme\u00a0:</p>\n<ul>\n <li>le nombre et la valeur des projets compl\u00e9t\u00e9s avec succ\u00e8; et </li>\n <li>la valeur accrue des exportations associ\u00e9es aux projets compl\u00e9t\u00e9s.</li>\n</ul>\n\n<h2 id=\"a3.0\">3.0 Crit\u00e8res d\u2019\u00e9valuation</h2>\n\n<p>Tous les projets admissibles sont examin\u00e9s en fonction de leur m\u00e9rite individuel. Cependant, les projets pouvant pr\u00e9senter les avantages les plus importants auront plus de chances d\u2019\u00eatre financ\u00e9s. Lorsque vous pr\u00e9parez votre demande, veuillez tenir compte des crit\u00e8res suivants afin de pr\u00e9ciser la port\u00e9e de votre projet\u00a0: </p>\n\n<ul>\n<li>la demande pr\u00e9sent\u00e9e est compl\u00e8te et le    projet propos\u00e9 est admissible;</li>\n<li>la capacit\u00e9 du demandeur \u00e0 achever le    projet propos\u00e9 en tenant compte des ressources disponibles et des d\u00e9lais    pr\u00e9vus;</li>\n<li>les activit\u00e9s propos\u00e9es, y compris les    r\u00e9sultats, appuient les objectifs du programme;</li>\n <li>la mesure dans laquelle le projet propos\u00e9    correspond \u00e0 un d\u00e9bouch\u00e9 ou \u00e0 un besoin actuel ou potentiel d\u2019un march\u00e9;</li>\n <li>les activit\u00e9s propos\u00e9es et les co\u00fbts sont    admissibles, raisonnables et n\u00e9cessaires pour atteindre les objectifs du    projet; et</li>\n <li>toutes les sources de financement pour le    projet qui sera financ\u00e9 au titre du programme sont identifi\u00e9es.</li>\n</ul>\n\n<h2 id=\"a4.0\">4.0 Production de rapports sur le projet </h2>\n\n<p>Si votre projet est approuv\u00e9, vous serez tenu de produire des rapports sur les finances, le rendement et les r\u00e9sultats de votre projet. Ces rapports sont les suivants\u00a0:</p>\n\n<h3>Rapports d\u2019\u00e9tape</h3>\n\n<p>Vous devrez soumettre des rapports d\u2019\u00e9tape qui d\u00e9crivent les activit\u00e9s et les progr\u00e8s r\u00e9alis\u00e9s pour obtenir les produits livrables, comme l\u2019indique le plan de travail du projet. </p>\n\n<h3>Rapports sur le rendement</h3>\n\n<p>Vous devrez \u00e9galement pr\u00e9senter un rapport sur le rendement \u00e0 la fin du projet. Ces rapports permettront de suivre les progr\u00e8s r\u00e9alis\u00e9s par rapport aux mesures de rendement d\u00e9termin\u00e9es d\u2019un commun accord et d\u00e9crites dans l\u2019entente de contribution.</p>\n\n<h3>Rapports financiers</h3>\n\n<p>Des rapports financiers sont exig\u00e9s pour chaque demande de remboursement des d\u00e9penses, en plus des rapports de comptabilit\u00e9 de fin d\u2019exercice et d\u2019autres rapports financiers.</p>\n<p>D\u2019autres rapports peuvent \u00eatre exig\u00e9s \u00e0 la discr\u00e9tion d\u2019AAC. </p>\n<h2 id=\"a5.0\">5.0 Consid\u00e9rations</h2>\n\n<h3 id=\"a5.1\">5.1 Loi M-30 (Qu\u00e9bec seulement)</h3>\n\n<p>La loi\u00a0M-30 de la province de Qu\u00e9bec peut s\u2019appliquer uniquement aux demandeurs du Qu\u00e9bec. Il s\u2019agit de la Loi sur le Minist\u00e8re du Conseil ex\u00e9cutif (L.R.Q. c.\u00a0M-30).\u00a0 </p>\n<p>De plus amples renseignements concernant la Loi peuvent \u00eatre obtenus en ligne ou en communiquant avec le Minist\u00e8re de l\u2019Agriculture, des P\u00eacheries et de l\u2019Alimentation (MAPAQ) \u00e0 <a href=\"mailto:dpci@mapaq.gouv.qc.ca\">dpci@mapaq.gouv.qc.ca</a>.</p>\n\n<p>La loi M-30 s\u2019applique \u00e0 divers types d\u2019organisations qu\u00e9b\u00e9coises, par exemples, les organisations situ\u00e9es au Qu\u00e9bec qui re\u00e7oivent plus de la moiti\u00e9 de leur financement du gouvernement du Qu\u00e9bec peuvent \u00eatre assujetties \u00e0 la Loi. </p>\n\n<p>Avant de pouvoir conclure une entente de contribution, toutes les organisations \u00e9tablies au Qu\u00e9bec doivent aborder cette question et d\u00e9montrer leur conformit\u00e9 \u00e0 la Loi au cours du processus d\u2019\u00e9valuation du projet.</p>\n\n<h3 id=\"a5.2\">5.2 Propri\u00e9t\u00e9 intellectuelle</h3>\n\n<p>L\u2019entente de contribution contiendra une clause en mati\u00e8re de propri\u00e9t\u00e9 intellectuelle, qui confirmera que le droit \u00e0 la propri\u00e9t\u00e9 intellectuelle du mat\u00e9riel cr\u00e9\u00e9 par ou pour le demandeur en utilisant les fonds de contributions, sera d\u00e9volu au demandeur ou \u00e0 un tiers, selon les n\u00e9gociations que pourra mener le demandeur. AAC peut, \u00e0 sa discr\u00e9tion, ins\u00e9rer une disposition dans l\u2019entente de contribution exigeant que le demandeur accorde une licence non exclusive, mondiale, permanente, libre de redevances \u00e0 la Couronne concernant ce mat\u00e9riel, en tout ou en partie, quel que soit le format ou le support, aux fins d\u2019administration interne par le gouvernement.</p>\n\n<h2 id=\"a6.0\">6.0 Apr\u00e8s avoir pr\u00e9sent\u00e9 votre demande</h2>\n\n<p>Une fois qu\u2019une demande a \u00e9t\u00e9 pr\u00e9sent\u00e9e, un accus\u00e9 de r\u00e9ception est envoy\u00e9 au demandeur. </p>\n<p>Remarque\u00a0: Vous ne devez pas estimer qu\u2019une demande est soumise au programme tant que vous n\u2019avez pas re\u00e7u l\u2019accus\u00e9 de r\u00e9ception.</p>\n<p>Nous avons pour objectif\u00a0:</p>\n<ul>\n <li>de r\u00e9pondre aux demandes de renseignements g\u00e9n\u00e9rales que nous recevons par t\u00e9l\u00e9phone ou par courriel avant la fin du jour ouvrable suivant;</li>\n <li>d\u2019accuser r\u00e9ception de votre demande dans un d\u00e9lai d\u2019un jour ouvrable; et</li>\n <li>d\u2019\u00e9valuer votre demande et de vous envoyer une lettre d\u2019approbation ou de rejet dans un d\u00e9lai de 75\u00a0jours ouvrables \u00e0 compter de la date de r\u00e9ception de votre demande compl\u00e8te.</li>\n</ul>\n \n<p>Veuillez noter que m\u00eame si un projet satisfait \u00e0 tous les crit\u00e8res d\u2019admissibilit\u00e9, la pr\u00e9sentation d\u2019une demande n\u2019engage en rien le ministre ou les fonctionnaires d\u2019Agriculture et Agroalimentaire Canada \u00e0 fournir une aide financi\u00e8re pour le projet propos\u00e9. Le ministre conserve le pouvoir discr\u00e9tionnaire de d\u00e9terminer, en fonction de l\u2019int\u00e9r\u00eat public, si une demande r\u00e9pondant aux crit\u00e8res \u00e9nonc\u00e9s dans le pr\u00e9sent Guide recevra ou non des fonds.</p>\n\n<h2 id=\"a7.0\">7.0 Contactez-nous</h2>\n\n<p>Avant de pr\u00e9senter une demande, veuillez lire <a href=\"/fra/?id=1518023242064\">Annexe A\u00a0: Comment pr\u00e9senter une demande</a> pour obtenir des renseignements d\u00e9taill\u00e9s concernant le processus de pr\u00e9sentation.</p>\n\n<p>Pour obtenir de plus amples renseignements sur le volet Petites et moyennes entreprises\u00a0du programme Agri-assurance, veuillez communiquer avec nous aux coordonn\u00e9es suivantes\u00a0:</p>\n\n<p>Courriel\u00a0: <a href=\"mailto:aafc.assurance.aac@canada.ca\">aafc.assurance.aac@canada.ca</a></p>\n\n<p>T\u00e9l\u00e9phone\u00a0: 1-877-246-4682<br>\nATS/ATM\u00a0: 613-773-2600 </p>\n\n<p>Adresse postale\u00a0: <br>\nAgriculture et Agroalimentaire Canada<br>\nProgramme Agri-assurance \u2013 volet Petites et moyennes entreprises<br>\nTour\u00a07, 6e\u00a0\u00e9tage, salle\u00a0215<br>\n1341, chemin Baseline<br>\nOttawa (Ontario) K1A 0C5</p>\n\n\n \n<h2 id=\"alt\">Formats de rechange</h2>\n\n<p><a href=\"/fra/?id=1168622342753\">Aide sur les formats de rechange</a></p>\n\n<p><a href=\"https://www.agr.gc.ca/resources/prod/doc/pdf/agriassurance_sme_applicant_guide-fra.pdf\">Programme Agri-assurance : Volet Petites et moyennes entreprises : Guide du demandeur (PDF, 183\u00a0Ko)</a></p>\n\n<nav>\n <h2 class=\"wb-inv\">Navigation du document - pr\u00e9c\u00e9dente-suivante - bas</h2>\n<div class=\"row\">\n<div class=\"col-md-12 mrgn-lft-0 mrgn-rght-0\">\n<ul class=\"pager\">\n<li class=\"previous\"><a href=\"?id=1517867001401\" title=\"\u00c9tape 4.\tApr\u00e8s avoir pr\u00e9sent\u00e9 votre demande\">Pr\u00e9c\u00e9dente</a></li>\n<li class=\"next\"><a href=\"?id=1517867591352\" title=\"Pour nous joindre\">Suivante</a></li>\n</ul>\n</div>\n</div>\n</nav>\n\n\r\n    <!-- Fin du contenu -->\r\n\t\r\n\t\r\n\t\r\n  "
    }
}