{
    "dcr_id": "1515010952950",
    "title": {
        "en": "AgriAssurance Program: National Industry Association Component: Step 1. What this program offers",
        "fr": "Programme Agri-assurance : Volet Associations nationales de l'industrie : \u00c9tape 1. Ce qu'offre ce programme"
    },
    "modified": "2018-02-13",
    "issued": "2018-02-13",
    "templatetype": "content page 1 column",
    "page_type": "1",
    "node_id": "1517240181254",
    "dc_date_created": "2018-02-13",
    "managing_branch": "PAB",
    "parent_node_id": "1354137773676",
    "label": {
        "en": "AgriAssurance Program: National Industry Association Component - 1. What this program offers",
        "fr": "Programme Agri-assurance : Volet Associations nationales de l\u2019industrie"
    },
    "exturl": "",
    "teamsite_location": {
        "en": "/default/main/AAFC-AAC/Internet-Internet/Group-Ensemble/ProgServ-ProgServ/WORKAREA/ProgServ-ProgServ/templatedata/comm-comm/gene-gene/data/01/agriassurance_niac_1_1515010952950_en",
        "fr": "/default/main/AAFC-AAC/Internet-Internet/Group-Ensemble/ProgServ-ProgServ/WORKAREA/ProgServ-ProgServ/templatedata/comm-comm/gene-gene/data/01/agriassurance_niac_1_1515010952950_fr"
    },
    "type_name": "sitemapinit",
    "has_dcr_id": true,
    "breadcrumb": {
        "en": "AgriAssurance Program: National Industry Association Component - 1. What this program offers",
        "fr": "Programme Agri-assurance : Volet Associations nationales de l\u2019industrie"
    },
    "layout_name": "content page 1 column",
    "lang": "en",
    "meta": {
        "issued": {
            "en": "2018-02-13",
            "fr": "2018-02-13"
        },
        "modified": {
            "en": "2018-02-13",
            "fr": "2018-02-13"
        },
        "format": {
            "en": "text/html",
            "fr": "text/html"
        },
        "title": {
            "en": "AgriAssurance Program: National Industry Association Component: Step 1. What this program offers",
            "fr": "Programme Agri-assurance : Volet Associations nationales de l'industrie : \u00c9tape 1. Ce qu'offre ce programme"
        },
        "subject": {
            "en": "architectural heritage;architecture;statistics",
            "fr": "d\u00e9veloppement \u00e9conomique;consultation;commerce ext\u00e9rieur"
        },
        "description": {
            "en": "1.What this program offers. 2.Who is eligible. Program Objective. The AgriAssurance Small and Medium-sized Enterprise (SME) Component provides targeted support to companies to help implement third-party assurance certification projects that address international market requirements, thus helping expand export opportunities for Canadian agricultural and agri-food products.(There is a separate application process for the AgriAssurance National Industry Association Component that provides funding to not-for-profit organizations to help industry develop and adopt systems, standards and tools to support health, safety and quality claims about Canadian agricultural and agri-food products.). 1.2 Eligible applicants. Funding will not be made available if there is no such certification requirement by the target market.In addition, support will not be available for projects to renew a third-party certification.1.5 Application deadlines.",
            "fr": "5. Guide du demandeur. 1.Que comprend ce service. Pour \u00eatre admissibles, les demandeurs doivent \u00eatre des entit\u00e9s juridiques habilit\u00e9es \u00e0 conclure des ententes ayant force ex\u00e9cutoire.Employeurs admissibles. , ou moyennant l'autorisation expresse du demandeur.4.0 \u00c9valuation et approbation."
        },
        "language": {
            "en": "eng",
            "fr": "fra"
        },
        "keywords": {
            "en": "allocated.Projects",
            "fr": "Canada.Projets"
        },
        "audience": {
            "en": "gcaudience",
            "fr": "gcaudience"
        },
        "type": {
            "en": "presentation",
            "fr": "\u00e9valuation"
        },
        "creator": {
            "en": "Agriculture and Agri-Food Canada;Government of Canada",
            "fr": "Agriculture et Agroalimentaire Canada;Gouvernement du Canada"
        },
        "spatial": {
            "en": "gcregions",
            "fr": "gcregions"
        },
        "service": {
            "en": "AAFC-AAC",
            "fr": "AAFC-AAC"
        },
        "accessRights": {
            "en": "2",
            "fr": "2"
        },
        "legalName": {
            "en": "agriculture_and_agri_food_canada",
            "fr": "agriculture_et_agroalimentaire_canada"
        },
        "areaServed": {
            "en": "Canada",
            "fr": "Canada"
        }
    },
    "css": {
        "fr": null
    },
    "js": {
        "en": null,
        "fr": null
    },
    "body": {
        "en": "<!-- D&eacute;but du contenu -->\r\n    <div class=\"mrgn-tp-md mrgn-bttm-lg brdr-bttm\">\n\n<div class=\"row\">\n<ul class=\"toc lst-spcd col-md-12 list-unstyled\">\n<li class=\"col-md-4 col-sm-6\"><span class=\"list-group-item active\">Step 1. What this program offers</span></li>\n\n<li class=\"col-md-4 col-sm-6\"><span class=\"list-group-item\">Step 2. <a href=\"?id=1515011077933\">Who is eligible</a></span></li>\n\n<li class=\"col-md-4 col-sm-6 clr-lft-sm\"><span class=\"list-group-item\">Step 3. <a href=\"?id=1515011266778\">How to apply</a></span></li>\n\n<li class=\"col-md-4 col-sm-6\"><span class=\"list-group-item\">Step 4. <a href=\"?id=1515011324107\">After you apply</a></span></li>\n\n\n<li class=\"col-md-4 col-sm-6\"><span class=\"list-group-item\"><a href=\"?id=1515011371844\">Applicant guide</a></span></li>\n\n<li class=\"col-md-4 col-sm-6 clr-lft-sm\"><span class=\"list-group-item\"><a href=\"?id=1515011407700\">Contact information</a></span></li>\n</ul>\n</div>\n</div>\n\n<h2>Step 1. What this program offers</h2>\n\n<section class=\"alert alert-info\">\n<h3>Important notice</h3>\n<p><b>Applications will be  accepted from February 13, 2018 until September 30, 2022, or until funding has  been fully committed or until otherwise announced by the program. </b></p>\n\n<p><b>The  program ends March 31, 2023.</b></p>\n</section>\n\n<p>AgriAssurance  Program:\u00a0 National Industry Association  (NIA) Component will fund projects, at the national level, to help  industry develop and adopt systems, standards and tools to support health and  safety claims about Canadian agricultural and agri-food products.</p>\n\n<p>It will accomplish  these goals by supporting industry to develop, verify and integrate assurance  systems to address market and regulatory requirements.\u00a0 Assurance systems enable the industry  to make credible, meaningful and verifiable claims about its products and the  manner in which they are produced.</p>\n\n<p>If approved, support is available in the form of non-repayable  contributions support from Agriculture and Agri-Food Canada (AAFC).</p>\n\n\n<nav>\n  <h2 class=\"wb-inv\">Previous-next document navigation - bottom</h2>\n<div class=\"row\">\n<div class=\"col-md-12 mrgn-lft-0 mrgn-rght-0\">\n<ul class=\"pager\">\n<li class=\"next\"><a href=\"?id=1515011077933\" rel=\"next\" title=\"Who is eligible\">Next</a></li>\n</ul>\n</div>\n</div>\n</nav>\n\r\n    <!-- Fin du contenu -->",
        "fr": "\r\n    \r\n    <!-- MainContentStart -->\r\n    <!-- D&eacute;but du contenu -->\r\n    <div class=\"mrgn-tp-md mrgn-bttm-lg brdr-bttm\">\n\n<div class=\"row\">\n<ul class=\"toc lst-spcd col-md-12 list-unstyled\">\n<li class=\"col-md-4 col-sm-6\"><span class=\"list-group-item active\">\u00c9tape 1. Ce qu'offre ce programme</span></li>\n\n<li class=\"col-md-4 col-sm-6\"><span class=\"list-group-item\">\u00c9tape 2. <a href=\"?id=1515011077933\">Qui est admissible</a></span></li>\n\n<li class=\"col-md-4 col-sm-6 clr-lft-sm\"><span class=\"list-group-item\">\u00c9tape 3. <a href=\"?id=1515011266778\">Comment pr\u00e9senter une demande</a></span></li>\n\n<li class=\"col-md-4 col-sm-6\"><span class=\"list-group-item\">\u00c9tape 4. <a href=\"?id=1515011324107\">Apr\u00e8s avoir pr\u00e9sent\u00e9 votre demande</a></span></li>\n\n<li class=\"col-md-4 col-sm-6\"><span class=\"list-group-item\"><a href=\"?id=1515011371844\">Guide du demandeur</a></span></li>\n\n<li class=\"col-md-4 col-sm-6 clr-lft-sm\"><span class=\"list-group-item\"><a href=\"?id=1515011407700\">Pour nous joindre</a></span></li>\n</ul>\n</div>\n</div>\n\n<h2>\u00c9tape 1. Ce qu'offre ce programme</h2>\n\n<section class=\"alert alert-info\">\n<h3>Remarque importante</h3>\n<p><b>Les demandes seront accept\u00e9es entre le 13 f\u00e9vrier  2018 et le 30 septembre 2022, ou jusqu'\u00e0 ce que l'int\u00e9gralit\u00e9 des fonds ait \u00e9t\u00e9  affect\u00e9e ou qu'une annonce contraire soit publi\u00e9e dans le cadre du programme. </b></p>\n\n<p><b>Le programme prend fin le  31 mars, 2023</b></p>\n</section>\n\n<p>Le programme  Agri-assurance\u00a0: Volet Associations nationales de l'industrie finance des  projets, au niveau national, destin\u00e9s \u00e0 aider l'industrie \u00e0 \u00e9laborer et \u00e0  adopter des syst\u00e8mes, des normes et des outils permettant de formuler des  affirmations pertinentes sur la qualit\u00e9, la sant\u00e9 et la salubrit\u00e9 des produits  agricoles et agroalimentaires canadiens.</p>\n\n<p>Le  programme vise \u00e0 aider l'industrie \u00e0 cr\u00e9er, affirmer, et int\u00e9grer des syst\u00e8mes  d'assurance qui tiennent compte des exigences des march\u00e9s et de la  r\u00e9glementation. Les syst\u00e8mes d'assurance permettent \u00e0 l'industrie de formuler  des affirmations cr\u00e9dibles, pertinentes et v\u00e9rifiables sur ses produits et sur  la mani\u00e8re dont ils sont produits ou fabriqu\u00e9s.</p>\n\n<p>Si approuv\u00e9, un appui est disponible sous la forme de contribution  financi\u00e8re non remboursable d'Agriculture et Agroalimentaire Canada (AAC).</p>\n\n\n<nav>\n  <h2 class=\"wb-inv\">Navigation du document - pr\u00e9c\u00e9dente-suivante - bas</h2>\n<div class=\"row\">\n<div class=\"col-md-12 mrgn-lft-0 mrgn-rght-0\">\n<ul class=\"pager\">\n<li class=\"next\"><a href=\"?id=1515011077933\" rel=\"next\" title=\"Qui est admissible\">Suivante</a></li>\n</ul>\n</div>\n</div>\n</nav>\n\r\n    <!-- Fin du contenu -->\r\n\t\r\n\t\r\n\t\r\n  "
    }
}