{
    "dcr_id": "1536081857309",
    "title": {
        "en": "Farm Debt Mediation Service: Step 1. What this program offers",
        "fr": "Service de m\u00e9diation en mati\u00e8re d'endettement agricole : \u00c9tape 1. Ce qu\u2019offre ce programme"
    },
    "modified": "2019-10-09",
    "issued": "2018-09-27",
    "templatetype": "content page 1 column",
    "page_type": "1",
    "node_id": "1536082487561",
    "dc_date_created": "2018-09-27",
    "managing_branch": "PAB",
    "parent_node_id": "1354137773676",
    "label": {
        "en": "Farm Debt Mediation Service",
        "fr": "Service de m\u00e9diation en mati\u00e8re d'endettement agricole"
    },
    "exturl": "",
    "teamsite_location": {
        "en": "/default/main/AAFC-AAC/Internet-Internet/Group-Ensemble/ProgServ-ProgServ/WORKAREA/ProgServ-ProgServ/templatedata/comm-comm/gene-gene/data/09/fdms_1536081857309_en",
        "fr": "/default/main/AAFC-AAC/Internet-Internet/Group-Ensemble/ProgServ-ProgServ/WORKAREA/ProgServ-ProgServ/templatedata/comm-comm/gene-gene/data/09/fdms_1536081857309_fr"
    },
    "type_name": "sitemapinit",
    "has_dcr_id": true,
    "breadcrumb": {
        "en": "Farm Debt Mediation Service",
        "fr": "Service de m\u00e9diation en mati\u00e8re d'endettement agricole"
    },
    "layout_name": "content page 1 column",
    "lang": "en",
    "meta": {
        "issued": {
            "en": "2018-09-27",
            "fr": "2018-09-27"
        },
        "modified": {
            "en": "2019-10-09",
            "fr": "2019-10-09"
        },
        "format": {
            "en": "text/html",
            "fr": "text/html"
        },
        "title": {
            "en": "Farm Debt Mediation Service: Step 1. What this program offers",
            "fr": "Service de m\u00e9diation en mati\u00e8re d'endettement agricole : \u00c9tape 1. Ce qu\u2019offre ce programme"
        },
        "subject": {
            "en": "statistics;architectural heritage;architecture",
            "fr": "coop\u00e9rative;commerce ext\u00e9rieur;\u00e9conomie agricole"
        },
        "description": {
            "en": "Alternative Formats. International Standard Serial Number: 2292-1524. Sub-Program 2.1.6: Federal-Provincial-Territorial Cost-shared Environment. Agriculture and Agri-Food Canada provides leadership in the growth and development of a competitive, innovative and sustainable Canadian agriculture and agri-food sector.Responsibilities.",
            "fr": "Par\u00a0: Karen Croteau, Kevin Driscoll, Jim Melanson, Christine Vaillancourt, le 25 f\u00e9vrier 2013. 3.2.5 Perception g\u00e9n\u00e9rale des \u00e9l\u00e9ments de proc\u00e9dure. Cette situation s'explique en partie par leur difficult\u00e9 \u00e0 distinguer clairement, d'une part, le r\u00f4le de la Commission \u00e0 titre de tribunal d'appel, et d'autre part, le r\u00f4le des organismes, qui sont responsables de l'application de la r\u00e9glementation."
        },
        "language": {
            "en": "eng",
            "fr": "fra"
        },
        "keywords": {
            "en": null,
            "fr": null
        },
        "audience": {
            "en": "gcaudience",
            "fr": "gcaudience"
        },
        "type": {
            "en": "sound",
            "fr": "foire aux questions"
        },
        "creator": {
            "en": "Agriculture and Agri-Food Canada;Government of Canada",
            "fr": "Agriculture et Agroalimentaire Canada;Gouvernement du Canada"
        },
        "spatial": {
            "en": "gcregions",
            "fr": "gcregions"
        },
        "service": {
            "en": "AAFC-AAC",
            "fr": "AAFC-AAC"
        },
        "accessRights": {
            "en": "2",
            "fr": "2"
        },
        "legalName": {
            "en": "agriculture_and_agri_food_canada",
            "fr": "agriculture_et_agroalimentaire_canada"
        },
        "areaServed": {
            "en": "Canada",
            "fr": "Canada"
        }
    },
    "css": {
        "fr": null
    },
    "js": {
        "en": null,
        "fr": null
    },
    "body": {
        "en": "<!-- D&eacute;but du contenu -->\r\n    <div class=\"mrgn-tp-md mrgn-bttm-lg brdr-bttm\">\n\n<div class=\"row\">\n<ul class=\"toc lst-spcd col-md-12 list-unstyled\">\n<li class=\"col-md-4 col-sm-6\"><span class=\"list-group-item active\">Step 1. What this program offers</span></li>\n\n<li class=\"col-md-4 col-sm-6\"><span class=\"list-group-item\">Step 2. <a href=\"?id=1571229467828\">Who is eligible</a></span></li>\n\n<li class=\"col-md-4 col-sm-6 clr-lft-sm\"><span class=\"list-group-item\">Step 3. <a href=\"?id=1536082476673\">How to apply</a></span></li>\n\n<li class=\"col-md-4 col-sm-6\"><span class=\"list-group-item\">Step 4. <a href=\"?id=1571229520482\">After you apply</a></span></li>\n\n<li class=\"col-md-4 col-sm-6\"><span class=\"list-group-item\"><a href=\"?id=1538136828038\">Contact information</a></span></li>\n</ul>\n</div>\n</div>\n\n<h2>Step 1. What this program offers</h2>\n\n<p>The Farm Debt Mediation Service offers financial counselling and mediation services to farmers who are having difficulties meeting their financial obligations. It is a free and voluntary service for both producers and for creditor(s). The service helps bring producers and their creditor(s) together with a mediator in a neutral forum to reach a mutually acceptable solution.</p>\n\n<p>The service is private and confidential. It is an economical alternative to trying to resolve financial disputes in court.</p>\n\n<p>The majority of cases that have gone through the mediation process have resulted in a signed agreement between farmer and creditor(s).</p>\n\n<p>The Farm Debt Mediation Service is divided into two processes: Section 5\u00a0(1)\u00a0(a) and Section 5\u00a0(1)\u00a0(b). The main difference between the two is that Section 5\u00a0(1)\u00a0(a) includes a stay of proceedings and Section 5\u00a0(1)\u00a0(b) does not. For more details about each section, please see <a href=\"?id=1536082476673\">How to apply</a>.</p>\n\n<p>As soon as we confirm that you are eligible for the Service, a qualified financial consultant will be assigned to work with you throughout the mediation process.</p>\n\n<p>Once the financial consultant has helped you develop a recovery plan, a meeting will be arranged with you, your creditor(s) and a mediator.</p>\n\n<p>It is the mediator's responsibility to ensure a fair and unbiased mediation process and to remain neutral throughout all discussions. Confidentiality is extremely important to the quality and effectiveness of the service. Information obtained from you and your creditor(s) is used for the sole purpose of mediation and is shared only among the parties involved in the mediation process.</p>\n\n<p>The mediator has no decision making power and is at the meeting only to help you and your creditor(s) reach your own mutually acceptable settlement. The mediator will lead a discussion encouraging both the producer and the creditor(s) to participate; help the parties to communicate effectively; and help to explore and clarify options for settlement. When the parties agree upon a solution, the mediator will draw-up an agreement, get it signed, and give a copy to each of the participants.</p>\n\n<nav>\n  <h2 class=\"wb-inv\">Previous-next document navigation - bottom</h2>\n\n<div class=\"row\">\n<div class=\"col-md-12 mrgn-lft-0 mrgn-rght-0\">\n<ul class=\"pager\">\n<li class=\"next\"><a href=\"?id=1571229467828\" rel=\"next\" title=\"Who is eligible\">Next</a></li>\n</ul>\n</div>\n</div>\n</nav>\n\r\n    <!-- Fin du contenu -->",
        "fr": "\r\n    \r\n    <!-- MainContentStart -->\r\n    <!-- D&eacute;but du contenu -->\r\n    <div class=\"mrgn-tp-md mrgn-bttm-lg brdr-bttm\">\n\n<div class=\"row\">\n<ul class=\"toc lst-spcd col-md-12 list-unstyled\">\n<li class=\"col-md-4 col-sm-6\"><span class=\"list-group-item active\">\u00c9tape 1. Ce qu\u2019offre ce programme</span></li>\n\n<li class=\"col-md-4 col-sm-6\"><span class=\"list-group-item\">\u00c9tape 2. <a href=\"?id=1571229467828\">Qui est admissible</a></span></li>\n\n<li class=\"col-md-4 col-sm-6 clr-lft-sm\"><span class=\"list-group-item\">\u00c9tape 3. <a href=\"?id=1536082476673\">Comment pr\u00e9senter une demande</a></span></li>\n\n<li class=\"col-md-4 col-sm-6\"><span class=\"list-group-item\">\u00c9tape 4. <a href=\"?id=1571229520482\">Apr\u00e8s avoir pr\u00e9sent\u00e9 votre demande</a></span></li>\n\n<li class=\"col-md-4 col-sm-6\"><span class=\"list-group-item\"><a href=\"?id=1538136828038\">Pour nous joindre</a></span></li>\n</ul>\n</div>\n</div>\n\n<h2>\u00c9tape 1. Ce qu\u2019offre ce programme</h2>\n\n<p>Le Service de m\u00e9diation en mati\u00e8re d'endettement agricole offre des services de consultation et de m\u00e9diation aux agriculteurs qui \u00e9prouvent des difficult\u00e9s \u00e0 acquitter leurs obligations financi\u00e8res. Il s'agit d'un service volontaire sans frais \u00e0 l'intention des producteurs et du (ou des) cr\u00e9ancier(s). Le service aide les producteurs et leur(s) cr\u00e9ancier(s) \u00e0 se r\u00e9unir en compagnie d'un m\u00e9diateur dans un cadre neutre pour en arriver \u00e0 une solution mutuellement acceptable.</p>\n\n<p>Le service est priv\u00e9 et confidentiel. Il constitue une alternative \u00e9conomique aux tentatives de r\u00e8glement des d\u00e9saccords financiers par l'interm\u00e9diaire des tribunaux.</p>\n\n<p>Dans la plupart des cas qui ont suivi un processus de m\u00e9diation, il en a r\u00e9sult\u00e9 un accord sign\u00e9 entre l'agriculteur et le(s) cr\u00e9ancier(s).</p>\n\n<p>Le Service de m\u00e9diation en mati\u00e8re d'endettement agricole est r\u00e9parti selon deux formules\u00a0: l'une au titre de l'alin\u00e9a 5\u00a0(1)\u00a0(a) et l'autre de l'alin\u00e9a 5\u00a0(1)\u00a0(b). La principale diff\u00e9rence entre ces deux formules r\u00e9side dans la suspension des proc\u00e9dures, pr\u00e9vue seulement dans celle en vertu de l'alin\u00e9a 5\u00a0(1)\u00a0(a). Pour obtenir de plus amples d\u00e9tails au sujet de chaque section, veuillez-vous reporter au <a href=\"?id=1536082476673\">Comment pr\u00e9senter une demande</a>.</p>\n\n<p>Une fois que nous aurons confirm\u00e9 votre admissibilit\u00e9 au Service de m\u00e9diation en mati\u00e8re d'endettement agricole, un expert-conseil financier comp\u00e9tent vous accompagnera pendant le processus de m\u00e9diation.</p>\n\n<p>Une fois que l'expert-conseil financier vous aura aid\u00e9 \u00e0 concevoir un plan de redressement, votre (ou vos) cr\u00e9ancier(s), un m\u00e9diateur et vous prendrez part \u00e0 une rencontre.</p>\n\n<p>Le m\u00e9diateur reste neutre tout au long des discussions et veille \u00e0 ce que le processus de m\u00e9diation soit \u00e9quitable et impartial. La confidentialit\u00e9 est extr\u00eamement importante pour assurer la qualit\u00e9 et l'efficacit\u00e9 du service. L'information que votre (ou vos) cr\u00e9ancier(s) et vous fournirez servira aux seules fins de la m\u00e9diation et ne sera connue que des parties en cause dans le processus de m\u00e9diation.</p>\n\n<p>Le m\u00e9diateur ne poss\u00e8de aucun pouvoir d\u00e9cisionnel officiel. Il assiste \u00e0 la rencontre uniquement pour que votre (ou vos) cr\u00e9ancier(s) et vous puissiez parvenir \u00e0 un arrangement jug\u00e9 acceptable de part et d'autre.</p>\n\n<p>Le m\u00e9diateur orientera la discussion de mani\u00e8re \u00e0 favoriser la participation de l'agriculteur et du (ou des) cr\u00e9ancier(s). Il aidera les parties en cause \u00e0 bien se faire comprendre et examinera les diverses options en vue de parvenir \u00e0 un arrangement d\u00e9nu\u00e9 de toute ambigu\u00eft\u00e9. Lorsque les parties en cause auront convenu d'une solution, le m\u00e9diateur r\u00e9digera un accord, que les parties en cause signeront puis il en remettra une copie \u00e0 celles-ci.</p>\n\n<nav>\n<h2 class=\"wb-inv\">Navigation du document - pr\u00e9c\u00e9dente-suivante - bas</h2>\n\n<div class=\"row\">\n<div class=\"col-md-12 mrgn-lft-0 mrgn-rght-0\">\n<ul class=\"pager\">\n<li class=\"next\"><a href=\"?id=1571229467828\" rel=\"next\" title=\"Qui est admissible\">Suivante</a></li>\n</ul>\n</div>\n</div>\n</nav>\n\r\n    <!-- Fin du contenu -->\r\n\t\r\n\t\r\n\t\r\n  "
    }
}