{
    "dcr_id": "1550840298044",
    "title": {
        "en": "Contribution Agreements",
        "fr": "Ententes de contribution"
    },
    "modified": "2019-03-12",
    "issued": "2019-03-12",
    "templatetype": "content page 1 column",
    "page_type": "1",
    "node_id": "1550851019409",
    "dc_date_created": "2019-03-12",
    "managing_branch": "PAB",
    "parent_node_id": "1354137773676",
    "label": {
        "en": "Contribution Agreements",
        "fr": "Ententes de contribution"
    },
    "exturl": "",
    "teamsite_location": {
        "en": "/default/main/AAFC-AAC/Internet-Internet/CCB-DGCC/WORKAREA/CCB-DGCC/templatedata/comm-comm/gene-gene/data/contribution_agreements_1550840298044_en",
        "fr": "/default/main/AAFC-AAC/Internet-Internet/CCB-DGCC/WORKAREA/CCB-DGCC/templatedata/comm-comm/gene-gene/data/contribution_agreements_1550840298044_fr"
    },
    "type_name": "sitemapinit",
    "has_dcr_id": true,
    "breadcrumb": {
        "en": "Contribution Agreements",
        "fr": "Ententes de contribution"
    },
    "layout_name": "content page 1 column",
    "lang": "en",
    "meta": {
        "issued": {
            "en": "2019-03-12",
            "fr": "2019-03-12"
        },
        "modified": {
            "en": "2019-03-12",
            "fr": "2019-03-12"
        },
        "format": {
            "en": "gcformat",
            "fr": "gcformat"
        },
        "title": {
            "en": "Contribution Agreements",
            "fr": "Ententes de contribution"
        },
        "subject": {
            "en": "statistics;architectural heritage;architecture",
            "fr": "v\u00e9rification;technologie agricole;\u00e9conomie agricole"
        },
        "description": {
            "en": "April 3, 2014. Note:Some of the content is wider than usual.Canadian Agri-Science Clusters. CAAP. Canadian Agricultural Adaptation Program. CRDA. Collaborative Research and Development Agreements. AAFC innovation programs are aligned with federal priorities, contribute directly to departmental strategic outcomes for a competitive and innovative sector, and remain relevant as the sector continues to require government support to address barriers to innovation.There is a clear federal role to facilitate innovation in the agricultural sector.AAFC's innovation and adaptation programs are making progress toward achieving outcomes but this requires follow-up evaluations with further analysis and monitoring since sector adoption of innovation is a long-term process taking several years before it is possible to fully assess impacts.There were some challenges that need to be addressed concerning the design and delivery of the three programs.",
            "fr": "Agriculture et Agroalimentaire Canada. Table des mati\u00e8res. assujetties \u00e0 la. Loi sur l'acc\u00e8s \u00e0 l'information. Loi canadienne sur les pr\u00eats agricoles. .En vertu de la."
        },
        "language": {
            "en": "eng",
            "fr": "fra"
        },
        "keywords": {
            "en": "issues.This;innovation.Canada's",
            "fr": "admissibles.Selon"
        },
        "audience": {
            "en": "gcaudience",
            "fr": "gcaudience"
        },
        "type": {
            "en": "program-service description",
            "fr": "\u00e9valuation"
        },
        "creator": {
            "en": "Agriculture and Agri-Food Canada",
            "fr": "Agriculture et Agroalimentaire Canada"
        },
        "spatial": {
            "en": "gcregions",
            "fr": "gcregions"
        },
        "service": {
            "en": "AAFC-AAC",
            "fr": "AAFC-AAC"
        },
        "accessRights": {
            "en": "2",
            "fr": "2"
        },
        "legalName": {
            "en": "agriculture_and_agri_food_canada",
            "fr": "agriculture_et_agroalimentaire_canada"
        },
        "areaServed": {
            "en": "Canada",
            "fr": "Canada"
        }
    },
    "css": {
        "fr": null
    },
    "js": {
        "en": null,
        "fr": null
    },
    "body": {
        "en": "<!-- D&eacute;but du contenu -->\r\n    \n<p>A Contribution Agreement outlines the amount of funding Agriculture and Agri-Food Canada will provide towards eligible project costs, as well as the Recipient\u2019s responsibilities and obligations.</p>\n\n<ul>\n\t<li><a href=\"?id=1550841037112\">Repayable Contribution Agreement</a></li>\n\t<li><a href=\"?id=1550849115702\">Non-repayable Contribution Agreement</a></li>\n</ul>\n\r\n    <!-- Fin du contenu -->",
        "fr": "\r\n    \r\n    <!-- MainContentStart -->\r\n    <!-- D&eacute;but du contenu -->\r\n    <p>Une entente de contribution indique le montant de financement qu\u2019Agriculture et Agroalimentaire Canada affectera aux co\u00fbts admissibles du projet, ainsi que les responsabilit\u00e9s et obligations du b\u00e9n\u00e9ficiaire.</p>\n\n<ul>\n  <li><a href=\"?id=1550841037112\">Entente de contribution remboursable</a></li>\n  <li><a href=\"?id=1550849115702\">Entente de contribution non remboursable</a></li>\n</ul>\n\r\n    <!-- Fin du contenu -->\r\n\t\r\n\t\r\n\t\r\n  "
    }
}