{
    "dcr_id": "1563475954611",
    "title": {
        "en": "Local Food Infrastructure Fund: Step 3. How to apply",
        "fr": "Fonds des infrastructures alimentaires locales: \u00c9tape 3. Comment pr\u00e9senter une demande"
    },
    "modified": "2021-01-04",
    "issued": "2019-08-15",
    "templatetype": "content page 1 column",
    "page_type": "1",
    "node_id": "1566301549359",
    "dc_date_created": "2019-08-15",
    "managing_branch": "PAB",
    "parent_node_id": "1565713292962",
    "label": {
        "en": "How to Apply",
        "fr": "Comment pr\u00e9senter une demande"
    },
    "exturl": "",
    "teamsite_location": {
        "en": "/default/main/AAFC-AAC/Internet-Internet/Group-Ensemble/ProgServ-ProgServ/WORKAREA/ProgServ-ProgServ/templatedata/comm-comm/gene-gene/data/07/lfif_stream1_3_1563475954611_en",
        "fr": "/default/main/AAFC-AAC/Internet-Internet/Group-Ensemble/ProgServ-ProgServ/WORKAREA/ProgServ-ProgServ/templatedata/comm-comm/gene-gene/data/07/lfif_stream1_3_1563475954611_fr"
    },
    "type_name": "sitemapinit",
    "has_dcr_id": true,
    "breadcrumb": {
        "en": "How to Apply",
        "fr": "Comment pr\u00e9senter une demande"
    },
    "layout_name": "content page 1 column",
    "lang": "en",
    "meta": {
        "issued": {
            "en": "2019-08-15",
            "fr": "2019-08-15"
        },
        "modified": {
            "en": "2021-02-13",
            "fr": "2021-02-13"
        },
        "format": {
            "en": "text/html",
            "fr": "text/html"
        },
        "title": {
            "en": "Local Food Infrastructure Fund: Step 3. How to apply",
            "fr": "Fonds des infrastructures alimentaires locales: \u00c9tape 3. Comment pr\u00e9senter une demande"
        },
        "subject": {
            "en": "programs;nutrition;food;federal programs;community development",
            "fr": "programme f\u00e9d\u00e9ral;programme;d\u00e9veloppement communautaire;alimentation"
        },
        "description": {
            "en": "The Local Food Infrastructure Fund, Infrastructure and Equipment Improvement Projects aims to enable small community-based organizations to improve their infrastructure and purchase equipment that is directly related to the accessibility of healthy, nutritious, and ideally, local foods within their community.",
            "fr": "Le Fonds des infrastructures alimentaires locales, Le volet des Projets d\u2019am\u00e9lioration des infrastructures et \u00e9quipements a pour objectif de permettre aux petits organismes communautaires d\u2019am\u00e9liorer leur infrastructure et d\u2019acheter de l\u2019\u00e9quipement li\u00e9 directement \u00e0 l\u2019accessibilit\u00e9 \u00e0 des aliments sains, nutritifs et id\u00e9alement locaux au sein de leur collectivit\u00e9."
        },
        "language": {
            "en": "eng",
            "fr": "fra"
        },
        "keywords": {
            "en": " Food availability; Food accessibility; Fresh food; Nutritious food; Healthy food; Local food; Food equipment; Food infrastructure; Food security; Food services; Community initiative; Food initiative; Food program;Food policy",
            "fr": " disponibilit\u00e9 alimentaire; acc\u00e8s alimentaire; aliments frais; aliments nutritifs; aliments sant\u00e9; aliments locaux; \u00e9quipement alimentaire; infrastructure alimentaire; s\u00e9curit\u00e9 alimentaire; service alimentaire; initiative communautaire; initiative alimentaire; programme alimentaire;Politique alimentaire"
        },
        "audience": {
            "en": "gcaudience",
            "fr": "gcaudience"
        },
        "type": {
            "en": "program-service description",
            "fr": "description du programme ou du service"
        },
        "creator": {
            "en": "Agriculture and Agri-Food Canada;Government of Canada",
            "fr": "Agriculture et Agroalimentaire Canada;Gouvernement du Canada"
        },
        "spatial": {
            "en": "gcregions",
            "fr": "gcregions"
        },
        "service": {
            "en": "AAFC-AAC",
            "fr": "AAFC-AAC"
        },
        "accessRights": {
            "en": "2",
            "fr": "2"
        },
        "legalName": {
            "en": "agriculture_and_agri_food_canada",
            "fr": "agriculture_et_agroalimentaire_canada"
        },
        "areaServed": {
            "en": "Canada",
            "fr": "Canada"
        }
    },
    "css": {
        "fr": null
    },
    "js": {
        "en": null,
        "fr": null
    },
    "body": {
        "en": "<!-- D&eacute;but du contenu -->\r\n    <div class=\"mrgn-tp-md mrgn-bttm-lg brdr-bttm\">\n\n<div class=\"row\">\n<ul class=\"toc lst-spcd col-md-12 list-unstyled\">\n<li class=\"col-md-4 col-sm-6\"><span class=\"list-group-item\">Step 1. <a href=\"?id=1560701480448\">What this program offers</a></span></li>\n\n<li class=\"col-md-4 col-sm-6\"><span class=\"list-group-item\">Step 2. <a href=\"?id=1563475924908\">Who is eligible</a></span></li>\n\n<li class=\"col-md-4 col-sm-6 clr-lft-sm\"><span class=\"list-group-item active\">Step 3. How to apply</span></li>\n\n<li class=\"col-md-4 col-sm-6\"><span class=\"list-group-item\">Step 4. <a href=\"?id=1563475978180\">After you apply</a></span></li>\n\n<li class=\"col-md-4 col-sm-6\"><span class=\"list-group-item\"><a href=\"?id=1563476002321\">Applicant guide</a></span></li>\n\n<li class=\"col-md-4 col-sm-6\"><span class=\"list-group-item\"><a href=\"?id=1563476024898\">Contact information</a></span></li>\n</ul>\n</div>\n</div>\n\n<h2>Step 3. How to apply</h2>\n\n<div class=\"alert alert-info\">\n   <p>Due to the very high volume of applications received in the second phase of the Local Food Infrastructure Fund, the application intake has now been temporarily closed. Future updates on the program will be provided here.</p>\n</div>\n\n<p>Before you apply, please read the <a href=\"?id=1563476002321\">Applicant guide</a> for detailed information on eligibility criteria, support and funding available, and the application process.</p>\n\n<div class=\"well\">\n\t<p>All projects must comply with the <cite>Impact Assessment Act</cite> (IAA 2019). For more information, refer to the <a href=\"?id=1563476043606#ec\">Environmental considerations</a> section of the Applicant guide.</p>\n</div>\n\n<section class=\"mrgn-tp-lg\" id=\"pdfforms\">\n<div class=\"alert alert-warning\">\n\n<h3>PDF forms</h3>\n\n<p>If you have problems opening a PDF form in your Internet browser, you need to:</p>\n<ul class=\"mrgn-tp-md\">\n <li>Use your computer. <strong>The forms may not open on mobile devices (iPads, tablets, mobile phones)</strong>.</li>\n <li>Make sure you have Adobe Reader 11 (or higher) already installed on your computer. If not, download <a href=\"http://get.adobe.com/reader/otherversions/\" rel=\"external\">Adobe Reader 11 or higher</a> for free. Adobe has help for <a href=\"https://helpx.adobe.com/ca/acrobat/kb/cant-view-pdf-web.html\" rel=\"external\">solving common issues</a>.</li>\n <li>You <strong>must save the file on your computer</strong> in a place you can remember.</li>\n<li>Open the file on your computer using <a href=\"http://get.adobe.com/reader/otherversions/\" rel=\"external\">Adobe Reader 11 or higher</a>.</li>\n<li>If you can't open the form with Adobe Reader 11 or higher, <a href=\"?id=1563476024898\">contact the program</a>.</li>\n</ul>\n\n\n    <h4 class=\"lead mrgn-bttm-0\">How to download and open a PDF form</h4>\n<!--  <p>To download and open a PDF form, you need to have <a href=\"http://get.adobe.com/reader/otherversions/\" rel=\"external\">Adobe Reader 11 or higher</a> installed.</p> -->\n\n<ul class=\"list-unstyled\">\n\n\n\t<li>\n<details class=\"mrgn-tp-sm\">\n    <summary>Microsoft Windows Operating System computers using \"Internet Explorer\" or \"Microsoft Edge\" as your browser</summary>\n    <ol>\n      <li>Right-click on the link you want to save</li>\n      <li>Select \"Save target as\" or \"Save link as\"</li>\n      <li>Choose the location on your computer where you would like to save the file</li>\n      <li>Select \"Save\"</li>\n      <li>Open Adobe Reader 11 or higher</li>\n      <li>Select \"File\"</li> \n      <li>Select \"Open\"</li>\n      <li>Go to the location where you saved the file</li> \n      <li>Select the PDF file</li>\n      <li>Select \"Open\"</li>\n    </ol>\n    </details>\n</li>\n\n<li>\n<details class=\"mrgn-tp-sm\">\n<summary>Microsoft Windows Operating System or Apple computers using \"Chrome\" or Firefox\" as your browser</summary>\n    <ol>\n      <li>Right-click on the link you want to save</li>\n      <li>When the option menu appears, choose \"Download link file\" or \"Download link file as\"</li>\n      <li>Choose the location on your computer where you would like to save  the file. Your computer will start the download once you have selected a  location.</li>\n<li>Open Adobe Reader 11 or higher</li>\n      <li>Go to the location where you saved the file</li> \n      <li>Select the PDF file</li>\n      <li>Select \"Open\"</li>\n    </ol>\n    </details>\n</li>\n</ul>\n\n</div>\n</section>\n\n<h3>1. Complete the application form and required documents</h3>\n\n<p>A complete application package consists of:</p>\n\n<ul>\n\t<li>a completed <!--a href=\"http://multimedia.agr.gc.ca/pack/pdf/lfif2_paf-fdp_01-2021-eng.pdf\"-->Project application form<!-- (PDF)</a--> (required)</li>\n\t<li><a href=\"?id=1593434247180\">Signature of Applicant Authorized Representative</a></li>\n\t<li>confirmation of legal entity and/or not-for-profit status</li>\n\t<li>letters of Financial Support, and if applicable, Project Endorsement Letters</li>\n\t<li>quotes,  estimates and/or contracts provided by suppliers/service providers for all  capital assets or other direct project costs to be purchased and installed  valued at more than $5,000</li>\n\t    <li class=\"list-unstyled mrgn-lft-xl\">\n\t     <b><span class=\"text-uppercase\">Note</span>: For structural renovations</b> (for example, kitchen renovations), a minimum  of three (3) estimates/quotes from different service providers is normally  required to justify costs and fair market value. In addition, a floor plan is  also required which includes dimensions of building and renovation site. \n\t    </li>\n</ul>\n\n\n<h3>2. Submit your completed application form and documents</h3>\n\n<p>To apply online, download, complete and submit the <!--a href=\"http://multimedia.agr.gc.ca/pack/pdf/lfif2_paf-fdp_01-2021-eng.pdf\"-->Project application form<!-- (PDF)</a-->.</p>\n\n<p>You can apply by email to <a href=\"mailto:aafc.foodprograms-programmesalimentaires.aac@canada.ca\">aafc.foodprograms-programmesalimentaires.aac@canada.ca</a>.</p>\n\n<!-- <p><a href=\"?id=1563476024898\">Contact the program</a> to apply by mail or fax and submit a complete application package.</p> -->\n\n<nav>\n  <h2 class=\"wb-inv\">Previous-next document navigation - bottom</h2>\n\n<div class=\"row\">\n<div class=\"col-md-12 mrgn-lft-0 mrgn-rght-0\">\n<ul class=\"pager\">\n<li class=\"previous\"><a href=\"?id=1563475924908\" rel=\"prev\" title=\"Who is eligible\">Previous</a></li>\n<li class=\"next\"><a href=\"?id=1563475978180\" rel=\"next\" title=\"After you apply\">Next</a></li>\n</ul>\n</div>\n</div>\n</nav>\n\n\r\n    <!-- Fin du contenu -->",
        "fr": "\r\n    \r\n    <!-- MainContentStart -->\r\n    <!-- D&eacute;but du contenu -->\r\n    <div class=\"mrgn-tp-md mrgn-bttm-lg brdr-bttm\">\n\n<div class=\"row\">\n<ul class=\"toc lst-spcd col-md-12 list-unstyled\">\n<li class=\"col-md-4 col-sm-6\"><span class=\"list-group-item\">\u00c9tape 1. <a href=\"?id=1560701480448\">Ce qu'offre ce programme</a></span></li>\n\n<li class=\"col-md-4 col-sm-6\"><span class=\"list-group-item\">\u00c9tape 2. <a href=\"?id=1563475924908\">Qui est admissible</a></span></li>\n\n<li class=\"col-md-4 col-sm-6 clr-lft-sm\"><span class=\"list-group-item active\">\u00c9tape 3. Comment pr\u00e9senter une demande</span></li>\n\n<li class=\"col-md-4 col-sm-6\"><span class=\"list-group-item\">\u00c9tape 4. <a href=\"?id=1563475978180\">Apr\u00e8s avoir pr\u00e9sent\u00e9 votre demande</a></span></li>\n\n<li class=\"col-md-4 col-sm-6\"><span class=\"list-group-item\"><a href=\"?id=1563476002321\">Guide du demandeur</a></span></li>\n\n<li class=\"col-md-4 col-sm-6\"><span class=\"list-group-item\"><a href=\"?id=1563476024898\">Pour nous joindre</a></span></li>\n</ul>\n</div>\n</div>\n\n<h2>\u00c9tape 3. Comment pr\u00e9senter une demande</h2>\n\n<div class=\"alert alert-info\">\n   <p>\u00c9tant donn\u00e9 le tr\u00e8s grand nombre de demandes re\u00e7ues \u00e0 ce jour dans le cadre de la deuxi\u00e8me phase du Fonds des infrastructures alimentaires locales, le processus de pr\u00e9sentation de demandes est maintenant suspendu temporairement. Les futures mises \u00e0 jour du programme seront disponibles ici.</p>\n</div>\n\n<p>Avant de soumettre votre demande, veuillez lire le <a href=\"?id=1563476002321\">Guide du demandeur</a> pour plus de d\u00e9tails sur les crit\u00e8res d'\u00e9ligibilit\u00e9s, le financement et les fonds disponibles ainsi que le processus pour faire une demande.</p>\n\n<div class=\"well\">\n\t<p>Tous les projets doivent \u00eatre conformes \u00e0 la <cite>Loi sur l'\u00e9valuation d'impact</cite> (LEI 2019). Pour plus d'informations, reportez-vous \u00e0 la section \u00ab\u00a0<a href=\"?id=1563476043606#ce\">Consid\u00e9rations environnementales</a>\u00a0\u00bb du guide du demandeur.</p>\n</div>\n\n<section class=\"mrgn-tp-lg\" id=\"pdfforms\">\n<div class=\"alert alert-warning\">\n\n  <h3>Formulaires en format PDF</h3>\n  \n<p>Si vous avez de la difficult\u00e9 \u00e0 ouvrir un formulaire PDF dans votre navigateur Internet, vous devez\u00a0:</p>\n\n<ul class=\"mrgn-tp-md\">\n <li>utiliser votre ordinateur. <strong>Il est possible que les formulaires ne s'ouvrent pas sur des appareils mobiles (iPad, tablettes, t\u00e9l\u00e9phones cellulaires)</strong>.</li>\n  <li>vous assurer que la version 11 (ou une version ult\u00e9rieure) d'Adobe Reader est d\u00e9j\u00e0 install\u00e9e sur votre ordinateur. Si ce n'est pas le cas, t\u00e9l\u00e9chargez gratuitement <a href=\"http://get.adobe.com/fr/reader/otherversions/\" rel=\"external\">Adobe Reader 11 ou une version ult\u00e9rieure</a>. Adobe offre des <a href=\"https://helpx.adobe.com/fr/acrobat/kb/cant-view-pdf-web.html\" rel=\"external\">solutions aux principaux probl\u00e8mes d'affichage</a>;</li>\n <li><strong>sauvegarder le fichier sur votre ordinateur</strong> \u00e0 un endroit dont vous vous souviendrez;</li>\n <li>ouvrir le fichier sur votre ordinateur \u00e0 l'aide d'<a href=\"http://get.adobe.com/fr/reader/otherversions/\" rel=\"external\">Adobe Reader 11 ou une version ult\u00e9rieure</a>.</li>\n <li>Si vous ne parvenez pas \u00e0 ouvrir le formulaire avec Adobe Reader 11 ou une version ult\u00e9rieure, <a href=\"?id=1563476024898\">veuillez contacter le programme</a>.</li>\n</ul>\n\n\n    <h4 class=\"lead mrgn-bttm-0\">Comment t\u00e9l\u00e9charger et ouvrir un formulaire au format PDF</h4>\n  <!--  <p>Pour t&eacute;l&eacute;charger et ouvrir un formulaire au format PDF, vous devez installer <a href=\"http://get.adobe.com/fr/reader/otherversions/\" rel=\"external\">Adobe Reader 11 ou une version ult&eacute;rieure</a>.</p> -->\n\n<ul class=\"list-unstyled\">\n\t<li>\n<details class=\"mrgn-tp-sm\">\n    <summary>Les ordinateurs utilisant le syst\u00e8me d'exploitation Microsoft Windows et se servant de  \"Internet Explorer\" ou \"Microsoft Edge\" comme fureteur</summary>\n     <ol>\n      <li>Cliquez sur le lien que vous voulez enregistrer avec le bouton droit de la souris;</li>\n      <li>S\u00e9lectionnez \u00ab\u00a0Enregistrer la cible sous\u00a0\u00bb ou \u00ab\u00a0Enregistrer le lien sous\u00a0\u00bb;</li>\n      <li>Choisissez l'emplacement o\u00f9 vous souhaitez enregistrer le fichier sur votre ordinateur;</li>\n      <li>S\u00e9lectionnez \u00ab\u00a0Enregistrer\u00a0\u00bb;</li>\n      <li>Ouvrissiez Adobe Reader 11 ou une version ult\u00e9rieure;</li>\n      <li>S\u00e9lectionnez \u00ab\u00a0Fichier\u00a0\u00bb;</li>\n\n      <li>S\u00e9lectionnez \u00ab\u00a0Ouvrez\u00a0\u00bb;</li>\n      <li>Acc\u00e9dez \u00e0 l'emplacement o\u00f9 vous avez enregistr\u00e9 le fichier;</li>\n      <li>Choisissez le formulaire PDF;</li>\n      <li>S\u00e9lectionnez \u00ab\u00a0Ouvrez\u00a0\u00bb.</li>\n    </ol> \n    </details></li>\n    \n    <li>\n<details class=\"mrgn-tp-sm\">\n<summary>Les ordinateurs utilisant le syst\u00e8me d'exploitation Microsoft Windows ou Apple et se servant de \"Chrome\" ou \"Firefox\" comme fureteur</summary>\n        <ol>\n      <li>Cliquez sur le lien que vous voulez enregistrer avec le bouton droit de la souris;</li>\n      <li>Quand le menu d'options s'affiche, s\u00e9lectionnez \"T\u00e9l\u00e9charger le fichier li\u00e9\" ou \"T\u00e9l\u00e9charger le fichier li\u00e9 sous\"</li>\n      <li>Choisissez l'emplacement o\u00f9 vous souhaitez enregistrer le fichier  sur votre ordinateur. Le t\u00e9l\u00e9chargement commencera une fois que vous  aurez choisi un emplacement;</li>\n  <li>Ouvrissiez Adobe Reader 11 ou une version ult\u00e9rieure;</li>\n      <li>Acc\u00e9dez \u00e0 l'emplacement o\u00f9 vous avez enregistr\u00e9 le fichier;</li>\n      <li>Choisissez le formulaire PDF;</li>\n      <li>S\u00e9lectionnez \u00ab\u00a0Ouvrez\u00a0\u00bb.</li>\n    </ol>\n    </details>\n    </li></ul>\n    </div></section>\n\n\n\n<h3>1. Remplir le formulaire d'application et les documents requis</h3>\n\n<p>Le dossier de la demande en ligne doit comprendre les \u00e9l\u00e9ments suivants :</p>\n\n<ul>\n\t<li><!--a href=\"http://multimedia.agr.gc.ca/pack/pdf/lfif2_paf-fdp_01-2021-fra.pdf\"-->Formulaire de demande de projet<!-- (PDF)</a--> (requis)</li>\n\t<li><a href=\"?id=1593434247180\">Autorisation par signature du repr\u00e9sentant d\u00e9sign\u00e9 du demandeur</a></li>\n\t<li>Confirmation d'\u00e9tat d'entit\u00e9 juridique et/ou d'organisation sans but lucratif</li>\n\t<li>Lettres de soutien financier et, le cas \u00e9ch\u00e9ant, lettres d'appui au projet</li>\n  <li>Devis, estimations       et/ou contrats fournis par les fournisseurs/prestataires de services pour       toutes les immobilisations ou autres co\u00fbts directs de projet \u00e0 \u00eatre achet\u00e9       et install\u00e9 d'une valeur de plus de 5 000 $. </li>\n  <li class=\"list-unstyled mrgn-lft-xl\">\n<b><span class=\"text-uppercase\">REMARQUE</span>\u00a0: Pour  les r\u00e9novations structurelles</b> (par exemple, une r\u00e9novation de cuisine), un minimum de trois (3)  estimations / devis de diff\u00e9rents fournisseurs de services est normalement  requis pour justifier les co\u00fbts et la juste valeur marchande. En outre, un plan  d'\u00e9tage est \u00e9galement requis, qui comprend les dimensions du b\u00e2timent et du  site de r\u00e9novation.</li>\n</ul>\n<h3>2. Soumettre votre formulaire d'application et les documents requis</h3>\n\n<p>Pour postuler en ligne, t\u00e9l\u00e9charger, remplir et soumettre le <!--a href=\"http://multimedia.agr.gc.ca/pack/pdf/lfif2_paf-fdp_01-2021-fra.pdf\"-->formulaire de demande de projet<!-- (PDF)</a-->.</p>\n\n<p>Vous pouvez faire une demande par courriel \u00e0 <a href=\"mailto:aafc.foodprograms-programmesalimentaires.aac@canada.ca\">aafc.foodprograms-programmesalimentaires.aac@canada.ca</a>.</p>\n\n<!-- <p><a href=\"?id=1563476024898\">Contactez le programme</a> pour postuler par courriel ou par fax en soumettant votre dossier de la demande.</p> -->\n\n<nav>\n  <h2 class=\"wb-inv\">Navigation du document - pr\u00e9c\u00e9dente-suivante - bas</h2>\n\n<div class=\"row\">\n<div class=\"col-md-12 mrgn-lft-0 mrgn-rght-0\">\n<ul class=\"pager\">\n<li class=\"previous\"><a href=\"?id=1563475924908\" rel=\"prev\" title=\"Qui est admissible\">Pr\u00e9c\u00e9dente</a></li>\n<li class=\"next\"><a href=\"?id=1563475978180\" rel=\"next\" title=\"Apr\u00e8s avoir pr\u00e9sent\u00e9 votre demande\">Suivante</a></li>\n</ul>\n</div></div></nav>\n\r\n    <!-- Fin du contenu -->\r\n\t\r\n\t\r\n\t\r\n  "
    }
}