{
    "dcr_id": "1383918945146",
    "title": {
        "en": "Agri-food trade issues",
        "fr": "Enjeux du commerce agroalimentaire"
    },
    "modified": "2020-01-31",
    "issued": "2003-03-20",
    "templatetype": "content page 1 column",
    "page_type": "1",
    "node_id": "1579021863599",
    "dc_date_created": "2003-03-20",
    "managing_branch": "MISB",
    "parent_node_id": "1579021837815",
    "label": {
        "en": "Agri-food trade issues",
        "fr": "Enjeux du commerce agroalimentaire"
    },
    "exturl": "",
    "teamsite_location": {
        "en": "/default/main/AAFC-AAC/Internet-Internet/MISB-DGSIM/ITPD-DBCI/WORKAREA/ITPD-DBCI/templatedata/comm-comm/gene-gene/data/atp_index_1383918945146_en",
        "fr": "/default/main/AAFC-AAC/Internet-Internet/MISB-DGSIM/ITPD-DBCI/WORKAREA/ITPD-DBCI/templatedata/comm-comm/gene-gene/data/atp_index_1383918945146_fr"
    },
    "type_name": "sitemapinit",
    "has_dcr_id": true,
    "breadcrumb": {
        "en": "Agri-food trade issues",
        "fr": "Enjeux du commerce agroalimentaire"
    },
    "layout_name": "content page 1 column",
    "lang": "en",
    "meta": {
        "issued": {
            "en": "2003-03-20",
            "fr": "2003-03-20"
        },
        "modified": {
            "en": "2020-01-31",
            "fr": "2020-01-31"
        },
        "format": {
            "en": "gcformat",
            "fr": "gcformat"
        },
        "title": {
            "en": "Agri-food trade issues",
            "fr": "Enjeux du commerce agroalimentaire"
        },
        "subject": {
            "en": "policy",
            "fr": "politique"
        },
        "description": {
            "en": "Global agricultural trade, technical barriers, geographical indications",
            "fr": "Questions commerciales, Organisation mondiale du commerce, acc\u00e8s aux march\u00e9s et questions techniques"
        },
        "language": {
            "en": "eng",
            "fr": "fra"
        },
        "keywords": {
            "en": " market access ; trade issues; multilateral;canola",
            "fr": " acc\u00e8s aux march\u00e9s ; Obstacles commerce; multilat\u00e9rales;canola"
        },
        "audience": {
            "en": "gcaudience",
            "fr": "gcaudience"
        },
        "type": {
            "en": "administrative page",
            "fr": "page administrative"
        },
        "creator": {
            "en": "Trade Agreements and Negotiations;Market and Industry Services Branch;Agriculture and Agri-Food Canada;Government of Canada",
            "fr": "Direction des accords commerciaux et des n\u00e9gociations;Direction g\u00e9n\u00e9rale des services \u00e0 l'industrie et aux march\u00e9s;Agriculture et Agroalimentaire Canada;Gouvernement du Canada"
        },
        "spatial": {
            "en": "gcregions",
            "fr": "gcregions"
        },
        "service": {
            "en": "AAFC-AAC",
            "fr": "AAFC-AAC"
        },
        "accessRights": {
            "en": "2",
            "fr": "2"
        },
        "legalName": {
            "en": "agriculture_and_agri_food_canada",
            "fr": "agriculture_et_agroalimentaire_canada"
        },
        "areaServed": {
            "en": "Canada",
            "fr": "Canada"
        }
    },
    "body": {
        "en": "<!-- D&eacute;but du contenu -->\r\n    <div class=\"row profile\">\n<div class=\"col-md-6\">\n     \n        <p>Trade issues, World Trade Organization, market access and technical issues.</p>\n\n <!-- START Social Buttons -->\n<div class=\"pull-left\">\n<section class=\"followus mrgn-tp-0\"> \n   <h2>Follow:</h2> \n   <ul> \n    <li><a href=\"https://www.facebook.com/CanadianAgriculture/\" class=\"facebook gl-follow\" rel=\"external\"> <span class=\"wb-inv\">Facebook</span></a></li> \n    <li><a href=\"https://twitter.com/AAFC_Canada\" class=\"twitter gl-follow\" rel=\"external\"> <span class=\"wb-inv\">Twitter</span></a></li> \n    \n    <li><a href=\"https://www.linkedin.com/company/aafc-aac/?viewAsMember=true\" class=\"linkedin gl-follow\" rel=\"external\"><span class=\"wb-inv\">LinkedIn</span></a></li>    \n    \n    <li><a href=\"https://www.youtube.com/user/AgricultureCanadaEng\" class=\"youtube gl-follow\" rel=\"external\"><span class=\"wb-inv\">YouTube</span></a></li> \n   </ul> \n  </section>\n</div>\n<!-- END Social Buttons -->\n</div>\n</div>     \n\n<div class=\"clearfix\"></div>\n\n<div class=\"row\">\n<section class=\"col-md-4 col-xs-12 pull-right lnkbx\">\n<h2>Most requested</h2>\n<ul>\n  <li><a href=\"?id=1556216799636\">Timeline of key activities: Canola seed exports to China</a></li>\n  <li><a href=\"?id=1384370877312\">Low-Level Presence</a></li>\n  <li><a href=\"?id=1472836695032\">Policy Model \u2013 Managing Low Level Presence of Genetically Modified Crops in Imported Grain, Food and       Feed</a></li>\n</ul>\n\n<h2>Contributors</h2>\n<ul>\n    <li><a href=\"?id=1395690825741\">Agriculture and Agri-Food Canada</a></li>\n</ul>\n</section>\n\n<section class=\"col-md-8 col-xs-12 pull-left\">\n\n<div class=\"wb-eqht row wb-init wb-eqht-inited\" id=\"wb-auto-1\">\n\n<h2 class=\"col-md-6 nowrap\">Services and information</h2>\n\n<div class=\"clearfix\"></div>\n\n<div class=\"col-md-6\">\n<h3 class=\"h5\"><a href=\"?id=1554148827853\">Market access for the grains and oilseeds sector</a></h3>\n<p>Canola seed trade disruption, working group, programs to support farmers</p>\n</div>\n\n<div class=\"col-md-6\">\n<h3 class=\"h5\"><a href=\"?id=1384285632268\">Technical trade issues in Agriculture</a></h3>\n<p>Technical regulations, standards, conformity assessment procedures, international trade rules</p>\n</div>\n\n<div class=\"clearfix\"></div>\n\n</div>\n</section>\n\n<section class=\"col-md-8 col-xs-12 pull-left\">\n\n<h2>Related information</h2>\n\n<div class=\"clearfix\"></div>\n\n   <ul class=\"colcount-sm-2\"> \n  <li><a href=\"https://www.tradecommissioner.gc.ca/united-kingdom-royaume-uni/information-brexit-renseignements.aspx?lang=eng\">Brexit \u2013 Summary information for Canadian companies</a></li>\n  <li><a href=\"http://www.ic.gc.ca/eic/site/cipointernet-internetopic.nsf/eng/wr04244.html\">Request  Protection of a Geographical Indication</a></li>\n  \n  <li><a href=\"https://www.international.gc.ca/trade-commerce/trade-agreements-accords-commerciaux/agr-acc/index.aspx?lang=eng\">Free trade agreements between Canada and trading partners</a></li>\n  <li><a href=\"https://www.international.gc.ca/trade-commerce/trade-agreements-accords-commerciaux/agr-acc/ceta-aecg/chapter_summary-resume_chapitre.aspx?lang=eng#a2\">National  Treatment and Market Access</a></li>  \n\n  <li><a href=\"https://www.international.gc.ca/trade-commerce/trade-agreements-accords-commerciaux/agr-acc/nafta-alena/fta-ale/tech-rect.aspx?lang=eng\">Rules  of Origin and Origin Procedures</a></li>\n  <li><a href=\"https://www.international.gc.ca/trade-agreements-accords-commerciaux/wto-omc/enquiry-info.aspx?lang=eng\">Sanitary  and Phytosanitary Measures</a></li>\n  <li><a href=\"https://www.international.gc.ca/trade-agreements-accords-commerciaux/topics-domaines/goods-produits/barriers.aspx?lang=eng\">Technical Barriers to Trade</a></li>\n</ul>\n</section>\n\n</div>\n\r\n    <!-- Fin du contenu -->",
        "fr": "\r\n    \r\n    <!-- MainContentStart -->\r\n    <!-- D&eacute;but du contenu -->\r\n    <div class=\"row profile\">\n<div class=\"col-md-6\">\n     \n        <p>Questions commerciales, Organisation mondiale du commerce, acc\u00e8s aux march\u00e9s et questions techniques.</p>\n\n<!-- START Social Buttons -->\n<div class=\"pull-left\">\n<section class=\"followus mrgn-tp-0\"> \n <h2>Suivez\u00a0:</h2> \n <ul> \n    <li><a href=\"https://www.facebook.com/AgricultureCanadienne\" class=\"facebook gl-follow\" rel=\"external\"> <span class=\"wb-inv\">Facebook</span></a></li> \n    <li><a href=\"https://twitter.com/AAC_Canada\" class=\"twitter gl-follow\" rel=\"external\"> <span class=\"wb-inv\">Twitter</span></a></li> \n    \n    <li><a href=\"https://www.linkedin.com/company/aafc-aac/?viewAsMember=true\" class=\"linkedin gl-follow\" rel=\"external\"><span class=\"wb-inv\">LinkedIn</span></a></li>\n    \n    <li><a href=\"https://www.youtube.com/user/AgricultureCanadaFra\" class=\"youtube gl-follow\" rel=\"external\"><span class=\"wb-inv\">YouTube</span></a></li> \n </ul> \n  </section> \n  </div>\n<!-- END Social Buttons -->    \n</div>\n</div>\n\n<div class=\"clearfix\"></div>\n\n<div class=\"row\">\n<section class=\"col-md-4 col-xs-12 pull-right lnkbx\">\n<h2>En demande</h2>\n<ul>\n  <li><a href=\"?id=1556216799636\">Calendrier des principales activit\u00e9s : Exportations de graines de canola vers la Chine</a></li>\n  <li><a href=\"?id=1384370877312\">Pr\u00e9sence en faible concentration</a></li>\n  <li><a href=\"?id=1472836695032\">Mod\u00e8le de politique pour la gestion des cas de pr\u00e9sence de faibles concentrations d'une culture g\u00e9n\u00e9tiquement modifi\u00e9e dans des grains, des aliments et des aliments pour animaux import\u00e9s</a></li>\n</ul>\n\n<h2>Collaborateurs</h2>\n<ul>\n    <li><a href=\"?id=1395690825741\">Agriculture et Agroalimentaire Canada</a></li>\n</ul>\n</section>\n\n<section class=\"col-md-8 col-xs-12 pull-left\">\n\n<div class=\"wb-eqht row wb-init wb-eqht-inited\" id=\"wb-auto-1\">\n\n<h2 class=\"col-md-6 nowrap\">Services et renseignements</h2>\n\n<div class=\"clearfix\"></div>\n\n<div class=\"col-md-6\">\n<h3 class=\"h5\"><a href=\"?id=1554148827853\">Acc\u00e8s aux march\u00e9s pour l\u2019industrie des c\u00e9r\u00e9ales et des ol\u00e9agineux</a></h3>\n<p>Perturbation du commerce des graines de canola, groupe de travail, programmes d\u2019aide aux agriculteurs</p>\n</div>\n\n<div class=\"col-md-6\">\n<h3 class=\"h5\"><a href=\"?id=1384285632268\">Obstacles techniques au commerce agricole</a></h3>\n<p>R\u00e8gles techniques, normes, proc\u00e9dures d\u2019\u00e9valuation de la conformit\u00e9, r\u00e8gles commerciales internationales</p>\n</div>\n\n<div class=\"clearfix\"></div>\n\n</div>\n</section>\n\n<section class=\"col-md-8 col-xs-12 pull-left\">\n\n<h2>Information connexe</h2>\n\n<div class=\"clearfix\"></div>\n\n<ul class=\"colcount-sm-2\"> \n  <li><a href=\"https://www.deleguescommerciaux.gc.ca/united-kingdom-royaume-uni/information-brexit-renseignements.aspx?lang=fra\">Brexit \u2013 Renseignements sommaires pour les entreprises canadiennes</a></li>\n  <li><a href=\"http://www.ic.gc.ca/eic/site/cipointernet-internetopic.nsf/fra/wr04244.html\">Demande d'inscription d'une indication g\u00e9ographique</a></li>\n\n  <li><a href=\"https://www.international.gc.ca/trade-commerce/trade-agreements-accords-commerciaux/agr-acc/index.aspx?lang=fra\">Accords sur le commerce et l\u2019investissement</a></li>\n  <li><a href=\"http://www.international.gc.ca/trade-commerce/trade-agreements-accords-commerciaux/agr-acc/ceta-aecg/chapter_summary-resume_chapitre.aspx?lang=fra#a2\">Traitement  national et acc\u00e8s aux march\u00e9s</a></li>\n  <li><a href=\"http://international.gc.ca/trade-commerce/trade-agreements-accords-commerciaux/agr-acc/nafta-alena/fta-ale/tech-rect.aspx?lang=fra\">R\u00e8gles  et les proc\u00e9dures d'origine</a></li>\n  <li><a href=\"http://www.international.gc.ca/trade-agreements-accords-commerciaux/wto-omc/enquiry-info.aspx?lang=fra\">Mesures  sanitaires et phytosanitaires</a></li>\n  <li><a href=\"http://www.international.gc.ca/trade-agreements-accords-commerciaux/topics-domaines/goods-produits/barriers.aspx?lang=fra\">Obstacles  techniques au commerce</a></li>\n</ul>\n</section>\n\n</div>\n\r\n    <!-- Fin du contenu -->\r\n\t\r\n\t\r\n\t\r\n  "
    },
    "css": {
        "fr": null
    },
    "js": {
        "en": null,
        "fr": null
    }
}