{
    "dcr_id": "1599851570885",
    "title": {
        "en": "Minister\u2019s and Deputy Ministers\u2019 briefing materials for the Standing Committee on Agriculture and Agri-Food ",
        "fr": "Cahiers de breffage de la ministre et des sous-ministres pour le Comit\u00e9 permanent de l'agriculture et de l'agroalimentaire"
    },
    "modified": "2020-10-19",
    "issued": "2020-09-25",
    "templatetype": "content page 1 column",
    "page_type": "1",
    "node_id": "1600973153410",
    "dc_date_created": "2020-09-25",
    "managing_branch": "PAB",
    "parent_node_id": "1598616080140",
    "label": {
        "en": "Standing Committee on Agriculture and Agri-Food",
        "fr": "Comit\u00e9 permanent de l'agriculture et de l'agroalimentaire"
    },
    "exturl": "",
    "teamsite_location": {
        "en": "/default/main/AAFC-AAC/Internet-Internet/Common-Commun/WORKAREA/Common-Commun/templatedata/comm-comm/gene-gene/data/09/minbrief_stand_comm-aaf_1599851570885_en",
        "fr": "/default/main/AAFC-AAC/Internet-Internet/Common-Commun/WORKAREA/Common-Commun/templatedata/comm-comm/gene-gene/data/09/minbrief_stand_comm-aaf_1599851570885_fr"
    },
    "type_name": "sitemapinit",
    "has_dcr_id": true,
    "breadcrumb": {
        "en": "Standing Committee on Agriculture and Agri-Food",
        "fr": "Comit\u00e9 permanent de l'agriculture et de l'agroalimentaire"
    },
    "layout_name": "content page 1 column",
    "lang": "en",
    "meta": {
        "issued": {
            "en": "2020-09-25",
            "fr": "2020-09-25"
        },
        "modified": {
            "en": "2021-02-02",
            "fr": "2021-02-02"
        },
        "format": {
            "en": "text/html",
            "fr": "text/html"
        },
        "title": {
            "en": "Minister\u2019s and Deputy Ministers\u2019 briefing materials for the Standing Committee on Agriculture and Agri-Food ",
            "fr": "Cahiers de breffage de la ministre et des sous-ministres pour le Comit\u00e9 permanent de l'agriculture et de l'agroalimentaire"
        },
        "subject": {
            "en": "statistics;architectural heritage;architecture",
            "fr": "engrais;m\u00e9dicament;\u00e9conomie agricole"
        },
        "description": {
            "en": "Binder 3: Who we are and what we do Ministerial Transition Books - Binder 3. Who we are and what we do. and the. Canadian Dairy Commission Act. . The. Plant Breeders Rights Act. governs the intellectual property rights associated with plant breeds and breeding.Authorities for administrative monetary penalties.",
            "fr": "Certaines parties de cette version ont \u00e9t\u00e9 caviard\u00e9es en vertu de la. l\u2019Organisation mondiale du commerce (OMC), le G20, l\u2019engagement bilat\u00e9ral) pour r\u00e9soudre ce probl\u00e8me, notamment en organisant cinq t\u00e9l\u00e9conf\u00e9rences avec des repr\u00e9sentants chinois.En avril 2019, le gouvernement du Canada a cr\u00e9\u00e9 le Groupe de travail industrie-gouvernement sur le canola pour aider les producteurs de canola \u00e0 traverser cette p\u00e9riode d\u2019incertitude. Au Canada, l\u2019actuel. R\u00e8glement sur les carburants renouvelables."
        },
        "language": {
            "en": "eng",
            "fr": "fra"
        },
        "keywords": {
            "en": null,
            "fr": "linformation.Tableau"
        },
        "audience": {
            "en": "gcaudience",
            "fr": "gcaudience"
        },
        "type": {
            "en": "program-service description",
            "fr": "r\u00e9sum\u00e9"
        },
        "creator": {
            "en": "Agriculture and Agri-Food Canada;Government of Canada",
            "fr": "Agriculture et Agroalimentaire Canada;Gouvernement du Canada"
        },
        "spatial": {
            "en": "gcregions",
            "fr": "gcregions"
        },
        "service": {
            "en": "AAFC-AAC",
            "fr": "AAFC-AAC"
        },
        "accessRights": {
            "en": "2",
            "fr": "2"
        },
        "legalName": {
            "en": "agriculture_and_agri_food_canada",
            "fr": "agriculture_et_agroalimentaire_canada"
        },
        "areaServed": {
            "en": "Canada",
            "fr": "Canada"
        }
    },
    "css": {
        "fr": null
    },
    "js": {
        "en": null,
        "fr": null
    },
    "body": {
        "en": "<!-- D&eacute;but du contenu -->\r\n    <p>Ministerial appearances, Standing Committee on Agriculture and Agri-Food </p>\n\n<h2>Minister's briefing books</h2>\n\n<ul>\n<li><a href=\"?id=1609284358838\">Minister's briefing book, November 26, 2020</a></li>\n <li><a href=\"?id=1600726693897\">Minister's briefing book, June 10, 2020</a></li>   \n<li><a href=\"?id=1594336055832\">Minister's briefing book, May 12, 2020</a></li> \n<li><a href=\"?id=1588632949370\">Minister's briefing book, March 12, 2020</a></li> \n</ul>\n\n\n<h2>Deputy Ministers' briefing materials</h2>\n\n<ul>\n<li><a href=\"?id=1589387091023\">Deputy ministers' briefing book, March 12, 2020</a></li> \n</ul>\n\r\n    <!-- Fin du contenu -->",
        "fr": "\r\n    \r\n    <!-- MainContentStart -->\r\n    <!-- D&eacute;but du contenu -->\r\n    <p>Comparutions minist\u00e9rielles, Comit\u00e9 permanent de l\u2019agriculture et de l\u2019agroalimentaire </p>\n\n<h2>Cahiers de breffage de la ministre</h2>\n<ul>\n<li><a href=\"?id=1609284358838\">Cahier de breffage de la ministre, le 26 novembre 2020</a></li>\n <li><a href=\"?id=1600726693897\">Cahier de breffage de la ministre, le 10 juin 2020</a></li> \n <li><a href=\"?id=1594336055832\">Cahier de breffage de la ministre, le 12 mai 2020</a></li> \n <li><a href=\"?id=1588632949370\">Cahier de breffage de la ministre, le 12 mars 2020</a></li> \n</ul>\n\n\n<h2>Cahiers de breffage des sous-minstres</h2>\n  <ul>\n    <li><a href=\"?id=1589387091023\">Cahier de breffage des sous-minstres, le 12 mars 2020</a></li> \n</ul>\n\r\n    <!-- Fin du contenu -->\r\n\t\r\n\t\r\n\t\r\n  "
    }
}