{
    "dcr_id": "1180107359564",
    "title": {
        "en": "Acts and Regulations",
        "fr": "Lois et r\u00e8glements"
    },
    "modified": "2021-04-19",
    "issued": "2009-02-23",
    "templatetype": "content page 1 column",
    "page_type": "1",
    "node_id": "1354137774065",
    "dc_date_created": "2009-02-23",
    "managing_branch": "PAB",
    "parent_node_id": "1566306181000",
    "short_title": "",
    "exturl": "",
    "teamsite_location": {
        "en": "/default/main/AAFC-AAC/Internet-Internet/Common-Commun/WORKAREA/Common-Commun/templatedata/comm-comm/gene-gene/data/05/proact_audit_intro_1180107359564_en",
        "fr": "/default/main/AAFC-AAC/Internet-Internet/Common-Commun/WORKAREA/Common-Commun/templatedata/comm-comm/gene-gene/data/05/proact_audit_intro_1180107359564_fr"
    },
    "type_name": "sitemapinit",
    "has_dcr_id": true,
    "label": {
        "en": "Acts and Regulations",
        "fr": "Lois et r\u00e8glements"
    },
    "breadcrumb": {
        "en": "Acts and Regulations",
        "fr": "Lois et r\u00e8glements"
    },
    "layout_name": "content page 1 column",
    "lang": "en",
    "refaire": false,
    "meta": {
        "viewport": {
            "en": "width=device-width,initial-scale=1",
            "fr": "width=device-width, initial-scale=1"
        },
        "issued": {
            "en": "2009-02-23",
            "fr": "2009-02-23"
        },
        "modified": {
            "en": "2021-04-19",
            "fr": "2021-04-19"
        },
        "format": {
            "en": "text/html",
            "fr": "text/html"
        },
        "title": {
            "en": "Acts and Regulations",
            "fr": "Lois et r\u00e8glements"
        },
        "subject": {
            "en": "agricultural policy;agricultural law",
            "fr": "politique agricole;l\u00e9gislation agricole"
        },
        "dcterms:subject": {
            "en": "statistics;agricultural economics;legislation;agriculture",
            "fr": "statistiques;agriculture;\u00e9conomie agricole;l\u00e9gislation"
        },
        "description": {
            "en": "Agriculture and Agri-Food Canada is responsible for a number of Acts related to agriculture and food in Canada : Agricultural Marketing Programs Act; Agricultural Products Marketing Act; Animal Pedigree Act; Canada Grain Act; Canadian Dairy Commission Act; Canadian Wheat Board Act; Department of Agriculture and Agri-Food Act; Experimental Farm Stations Act; Farm Debt Mediation Act; Farm Credit Canada Act; Farm Improvement Loans Act; Farm Improvement and Marketing Cooperatives Loans Act; Farm Income Protection Act, Farm Products Agencies Act; Prairie Farm Rehabilitation Act",
            "fr": "Agriculture et Agroalimentaire Canada est responsable d'un certain nombre de lois li\u00e9es au domaine de l'agriculture et de l'alimentation au Canada : loi sur les programmes de commercialisation agricole; loi sur la commercialisation des produits agricoles; loi sur la g\u00e9n\u00e9alogie des animaux; loi sur les grains du Canada; loi sur la Commission canadienne du lait; loi sur la Commission canadienne du bl\u00e9; loi sur le minist\u00e8re de l'Agriculture et de l'Agroalimentaire; loi sur les stations agronomiques; loi sur la m\u00e9diation en mati\u00e8re d'endettement agricole; loi sur financement agricole Canada; loi sur les pr\u00eats destin\u00e9s aux am\u00e9liorations agricoles; loi sur les pr\u00eats destin\u00e9s aux am\u00e9liorations agricoles et \u00e0 la commercialisation selon la formule coop\u00e9rative; loi sur la protection du revenu agricole; loi sur les offices de produits de ferme; loi sur le r\u00e9tablissement agricole des Prairies"
        },
        "language": {
            "en": "eng",
            "fr": "fra"
        },
        "keywords": {
            "en": " farm financial survey; government assistance;farm performance and income",
            "fr": " enqu\u00eate financi\u00e8re sur les fermes; aide gouvernementale;rendement et revenu agricoles"
        },
        "audience": {
            "en": "general public",
            "fr": "grand public"
        },
        "type": {
            "en": "administrative page",
            "fr": "page administrative"
        },
        "creator": {
            "en": "Communications and Consultations Branch;Agriculture and Agri-Food Canada;Government of Canada",
            "fr": "Direction g\u00e9n\u00e9rale des communications et des consultations;Agriculture et Agroalimentaire Canada;Gouvernement du Canada"
        },
        "spatial": {
            "en": "gcregions",
            "fr": "gcregions"
        },
        "service": {
            "en": "AAFC-AAC",
            "fr": "AAFC-AAC"
        },
        "accessRights": {
            "en": "2",
            "fr": "2"
        },
        "legalName": {
            "en": "agriculture_and_agri_food_canada",
            "fr": "agriculture_et_agroalimentaire_canada"
        },
        "areaServed": {
            "en": "Canada",
            "fr": "Canada"
        }
    },
    "h1": {
        "en": "Acts and Regulations",
        "fr": "Lois et r\u00e8glements"
    },
    "body": {
        "en": "\r\n    \n<p>Agriculture and Agri-Food Canada is responsible for a number of Acts passed by the Parliament of Canada that are related to agriculture in Canada.</p>       \n\n<div class=\"clearfix\"></div>\n\n \n<div class=\"pull-left\">\n<section class=\"followus mrgn-tp-0\"> \n   <h2>Follow:</h2> \n   <ul> \n    <li><a href=\"https://www.facebook.com/CanadianAgriculture/\" class=\"facebook gl-follow\" rel=\"external\"> <span class=\"wb-inv\">Facebook</span></a></li> \n    <li><a href=\"https://twitter.com/AAFC_Canada\" class=\"twitter gl-follow\" rel=\"external\"> <span class=\"wb-inv\">Twitter</span></a></li> \n    \n    <li><a href=\"https://www.linkedin.com/company/aafc-aac/?viewAsMember=true\" class=\"linkedin gl-follow\" rel=\"external\"><span class=\"wb-inv\">LinkedIn</span></a></li>    \n    \n    <li><a href=\"https://www.youtube.com/user/AgricultureCanadaEng\" class=\"youtube gl-follow\" rel=\"external\"><span class=\"wb-inv\">YouTube</span></a></li> \n   </ul> \n  </section> \n</div>\n\n\n<div class=\"clearfix\"></div>\n\n\n<div class=\"row\">\n<section class=\"col-md-4 col-xs-12 pull-right lnkbx\">\n<h2>Contributors</h2>\n<ul>\n<li><a href=\"http://laws-lois.justice.gc.ca/eng/index.html\">Justice Laws website</a></li>\n<li><a href=\"https://www.canada.ca/en/treasury-board-secretariat/services/federal-regulatory-management.html\">Federal regulatory management</a></li>\n<li><a href=\"http://www.inspection.gc.ca/eng/1297964599443/1297965645317\">Canadian Food Inspection Agency</a></li>\n</ul>\n</section>\n\n<section class=\"col-md-8 col-xs-12 pull-left\">\n\n<div class=\"wb-eqht row wb-init wb-eqht-inited\" id=\"wb-auto-1\">\n<div class=\"row\">\n<section class=\"col-md-6\">\n<h3 class=\"h5\"><a href=\"?id=1590777733511\">List of acts  and regulations</a></h3>\n<p>Administering acts and regulations for implementing government-wide regulatory initiatives.</p>\n</section>\n\n <section class=\"col-md-6\">\n<h3 class=\"h5\"><a href=\"http://www.inspection.gc.ca/about-the-cfia/acts-and-regulations/forward-regulatory-plan/agri-food-and-aquaculture-roadmap/eng/1558026225581/\">Regulatory review roadmap</a></h3>\n<p>A regulatory modernization plan in support of innovation and economic growth in the agri-food and aquaculture sector.</p>\n</section>\n</div>\n\n<div class=\"row\">\n<section class=\"col-md-6\">\n<h3 class=\"h5\"><a href=\"?id=1553628520877\">Regulatory stock review plan</a></h3>\n<p>Plan to review the departments entire regulatory stock over a set period of time.</p>\n</section>\n \n\n<section class=\"col-md-6\">\n<h3 class=\"h5\"><a href=\"?id=1361906063705\">Forward regulatory plan</a></h3>\n<p>A publicly available list, with descriptions, of planned or anticipated regulatory changes (regulatory initiatives).</p>\n</section>\n</div>\n\n<div class=\"row\">\n<section class=\"col-md-6\">\n<h3 class=\"h5\"><a href=\"?id=1410356386866\">Policy on providing guidance on regulatory requirements</a></h3>\n<p>Departmental approach to helping regulated parties understand their regulatory obligations.</p>\n</section>\n\n\n<section class=\"col-md-6\">\n<h3 class=\"h5\"><a href=\"?id=1475085221077\">Administrative burden baseline initiative</a></h3>\n<p>The number of administrative burden requirements in regulations administered by the department.</p>\n</section>\n</div>\n\n<div class=\"row\">\n<section class=\"col-md-6\">\n<h3 class=\"h5\"><a href=\"?id=1410359004838\">Key Regulations for important Agriculture Programs</a></h3>\n<p>A listing of important programs and information about regulations affecting them.</p>\n</section>\n\n</div>\n\n\n<div class=\"pull-right col-xs-12 col-md-4\">\n<section class=\"lnkbx\">\n<h2>More information for</h2>\n<ul>\n  <li><a href=\"https://www.canada.ca/en/treasury-board-secretariat/services/regulatory-cooperation/learn-about-regulatory-cooperation.html\">Learn  more about regulatory cooperation</a></li>\n  <li><a href=\"http://www1.canada.ca/consultingcanadians/\">Consulting with Canadians</a></li>\n  <li><a href=\"http://www.gazette.gc.ca/accueil-home-eng.html\">Canada Gazette</a></li>\n</ul>\n</section>\n\n</div>\n</div>\n\n\n<div class=\"clearfix\"></div>\n\n\r\n    </section></div>",
        "fr": "\r\n    \n<p>Agriculture et Agroalimentaire Canada est responsable d'un certain nombre de lois qui ont \u00e9t\u00e9 adopt\u00e9es par le Parlement du Canada et qui sont li\u00e9es au domaine de l'agriculture et de l'alimentation au Canada.</p>   \n\n<div class=\"clearfix\"></div>\n\n\n<div class=\"pull-left\">\n<section class=\"followus mrgn-tp-0\"> \n <h2>Suivez\u00a0:</h2> \n <ul> \n    <li><a href=\"https://www.facebook.com/AgricultureCanadienne\" class=\"facebook gl-follow\" rel=\"external\"> <span class=\"wb-inv\">Facebook</span></a></li> \n    <li><a href=\"https://twitter.com/AAC_Canada\" class=\"twitter gl-follow\" rel=\"external\"> <span class=\"wb-inv\">Twitter</span></a></li> \n    \n    <li><a href=\"https://www.linkedin.com/company/aafc-aac/?viewAsMember=true\" class=\"linkedin gl-follow\" rel=\"external\"><span class=\"wb-inv\">LinkedIn</span></a></li>\n    \n    <li><a href=\"https://www.youtube.com/user/AgricultureCanadaFra\" class=\"youtube gl-follow\" rel=\"external\"><span class=\"wb-inv\">YouTube</span></a></li> \n </ul> \n  </section> \n  </div>\n    \n\n<div class=\"clearfix\"></div>\n\n\n<div class=\"row\">\n<section class=\"col-md-4 col-xs-12 pull-right lnkbx\">\n<h2>Contributors</h2>\n<ul>\n<li><a href=\"https://laws-lois.justice.gc.ca/fra/index.html\">Site Web de la l\u00e9gislation (Justice)</a></li>\n<li><a href=\"https://www.canada.ca/fr/secretariat-conseil-tresor/services/gestion-reglementation-federale.html\">Gestion de la r\u00e9glementation f\u00e9d\u00e9rale</a></li>\n<li><a href=\"http://www.inspection.gc.ca/fra/1297964599443/1297965645317\">Agence canadienne d'inspection des aliments</a></li>\n</ul>\n</section>\n\n<section class=\"col-md-8 col-xs-12 pull-left\">\n\n<div class=\"wb-eqht row wb-init wb-eqht-inited\" id=\"wb-auto-1\">\n<div class=\"row\">\n<section class=\"col-md-6\">\n<h3 class=\"h5\"><a href=\"?id=1590777733511\">Liste des lois et r\u00e8glements</a></h3>\n<p>L'application des lois et des r\u00e8glements ainsi que de la mise en \u0153uvre d'initiatives r\u00e9glementaires \u00e0 l'\u00e9chelle gouvernementale.</p>\n</section>\n \n\n<section class=\"col-md-6\">\n<h3 class=\"h5\"><a href=\"http://www.inspection.gc.ca/au-sujet-de-l-acia/lois-et-reglements/plan-prospectif-de-la-reglementation/feuille-de-route-pour-le-secteur-de-l-agroalimenta/fra/1558026225581/\">Guide sur l\u2019examen de la r\u00e9gulation</a></h3>\n<p>Un plan de modernisation de la r\u00e9glementation qui favorise l\u2019innovation et la croissance \u00e9conomique des secteurs agroalimentaire et aquacole.</p>\n</section>\n</div>\n\n<div class=\"row\">\n<section class=\"col-md-6\">\n<h3 class=\"h5\"><a href=\"?id=1553628520877\">Plan d'examen de l'inventaire des r\u00e8glements</a></h3>\n<p>Plan du minist\u00e8re visant \u00e0 examiner l'inventaire de r\u00e8glements dans son int\u00e9gralit\u00e9 au cours d'une p\u00e9riode de temps donn\u00e9e.</p>\n</section>\n \n <section class=\"col-md-6\">\n<h3 class=\"h5\"><a href=\"?id=1361906063705\">Plan prospectif de la r\u00e9glementation</a></h3>\n<p>Une liste publique qui contient des descriptions des modifications r\u00e9glementaires (initiatives r\u00e9glementaires)</p>\n</section>\n</div>\n\n\n<div class=\"row\">\n<section class=\"col-md-6\">\n<h3 class=\"h5\"><a href=\"?id=1410356386866\">Politique sur la prestation de lignes directrices sur les exigences r\u00e9glementaires</a></h3>\n<p>Une approche minist\u00e9rielle pour aider les parties r\u00e9glement\u00e9es \u00e0 comprendre leurs obligations r\u00e9glementaires.</p>\n</section>\n \n \n<section class=\"col-md-6\">\n<h3 class=\"h5\"><a href=\"?id=1475085221077\">Base de r\u00e9f\u00e9rence du fardeau administratif</a></h3>\n<p>Le nombre d'exigences imposant un fardeau administratif dans les r\u00e8glements qui rel\u00e8vent le minist\u00e8re.</p>\n</section>\n</div>\n\n<div class=\"row\">\n<section class=\"col-md-6\">\n<h3 class=\"h5\"><a href=\"?id=1410359004838\">Principaux r\u00e8glements li\u00e9s aux programmes agricoles importants</a></h3>\n<p>Une liste des programmes importants et des informations sur les r\u00e9glementations qui les concernent.</p>\n</section>\n</div>\n\n\n<div class=\"pull-right col-xs-12 col-md-4\">\n<section class=\"lnkbx\">\n<h2>Autres renseignements pour les</h2>\n<ul>\n  <li><a href=\"https://www.canada.ca/fr/secretariat-conseil-tresor/services/cooperation-matiere-reglementation/a-propos-cooperation-matiere-reglementation.html\">Coop\u00e9ration en mati\u00e8re de r\u00e9glementation au Canada</a></li>\n  <li><a href=\"https://www.canada.ca/fr/gouvernement/systeme/consultations/consultationdescanadiens.html\">Consultations aupr\u00e8s des Canadiens</a></li>\n  <li><a href=\"http://www.gazette.gc.ca/accueil-home-fra.html\">Gazette du Canada</a></li>\n</ul>\n</section>\n\n</div>\n</div>\n\n\n<div class=\"clearfix\"></div>\n\n\r\n    </section></div>"
    },
    "js": {
        "en": "",
        "fr": ""
    }
}