{
    "dcr_id": "1329321967651",
    "title": {
        "en": "Climate change and air quality",
        "fr": "Changements climatiques et qualit\u00e9 de l\u2019air "
    },
    "modified": "2021-06-25",
    "issued": "2012-05-25",
    "templatetype": "content page 1 column",
    "page_type": "1",
    "node_id": "1354137773745",
    "dc_date_created": "2012-05-25",
    "managing_branch": "PAB",
    "parent_node_id": "1579021667014",
    "short_title": "",
    "exturl": "",
    "teamsite_location": {
        "en": "/default/main/AAFC-AAC/Internet-Internet/Common-Commun/WORKAREA/Common-Commun/templatedata/comm-comm/gene-gene/data/02/agri-env_climate_change_1329321967651_en",
        "fr": "/default/main/AAFC-AAC/Internet-Internet/Common-Commun/WORKAREA/Common-Commun/templatedata/comm-comm/gene-gene/data/02/agri-env_climate_change_1329321967651_fr"
    },
    "type_name": "sitemapinit",
    "has_dcr_id": true,
    "label": {
        "en": "Climate change and air quality",
        "fr": "Changements climatiques et qualit\u00e9 de l\u2019air "
    },
    "breadcrumb": {
        "en": "Climate change and air quality",
        "fr": "Changements climatiques et qualit\u00e9 de l\u2019air "
    },
    "layout_name": "content page 1 column",
    "lang": "en",
    "refaire": false,
    "meta": {
        "viewport": {
            "en": "width=device-width,initial-scale=1",
            "fr": "width=device-width, initial-scale=1"
        },
        "issued": {
            "en": "2012-05-25",
            "fr": "2012-05-25"
        },
        "modified": {
            "en": "2021-06-25",
            "fr": "2021-06-25"
        },
        "format": {
            "en": "text/html",
            "fr": "text/html"
        },
        "title": {
            "en": "Climate change and air quality",
            "fr": "Changements climatiques et qualit\u00e9 de l\u2019air "
        },
        "subject": {
            "en": "greenhouse gases",
            "fr": "gaz \u00e0 effet de serre"
        },
        "dcterms:subject": {
            "en": "air",
            "fr": "air"
        },
        "description": {
            "en": "Climate Change Greenhouse Gases Carbon Dioxide (CO2) Methane (CH4) Nitrous Oxide (N2O) Measuring Emissions International Efforts Future Outlook Global Climate Models Impact of Climate Change on Canadian Agriculture Reducing Agricultural Emissions Climate change is long-term changes to weather patterns over periods of time that range from decades to millions of years.",
            "fr": "Gaz \u00e0 effet de serre Dioxyde de carbone (CO2) M\u00e9thane (CH4) Oxyde nitreux (N2O) Mesure des \u00e9missions Activit\u00e9s internationales Perspectives d'avenir Mod\u00e8les du climat plan\u00e9taire Incidence des changements climatiques sur l'agriculture au Canada R\u00e9duction des \u00e9missions de l'agriculture Les changements climatiques sont les changements \u00e0 long terme (dans un horizon qui va de plusieurs d\u00e9cennies \u00e0 des millions d'ann\u00e9es) du r\u00e9gime climatique."
        },
        "language": {
            "en": "eng",
            "fr": "fra"
        },
        "keywords": {
            "en": " short-wave radiation; climate change; long-wave radiation; Earth's surface;greenhouse effect",
            "fr": " ondes longues; Perspectives d'avenir; changements climatiques; ondes courtes;effet de serre"
        },
        "audience": {
            "en": "gcaudience",
            "fr": "gcaudience"
        },
        "type": {
            "en": "educational material",
            "fr": "article"
        },
        "creator": {
            "en": "Agriculture and Agri-Food Canada;Government of Canada",
            "fr": "Agriculture et Agroalimentaire Canada;Gouvernement du Canada"
        },
        "spatial": {
            "en": "gcregions",
            "fr": "gcregions"
        },
        "service": {
            "en": "AAFC-AAC",
            "fr": "AAFC-AAC"
        },
        "accessRights": {
            "en": "2",
            "fr": "2"
        },
        "legalName": {
            "en": "agriculture_and_agri_food_canada",
            "fr": "agriculture_et_agroalimentaire_canada"
        },
        "areaServed": {
            "en": "Canada",
            "fr": "Canada"
        }
    },
    "h1": {
        "en": "Climate change and air quality",
        "fr": "Changements climatiques et qualit\u00e9 de l\u2019air"
    },
    "body": {
        "en": "\r\n    \n<div class=\"row profile\">\n<div class=\"col-md-6\">\n<p class=\"mrgn-bttm-lg\">Air quality, weather and climate conditions related to agriculture.</p>\n\n \n<div class=\"pull-left\">\n<section class=\"followus mrgn-tp-0\"> \n   <h2>Follow:</h2> \n   <ul> \n    <li><a href=\"https://www.facebook.com/CanadianAgriculture/\" class=\"facebook gl-follow\" rel=\"external\"> <span class=\"wb-inv\">Facebook</span></a></li> \n    <li><a href=\"https://twitter.com/AAFC_Canada\" class=\"twitter gl-follow\" rel=\"external\"> <span class=\"wb-inv\">Twitter</span></a></li> \n    \n    <li><a href=\"https://www.linkedin.com/company/aafc-aac/?viewAsMember=true\" class=\"linkedin gl-follow\" rel=\"external\"><span class=\"wb-inv\">LinkedIn</span></a></li>    \n    \n    <li><a href=\"https://www.youtube.com/user/AgricultureCanadaEng\" class=\"youtube gl-follow\" rel=\"external\"><span class=\"wb-inv\">YouTube</span></a></li> \n   </ul> \n  </section>\n</div>\n\n</div>\n<div class=\"col-md-6 mrgn-tp-sm hidden-sm hidden-xs\">\n<figure>\n<img src=\"https://www.agr.gc.ca/resources/prod/img/agclimate_topic.jpg\" alt=\"\" class=\"img-responsive\">\n</figure>\n</div>\n</div>\n\n\n\n\n\n\n<div class=\"clearfix\"></div>\n\n\n<div class=\"row\">\n<div class=\"pull-right col-xs-12 col-md-4\">\n<section class=\"lnkbx\">\n<h2>Contributors</h2>\n<ul>\n    <li><a href=\"?id=1395690825741\">Agriculture and Agri-Food Canada</a></li>\n</ul>\n</section>\n</div>\n\n<section class=\"col-md-8 col-xs-12 pull-left\">\n<h2 class=\"nowrap\">Services and information</h2>\n\n<div class=\"wb-eqht row\">\n<section class=\"col-md-6\">\n<h3 class=\"h5\"><a href=\"?id=1329321969842\">Greenhouse gases and agriculture</a></h3>\n<p>Manage, measure and reduce greenhouse gases emitted by  agricultural activities</p>\n</section>\n\n<section class=\"col-md-6\">\n<h3 class=\"h5\"><a href=\"?id=1329321981630\">Climate scenarios for agriculture</a></h3>\n<p>Past and future climate change scenarios. The impact of climate change on agriculture and how to reduce agricultural emissions</p>\n</section>\n\n<section class=\"col-md-6\">\n<h3 class=\"h5\"><a href=\"?id=1349181297838\">Holos</a></h3>\n\n<p>Estimate farming greenhouse gas emissions and test  ways to reduce these emissions</p>\n</section>\n\n<section class=\"col-md-6\">\n<h3 class=\"h5\"><a href=\"?id=1589401385043\">Financial impact of carbon pricing on Canadian farms</a></h3>\n<p>This report is a scenario analysis done in 2018 on the financial impact of carbon pricing on the agriculture sector</p>\n\n</section>\n\n<section class=\"col-md-6\">\n<h3 class=\"h5\"><a href=\"?id=1622046703735#a1\">Air quality and greenhouse gas indicators</a></h3> \n<p>Agri-environmental indicators used to assess the impact of agriculture on air quality and the climate</p>\n</section>\n\n<section class=\"col-md-6\">\n<h3 class=\"h5\"><a href=\"?id=1551383721157\">Living Laboratories Initiative</a></h3>\n<p>Agricultural innovation, practical technologies, sustainable farming practices</p>\n</section>\n</div></section>\n</div>\n\n\n\r\n    ",
        "fr": "\r\n    \n<div class=\"row profile\">\n<div class=\"col-md-6\">\n<p class=\"mrgn-bttm-lg\">Qualit\u00e9  de l'air, conditions m\u00e9t\u00e9orologiques et climatiques reli\u00e9es \u00e0 l'agriculture.</p>\n\n\n<div class=\"pull-left\">\n<section class=\"followus mrgn-tp-0\"> \n <h2>Suivez\u00a0:</h2> \n <ul> \n    <li><a href=\"https://www.facebook.com/AgricultureCanadienne\" class=\"facebook gl-follow\" rel=\"external\"> <span class=\"wb-inv\">Facebook</span></a></li> \n    <li><a href=\"https://twitter.com/AAC_Canada\" class=\"twitter gl-follow\" rel=\"external\"> <span class=\"wb-inv\">Twitter</span></a></li> \n    \n    <li><a href=\"https://www.linkedin.com/company/aafc-aac/?viewAsMember=true\" class=\"linkedin gl-follow\" rel=\"external\"><span class=\"wb-inv\">LinkedIn</span></a></li>\n    \n    <li><a href=\"https://www.youtube.com/user/AgricultureCanadaFra\" class=\"youtube gl-follow\" rel=\"external\"><span class=\"wb-inv\">YouTube</span></a></li> \n </ul> \n  </section> \n  </div>\n\n</div>\n<div class=\"col-md-6 mrgn-tp-sm hidden-sm hidden-xs\">\n<figure>\n<img src=\"https://www.agr.gc.ca/resources/prod/img/agclimate_topic.jpg\" alt=\"\" class=\"img-responsive\">\n</figure>\n</div>\n</div>\n\n\n\n\n\n\n<div class=\"clearfix\"></div>\n\n<div class=\"row\">\n<div class=\"pull-right col-xs-12 col-md-4\">\n<section class=\"lnkbx\">\n<h2>Collaborateurs</h2>\n<ul>\n    <li><a href=\"?id=1395690825741\">Agriculture et Agroalimentaire Canada</a></li>\n</ul>\n</section>\n</div>\n\n<section class=\"col-md-8 col-xs-12 pull-left\">\n<h2 class=\"nowrap\">Services et renseignements</h2>\n\n<div class=\"wb-eqht row\">\n<section class=\"col-md-6\">\n<h3 class=\"h5\"><a href=\"?id=1329321969842\">Gaz \u00e0 effet de serre et agriculture</a></h3>\n<p>G\u00e9rer, mesurer et r\u00e9duire les gaz \u00e0 effet de serre \u00e9mis par les activit\u00e9s agricoles</p>\n</section>\n\n<section class=\"col-md-6\">\n<h3 class=\"h5\"><a href=\"?id=1329321981630\">Sc\u00e9narios climatiques pour l'agriculture</a></h3>\n<p>Sc\u00e9narios de changements climatiques pass\u00e9s et futurs. L'impact du changement climatique sur l'agriculture et les moyens de r\u00e9duire les \u00e9missions agricoles</p>\n</section>\n\n<section class=\"col-md-6\">\n<h3 class=\"h5\"><a href=\"?id=1349181297838\">Holos</a></h3>\n\n<p>Mettre \u00e0 l'essai diff\u00e9rentes fa\u00e7ons de r\u00e9duire les \u00e9missions de gaz \u00e0 effet de serre  provenant des exploitations agricoles, et ce, sans frais pour les utilisateurs</p>\n</section>\n\n<section class=\"col-md-6\">\n<h3 class=\"h5\"><a href=\"?id=1589401385043\">\nR\u00e9percussions financi\u00e8res de la tarification du carbone sur les fermes canadiennes</a> </h3>\n<p>Il s'agit d'une analyse de sc\u00e9nario r\u00e9alis\u00e9e en 2018 ayant trait aux r\u00e9percussions financi\u00e8res de la tarification du carbone sur le secteur agricole</p>\n</section>\n\n<section class=\"col-md-6\">\n<h3 class=\"h5\"><a href=\"?id=1622046703735#a1\">Indicateurs de la qualit\u00e9 de l'air et des gaz \u00e0 effet de serre</a></h3>\n<p>Indicateurs agroenvironnementaux pour \u00e9valuer l'impact de l'agriculture sur la qualit\u00e9 de l'air et les gaz \u00e0 effet de serre</p>\n</section>\n\n\n<section class=\"col-md-6\">\n<h3 class=\"h5\"><a href=\"?id=1551383721157\">Initiative des laboratoires vivants </a></h3>\n<p>Innovation en agriculture, technologies pratiques, pratiques agricoles durables</p>\n</section>\n\n</div>\n</section>\n</div>\n\n\n\n\n\n\r\n    "
    },
    "js": {
        "en": "<script>\n$( document ).ready( function() {\nvar h1 = document.getElementsByTagName(\"h1\")[0];\nh1.parentNode.removeChild(h1);\ndocument.getElementsByTagName(\"main\")[0].innerHTML = \n'<div class=\"row profile\"><div class=\"col-md-6\"><h1>Climate change and air quality<p>Air quality, weather and climate conditions related to agriculture. <!-- START Social Buttons --> <div class=\"pull-left\"> <section class=\"followus mrgn-tp-0\"> <h2>Follow: <ul> <li><a href=\"https://www.facebook.com/CanadianAgriculture/\" class=\"facebook gl-follow\" rel=\"external\"> <span class=\"wb-inv\">Facebook <li><a href=\"https://twitter.com/AAFC_Canada\" class=\"twitter gl-follow\" rel=\"external\"> <span class=\"wb-inv\">Twitter <li><a href=\"https://www.linkedin.com/company/aafc-aac/?viewAsMember=true\" class=\"linkedin gl-follow\" rel=\"external\"><span class=\"wb-inv\">LinkedIn <li><a href=\"https://www.youtube.com/user/AgricultureCanadaEng\" class=\"youtube gl-follow\" rel=\"external\"><span class=\"wb-inv\">YouTube  <!-- END Social Buttons --> <div class=\"col-md-6 mrgn-tp-sm hidden-sm hidden-xs\"><figure> <img src=\"https://www.agr.gc.ca/resources/prod/img/agclimate_topic.jpg\" class=\"pull-right img-responsive thumbnail\" alt=\"\"/><br/>'\n+ document.getElementsByTagName(\"main\")[0].innerHTML;\n})\n</script>",
        "fr": "<script>\n$( document ).ready( function() {\nvar h1 = document.getElementsByTagName(\"h1\")[0];\nh1.parentNode.removeChild(h1);\ndocument.getElementsByTagName(\"main\")[0].innerHTML = \n'<div class=\"row profile\"><div class=\"col-md-6\"><h1>Changements climatiques et qualit&eacute; de l&#700;air<p>Qualit&eacute; de l&#700;air, conditions m&eacute;t&eacute;orologiques et climatiques reli&eacute;es &agrave; l&apos;agriculture. <!-- START Social Buttons --> <div class=\"pull-left\"> <section class=\"followus mrgn-tp-0\"> <h2>Suivez&nbsp;: <ul> <li><a href=\"https://www.facebook.com/AgricultureCanadienne\" class=\"facebook gl-follow\" rel=\"external\"> <span class=\"wb-inv\">Facebook <li><a href=\"https://twitter.com/AAC_Canada\" class=\"twitter gl-follow\" rel=\"external\"> <span class=\"wb-inv\">Twitter <li><a href=\"https://www.linkedin.com/company/aafc-aac/?viewAsMember=true\" class=\"linkedin gl-follow\" rel=\"external\"><span class=\"wb-inv\">LinkedIn <li><a href=\"https://www.youtube.com/user/AgricultureCanadaFra\" class=\"youtube gl-follow\" rel=\"external\"><span class=\"wb-inv\">YouTube    <!-- END Social Buttons -->  <div class=\"col-md-6 mrgn-tp-sm hidden-sm hidden-xs\"> <figure> <img src=\"https://www.agr.gc.ca/resources/prod/img/agclimate_topic.jpg\" class=\"pull-right img-responsive thumbnail\" alt=\"\"/><br/>  '\n+ document.getElementsByTagName(\"main\")[0].innerHTML;\n})\n</script>"
    }
}