{
    "dcr_id": "1362063362371",
    "title": {
        "en": "Public opinion research and consultations",
        "fr": "Recherche en opinion publique et consultations"
    },
    "modified": "2021-06-03",
    "issued": "2013-03-12",
    "templatetype": "content page 1 column",
    "page_type": "1",
    "node_id": "1354137774077",
    "dc_date_created": "2013-03-12",
    "managing_branch": "PAB",
    "parent_node_id": "1566306181000",
    "short_title": "",
    "exturl": "",
    "teamsite_location": {
        "en": "/default/main/AAFC-AAC/Internet-Internet/CCB-DGCC/WORKAREA/CCB-DGCC/templatedata/comm-comm/gene-gene/data/public_involvement_1362063362371_en",
        "fr": "/default/main/AAFC-AAC/Internet-Internet/CCB-DGCC/WORKAREA/CCB-DGCC/templatedata/comm-comm/gene-gene/data/public_involvement_1362063362371_fr"
    },
    "type_name": "sitemapinit",
    "has_dcr_id": true,
    "label": {
        "en": "Public opinion research and consultations",
        "fr": "Recherche en opinion publique et consultations"
    },
    "breadcrumb": {
        "en": "Public opinion research and consultations",
        "fr": "Recherche en opinion publique et consultations"
    },
    "layout_name": "content page 1 column",
    "lang": "en",
    "refaire": false,
    "meta": {
        "viewport": {
            "en": "width=device-width,initial-scale=1",
            "fr": "width=device-width, initial-scale=1"
        },
        "issued": {
            "en": "2013-03-12",
            "fr": "2013-03-12"
        },
        "modified": {
            "en": "2021-06-03",
            "fr": "2021-06-03"
        },
        "format": {
            "en": "gcformat",
            "fr": "gcformat"
        },
        "title": {
            "en": "Public opinion research and consultations",
            "fr": "Recherche en opinion publique et consultations"
        },
        "subject": {
            "en": "proactive disclosure;agricultural policy framework (apf)",
            "fr": "cadre strat\u00e9gique pour l'agriculture (csa);divulgation proactive"
        },
        "dcterms:subject": {
            "en": "agricultural policy;consultations",
            "fr": "politique;engrais;organisme de r\u00e9glementation"
        },
        "description": {
            "en": "Public Opinion Research Non-business Risk Management Programs Client Satisfaction Survey: report on National Survey of Program Users Public Opinion Research in Japan for the Canada Brand Advocacy Initiative Public Opinion Research in Mexico for the Canadian Brand initiative Strategic Issues Survey -",
            "fr": "l'opinion publique - Technologies agricoles novatrices Sondage de la satisfaction de la client\u00e8le : Programmes non li\u00e9s \u00e0 la gestion des risques en entreprise Recherche sur l'opinion publique au Japon pour l'Initiative de promotion de la marque Canada Recherche sur l'opinion publique au Mexique pour l'Initiative de promotion de la marque Canada \u00c9tude sur les questions strat\u00e9giques - Phase 3 Pour plus de d\u00e9tails concernant l'information sur les \u00e9tudes de recherche sur l'opinion publique effectu\u00e9es par Agriculture et Agroalimentaire Canada vous pouvez communiquer avec le conseiller en recherches sur l'opinion publique du"
        },
        "language": {
            "en": "eng",
            "fr": "fra"
        },
        "keywords": {
            "en": "list of consultations;other federal departments;Consultations Crop Variety Registration Engagement Consultation;Federal Accountability Act;views of Canadians",
            "fr": "cadre de mise;Agroalimentaire Canada des recherches;Initiative de promotion de la marque;acheteurs de produits alimentaires;opinion publique"
        },
        "audience": {
            "en": "gcaudience",
            "fr": "gcaudience"
        },
        "type": {
            "en": "contact information",
            "fr": "plan d'activit\u00e9s"
        },
        "creator": {
            "en": "Agriculture and Agri-Food Canada;Government of Canada",
            "fr": "Agriculture et Agroalimentaire Canada;Gouvernement du Canada"
        },
        "spatial": {
            "en": "gcregions",
            "fr": "gcregions"
        },
        "service": {
            "en": "AAFC-AAC",
            "fr": "AAFC-AAC"
        },
        "accessRights": {
            "en": "2",
            "fr": "2"
        },
        "legalName": {
            "en": "agriculture_and_agri_food_canada",
            "fr": "agriculture_et_agroalimentaire_canada"
        },
        "areaServed": {
            "en": "Canada",
            "fr": "Canada"
        }
    },
    "h1": {
        "en": "Public opinion research and consultations",
        "fr": "Recherche en opinion publique et consultations"
    },
    "js": {
        "en": "",
        "fr": ""
    },
    "body": {
        "en": "\r\n    <p>As part of a decision-making process, we provide Canadians with an opportunity to have their voices heard and their views carefully considered. It is important for the public to express their concerns and opinions in open forum discussions. By sharing their views, Canadians help to determine the direction of the Department's future policies, programs and services.</p>\n\n<h2>Public opinion research</h2>\n\n<p>At Agriculture and Agri-Food Canada (AAFC), public opinion research is conducted to understand the needs and views of Canadians and of producers.</p>\n\n<p>It is a legal requirement under the Federal Accountability Act for all government departments and agencies to provide contracted public opinion research reports to Library and Archives Canada. The reports are submitted within six months of completion of data collection. The reports are available in the language in which the research was conducted, and the executive summaries are available in both official languages.</p>\n\n<p>Below are links to our most recent research.</p>\n\n<h3>2019</h3>\n\n<ul>\n<li><a href=\"http://epe.lac-bac.gc.ca/100/200/301/pwgsc-tpsgc/por-ef/agriculture_agri-food/2019/023-19-e/index.html\">Consumer Perceptions of Food Qualitative Study</a></li>\n\n<li><a href=\"http://epe.lac-bac.gc.ca/100/200/301/pwgsc-tpsgc/por-ef/agriculture_agri-food/2019/066-18-e/index.html\">Survey on Consumer Perceptions of Food (Wave V)</a></li>\n\n<li><a href=\"http://epe.lac-bac.gc.ca/100/200/301/pwgsc-tpsgc/por-ef/agriculture_agri-food/2019/031-18-e/index.html\">Strategic Issues Survey and Focus Groups of Producers (Wave VI)</a></li>\n\n<li><a href=\"http://epe.lac-bac.gc.ca/100/200/301/pwgsc-tpsgc/por-ef/agriculture_agri-food/2019/053-18-e/index.html\">Strategic Issues Survey of Food and Beverage Processors (Wave\u00a0II)</a></li>\n<li><a href=\"http://epe.lac-bac.gc.ca/100/200/301/pwgsc-tpsgc/por-ef/agriculture_agri-food/2019/095-17-e/index.html\">Research on Agricultural Education Survey</a></li>\n</ul>\n\n\n\n<p>Visit Library and Archives Canada's website for a list of all <a href=\"http://epe.lac-bac.gc.ca/100/200/301/pwgsc-tpsgc/por-ef/agriculture_agri-food/index.html\">Agriculture and Agri-Food Canada public opinion research reports</a>.</p>\n\n\n\n\n<p>If you would like more information on the public opinion research studies that Agriculture and Agri-Food Canada has conducted, you can contact the department's Public Opinion Research Advisor at <a href=\"mailto:aafc.por-rop.aac@canada.ca\">aafc.por-rop.aac@canada.ca</a>.</p>\n\n\n<h2>Public consultations</h2>\n\n<h3>Current consultations</h3>\n\n<ul>\n<li><a href=\"?id=1622460995603\">Share ideas: Next Agricultural Policy Framework</a></li>\n<li><a href=\"?id=1610042594982\">Share ideas: <cite>Canada Grain Act</cite> review</a></li>\n\n</ul>\n\n<h3 id=\"pconsult\">Past consultations</h3>\n\n<ul>\n<li><a href=\"?id=1558731970394\">Engagement with Food Industry Stakeholders on Revisions to \u201cProduct of Canada\u201d and \u201cMade in Canada\u201d Labelling - What We Heard Report</a>\n </li><li><a href=\"?id=1597864030202\">A Food Policy for Canada - consulations</a>\n  <ul>\n    <li><a href=\"?id=1597864030202#a1\">Local Food Infrastructure Fund consultations \u2013 2019</a></li>\n    <li><a href=\"?id=1597864030202#a2\">Food Policy consultations \u2013 2017</a></li>\n   </ul>\n </li>\n\t</ul>\n\n<p>Visit the Government of Canada's <a href=\"https://www.canada.ca/en/government/system/consultations/consultingcanadians.html\">Consulting with Canadians</a> website for a list of consultations currently underway in other federal departments.</p>\n\r\n    ",
        "fr": "\r\n    <p>Dans le cadre d'un processus de prise de d\u00e9cisions, nous offrons aux Canadiens la possibilit\u00e9 de faire entendre leur voix de mani\u00e8re \u00e0 ce que leur point de vue soit soigneusement examin\u00e9. Il importe que le public puisse manifester ses inqui\u00e9tudes et exprimer ses opinions lors de discussions ouvertes. En communiquant leurs points de vue, les Canadiens nous aident \u00e0 \u00e9tablir l'orientation des prochaines politiques et des prochains programmes et services du Minist\u00e8re.</p>\n\n<h2>Recherche sur l'opinion publique</h2>\n\n<p>\u00c0 Agriculture et Agroalimentaire Canada (AAC), des recherches sur l'opinion publique sont men\u00e9es pour conna\u00eetre les opinions des Canadiens et des producteurs et bien comprendre leurs besoins.</p>\n\n<p>Conform\u00e9ment \u00e0 la <cite>Loi f\u00e9d\u00e9rale sur la responsabilit\u00e9</cite>, les minist\u00e8res et organismes gouvernementaux doivent remettre \u00e0 Biblioth\u00e8que et Archives Canada les rapports de recherche sur l'opinion publique qu'ils ont command\u00e9s dans les six mois suivant la fin de la collecte des donn\u00e9es. Les rapports sont disponibles dans la langue utilis\u00e9e pour la recherche; des sommaires sont disponibles dans les deux langues officielles.</p>\n\n<p>Vous trouverez ci-dessous des liens vers nos plus r\u00e9centes recherches.</p>\n\n<h3>2019</h3>\n\n<ul>\n<li><a href=\"http://epe.lac-bac.gc.ca/100/200/301/pwgsc-tpsgc/por-ef/agriculture_agri-food/2019/023-19-f/index.html\">Perceptions des consommateurs \u00e0 l'\u00e9gard des aliments : rapport de recherche qualitative</a></li>\n\n<li><a href=\"http://epe.lac-bac.gc.ca/100/200/301/pwgsc-tpsgc/por-ef/agriculture_agri-food/2019/066-18-f/index.html\">Les perceptions des consommateurs \u00e0 l'\u00e9gard des aliments (Vague V)</a></li>\n\n<li><a href=\"http://epe.lac-bac.gc.ca/100/200/301/pwgsc-tpsgc/por-ef/agriculture_agri-food/2019/031-18-f/index.html\">Sondage et groupes de discussions sur les enjeux strat\u00e9giques des producteurs (vague VI) : recherche qualitative et quantitative</a></li>\n\n<li><a href=\"http://epe.lac-bac.gc.ca/100/200/301/pwgsc-tpsgc/por-ef/agriculture_agri-food/2019/053-18-f/index.html\">Sondage sur des enjeux strat\u00e9giques touchant les transformateurs d'aliments et de boissons (Vague\u00a0II)</a></li>\n<li><a href=\"http://epe.lac-bac.gc.ca/100/200/301/pwgsc-tpsgc/por-ef/agriculture_agri-food/2019/095-17-f/index.html\">Enqu\u00eate par sondage sur l\u2019\u00e9ducation agricole</a></li>\n</ul>\n\n \n\n<p>Consultez le site web de Biblioth\u00e8que et Archives Canada pour plus des d\u00e9tails sur <a href=\"http://epe.lac-bac.gc.ca/100/200/301/pwgsc-tpsgc/por-ef/agriculture_agri-food/index.html\">la recherche de l\u2019opinion publique d\u2019Agriculture et Agroalimentaire Canada</a>.</p>\n\n\n<p>Pour plus de d\u00e9tails concernant l'information sur les \u00e9tudes de recherche sur l'opinion publique effectu\u00e9es par Agriculture et Agroalimentaire Canada, vous pouvez communiquer avec le conseiller en recherches sur l'opinion publique du minist\u00e8re \u00e0 <a href=\"mailto:aafc.por-rop.aac@canada.ca\">aafc.por-rop.aac@canada.ca</a>.</p>\n\n\n<h2>Consultations publiques</h2>\n\n<h3>Consultations actuelles</h3>\n\n<ul>\n<li><a href=\"?id=1622460995603\">Partager des id\u00e9es\u00a0: le prochain cadre strat\u00e9gique pour l'agriculture</a></li>\n<li><a href=\"?id=1610042594982\">Consultation\u00a0: Examen de la <cite>Loi sur les grains du Canada</cite></a></li>\n</ul>\n\n\n<h3 id=\"pconsult\">Consultations ant\u00e9rieures</h3>\n\n<ul>\n<li><a href=\"?id=1558731970394\">Engagement avec les intervenants de l'industrie alimentaire concernant les r\u00e9visions apport\u00e9es \u00e0 l'\u00e9tiquetage du \u00ab\u00a0produit du Canada\u00a0\u00bb et \u00ab\u00a0fabriqu\u00e9 au Canada\u00a0\u00bb - Rapport sur ce que nous avons entendu</a></li>\n\n\t<li><a href=\"?id=1597864030202\">Une politique alimentaire pour le Canada - consultations</a>\n<ul>\n<li><a href=\"?id=1597864030202#a1\">Consultations sur le Fonds des infrastructures alimentaires locales \u2013 2019</a></li>\n<li><a href=\"?id=1597864030202#a2\">Consultations sur la Politique alimentaire \u2013 2017</a></li>\n</ul>\n</li>\n\n</ul>\n\n<p>Consultez le site Web <a href=\"https://www.canada.ca/fr/gouvernement/systeme/consultations/consultationdescanadiens.html\">Consultation des Canadiens</a> du gouvernement du Canada pour une liste des consultations en cours dans les autres minist\u00e8res f\u00e9d\u00e9raux.</p>\n\n\r\n    "
    }
}