{
    "dcr_id": "1360882573376",
    "title": {
        "en": "Contact Agriculture and Agri-Food Canada",
        "fr": "Coordonn\u00e9es d\u2019Agriculture et Agroalimentaire Canada"
    },
    "modified": "2021-06-24",
    "issued": "2013-02-21",
    "templatetype": "content page 1 column",
    "page_type": "1",
    "node_id": "1354137774094",
    "dc_date_created": "2013-02-21",
    "managing_branch": "PAB",
    "parent_node_id": "1354137773675",
    "short_title": "",
    "exturl": "",
    "teamsite_location": {
        "en": "/default/main/AAFC-AAC/Internet-Internet/CCB-DGCC/WORKAREA/CCB-DGCC/templatedata/comm-comm/gene-gene/data/contact_us_1360882573376_en",
        "fr": "/default/main/AAFC-AAC/Internet-Internet/CCB-DGCC/WORKAREA/CCB-DGCC/templatedata/comm-comm/gene-gene/data/contact_us_1360882573376_fr"
    },
    "type_name": "sitemapinit",
    "has_dcr_id": true,
    "label": {
        "en": "Contact Agriculture and Agri-Food Canada",
        "fr": "Coordonn\u00e9es d\u2019Agriculture et Agroalimentaire Canada"
    },
    "breadcrumb": {
        "en": "Contact Agriculture and Agri-Food Canada",
        "fr": "Coordonn\u00e9es d\u2019Agriculture et Agroalimentaire Canada"
    },
    "layout_name": "content page 1 column",
    "lang": "en",
    "refaire": false,
    "meta": {
        "viewport": {
            "en": "width=device-width,initial-scale=1",
            "fr": "width=device-width, initial-scale=1"
        },
        "issued": {
            "en": "2013-02-21",
            "fr": "2013-02-21"
        },
        "modified": {
            "en": "2021-06-24",
            "fr": "2021-06-24"
        },
        "format": {
            "en": "gcformat",
            "fr": "gcformat"
        },
        "title": {
            "en": "Contact Agriculture and Agri-Food Canada",
            "fr": "Coordonn\u00e9es d\u2019Agriculture et Agroalimentaire Canada"
        },
        "subject": {
            "en": "media",
            "fr": "m\u00e9dia"
        },
        "dcterms:subject": {
            "en": "regulatory agencies;government information;media",
            "fr": "organisme de r\u00e9glementation;information gouvernementale;m\u00e9dia"
        },
        "description": {
            "en": "Enquiries, offices and locations, Experimental Farm, partners and agencies, newsletter subscriptions",
            "fr": "Demandes de renseignements, bureaux et emplacements, Ferme exp\u00e9rimentale, partenaires et organismes, abonnement aux bulletins"
        },
        "language": {
            "en": "eng",
            "fr": "fra"
        },
        "keywords": {
            "en": " offices and locations; contacts;enquires",
            "fr": " Bureaux et emplacements; Personnes-ressources;Demandes de renseignements"
        },
        "audience": {
            "en": "gcaudience",
            "fr": "gcaudience"
        },
        "type": {
            "en": "administrative page",
            "fr": "page administrative"
        },
        "creator": {
            "en": "Agriculture and Agri-Food Canada;Government of Canada",
            "fr": "Agriculture et Agroalimentaire Canada;Gouvernement du Canada"
        },
        "spatial": {
            "en": "gcregions",
            "fr": "gcregions"
        },
        "service": {
            "en": "AAFC-AAC",
            "fr": "AAFC-AAC"
        },
        "accessRights": {
            "en": "2",
            "fr": "2"
        },
        "legalName": {
            "en": "agriculture_and_agri_food_canada",
            "fr": "agriculture_et_agroalimentaire_canada"
        },
        "areaServed": {
            "en": "Canada",
            "fr": "Canada"
        }
    },
    "h1": {
        "en": "Contact Agriculture and Agri-Food Canada",
        "fr": "Coordonn\u00e9es d\u2019Agriculture et Agroalimentaire Canada"
    },
    "body": {
        "en": "\r\n     \n\n\n<div class=\"row profile\">\n<div class=\"col-md-6\">\n     \n\n<p>General and media inquiries, programs call centre, departmental contacts, offices and locations, Central Experimental Farm, research centres, partners and agencies, social media platforms, Agri-Info and other newsletter subscriptions.</p>\n</div>\n\n<div class=\"col-md-6 mrgn-tp-sm hidden-sm hidden-xs\">\n<img src=\"https://www.agr.gc.ca/resources/prod/img/topic_contact.jpg\" class=\"img-responsive\" alt=\"\"><br>\n</div></div>\n\n\n\n\n\n<div class=\"clearfix\"></div>\n\n  <div class=\"row\"> \n<section class=\"col-md-4\"> \n<h2 class=\"h3\">General enquiries</h2> \n         <p><b>Toll-free:</b>\u00a01-855-773-0241<br>\n  <b>TTY:</b>\u00a0613-773-2600<br>\n  <b>Fax:</b>\u00a0613-773-1081<br>\n  <b>Email:</b>\u00a0<a href=\"mailto:aafc.info.aac@canada.ca\">aafc.info.aac@canada.ca</a><br>\n  <b>Online:</b>\u00a0<a href=\"?id=1389383644592\">contact form</a></p>\n\n<p><b>Mail:</b><br>\nAgriculture and Agri-Food Canada<br>\n1341 Baseline Road<br>\nOttawa, ON  K1A 0C5</p>\n\n<p><b>Hours of service:</b> 8 am to 5 pm (CT) <br>Monday to Friday</p>\n\n   </section> \n<section class=\"col-md-4\"> \n    <h2 class=\"h3\">Media enquiries</h2> \n    <p><b>Toll-free:</b> 1-866-345-7972<br>\n      <b>Telephone:</b> 613-773-7972<br>\n      <b>Email:</b>\u00a0<a href=\"mailto:aafc.mediarelations-relationsmedias.aac@canada.ca\" title=\"Email: Media Enquiries\">aafc.mediarelations-relationsmedias.aac@canada.ca</a></p>\n      <p><b>Hours of service:</b> 8:30 am to 5 pm\u00a0(CT)<br> Monday to Friday</p>\n      <p><a href=\"?id=1370613214988#region\">Regional media contacts</a></p>\n</section> \n   <section class=\"col-md-4\"> \n    <h2 class=\"h3\">Programs and services</h2> \n   \n   <p><b>Toll-free:</b>\u00a01-866-367-8506<br>\n     <b>TTY:</b>\u00a0613-773-2600<br>\n     <b>Fax:</b>\u00a01-877-949-4885</p>\n     \n   <p><b>Telephone (international):</b> 204-926-9650<br>\n     <b>Fax (international):</b> 204-259-5642</p>\n   <p><b>Hours of service:</b> 8 am to 5  pm (CT) <br>Monday to Friday </p>\n   <p><a href=\"?id=1362151577626\">List of programs and services</a></p>\n   </section> \n  </div>\n\n \n\n   <div class=\"clearfix\"></div> \n  <div class=\"row\"> \n \n    <div class=\"col-md-4\"> \n    <h2 class=\"h3\">Agri-Food Trade Services for\u00a0Exporters</h2> \n <p><b>Email:</b> <a href=\"mailto:aafc.mas-sam.aac@canada.ca\">aafc.mas-sam.aac@canada.ca</a></p>\n</div> \n\n   <div class=\"col-md-4\"> \n    <h2 class=\"h3\">Departmental contacts</h2> \n    <ul class=\"list-unstyled\"> \n<li><a href=\"?id=1369864009036#a1\">Minister</a></li>\n<li><a href=\"?id=1449594974622#a1\">Parliamentary Secretary</a></li>\n<li><a href=\"http://gcdirectory-gcannuaire.ssc-spc.gc.ca/en/GCD/?pgid=014&amp;dn=T1U9QUFGQy1BQUMsTz1HQyxDPUNB\">Employee directory</a></li> \n    </ul> \n   </div> \n   <div class=\"col-md-4\"> \n    <h2 class=\"h3\">Research centres</h2> \n    <ul class=\"list-unstyled\"> \n      <li><a href=\"?id=1181591790641\">List of research centres</a></li>\n      <li><a href=\"https://profils-profiles.science.gc.ca/en/search/profiles?f%5B0%5D=field_organization%3A770&amp;f%5B1%5D=type%3Aprofile\">Scientific staff and expertise</a></li>\n     </ul> \n   </div> \n   </div>\n   \n   <div class=\"clearfix\"></div> \n<div class=\"row\"> \n  \n<div class=\"col-md-4\"> \n    <h2 class=\"h3\">Offices and locations</h2> \n    <ul class=\"list-unstyled\"> \n      <li><a href=\"?id=1180114490359\">Access to Information and Privacy Services</a></li>\n      <li><a href=\"?id=1410072148298\">Agriculture and Agri-Food Canada Regional Offices</a></li>\n      <li><a href=\"?id=1231423632566\">Office of Audit and Evaluation</a></li> \n<li><a href=\"?id=1182974548212\">Official Languages Team </a></li>\n      <li class=\"mrgn-tp-md\"><a href=\"?id=1170701489551\">Central Experimental Farm</a><br>\nThis National Historic Site in Canada's capital hosts many attractions open to the public and still remains an active research centre.</li>\n    </ul> \n  </div> \n  \n<div class=\"col-md-4\"> \n<h2 class=\"h3\">Stay connected</h2>\n\n    <ul class=\"list-unstyled\"> \n      <li><a href=\"?id=1360882689831\">Email updates and RSS feed</a></li>\n      <li><a href=\"?id=1360882689831\">Social media</a></li>\n      </ul>\n  </div>    \n   <div class=\"col-md-4\"> \n     <h2 class=\"h3\">Sector specific</h2> \n    <ul class=\"list-unstyled\"><li>Animal  Genetics: <a href=\"mailto:aafc.animalgenetics-genetiqueanimale.aac@canada.ca\">aafc.animalgenetics-genetiqueanimale.aac@canada.ca</a></li>\n      <li>Crops: <a href=\"mailto:aafc.bulletin.aac@canada.ca\">aafc.bulletin.aac@canada.ca</a></li>\n      <li>Fish  and seafood: <a href=\"mailto:aafc.sdad-ddas.aac@canada.ca\">aafc.sdad-ddas.aac@canada.ca</a></li>\n      <li>Horticulture: <a href=\"mailto:aafc.horticulture.aac@canada.ca\">aafc.horticulture.aac@canada.ca</a></li>\n      <li>Poultry  and egg: <a href=\"mailto:aafc.poultry-volaille.aac@canada.ca\">aafc.poultry-volaille.aac@canada.ca</a></li>\n      <li>Red meat and livestock: <a href=\"mailto:aafc.redmeat-vianderouge.aac@canada.ca\">aafc.redmeat-vianderouge.aac@canada.ca</a></li>\n     </ul> \n</div>\n</div>\n\n \n\n\r\n    ",
        "fr": "\r\n    \n\n\n<div class=\"row profile\">\n<div class=\"col-md-6\">\n     \n<p>Demandes d\u2019informations g\u00e9n\u00e9rales et m\u00e9diatiques, centre d\u2019appel des programmes, contacts, bureaux et sites du minist\u00e8re, Ferme exp\u00e9rimentale centrale, centres de recherche, partenaires et agences, plateformes de m\u00e9dias sociaux, Agri-Info et autres abonnements \u00e0 des bulletins.</p>\n</div>\n\n<div class=\"col-md-6 mrgn-tp-sm hidden-sm hidden-xs\">\n<img src=\"https://www.agr.gc.ca/resources/prod/img/topic_contact.jpg\" class=\"img-responsive\" alt=\"\">\n</div></div>\n\n\n\n\n<div class=\"clearfix\"></div>\n\n  <div class=\"row\"> \n<section class=\"col-md-4\"> \n<h2 class=\"h3\">Demandes de renseignements g\u00e9n\u00e9raux</h2> \n<p><b>Sans frais\u00a0:</b> 1-855-773-0241<br>\n  <b>ATS\u00a0:</b>  613-773-2600<br>\n  <b>T\u00e9l\u00e9copieur\u00a0:</b> 613-773-1081<br>\n  <b>Courriel\u00a0:</b> <a href=\"mailto:aafc.info.aac@canada.ca\">aafc.info.aac@canada.ca</a>\u00a0<br>\n  <b>En ligne\u00a0:</b>  <a href=\"?id=1389383644592\">formulaire de  communication</a></p>\n\n<p><b>Courrier\u00a0: </b><br>\nAgriculture  et Agroalimentaire Canada<br>\n 1341 chemin Baseline<br>\n Ottawa\u00a0ON  K1A 0C5</p>\n\n  <p><b>Heures de service\u00a0:</b> de 8 h \u00e0 17 h  (heure centrale), du lundi au vendredi</p>\n</section> \n<section class=\"col-md-4\"> \n    <h2 class=\"h3\">Demandes de renseignements des m\u00e9dias</h2> \n    <p><b>Sans frais\u00a0:</b> 1-866-345-7972<br>\n      <b>T\u00e9l\u00e9phone\u00a0:</b> 613-773-7972<br>\n <b>Courriel\u00a0:</b> <a href=\"mailto:aafc.mediarelations-relationsmedias.aac@canada.ca\">aafc.mediarelations-relationsmedias.aac@canada.ca</a></p>\n<p><b>Heures de  service\u00a0:</b> de 8 h 30 \u00e0 17 h (HE)<br> du lundi au vendredi</p>\n<p><a href=\"?id=1370613214988#region\">Personnes-ressources pour les m\u00e9dias  (par r\u00e9gion)</a></p>\n \n</section> \n   <section class=\"col-md-4\"> \n    <h2 class=\"h3\">Programmes et services</h2> \n   \n   <p><b>Sans frais\u00a0:</b> 1-866-367-8506<br>\n     <b>ATS\u00a0:</b> 613-773-2600<br>\n     <b>T\u00e9l\u00e9copieur\u00a0:</b> 1-877-949-4885</p>\n\n<p><b>T\u00e9l\u00e9phone (international)\u00a0:</b> 204-926-9650<br>\n  <b>T\u00e9l\u00e9copieur (international)\u00a0:</b> 204-259-5642</p>\n<p><b>Heures de  service\u00a0:</b> de 8 h \u00e0 17 h (heure centrale), du lundi au vendredi</p>\n<p><a href=\"?id=1362151577626\">Liste des  programmes et services</a></p> \n   </section> \n</div>\n\n   <div class=\"clearfix\"></div> \n<div class=\"row\"> \n \n  <div class=\"col-md-4\"> \n    <h2 class=\"h3\">Service d'exportation agroalimentaire</h2> \n <p><b>Courriel\u00a0:</b> <a href=\"mailto:aafc.mas-sam.aac@canada.ca\">aafc.mas-sam.aac@canada.ca</a></p>\n</div> \n\n   <div class=\"col-md-4\"> \n    <h2 class=\"h3\">Personnes-ressources du minist\u00e8re</h2>\n<ul class=\"list-unstyled\"> \n  <li><a href=\"?id=1369864009036#a1\">Ministre</a></li>\n  <li><a href=\"?id=1449594974622#a1\">Secr\u00e9taire parlementaire</a></li>\n  <li><a href=\"http://gcannuaire-gcdirectory.ssc-spc.gc.ca/fr/GCA/?pgid=014&amp;dn=T1U9QUFGQy1BQUMsTz1HQyxDPUNB\">R\u00e9pertoire  des employ\u00e9s</a></li>\n</ul> \n   </div> \n   \n  <div class=\"col-md-4\"> \n    <h2 class=\"h3\">Centres de recherche</h2> \n<ul class=\"list-unstyled\"> \n  <li><a href=\"?id=1181591790641\">Liste  des centres de recherche</a></li>\n  <li><a href=\"https://profils-profiles.science.gc.ca/fr/recherche/profils?f%5B0%5D=field_organization%3A770&amp;f%5B1%5D=type%3Aprofile\">Personnel  et expertise scientifiques</a></li>\n     </ul> \n  </div> \n</div>\n \n   \n   <div class=\"clearfix\"></div> \n<div class=\"row\">   \n   \n<div class=\"col-md-4\"> \n    <h2 class=\"h3\">Bureaux et emplacements</h2> \n    <ul class=\"list-unstyled\"> \n      <li><a href=\"?id=1180114490359\">Services d'acc\u00e8s \u00e0 l'information et de protection des renseignements personnels</a></li>\n      <li><a href=\"?id=1410072148298\">Bureaux r\u00e9gionaux d'Agriculture et Agroalimentaire Canada</a></li>\n      <li><a href=\"?id=1231423632566\">Bureau de la v\u00e9rification et de l'\u00e9valuation</a></li>\n<li><a href=\"?id=1182974548212\">L'\u00e9quipe des langues officielles </a></li>\n      <li class=\"mrgn-tp-md\"><a href=\"?id=1170701489551\">Ferme exp\u00e9rimentale centrale</a>\n<p>Ce lieu historique national situ\u00e9 dans la capitale du Canada propose de nombreuses attractions accessibles au public toute l'ann\u00e9e et demeure un centre de recherche actif.</p></li>\n    </ul> \n  </div>  \n   \n<div class=\"col-md-4\"> \n<h2 class=\"h3\">Restez branch\u00e9s</h2>\n\n    <ul class=\"list-unstyled\"> \n      <li><a href=\"?id=1360882689831\">Mis \u00e0 jour par courriel et fil RSS</a></li>\n      <li><a href=\"?id=1360882689831\">M\u00e9dias sociaux</a></li>\n      </ul>\n  </div>   \n    \n  <div class=\"col-md-4\"> \n    <h2 class=\"h3\">Groupes sectoriels</h2> \n    <ul class=\"list-unstyled\">\n       <li>Horticulture: <a href=\"mailto:aafc.horticulture.aac@canada.ca\">aafc.horticulture.aac@canada.ca</a></li>   \n         <li>Poissons et fruits de mer : <a href=\"mailto:aafc.sdad-ddas.aac@canada.ca\">aafc.sdad-ddas.aac@canada.ca</a></li> \n      <li>Productions v\u00e9g\u00e9tales\u00a0: <a href=\"mailto:aafc.bulletin.aac@canada.ca\">aafc.bulletin.aac@canada.ca</a></li>\n         <li>Viandes rouges et b\u00e9tail\u00a0: <a href=\"mailto:aafc.redmeat-vianderouge.aac@canada.ca\">aafc.redmeat-vianderouge.aac@canada.ca</a></li>\n         <li>Volaille et \u0153ufs\u00a0: <a href=\"mailto:aafc.poultry-volaille.aac@canada.ca\">aafc.poultry-volaille.aac@canada.ca</a></li>\n         <li>Zoog\u00e9n\u00e9tiques\u00a0: <a href=\"mailto:aafc.animalgenetics-genetiqueanimale.aac@canada.ca\">aafc.animalgenetics-genetiqueanimale.aac@canada.ca</a></li>\n    </ul>\n  \n  </div>\n</div>\n\r\n    "
    },
    "js": {
        "en": "<script>\n$( document ).ready( function() {\nvar h1 = document.getElementsByTagName(\"h1\")[0];\nh1.parentNode.removeChild(h1);\ndocument.getElementsByTagName(\"main\")[0].innerHTML = \n'<div class=\"row profile\"><div class=\"col-md-6\"><h1>Contact Agriculture and Agri-Food Canada<p>General and media inquiries, programs call centre, departmental contacts, offices and locations, Central Experimental Farm, research centres, partners and agencies, social media platforms, Agri-Info and other newsletter subscriptions.  <div class=\"col-md-6 mrgn-tp-sm hidden-sm hidden-xs\"><img src=\"https://www.agr.gc.ca/resources/prod/img/topic_contact.jpg\" class=\"pull-right img-responsive thumbnail\" alt=\"\"/><br/>'\n+ document.getElementsByTagName(\"main\")[0].innerHTML;\n})\n</script>",
        "fr": "<script>\n$( document ).ready( function() {\nvar h1 = document.getElementsByTagName(\"h1\")[0];\nh1.parentNode.removeChild(h1);\ndocument.getElementsByTagName(\"main\")[0].innerHTML = \n'<div class=\"row profile\"><div class=\"col-md-6\"><h1>Coordonn&eacute;es d&rsquo;Agriculture et Agroalimentaire Canada<p>Demandes d&rsquo;informations g&eacute;n&eacute;rales et m&eacute;diatiques, centre d&rsquo;appel des programmes, contacts, bureaux et sites du minist&egrave;re, Ferme exp&eacute;rimentale centrale, centres de recherche, partenaires et agences, plateformes de m&eacute;dias sociaux, Agri-Info et autres abonnements &agrave; des bulletins.  <div class=\"col-md-6 mrgn-tp-sm hidden-sm hidden-xs\"><img src=\"https://www.agr.gc.ca/resources/prod/img/topic_contact.jpg\" class=\"pull-right img-responsive thumbnail\" alt=\"\"/><br/>'\n+ document.getElementsByTagName(\"main\")[0].innerHTML;\n})\n</script>"
    }
}