{
    "dcr_id": "1197056926950",
    "title": {
        "en": "Licensing opportunities \u2013 agriculture",
        "fr": "Occasion de concession de licence \u2013 agriculture"
    },
    "modified": "2020-05-27",
    "issued": "2009-05-08",
    "templatetype": "content page 1 column",
    "page_type": "1",
    "node_id": "1354137774015",
    "dc_date_created": "2009-05-08",
    "managing_branch": "PAB",
    "parent_node_id": "1354137774014",
    "short_title": "",
    "exturl": "",
    "teamsite_location": {
        "en": "/default/main/AAFC-AAC/Internet-Internet/Common-Commun/WORKAREA/Common-Commun/templatedata/comm-comm/gene-gene/data/12/techno_licensing_opportunities_1197056926950_en",
        "fr": "/default/main/AAFC-AAC/Internet-Internet/Common-Commun/WORKAREA/Common-Commun/templatedata/comm-comm/gene-gene/data/12/techno_licensing_opportunities_1197056926950_fr"
    },
    "type_name": "sitemapinit",
    "has_dcr_id": true,
    "label": {
        "en": "Licensing opportunities \u2013 agriculture",
        "fr": "Occasion de concession de licence \u2013 agriculture"
    },
    "breadcrumb": {
        "en": "Licensing opportunities \u2013 agriculture",
        "fr": "Occasion de concession de licence \u2013 agriculture"
    },
    "layout_name": "content page 1 column",
    "lang": "en",
    "refaire": false,
    "meta": {
        "viewport": {
            "en": "width=device-width,initial-scale=1",
            "fr": "width=device-width, initial-scale=1"
        },
        "issued": {
            "en": "2009-05-08",
            "fr": "2009-05-08"
        },
        "modified": {
            "en": "2020-05-27",
            "fr": "2020-05-27"
        },
        "format": {
            "en": "text/html",
            "fr": "text/html"
        },
        "title": {
            "en": "Licensing opportunities \u2013 agriculture",
            "fr": "Occasion de concession de licence \u2013 agriculture"
        },
        "subject": {
            "en": "marketing;technology transfer",
            "fr": "hygi\u00e8ne du milieu;physiologie v\u00e9g\u00e9tale;bio-informatique"
        },
        "dcterms:subject": {
            "en": "intellectual property;agricultural technology;scientific research;scientific information",
            "fr": "g\u00e9nie g\u00e9n\u00e9tique;plante;technologie"
        },
        "description": {
            "en": "Agriculture and Agri-Food Canada has a variety of technologies and intellectual property available for commercialization. click on the title to access the flintbox\u00ae posting, which includes the following information: full description of the technology, including process and product patent information, if applicable potential applications, including market, limitations, third-party rights business opportunity available contact information technologies are grouped below according to area of interest and include the following categories: crop and livestock production food and non-food products and processes environmental technologies bioproducts and bioprocesses (biotechnology) crop and livestock production aafc 2007 variety request for proposals (time limited) short description: this rfp closed",
            "fr": "Proc\u00e9d\u00e9 de combinaison des acides organiques pour stabiliser et pr\u00e9server les produits v\u00e9g\u00e9taux transform\u00e9sDescription sommaire : Proc\u00e9d\u00e9 de contr\u00f4le biologique fond\u00e9 sur un m\u00e9lange d'acides organiques visant \u00e0 stabiliser et \u00e0 normaliser les produits de transformation v\u00e9g\u00e9tale incluant l'utilisation nouvelle de l'acide propionique pouvant agir comme agent de conservation dans les produits de l\u00e9gumes."
        },
        "language": {
            "en": "eng",
            "fr": "fra"
        },
        "keywords": {
            "en": " Environmental Technologies; Crop And Livestock Production; Agriculture and Agri-Food Canada; biotechnology; organic acids; processed plant products;fermentation process",
            "fr": "concept d'interface de radication;activit\u00e9 des kinases;\u00e9tat des fruits;d\u00e9pendantes des cyclines;Agroalimentaire Canada"
        },
        "audience": {
            "en": "business;general public",
            "fr": "gcaudience"
        },
        "type": {
            "en": "resource list",
            "fr": "mat\u00e9riel publicitaire"
        },
        "creator": {
            "en": "Agriculture and Agri-Food Canada;Government of Canada ",
            "fr": "Agriculture et Agroalimentaire Canada;Gouvernement du Canada"
        },
        "spatial": {
            "en": "gcregions",
            "fr": "gcregions"
        },
        "service": {
            "en": "AAFC-AAC",
            "fr": "AAFC-AAC"
        },
        "accessRights": {
            "en": "2",
            "fr": "2"
        },
        "legalName": {
            "en": "agriculture_and_agri_food_canada",
            "fr": "agriculture_et_agroalimentaire_canada"
        },
        "areaServed": {
            "en": "Canada",
            "fr": "Canada"
        }
    },
    "h1": {
        "en": "Licensing opportunities \u2013 agriculture",
        "fr": "Occasion de concession de licence \u2013 agriculture"
    },
    "js": {
        "en": "",
        "fr": ""
    },
    "body": {
        "en": "\r\n    <p>Agriculture and Agri-Food Canada has a variety of technologies and intellectual property available for commercialization.</p>\n\n<p>Some licensing opportunities are competitive and time-sensitive. We use the Request for Proposals process to identify technologies that are available for a specific time only. Terms may include commercial exclusivity. If a license is not executed from the Request for Proposals, the technology may continue to be available as a <b>generally available</b> technology.</p>\n\n<p>Technologies may also be made available on a non-exclusive basis; such licensing opportunities are included with <b>generally available</b> technologies.</p>\n\n<p>Agriculture and Agri-Food Canada is licensed to post its latest technologies on <a href=\"https://www.flintbox.com/public/group/85/\">Flintbox\u00ae</a>, an online platform for marketing and licensing the outcomes of research. Most of the technologies listed below are described in greater detail on the <a href=\"https://www.flintbox.com/public/group/85/\">Flintbox\u00ae</a> page.</p>\n\n<p>Select the title to access the <a href=\"https://www.flintbox.com/public/group/85/\">Flintbox\u00ae</a> posting, which includes the following information:</p>\n\n<ul>\n  <li>Full description of the technology, including process and product</li>\n  <li>Patent information, if applicable</li>\n  <li>Potential applications, including market, limitations, third-party rights</li>\n  <li>Business opportunity available</li>\n  <li>Contact Information</li>\n</ul>\n\n<p>For further information, please contact the Office of Intellectual Property and Commercialization at <a href=\"mailto:aafc.oipc-bpic.aac@canada.ca\">aafc.oipc-bpic.aac@canada.ca</a>.</p>\n\n<nav>\n<h2>Index</h2>\n\n<p>Technologies are grouped below according to area of interest and include the following categories:</p>\n\n<ul>\n<li><a href=\"#a0\">Notice of request for proposals</a></li>\n  <li><a href=\"?id=1203091767065\">Accelerated Release Program for new potato selections</a></li>\n  <li><a href=\"#a1\">Bioproducts and bioprocesses (biotechnology)</a></li>\n  <li><a href=\"#a2\">Crop and livestock production</a></li>\n  <li><a href=\"#a3\">Environmental technologies</a></li>\n  <li><a href=\"#a4\">Food and non-food products and processes</a></li>\n  <li><a href=\"?id=1538745134639\">Release of corn inbred lines</a></li>  \n</ul>\n</nav>\n\n<p>Service Standards \u2013 Office of Intellectual Property and Commercialization</p>\n\n<div class=\"mrgn-tp-lg mrgn-bttm-md brdr-bttm\"></div>\n\n<h2 id=\"a0\">Notice of request for proposals</h2>\n\n<p>Agriculture and Agri-Food Canada (AAFC) would like to thank the companies that submitted proposals for each innovation and technologies.</p>\n<p>Based upon the proposal received our evaluation committee has selected the following company for the mentioned invention.</p>\n<h3>Patent</h3>\n\n<p>Fungal Isolates and Biological Control Compositions for the Control of Weeds</p>\n\n<h3>Invention title</h3>\n<p>Control of Canada Thistle with soil applied fungal isolates and fungal metabolites with herbicidal properties (Phoma)</p>\n\n<h3>Company (awarded)</h3>\n<p><a href=\"https://www.evologic-technologies.com/\">Evologic Technologies</a></p>\n\n\n\n\n<h2 id=\"a1\">Bioproducts and bioprocesses (biotechnology)</h2>\n\n<dl>\n<dt><a href=\"https://www.flintbox.com/public/project/51446/\">Nanostructured Platform for Biosensing and Bioconversion purposes</a></dt>\n<dd>\n<p>Agriculture and Agri-Food Canada (AAFC) scientists have developed block copolymers-based formulations to produce nanostructured monolayers with functional properties on a solid substrate. Such monolayers allow grafting of organic molecules with the desired three-dimensional structure and bioactivity. The templates obtained could be used for biomolecule immobilization for biosensing and bioconversion purposes.</p>\n</dd>\n\t\n<dt>Biological Nitrogen Fixation in Mitochondria of Crops</dt>\n<dd>\n<p>Nitrogen availability is limiting to cereal crop growth and has long been overcome through synthetic N fertilizer application. The ability to fix atmospheric nitrogen is limited to a narrow group of microorganisms, such as rhizobia. Some plants, for example legume crops, profit from symbiotic interactions with nitrogen-fixing bacteria, but cereal crops do not naturally form symbiotic nitrogen-fixing associations.  We are developing N<sub>2</sub>-fixing triticale plants containing a mitochondrial genome enriched with nitrogen fixation (nif) genes. Genetic engineering of the triticale microspore mitochondria will allow the creation of doubled haploid triticale lines with a new organelle genome, and a new trait.  The trait will be transferred to wheat through inter-species crossing, and the resulting plants will have all the features of the wheat parent enriched by N<sub>2</sub> biological nitrogen fixation ability.</p>\n</dd>\n\t\n<dt>Aqueous extraction of cruciferous oilseeds seperates and isolates protein fractions</dt>\n<dd>\n<p>Plant based proteins are increasingly being sought after as a replacement for animal protein products.  Canola meal is an abundantly available source for production of proteins as an alternative to soy protein which currently dominates the plant segment of the protein market.  Agriculture and Agri-Food Canada scientists have developed an economical, aqueous pilot process to extract cruciferin- and napin-rich co-products from canola meal, is simpler and cheaper than the sole commercial alternative used by the industry leaders in canola protein production.</p>\n</dd>\t\n</dl>\n\n\n<h2 id=\"a2\">Crop and livestock production</h2>\n\n<dl>\n\n<dt><a href=\"http://www.flintbox.com/public/project/5470/\">GreenCropTracker\u00a0- Software for processing digital photos of agricultural crops</a></dt>\n<dd>\n<p>Agriculture and Agri-Food Canada has developed a software tool to assist researchers in processing digital colour photographs for deriving crop structural descriptors such as leaf area index (LAI) and green cover fraction in agricultural fields.</p>\n\n<p>The software can be used to study crop production from experimental plots and fields, to evaluate the impact of climate variation on crops, to derive crop descriptors from remote sensing, to verify crop growth model output, and to interface surface conditions to regional meteorological models.</p>\n</dd>\n\n<dt><a href=\"/eng/scientific-collaboration-and-research-in-agriculture/technology-transfer-and-licensing-agriculture/licensing-opportunities-agriculture/notice-of-variety-request-for-proposals/?id=1197398786512\">Agriculture and Agri-Food Canada Annual Variety Request for Proposals (time limited)</a></dt>\n<dd>\n<p>Each year, Agriculture and Agri-Food Canada makes available to interested proponents, the sole licensing rights to market and produce pedigreed seed for each of the varieties developed through its breeding programs that have received support for registration.</p>\n</dd>\n\n<dt><a href=\"/eng/scientific-collaboration-and-research-in-agriculture/technology-transfer-and-licensing-agriculture/licensing-opportunities-agriculture/accelerated-release-program-new-potato-selections-for-french-fries-chips-and-the-fresh-market/?id=1203091767065\">Accelerated Release Program for New Potato Selections</a> </dt>\n<dd>\n<p><b>Short Description:</b> New Potato Selections for French Fries, Chips and the Fresh Market</p>\n</dd>\n\t\n<dt>Faster and Improved Plant Breeding</dt>\n<dd>\n<p>Plant breeding relies on exploiting natural genetic variants to create plant lines with new combinations of genes to improve productivity. This invention uses two fundamental techniques to increase or decrease the number of combinations of variants as required.</p>\n</dd>\t\t\n</dl>\n \n<h2 id=\"a3\">Environmental technologies</h2>\n\n<dl>\n\n<dt>Pre-emergent Biological control of Grassy Weeds</dt>\n<dd>\n<p>AAFC scientists have identified several bacterial strains exhibiting effective suppression of weed growth that can be developed into a pre-emergent bioherbicide. Some bacterial strains show broad-spectrum activity on a number of grass weed species including green foxtail and wild oat without negatively affecting major field crops. Field trials have shown that the bacterial strains significantly reduced emergence and biomass up to 90% in green foxtail and wild oat populations. Extensive fermentation studies have been conducted and granular formulation technologies have been investigated.</p>\n</dd>\n</dl>\n \n<h2 id=\"a4\">Food and non-food products and processes</h2>\n\n<dl>\n<dt><a href=\"http://www.flintbox.com/technology.asp?page=2540\">Production of plant proanthocyanidins</a></dt>\n<dd>\n<p><b>Short Description:</b> Process for extracting and purifying proanthocyanidins extracted from the bark of Canadian pine trees.</p>\n</dd>\n\n<dt>Dual Sensors for Monitoring Crop Yield</dt>\n<dd>\n<p>Few yield monitoring systems exist for non-combinable crops. Yield maps are slated to play an important role in the advent of big data in agriculture. Commercial systems for real time yield monitoring involve the use of load cells, and these systems still need to be improved to provide information on crop quality and noise filtration. Baby greens is among the non-combinable crops and the harvesting process involves cutting young plants close to the surface of the ground that are then conveyed on a belt to be boxed on the go. Farmers are interested to have access to a yield monitoring system to improve accuracy of the harvest with a real-time feedback loop of harvested product, for book keeping and for yield mapping.</p>\n</dd>\n\t\n<dt>Encapsulation system for protecting thermal sensitive probiotic bacteria</dt>\n<dd>\n<p>AAFC has developed a spray-drying method that utilizes a low melting-point fat (LMF), such as margarine and shortening: inexpensive food ingredients already widely used in food production. The LMF phase transition from solid to liquid above its melting temperature absorbs considerable heat energy, shielding probiotics from the high temperatures used in spray-drying and subsequent processing. Live probiotic cells are then delivered to the large intestine where they are able to provide important health benefits to the host. The method is particularly well suited to heat sensitive bioactive material and could expand the types of products currently available in the market today.</p>\n</dd>\n\t\n<dt>SpectrAAC II</dt>\n<dd>\n<p>Food analysis is the discipline underlying food safety testing: to determine changes in food products and their quality during processing and storage (see text box, below left). Food analysis characterizes properties, including composition, structure, physical chemistry and sensory attributes. These measurements are compared with the standards required for human consumption or for substances permitted to come in contact with food. Food quality includes chemical, biological and microbial factors, for example, instability, which limits shelf life and is caused by irreversible chemical and enzymatic reactions.</p>\n</dd>\n \n<dt>Systems Containing Cruciferous Plant(s) or Related Materials for Controlling/Managing Microbial Deterioration and Contamination of Foods</dt>\n<dd>\n<p>The delivery system is a plastic sachet containing an agriculture based product and a capsule. When the capsule is broken, naturally occurring glucosinolates and myrosinase enzyme in the meal interact to produce isothiocyanates. AAFC seeks to work with a packaging supplier to further develop cost effective applications for manufacturing plastic containers or bulk wrap for other food products that could benefit from this concept. Such products include dairy items (for example, cheese, yogurt) and fresh fruits and vegetables. AAFC would license the technology and could undertake supporting research as part of the effort to develop such applications.</p>\n</dd>\n\t\n</dl>\n\r\n    ",
        "fr": "\r\n     <p>Agriculture et Agroalimentaire Canada poss\u00e8de une vari\u00e9t\u00e9 de technologies et de propri\u00e9t\u00e9 intellectuelle disponible aux fins de commercialisation.</p>\n\n<p>Certaines occasions de concession de licence sont concurrentielles et sensibles au temps. Nous avons recours aux demandes de proposition afin d'identifier les technologies qui sont disponibles seulement pour une dur\u00e9e d\u00e9termin\u00e9e. Les conditions peuvent comprendre l'exclusivit\u00e9 commerciale. Si une licence n'est pas ex\u00e9cut\u00e9e dans le cadre des demandes de proposition, la technologie peut demeurer disponible \u00e0 titre de technologie <b>g\u00e9n\u00e9ralement disponibles</b>.</p>\n\n<p>Les technologies peuvent \u00e9galement \u00eatre rendues disponibles de mani\u00e8re non exclusive; de telles occasions de concession de licence sont comprises dans les technologies <b>g\u00e9n\u00e9ralement disponibles</b>.</p>\n\n<p>Agriculture et Agroalimentaire Canada est autoris\u00e9 \u00e0 publier ses toutes nouvelles technologies dans <a href=\"https://www.flintbox.com/public/group/85/\">Flintbox<sup>MD</sup></a>, une plate-forme de marketing en ligne, et \u00e0 effectuer des concessions de licence relativement aux r\u00e9sultats de ses recherches. La majorit\u00e9 des technologies \u00e9num\u00e9r\u00e9es ci-dessous sont d\u00e9crites plus en d\u00e9tail \u00e0 la page <a href=\"https://www.flintbox.com/public/group/85/\">Flintbox<sup>MD</sup></a>.</p>\n\n<p>S\u00e9lectionnez le titre pour acc\u00e9der aux affichages dans <a href=\"https://www.flintbox.com/public/group/85/\">Flintbox<sup>MD</sup></a>, affichages qui comprennent les renseignements suivants\u00a0:</p>\n\n<ul>\n  <li>La description compl\u00e8te de la technologie, notamment le processus et le produit;</li>\n  <li>Les renseignements sur les brevets, le cas \u00e9ch\u00e9ant;</li>\n  <li>Les applications potentielles, notamment le march\u00e9, les limitations, les droits des tierces parties;</li>\n  <li>Les occasions d'affaires disponibles;</li>\n  <li>Les renseignements sur les personnes-ressources.</li>\n</ul>\n\n<p>Pour de plus amples renseignements, veuillez communiquer avec le Bureau de la propri\u00e9t\u00e9 intellectuelle et de la commercialisation \u00e0 <a href=\"mailto:aafc.oipc-bpic.aac@canada.ca\">aafc.oipc-bpic.aac@canada.ca</a>.</p>\n\n<nav>\n<h2>Index</h2>\n\n<p>Les technologies sont group\u00e9es par th\u00e8me d'int\u00e9r\u00eats et se r\u00e9partissent dans les cat\u00e9gories suivantes\u00a0:</p>\n\n<ul>\n <li><a href=\"#a1\">Avis des demandes de proposition</a></li>\n  <li><a href=\"?id=1538745134639\">Mise en circulation de lign\u00e9es de mais autof\u00e9cond\u00e9es</a></li>\n  <li><a href=\"#a2\">Productions v\u00e9g\u00e9tales et animales</a></li>\n  <li><a href=\"#a3\">Produits et proc\u00e9d\u00e9s alimentaires et non alimentaires</a></li>\n  <li><a href=\"#a4\">Produits et proc\u00e9d\u00e9s biologiques</a></li>\n  <li><a href=\"?id=1203091767065\">Programme de mise en circulation acc\u00e9l\u00e9r\u00e9e pour les nouvelles vari\u00e9t\u00e9s de pommes de terre</a></li>\n  <li><a href=\"#a5\">Technologies environnementales</a></li>\n  </ul>\n</nav>\n\n<p class=\"mrgn-lft-0\">Normes de service \u2013 Bureau de la propri\u00e9t\u00e9 intellectuelle et de la commercialisation</p>\n\n<div class=\"mrgn-tp-lg mrgn-bttm-md brdr-bttm\"></div>\n<h2 id=\"a1\">Avis des demandes de proposition</h2>\n\n<p>Agriculture et Agroalimentaire Canada (AAC) tient \u00e0 remercier les entreprises qui ont soumis des propositions pour chaque innovation et/ou technologie.</p>\n<p>Selon la proposition re\u00e7ue, notre comit\u00e9 d'\u00e9valuation a s\u00e9lectionn\u00e9 la compagnie suivante pour l'invention mentionn\u00e9e.</p>\n\n<h3>Brevet</h3>\n\n<p>Isolats fongiques et compositions de contr\u00f4le biologique pour le contr\u00f4le des mauvaises herbes</p>\n\n<h3>Titre de l\u2019invention</h3>\n\n<p>Lutte contre le chardon des champs au moyen d'isolats fongiques appliqu\u00e9s au sol et de m\u00e9tabolites fongiques aux propri\u00e9t\u00e9s herbicides (Phoma)</p>\n\n<h3>Entreprise (droit accord\u00e9)</h3>\n<p><a href=\"https://www.evologic-technologies.com/\">Evologic Technologies</a></p>\n\n\n<h2 id=\"a2\">Productions v\u00e9g\u00e9tales et animales</h2>\n\n<dl>\n\n<dt><a href=\"http://www.flintbox.com/public/project/5481/\"><span lang=\"en\">GreenCropTracker</span>\u00a0- Logiciel servant au traitement des photos num\u00e9riques des cultures</a></dt>\n<dd>\n<p>Agriculture et Agroalimentaire Canada a mis au point un logiciel qui aidera les chercheurs \u00e0 traiter les photographies couleur afin d'extraire des descripteurs de culture, comme l'indice de surface foliaire (ISF) et le taux de couverture v\u00e9g\u00e9tale dans les champs agricoles.</p>\n\n<p>Le logiciel peut \u00eatre utilis\u00e9s pour \u00e9tudier la production des cultures, tant dans les parcelles exp\u00e9rimentales que dans les champs, pour \u00e9valuer l'incidence des variations climatiques sur les plantes; pour mettre au point des descripteurs de culture \u00e0 partir de la t\u00e9l\u00e9d\u00e9tection, pour v\u00e9rifier les r\u00e9sultats des mod\u00e8les de croissance des cultures et pour faire le lien entre les conditions de surface et les mod\u00e8les m\u00e9t\u00e9orologiques r\u00e9gionaux.</p>\n</dd>\n\n<dt><a href=\"/fra/collaboration-scientifique-en-agriculture/transfert-et-licences-de-technologie-agriculture/occasion-de-concession-de-licence-agriculture/demandes-de-propositions-relatives-aux-varietes/?id=1197398786512\">Demandes de propositions annuel visant des vari\u00e9t\u00e9s d'Agriculture et Agroalimentaire Canada (dur\u00e9e d\u00e9termin\u00e9e)</a></dt>\n<dd>\n<p>\u00c0 chaque ann\u00e9e, Agriculture et Agroalimentaire Canada offre aux entreprises int\u00e9ress\u00e9es, les droits de licence exclusifs de commercialisation et de production de semences certifi\u00e9es pour chacune des vari\u00e9t\u00e9s mise au point dans le cadre de son programme de s\u00e9lection ayant \u00e9t\u00e9 recommand\u00e9es en vue de l'enregistrement.</p>\n</dd>\n\n<dt><a href=\"/fra/collaboration-scientifique-en-agriculture/transfert-et-licences-de-technologie-agriculture/occasion-de-concession-de-licence-agriculture/programme-de-mise-en-circulation-acceleree-nouvelles-varietes-de-pommes-de-terre-pour-le-marche-de/?id=1203091767065\">Programme de mise en circulation acc\u00e9l\u00e9r\u00e9e pour les nouvelles vari\u00e9t\u00e9s de pommes de terre</a></dt>\n<dd>\n<p><b>Description sommaire\u00a0:</b> Nouvelles s\u00e9lections de pommes de terre pour les frites, les croustilles et le march\u00e9 frais.</p>\n</dd>\n\t\n<dt>M\u00e9thode de s\u00e9lection des v\u00e9g\u00e9taux perfectionn\u00e9e et plus rapide</dt>\n<dd>\n<p>La s\u00e9lection des v\u00e9g\u00e9taux utilise des variantes g\u00e9n\u00e9tiques naturelles pour cr\u00e9er des lign\u00e9es porteuses de nouvelles combinaisons de g\u00e8nes et am\u00e9liorer ainsi la productivit\u00e9 des cultures. La pr\u00e9sente m\u00e9thode fait appel \u00e0 deux techniques fondamentales pour accro\u00eetre ou r\u00e9duire le nombre de combinaisons de variantes g\u00e9n\u00e9tiques au besoin.</p>\n</dd>\t\t\n</dl>\n \n\n \n<h2 id=\"a3\">Produits et proc\u00e9d\u00e9s alimentaires et non alimentaires</h2>\n\n<dl>\n\n<dt><a href=\"http://www.flintbox.com/technology.asp?page=2602&amp;lang=FR\">Production de proanthocyanidines v\u00e9g\u00e9tales standardis\u00e9es</a></dt>\n<dd>\n<p><b>Description sommaire\u00a0:</b> Proc\u00e9d\u00e9 d'extraction et de purification de proanthocyanidines extraites d'\u00e9corces de pin.</p>\n</dd>\n\n<dt>D\u00e9tecteurs doubles pour la surveillance du rendement des cultures</dt>\n<dd>\n<p>Il existe quelques syst\u00e8mes de surveillance du rendement pour les cultures non r\u00e9coltables \u00e0 la moissonneuse-batteuse. On pr\u00e9voit que les cartes du rendement vont jouer un r\u00f4le important avec l'av\u00e8nement de m\u00e9gadonn\u00e9es en agriculture. Les syst\u00e8mes commerciaux pour une surveillance du rendement en temps r\u00e9el font appel \u00e0 des cellules de mesure, et ces syst\u00e8mes doivent \u00eatre am\u00e9lior\u00e9s pour qu'ils puissent fournir des donn\u00e9es sur la qualit\u00e9 des cultures et la filtration du bruit. Les jeunes pousses vertes figurent parmi les cultures non r\u00e9coltables \u00e0 la moissonneuse-batteuse et, pour les r\u00e9colter, il faut couper les jeunes plantes pr\u00e8s de la surface du sol, puis elles sont transport\u00e9es sur convoyeur pour \u00eatre plac\u00e9es \u00e0 mesure dans des bo\u00eetes. Les producteurs souhaitent acc\u00e9der \u00e0 un syst\u00e8me de surveillance du rendement pour am\u00e9liorer l'exactitude des donn\u00e9es sur la r\u00e9colte tout en b\u00e9n\u00e9ficiant d'une boucle de r\u00e9troaction en temps r\u00e9el sur le produit r\u00e9colt\u00e9, \u00e0 des fins de tenue de registre et pour la cartographie de rendement.</p>\n</dd>\n\n<dt>Syst\u00e8me d'encapsulation pour prot\u00e9ger les bact\u00e9ries probiotiques thermosensibles</dt>\n<dd>\n<p>AAC a mis au point une m\u00e9thode de s\u00e9chage par atomisation qui utilise un gras ayant un faible point de fusion (FPF), comme la margarine et le shortening\u00a0: des ingr\u00e9dients alimentaires peu co\u00fbteux d\u00e9j\u00e0 largement utilis\u00e9s dans la production alimentaire. La phase ayant un FPF et qui passe de l'\u00e9tat solide \u00e0 l'\u00e9tat liquide \u00e0 une temp\u00e9rature sup\u00e9rieure \u00e0 sa temp\u00e9rature de fusion absorbe une quantit\u00e9 d'\u00e9nergie thermique consid\u00e9rable, ce qui prot\u00e8ge les probiotiques des temp\u00e9ratures \u00e9lev\u00e9es utilis\u00e9es dans le s\u00e9chage par atomisation et les traitements subs\u00e9quents. Les cellules vivantes des probiotiques sont alors lib\u00e9r\u00e9es dans l'intestin gr\u00eale o\u00f9 elles conf\u00e8rent d'importants avantages pour la sant\u00e9 de l'h\u00f4te. La m\u00e9thode est particuli\u00e8rement pertinente pour les mati\u00e8res bioactives sensibles \u00e0 la chaleur et pourrait contribuer \u00e0 \u00e9largir l'\u00e9ventail des produits actuellement sur le march\u00e9.</p>\n</dd>\n\t\n<dt>SpectrAAC II (INV-15755)</dt>\n<dd>\n<p>L'analyse des aliments est une activit\u00e9 sous-jacente aux tests de salubrit\u00e9 des aliments, car elle permet de d\u00e9terminer les changements qui ont lieu dans les produits alimentaires et qui touchent leur qualit\u00e9 au cours de leur traitement et leur conservation (voir l'encadr\u00e9 ci-dessous \u00e0 gauche). L'analyse des aliments caract\u00e9rise les propri\u00e9t\u00e9s, dont la composition, la structure, la physico-chimie et les attributs sensoriels. Ces mesures sont compar\u00e9es aux normes pour la consommation humaine ou pour des substances autoris\u00e9es \u00e0 entrer en contact avec les aliments. La qualit\u00e9 de la nourriture d\u00e9pend de facteurs chimiques, biologiques et microbiologiques, par exemple, l'instabilit\u00e9, qui limite la dur\u00e9e de conservation et qui est attribuable \u00e0 des r\u00e9actions chimiques et enzymatiques irr\u00e9versibles.</p>\n</dd>\n\t\n<dt>Syst\u00e8mes contenant une ou des plantes crucif\u00e8res ou des mati\u00e8res apparent\u00e9es pour lutter ou g\u00e9rer la d\u00e9t\u00e9rioration microbienne et la contamination des aliments</dt>\n<dd>\n<p>Le syst\u00e8me de livraison est un sachet en plastique contenant un produit  d'origine agricole et une capsule. Lorsque la capsule se brise, les glucosinolates naturels et l'enzyme myrosinase du repas interagissent pour produire des isothiocyanates. L'AAC cherche \u00e0 collaborer avec un fournisseur d'emballages pour favoriser la mise au point d'applications \u00e9conomiques pour fabriquer des contenants en plastique ou un emballage en vrac pour d'autres produits alimentaires qui pourraient tirer avantage de ce concept. Au nombre de ces produits, on compte des produits laitiers (par exemple, fromage, yogourt) et des fruits et l\u00e9gumes frais. L'AAC accorderait une licence pour la technologie et pourrait appuyer les activit\u00e9s de recherches dans le cadre des efforts d\u00e9ploy\u00e9s en vue de mettre au point ces applications.</p>\n</dd>\n\t\n\t\n</dl>\n \n<h2 id=\"a4\">Produits et proc\u00e9d\u00e9s biologiques</h2>\n\n<dl>\n\n<dt><a href=\"https://www.flintbox.com/public/project/56018/\">Plateforme nanostructur\u00e9e servant \u00e0 la biod\u00e9tection et \u00e0 la bioconversion</a></dt>\n<dd>\n<p>Les chercheurs d'Agriculture et Agroalimentaire Canada (AAC) ont mis au point des formulations de copolym\u00e8res s\u00e9quenc\u00e9s pour produire des monocouches nanostructur\u00e9es pr\u00e9sentant des propri\u00e9t\u00e9s fonctionnelles sur un substrat solide. Ces monocouches permettent la greffe de mol\u00e9cules organiques ayant la structure et la bioactivit\u00e9 d\u00e9sir\u00e9es. Les gabarits obtenus pourraient servir \u00e0 l'immobilisation de biomol\u00e9cules \u00e0 des fins de biod\u00e9tection et de bioconversion.</p>\n</dd>\n\t\n<dt>Fixation d'azote biologique dans les mitochondries de cultures</dt>\n<dd>\n<p>La disponibilit\u00e9 de l'azote est un facteur limitant pour la croissance des cultures de c\u00e9r\u00e9ales et l'azote naturel a \u00e9t\u00e9 remplac\u00e9 depuis longtemps par l'application d'engrais de synth\u00e8se \u00e0 base de N. La capacit\u00e9 \u00e0 fixer l'azote de l'air ne s'applique qu'\u00e0 un groupe limit\u00e9 de microorganismes, comme les rhizobias. Certaines plantes, par exemple les cultures de l\u00e9gumineuses, profitent d'une interaction symbiotique avec les bact\u00e9ries fixatrices d'azote, mais les cultures de c\u00e9r\u00e9ales ne forment pas naturellement des associations symbiotiques fixatrices d'azote.  Nous avons mis au point des triticales fixant l'azote N<sub>2</sub> contenant un g\u00e9nome de mitochondrie enrichi par des g\u00e8nes de fixation de l'azote. La manipulation g\u00e9n\u00e9tique de la mitochondrie de la microspore de triticale permettra la cr\u00e9ation de lign\u00e9es de triticale de double haplo\u00efdie ayant un nouveau g\u00e9nome d'organelle, et un nouveau trait.  Ce dernier sera transf\u00e9r\u00e9 au bl\u00e9 par croisement interesp\u00e8ce, et les plantes r\u00e9sultantes pr\u00e9senteront toutes les caract\u00e9ristiques du bl\u00e9 parent assorties de la capacit\u00e9 de fixer l'azote N<sub>2</sub> biologique.</p>\n</dd>\n\t\n<dt>Extraction aqueuse pour la s\u00e9paration et l'isolation des fractions prot\u00e9iques des ol\u00e9agineux de crucif\u00e8res</dt>\n<dd>\n<p>Les prot\u00e9ines v\u00e9g\u00e9tales sont de plus en plus utilis\u00e9es pour remplacer les produits de prot\u00e9ines animales. Le tourteau de canola est une source abondante de prot\u00e9ines qui peut servir de substitut aux prot\u00e9ines de soja, lesquelles dominent actuellement le segment v\u00e9g\u00e9tal du march\u00e9 des prot\u00e9ines. Des chercheurs d'Agriculture et Agroalimentaire Canada ont mis au point un proc\u00e9d\u00e9 pilote d'extraction aqueuse de coproduits du tourteau de canola riches en crucif\u00e9rine et en napine, une solution plus simple et plus \u00e9conomique que l'unique solution commerciale utilis\u00e9e par les chefs de file de l'industrie dans la production de prot\u00e9ines de canola.</p>\n</dd>\n</dl> \n\n \n<h2 id=\"a5\">Technologies environnementales</h2>\n\n<dl>\n<dt>Lutte biologique en pr\u00e9lev\u00e9e contre les gramin\u00e9es adventices</dt>\n<dd>\n<p>Des chercheurs d'AAC ont identifi\u00e9 plusieurs souches bact\u00e9riennes qui sont capables d'inhiber efficacement la croissance des mauvaises herbes et qui peuvent \u00eatre incorpor\u00e9es dans un bioherbicide de pr\u00e9lev\u00e9e. Certaines souches ont une activit\u00e9 \u00e0 large spectre contre un certain nombre d'esp\u00e8ces de mauvaises herbes, y compris la s\u00e9taire verte et la folle avoine, sans nuire aux principales cultures de grande production. Des essais au champ ont r\u00e9v\u00e9l\u00e9 que les souches bact\u00e9riennes r\u00e9duisaient l'\u00e9mergence et la biomasse des populations de s\u00e9taire verte et de folle avoine dans une proportion allant jusqu'\u00e0 90 pour cent. Des \u00e9tudes de fermentation approfondies ont \u00e9t\u00e9 r\u00e9alis\u00e9es et des technologies de formulation granulaire ont \u00e9t\u00e9 examin\u00e9es.</p>\n</dd>\n</dl>\n\r\n    "
    }
}