{
    "dcr_id": "1270047992811",
    "title": {
        "en": "Canadian National Collection of Insects, Arachnids, and Nematodes (CNC)",
        "fr": "Collection nationale canadienne d'insectes, d'arachnides et de n\u00e9matodes (CNC)"
    },
    "modified": "2021-05-10",
    "issued": "2010-04-16",
    "templatetype": "content page 1 column",
    "page_type": "1",
    "node_id": "1366750552869",
    "dc_date_created": "2010-04-16",
    "managing_branch": "PAB",
    "parent_node_id": "1354137773980",
    "short_title": "",
    "exturl": "",
    "teamsite_location": {
        "en": "/default/main/AAFC-AAC/Internet-Internet/Group-Ensemble/sci_Ottawa/WORKAREA/sci_Ottawa/templatedata/comm-comm/gene-gene/data/03/cnc_intro_1270047992811_en",
        "fr": "/default/main/AAFC-AAC/Internet-Internet/Group-Ensemble/sci_Ottawa/WORKAREA/sci_Ottawa/templatedata/comm-comm/gene-gene/data/03/cnc_intro_1270047992811_fr"
    },
    "type_name": "sitemapinit",
    "has_dcr_id": true,
    "label": {
        "en": "Canadian National Collection of Insects, Arachnids, and Nematodes (CNC)",
        "fr": "Collection nationale canadienne d'insectes, d'arachnides et de n\u00e9matodes (CNC)"
    },
    "breadcrumb": {
        "en": "Canadian National Collection of Insects, Arachnids, and Nematodes (CNC)",
        "fr": "Collection nationale canadienne d'insectes, d'arachnides et de n\u00e9matodes (CNC)"
    },
    "layout_name": "content page 1 column",
    "lang": "en",
    "refaire": false,
    "meta": {
        "viewport": {
            "en": "width=device-width,initial-scale=1",
            "fr": "width=device-width, initial-scale=1"
        },
        "issued": {
            "en": "2010-04-16",
            "fr": "2010-04-16"
        },
        "modified": {
            "en": "2021-05-10",
            "fr": "2021-05-10"
        },
        "format": {
            "en": "text/html",
            "fr": "text/html"
        },
        "title": {
            "en": "Canadian National Collection of Insects, Arachnids, and Nematodes (CNC)",
            "fr": "Collection nationale canadienne d'insectes, d'arachnides et de n\u00e9matodes (CNC)"
        },
        "subject": {
            "en": "insects;biodiversity",
            "fr": "bogues;biodiversit\u00e9"
        },
        "dcterms:subject": {
            "en": "entomology",
            "fr": "entomologie"
        },
        "description": {
            "en": null,
            "fr": null
        },
        "language": {
            "en": "eng",
            "fr": "fra"
        },
        "keywords": {
            "en": null,
            "fr": null
        },
        "audience": {
            "en": "scientists",
            "fr": "gcaudience"
        },
        "type": {
            "en": "organizational description",
            "fr": "mat\u00e9riel didactique"
        },
        "creator": {
            "en": "Agriculture and Agri-Food Canada;Government of Canada",
            "fr": "Agriculture et Agroalimentaire Canada;Gouvernement du Canada"
        },
        "spatial": {
            "en": "gcregions",
            "fr": "gcregions"
        },
        "service": {
            "en": "AAFC-AAC",
            "fr": "AAFC-AAC"
        },
        "accessRights": {
            "en": "2",
            "fr": "2"
        },
        "legalName": {
            "en": "agriculture_and_agri_food_canada",
            "fr": "agriculture_et_agroalimentaire_canada"
        },
        "areaServed": {
            "en": "Canada",
            "fr": "Canada"
        }
    },
    "h1": {
        "en": "Canadian National Collection of Insects, Arachnids, and Nematodes (CNC)",
        "fr": "Collection nationale canadienne d'insectes, d'arachnides et de n\u00e9matodes (CNC)"
    },
    "body": {
        "en": "\r\n    <div class=\"col-md-4 pull-right\" style=\"z-index: 1000\">\n<section class=\"panel panel-default\">\n<header class=\"panel-heading\">\n<h2 class=\"panel-title\">Quick Links</h2>\n</header>\n<div class=\"panel-body\">  <ul id=\"aafc-feature-last\">\n    <li><a href=\"/eng/?id=1270048224008\">History</a></li>\n    <li><a href=\"/eng/?id=1270048222934\">National Identification Service</a></li>\n  </ul></div>\n</section>\n<section class=\"panel panel-default\">\n<header class=\"panel-heading\">\n<h2 class=\"panel-title\">Research centres and collections</h2>\n</header>\n<div class=\"panel-body\"><ul>\n<li><a href=\"?id=1181591790641#details-panel2\">Research centres across Canada</a></li>\n<li><a href=\"?id=1181591790641#details-panel3\">Collections and resources</a></li>\n</ul> </div>\n</section>\n</div>\t\t\n<figure>\n  <img src=\"https://www.agr.gc.ca/resources/prod/img/science/ecorc/images/cnc_f1.jpg\" alt=\"Description of this image follows.\">\n  <figcaption>\n    <p class=\"small mrgn-tp-0\">Two of the many thousands of trays of specimens in the Canadian National Collection of Insects</p>\n  </figcaption>\n</figure>\n\n<p>The Canadian National Collection of Insects, Arachnids and Nematodes (CNC) of Agriculture and Agri-Food Canada is one of the five largest collections of its kind in the world. It contains over 17 million specimens. The Collection is housed at the <a href=\"https://profils-profiles.science.gc.ca/en/research-centre/ottawa-research-and-development-centre\">Ottawa Research and Development Centre</a> in the K.W. Neatby Building on the historic Central Experimental Farm in Ottawa, Ontario.</p>\n\n<p>The CNC is an active centre of scientific research and an invaluable national resource. It serves Canadian scientists who investigate problems in the fields of agriculture, biodiversity, genetics, biological control and other various forms of integrated pest management, and it is part of an international network for other researchers, educators and policy-makers. An increasingly important function of the Collection is to support science that will protect Canada's biodiversity, including reducing the billions of dollars lost annually to invasive species in agriculture, forestry, northern wilderness areas and other native habitats.</p>\n \n\n  <h2>Uses</h2>\n\n  <p>The Collection primarily is used to identify:</p>\n\n  <ul>\n    <li>unknown species and develop control measures to reduce the flow of invasive alien species into Canada;</li>\n    <li>new pests of concern. The Emerald Ash Borer and the Asian Longhorn Beetle are examples of recent high profile pests where the objective is to control their spread and minimize damage to Canada's natural forestry resources in forestry;</li>\n    <li>potential indicators of environmental health and climate change;</li>\n    <li>insect vectors that carry diseases such as West Nile Virus and Lyme Disease.</li>\n  </ul>\n\n  <p>Additionally it is employed to:</p>\n\n  <ul>\n    <li>document changes in species and the environment over time for both native and introduced fauna;</li>\n    <li>forecast the spread of invasive species;</li>\n    <li>develop pest control methods, including integrated pest management;</li>\n    <li>provide support for legislative obligations and international agreements such as:\n      <ul>\n        <li><cite>Plant Protection Act,</cite></li>\n        <li><cite>Convention on International Trade on Endangered Species (CITES)</cite></li>\n        <li><cite>Species at Risk Act.</cite></li>\n      </ul>\n    </li>\n    <li>contribute to, and support the publication of information on biodiversity resources. Recent examples include:\n      <ul>\n        <li><cite>Canada and its Insect Fauna</cite></li>\n        <li><cite>Butterflies of Canada</cite></li>\n        <li><cite>Insects of the Yukon</cite></li>\n        <li><cite>Manual of Nearctic Diptera</cite></li>\n      </ul>\n    </li>\n    <li>answer relevant questions from a diverse clientele relating to insects, arachnids and nematodes.</li>\n  </ul>\n\n  <h2>Roles</h2>\n\n  <p>The CNC also plays a crucial role in preserving Canada's native insect fauna. The work involves:</p>\n\n  <ul>\n    <li>describing or cataloguing insect species for the first time;</li>\n    <li>documenting species distributions over time and space;</li>\n    <li>maintaining data associated with insect specimens to provide information on species' geographic distribution, historic occurrence and basic biology. The specimens and data are fundamental to verifying the identity of insect species and making conservation status decisions at regional, national and global levels;</li>\n    <li>supporting the work and decisions on whether or not to designate an organism as a \"Wildlife Species at Risk\" by the <a href=\"https://www.cosewic.ca/index.php/en-ca/\">Committee on the Status of Endangered Wildlife in Canada (COSEWIC)</a>. A significant proportion of the evaluation data available for insect species is often based on information derived from CNC specimens.</li>\n  </ul>\n\n  <p>Insect systematics research, such as that carried out at the CNC, provides the foundation upon which many conservation decisions depend.</p>\n\n  <h2>Major Divisions of the Canadian National Collection of Insects, Arachnids and Nematodes</h2>\n\n  <p>The CNC is divided into 8 curatorial units to facilitate daily operations and management.</p>\n\n  <p>The following units and curators should be contacted regarding loans or any other inquiries:</p>\n\n  <ul>\n       <li>Coleoptera (beetles): Patrice Bouchard, <a href=\"https://profils-profiles.science.gc.ca/en/profile/dr-adam-j-brunke\">Adam Brunke</a>, <a href=\"https://profils-profiles.science.gc.ca/en/profile/dr-hume-b-douglas\">Douglas Hume</a></li>\n       <li>Diptera (flies): Jeff Cumming, James O'Hara, Jeff Skevington</li>\n       <li> Hemiptera (cicadas, plant bugs, plant hoppers, aphids): Robert Foottit, Joel Kits</li>\n       <li> Hymenoptera (sawflies, wasps, ants, bees): Andrew Bennett, Sophie Cardinal, Jose Fern\u00e1ndez-Triana</li>\n       <li> Lepidoptera (butterflies, moths): Chris Schmidt, Jean-Fran\u00e7ois Landry       </li>\n\n    <li>Miscellaneous Insect Orders <a href=\"https://profils-profiles.science.gc.ca/en/profile/dr-owen-lonsdale\">Owen Lonsdale</a></li>\n    <li> Nematoda (roundworms) <a href=\"https://profils-profiles.science.gc.ca/en/profile/dr-qing-yu\">Qing Yu</a></li>\n  </ul>\n\n  <p><a href=\"/eng/?id=1286461235093\">Canadian National Collection of Insects, Arachnids and Nematodes  loan policy</a></p>\n\n  <p><a href=\"/eng/?id=1286483071216\">Canadian National Collection of Insects, Arachnids and Nematodes  policy on destructive sampling of specimens</a></p>\n\n  <h2>Interesting facts on the Collection</h2>\n\n    <h3>Sources:</h3>\n\n    <p>Over 70% of the specimens in the CNC originate from Canada.</p>\n\n    <ul>\n      <li>The Collection also houses specimens from all over the planet, many of which are the only known representatives of entire species.</li>\n    </ul>\n\n   <h3>Fossils:</h3>\n\n    <p>Some of the species in the CNC are preserved fossils dating back 75 million years, from the age of the dinosaurs.</p>\n\n    <ul>\n      <li>Many of these fossils are part of the CNC's extensive Canadian amber collection, gathered from sites in Medicine Hat, Alberta, and Cedar Lake, Manitoba.</li>\n    </ul>\n\n    <h3>Future work:</h3>\n\n    <p>35,000 named species of insects and related arthropods are known to occur in Canada.</p>\n\n    <ul>\n      <li>It is estimated that almost the same number of species are yet to be discovered. These include species not yet catalogued in the scientific literature and species still entirely unknown to science. Scientists at the CNC, who are world experts in their field, are currently working to differentiate, describe and name these species, as well as produce the resources by which others can learn about and identify them for themselves.</li>\n      </ul>\n\n    <h3>Primary types:</h3>\n\n    <p>More than 11,000 specimens at the CNC are primary types.</p>\n\n    <ul>\n      <li>When a new species is described, a single specimen is designated as the primary type. These types are extremely important, as they become the standard-bearers for that species name and are referred to by scientists for questions regarding the nomenclature and identity of that species.</li>\n      <li>The role of types becomes apparent quite quickly considering that:\n        <ul>\n          <li>there are millions of species of insects, arachnids and nematodes,</li>\n          <li>many of these are important to humans,</li>\n          <li>some are accidentally described more than once as different species,</li>\n          <li>almost all of them are very difficult to tell apart.</li>\n        </ul>\n      </li>\n    </ul>\n\n    <h3>Distinctive Features:</h3>\n\n    <p>Body features are one of the best ways to classify insects and other invertebrates and many of these can be seen with the naked eye.</p>\n\n    <ul>\n      <li>In most cases, however, insects have evolved amazingly intricate reproductive organs that allow for mating only with members of the same species, and minute elaborations on these structures are the best way to distinguish between different groups.</li>\n      <li>Different species have also evolved specific songs and pheromones that the other gender can detect from miles away when looking for a mate.</li>\n    </ul>\n\n    <h3>Deoxyribonucleic acid:</h3>\n\n    <p>When useful morphological features are lacking, or species are much too similar to reliably distinguish using traditional morphological methods, deoxyribonucleic acid (DNA) can be used to identify certain organisms.</p>\n\n    <ul>\n      <li>Many CNC researchers regularly use deoxyribonucleic acid (DNA) to identify species and solve problems related to crop pests or invasive species.</li>\n    </ul>\n\n    <h3>Beneficial Insects:</h3>\n\n    <p>Most insects are beneficial to humans.</p>\n\n    <ul>\n      <li>The majority of specimens housed in the CNC are directly or indirectly helpful or essential to human existence by keeping crop pests in check, or by keeping ecosystems sustainable through plant pollination, decomposition, nutrient cycling and the provision of food for other animals.</li>\n    </ul>\n\n    <h3>Pest insects:</h3>\n\n    <p>One of the best ways to fight insect pests is to let other insects do it for you.</p>\n\n    <ul>\n      <li>Most crop and livestock pests have been introduced accidentally into Canada from other parts of the World. They create problems because they don't have the biological checks and balances that normally keep them under control.</li>\n      <li>Pest populations can be kept below damaging thresholds by making conditions more favourable for native predators and parasitoids, or by carefully introducing biological control agents from the pest's area of origin. This approach helps reduce risks associated with chemical control on human health and the environment. CNC taxonomists work with biocontrol specialists in Canada and around the world to develop biological control strategies for crop and animal pests.</li>\n    </ul>\n\n    <h3>Insect Names:</h3>\n\n    <p>Names are the key element in the control of insect pests. An important part of the work done by CNC researchers is to identify pests that attack our crops and livestock.</p>\n\n    <ul>\n      <li>Once the name of that organism is acquired, it can be used to access information such as the organism's native range, natural enemies, pesticide resistance, habitat preference, dietary preferences, life history and behaviour.</li>\n      <li>These data allow for informed decisions on control measures, thereby reducing or even eliminating damage that could be caused to humans and the environment.</li>\n    </ul>\n\r\n    ",
        "fr": "\r\n    <div class=\"col-md-4 pull-right\" style=\"z-index: 1000\">\n<section class=\"panel panel-default\">\n<header class=\"panel-heading\">\n<h2 class=\"panel-title\">Liens rapides</h2>\n</header>\n<div class=\"panel-body\">  <ul id=\"aafc-feature-last\">\n    <li><a href=\"/fra/?id=1270048224008\">Historique</a></li>\n    <li><a href=\"/fra/?id=1270048222934\">Service national d'identification</a></li>\n  </ul></div>\n</section>\n<section class=\"panel panel-default\">\n<header class=\"panel-heading\">\n<h2 class=\"panel-title\">Centres de recherche et collections</h2>\n</header>\n<div class=\"panel-body\"><ul>\n<li><a href=\"?id=1181591790641#details-panel2\">Centres de recherche au Canada</a></li>\n<li><a href=\"?id=1181591790641#details-panel3\">Collections et ressources</a></li>\n</ul> </div>\n</section>\n</div> \n\n\n<figure>\n  <img alt=\"La description de cette image suit.\" src=\"https://www.agr.gc.ca/resources/prod/img/science/ecorc/images/cnc_f1.jpg\">\n  <figcaption>\n    <p class=\"small mrgn-tp-0\">Deux des milliers de plateaux de sp\u00e9cimens appartenant \u00e0 la Collection nationale canadienne d'insectes</p>\n  </figcaption>\n</figure>\n\n<p>La Collection nationale canadienne d'insectes, d'arachnides et de nematodes (CNC) d'Agriculture et Agroalimentaire Canada est l'une des cinq plus grandes collections du genre dans le monde. Elle contient plus de 17 millions de sp\u00e9cimens. Cette collection se trouve au <a href=\"https://profils-profiles.science.gc.ca/fr/centre-recherche/centre-de-recherche-et-de-developpement-dottawa\">Centre de recherche et de d\u00e9veloppement d\u2019Ottawa</a>. dans l'\u00e9difice K.W.\u00a0Neatby, \u00e0 la Ferme exp\u00e9rimentale centrale d'Ottawa, en Ontario.</p>\n\n<p>La CNC est un centre n\u00e9vralgique de la recherche scientifique et constitue une grande richesse nationale. Elle est d'une grande utilit\u00e9 aux chercheurs canadiens qui se penchent sur des probl\u00e8mes dans les domaines de l'agriculture, de la biodiversit\u00e9, de la g\u00e9n\u00e9tique, de la lutte biologique et d'autres formes de lutte int\u00e9gr\u00e9e aux ravageurs. La CNC est membre d'un r\u00e9seau international auquel participent des chercheurs, des \u00e9ducateurs et des d\u00e9cideurs politiques. Parmi les fonctions de la collection, une en particulier prend de plus en plus d'importance, soit la fonction de soutien scientifique, qui permettra de prot\u00e9ger la biodiversit\u00e9 au Canada, et par le fait m\u00eame de r\u00e9duire les pertes, mesur\u00e9es en milliards de dollars, caus\u00e9es par les esp\u00e8ces envahissantes en agriculture, en foresterie, dans les r\u00e9gions sauvages du Nord et ainsi que dans d'autres habitats indig\u00e8nes.</p>\n\n \n\n<h2>Applications</h2>\n\n<p>La collection est principalement utilis\u00e9e pour identifier\u00a0:</p>\n\n<ul>\n <li>les esp\u00e8ces inconnues, et \u00e9laborer des mesures de lutte afin de r\u00e9duire l'arriv\u00e9e d'esp\u00e8ces exotiques envahissantes au Canada;</li>\n <li>les nouveaux ravageurs. L'agrile du fr\u00eane et le longicorne asiatique sont des exemples de ravageurs nouvellement reconnus et pour lesquels on d\u00e9ploie des efforts afin d'endiguer leur propagation et de minimiser les dommages qu'ils causent aux ressources naturelles et foresti\u00e8res canadiennes;</li>\n <li>des indicateurs potentiels de la sant\u00e9 environnementale et des changements climatiques;</li>\n <li>les insectes qui transmettent des maladies comme le virus du Nil occidental et la maladie de Lyme.</li>\n</ul>\n\n<p>De plus, la CNC sert \u00e0\u00a0:</p>\n\n<ul>\n <li>noter les changements qui surviennent au fil du temps parmi les esp\u00e8ces et dans l'environnement tant pour la faune indig\u00e8ne qu'import\u00e9e;</li>\n <li>formuler des pr\u00e9visions sur la propagation des esp\u00e8ces envahissantes;</li>\n <li>mettre au point des m\u00e9thodes de lutte antiparasitaire, notamment la lutte int\u00e9gr\u00e9e aux ravageurs;</li>\n <li>fournir un soutien relativement aux obligations l\u00e9gislatives et aux accords internationaux, notamment\u00a0:\n  <ul>\n   <li>la <cite>Loi sur la protection des v\u00e9g\u00e9taux</cite></li>\n   <li>la <cite>Convention sur le commerce international des esp\u00e8ces menac\u00e9es d'extinction (CITES)</cite></li>\n   <li>la <cite>Loi sur les esp\u00e8ces en p\u00e9ril</cite></li>\n  </ul>\n </li>\n <li>contribuer \u00e0 la publication d'information sur les ressources de la biodiversit\u00e9 et fournir un soutien \u00e0 cet effet. Voici quelques exemples de publications r\u00e9centes\u00a0:\n  <ul>\n   <li lang=\"en-ca\"><cite>Canada and its Insect Fauna</cite></li>\n   <li><cite>Les papillons diurnes du  Canada</cite></li>\n   <li lang=\"en-ca\"><cite>Insects of the Yukon</cite></li>\n   <li lang=\"en-ca\"><cite>Manual of Nearctic Diptera</cite></li>\n  </ul>\n </li>\n <li>r\u00e9pondre aux questions pertinentes d'une client\u00e8le diversifi\u00e9e sur les insectes, les arachnides et les n\u00e9matodes.</li>\n</ul>\n\n<h2>R\u00f4les</h2>\n\n<p>Le CNC joue \u00e9galement un r\u00f4le crucial dans la pr\u00e9servation de la faune d'insectes indig\u00e8nes du Canada. Les travaux comprennent notamment\u00a0:</p>\n\n<ul>\n <li>d\u00e9crire et cataloguer les esp\u00e8ces d'insectes d\u00e9couvertes pour la premi\u00e8re fois; </li>\n <li>noter la r\u00e9partition des esp\u00e8ces dans le temps et l'espace; </li>\n <li>maintenir les donn\u00e9es relatives aux sp\u00e9cimens afin de pouvoir fournir de l'information sur la r\u00e9partition g\u00e9ographique, l'historique et la biologie \u00e9l\u00e9mentaire des insectes. Ces donn\u00e9es sont tr\u00e8s utiles pour la v\u00e9rification des esp\u00e8ces d'insectes et pour les d\u00e9cisions au sujet de la conservation des insectes \u00e0 l'\u00e9chelle r\u00e9gionale, nationale et internationale.</li>\n <li>soutenir les travaux et les d\u00e9cisions du <a href=\"https://www.cosewic.ca/index.php/fr/\">Comit\u00e9 sur la situation des esp\u00e8ces en p\u00e9ril au Canada (COSEPAC)</a> concernant l'opportunit\u00e9 ou non de d\u00e9signer un organisme comme \u00ab\u00a0esp\u00e8ce en p\u00e9ril\u00a0\u00bb.  Les donn\u00e9es d'\u00e9valuation disponibles pour les esp\u00e8ces d'insectes reposent souvent sur des renseignements obtenus gr\u00e2ce \u00e0 des sp\u00e9cimens de la CNC.</li>\n</ul>\n\n<p>Les recherches sur la taxinomie des insectes, telle que celles men\u00e9es \u00e0 la CNC, constituent le fondement m\u00eame de nombreuses d\u00e9cisions en mati\u00e8re de conservation.</p>\n\n<h2>Principales divisions de la Collection nationale canadienne d'insectes, d'arachnides et de n\u00e9matodes</h2>\n\n<p>La structure de la CNC, qui comprend huit divisions de conservation, facilite les activit\u00e9s courantes et la gestion de la collection.</p>\n\n<p>Les unit\u00e9s suivantes et conservateurs devraient \u00eatre contact\u00e9s au sujet des pr\u00eats ou toute autre demande\u00a0:</p>\n\n<ul>\n\t<li>Arachnides (mites, tiques, araign\u00e9es)\u00a0: Fr\u00e9deric Beaulieu, Marla Schwarzfeld</li>\n <li>Col\u00e9opt\u00e8res (scarab\u00e9es)\u00a0: Patrice Bouchard, <a href=\"https://profils-profiles.science.gc.ca/fr/profil/dr-adam-j-brunke\">Adam Brunke</a>, <a href=\"https://profils-profiles.science.gc.ca/fr/profil/dr-hume-b-douglas\">Douglas Hume</a></li>\n <li>Dipt\u00e8res (mouches)\u00a0: Jeff Cumming, James O'Hara, Jeff Skevington</li>\n <li> H\u00e9mipt\u00e8res (cigales, punaises, cicadelles, pucerons)\u00a0: Robert Foottit, Joel Kits</li>\n <li> Hym\u00e9nopt\u00e8res (tenthr\u00e8des, gu\u00eapes, fourmis, abeilles)\u00a0: Andrew Bennett, Sophie Cardinal, Jose Fern\u00e1ndez-Triana</li>\n <li> L\u00e9pidopt\u00e8res (papillons, mites)\u00a0: Chris Schmidt, Jean-Fran\u00e7ois Landry </li>\n\n    <li> Divers ordres d'insectes : <a href=\"https://profils-profiles.science.gc.ca/fr/profil/dr-owen-lonsdale\">Owen Lonsdale</a></li>\n\n    <li>N\u00e9matodes (vers ronds) : <a href=\"https://profils-profiles.science.gc.ca/fr/profil/dr-qing-yu\">Qing Yu</a></li>\n  </ul>\n\n<p><a href=\"/fra/?id=1286461235093\">Politique de pr\u00eat de la Collection nationale canadienne</a></p>\n\n<p><a href=\"/fra/?id=1286483071216\">Collection nationale canadienne sur la destruction des \u00e9chantillons de sp\u00e9cimens</a></p>\n\n<h2>Faits int\u00e9ressants sur la Collection</h2>\n\n<h3>Sources\u00a0:</h3>\n\n<p>Plus de 70\u00a0% des sp\u00e9cimens de la CNC proviennent du Canada.</p>\n\n<ul>\n <li>La Collection comprend \u00e9galement des sp\u00e9cimens de tous les coins de la plan\u00e8te, dont plusieurs sont les seuls repr\u00e9sentants connus d'esp\u00e8ces enti\u00e8res.</li>\n</ul>\n\n<h3>Fossiles\u00a0:</h3>\n\n<p>Certaines des esp\u00e8ces conserv\u00e9es \u00e0 la CNC proviennent de fossiles datant de 75 millions d'ann\u00e9es, soit l'\u00e2ge des dinosaures.</p>\n\n<ul>\n <li>Plusieurs de ces fossiles font partie de la vaste collection canadienne d'ambres de la CNC, qui ont \u00e9t\u00e9 recueillies \u00e0 Medicine Hat, en Alberta, et \u00e0 Cedar Lake, au Manitoba.</li>\n</ul>\n\n<h3>Futurs travaux\u00a0:</h3>\n\n<p>On sait que 35\u00a0000 esp\u00e8ces reconnues d'insectes et d'arthropodes sont pr\u00e9sentes au Canada.</p>\n\n<ul>\n <li>On estime qu'il reste \u00e0 d\u00e9couvrir pr\u00e8s du m\u00eame nombre d'esp\u00e8ces. Il s'agit des esp\u00e8ces non encore r\u00e9pertori\u00e9es dans les publications scientifiques et des esp\u00e8ces encore inconnues des chercheurs. Les chercheurs de la CNC, qui sont des experts internationaux dans leur domaine, s'affairent actuellement \u00e0 diff\u00e9rencier, \u00e0 d\u00e9crire et \u00e0 nommer ces esp\u00e8ces, ainsi qu'\u00e0 produire les ressources n\u00e9cessaires pour permettre aux autres chercheurs de se documenter sur ces esp\u00e8ces et de les identifier eux-m\u00eames.</li>\n</ul>\n\n<h3>Types primaires\u00a0:</h3>\n\n<p>Plus de 11\u00a0000 sp\u00e9cimens conserv\u00e9s \u00e0 la CNC sont de type primaire.</p>\n\n<ul>\n <li>Lorsqu'une nouvelle esp\u00e8ce est d\u00e9crite, un seul sp\u00e9cimen est d\u00e9sign\u00e9 comme type primaire. Ces types sont extr\u00eamement importants, car ils deviennent l'insecte t\u00e9moin pour le nom de l'esp\u00e8ce d\u00e9couverte, et c'est \u00e0 eux que les scientifiques se r\u00e9f\u00e8rent pour les questions concernant la nomenclature et l'identit\u00e9 de l'esp\u00e8ce.</li>\n <li>L'importance de cette typification devient vite \u00e9vidente si on consid\u00e8re les faits suivants\u00a0:\n  <ul>\n   <li>Les esp\u00e8ces d'insectes, d'arachnides et de n\u00e9matodes se comptent par millions;</li>\n   <li>Bon nombre de ces insectes sont importants pour l'homme;</li>\n   <li>Certains types sont accidentellement d\u00e9crits plus d'une fois \u00e0 titre d'esp\u00e8ces diff\u00e9rentes;</li>\n   <li>La quasi-totalit\u00e9 des esp\u00e8ces sont tr\u00e8s difficiles \u00e0 distinguer.</li>\n  </ul>\n </li>\n</ul>\n\n<h3>Caract\u00e9ristiques distinctives\u00a0:</h3>\n\n<p>Les caract\u00e9ristiques du corps sont l'une des meilleures fa\u00e7ons de classer les insectes et les autres invert\u00e9br\u00e9s; bon nombre de ces caract\u00e9ristiques sont visibles \u00e0 l'\u0153il nu.</p>\n\n<ul>\n <li>Dans la plupart des cas cependant, les organes de reproduction des insectes ont \u00e9volu\u00e9 de mani\u00e8re tellement complexe que les insectes peuvent uniquement s'accoupler avec des insectes de la m\u00eame esp\u00e8ce, si bien que la meilleure mani\u00e8re de distinguer les diff\u00e9rents groupes est d'examiner les changements infinit\u00e9simaux survenus dans les organes des insectes.</li>\n <li>\u00c0 mesure de leur \u00e9volution, les diff\u00e9rentes esp\u00e8ces ont \u00e9galement d\u00e9velopp\u00e9 des chants et des ph\u00e9romones que seuls les insectes de sexe oppos\u00e9 de la m\u00eame esp\u00e8ce peuvent reconna\u00eetre \u00e0 des kilom\u00e8tres \u00e0 la ronde.</li>\n</ul>\n\n<h3>Acide d\u00e9soxyribonucl\u00e9ique\u00a0:</h3>\n\n<p>Lorsque les caract\u00e9ristiques morphologiques ne sont pas suffisamment distinctes ou que les esp\u00e8ces sont beaucoup trop similaires pour permettre de les distinguer de fa\u00e7on fiable selon les m\u00e9thodes morphologiques classiques, les chercheurs peuvent se baser sur l'Acide D\u00e9soxyribonucl\u00e9ique (ADN) pour identifier certains insectes.</p>\n\n<ul>\n <li>Nombre de chercheurs de la CNC ont r\u00e9guli\u00e8rement recours \u00e0 l'Acide d\u00e9soxyribonucl\u00e9ique (ADN) pour identifier des esp\u00e8ces et tenter de r\u00e9soudre les probl\u00e8mes caus\u00e9s par les ravageurs des cultures et les esp\u00e8ces envahissantes.</li>\n</ul>\n\n<h3>Les insectes b\u00e9n\u00e9fiques\u00a0:</h3>\n\n<p>La plupart des insectes sont b\u00e9n\u00e9fiques pour les humains.</p>\n\n<ul>\n <li>La majorit\u00e9 des sp\u00e9cimens conserv\u00e9s par la CNC sont directement ou indirectement utiles ou essentiels aux humains, soit parce qu'ils exercent un contr\u00f4le sur les populations de ravageurs des cultures, soit en raison de leur r\u00f4le dans la pr\u00e9servation des \u00e9cosyst\u00e8mes, gr\u00e2ce \u00e0 la pollinisation des plantes, \u00e0 la digestion des v\u00e9g\u00e9taux morts et \u00e0 leur contribution au cycle des nutriments, ou encore parce qu'ils servent de nourriture pour d'autres animaux.</li>\n</ul>\n\n<h3>Les insectes ravageurs\u00a0:</h3>\n\n<p>Une des meilleures fa\u00e7ons de combattre les insectes nuisibles est de laisser d'autres insectes le faire.</p>\n\n<ul>\n <li>La plupart des ravageurs des cultures et des insectes qui nuisent au b\u00e9tail ont \u00e9t\u00e9 apport\u00e9s accidentellement au Canada \u00e0 partir d\u2019autres r\u00e9gions du monde. Ces ravageurs cr\u00e9ent des probl\u00e8mes parce qu'ils ne rencontrent aucun des \u00ab\u00a0contrepoids biologiques\u00a0\u00bb qui freinent normalement l'essor de leurs populations.</li>\n <li>Il est possible de maintenir les populations de ravageurs en-de\u00e7\u00e0 des seuils pr\u00e9judiciables en cr\u00e9ant des conditions favorables aux pr\u00e9dateurs et aux parasito\u00efdes indig\u00e8nes, ou en introduisant avec prudence des agents de lutte biologique issus de la r\u00e9gion d'origine du ravageur. Cette approche contribue \u00e0 r\u00e9duire les risques que repr\u00e9sente la lutte chimique pour la sant\u00e9 humaine et pour l'environnement. Les taxonomistes de la CNC travaillent avec des sp\u00e9cialistes de la lutte biologique au Canada et ailleurs dans le monde afin de mettre au point des strat\u00e9gies de lutte contre les ravageurs des cultures et les insectes qui nuisent au b\u00e9tail.</li>\n</ul>\n\n<h3>Nomenclature des insectes\u00a0:</h3>\n\n<p>Les noms des insectes sont l'\u00e9l\u00e9ment de base de la lutte contre les ravageurs. Une part importante des travaux des chercheurs de la CNC consiste \u00e0 identifier les ravageurs des cultures et les insectes nuisant au b\u00e9tail.</p>\n\n<ul>\n <li>Une fois que le nom de l'insecte est adopt\u00e9, on peut s'y r\u00e9f\u00e9rer pour acc\u00e9der \u00e0 de l'information telle que les zones fr\u00e9quent\u00e9es par les populations, les ennemis naturels, la r\u00e9sistance aux insecticides, les habitats de pr\u00e9dilection, les pr\u00e9f\u00e9rences alimentaires, les ant\u00e9c\u00e9dents et le comportement.</li>\n <li>Ces donn\u00e9es permettent de prendre des d\u00e9cisions \u00e9clair\u00e9es sur les mesures de contr\u00f4le, ce qui r\u00e9duit, voire \u00e9limine les d\u00e9g\u00e2ts qui pourraient \u00eatre caus\u00e9s \u00e0 l'homme et \u00e0 l'environnement.</li>\n</ul>\n\r\n    "
    },
    "js": {
        "en": "",
        "fr": ""
    }
}