{
    "dcr_id": "1382649715169",
    "title": {
        "en": "Animal Genetics Sector",
        "fr": "Secteur de la g\u00e9n\u00e9tique animale"
    },
    "modified": "2021-06-24",
    "issued": "2014-01-28",
    "templatetype": "content page 1 column",
    "page_type": "1",
    "node_id": "1382649681823",
    "dc_date_created": "2014-01-28",
    "managing_branch": "MISB",
    "parent_node_id": "1579021763702",
    "short_title": "Animal Genetics",
    "exturl": "",
    "teamsite_location": {
        "en": "/default/main/AAFC-AAC/Internet-Internet/MISB-DGSIM/SDAD-DDAS/AG-GA/WORKAREA/AG-GA/templatedata/comm-comm/gene-gene/data/index_animal_genetics_1382649715169_en",
        "fr": "/default/main/AAFC-AAC/Internet-Internet/MISB-DGSIM/SDAD-DDAS/AG-GA/WORKAREA/AG-GA/templatedata/comm-comm/gene-gene/data/index_animal_genetics_1382649715169_fr"
    },
    "type_name": "sitemapinit",
    "has_dcr_id": true,
    "label": {
        "en": "Animal Genetics",
        "fr": "G\u00e9n\u00e9tique animale"
    },
    "breadcrumb": {
        "en": "Animal Genetics",
        "fr": "G\u00e9n\u00e9tique animale"
    },
    "layout_name": "content page 1 column",
    "lang": "en",
    "refaire": false,
    "meta": {
        "viewport": {
            "en": "width=device-width,initial-scale=1",
            "fr": "width=device-width, initial-scale=1"
        },
        "issued": {
            "en": "2014-01-28",
            "fr": "2013-02-07"
        },
        "modified": {
            "en": "2021-06-24",
            "fr": "2021-06-24"
        },
        "format": {
            "en": "gcformat",
            "fr": "gcformat"
        },
        "title": {
            "en": "Animal Genetics Sector",
            "fr": "Secteur de la g\u00e9n\u00e9tique animale"
        },
        "subject": {
            "en": "guidelines;government information;genetics;federal government;farm management;agricultural policy;agricultural law;animal industry;turkeys;sheep;regulations;red meat industry;meat industry;legislation;law;agricultural economics;agricultural industries",
            "fr": "chevaux;canards;bovins;boeuf (viande);animaux-bien-\u00eatre;animaux-am\u00e9lioration;animaux am\u00e9lioration;volailles;s\u00e9curit\u00e9 alimentaire;statistiques du commerce;sant\u00e9 animale;r\u00e8glements;publications gouvernementales;poulet;oiseaux;moutons;aliments et nutrition;l\u00e9gislation agricole;l\u00e9gislation;industrie de la viande rouge;industrie de la viande;industrie animale;g\u00e9n\u00e9tique;gouvernement f\u00e9d\u00e9ral;dindons;cochons;ch\u00e8vres;agneau (viande);accords commerciaux"
        },
        "dcterms:subject": {
            "en": "architectural heritage;architecture;irrigation",
            "fr": "agriculture"
        },
        "description": {
            "en": "Canada's Animal Genetics Exports (for breeding purpose) Exports/Imports of Dairy Genetics Animal Registrations Transfers and Memberships by Species Animal Registrations Transfers and Memberships by Species and Breed Dairy Animal Registrations Enrollments on Milk Recording Average Milk Production by Breed Publications Statistics of Canada's Animal Genetics Canadian Dairy Information Centre Publications and BulletinsList of publications on markets and trade activities for Canadian dairy products and dairy animal genetics.",
            "fr": "Exportations canadiennes de mat\u00e9riel g\u00e9n\u00e9tique animale Exportations/importations de mat\u00e9riel g\u00e9n\u00e9tique laitier Enregistrements d'animaux transferts et adh\u00e9sions par esp\u00e8ce Enregistrements d'animaux transferts et adh\u00e9sions par esp\u00e8ce et par race Enregistrements des animaux laitiers Inscriptions aux programmes de contr\u00f4le laitier Production moyenne de lait par race Publications Statistiques canadiennes du secteur de la g\u00e9n\u00e9tique animale Centre canadien d\u2019information laiti\u00e8re \u2013 Publications et bulletinsListe de publications sur les march\u00e9s et les activit\u00e9s commerciales pour les produits laitiers et le mat\u00e9riel g\u00e9n\u00e9tique laitier canadiens."
        },
        "language": {
            "en": "eng",
            "fr": "fra"
        },
        "keywords": {
            "en": "Breed Dairy Animal Registrations Enrollments;Overview of Canada's animal genetics industry;Statistics Canadian Animal Genetics Industry Statistics;Canadian dairy products;animal genetics;Animal Pedigree Act",
            "fr": "g\u00e9n\u00e9tique animale;g\u00e9n\u00e9tique laitier;associations de race;Enregistrements d'animaux;g\u00e9n\u00e9alogie des animaux"
        },
        "audience": {
            "en": "gcaudience",
            "fr": "gcaudience"
        },
        "type": {
            "en": "statistics",
            "fr": "terminologie"
        },
        "creator": {
            "en": "Agriculture and Agri-Food Canada;Government of Canada",
            "fr": "Agriculture et Agroalimentaire Canada;Gouvernement du Canada"
        },
        "spatial": {
            "en": "gcregions",
            "fr": "gcregions"
        },
        "service": {
            "en": "AAFC-AAC",
            "fr": "AAFC-AAC"
        },
        "accessRights": {
            "en": "2",
            "fr": "2"
        },
        "legalName": {
            "en": "agriculture_and_agri_food_canada",
            "fr": "agriculture_et_agroalimentaire_canada"
        },
        "areaServed": {
            "en": "Canada",
            "fr": "Canada"
        }
    },
    "h1": {
        "en": "Animal Genetics Sector",
        "fr": "Secteur de la g\u00e9n\u00e9tique animale"
    },
    "body": {
        "en": "\r\n     <!--<div _mce_name=\"section\" class=\"alert alert-warning\">\n<h2> ATTENTION: Website preventative maintenance notice</h2>\n<p>As part of our ongoing efforts to improve service to our clients, please be advised that we will be performing preventative maintenance Tuesday, June 22 from 7:30 a.m. until 1:00 p.m. <abbr title=\"Eastern Time\">ET</abbr>, which may affect the Agricultural Industry Market Information System (AIMIS) database and several web reports. We apologize for the inconvenience.</p>\n</div> \n\n \n\n\n\n<div _mce_name=\"section\" class=\"alert alert-warning\">\n<h2> ATTENTION: We are experiencing technical difficulties</h2>\n <p>We are experiencing some technical difficulties, which affects the Agricultural Industry Market Information System (AIMIS) database and several web reports. If you require personalized reports please send an e-mail to <a href=\"mailto:aafc.animalgenetics-genetiqueanimale.aac@agr.gc.ca\" title=\"Email: Animal Industry Division - Market Information Section\">aafc.animalgenetics-genetiqueanimale.aac@agr.gc.ca</a>. We apologize for the inconvenience.</p>\n</div>\n\n -->\n\n<section class=\"media\">\n<h2 class=\"hidden\">Quick facts</h2>\n  <a class=\"pull-right\" href=\"#\">\n   <img class=\"media-object img-responsive\" src=\"https://www5.agr.gc.ca/resources/prod/Internet-Internet/MISB-DGSIM/SDAD-DDAS/AG-GA/images/genetics-genetique.jpg\" alt=\"Decorative picture of cattle\">  </a>\n\n<div class=\"media-body\">\n<h2>Animal Pedigree Act</h2>\n<p>The act aims to support breed improvement and to protect persons who raise and purchase animals. It carries out these goals by helping to create animal pedigree associations that register and identify animals.</p>\n<p>\n<a href=\"https://laws-lois.justice.gc.ca/eng/acts/A-11.2/index.html\" title=\"External link to the Justice Law website\" rel=\"external\">Animal Pedigree Act</a><br>\n<a href=\"/eng/canadas-agriculture-sectors/animal-industry/animal-genetics/secretary-s-manual/?id=1382649715173\" title=\"Link to the Animal Pedigree Act - Secretary's manual\">Animal Pedigree Act - Secretary's manual</a>\n</p>\n<p>\n<a href=\"https://www.agr.gc.ca/eng/animal-industry/animal-genetics/animal-pedigree-act/recognized-canadian-breeds/?id=1382649715172\" title=\"link to the list of Canadian Recognized Breeds\">Canadian Recognized Breeds</a><br>\n<a href=\"https://www.agr.gc.ca/eng/animal-industry/animal-genetics/animal-pedigree-act/incorporated-breed-associations/?id=1382649715171\" title=\"link to the list of Incorporated Breed Association\">Incorporated Breed Associations</a></p>\n  </div>\n</section>\n\n\n\n\n\n\n<p><b>The national contact for Animal Pedigree Act is:</b></p>\n<p>Animal Registration Officer<br>\nAnimal Industry Division, MISB<br>\nAgriculture and Agri-Food Canada<br>\n1341 Baseline Road., T5-4<br>\nOttawa, ON K1A 0C5<br>\nTel : 613-773-0231<br>\nFax : 613-773-0300<br>\nE-mail : <a href=\"mailto:aafc.animalgenetics-genetiqueanimale.aac@agr.gc.ca\">aafc.animalgenetics-genetiqueanimale.aac@agr.gc.ca</a>\n</p>\n\n<h2>Statistics and data</h2>\n\n<ul>\n <li><a href=\"https://aimis-simia.agr.gc.ca/rp/index-eng.cfm?action=pR&amp;r=221&amp;pdctc=\" title=\"Dynamic report - Animal Registrations, Transfers and Memberships by Species\">Animal Registrations, Transfers and Memberships by Species</a> (Annual)</li>\n\n<li> <a href=\"https://aimis-simia.agr.gc.ca/rp/index-eng.cfm?action=pR&amp;r=222&amp;pdctc=\" title=\"Dynamic report - Animal Registrations, Transfers and Memberships by Species and Breed\">Animal Registrations, Transfers and Memberships by Species and Breed</a> (Annual)</li>\n\n <li><a href=\"https://www.dairyinfo.gc.ca/eng/dairy-statistics-and-market-information/dairy-animal-genetics/dairy-animal-registrations/?id=1503081503137\" title=\"Dynamic report - Dairy Animal Registrations\">Dairy Animal Registrations</a> (Annual)</li>\n\n<li> <a href=\"https://www.agr.gc.ca/eng/animal-industry/animal-genetics/statistics-publications-and-reports/canada-s-animal-genetic-exports/?id=1382649715183\" title=\"Link to Canada's Animal Genetics Exports (for breeding purpose) report\">Canada's Animal Genetics Exports (for breeding purpose)</a> (Annual)</li>\n\n<li><a href=\"https://www.dairyinfo.gc.ca/eng/publications-and-bulletins/statistics-of-canada-s-animal-genetics/?id=1503406070508\" title=\"Link to the publication on the Canadian Dairy Information Center website\">Statistics of Canada's Animal Genetics</a> (Annual - Publication)</li>\n</ul>\n\n<h3>Open data portal</h3>\n<dl>\n<dt><a href=\"https://open.canada.ca/data/en/dataset/39c7ad45-02e2-4b31-b344-51c36ba7a768\" title=\"external link to the Government of Canada open data portal\">Animal Registrations and Transfers </a></dt>\n<dd>Animal registrations and transfers -  by region, breed within species, purebred status, and sex.</dd>\n</dl>\n\n\n<h2>Additional information</h2>\n<lu>\n\n<li><a href=\"https://www.dairyinfo.gc.ca/eng/dairy-imports-and-exports/genetic-material-trade/?id=1502474497134\" title=\"link to Exports/Imports of Dairy Genetics reports on the Canadian Dairy Information Center\">Exports/Imports of Dairy Genetics</a></li>\n\n<li><a href=\"https://www.dairyinfo.gc.ca/eng/dairy-statistics-and-market-information/dairy-animal-genetics/enrollments-on-milk-recording/?id=1502475964093&amp;menupos=01.01.12\" title=\"Enrollments On Milk Recording\">Enrollments on Milk Recording</a></li>\n\n <li><a href=\"https://www.dairyinfo.gc.ca/eng/dairy-statistics-and-market-information/dairy-animal-genetics/average-milk-production-by-breed/?id=1502476121954\" title=\"Average Milk Production by Breed\">Average Milk Production by Breed</a></li>\n\n<li> <a href=\"https://www.agr.gc.ca/eng/scientific-collaboration-and-research-in-agriculture/agriculture-and-agri-food-research-centres-and-collections/animal-genetic-resources-of-canada/?id=1549399653864\" title=\"Animal Genetic Resources Canada\">Animal Genetic Resources Canada (AnGRC)</a>:\n<ul class=\"lst-none\">\n<li> The Animal Genetic Resources of Canada operates a gene bank for livestock and poultry genetic resources. AnGRC operates under the Science and Technology Branch of Agriculture &amp; Agri-Food Canada, helping to preserve the genetic diversity of animal breeds in Canada. </li>\n</ul>\n</li>\n\n\n\n <p>\u00a0</p>\n\n\n\n<div class=\"clearfix\"></div>\n<div class=\"well\">\n<p>If you have any questions or require additional information, please send an e-mail to\n <a href=\"mailto:aafc.animalgenetics-genetiqueanimale.aac@agr.gc.ca\">aafc.animalgenetics-genetiqueanimale.aac@agr.gc.ca</a></p>\n</div>\n\n\n\r\n    </lu>",
        "fr": "\r\n    <!--<div _mce_name=\"section\" class=\"alert alert-warning\">\n<h2>ATTENTION: Entretien pr&eacute;ventif du site web</h2>\n<p>\nAfin d'am&eacute;liorer le service &agrave; la client&egrave;le, nous ex&eacute;cuterons un entretien pr&eacute;ventif le mardi le 22 juin de 7&nbsp;h&nbsp;30 &agrave; 13&nbsp;h&nbsp;00 <abbr title=\"Heure normal de l'est\">HNE</abbr>. Cet entretien pourrait affecter notre base de donn&eacute;e du Syst&egrave;me d'information sur les march&eacute;s de l'industrie agricole (SIMIA) ainsi que plusieurs rapports web. Nous nous excusons pour les inconv&eacute;nients.</p>\n</div>\n\n\n\n\n\n<div _mce_name=\"section\" class=\"alert alert-warning\">\n<h2>ATTENTION: Nous &eacute;prouvons des difficult&eacute;s techniques</h2>\n<p>Nous &eacute;prouvons actuellement des difficult&eacute;s techniques qui affectent notre base de donn&eacute;e du Syst&egrave;me d'information sur les march&eacute;s de l'industrie agricole (SIMIA) ainsi que plusieurs rapports web. Pour des rapports personalis&eacute;s veuillez communiquer avec nous par courriel &agrave; <a href=\"mailto:aafc.animalgenetics-genetiqueanimale.aac@agr.gc.ca\" title=\"Courriel : Division de l'industrie animale, Section de l'information sur les march&eacute;s\"> aafc.animalgenetics-genetiqueanimale.aac@agr.gc.ca</a>. Nous nous excusons pour les inconv&eacute;nients.</p>\n</div>-->\n\n<section class=\"media\">\n<h2 class=\"hidden\">Quick facts</h2>\n  <a class=\"pull-right\" href=\"#\">\n   <img class=\"media-object img-responsive\" src=\"https://www5.agr.gc.ca/resources/prod/Internet-Internet/MISB-DGSIM/SDAD-DDAS/AG-GA/images/genetics-genetique.jpg\" alt=\"Decorative picture of cattle\">  </a>\n\n<div class=\"media-body\">\n<h2>Loi sur la g\u00e9n\u00e9alogie des animaux</h2>\n<p>La Loi vise \u00e0 soutenir l'am\u00e9lioration des races et \u00e0 prot\u00e9ger les personnes qui \u00e9l\u00e8vent et ach\u00e8tent des animaux. Elle r\u00e9alise ces objectifs en aidant \u00e0 cr\u00e9er des associations de g\u00e9n\u00e9alogie des animaux qui enregistrent et identifient ceux-ci.</p>\n\n<p>\n<a href=\"https://laws-lois.justice.gc.ca/fra/lois/A-11.2/index.html\" title=\"Liens externe vers le site web de la l\u00e9gislation (Justice)\" rel=\"external\">Loi sur la g\u00e9n\u00e9alogie des animaux</a><br>\n<a href=\"/fra/secteurs-agricoles-du-canada/production-animale/genetique-animale/guide-a-l-intention-du-secretariat/?id=1382649715173\" title=\"Liens vers le Guide \u00e0 l'intention du secr\u00e9tariat\">Guide \u00e0 l'intention du secr\u00e9tariat</a>\n</p>\n<p>\n<a href=\"https://www.agr.gc.ca/fra/production-animale/genetique-animale/loi-sur-la-genealogie-des-animaux/races-canadiennes-reconnues/?id=1382649715172\" title=\"liens vers la liste des races canadienne reconnues\">Races canadienne reconnues</a><br>\n\n<a href=\"https://www.agr.gc.ca/fra/production-animale/genetique-animale/loi-sur-la-genealogie-des-animaux/associations-de-race-constituees/?id=1382649715171\" title=\"liens vers la listed des associations de race constitu\u00e9es\">Associations de race constitu\u00e9es</a>\n</p>\n\n  </div>\n</section>\n\n\n\n\n\n\n\n<p><b>Le contact national en ce qui concerne la Loi sur la g\u00e9n\u00e9alogie des animaux est :</b></p>\n<p>Agent de l'enregistrement des animaux<br>\nDivision de l'industrie animale, DGSIM<br>\nAgriculture et agroalimentaire Canada<br>\n1341 chemin Baseline, T5-4<br>\nOttawa, ON K1A 0C5<br>\nT\u00e9l\u00e9phone : 613-773-0231<br>\nFax : 613-773-0300<br>\nCourriel  : <a href=\"mailto:aafc.animalgenetics-genetiqueanimale.aac@agr.gc.ca\">aafc.animalgenetics-genetiqueanimale.aac@agr.gc.ca</a>\n</p>\n\n<h2>Statistiques et donn\u00e9es</h2>\n\n<ul>\n  <li><a href=\"https://aimis-simia.agr.gc.ca/rp/index-fra.cfm?action=pR&amp;r=721&amp;pdctc=\" title=\"Rapport dynamique - Enregistrements d'animaux, transferts et adh\u00e9sions par esp\u00e8ce\">Enregistrements d'animaux, transferts et adh\u00e9sions par esp\u00e8ce</a> (Annuel)</li>\n\n  <li><a href=\"https://aimis-simia.agr.gc.ca/rp/index-fra.cfm?action=pR&amp;r=722&amp;pdctc=\" title=\"Rapport dynamique - Enregistrements d'animaux, transferts et adh\u00e9sions par esp\u00e8ce et par race\">Enregistrements d'animaux, transferts et adh\u00e9sions par esp\u00e8ce et par race</a> (Annuel)</li>\n\n  <li><a href=\"https://www.dairyinfo.gc.ca/fra/statistiques-laitieres-et-informations-sur-les-marches/genetique-d-animaux-laitiers/enregistrements-des-animaux-laitiers/?id=1503081503137\" title=\"Liens vers les rapport dynamique du Centre canadien d'information laiti\u00e8re\">Enregistrements des animaux laitiers</a> (Annuel)</li>\n\n  <li><a href=\"https://www.agr.gc.ca/fra/production-animale/genetique-animale/statistiques-publications-et-rapports/exportations-canadiennes-du-secteur-de-la-genetique-animale/?id=1382649715183\" title=\"Liens vers le rapport annuel - Exportations canadiennes de mat\u00e9riel g\u00e9n\u00e9tique animaleur\">Exportations canadiennes de mat\u00e9riel g\u00e9n\u00e9tique animale</a> (Annuel)</li>\n\n<li><a href=\"https://www.dairyinfo.gc.ca/fra/publications-et-bulletins/statistiques-canadiennes-du-secteur-de-la-genetique-animale/?id=1503406070508\" title=\"Liens vers la publication annuelle - Statistiques canadiennes du secteur de la g\u00e9n\u00e9tique animale\">Statistiques canadiennes du secteur de la g\u00e9n\u00e9tique animale</a> (Publication Annuelle)</li>\n\n</ul>\n\n<h3>Portail des donn\u00e9es ouvertes</h3>\n<dl>\n<dt><a href=\"https://ouvert.canada.ca/data/fr/dataset/39c7ad45-02e2-4b31-b344-51c36ba7a768\" title=\"Liens externe vers le portail des donn\u00e9es ouvertes du Gouvernement du Canada\">Enregistrements et transferts d\u2019animaux</a></dt>\n<dd>Enregistrements et transferts des animaux selon la r\u00e9gion, la race au sein d\u2019une esp\u00e8ce, le statut pur-sang et le sexe.</dd>\n</dl>\n\n\n<h2>Liens additionnels</h2>\n<ul>\n  <li><a href=\"https://www.dairyinfo.gc.ca/fra/importations-et-exportations-de-produits-laitiers/commerce-de-la-genetique/?id=1502474497134\" title=\"liens vers les rapports - Exportations/Importations de mat\u00e9riel g\u00e9n\u00e9tique laitier sur le site web du Centre canadien d'information laiti\u00e8re\">Exportations/importations de mat\u00e9riel g\u00e9n\u00e9tique laitier</a></li>  \n\n <li><a href=\"https://www.dairyinfo.gc.ca/fra/statistiques-laitieres-et-informations-sur-les-marches/genetique-d-animaux-laitiers/inscriptions-aux-programmes-de-controle-laitier/?id=1502475964093\" title=\"Liens vers les rapports - Inscriptions aux programmes de contr\u00f4le laitier sur le site web du Centre canadien d'information laiti\u00e8re\">Inscriptions aux programmes de contr\u00f4le laitier</a></li>\n\n  <li><a href=\"https://www.dairyinfo.gc.ca/fra/statistiques-laitieres-et-informations-sur-les-marches/genetique-d-animaux-laitiers/production-moyenne-de-lait-par-race/?id=1502476121954\" title=\"Liens vers les rapports - production moyenne de lait par race sur le site web du Centre canadien d'information laiti\u00e8re\">Production moyenne de lait par race</a></li>\n\n<li> <a href=\"https://www.agr.gc.ca/eng/scientific-collaboration-and-research-in-agriculture/agriculture-and-agri-food-research-centres-and-collections/animal-genetic-resources-of-canada/?id=1549399653864\" title=\"Animal Genetic Resources Canada\">Ressources g\u00e9n\u00e9tiques animales du Canada</a>:\n<ul class=\"lst-none\">\n<li> Les Ressources g\u00e9n\u00e9tiques animales du Canada exploitent une banque de g\u00e8nes ax\u00e9e sur les ressources g\u00e9n\u00e9tiques du b\u00e9tail et de la volaille. RGAnC op\u00e8re sous la Direction g\u00e9n\u00e9rale des sciences et de la technologie d'Agriculture et Agroalimentaire Canada en contribuant \u00e0 pr\u00e9server la diversit\u00e9 g\u00e9n\u00e9tique des races animales au Canada.</li>\n</ul>\n</li>\n</ul>\n\n\n<div class=\"clearfix\"></div>\n<div class=\"well\">\n<p>Pour toute question ou information additionnelle, veuillez communiquer avec nous par courriel \u00e0<br> <a href=\"mailto:aafc.animalgenetics-genetiqueanimale.aac@agr.gc.ca\">aafc.animalgenetics-genetiqueanimale.aac@agr.gc.ca</a></p>\n</div>\n\n\r\n    "
    },
    "js": {
        "en": "",
        "fr": ""
    }
}