{
    "dcr_id": "1384971854417",
    "title": {
        "en": "Inter-provincial movements",
        "fr": "Mouvements interprovinciaux"
    },
    "modified": "2021-06-24",
    "issued": "2011-01-30",
    "templatetype": "content page 1 column",
    "page_type": "1",
    "node_id": "1384971799964",
    "dc_date_created": "2011-01-30",
    "managing_branch": "MISB",
    "parent_node_id": "1354137773899",
    "short_title": "",
    "exturl": "",
    "teamsite_location": {
        "en": "/default/main/AAFC-AAC/Internet-Internet/MISB-DGSIM/SDAD-DDAS/PE-VO/WORKAREA/PE-VO/templatedata/comm-comm/gene-gene/data/by_type_interprovincial_movements_1384971854417_en",
        "fr": "/default/main/AAFC-AAC/Internet-Internet/MISB-DGSIM/SDAD-DDAS/PE-VO/WORKAREA/PE-VO/templatedata/comm-comm/gene-gene/data/by_type_interprovincial_movements_1384971854417_fr"
    },
    "type_name": "sitemapinit",
    "has_dcr_id": true,
    "label": {
        "en": "Inter-provincial movements",
        "fr": "Mouvements interprovinciaux"
    },
    "breadcrumb": {
        "en": "Inter-provincial movements",
        "fr": "Mouvements interprovinciaux"
    },
    "layout_name": "content page 1 column",
    "lang": "en",
    "refaire": false,
    "meta": {
        "viewport": {
            "en": "width=device-width,initial-scale=1",
            "fr": "width=device-width, initial-scale=1"
        },
        "issued": {
            "en": "2011-01-30",
            "fr": "2003-02-24"
        },
        "modified": {
            "en": "2021-06-24",
            "fr": "2021-06-24"
        },
        "format": {
            "en": "gcformat",
            "fr": "gcformat"
        },
        "title": {
            "en": "Inter-provincial movements",
            "fr": "Mouvements interprovinciaux"
        },
        "subject": {
            "en": "aafcsubject",
            "fr": "volailles-march\u00e9;volailles-transformation;oeufs-production"
        },
        "dcterms:subject": {
            "en": "architectural heritage;architecture",
            "fr": "alimentation animale;\u0153uf;importation"
        },
        "description": {
            "en": "Canada's poultry and egg industry is mainly composed of the following sectors: chicken, ducks and geese, hatching eggs, table eggs, and turkey. Poultry and Egg Market Information \u2013 Canadian Industry provides weekly, monthly, and annual reports on: condemnations, egg production (processed and table eggs), hatcheries, imports and exports, inter-provincial movements, producer and retail prices, slaughter, storage stocks. Also includes product-based reports and information on chicken, ducks and geese, hatching eggs, table eggs, and turkey.",
            "fr": "L'industrie canadienne de la volaille et des oeufs comprend principalement les secteurs suivants : le poulet, le canard et l'oie, les oeufs d'incubation, les oeufs de consommation et le dindon. Information sur le march\u00e9 de la volaille et oeufs \u2013 Industrie canadienne Pr\u00e9sente des rapports hebdomadaires, mensuels et annuels sur les sujets suivants: condamnations, production d\u2019oeufs (oeufs transform\u00e9s et oeufs de consommation), couvoirs, importations / exportations, exp\u00e9ditions interprovinciales, producteurs et prix \u00e0 la consommation, abattages, stocks en entrep\u00f4t. Comprend \u00e9galement des rapports fond\u00e9s sur les produits ainsi que des renseignements sur le poulet, le canard et l'oie, les oeufs d'incubation, les oeufs de consommation et le dindon."
        },
        "language": {
            "en": "eng",
            "fr": "fra"
        },
        "keywords": {
            "en": "Inter-Provincial Movements;Eggs;Hatchery Poults;Hatchery Chicks;Turkey;Mature Chicken;Chicken",
            "fr": "Mouvements interprovinciaux;Oeufs;dindonneaux de couvoir;Poussins de couvoir;dindons;poulets adultes;Poulets"
        },
        "audience": {
            "en": "gcaudience",
            "fr": "gcaudience"
        },
        "type": {
            "en": "geospatial material",
            "fr": "mat\u00e9riel didactique"
        },
        "creator": {
            "en": "Market and Industry Services Branch;Agriculture and Agri-Food Canada;Government of Canada",
            "fr": "Direction g\u00e9n\u00e9rale des services \u00e0 l'industrie et aux march\u00e9s;Agriculture et Agroalimentaire Canada;Gouvernement du Canada"
        },
        "spatial": {
            "en": "gcregions",
            "fr": "gcregions"
        },
        "service": {
            "en": "AAFC-AAC",
            "fr": "AAFC-AAC"
        },
        "accessRights": {
            "en": "2",
            "fr": "2"
        },
        "legalName": {
            "en": "agriculture_and_agri_food_canada",
            "fr": "agriculture_et_agroalimentaire_canada"
        },
        "areaServed": {
            "en": "Canada",
            "fr": "Canada"
        }
    },
    "h1": {
        "en": "Inter-provincial movements",
        "fr": "Mouvements interprovinciaux"
    },
    "js": {
        "en": "",
        "fr": ""
    },
    "body": {
        "en": "\r\n    \n<h2 id=\"poultry\">Chicken, mature chicken, turkey</h2>\n<ul>\n<li><a href=\"http://aimis-simia.agr.gc.ca/rp/index-eng.cfm?action=pR&amp;r=5&amp;pdctc=\">035 Interprovincial Poultry Movements</a><br><br>Report displays poultry movements between provinces, by weight category, for selected species, for the selected year. </li>\n</ul>\n<hr>\n<h2 id=\"chicks\">Hatchery chicks, hatchery poults</h2>\n<ul>\n<li><a href=\"http://aimis-simia.agr.gc.ca/rp/index-eng.cfm?action=pR&amp;r=208&amp;pdctc=\">109 - Hatchery Review: Interprovincial Movements</a><br><br>Report is part of the Hatchery review and displays quarterly and year to date interprovincial movements of Chicks, Pullets, Poults and Hatching Eggs by region, for a selected year and week ending date, with Total Canada prior year comparison. </li>\n</ul>\n<hr>\n<h2 id=\"eggs\">Eggs</h2>\n<ul>\n<li><a href=\"http://www.eggfarmers.ca/our-industry/market-information/tableau/?location=tableau-5\" rel=\"external\">Interprovincial Movement of Table Eggs</a></li>\n</ul>\n\n<div class=\"clearfix\"></div>\n<br>\n<div class=\"well\">\n<p>If you have any questions or require additional information, please send an e-mail to <a href=\"mailto:aafc.poultry-volaille.aac@agr.gc.ca\" title=\"Email: Animal Industry Division - Market Information Section\"> aafc.poultry-volaille.aac@agr.gc.ca </a></p>\n\n<h2>Our service standards</h2>\n<p>Service standards play a vital role in our market information program\u2019s commitment to planning, reporting and performance management. \nThey clearly define the level of service that clients can expect under normal circumstances.</p>\n\n<p>View the <a href=\"http://www.agr.gc.ca/eng/industry-markets-and-trade/statistics-and-market-information/by-product-sector/poultry-and-eggs/service-standards-for-poultry-and-egg-market-information/?id=1481029938239\" title=\"Service standards for poultry reports\">Service standards for poultry reports.</a></p>\n</div>\n<div class=\"clearfix\"></div>\n\n\n\n\n\r\n    ",
        "fr": "\r\n                   \n\n<h2 id=\"poulet\"> Poulets, poulets adultes, dindons</h2>\n<ul>  <li><a href=\"http://aimis-simia.agr.gc.ca/rp/index-fra.cfm?action=pR&amp;r=505&amp;pdctc=\">035 Rapport des mouvements interprovinciaux de volailles</a>    \n<p>Ce rapport affiche les mouvements interprovinciaux de la volaille entre les provinces, par cat\u00e9gorie de poids, pour le type d'esp\u00e8ce s\u00e9lectionn\u00e9, pour l'ann\u00e9e s\u00e9lectionn\u00e9e.</p>  \n</li>\n</ul>      \n\n<h2 id=\"poussins\">Poussins de couvoir, dindonneaux de couvoir</h2>      \n<ul>        \n<li><a href=\"http://aimis-simia.agr.gc.ca/rp/index-fra.cfm?action=pR&amp;r=708&amp;pdctc=\">109 - Revue sur les couvoirs: Exp\u00e9ditions interprovinciales</a>          \n<p>Ce rapport fait partie de la revue sur les couvoirs et affiche les   exp\u00e9ditions interprovinciales trimestrielles et cumulatives de poussins,   poulets/dindonneaux et oeufs d'incubation par r\u00e9gion, pour l'ann\u00e9e et la semaine   s\u00e9lectionn\u00e9e, en comparaison avec le total cumulatif Canadien de l'ann\u00e9e   pr\u00e9c\u00e9dente.</p>\n</li>\n</ul> \n\n<h2 id=\"oeufs\">Oeufs</h2>      \n<ul>\n<li><a href=\"http://www.producteursdoeufs.ca/notre-industrie/information-sur-le-marche/tableau-fr/?location=tableau-5\" rel=\"external\">Rapport sur les mouvements interprovinciaux d'oeufs de consommation</a>\n</li>\n</ul>\n<div class=\"clearfix\"></div>\n\n<div class=\"well\">\n<p>Pour toute question ou information additionnelle, veuillez communiquer avec nous par courriel \u00e0 <a href=\"mailto:aafc.poultry-volaille.aac@agr.gc.ca\" title=\"Courriel : Division de l'industrie animale, Section de l'information sur les march\u00e9s\"> aafc.poultry-volaille.aac@agr.gc.ca</a></p>\n\n<h2>Nos normes de service</h2>\n<p>Les normes de service jouent un r\u00f4le cl\u00e9 dans les processus de gestion de la planification, des rapports et du rendement de notre programme d'information sur le march\u00e9. Elles d\u00e9finissent clairement le niveau de rendement auquel les clients peuvent s'attendre lorsqu'ils re\u00e7oivent un service dans des circonstances normales.</p>\n\n<p>Visionnez les  <a href=\"http://www.agr.gc.ca/fra/industrie-marches-et-commerce/statistiques-et-information-sur-les-marches/par-produit-secteur/volaille-et-oeufs/normes-de-service-pour-l-information-sur-le-marche-de-la-volaille-et-des-ufs/?id=1481029938239\" title=\"Normes de service relatives aux rapports sur la volaille\">Normes de service relatives aux rapports sur la volaille.</a></p>\n</div>\n<div class=\"clearfix\"></div>\n\n\n\n\n             "
    }
}