{
    "dcr_id": "1415860000003",
    "title": {
        "en": "Red meat and livestock slaughter and carcass weights",
        "fr": "Rapports d'abattage et poids de carcasses pour le march\u00e9 des viandes rouges"
    },
    "modified": "2021-06-15",
    "issued": "2003-02-24",
    "templatetype": "content page 1 column",
    "page_type": "1",
    "node_id": "1415863600004",
    "dc_date_created": "2003-02-24",
    "managing_branch": "MISB",
    "parent_node_id": "1354137773862",
    "short_title": "slaughter and carcass weights",
    "exturl": "",
    "teamsite_location": {
        "en": "/default/main/AAFC-AAC/Internet-Internet/MISB-DGSIM/SDAD-DDAS/RML-VRB/WORKAREA/RML-VRB/templatedata/comm-comm/gene-gene/data/by_type_slaughter_1415860000003_en",
        "fr": "/default/main/AAFC-AAC/Internet-Internet/MISB-DGSIM/SDAD-DDAS/RML-VRB/WORKAREA/RML-VRB/templatedata/comm-comm/gene-gene/data/by_type_slaughter_1415860000003_fr"
    },
    "type_name": "sitemapinit",
    "has_dcr_id": true,
    "label": {
        "en": "slaughter and carcass weights",
        "fr": "Abattages et poids de carcasses"
    },
    "breadcrumb": {
        "en": "slaughter and carcass weights",
        "fr": "Abattages et poids de carcasses"
    },
    "layout_name": "content page 1 column",
    "lang": "en",
    "refaire": false,
    "meta": {
        "viewport": {
            "en": "width=device-width,initial-scale=1",
            "fr": "width=device-width, initial-scale=1"
        },
        "issued": {
            "en": "2003-02-24",
            "fr": "2003-02-24"
        },
        "modified": {
            "en": "2021-06-15",
            "fr": "2021-06-15"
        },
        "format": {
            "en": "gcformat",
            "fr": "gcformat"
        },
        "title": {
            "en": "Red meat and livestock slaughter and carcass weights",
            "fr": "Rapports d'abattage et poids de carcasses pour le march\u00e9 des viandes rouges"
        },
        "subject": {
            "en": "aafcsubject",
            "fr": "politiques commerciales;volailles-transformation;produits avicoles"
        },
        "dcterms:subject": {
            "en": "statistics;architectural heritage;architecture",
            "fr": "transformation des aliments;engrais;alimentation animale"
        },
        "description": {
            "en": "Red Meat Market Information - Slaughter reports",
            "fr": "Information sur le march\u00e9 des viandes rouges - Rapport d'abattages"
        },
        "language": {
            "en": "eng",
            "fr": "fra"
        },
        "keywords": {
            "en": "alternative livestock;goats;lambs;sheep;calves;cattle;hogs;slaughter;Market Information;Red Meat",
            "fr": "b\u00e9tail alternatif;veaux;bovins;ch&egrave;vres;moutons;agneaux;porcs;abattage;viandes rouges;Information sur le march\u00e9"
        },
        "audience": {
            "en": "gcaudience",
            "fr": "gcaudience"
        },
        "type": {
            "en": "geospatial material",
            "fr": "politique"
        },
        "creator": {
            "en": "Agriculture and Agri-Food Canada;Government of Canada;Agriculture and Agri-Food Canada;Market and Industry Services Branch",
            "fr": "Agriculture et Agroalimentaire Canada;Gouvernement du Canada;Agriculture et Agroalimentaire Canada;Direction g\u00e9n\u00e9rale des services &agrave; l'industrie et aux march\u00e9s"
        },
        "spatial": {
            "en": "gcregions",
            "fr": "gcregions"
        },
        "service": {
            "en": "AAFC-AAC",
            "fr": "AAFC-AAC"
        },
        "accessRights": {
            "en": "2",
            "fr": "2"
        },
        "legalName": {
            "en": "agriculture_and_agri_food_canada",
            "fr": "agriculture_et_agroalimentaire_canada"
        },
        "areaServed": {
            "en": "Canada",
            "fr": "Canada"
        }
    },
    "h1": {
        "en": "Red meat and livestock slaughter and carcass weights",
        "fr": "Rapports d'abattage et poids des carcasses pour le march\u00e9 des viandes rouges"
    },
    "js": {
        "en": "",
        "fr": ""
    },
    "body": {
        "en": "\r\n    \n<p>This section provides information on slaughter of livestock (cattle, veal cattle, hogs and sheep/lamb) at federally and/or provincially inspected packing plants in Canada and the United States, along with carcass weights and other sectoral reports and links.</p>\n<section class=\"alert alert-info\">\n<h2>Please note:</h2>\n<p>Federally inspected slaughter data lags one week after week end. Provincially inspected slaughter data lags 1-3 months for all species except hogs. Provincially inspected hog slaughter to date is estimated then revised.</p>\n</section>\n<!--\n<div _mce_name=\"section\" class=\"alert alert-warning\">\n<h2> ATTENTION: Technical issue</h2>\n<p>Due to technical issues, slaughter data for the week ending October 3, 2020 is not available on the Agricultural Industry Market Information System (AIMIS) database. We apologize for the inconvenience.</p>\n</div>\n-->\n<h2>Slaughter at federally and/or provincially inspected packing plants by species</h2>\n<p>Dynamic reports displaying slaughter of livestock (cattle, veal cattle, hogs and sheep/lamb) at federally and/or provincially inspected packing plants in Canada and the United States for the week/month/year.  </p>\n<ul>\n<li>Hogs slaughtered \u2013 federally and/or provincially inspected <a title=\"Dynamic Report - Weekly Hogs slaughtered \u2013 federally and/or provincially inspected\" href=\"http://aimis-simia.agr.gc.ca/rp/index-eng.cfm?action=pR&amp;r=53&amp;pdctc=\">Weekly</a> / <a title=\"Dynamic Report - Monthly Hogs slaughtered \u2013 federally and/or provincially inspected\" href=\"http://aimis-simia.agr.gc.ca/rp/index-eng.cfm?action=pR&amp;r=54&amp;pdctc=\">Monthly</a> / <a title=\"Dynamic Report - Annual Hogs slaughtered \u2013 federally inspected\" href=\"http://aimis-simia.agr.gc.ca/rp/index-eng.cfm?action=pR&amp;r=105&amp;pdctc=\">Annual</a></li>\n<li>Sheep and lamb slaughtered \u2013 federally inspected <a title=\"Dynamic Report - Weekly Sheep and lamb slaughtered \u2013 federally inspected\" href=\"http://aimis-simia.agr.gc.ca/rp/index-eng.cfm?action=pR&amp;r=59&amp;pdctc=\">Weekly</a> / <a title=\"Dynamic Report - Monthly Sheep and lamb slaughtered \u2013 federally inspected\" href=\"http://aimis-simia.agr.gc.ca/rp/index-eng.cfm?action=pR&amp;r=60&amp;pdctc=\">Monthly</a></li>\n<li>United States and Canada slaughtering by species \u2013 federally inspected <a title=\"Dynamic Report - Weekly United States and Canada slaughtering by species \u2013 federally inspected\" href=\"http://aimis-simia.agr.gc.ca/rp/index-eng.cfm?action=pR&amp;r=98&amp;pdctc=\">Weekly</a> /<a title=\"Dynamic Report - Monthly United States and Canada slaughtering by species \u2013 federally inspected\" href=\"http://aimis-simia.agr.gc.ca/rp/index-eng.cfm?action=pR&amp;r=99&amp;pdctc=\"> Monthly</a></li>\n<li>United States slaughtering by species \u2013 federally inspected <a title=\"Dynamic Report - Weekly United States slaughtering by species \u2013 federally inspected\" href=\"http://aimis-simia.agr.gc.ca/rp/index-eng.cfm?action=pR&amp;r=102&amp;pdctc=\">Weekly</a> / <a title=\"Dynamic Report - Monthly United States slaughtering by species \u2013 federally inspected\" href=\"http://aimis-simia.agr.gc.ca/rp/index-eng.cfm?action=pR&amp;r=103&amp;pdctc=\">Monthly</a></li>\n<li><a title=\"Dynamic Report - Cattle, veal cattle, hogs, sheep and lamb slaughtered \u2013 federally inspected \" href=\"http://aimis-simia.agr.gc.ca/rp/index-eng.cfm?action=pR&amp;r=105&amp;pdctc=\">Cattle, veal cattle, hogs, sheep and lamb slaughtered \u2013 federally inspected</a> (Annual)</li>\n<li><a title=\"Dynamic Report - Cattle, veal cattle, hogs, sheep and lamb slaughtered \u2013 provincially inspected \" href=\"http://aimis-simia.agr.gc.ca/rp/index-eng.cfm?action=pR&amp;r=111&amp;pdctc=\">Cattle, veal cattle, hogs, sheep and lamb slaughtered \u2013 provincially inspected</a> (Annual)</li>\n<li><a title=\"Dynamic Report - Cattle, veal cattle by sex slaughtered - federally inspected (Annual)\" href=\"http://aimis-simia.agr.gc.ca/rp/index-eng.cfm?action=pR&amp;r=109&amp;pdctc=\">Cattle, veal cattle by sex slaughtered - federally inspected</a> (Annual)</li>\n<li><a title=\"Report - Goats \u2013 federally and provincially inspected\" href=\"https://www.agr.gc.ca/eng/?id=1415860000044\">Goats \u2013 federally and provincially inspected</a> (Annual)</li>\n<li><a title=\"Number and list of federally inspected plants in Canada  - cattle and hog\" href=\"https://www.agr.gc.ca/eng/?id=1415860000050\">Number and list of federally inspected plants in Canada  - cattle and hog</a> (Annual)</li>\n<li><a title=\"External link to the Canadian Food Inspection Agency listing of Federally registered establishments in Canada\" href=\"https://www.inspection.gc.ca/active/scripts/meavia/reglist/reglist.asp?lang=e\">Listing of Federally registered establishments in Canada</a> (<abbr title=\"Canadian Food Inspection Agency\">CFIA</abbr>)</li>\n<li><a title=\"External Link to the Canadian Food Inspection Agency listing of Provincially registered establishments in Canada\" href=\"http://www.inspection.gc.ca/english/fssa/meavia/regliste.shtml#prov\">Listing of Provincially registered establishments in Canada</a> (<abbr title=\"Canadian Food Inspection Agency\">CFIA</abbr>)</li>\n<li><a title=\"External link to the United States Department of Agriculture listing of Federally registered establishments in the United States \" href=\"http://www.fsis.usda.gov/regulations_&amp;_policies/Meat_Poultry_Egg_Inspection_Directory/index.asp\">Listing of Federally registered establishments in the United States</a> (<abbr title=\"United States Department of Agriculture\">USDA</abbr>)</li>\n<li><a title=\"Distribution of slaughtering activity report for cattle and hog\" href=\"https://www.agr.gc.ca/eng/?id=1415860000049\">Distribution of slaughtering activity - cattle and hog</a> (Annual)</li>\n<li>Origin of hogs slaughtered \u2013 federally and provincially inspected <a title=\"Dynamic Report - Weekly Origin of hogs slaughtered \u2013 federally and provincially inspected\" href=\"http://aimis-simia.agr.gc.ca/rp/index-eng.cfm?action=pR&amp;r=55&amp;pdctc=\">Weekly</a> / <a title=\"Dynamic Report - Monthly Origin of hogs slaughtered \u2013 federally and provincially inspected\" href=\"http://aimis-simia.agr.gc.ca/rp/index-eng.cfm?action=pR&amp;r=56&amp;pdctc=\">Monthly</a> / <a title=\"Dynamic Report - Annual Origin of hogs slaughtered \u2013 federally and provincially inspected\" href=\"http://aimis-simia.agr.gc.ca/rp/index-eng.cfm?action=pR&amp;r=93&amp;pdctc=\">Annual</a></li>\n<li>Beef carcasses graded \u2013 federally and provincially inspected  <a title=\"Dynamic Report - Weekly Beef carcasses graded \u2013 federally and provincially inspected\" href=\"http://aimis-simia.agr.gc.ca/rp/index-eng.cfm?action=pR&amp;r=115&amp;pdctc=\">Weekly</a> / <a title=\"Dynamic Report -Annual Beef carcasses graded \u2013 federally and provincially inspected \" href=\"http://aimis-simia.agr.gc.ca/rp/index-eng.cfm?action=pR&amp;r=113&amp;pdctc=\">Annual</a> </li>\n</ul>\n<h3>Open data portal</h3>\n<p>The Government of Canada open data portal provides for searchable open data with a Comma Separated Values (CSV) file open. </p>\n<dl>\n<dt>Red Meat Slaughter <a title=\"Weekly Red Meat Slaughter\" href=\"http://open.canada.ca/data/en/dataset/3c981dfe-30ac-44cb-b9a3-0fb450913d1b\">Weekly</a> / <a title=\"Monthly Red Meat Slaughter\" href=\"http://open.canada.ca/data/en/dataset/43ea3719-f2ea-4c30-91d2-c8cf9b9b1cef\">Monthly</a></dt>\n<dd>Number of head slaughtered of cattle, veal cattle, hogs, sheep and lamb in federally inspected slaughterhouses. Data from 1997 to present, Canada totals, is available on the Government of Canada\u2019s Open Government Registry.</dd>\n</dl>\n<h2>Red meat carcass weight reports</h2>\n<p>Reports display average warm carcass weights by species for a selected year.</p>\n<ul>\n<li><a title=\"Dynamic Report - Average warm carcass weights of hogs, cattle, veal cattle - federally Inspected\" href=\"http://aimis-simia.agr.gc.ca/rp/index-eng.cfm?menupos=1.02.08&amp;pdctc=&amp;r=135&amp;action=pR&amp;LANG=EN\">Average warm carcass weights of hogs, cattle, veal cattle - federally Inspected</a> (Annual with monthly breakdown)</li>\n<li><a title=\"Link to Market hog average weights from federally inspected plants, by region report\" href=\"/eng/canadas-agriculture-sectors/animal-industry/red-meat-and-livestock-market-information/slaughter-and-carcass-weights/market-hog-average-weights-from-federally-inspected-plants-by-region/?id=1612382295429\">Market Hog Average Weights From Federally Inspected Plants, by Region</a> (weekly)</li>\n<li><a title=\"Dynamic Report - Average carcass weights of cattle by sex - federally inspected (CBGA)\" href=\"http://aimis-simia.agr.gc.ca/rp/index-eng.cfm?menupos=1.02.06&amp;action=pR&amp;r=107&amp;LANG=EN&amp;pdctc=\">Average carcass weights of cattle by sex - federally inspected (CBGA)</a> (Annual)</li>\n<li><a title=\"Red meat conversion factors\" href=\"https://www.agr.gc.ca/eng/animal-industry/red-meat-and-livestock-market-information/carcass-weight/conversion-factors/?id=1415860000020\">Red meat conversion factors</a></li>\n</ul>\n<div class=\"well\">\n<p>If you have any questions or require additional information, please send an e-mail to <a href=\"mailto:aafc.redmeat-vianderouge.aac@agr.gc.ca\" title=\"Email: Animal Industry Division - Market Information Section\"> aafc.redmeat-vianderouge.aac@agr.gc.ca</a></p>\n<h3>Our service standards</h3>\n<p>Service standards play a vital role in our market information program\u2019s commitment to planning, reporting and performance management. \nThey clearly define the level of service that clients can expect under normal circumstances.</p>\n<p>View the <a href=\"http://www.agr.gc.ca/eng/industry-markets-and-trade/statistics-and-market-information/by-product-sector/red-meat-and-livestock/?id=1480968240072\" title=\"Service standards for red meat and livestock reports\">Service standards for red meat and livestock reports.</a></p>\n</div>\n<div class=\"clearfix\"></div>\n\n\r\n    ",
        "fr": "\r\n    \n\n\n\n<p>Cette section fournit des renseignements sur l'abattage du b\u00e9tail (bovins, veaux, porcs et moutons / agneaux) dans les \u00e9tablissements sous inspection f\u00e9d\u00e9rale et / ou provinciale au Canada et aux \u00c9tats-Unis, ainsi que sur le poids des carcasses et autres rapports et liens relatif au secteur.</p>\n<section class=\"alert alert-info\">\n<h2>Veuillez prendre note :</h2>\n<p>Les donn\u00e9es d'abattage sous inspection f\u00e9d\u00e9rale sont disponibles avec un d\u00e9lai d\u2019une semaine. Les donn\u00e9es d'abattage sous inspection provinciale sont disponibles avec un d\u00e9lai de 1 \u00e0 3 mois pour chaque esp\u00e8ce, \u00e0 l\u2019exception des donn\u00e9es d\u2019abattage du porc. Les donn\u00e9es d\u2019abattage du porc sous inspection provinciale sont estim\u00e9es puis r\u00e9vis\u00e9es. </p>\n</section>\n<!--\n<div _mce_name=\"section\" class=\"alert alert-warning\">\n<h2>ATTENTION: Probl&egrave;me technique pr&eacute;ventif du site web</h2>\n<p>Pour la semaine se terminant le 3 octobre 2020, les donn&eacute;es d&rsquo;abattages ne sont pas disponibles &agrave; cause de probl&egrave;mes techniques. Syst&egrave;me d'information sur les march&eacute;s de l'industrie agricole(SIMIA). Nous nous excusons pour les inconv&eacute;nients.</p>\n</div>\n-->\n<h2> Abattage sous inspection f\u00e9d\u00e9rale et provinciale selon l'esp\u00e8ces</h2>\n<p> Rapports dynamiques qui comprennent les donn\u00e9es d\u2019abattage de b\u00e9tail (bovins, veaux, porcs et agneaux/moutons) dans les \u00e9tablissements sous inspection f\u00e9d\u00e9rale et provinciale du Canada et des \u00c9tats-Unis, disponibles  sur une base hebdomadaire/mensuelle/annuelle. </p>\n<ul>\n<li>Porcs - sous inspection f\u00e9d\u00e9rale et provinciale : <a title=\"Rapport hebdomadaire - Porcs - inspect\u00e9s par les gouvernements f\u00e9d\u00e9ral et provinciaux\" href=\"https://aimis-simia.agr.gc.ca/rp/index-fra.cfm?action=pR&amp;r=553&amp;pdctc=\">Hebdomadaire</a> / <a title=\"Rapport mensuel - Porcs - inspect\u00e9s par les gouvernements f\u00e9d\u00e9ral et provinciaux\" href=\"https://aimis-simia.agr.gc.ca/rp/index-fra.cfm?action=pR&amp;r=554&amp;pdctc=\">Mensuel</a> / <a title=\"Rapport annuel - Porcs - inspect\u00e9s par les gouvernements f\u00e9d\u00e9ral et provinciaux\" href=\"https://aimis-simia.agr.gc.ca/rp/index-fra.cfm?action=pR&amp;r=605&amp;pdctc=\">Annuel</a> </li>\n<li>Agneaux et moutons - sous inspection f\u00e9d\u00e9rale : <a title=\"Rapport hebdomadaire - Agneaux et moutons - inspect\u00e9s par le gouvernement f\u00e9d\u00e9ral\" href=\"https://aimis-simia.agr.gc.ca/rp/index-fra.cfm?action=pR&amp;r=559&amp;pdctc=\">Hebdomadaire</a> / <a title=\"Rapport mensuel - Agneaux et moutons - inspect\u00e9s par le gouvernement f\u00e9d\u00e9ral\" href=\"https://aimis-simia.agr.gc.ca/rp/index-fra.cfm?action=pR&amp;r=560&amp;pdctc=\">Mensuel</a></li>\n<li>\tAbattage selon l\u2019esp\u00e8ce aux \u00c9tats-Unis et au Canada - sous inspection f\u00e9d\u00e9rale : <a title=\"Rapport hebdomadaire - Abattage par esp\u00e8ce des \u00c9tats-Unis et du Canada - inspect\u00e9s par le gouvernement f\u00e9d\u00e9ral\" href=\"https://aimis-simia.agr.gc.ca/rp/index-fra.cfm?action=pR&amp;r=598&amp;pdctc=\">Hebdomadaire</a> / <a title=\"Rapport mensuel - Abattage par esp\u00e8ce des \u00c9tats-Unis et du Canada - inspect\u00e9s par le gouvernement f\u00e9d\u00e9ral\" href=\"https://aimis-simia.agr.gc.ca/rp/index-fra.cfm?action=pR&amp;r=599&amp;pdctc=\">Mensuel</a></li>\n<li>Abattage selon l\u2019esp\u00e8ce aux \u00c9tats-Unis - sous inspection f\u00e9d\u00e9rale : <a title=\"Rapport hebdomadaire - Abattage par esp\u00e8ce des \u00c9tats-Unis - inspect\u00e9s par le gouvernement f\u00e9d\u00e9ral\" href=\"https://aimis-simia.agr.gc.ca/rp/index-fra.cfm?action=pR&amp;r=602&amp;pdctc=\">Hebdomadaire</a> / <a title=\"Rapport mensuel - Abattage par esp\u00e8ce des \u00c9tats-Unis - inspect\u00e9s par le gouvernement f\u00e9d\u00e9ral\" href=\"https://aimis-simia.agr.gc.ca/rp/index-fra.cfm?action=pR&amp;r=603&amp;pdctc=\">Mensuel</a></li>\n<li><a title=\"Rapport annuel - Abattages de bovins, de veaux, de porcs, de moutons et d'agneaux dans les \u00e9tablissements sous inspection f\u00e9d\u00e9rale\" href=\"https://aimis-simia.agr.gc.ca/rp/index-fra.cfm?action=pR&amp;r=605&amp;pdctc=\">Abattages de bovins, de veaux, de porcs, de moutons et d'agneaux dans les \u00e9tablissements sous inspection f\u00e9d\u00e9rale</a> (Annuel)</li>\n<li><a title=\"Rapport annuel - Abattages de bovins, de veaux, de porcs, de moutons et d'agneaux dans les \u00e9tablissements sous inspection provinciale\" href=\"https://aimis-simia.agr.gc.ca/rp/index-fra.cfm?action=pR&amp;r=611&amp;pdctc=\">Abattages de bovins, de veaux, de porcs, de moutons et d'agneaux dans les \u00e9tablissements sous inspection provinciale</a> (Annuel)</li>\n<li><a title=\"Rapport annuel - Abattage  de bovins selon le sexe  dans les \u00e9tablissements sous inspection f\u00e9d\u00e9rale\" href=\"http://aimis-simia.agr.gc.ca/rp/index-fra.cfm?action=pR&amp;r=609&amp;pdctc=\">Abattage  de bovins selon le sexe  dans les \u00e9tablissements sous inspection f\u00e9d\u00e9rale</a> (Annuel)</li>\n<li><a title=\"Rapport annuel - Nombre de ch\u00e8vres abattues dans des \u00e9tablissements sous inspection provinciale\" href=\"https://www.agr.gc.ca/fra/production-animale/information-sur-le-marche-des-viandes-rouges/abattages/chevres-abattus-au-canada/?id=1415860000044\">Nombre de ch\u00e8vres abattues dans des \u00e9tablissements sous inspection provinciale</a> (Annuel)</li>\n<li><a title=\"Rapport annuel - Nombre et liste des \u00e9tablissements sous inspection f\u00e9d\u00e9rale - bovins et porcs\" href=\"https://www.agr.gc.ca/fra/production-animale/information-sur-le-marche-des-viandes-rouges/abattages/abattoirs-inspectes-par-le-gouvernement-federal-bovins-et-porcs/?id=1415860000050\">Nombre et liste des \u00e9tablissements sous inspection f\u00e9d\u00e9rale - bovins et porcs</a> (Annuel)</li>\n<li><a title=\"Liens externe vers la liste des \u00e9tablissements sous inspection f\u00e9d\u00e9rale au Canada l'agence canadienne d'inspection des aliments\" href=\"https://www.inspection.gc.ca/active/scripts/meavia/reglist/reglist.asp?lang=f\">Liste des \u00e9tablissements sous inspection f\u00e9d\u00e9rale au Canada</a> (<abbr title=\"Agence canadienne d'inspection des aliments\">ACIA</abbr>)</li>\n<li><a title=\"Liens externe vers la liste des \u00e9tablissements sous inspection provinciale au Canada de l'agence canadienne d'inspection des aliments\" href=\"https://www.inspection.gc.ca/salubrite-alimentaire-pour-l-industrie/directives-archivees-sur-les-aliments/produits-de-viande-et-de-volaille/etablissements-de-viandes/fra/1374560511959/1374560512678\">Liste des \u00e9tablissements sous inspection provinciale au Canada</a> (<abbr title=\"Agence canadienne d'inspection des aliments\">ACIA</abbr>)</li>\n<li><a title=\"Liens externe vers la liste des \u00e9tablissements sous inspection f\u00e9d\u00e9rale aux \u00c9tats-Unis\" href=\"http://www.fsis.usda.gov/wps/portal/fsis/topics/inspection/mpi-directory\">Liste des \u00e9tablissements sous inspection f\u00e9d\u00e9rale aux \u00c9tats-Unis</a> (<abbr title=\"United States Department of Agriculture\">USDA</abbr> - en anglais seulement) </li>\n<li><a title=\"Rapport annuel - Distribution des activit\u00e9s d'abattage\" href=\"https://www.agr.gc.ca/fra/production-animale/information-sur-le-marche-des-viandes-rouges/abattages/distribution-des-activites-d-abattage/?id=1415860000049\">Distribution des activit\u00e9s d'abattage</a> - bovin et porc (Annuel)</li>\n<li>Abattage de porc selon la province d\u2019origine au Canada : <a title=\"Rapport hebdomadaire - Abattage de porc selon la province d\u2019origine au Canada\" href=\"http://aimis-simia.agr.gc.ca/rp/index-fra.cfm?action=pR&amp;r=555&amp;pdctc=\">Hebdomadaire</a> / <a title=\"Rapport mensuel - Abattage de porc selon la province d\u2019origine au Canada\" href=\"http://aimis-simia.agr.gc.ca/rp/index-fra.cfm?action=pR&amp;r=556&amp;pdctc=\">Mensuel</a> / <a title=\"Abattage de porc selon la province d\u2019origine au Canada\" href=\"http://aimis-simia.agr.gc.ca/rp/index-fra.cfm?action=pR&amp;r=593&amp;pdctc=\">Annuel</a></li>\n<li>Carcasses de b\u0153uf class\u00e9es dans les abattoirs sous inspection f\u00e9d\u00e9rale et provinciale : <a title=\"Rapport hebdomadaire - Carcasses de b\u0153uf class\u00e9es dans les abattoirs sous inspection f\u00e9d\u00e9rale et provinciale\" href=\"https://aimis-simia.agr.gc.ca/rp/index-fra.cfm?action=pR&amp;r=615&amp;pdctc=\">Hebdomadaire</a> / <a title=\"Rapport annuel - Carcasses de b\u0153uf class\u00e9es dans les abattoirs sous inspection f\u00e9d\u00e9rale et provinciale\" href=\"https://aimis-simia.agr.gc.ca/rp/index-fra.cfm?action=pR&amp;r=613&amp;pdctc=\">Annuel</a></li>\n</ul>\n<h3>Portail des donn\u00e9es ouvertes</h3>\n<p>Le Portail des donn\u00e9es ouvertes du Gouvernement du Canada est un guichet qui permet d\u2019acc\u00e9der aux donn\u00e9es et \u00e0 l\u2019information ouvertes via un fichier de valeurs s\u00e9par\u00e9es par des virgules (CSV).</p>\n<dl>\n<dt>Rapport d'abattage de viandes rouges  <a title=\"Rapport hebdomadaire - Rapport d'abattage de viandes rouges \" href=\"https://ouvert.canada.ca/data/fr/dataset/3c981dfe-30ac-44cb-b9a3-0fb450913d1b\">Hebdomadaire</a> / <a title=\"Rapport mensuel - Rapport d'abattage de viandes rouges \" href=\"http://open.canada.ca/data/fr/dataset/43ea3719-f2ea-4c30-91d2-c8cf9b9b1cef\">Mensuel</a></dt>\n<dd>Les abattages canadiens de bovins, veaux, porcs, , agneaux et moutons dans les \u00e9tablissements sous inspection f\u00e9d\u00e9rale et provinciale, de 1997 \u00e0 2017 et exprim\u00e9s en nombre de t\u00eate sont disponibles sur le portail des donn\u00e9es ouvertes.</dd>\n</dl>\n<h2>Poids des carcasses pour le march\u00e9 des viandes rouges</h2>\n<p>Rapports qui comprennent les donn\u00e9es relatives au poids moyen des carcasses chaudes selon l\u2019esp\u00e8ce et l\u2019ann\u00e9e.</p>\n<ul>\n<li><a title=\"Rapport dynamique annuel - Poids moyen des carcasses chaudes de porcs, de bovins et de veaux \u2013 sous inspection f\u00e9d\u00e9rale\" href=\"http://aimis-simia.agr.gc.ca/rp/index-fra.cfm?action=pR&amp;r=635&amp;pdctc=\">Poids moyen des carcasses chaudes de porcs, de bovins et de veaux \u2013 sous inspection f\u00e9d\u00e9rale</a> (Annuel avec r\u00e9partition mensuelle)</li>\n<li><a rel=\"internal\" title=\"Liens vers le rapport hebdomadaire des Poids moyen des porcs de march\u00e9 sous inspection f\u00e9d\u00e9rale, selon la r\u00e9gion\" href=\"/fra/secteurs-agricoles-du-canada/production-animale/information-sur-le-marche-des-viandes-rouges/abattages-et-poids-de-carcasses/poids-moyen/?id=1612382295429\">Poids moyen des porcs de march\u00e9 sous inspection f\u00e9d\u00e9rale, selon la r\u00e9gion</a> (Hebdomadaire)</li>\n<li><a title=\"Rapport dynamique annuel - Poids moyen des carcasses de bovins selon le sexe -  sous inspection f\u00e9d\u00e9rale\" href=\"http://aimis-simia.agr.gc.ca/rp/index-fra.cfm?action=pR&amp;r=607&amp;pdctc=\">Poids moyen des carcasses de bovins selon le sexe -  sous inspection f\u00e9d\u00e9rale (<abbr title=\"L\u2019Agence canadienne de classement du boeuf\">ACCB</abbr>)</a> (Annuel)</li>\n<li><a title=\"Facteurs de conversion utilis\u00e9s dans le secteur de la viande rouge\" href=\"https://www.agr.gc.ca/fra/production-animale/information-sur-le-marche-des-viandes-rouges/poids-de-carcasses/facteurs-de-conversion/?id=1415860000020\">Facteurs de conversion utilis\u00e9s dans le secteur de la viande rouge</a> </li>\n</ul>\n\n<div class=\"well\">\n<p>Pour toute question ou information additionnelle, veuillez communiquer avec nous par courriel \u00e0 <a title=\"Courriel : Division de l'industrie animale, Section de l'information sur les march\u00e9s\" href=\"mailto:aafc.redmeat-vianderouge.aac@agr.gc.ca\"> aafc.redmeat-vianderouge.aac@agr.gc.ca</a></p>\n<h2>Nos normes de service</h2>\n<p>Les normes de service jouent un r\u00f4le cl\u00e9 dans les processus de gestion de la planification, des rapports et du rendement de notre programme d'information sur le march\u00e9. Elles d\u00e9finissent clairement le niveau de rendement auquel les clients peuvent s'attendre lorsqu'ils re\u00e7oivent un service dans des circonstances normales.</p>\n<p>Visionnez les  <a title=\"Normes de service relatives aux rapports sur les animaux \u00e0 viande rouge et le b\u00e9tail\" href=\"http://www.agr.gc.ca/fra/industrie-marches-et-commerce/statistiques-et-information-sur-les-marches/par-produit-secteur/viande-rouge-et-betail/normes-de-service-relatives-aux-rapports-sur-les-animaux-a-viande-rouge-et-le-betail/?id=1480968240072\">Normes de service relatives aux rapports sur les animaux \u00e0 viande rouge et le b\u00e9tail.</a></p>\n</div>\n<div class=\"clearfix\"></div>\n"
    }
}