{
    "dcr_id": "1415860000017",
    "title": {
        "en": "Red meat and livestock inventory reports",
        "fr": "Rapports d'inventaire pour le march\u00e9 des viandes rouges"
    },
    "modified": "2021-06-15",
    "issued": "2003-02-24",
    "templatetype": "content page 1 column",
    "page_type": "1",
    "node_id": "1415863600009",
    "dc_date_created": "2003-02-24",
    "managing_branch": "MISB",
    "parent_node_id": "1354137773862",
    "short_title": "Inventories",
    "exturl": "",
    "teamsite_location": {
        "en": "/default/main/AAFC-AAC/Internet-Internet/MISB-DGSIM/SDAD-DDAS/RML-VRB/WORKAREA/RML-VRB/templatedata/comm-comm/gene-gene/data/by_type_inventory_1415860000017_en",
        "fr": "/default/main/AAFC-AAC/Internet-Internet/MISB-DGSIM/SDAD-DDAS/RML-VRB/WORKAREA/RML-VRB/templatedata/comm-comm/gene-gene/data/by_type_inventory_1415860000017_fr"
    },
    "type_name": "sitemapinit",
    "has_dcr_id": true,
    "label": {
        "en": "Inventories",
        "fr": "Inventaires"
    },
    "breadcrumb": {
        "en": "Inventories",
        "fr": "Inventaires"
    },
    "layout_name": "content page 1 column",
    "lang": "en",
    "refaire": false,
    "meta": {
        "viewport": {
            "en": "width=device-width,initial-scale=1",
            "fr": "width=device-width, initial-scale=1"
        },
        "issued": {
            "en": "2003-02-24",
            "fr": "2003-02-24"
        },
        "modified": {
            "en": "2021-06-15",
            "fr": "2021-06-15"
        },
        "format": {
            "en": "gcformat",
            "fr": "gcformat"
        },
        "title": {
            "en": "Red meat and livestock inventory reports",
            "fr": "Rapports d'inventaire pour le march\u00e9 des viandes rouges"
        },
        "subject": {
            "en": "soil assessement;sheep;veal",
            "fr": "enc\u00e9phalopathie spongiforme bovine;maladie de la vache folle;pommes de terre-producteurs"
        },
        "dcterms:subject": {
            "en": "architectural heritage;architecture;statistics",
            "fr": "aliment;g\u00e9omatique;\u00e9conomie"
        },
        "description": {
            "en": "Red Meat Market Information - Inventory Reports",
            "fr": "Information sur le march\u00e9 des viandes rouges - Rapports des inventaires"
        },
        "language": {
            "en": "eng",
            "fr": "fra"
        },
        "keywords": {
            "en": "alternative livestock;calves;cattle;goats;lambs;sheep;hogs;Inventory;farm type;registered animals;livestock population;deer;Market Information;Red Meat",
            "fr": "b\u00e9tail alternatif;veaus;bovins;ch&egrave;vres;moutons;agneaux;porcs;inventaires;populations;animaux enregistr\u00e9s;cerdiv\u00e9s;viandes rouges;Information sur le march\u00e9"
        },
        "audience": {
            "en": "gcaudience",
            "fr": "gcaudience"
        },
        "type": {
            "en": "article",
            "fr": "description de l'organisation"
        },
        "creator": {
            "en": "Agriculture and Agri-Food Canada;Government of Canada;Agriculture and Agri-Food Canada;Market and Industry Services Branch",
            "fr": "Agriculture et Agroalimentaire Canada;Gouvernement du Canada;Agriculture et Agroalimentaire Canada;Direction g\u00e9n\u00e9rale des services &agrave; l'industrie et aux march\u00e9s"
        },
        "spatial": {
            "en": "gcregions",
            "fr": "gcregions"
        },
        "service": {
            "en": "AAFC-AAC",
            "fr": "AAFC-AAC"
        },
        "accessRights": {
            "en": "2",
            "fr": "2"
        },
        "legalName": {
            "en": "agriculture_and_agri_food_canada",
            "fr": "agriculture_et_agroalimentaire_canada"
        },
        "areaServed": {
            "en": "Canada",
            "fr": "Canada"
        }
    },
    "h1": {
        "en": "Red meat and livestock inventory reports",
        "fr": "Rapports d'inventaire pour le march\u00e9 des viandes rouges"
    },
    "js": {
        "en": "",
        "fr": ""
    },
    "body": {
        "en": "\r\n    <p>This section provides information on livestock inventories, along with other sectoral reports and links.</p>\n<div class=\"clearfix\"></div>\n<table class=\"table table-responsive table-hover\">\n<caption style=\"text-align: left;\">  Livestock population - Canada ('000 head)</caption>\n<thead>\n<tr>\n<td class=\"active\"> </td>\n\n<th class=\"active\" style=\"text-align: right;\" scope=\"col\"> 2017</th>\n<th class=\"active\" style=\"text-align: right;\" scope=\"col\"> 2018</th>\n<th class=\"active\" style=\"text-align: right;\" scope=\"col\"> 2019</th>\n<th class=\"active\" style=\"text-align: right;\" scope=\"col\"> 2020</th>\n<th class=\"active\" style=\"text-align: right;\" scope=\"col\"> 2021</th>\n</tr>\n</thead>\n<tbody>\n<tr>\n<th style=\"text-align: left;\" scope=\"row\"> Cattle - as of January 1 </th>\n<td class=\"nowrap\" style=\"text-align: right;\"> 11,535 </td>\n<td class=\"nowrap\" style=\"text-align: right;\"> 11,565 </td>\n<td class=\"nowrap\" style=\"text-align: right;\"> 11,500 </td>\n<td class=\"nowrap\" style=\"text-align: right;\"> 11,265</td>\n<td class=\"nowrap\" style=\"text-align: right;\">11,150</td>\n</tr>\n<tr>\n<th style=\"text-align: left;\" scope=\"row\"> Cattle - as of July 1</th>\n<td class=\"nowrap\" style=\"text-align: right;\"> 12,535 </td>\n<td class=\"nowrap\" style=\"text-align: right;\"> 12,465 </td>\n<td class=\"nowrap\" style=\"text-align: right;\"> 12,300</td>\n<td class=\"nowrap\" style=\"text-align: right;\"> 12,235</td>\n<td class=\"nowrap\" style=\"text-align: right;\">..</td>\n</tr>\n<tr>\n<th style=\"text-align: left;\" scope=\"row\"> Hogs - as of January 1</th>\n<td class=\"nowrap\" style=\"text-align: right;\"> 13,935 </td>\n<td class=\"nowrap\" style=\"text-align: right;\"> 14,170 </td>\n<td class=\"nowrap\" style=\"text-align: right;\"> 13,975</td>\n<td class=\"nowrap\" style=\"text-align: right;\"> 13,970</td>\n<td class=\"nowrap\" style=\"text-align: right;\">14,025</td>\n</tr>\n<tr>\n<th style=\"text-align: left;\" scope=\"row\">  Hogs - as of July 1</th>\n<td class=\"nowrap\" style=\"text-align: right;\"> 14,200</td>\n<td class=\"nowrap\" style=\"text-align: right;\"> 13,970</td>\n<td class=\"nowrap\" style=\"text-align: right;\"> 13,975</td>\n<td class=\"nowrap\" style=\"text-align: right;\"> 14,000</td>\n<td class=\"nowrap\" style=\"text-align: right;\">..</td>\n</tr>\n<tr>\n<th style=\"text-align: left;\" scope=\"row\"> Sheep - as of January 1</th>\n<td class=\"nowrap\" style=\"text-align: right;\"> 813.9 </td>\n<td class=\"nowrap\" style=\"text-align: right;\"> 829.4 </td>\n<td class=\"nowrap\" style=\"text-align: right;\"> 827.8 </td>\n<td class=\"nowrap\" style=\"text-align: right;\"> 795.8 </td>\n<td class=\"nowrap\" style=\"text-align: right;\">780.2</td>\n</tr>\n<tr>\n<th style=\"text-align: left;\" scope=\"row\"> Sheep - as of July 1</th>\n<td class=\"nowrap\" style=\"text-align: right;\"> 1,048 </td>\n<td class=\"nowrap\" style=\"text-align: right;\"> 1,060.4 </td>\n<td class=\"nowrap\" style=\"text-align: right;\"> 1,041.2 </td>\n<td class=\"nowrap\" style=\"text-align: right;\"> 1,014.6</td>\n<td class=\"nowrap\" style=\"text-align: right;\">..</td>\n</tr>\n</tbody>\n<tfoot>\n<tr>\n<td class=\"align-left\" colspan=\"6\">Source: Statistics Canada</td>\n</tr>\n</tfoot>\n</table>\n<div class=\"clearfix\"></div>\n<h2> Links to various inventory reports:</h2>\n<h3>Deer</h3>\n<ul>\n<li><a title=\"Link to the Farmed deer in Canada by species and area report\" href=\"https://www.agr.gc.ca/eng/?id=1415860000119\">Farmed deer in Canada by species and area</a> (Annual)</li>\n</ul>\n<h2> Links to various inventory reports provided by Statistics Canada:</h2>\n<h3> Cattle and calves</h3>\n<ul>\n<li><a title=\"external link to Statistics Canada data table - Number of cattle, by class and farm type\" href=\"https://www150.statcan.gc.ca/t1/tbl1/en/tv.action?pid=3210013001\" rel=\"external\">Number of cattle, by class and farm type</a> (Semi-annual, Statistics Canada Table: 32-10-0130-01)</li>\n<li><a title=\"external link to Statistics Canada data table - Number of Cattle Farms and Average Number of Cattle Per Farm\" href=\"https://www150.statcan.gc.ca/t1/tbl1/en/tv.action?pid=3210015101\" rel=\"external\">Number of Cattle Farms and Average Number of Cattle Per Farm</a> (Semi-annual, Statistics Canada Table: 32-10-0151-01)</li>\n<li><a title=\"external link to Statistics Canada data table - Cattle and calves, number by class and calf crop, United States \" href=\"https://www150.statcan.gc.ca/t1/tbl1/en/tv.action?pid=3210014001\" rel=\"external\">Cattle and calves, number by class and calf crop, United States</a> (Semi-annual, Statistics Canada Table: 32-10-0151-01)</li>\n</ul>\n<h3> Hogs</h3>\n<ul>\n<li><a title=\"external link to Statistics Canada data table - Number of hogs on farms at end of semi-annual period\" href=\"https://www150.statcan.gc.ca/t1/tbl1/en/tv.action?pid=3210016001\" rel=\"external\">Number of hogs on farms at end of semi-annual period</a> (Semi-annual, Statistics Canada Table: 32-10-0160-01)</li>\n<li><a title=\"external link to Statistics Canada data table - Number of hog farms and average number of hogs per farm\" href=\"https://www150.statcan.gc.ca/t1/tbl1/en/tv.action?pid=3210020201\" rel=\"external\">Number of hog farms and average number of hogs per farm</a> (Semi-annual, Statistics Canada Table: 32-10-0202-01)</li>\n<li><a title=\"external link to Statistics Canada data table - Canada and United States hog and pig inventories\" href=\"https://www150.statcan.gc.ca/t1/tbl1/en/tv.action?pid=3210020301\" rel=\"external\">Canada and United States hog and pig inventories</a> (Semi-annual, Statistics Canada Table: 32-10-0203-01)</li>\n<li><a title=\"external link to Statistics Canada data table - United States hog and pig inventories\" href=\"https://www150.statcan.gc.ca/t1/tbl1/en/tv.action?pid=3210020401\" rel=\"external\">United States hog and pig inventories</a> (Semi-annual, Statistics Canada Table: 32-10-0204-01)</li>\n<li><a title=\"external link to Statistics Canada data table - Hogs statistics, sows farrowed, pigs born and sows bred to farrow\" href=\"https://www150.statcan.gc.ca/t1/tbl1/en/tv.action?pid=3210020101\" rel=\"external\">Hogs statistics, sows farrowed, pigs born and sows bred to farrow</a> (Semi-annual, Statistics Canada Table: 32-10-0201-01)</li>\n</ul>\n<h3> Sheep, lambs and goats</h3>\n<ul>\n<li><a title=\"external link to Statistics Canada data table - Number of sheep and lambs on farms by province\" href=\"https://www150.statcan.gc.ca/t1/tbl1/en/tv.action?pid=3210012901\" rel=\"external\">Number of sheep and lambs on farms by province</a>  (Semi-annual, Statistics Canada Table: 32-10-0129-01)</li>\n<li><a title=\"external link to Statistics Canada data table - Sheep and lambs, number by class and lamb crop, United States\" href=\"https://www150.statcan.gc.ca/t1/tbl1/en/tv.action?pid=3210014301\" rel=\"external\">Sheep and lambs, number by class and lamb crop, United States</a> (Semi-annual, Statistics Canada Table: 32-10-0143-01)</li>\n</ul>\n<div class=\"clearfix\"></div>\n<p> </p>\n<div class=\"well\">\n<p>If you have any questions or require additional information, please send an e-mail to <a title=\"Email: Animal Industry Division - Market Information Section\" href=\"mailto:aafc.redmeat-vianderouge.aac@agr.gc.ca\"> aafc.redmeat-vianderouge.aac@agr.gc.ca</a></p>\n<h2>Our service standards</h2>\n<p>Service standards play a vital role in our market information program's commitment to planning, reporting and performance management. They clearly define the level of service that clients can expect under normal circumstances.</p>\n<p>View the <a href=\"http://www.agr.gc.ca/eng/industry-markets-and-trade/statistics-and-market-information/by-product-sector/red-meat-and-livestock/?id=1480968240072\" title=\"Service standards for red meat and livestock reports\">Service standards for red meat and livestock reports.</a></p>\n</div>\n<div class=\"clearfix\"></div>\n\r\n    ",
        "fr": "\r\n    \n<p>Cette section fournit des informations sur des inventaires de b\u00e9tail, avec d'autres rapports sectoriels et des liens.</p>\n<div class=\"clearfix\"></div>\n<table class=\"table table-responsive table-hover\">\n<caption style=\"text-align: left;\"> Population par esp\u00e8ce - Canada (1 000 t\u00eates)</caption>\n<thead>\n<tr>\n<td class=\"active\"> </td>\n<th class=\"active\" style=\"text-align: right;\" scope=\"col\"> 2017</th>\n<th class=\"active\" style=\"text-align: right;\" scope=\"col\"> 2018</th>\n<th class=\"active\" style=\"text-align: right;\" scope=\"col\"> 2019</th>\n<th class=\"active\" style=\"text-align: right;\" scope=\"col\"> 2020</th>\n<th class=\"active\" style=\"text-align: right;\" scope=\"col\"> 2021</th>\n</tr>\n</thead>\n<tbody>\n<tr>\n<th style=\"text-align: left;\" scope=\"row\"> Bovins - au 1er janvier</th>\n<td class=\"nowrap\" style=\"text-align: right;\"> 11\u00a0535 </td>\n<td class=\"nowrap\" style=\"text-align: right;\"> 11\u00a0565 </td>\n<td class=\"nowrap\" style=\"text-align: right;\"> 11\u00a0500 </td>\n<td class=\"nowrap\" style=\"text-align: right;\"> 11\u00a0265</td>\n<td class=\"nowrap\" style=\"text-align: right;\">11\u00a0150</td>\n</tr>\n<tr>\n<th style=\"text-align: left;\" scope=\"row\"> Bovins - au 1er juillet</th>\n<td class=\"nowrap\" style=\"text-align: right;\"> 12\u00a0535 </td>\n<td class=\"nowrap\" style=\"text-align: right;\"> 12\u00a0465 </td>\n<td class=\"nowrap\" style=\"text-align: right;\"> 12\u00a0300</td>\n<td class=\"nowrap\" style=\"text-align: right;\"> 12\u00a0235</td>\n<td class=\"nowrap\" style=\"text-align: right;\">..</td>\n</tr>\n<tr>\n<th style=\"text-align: left;\" scope=\"row\"> Porcs - au 1er janvier</th>\n<td class=\"nowrap\" style=\"text-align: right;\"> 13\u00a0935 </td>\n<td class=\"nowrap\" style=\"text-align: right;\"> 14\u00a0170 </td>\n<td class=\"nowrap\" style=\"text-align: right;\"> 13\u00a0975</td>\n<td class=\"nowrap\" style=\"text-align: right;\"> 13\u00a0970</td>\n<td class=\"nowrap\" style=\"text-align: right;\">14\u00a0025</td>\n</tr>\n<tr>\n<th style=\"text-align: left;\" scope=\"row\"> Porcs - au 1er juillet</th>\n<td class=\"nowrap\" style=\"text-align: right;\"> 14\u00a0200</td>\n<td class=\"nowrap\" style=\"text-align: right;\"> 13\u00a0970</td>\n<td class=\"nowrap\" style=\"text-align: right;\"> 13\u00a0975</td>\n<td class=\"nowrap\" style=\"text-align: right;\"> 14\u00a0000</td>\n<td class=\"nowrap\" style=\"text-align: right;\">..</td>\n</tr>\n<tr>\n<th style=\"text-align: left;\" scope=\"row\"> Ovins - au 1er janvier</th>\n<td class=\"nowrap\" style=\"text-align: right;\"> 813.9 </td>\n<td class=\"nowrap\" style=\"text-align: right;\"> 829.4 </td>\n<td class=\"nowrap\" style=\"text-align: right;\"> 827.8 </td>\n<td class=\"nowrap\" style=\"text-align: right;\"> 795.8 </td>\n<td class=\"nowrap\" style=\"text-align: right;\">780.2</td>\n</tr>\n<tr>\n<th style=\"text-align: left;\" scope=\"row\"> Ovins - au 1er juillet</th>\n<td class=\"nowrap\" style=\"text-align: right;\"> 1\u00a0048 </td>\n<td class=\"nowrap\" style=\"text-align: right;\"> 1\u00a0060.4 </td>\n<td class=\"nowrap\" style=\"text-align: right;\"> 1\u00a0041.2 </td>\n<td class=\"nowrap\" style=\"text-align: right;\"> 1\u00a0014.6</td>\n<td class=\"nowrap\" style=\"text-align: right;\">..</td>\n</tr>\n</tbody>\n<tfoot>\n<tr>\n<td class=\"align-left\" colspan=\"6\">Source : Statistique Canada</td>\n</tr>\n</tfoot>\n\n</table>\n<div class=\"clearfix\"></div>\n<h2> Acc\u00e9der \u00e0 divers liens de rapports d'inventaire </h2>\n<h3>Cervid\u00e9s</h3>\n<ul>\n<li> <a href=\"/fra/?id=1415860000119\">Cervid\u00e9s en captivit\u00e9 au Canada par esp\u00e8ce et par zone</a></li>\n</ul>\n<h2> Acc\u00e9der \u00e0 divers liens de rapports d'inventaire par Statistique Canada :</h2>\n<h3> Bovins et veaux</h3>\n<ul>\n<li><a title=\"lien externe vers le tableau de Statistique Canada - Nombre de bovins, selon la classe et le type d'exploitation agricole\" href=\"https://www150.statcan.gc.ca/t1/tbl1/fr/tv.action?pid=3210013001&amp;request_locale=fr\" rel=\"external\">Nombre de bovins, selon la classe et le type d'exploitation agricole</a> (Semi-annuel, tableau de Statistique Canada : 32-10-0130-01)</li>\n<li><a title=\"lien externe vers le tableau de Statistique Canada - Statistiques de bovins et de veaux, nombre de fermes d\u00e9clarantes et nombre moyen de bovins et veaux par ferme\" href=\"https://www150.statcan.gc.ca/t1/tbl1/fr/tv.action?pid=3210015101&amp;request_locale=fr\" rel=\"external\">Statistiques de bovins et de veaux, nombre de fermes d\u00e9clarantes et nombre moyen de bovins et veaux par ferme</a> (Semi-annuel, tableau de Statistique Canada : 32-10-0151-01)</li>\n<li><a title=\"lien externe vers le tableau de Statistique Canada - Bovins et veaux, nombre par classe et veaux n\u00e9s, \u00c9tats-Unis\" href=\"https://www150.statcan.gc.ca/t1/tbl1/fr/tv.action?pid=3210014001&amp;request_locale=fr\" rel=\"external\">Bovins et veaux, nombre par classe et veaux n\u00e9s, \u00c9tats-Unis</a> (Semi-annuel, tableau de Statistique Canada : 32-10-0151-01)</li>\n</ul>\n<h3> Porcs</h3>\n<ul>\n<li><a title=\"lien externe vers le tableau de Statistique Canada - Statistiques de porcs, nombre de porcs dans les fermes \u00e0 la fin d'une p\u00e9riode semestrielle\" href=\"https://www150.statcan.gc.ca/t1/tbl1/fr/tv.action?pid=3210016001&amp;request_locale=fr\" rel=\"external\">Inventaire de porcs par province</a> (Semi-annuel, tableau de Statistique Canada : 32-10-0160-01)</li>\n<li><a title=\"lien externe vers le tableau de Statistique Canada - Statistiques de porcs, nombre de fermes d\u00e9clarantes et nombre moyen de porcs par ferme, semi-annuel\" href=\"https://www150.statcan.gc.ca/t1/tbl1/fr/tv.action?pid=3210020201&amp;request_locale=fr\" rel=\"external\">Nombre de fermes de porcs et nombre moyen de porcs par ferme</a> (Semi-annuel, tableau de Statistique Canada : 32-10-0202-01)</li>\n<li><a title=\"lien externe vers le tableau de Statistique Canada - Statistiques de porcs, nombre de porcs par cat\u00e9gorie selon une p\u00e9riode semestrielle, \u00c9tats-Unis et Canada\" href=\"https://www150.statcan.gc.ca/t1/tbl1/fr/tv.action?pid=3210020301&amp;request_locale=fr\" rel=\"external\">Inventaire de porc par cat\u00e9gorie au Canada et aux \u00c9tats\u2013Unis</a> (Semi-annuel, tableau de Statistique Canada : 32-10-0203-01)</li>\n<li><a title=\"lien externe vers le tableau de Statistique Canada - Statistiques de porcs, nombre de porcs par cat\u00e9gorie selon une p\u00e9riode semestrielle, \u00c9tats-Unis\" href=\"https://www150.statcan.gc.ca/t1/tbl1/fr/tv.action?pid=3210020401&amp;request_locale=fr\" rel=\"external\">Inventaire de porc aux \u00c9tats\u2013Unis</a> (Semi-annuel, tableau de Statistique Canada : 32-10-0204-01)</li>\n<li><a title=\"lien externe vers le tableau de Statistique Canada - Statistiques de porcs, truies ayant mis bas, porcelets n\u00e9s et truies devant mettre bas, semi-annuel\" href=\"https://www150.statcan.gc.ca/t1/tbl1/fr/tv.action?pid=3210020101\" rel=\"external\">Pr\u00e9visions de porcs, truies ayant mis bas, porcelets n\u00e9s et truies devant mettre bas</a> (Semi-annuel, tableau de Statistique Canada : 32-10-0201-01)</li>\n</ul>\n<h3> Agneaux, moutons et ch\u00e8vres</h3>\n<ul>\n<li><a title=\"lien externe vers le tableau de Statistique Canada - Moutons et agneaux, nombre dans les fermes\" href=\"https://www150.statcan.gc.ca/t1/tbl1/fr/tv.action?pid=3210012901&amp;request_locale=fr\" rel=\"external\">Inventaire de moutons et agneaux</a>  (Semi-annuel, tableau de Statistique Canada : 32-10-0129-01)</li>\n<li><a title=\"lien externe vers le tableau de Statistique Canada - Moutons et agneaux, nombre par classe et agneaux n\u00e9s, \u00c9tats-Unis\" href=\"https://www150.statcan.gc.ca/t1/tbl1/fr/tv.action?pid=3210014301&amp;request_locale=fr\" rel=\"external\">Inventaire de moutons et agneaux aux \u00c9tats-Unis</a> (Semi-annuel, tableau de Statistique Canada : 32-10-0143-01)</li>\n</ul>\n<div class=\"clearfix\"></div>\n<p> </p>\n<div class=\"well\">\n<p>Pour toute question ou information additionnelle, veuillez communiquer avec nous par courriel \u00e0 <a title=\"Courriel : Division de l'industrie animale, Section de l'information sur les march\u00e9s\" href=\"mailto:aafc.redmeat-vianderouge.aac@agr.gc.ca\">aafc.redmeat-vianderouge.aac@agr.gc.ca</a></p>\n<h2>Nos normes de service</h2>\n<p>Les normes de service jouent un r\u00f4le cl\u00e9 dans les processus de gestion de la planification, des rapports et du rendement de notre programme d'information sur le march\u00e9. Elles d\u00e9finissent clairement le niveau de rendement auquel les clients peuvent s'attendre lorsqu'ils re\u00e7oivent un service dans des circonstances normales.</p>\n<p>Visionnez les  <a title=\"Normes de service relatives aux rapports sur les animaux \u00e0 viande rouge et le b\u00e9tail\" href=\"http://www.agr.gc.ca/fra/industrie-marches-et-commerce/statistiques-et-information-sur-les-marches/par-produit-secteur/viande-rouge-et-betail/normes-de-service-relatives-aux-rapports-sur-les-animaux-a-viande-rouge-et-le-betail/?id=1480968240072\">Normes de service relatives aux rapports sur les animaux \u00e0 viande rouge et le b\u00e9tail.</a></p>\n</div>\n<div class=\"clearfix\"></div>\n"
    }
}