{
    "dcr_id": "1415860000123",
    "title": {
        "en": "Weekly livestock report schedule",
        "fr": "Calendrier des rapports hebdomadaires du b\u00e9tail"
    },
    "modified": "2021-06-15",
    "issued": "2013-02-07",
    "templatetype": "content page 1 column",
    "page_type": "1",
    "node_id": "1415863600026",
    "dc_date_created": "2013-02-07",
    "managing_branch": "MISB",
    "parent_node_id": "1354137773862",
    "short_title": "",
    "exturl": "",
    "teamsite_location": {
        "en": "/default/main/AAFC-AAC/Internet-Internet/MISB-DGSIM/SDAD-DDAS/RML-VRB/WORKAREA/RML-VRB/templatedata/comm-comm/gene-gene/data/livestock_calendar_1415860000123_en",
        "fr": "/default/main/AAFC-AAC/Internet-Internet/MISB-DGSIM/SDAD-DDAS/RML-VRB/WORKAREA/RML-VRB/templatedata/comm-comm/gene-gene/data/livestock_calendar_1415860000123_fr"
    },
    "type_name": "sitemapinit",
    "has_dcr_id": true,
    "label": {
        "en": "Weekly livestock report schedule",
        "fr": "Calendrier des rapports hebdomadaires du b\u00e9tail"
    },
    "breadcrumb": {
        "en": "Weekly livestock report schedule",
        "fr": "Calendrier des rapports hebdomadaires du b\u00e9tail"
    },
    "layout_name": "content page 1 column",
    "lang": "en",
    "refaire": false,
    "meta": {
        "viewport": {
            "en": "width=device-width,initial-scale=1",
            "fr": "width=device-width, initial-scale=1"
        },
        "issued": {
            "en": "2013-02-07",
            "fr": "2013-02-07"
        },
        "modified": {
            "en": "2021-06-15",
            "fr": "2021-06-15"
        },
        "format": {
            "en": "gcformat",
            "fr": "gcformat"
        },
        "title": {
            "en": "Weekly livestock report schedule",
            "fr": "Calendrier des rapports hebdomadaires du b\u00e9tail"
        },
        "subject": {
            "en": "soil assessement;architectural heritage;veal",
            "fr": "sarrasin commun;oeufs-march\u00e9;aliments-qualit\u00e9 et s\u00e9curit\u00e9"
        },
        "dcterms:subject": {
            "en": "statistics;architectural heritage;architecture",
            "fr": "apiculture;p\u00e2turage;science \u00e9conomique"
        },
        "description": {
            "en": "Red Meat Market Information livestock weekly report schedule",
            "fr": "Calendrier des rapports hebdomadaires du b&eacute;tail utilis&eacute;s par le service d&rsquo;information du march&eacute; des viandes rouges"
        },
        "language": {
            "en": "eng",
            "fr": "fra"
        },
        "keywords": {
            "en": "asset-purchase;Akzenta",
            "fr": "Draghi;Akzenta"
        },
        "audience": {
            "en": "gcaudience",
            "fr": "gcaudience"
        },
        "type": {
            "en": "geospatial material",
            "fr": "\u00e9valuation"
        },
        "creator": {
            "en": "Agriculture and Agri-Food Canada;Government of Canada;Agriculture and Agri-Food Canada",
            "fr": "Agriculture et Agroalimentaire Canada;Gouvernement du Canada;Agriculture et Agroalimentaire Canada"
        },
        "spatial": {
            "en": "gcregions",
            "fr": "gcregions"
        },
        "service": {
            "en": "AAFC-AAC",
            "fr": "AAFC-AAC"
        },
        "accessRights": {
            "en": "2",
            "fr": "2"
        },
        "legalName": {
            "en": "agriculture_and_agri_food_canada",
            "fr": "agriculture_et_agroalimentaire_canada"
        },
        "areaServed": {
            "en": "Canada",
            "fr": "Canada"
        }
    },
    "h1": {
        "en": "Weekly livestock report schedule",
        "fr": "Calendrier des rapports hebdomadaires du b\u00e9tail"
    },
    "js": {
        "en": "",
        "fr": ""
    },
    "body": {
        "en": "\r\n    \n<p>This table provides the livestock schedule for:<br>\nRed meat market information reports with a calendar week ending date of Saturday;<br>\nPoultry market information meat trade reports that are sourced from the Canadian Food Inspection Agency. \n</p>\n<p><strong>For your convenience, the livestock calendar is available in the following format:</strong><br><a href=\"http://www5.agr.gc.ca/resources/prod/Internet-Internet/MISB-DGSIM/SDAD-DDAS/RML-VRB/PDF/2021%20Schedule%20Calendrier%202021.pdf\"><abbr title=\"Portable Document Format\">PDF</abbr> (547 KB)</a></p>\n<table class=\"table table-bordered table-responsive table-hover\">\n<caption style=\"text-align: left;\">\n Livestock schedule for red meat market information reports - 2019 to 2021\n</caption>\n<thead>\n<tr>\n<th class=\"active text-center\" scope=\"col\">Week #</th>\n<th class=\"active text-center\" scope=\"col\">Month</th>\n<th class=\"active text-center\" scope=\"col\">2019</th>\n<th class=\"active text-center\" scope=\"col\">2020</th>\n<th class=\"active text-center\" scope=\"col\">2021</th>\n</tr>\n</thead>\n<tbody>\n<tr>\n<th class=\"text-center\" scope=\"row\">1</th>\n<td class=\"nowrap text-center\">January</td>\n<td class=\"nowrap text-center\">January 5, 2019</td>\n<td class=\"nowrap text-center\">January 4, 2020</td>\n<td class=\"nowrap text-center\">January 9, 2021</td>\n</tr>\n<tr>\n<th class=\"text-center\" scope=\"row\">2</th>\n<td class=\"nowrap text-center\">January</td>\n<td class=\"nowrap text-center\">January 12, 2019</td>\n<td class=\"nowrap text-center\">January 11, 2020</td>\n<td class=\"nowrap text-center\">January 16, 2021</td>\n</tr>\n<tr>\n<th class=\"text-center\" scope=\"row\">3</th>\n<td class=\"nowrap text-center\">January</td>\n<td class=\"nowrap text-center\">January 19, 2019</td>\n<td class=\"nowrap text-center\">January 18, 2020</td>\n<td class=\"nowrap text-center\">January 23, 2021</td>\n</tr>\n<tr>\n<th class=\"text-center\" scope=\"row\">4</th>\n<td class=\"nowrap text-center\">January</td>\n<td class=\"nowrap text-center\">January 26, 2019</td>\n<td class=\"nowrap text-center\">January 25, 2020</td>\n<td class=\"nowrap text-center\">January 30, 2021</td>\n</tr>\n<tr>\n<th class=\"text-center\" scope=\"row\">5</th>\n<td class=\"nowrap text-center\">February</td>\n<td class=\"nowrap text-center\">February 2, 2019</td>\n<td class=\"nowrap text-center\">February 1, 2020</td>\n<td class=\"nowrap text-center\">February 6, 2021</td>\n</tr>\n<tr>\n<th class=\"text-center\" scope=\"row\">6</th>\n<td class=\"nowrap text-center\">February</td>\n<td class=\"nowrap text-center\">February 9, 2019</td>\n<td class=\"nowrap text-center\">February 8, 2020</td>\n<td class=\"nowrap text-center\">February 13, 2021</td>\n</tr>\n<tr>\n<th class=\"text-center\" scope=\"row\">7</th>\n<td class=\"nowrap text-center\">February</td>\n<td class=\"nowrap text-center\">February 16,2019</td>\n<td class=\"nowrap text-center\">February 15,2020</td>\n<td class=\"nowrap text-center\">February 20,2021</td>\n</tr>\n<tr>\n<th class=\"text-center\" scope=\"row\">8</th>\n<td class=\"nowrap text-center\">February</td>\n<td class=\"nowrap text-center\">February 23, 2019</td>\n<td class=\"nowrap text-center\">February 22, 2020</td>\n<td class=\"nowrap text-center\">February 27, 2021</td>\n</tr>\n<tr>\n<th class=\"text-center\" scope=\"row\">9</th>\n<td class=\"nowrap text-center\">March</td>\n<td class=\"nowrap text-center\">March 2, 2019</td>\n<td class=\"nowrap text-center\">February 29, 2020</td>\n<td class=\"nowrap text-center\">March 6, 2021</td>\n</tr>\n<tr>\n<th class=\"text-center\" scope=\"row\">10</th>\n<td class=\"nowrap text-center\">March</td>\n<td class=\"nowrap text-center\">March 9, 2019</td>\n<td class=\"nowrap text-center\">March 7, 2020</td>\n<td class=\"nowrap text-center\">March 13, 2021</td>\n</tr>\n<tr>\n<th class=\"text-center\" scope=\"row\">11</th>\n<td class=\"nowrap text-center\">March</td>\n<td class=\"nowrap text-center\">March 16, 2019</td>\n<td class=\"nowrap text-center\">March 14, 2020</td>\n<td class=\"nowrap text-center\">March 20, 2021</td>\n</tr>\n<tr>\n<th class=\"text-center\" scope=\"row\">12</th>\n<td class=\"nowrap text-center\">March</td>\n<td class=\"nowrap text-center\">March 23, 2019</td>\n<td class=\"nowrap text-center\">March 21, 2020</td>\n<td class=\"nowrap text-center\">March 27, 2021</td>\n</tr>\n<tr>\n<th class=\"text-center\" scope=\"row\">13</th>\n<td class=\"nowrap text-center\">March</td>\n<td class=\"nowrap text-center\">March 30, 2019</td>\n<td class=\"nowrap text-center\">March 28, 2020</td>\n<td class=\"nowrap text-center\">April 3, 2021</td>\n</tr>\n<tr>\n<th class=\"text-center\" scope=\"row\">14</th>\n<td class=\"nowrap text-center\">April</td>\n<td class=\"nowrap text-center\">April 6, 2019</td>\n<td class=\"nowrap text-center\">April 4, 2020</td>\n<td class=\"nowrap text-center\">April 10, 2021</td>\n</tr>\n<tr>\n<th class=\"text-center\" scope=\"row\">15</th>\n<td class=\"nowrap text-center\">April</td>\n<td class=\"nowrap text-center\">April 13, 2019</td>\n<td class=\"nowrap text-center\">April 11, 2020</td>\n<td class=\"nowrap text-center\">April 17, 2021</td>\n</tr>\n<tr>\n<th class=\"text-center\" scope=\"row\">16</th>\n<td class=\"nowrap text-center\">April</td>\n<td class=\"nowrap text-center\">April 20, 2019</td>\n<td class=\"nowrap text-center\">April 18, 2020</td>\n<td class=\"nowrap text-center\">April 24, 2021</td>\n</tr>\n<tr>\n<th class=\"text-center\" scope=\"row\">17</th>\n<td class=\"nowrap text-center\">April</td>\n<td class=\"nowrap text-center\">April 27, 2019</td>\n<td class=\"nowrap text-center\">April 25, 2020</td>\n<td class=\"nowrap text-center\">May 1, 2021</td>\n</tr>\n<tr>\n<th class=\"text-center\" scope=\"row\">18</th>\n<td class=\"nowrap text-center\">May</td>\n<td class=\"nowrap text-center\">May 4, 2019</td>\n<td class=\"nowrap text-center\">May 2, 2020</td>\n<td class=\"nowrap text-center\">May 8, 2021</td>\n</tr>\n<tr>\n<th class=\"text-center\" scope=\"row\">19</th>\n<td class=\"nowrap text-center\">May</td>\n<td class=\"nowrap text-center\">May 11, 2019</td>\n<td class=\"nowrap text-center\">May 9, 2020</td>\n<td class=\"nowrap text-center\">May 15, 2021</td>\n</tr>\n<tr>\n<th class=\"text-center\" scope=\"row\">20</th>\n<td class=\"nowrap text-center\">May</td>\n<td class=\"nowrap text-center\">May 18, 2019</td>\n<td class=\"nowrap text-center\">May 16, 2020</td>\n<td class=\"nowrap text-center\">May 22, 2021</td>\n</tr>\n<tr>\n<th class=\"text-center\" scope=\"row\">21</th>\n<td class=\"nowrap text-center\">May</td>\n<td class=\"nowrap text-center\">May 25, 2019</td>\n<td class=\"nowrap text-center\">May 23, 2020</td>\n<td class=\"nowrap text-center\">May 29, 2021</td>\n\n</tr>\n<tr>\n<th class=\"text-center\" scope=\"row\">22</th>\n<td class=\"nowrap text-center\">June</td>\n<td class=\"nowrap text-center\">June 1, 2019</td>\n<td class=\"nowrap text-center\">May 30, 2020</td>\n<td class=\"nowrap text-center\">June 5, 2021</td>\n</tr>\n<tr>\n<th class=\"text-center\" scope=\"row\">23</th>\n<td class=\"nowrap text-center\">June</td>\n<td class=\"nowrap text-center\">June 8, 2019</td>\n<td class=\"nowrap text-center\">June 6, 2020</td>\n<td class=\"nowrap text-center\">June 12, 2021</td>\n</tr>\n<tr>\n<th class=\"text-center\" scope=\"row\">24</th>\n<td class=\"nowrap text-center\">June</td>\n<td class=\"nowrap text-center\">June 15, 2019</td>\n<td class=\"nowrap text-center\">June 13, 2020</td>\n<td class=\"nowrap text-center\">June 19, 2021</td>\n</tr>\n<tr>\n<th class=\"text-center\" scope=\"row\">25</th>\n<td class=\"nowrap text-center\">June</td>\n<td class=\"nowrap text-center\">June 22, 2019</td>\n<td class=\"nowrap text-center\">June 20, 2020</td>\n<td class=\"nowrap text-center\">June 26, 2021</td>\n</tr>\n<tr>\n<th class=\"text-center\" scope=\"row\">26</th>\n<td class=\"nowrap text-center\">June</td>\n<td class=\"nowrap text-center\">June 29, 2019</td>\n<td class=\"nowrap text-center\">June 27, 2020</td>\n<td class=\"nowrap text-center\">July 3, 2021</td>\n</tr>\n<tr>\n<th class=\"text-center\" scope=\"row\">27</th>\n<td class=\"nowrap text-center\">July</td>\n<td class=\"nowrap text-center\">July 6, 2019</td>\n<td class=\"nowrap text-center\">July 4, 2020</td>\n<td class=\"nowrap text-center\">July 10, 2021</td>\n</tr>\n<tr>\n<th class=\"text-center\" scope=\"row\">28</th>\n<td class=\"nowrap text-center\">July</td>\n<td class=\"nowrap text-center\">July 13, 2019</td>\n<td class=\"nowrap text-center\">July 11, 2020</td>\n<td class=\"nowrap text-center\">July 17, 2021</td>\n</tr>\n<tr>\n<th class=\"text-center\" scope=\"row\">29</th>\n<td class=\"nowrap text-center\">July</td>\n<td class=\"nowrap text-center\">July 20, 2019</td>\n<td class=\"nowrap text-center\">July 18, 2020</td>\n<td class=\"nowrap text-center\">July 24, 2021</td>\n</tr>\n<tr>\n<th class=\"text-center\" scope=\"row\">30</th>\n<td class=\"nowrap text-center\">July</td>\n<td class=\"nowrap text-center\">July 27, 2019</td>\n<td class=\"nowrap text-center\">July 25, 2020</td>\n<td class=\"nowrap text-center\">July 31, 2021</td>\n</tr>\n<tr>\n<th class=\"text-center\" scope=\"row\">31</th>\n<td class=\"nowrap text-center\">August</td>\n<td class=\"nowrap text-center\">August 3, 2019</td>\n<td class=\"nowrap text-center\">August 1, 2020</td>\n<td class=\"nowrap text-center\">August 7, 2021</td>\n</tr>\n<tr>\n<th class=\"text-center\" scope=\"row\">32</th>\n<td class=\"nowrap text-center\">August</td>\n<td class=\"nowrap text-center\">August 10, 2019</td>\n<td class=\"nowrap text-center\">August 8, 2020</td>\n<td class=\"nowrap text-center\">August 14, 2021</td>\n</tr>\n<tr>\n<th class=\"text-center\" scope=\"row\">33</th>\n<td class=\"nowrap text-center\">August</td>\n<td class=\"nowrap text-center\">August 17, 2019</td>\n<td class=\"nowrap text-center\">August 15, 2020</td>\n<td class=\"nowrap text-center\">August 21, 2021</td>\n</tr>\n<tr>\n<th class=\"text-center\" scope=\"row\">34</th>\n<td class=\"nowrap text-center\">August</td>\n<td class=\"nowrap text-center\">August 24, 2019</td>\n<td class=\"nowrap text-center\">August 22, 2020</td>\n<td class=\"nowrap text-center\">August 28, 2021</td>\n</tr>\n<tr>\n<th class=\"text-center\" scope=\"row\">35</th>\n<td class=\"nowrap text-center\">September</td>\n<td class=\"nowrap text-center\">August 31, 2019</td>\n<td class=\"nowrap text-center\">August 29, 2020</td>\n<td class=\"nowrap text-center\">September 4, 2021</td>\n</tr>\n<tr>\n<th class=\"text-center\" scope=\"row\">36</th>\n<td class=\"nowrap text-center\">September</td>\n<td class=\"nowrap text-center\">September 7, 2019</td>\n<td class=\"nowrap text-center\">September 5, 2020</td>\n<td class=\"nowrap text-center\">September 11, 2021</td>\n</tr>\n<tr>\n<th class=\"text-center\" scope=\"row\">37</th>\n<td class=\"nowrap text-center\">September</td>\n<td class=\"nowrap text-center\">September 14, 2019</td>\n<td class=\"nowrap text-center\">September 12, 2020</td>\n<td class=\"nowrap text-center\">September 18, 2021</td>\n</tr>\n<tr>\n<th class=\"text-center\" scope=\"row\">38</th>\n<td class=\"nowrap text-center\">September</td>\n<td class=\"nowrap text-center\">September 21, 2019</td>\n<td class=\"nowrap text-center\">September 19, 2020</td>\n<td class=\"nowrap text-center\">September 25, 2021</td>\n</tr>\n<tr>\n<th class=\"text-center\" scope=\"row\">39</th>\n<td class=\"nowrap text-center\">September</td>\n<td class=\"nowrap text-center\">September 28, 2019</td>\n<td class=\"nowrap text-center\">September 26, 2020</td>\n<td class=\"nowrap text-center\">October 2, 2021</td>\n</tr>\n<tr>\n<th class=\"text-center\" scope=\"row\">40</th>\n<td class=\"nowrap text-center\">October</td>\n<td class=\"nowrap text-center\">October 5, 2019</td>\n<td class=\"nowrap text-center\">October 3, 2020</td>\n<td class=\"nowrap text-center\">October 9, 2021</td>\n</tr>\n<tr>\n<th class=\"text-center\" scope=\"row\">41</th>\n<td class=\"nowrap text-center\">October</td>\n<td class=\"nowrap text-center\">October 12, 2019</td>\n<td class=\"nowrap text-center\">October 10, 2020</td>\n<td class=\"nowrap text-center\">October 16, 2021</td>\n</tr>\n<tr>\n<th class=\"text-center\" scope=\"row\">42</th>\n<td class=\"nowrap text-center\">October</td>\n<td class=\"nowrap text-center\">October 19, 2019</td>\n<td class=\"nowrap text-center\">October 17, 2020</td>\n<td class=\"nowrap text-center\">October 23, 2021</td>\n</tr>\n<tr>\n<th class=\"text-center\" scope=\"row\">43</th>\n<td class=\"nowrap text-center\">October</td>\n<td class=\"nowrap text-center\">October 26, 2019</td>\n<td class=\"nowrap text-center\">October 24, 2020</td>\n<td class=\"nowrap text-center\">October 30, 2021</td>\n</tr>\n<tr>\n<th class=\"text-center\" scope=\"row\">44</th>\n<td class=\"nowrap text-center\">November</td>\n<td class=\"nowrap text-center\">November 2, 2019</td>\n<td class=\"nowrap text-center\">October 31, 2020</td>\n<td class=\"nowrap text-center\">November 6, 2021</td>\n</tr>\n<tr>\n<th class=\"text-center\" scope=\"row\">45</th>\n<td class=\"nowrap text-center\">November</td>\n<td class=\"nowrap text-center\">November 9, 2019</td>\n<td class=\"nowrap text-center\">November 7, 2020</td>\n<td class=\"nowrap text-center\">November 13, 2021</td>\n</tr>\n<tr>\n<th class=\"text-center\" scope=\"row\">46</th>\n<td class=\"nowrap text-center\">November</td>\n<td class=\"nowrap text-center\">November 16, 2019</td>\n<td class=\"nowrap text-center\">November 14, 2020</td>\n<td class=\"nowrap text-center\">November 20, 2021</td>\n</tr>\n<tr>\n<th class=\"text-center\" scope=\"row\">47</th>\n<td class=\"nowrap text-center\">November</td>\n<td class=\"nowrap text-center\">November 23, 2019</td>\n<td class=\"nowrap text-center\">November 21, 2020</td>\n<td class=\"nowrap text-center\">November 27, 2021</td>\n</tr>\n<tr>\n<th class=\"text-center\" scope=\"row\">48</th>\n<td class=\"nowrap text-center\">December</td>\n<td class=\"nowrap text-center\">November 30, 2019</td>\n<td class=\"nowrap text-center\">November 28, 2020</td>\n<td class=\"nowrap text-center\">December 4, 2021</td>\n</tr>\n<tr>\n<th class=\"text-center\" scope=\"row\">49</th>\n<td class=\"nowrap text-center\">December</td>\n<td class=\"nowrap text-center\">December 7, 2019</td>\n<td class=\"nowrap text-center\">December 5, 2020</td>\n<td class=\"nowrap text-center\">December 11, 2021</td>\n</tr>\n<tr>\n<th class=\"text-center\" scope=\"row\">50</th>\n<td class=\"nowrap text-center\">December</td>\n<td class=\"nowrap text-center\">December 14, 2019</td>\n<td class=\"nowrap text-center\">December 12, 2020</td>\n<td class=\"nowrap text-center\">December 18, 2021</td>\n</tr>\n<tr>\n<th class=\"text-center\" scope=\"row\">51</th>\n<td class=\"nowrap text-center\">December</td>\n<td class=\"nowrap text-center\">December 21, 2019</td>\n<td class=\"nowrap text-center\">December 29, 2020</td>\n<td class=\"nowrap text-center\">December 25, 2021</td>\n</tr>\n<tr>\n<th class=\"text-center\" scope=\"row\">52</th>\n<td class=\"nowrap text-center\">December</td>\n<td class=\"nowrap text-center\">December 28, 2019</td>\n<td class=\"nowrap text-center\">December 26, 2020</td>\n<td class=\"nowrap text-center\">January 1, 2022</td>\n\n</tr>\n<tr>\n<th class=\"text-center\" scope=\"row\">53</th>\n<td class=\"nowrap text-center\">December</td>\n<td class=\"nowrap text-center\"></td>\n<td class=\"nowrap text-center\">January 2, 2021</td>\n<td class=\"nowrap text-center\">\u00a0</td>\n</tr>\n</tbody>\n\t\n</table>\n<div class=\"well\">\n<p>If you have any questions or require additional information, please send an e-mail to <a href=\"mailto:aafc.redmeat-vianderouge.aac@agr.gc.ca\" title=\"Email: Animal Industry Division - Market Information Section\"> aafc.redmeat-vianderouge.aac@agr.gc.ca</a></p>\n<h2>Our service standards</h2>\n<p>Service standards play a vital role in our market information program's commitment to planning, reporting and performance management. \nThey clearly define the level of service that clients can expect under normal circumstances.</p>\n<p>View the <a href=\"http://www.agr.gc.ca/eng/industry-markets-and-trade/statistics-and-market-information/by-product-sector/red-meat-and-livestock/?id=1480968240072\">Service standards for red meat and livestock reports.</a></p>\n</div>\n\n\r\n    ",
        "fr": "\r\n    <p>Ce tableau pr\u00e9sente le calendrier pour comparer les rapports d'information sur le march\u00e9 :<br>\nde la viande rouge qui ont une semaine se terminant le samedi <br>\net du commerce international de la volaille provenant de L'agence canadienne d'inspection des aliments.\n</p>\n<p><strong> Pour votre convenance, le calendrier pour les rapports hebdomadaires du b\u00e9tail est disponible en PDF (format de document portable) :</strong><br>\n<a title=\"2020 \u2013 calendrier pour les rapports de la section des viandes rouges en format de document portable\" href=\"http://www5.agr.gc.ca/resources/prod/Internet-Internet/MISB-DGSIM/SDAD-DDAS/RML-VRB/PDF/2021%20Schedule%20Calendrier%202021.pdf\"><abbr title=\" format de document portable \">PDF</abbr> (547 KB)</a></p>\n<table class=\"table table-responsive table-bordered table-hover\">\n<caption>\n Calendrier utilis\u00e9 pour les rapports de la section des viandes rouges  - 2019 \u00e0 2021\n</caption>\n<thead>\n<tr>\n<th class=\"active text-center\" scope=\"col\">No. de la semaine</th>\n<th class=\"active text-center\" scope=\"col\">Mois</th>\n<th class=\"active text-center\" scope=\"col\">2019</th>\n<th class=\"active text-center\" scope=\"col\">2021\n</th>\n<th class=\"active text-center\" scope=\"col\">2021</th>\n</tr>\n</thead>\n<tbody>\n<tr>\n<th class=\"text-center\" scope=\"row\">1</th>\n<td class=\"nowrap text-center\">janvier</td>\n<td class=\"nowrap text-center\">5 janvier 2019 </td>\n<td class=\"nowrap text-center\">4 janvier 2020</td>\n<td class=\"nowrap text-center\"> 9\u00a0janvier 2021</td>\n</tr>\n<tr>\n<th class=\"text-center\" scope=\"row\">2</th>\n<td class=\"nowrap text-center\">janvier</td>\n<td class=\"nowrap text-center\">12 janvier 2019 </td>\n<td class=\"nowrap text-center\">11 janvier 2020</td>\n<td class=\"nowrap text-center\"> 16\u00a0janvier 2021</td>\n</tr>\n<tr>\n<th class=\"text-center\" scope=\"row\">3</th>\n<td class=\"nowrap text-center\">janvier</td>\n<td class=\"nowrap text-center\">19 janvier 2019 </td>\n<td class=\"nowrap text-center\">18 janvier 2020</td>\n<td class=\"nowrap text-center\">23 janvier\u00a02021</td>\n</tr>\n<tr>\n<th class=\"text-center\" scope=\"row\">4</th>\n<td class=\"nowrap text-center\">janvier</td>\n<td class=\"nowrap text-center\">26 janvier 2019 </td>\n<td class=\"nowrap text-center\">25 janvier 2020</td>\n<td class=\"nowrap text-center\">30\u00a0janvier 2021</td>\n</tr>\n<tr>\n<th class=\"text-center\" scope=\"row\">5</th>\n<td class=\"nowrap text-center\">f\u00e9vrier</td>\n<td class=\"nowrap text-center\">2 f\u00e9vrier 2019 </td>\n<td class=\"nowrap text-center\">1 f\u00e9vrier 2020</td>\n<td class=\"nowrap text-center\">6\u00a0f\u00e9vrier 2021</td>\n</tr>\n<tr>\n<th class=\"text-center\" scope=\"row\">6</th>\n<td class=\"nowrap text-center\">f\u00e9vrier</td>\n<td class=\"nowrap text-center\">9 f\u00e9vrier 2019 </td>\n<td class=\"nowrap text-center\">8 f\u00e9vrier 2020</td>\n<td class=\"nowrap text-center\">13\u00a0f\u00e9vrier 2021</td>\n</tr>\n<tr>\n<th class=\"text-center\" scope=\"row\">7</th>\n<td class=\"nowrap text-center\">f\u00e9vrier</td>\n<td class=\"nowrap text-center\">16 f\u00e9vrier 2019</td>\n<td class=\"nowrap text-center\">15 f\u00e9vrier 2020</td>\n<td class=\"nowrap text-center\">20 f\u00e9vrier 2021</td>\n</tr>\n<tr>\n<th class=\"text-center\" scope=\"row\">8</th>\n<td class=\"nowrap text-center\">f\u00e9vrier</td>\n<td class=\"nowrap text-center\">23 f\u00e9vrier 2019 </td>\n<td class=\"nowrap text-center\">22 f\u00e9vrier 2020</td>\n<td class=\"nowrap text-center\">27\u00a0f\u00e9vrier 2021</td>\n</tr>\n<tr>\n<th class=\"text-center\" scope=\"row\">9</th>\n<td class=\"nowrap text-center\">mars</td>\n<td class=\"nowrap text-center\">2 mars 2019 </td>\n<td class=\"nowrap text-center\">29 f\u00e9vrier 2020</td>\n<td class=\"nowrap text-center\">6\u00a0mars 2021</td>\n</tr>\n<tr>\n<th class=\"text-center\" scope=\"row\">10</th>\n<td class=\"nowrap text-center\">mars</td>\n<td class=\"nowrap text-center\">9 mars 2019 </td>\n<td class=\"nowrap text-center\">7  mars 2020</td>\n<td class=\"nowrap text-center\">13\u00a0mars 2021</td>\n</tr>\n<tr>\n<th class=\"text-center\" scope=\"row\">11</th>\n<td class=\"nowrap text-center\">mars</td>\n<td class=\"nowrap text-center\">16 mars 2019 </td>\n<td class=\"nowrap text-center\">14 mars 2020</td>\n<td class=\"nowrap text-center\">20\u00a0mars 2021</td>\n</tr>\n<tr>\n<th class=\"text-center\" scope=\"row\">12</th>\n<td class=\"nowrap text-center\">mars</td>\n<td class=\"nowrap text-center\">23 mars 2019 </td>\n<td class=\"nowrap text-center\">21 mars 2020</td>\n<td class=\"nowrap text-center\">27\u00a0mars 2021</td>\n</tr>\n<tr>\n<th class=\"text-center\" scope=\"row\">13</th>\n<td class=\"nowrap text-center\">mars</td>\n<td class=\"nowrap text-center\">30 mars 2019 </td>\n<td class=\"nowrap text-center\">28 mars 2020</td>\n<td class=\"nowrap text-center\">3\u00a0avril 2021</td>\n</tr>\n<tr>\n<th class=\"text-center\" scope=\"row\">14</th>\n<td class=\"nowrap text-center\">avril</td>\n<td class=\"nowrap text-center\">6 avril 2019 </td>\n<td class=\"nowrap text-center\">4 avril 2020</td>\n<td class=\"nowrap text-center\">10\u00a0avril 2021</td>\n</tr>\n<tr>\n<th class=\"text-center\" scope=\"row\">15</th>\n<td class=\"nowrap text-center\">avril</td>\n<td class=\"nowrap text-center\">13 avril 2019 </td>\n<td class=\"nowrap text-center\">11 avril 2020</td>\n<td class=\"nowrap text-center\">17\u00a0avril 2021</td>\n</tr>\n<tr>\n<th class=\"text-center\" scope=\"row\">16</th>\n<td class=\"nowrap text-center\">avril</td>\n<td class=\"nowrap text-center\">20 avril 2019 </td>\n<td class=\"nowrap text-center\">18 avril 2020</td>\n<td class=\"nowrap text-center\">24\u00a0avril 2021</td>\n</tr>\n<tr>\n<th class=\"text-center\" scope=\"row\">17</th>\n<td class=\"nowrap text-center\">avril</td>\n<td class=\"nowrap text-center\">27 avril 2019 </td>\n<td class=\"nowrap text-center\">25 avril 2020</td>\n<td class=\"nowrap text-center\">1\u00a0mai 2021</td>\n</tr>\n<tr>\n<th class=\"text-center\" scope=\"row\">18</th>\n<td class=\"nowrap text-center\">mai</td>\n<td class=\"nowrap text-center\">4 mai 2019 </td>\n<td class=\"nowrap text-center\">2 mai 2020</td>\n<td class=\"nowrap text-center\">8\u00a0mai 2021</td>\n</tr>\n<tr>\n<th class=\"text-center\" scope=\"row\">19</th>\n<td class=\"nowrap text-center\">mai</td>\n<td class=\"nowrap text-center\">11 mai 2019 </td>\n<td class=\"nowrap text-center\">9 mai 2020</td>\n<td class=\"nowrap text-center\">15 mai 2021</td>\n</tr>\n<tr>\n<th class=\"text-center\" scope=\"row\">20</th>\n<td class=\"nowrap text-center\">mai</td>\n<td class=\"nowrap text-center\">18 mai 2019 </td>\n<td class=\"nowrap text-center\">16 mai 2020</td>\n<td class=\"nowrap text-center\">22\u00a0mai 2021</td>\n</tr>\n<tr>\n<th class=\"text-center\" scope=\"row\">21</th>\n<td class=\"nowrap text-center\">mai</td>\n<td class=\"nowrap text-center\">25 mai 2019 </td>\n<td class=\"nowrap text-center\">23 mai 2020</td>\n<td class=\"nowrap text-center\">29\u00a0mai 2021</td>\n</tr>\n<tr>\n<th class=\"text-center\" scope=\"row\">22</th>\n<td class=\"nowrap text-center\">juin</td>\n<td class=\"nowrap text-center\">1 juin 2019 </td>\n<td class=\"nowrap text-center\">30 mai 2020</td>\n<td class=\"nowrap text-center\">5\u00a0juin 2021</td>\n</tr>\n<tr>\n<th class=\"text-center\" scope=\"row\">23</th>\n<td class=\"nowrap text-center\">juin</td>\n<td class=\"nowrap text-center\">8 juin 2019 </td>\n<td class=\"nowrap text-center\">6 juin 2020</td>\n<td class=\"nowrap text-center\">12\u00a0juin 2021</td>\n</tr>\n<tr>\n<th class=\"text-center\" scope=\"row\">24</th>\n<td class=\"nowrap text-center\">juin</td>\n<td class=\"nowrap text-center\">15 juin 2019 </td>\n<td class=\"nowrap text-center\">13 juin 2020</td>\n<td class=\"nowrap text-center\">19\u00a0juin 2021</td>\n</tr>\n<tr>\n<th class=\"text-center\" scope=\"row\">25</th>\n<td class=\"nowrap text-center\">juin</td>\n<td class=\"nowrap text-center\">22 juin 2019 </td>\n<td class=\"nowrap text-center\">20 juin 2020</td>\n<td class=\"nowrap text-center\">26\u00a0juin 2021</td>\n</tr>\n<tr>\n<th class=\"text-center\" scope=\"row\">26</th>\n<td class=\"nowrap text-center\">juin</td>\n<td class=\"nowrap text-center\"> 29 juin 2019 </td>\n<td class=\"nowrap text-center\">27 juin 2020</td>\n<td class=\"nowrap text-center\">3\u00a0juillet 2021</td>\n</tr>\n<tr>\n<th class=\"text-center\" scope=\"row\">27</th>\n<td class=\"nowrap text-center\">juillet</td>\n<td class=\"nowrap text-center\">6 juillet 2019 </td>\n<td class=\"nowrap text-center\">4 juillet 2020</td>\n<td class=\"nowrap text-center\">10\u00a0juillet 2021</td>\n</tr>\n<tr>\n<th class=\"text-center\" scope=\"row\">28</th>\n<td class=\"nowrap text-center\">juillet</td>\n<td class=\"nowrap text-center\">13 juillet 2019 </td>\n<td class=\"nowrap text-center\">11 juillet 2020</td>\n<td class=\"nowrap text-center\">17\u00a0juillet 2021</td>\n</tr>\n<tr>\n<th class=\"text-center\" scope=\"row\">29</th>\n<td class=\"nowrap text-center\">juillet</td>\n<td class=\"nowrap text-center\">20 juillet 2019 </td>\n<td class=\"nowrap text-center\">18 juillet 2020</td>\n<td class=\"nowrap text-center\">24\u00a0juillet 2021</td>\n</tr>\n<tr>\n<th class=\"text-center\" scope=\"row\">30</th>\n<td class=\"nowrap text-center\">juillet</td>\n<td class=\"nowrap text-center\">27 juillet 2019 </td>\n<td class=\"nowrap text-center\">25 juillet 2020</td>\n<td class=\"nowrap text-center\">31\u00a0juillet 2021</td>\n</tr>\n<tr>\n<th class=\"text-center\" scope=\"row\">31</th>\n<td class=\"nowrap text-center\">ao\u00fbt</td>\n<td class=\"nowrap text-center\">3 ao\u00fbt 2019 </td>\n<td class=\"nowrap text-center\">1 ao\u00fbt 2020</td>\n<td class=\"nowrap text-center\">7\u00a0ao\u00fbt 2021</td>\n</tr>\n<tr>\n<th class=\"text-center\" scope=\"row\">32</th>\n<td class=\"nowrap text-center\">ao\u00fbt</td>\n<td class=\"nowrap text-center\">10 ao\u00fbt 2019 </td>\n<td class=\"nowrap text-center\">8 ao\u00fbt 2020</td>\n<td class=\"nowrap text-center\">14\u00a0ao\u00fbt 2021</td>\n</tr>\n<tr>\n<th class=\"text-center\" scope=\"row\">33</th>\n<td class=\"nowrap text-center\">ao\u00fbt</td>\n<td class=\"nowrap text-center\">17 ao\u00fbt 2019 </td>\n<td class=\"nowrap text-center\">15 ao\u00fbt 2020</td>\n<td class=\"nowrap text-center\">21\u00a0ao\u00fbt 2021</td>\n</tr>\n<tr>\n<th class=\"text-center\" scope=\"row\">34</th>\n<td class=\"nowrap text-center\">ao\u00fbt</td>\n<td class=\"nowrap text-center\">24 ao\u00fbt 2019 </td>\n<td class=\"nowrap text-center\">22 ao\u00fbt 2020</td>\n<td class=\"nowrap text-center\">28\u00a0ao\u00fbt 2021</td>\n</tr>\n<tr>\n<th class=\"text-center\" scope=\"row\">35</th>\n<td class=\"nowrap text-center\">septembre</td>\n<td class=\"nowrap text-center\">31 ao\u00fbt 2019 </td>\n<td class=\"nowrap text-center\">29 ao\u00fbt 2020</td>\n<td class=\"nowrap text-center\">4\u00a0septembre 2021</td>\n</tr>\n<tr>\n<th class=\"text-center\" scope=\"row\">36</th>\n<td class=\"nowrap text-center\">septembre</td>\n<td class=\"nowrap text-center\">7 septembre 2019 </td>\n<td class=\"nowrap text-center\">5 septembre 2020</td>\n<td class=\"nowrap text-center\">11\u00a0septembre 2021</td>\n</tr>\n<tr>\n<th class=\"text-center\" scope=\"row\">37</th>\n<td class=\"nowrap text-center\">septembre</td>\n<td class=\"nowrap text-center\">14 septembre 2019 </td>\n<td class=\"nowrap text-center\">12 septembre 2020</td>\n<td class=\"nowrap text-center\">18\u00a0septembre 2021</td>\n</tr>\n<tr>\n<th class=\"text-center\" scope=\"row\">38</th>\n<td class=\"nowrap text-center\">septembre</td>\n<td class=\"nowrap text-center\">21 septembre 2019 </td>\n<td class=\"nowrap text-center\">19 septembre 2020</td>\n<td class=\"nowrap text-center\">25\u00a0septembre ;2021</td>\n</tr>\n<tr>\n<th class=\"text-center\" scope=\"row\">39</th>\n<td class=\"nowrap text-center\">septembre</td>\n<td class=\"nowrap text-center\">28 septembre 2019 </td>\n<td class=\"nowrap text-center\">26 septembre 2020</td>\n<td class=\"nowrap text-center\">2\u00a0octobre 2021</td>\n</tr>\n<tr>\n<th class=\"text-center\" scope=\"row\">40</th>\n<td class=\"nowrap text-center\">octobre</td>\n<td class=\"nowrap text-center\">5 octobre 2019 </td>\n<td class=\"nowrap text-center\">3 octobre 2020</td>\n<td class=\"nowrap text-center\">9\u00a0octobre 2021</td>\n</tr>\n<tr>\n<th class=\"text-center\" scope=\"row\">41</th>\n<td class=\"nowrap text-center\">octobre</td>\n<td class=\"nowrap text-center\">12 octobre 2019 </td>\n<td class=\"nowrap text-center\">10 octobre 2020</td>\n<td class=\"nowrap text-center\">16\u00a0octobre 2021</td>\n</tr>\n<tr>\n<th class=\"text-center\" scope=\"row\">42</th>\n<td class=\"nowrap text-center\">octobre</td>\n<td class=\"nowrap text-center\">19 octobre 2019 </td>\n<td class=\"nowrap text-center\">17 octobre 2020</td>\n<td class=\"nowrap text-center\">23\u00a0octobre 2021</td>\n</tr>\n<tr>\n<th class=\"text-center\" scope=\"row\">43</th>\n<td class=\"nowrap text-center\">octobre</td>\n<td class=\"nowrap text-center\">26 octobre 2019 </td>\n<td class=\"nowrap text-center\">24 octobre 2020</td>\n<td class=\"nowrap text-center\">30\u00a0octobre 2021</td>\n</tr>\n<tr>\n<th class=\"text-center\" scope=\"row\">44</th>\n<td class=\"nowrap text-center\">novembre</td>\n<td class=\"nowrap text-center\">2 novembre 2019 </td>\n<td class=\"nowrap text-center\">31 octobre 2020</td>\n<td class=\"nowrap text-center\">6\u00a0novembre 2021</td>\n</tr>\n<tr>\n<th class=\"text-center\" scope=\"row\">45</th>\n<td class=\"nowrap text-center\">novembre</td>\n<td class=\"nowrap text-center\">9 Novembre 2019 </td>\n<td class=\"nowrap text-center\">7 novembre 2020</td>\n<td class=\"nowrap text-center\">13\u00a0novembre 2021</td>\n</tr>\n<tr>\n<th class=\"text-center\" scope=\"row\">46</th>\n<td class=\"nowrap text-center\">novembre</td>\n<td class=\"nowrap text-center\">16 novembre 2019 </td>\n<td class=\"nowrap text-center\">14 novembre 2020</td>\n<td class=\"nowrap text-center\">20\u00a0novembre 2021</td>\n</tr>\n<tr>\n<th class=\"text-center\" scope=\"row\">47</th>\n<td class=\"nowrap text-center\">novembre</td>\n<td class=\"nowrap text-center\">23 novembre 2019 </td>\n<td class=\"nowrap text-center\">21 novembre 2020</td>\n<td class=\"nowrap text-center\">27\u00a0novembre 2021</td>\n</tr>\n<tr>\n<th class=\"text-center\" scope=\"row\">48</th>\n<td class=\"nowrap text-center\">d\u00e9cembre</td>\n<td class=\"nowrap text-center\">30 novembre 2019 </td>\n<td class=\"nowrap text-center\">28 novembre 2020</td>\n<td class=\"nowrap text-center\">4\u00a0d\u00e9cembre 2021</td>\n</tr>\n<tr>\n<th class=\"text-center\" scope=\"row\">49</th>\n<td class=\"nowrap text-center\">d\u00e9cembre</td>\n<td class=\"nowrap text-center\">7 d\u00e9cembre 2019 </td>\n<td class=\"nowrap text-center\">5 d\u00e9cembre 2020</td>\n<td class=\"nowrap text-center\">11\u00a0d\u00e9cembre 2021</td>\n</tr>\n<tr>\n<th class=\"text-center\" scope=\"row\">50</th>\n<td class=\"nowrap text-center\">d\u00e9cembre</td>\n<td class=\"nowrap text-center\">14 d\u00e9cembre 2019 </td>\n<td class=\"nowrap text-center\">12 d\u00e9cembre 2020</td>\n<td class=\"nowrap text-center\">18\u00a0d\u00e9cembre 2021</td>\n</tr>\n<tr>\n<th class=\"text-center\" scope=\"row\">51</th>\n<td class=\"nowrap text-center\">d\u00e9cembre</td>\n<td class=\"nowrap text-center\">21 d\u00e9cembre 2019 </td>\n<td class=\"nowrap text-center\">19 d\u00e9cembre 2020</td>\n<td class=\"nowrap text-center\">25\u00a0d\u00e9cembre 2021</td>\n</tr>\n<tr>\n<th class=\"text-center\" scope=\"row\">52</th>\n<td class=\"nowrap text-center\">d\u00e9cembre</td>\n<td class=\"nowrap text-center\">28 d\u00e9cembre 2019 </td>\n<td class=\"nowrap text-center\">26 d\u00e9cembre 2020</td>\n<td class=\"nowrap text-center\">1\u00a0janvier 2022</td>\n</tr>\n<tr>\n<th scope=\"row\" style=\"text-align: center;\">53</th>\n<td class=\"nowrap text-center\">d\u00e9cembre</td>\n<td class=\"nowrap text-center\">\u00a0</td>\n<td class=\"nowrap text-center\">2 janvier 2\u00a02021</td>\n<td class=\"nowrap text-center\">\u00a0</td>\n</tr>\n</tbody>\n</table>\n<div class=\"well\">\n<p>Pour toute question ou information additionnelle, veuillez communiquer avec nous par courriel \u00e0 <a title=\"Courriel : Division de l'industrie animale, Section de l'information sur les march\u00e9s\" href=\"mailto:aafc.redmeat-vianderouge.aac@agr.gc.ca\"> aafc.redmeat-vianderouge.aac@agr.gc.ca</a></p>\n<h2>Nos normes de service</h2>\n<p>Les normes de service jouent un r\u00f4le cl\u00e9 dans les processus de gestion de la planification, des rapports et du rendement de notre programme d'information sur le march\u00e9. Elles d\u00e9finissent clairement le niveau de rendement auquel les clients peuvent s'attendre lorsqu'ils re\u00e7oivent un service dans des circonstances normales.</p>\n<p>Visionnez les  <a title=\"Normes de service relatives aux rapports sur les animaux \u00e0 viande rouge et le b\u00e9tail\" href=\"http://www.agr.gc.ca/fra/industrie-marches-et-commerce/statistiques-et-information-sur-les-marches/par-produit-secteur/viande-rouge-et-betail/normes-de-service-relatives-aux-rapports-sur-les-animaux-a-viande-rouge-et-le-betail/?id=1480968240072\">Normes de service relatives aux rapports sur les animaux \u00e0 viande rouge et le b\u00e9tail.</a></p>\n</div>\n\r\n    "
    }
}