{
    "dcr_id": "1458223489697",
    "title": {
        "en": "Agriculture and food market intelligence \u2013 Middle East and Africa",
        "fr": "Information sur les march\u00e9s agricoles et alimentaires \u2013 Moyen-Orient et Afrique"
    },
    "modified": "2021-06-16",
    "issued": "2016-03-18",
    "templatetype": "content page 1 column",
    "page_type": "1",
    "node_id": "1458053064900",
    "dc_date_created": "2016-03-18",
    "managing_branch": "MISB",
    "parent_node_id": "1410080965335",
    "short_title": "Middle East and Africa",
    "exturl": "",
    "teamsite_location": {
        "en": "/default/main/AAFC-AAC/Internet-Internet/MISB-DGSIM/ATS-SEA/ATS-SEA-s2/WORKAREA/ATS-SEA-s2/templatedata/comm-comm/gene-gene/data/info_afr_marketintelligence_1458223489697_en",
        "fr": "/default/main/AAFC-AAC/Internet-Internet/MISB-DGSIM/ATS-SEA/ATS-SEA-s2/WORKAREA/ATS-SEA-s2/templatedata/comm-comm/gene-gene/data/info_afr_marketintelligence_1458223489697_fr"
    },
    "type_name": "sitemapinit",
    "has_dcr_id": true,
    "label": {
        "en": "Middle East and Africa",
        "fr": "Moyen-Orient et Afrique"
    },
    "breadcrumb": {
        "en": "Middle East and Africa",
        "fr": "Moyen-Orient et Afrique"
    },
    "layout_name": "content page 1 column",
    "lang": "en",
    "refaire": false,
    "meta": {
        "viewport": {
            "en": "width=device-width,initial-scale=1",
            "fr": "width=device-width, initial-scale=1"
        },
        "issued": {
            "en": "2016-03-18",
            "fr": "2016-03-18"
        },
        "modified": {
            "en": "2021-06-16",
            "fr": "2021-06-16"
        },
        "format": {
            "en": "gcformat",
            "fr": "gcformat"
        },
        "title": {
            "en": "Agriculture and food market intelligence \u2013 Middle East and Africa",
            "fr": "Information sur les march\u00e9s agricoles et alimentaires \u2013 Moyen-Orient et Afrique"
        },
        "subject": {
            "en": "market analysis;export trade",
            "fr": "commerce d'exportation;analyse de march\u00e9"
        },
        "dcterms:subject": {
            "en": "agri-food industry;agri-food products",
            "fr": "produit agro-alimentaire;industrie agro-alimentaire"
        },
        "description": {
            "en": "Access reports that discuss opportunities in the Middle East and Africa, and learn about market trends in your state or sector of interest.",
            "fr": "Acc\u00e9dez \u00e0 des rapports sur les d\u00e9bouch\u00e9s aux Moyen-Orient et Afrique et renseignez-vous sur les tendances des march\u00e9s dans l'\u00c9tat ou l'industrie qui vous int\u00e9resse."
        },
        "language": {
            "en": "eng",
            "fr": "fra"
        },
        "keywords": {
            "en": "Market Intelligence",
            "fr": "Rapports de renseignements"
        },
        "audience": {
            "en": "gcaudience",
            "fr": "gcaudience"
        },
        "type": {
            "en": "resource list",
            "fr": "liste de r\u00e9f\u00e9rence"
        },
        "creator": {
            "en": "Agriculture and Agri-Food Canada;Government of Canada",
            "fr": "Agriculture et Agroalimentaire Canada;Gouvernement du Canada"
        },
        "spatial": {
            "en": "gcregions",
            "fr": "gcregions"
        },
        "service": {
            "en": "AAFC-AAC",
            "fr": "AAFC-AAC"
        },
        "accessRights": {
            "en": "2",
            "fr": "2"
        },
        "legalName": {
            "en": "agriculture_and_agri_food_canada",
            "fr": "agriculture_et_agroalimentaire_canada"
        },
        "areaServed": {
            "en": "Canada",
            "fr": "Canada"
        }
    },
    "h1": {
        "en": "Agriculture and food market intelligence \u2013 Middle East and Africa",
        "fr": "Information sur les march\u00e9s agricoles et alimentaires \u2013 Moyen-Orient et Afrique"
    },
    "body": {
        "en": "\r\n    <section class=\"alert alert-info\">\n<h2>Find market intelligence reports faster</h2>\n<p>Access <a class=\"alert-link nowrap\" href=\"?id=1522931721523\">international market intelligence reports</a> on agriculture, food and seafood using a dynamic filtering tool.</p>\n</section>\n\n<h2>Reports by market</h2>\n\n<h3>Middle East and North Africa</h3>\n\n<ul>\n<li><a href=\"?id=1551987924625\">Competitive Trade Analysis \u2013 Agri-food and seafood trends in the Middle East and North Africa</a> <span class=\"small\">2019</span></li>\n</ul>\n\n\n<h3>Morocco</h3>\n\n<ul>\n<li><a href=\"?id=1592833233774\">Market Overview \u2013 Morocco</a> <span class=\"small\">2020</span></li>\n<li><a href=\"?id=1587126784619\">Competitive Trade Analysis \u2013 Morocco</a> <span class=\"small\">2020</span></li>\n<li><a href=\"?id=1553096398984\">Consumer Profile \u2013 Morocco</a> <span class=\"small\">2019</span></li>\n</ul>\n\n<h3>Oman</h3>\n\n<ul>\n<li><a href=\"?id=1617721858863\">Market Overview \u2013 Oman</a> <span class=\"small\">2021</span></li>\n</ul>\n\n<h3>Qatar</h3>\n\n<ul>\n<li><a href=\"?id=1617885519536\">Market Overview \u2013 Qatar</a> <span class=\"small\">2021</span></li>\n</ul>\n\n\n<h3>Saudi Arabia</h3>\n<ul>\n<li><a href=\"?id=1615817208954\">Market Overview \u2013 Saudi Arabia</a> <span class=\"small\">2021</span></li>\n<li><a href=\"?id=1615306544321\">Foodservice profile \u2013 Saudi Arabia</a> <span class=\"small\">2021</span></li>\n</ul>\n\n<h3>United Arab Emirates</h3>\n\n<ul>\n<li><a href=\"?id=1622557503682\">Sector Trend Analysis \u2013 Pet Food Trends in the United Arab Emirates</a> <span class=\"small\">2021</span></li>\n<li><a href=\"?id=1587124094257\">Foodservice profile \u2013 United Arab Emirates</a> <span class=\"small\">2020</span></li>\n<li><a href=\"?id=1585572092841\">Market Overview - United Arab Emirates</a> <span class=\"small\">2020</span></li>\n<li><a href=\"?id=1556139123351\">Consumer Profile \u2013 The United Arab Emirates</a> <span class=\"small\">2019</span></li>\n</ul>\n\n<h2>Videos on agri-food trade</h2>\n\n<p class=\"small mrgn-tp-md\"><a href=\"?id=1500045226250\"><img src=\"https://www.agr.gc.ca/resources/prod/Internet-Internet/MISB-DGSIM/ATS-SEA/images/vid-afr-gcc2-eng.png\" class=\"img-responsive text-center mrgn-bttm-sm\" alt=\"\"><br>Market Opportunity: Gulf Cooperation Council (GCC)</a><br>A highlight of key marketplace considerations.</p>\n\n<h2 class=\"mrgn-tp-lg\">More support for business</h2>\n<dl>\n<dt><a href=\"https://www.tradecommissioner.gc.ca/trade_commissioners-delegues_commerciaux/index.aspx?lang=eng\">The Canadian Trade Commissioner Service</a></dt>\n<dd>\n<p>Learn how Canada's network of Trade Commissioners can help you navigate international markets and expand your business.</p>\n<p>Access the Trade Commissioner  Service's market profiles and reports on:</p>\n<ul>\n<li><a href=\"https://www.tradecommissioner.gc.ca/sectors-secteurs/agriculture-and-processed-foods-agriculture-et-des-aliments-transformes.aspx?lang=eng&amp;_ga=2.232935574.941185074.1563462390-1655195799.1557946351\">Agriculture and processed foods</a></li>\n<li><a href=\"https://www.tradecommissioner.gc.ca/sectors-secteurs/fish-and-seafood-poissons-et-fruits-de-mer.aspx?lang=eng&amp;_ga=2.238235912.941185074.1563462390-1655195799.1557946351\">Fish and seafood</a></li>\n<li><a href=\"https://www.tradecommissioner.gc.ca/sectors-secteurs/wine-beer-and-spirits-vin-de-la-biere-et-des-spiritueux.aspx?lang=eng&amp;_ga=2.2946232.941185074.1563462390-1655195799.1557946351\">Wine, beer and spirits</a></li>\n</ul>\n</dd>\n<dt>Market intelligence services</dt>\n<dd>\n<p>We offer free services for Canadian agriculture and agri-food businesses.</p>\n<ul>\n<li>Request market intelligence: <a href=\"mailto:aafc.mas-sam.aac@canada.ca?subject=International%20market%20intelligence%20services%20and%20analysis&amp;body=Please%20describe%20how%20we%20can%20help%20you%20with%20your%20international%20market%20intelligence%20needs.&amp;cc=aafc.infoservice.aac@canada.ca\">aafc.mas-sam.aac@canada.ca</a></li>\n<li>Subscribe to receive the latest reports in your email inbox: <a href=\"mailto:aafc.infoservice.aac@canada.ca?subject=InfoService%20subscription%20for%20international%20market%20intelligence&amp;body=Please%20subscribe%20me%20to%20AAFC-AAC's%20international%20market%20intelligence%20InfoService%20emails.\">aafc.infoservice.aac@canada.ca</a></li>\n</ul>\n</dd>\n</dl>\n\r\n    ",
        "fr": "\r\n    <section class=\"alert alert-info\">\n<h2>Trouvez des rapports d'information sur les march\u00e9s plus rapidement</h2>\n<p>Consultez des <a class=\"alert-link nowrap\" href=\"?id=1522931721523\">rapports d'information sur les march\u00e9s</a> internationaux des secteurs de l'agriculture, de l'alimentation et des produits de la mer au moyen d'un outil de filtrage dynamique.</p>\n</section>\n\n<h2>Rapports par march\u00e9</h2>\n\n<h3>Arabie saoudite</h3>\n<ul>\n<li><a href=\"?id=1615817208954\">Aper\u00e7u du march\u00e9 \u2013 Arabie saoudite</a> <span class=\"small\">2021</span></li>\n<li><a href=\"?id=1615306544321\">Profil du secteur de la restauration \u2013 Arabie saoudite</a> <span class=\"small\">2021</span></li>\n</ul>\n\n<h3>\u00c9mirats arabes unis</h3>\n\n<ul>\n<li><a href=\"?id=1622557503682\">Analyse sectorielle \u2013 Tendances sur le march\u00e9 des aliments pour animaux de compagnie aux \u00c9mirats arabes uni</a> <span class=\"small\">2021</span></li>\n<li><a href=\"?id=1587124094257\">Profil du secteur de la restauration \u2013 Les \u00c9mirats arabes unis</a> <span class=\"small\">2020</span></li>\n<li><a href=\"?id=1585572092841\">Aper\u00e7u du march\u00e9 - \u00c9mirats arabes unis</a> <span class=\"small\">2020</span></li>\n<li><a href=\"?id=1556139123351\">Profil des consommateurs \u2013 \u00c9mirats arabes unis</a> <span class=\"small\">2019</span></li>\n</ul>\n\n<h3>Maroc</h3>\n\n<ul>\n<li><a href=\"?id=1592833233774\">Aper\u00e7u du march\u00e9 - Maroc</a> <span class=\"small\">2020</span></li>\n<li><a href=\"?id=1587126784619\">Analyse de la concurrence \u2013 Maroc</a> <span class=\"small\">2020</span></li>\n<li><a href=\"?id=1553096398984\">Profil des consommateurs \u2013 Maroc</a> <span class=\"small\">2019</span></li>\n</ul>\n\n<h3>Moyen-Orient et en Afrique du Nord</h3>\n\n<ul>\n<li><a href=\"?id=1551987924625\">Analyse de la concurrence \u2013 Tendances du march\u00e9 des produits agroalimentaires et des produits de la mer au Moyen-Orient et en Afrique du Nord</a> <span class=\"small\">2019</span></li>\n</ul>\n\n<h3>Oman</h3>\n<ul>\n<li><a href=\"?id=1617721858863\">Aper\u00e7u du march\u00e9 \u2013 Oman</a> <span class=\"small\">2021</span></li>\n</ul>\n\n<h3>Qatar</h3>\n<ul>\n<li><a href=\"?id=1617885519536\">Aper\u00e7u du march\u00e9 \u2013 Qatar</a> <span class=\"small\">2021</span></li>\n</ul>\n\n<h2>Vid\u00e9os sur le commerce des produits agroalimentaires</h2>\n\n<p class=\"small mrgn-tp-md\"><a href=\"?id=1500045226250\"><img src=\"https://www.agr.gc.ca/resources/prod/Internet-Internet/MISB-DGSIM/ATS-SEA/images/vid-afr-gcc-fra.png\" class=\"img-responsive text-center mrgn-bttm-sm\" alt=\"\"><br> \nD\u00e9bouch\u00e9s commerciaux au Conseil de coop\u00e9ration du Golfe (CCG)</a><br>Un aper\u00e7u des principales consid\u00e9rations relatives aux march\u00e9s.</p>\n\n<h2>Aide  suppl\u00e9mentaire pour les entreprises</h2>\n<dl>\n<dt><a href=\"https://www.deleguescommerciaux.gc.ca/trade_commissioners-delegues_commerciaux/index.aspx?lang=fra\">Le Service des d\u00e9l\u00e9gu\u00e9s commerciaux  du Canada</a></dt>\n<dd>\n<p>D\u00e9couvrez comment le r\u00e9seau de  d\u00e9l\u00e9gu\u00e9s commerciaux du Canada peut aider votre entreprise \u00e0 s'orienter sur les  march\u00e9s internationaux et \u00e0 \u00e9largir ses activit\u00e9s.</p>\n<p>Consultez les profils de march\u00e9s  et les rapports sur les march\u00e9s du Service des d\u00e9l\u00e9gu\u00e9s commerciaux aux liens  suivants\u00a0:</p>\n<ul>\n<li><a href=\"https://www.deleguescommerciaux.gc.ca/sectors-secteurs/agriculture-and-processed-foods-agriculture-et-des-aliments-transformes.aspx?lang=fra&amp;_ga=2.232935574.941185074.1563462390-1655195799.1557946351\">Agriculture et aliments transform\u00e9s</a></li><li><a href=\"https://www.deleguescommerciaux.gc.ca/sectors-secteurs/fish-and-seafood-poissons-et-fruits-de-mer.aspx?lang=fra&amp;_ga=2.238235912.941185074.1563462390-1655195799.1557946351\">Poissons et fruits de mer</a></li>\n<li><a href=\"https://www.deleguescommerciaux.gc.ca/sectors-secteurs/wine-beer-and-spirits-vin-de-la-biere-et-des-spiritueux.aspx?lang=fra&amp;_ga=2.2946232.941185074.1563462390-1655195799.1557946351\">Vins, bi\u00e8re et spiritueux</a></li>\n</ul>\n</dd>\n<dt>Services d'information sur les march\u00e9s</dt>\n<dd>\n<p>Nous offrons des services gratuits aux entreprises agricoles et agroalimentaires canadiennes.</p>\n<ul>\n<li>Pour  demander des renseignements sur les march\u00e9s\u00a0: <a class=\"nowrap\" href=\"mailto:aafc.mas-sam.aac@canada.ca?subject=Services%20et%20analyse%20de%20renseignements%20sur%20les%20march%C3%A9s%20internationaux&amp;body=Veuillez%20nous%20expliquer%20comment%20nous%20pouvons%20r%C3%A9pondre%20%C3%A0%20vos%20besoins%20en%20renseignements%20sur%20les%20march%C3%A9s%20internationaux.&amp;cc=aafc.infoservice.aac@canada.ca\">aafc.mas-sam.aac@canada.ca</a></li>\n<li>Abonnez-vous  pour recevoir les rapports les plus r\u00e9cents par courriel\u00a0: <a class=\"nowrap\" href=\"mailto:aafc.infoservice.aac@canada.ca?subject=Abonnement%20%C3%A0%20InfoService%20pour%20recevoir%20les%20renseignements%20sur%20les%20march%C3%A9s%20internationaux%20&amp;body=Veuillez%20m'ajouter%20%C3%A0%20la%20liste%20de%20diffusion%20des%20courriels%20d'InfoService%20(AAC)%20sur%20les%20march%C3%A9s%20internationaux.\">aafc.infoservice.aac@canada.ca</a></li>\n</ul>\n</dd>\n</dl>\n\r\n    "
    },
    "js": {
        "en": "",
        "fr": ""
    }
}