{
    "dcr_id": "1463575416544",
    "title": {
        "en": "Agroclimate Impact Reporter",
        "fr": "Rapports sur les impacts agroclimatiques"
    },
    "modified": "2020-06-29",
    "issued": "2016-06-17",
    "templatetype": "content page 1 column",
    "page_type": "1",
    "node_id": "1463687311552",
    "dc_date_created": "2016-06-17",
    "managing_branch": "PAB",
    "parent_node_id": "1463686976184",
    "short_title": "",
    "exturl": "",
    "teamsite_location": {
        "en": "/default/main/AAFC-AAC/Internet-Internet/Group-Ensemble/ProgServ-ProgServ/WORKAREA/ProgServ-ProgServ/templatedata/comm-comm/gene-gene/data/05/agroclimate_impact_reporter_1463575416544_en",
        "fr": "/default/main/AAFC-AAC/Internet-Internet/Group-Ensemble/ProgServ-ProgServ/WORKAREA/ProgServ-ProgServ/templatedata/comm-comm/gene-gene/data/05/agroclimate_impact_reporter_1463575416544_fr"
    },
    "type_name": "sitemapinit",
    "has_dcr_id": true,
    "label": {
        "en": "Agroclimate Impact Reporter",
        "fr": "Rapports sur les impacts agroclimatiques"
    },
    "breadcrumb": {
        "en": "Agroclimate Impact Reporter",
        "fr": "Rapports sur les impacts agroclimatiques"
    },
    "layout_name": "content page 1 column",
    "lang": "en",
    "refaire": false,
    "meta": {
        "viewport": {
            "en": "width=device-width,initial-scale=1",
            "fr": "width=device-width, initial-scale=1"
        },
        "issued": {
            "en": "2016-06-17",
            "fr": "2016-06-17"
        },
        "modified": {
            "en": "2020-06-29",
            "fr": "2020-06-29"
        },
        "format": {
            "en": "text/html",
            "fr": "text/html"
        },
        "title": {
            "en": "Agroclimate Impact Reporter",
            "fr": "Rapports sur les impacts agroclimatiques"
        },
        "subject": {
            "en": "soil assessement;technology transfer;land resources",
            "fr": "statistiques du commerce;carthame;bl\u00e9"
        },
        "dcterms:subject": {
            "en": "statistics;agriculture;geomatics",
            "fr": "transformation des aliments;horticulture;engrais"
        },
        "description": {
            "en": "DW-GS Drought Watch agroclimate_impact_reporter Agroclimate Impact Reporter. provide you with snapshots of current and historic individual impacts, as described by volunteer reporters in monthly surveys.Join the AIR Network. how to join. .",
            "fr": "DW-GS Guetter la s\u00e9cheresse Rapports sur les impacts agroclimatiques. Cartes d\u00e9riv\u00e9es des rapports sur les impacts agroclimatiques. Si vous voulez devenir b\u00e9n\u00e9vole, cliquez sur le lien."
        },
        "language": {
            "en": "eng",
            "fr": "fra"
        },
        "keywords": {
            "en": null,
            "fr": "normale.Les"
        },
        "audience": {
            "en": "gcaudience",
            "fr": "gcaudience"
        },
        "type": {
            "en": "presentation",
            "fr": "information sur la personne-ressource"
        },
        "creator": {
            "en": "Agriculture and Agri-Food Canada;Government of Canada",
            "fr": "Agriculture et Agroalimentaire Canada;Gouvernement du Canada"
        },
        "spatial": {
            "en": "gcregions",
            "fr": "gcregions"
        },
        "service": {
            "en": "AAFC-AAC",
            "fr": "AAFC-AAC"
        },
        "accessRights": {
            "en": "2",
            "fr": "2"
        },
        "legalName": {
            "en": "agriculture_and_agri_food_canada",
            "fr": "agriculture_et_agroalimentaire_canada"
        },
        "areaServed": {
            "en": "Canada",
            "fr": "Canada"
        }
    },
    "h1": {
        "en": "Agroclimate Impact Reporter",
        "fr": "Rapports sur les impacts agroclimatiques"
    },
    "js": {
        "en": "",
        "fr": ""
    },
    "body": {
        "en": "\r\n    <div class=\"mrgn-tp-md mrgn-bttm-lg brdr-bttm\">\n\n<div class=\"row\">\n<ul class=\"toc lst-spcd col-md-12 list-unstyled\">\n<li class=\"col-md-4 col-sm-6\"><span class=\"list-group-item active\">Join the Network</span></li>\n\n<li class=\"col-md-4 col-sm-6\"><span class=\"list-group-item\"><a href=\"?id=1587472882095\">Submit Impacts</a></span></li>\n\n<li class=\"col-md-4 col-sm-6 clr-lft-sm\"><span class=\"list-group-item\"><a href=\"?id=1587473139296\">View Impact Maps</a></span></li>\n\n<li class=\"col-md-4 col-sm-6\"><span class=\"list-group-item\"><a href=\"?id=1516042926178\">Learn about AIR</a></span></li>\n\n<li class=\"col-md-4 col-sm-6\"><span class=\"list-group-item\"><a href=\"?id=1587473200729\">Air Survey Assistance</a></span></li>\n\n<li class=\"col-md-4 col-sm-6\"><span class=\"list-group-item\"><a href=\"?id=1587473392817\">Contact Information</a></span></li>\n</ul>\n</div>\n</div>\n\n<h2>Join the Network</h2>\n\n<p>The Agroclimate Impact Reporter (AIR) helps to connect Agriculture and Agri-Food Canada (AAFC) with people in Canada's agricultural community. AAFC relies on its network of AIR volunteers to provide information regarding agroclimate impacts across the country.</p>\n\n<p>The AIR network provides valuable and reliable data that are mapped and used in the assessment and development of policies and programs including AgriRecovery and the Livestock Tax Deferral Provision, which can provide assistance to the industry during extreme weather and climate conditions and events.</p>\n\n<p>The AIR network is an ever-growing database of agroclimate impacts, which enables better data analysis to help identify trends and anomalies.</p>\n\n<p>The AIR survey is open during the last week of the month over the growing season (April to October) and is intended to collect weather and climate impacts on farm operations across Canada over the previous month. Survey results are made into maps and published on the Drought Watch website the first week of every month during the growing season.</p>\n\n<p>When the survey is not open, a report is available for reporting on late-breaking, one-time or interim impacts.</p>\n\n\n\n\n<p><a href=\"http://www.agr.gc.ca/ESS-SAC/sub-abon.do?lang=eng&amp;id=1429884452980\" class=\"btn btn-primary active\" role=\"button\">Join the Network</a></p>\n\n<nav>\n  <h2 class=\"wb-inv\">Previous-next document navigation - bottom</h2>\n\n<div class=\"row\">\n<div class=\"col-md-12 mrgn-lft-0 mrgn-rght-0\">\n<ul class=\"pager\">\t\n<li class=\"next\"><a href=\"?id=1587472882095\" rel=\"next\" title=\"Submit Impacts\">Next</a></li>\t\n</ul>\n</div>\n</div>\n</nav>\n\r\n    ",
        "fr": "\r\n    <div class=\"mrgn-tp-md mrgn-bttm-lg brdr-bttm\">\n\n<div class=\"row\">\n<ul class=\"toc lst-spcd col-md-12 list-unstyled\">\n<li class=\"col-md-4 col-sm-6\"><span class=\"list-group-item active\">Joignez-vous au r\u00e9seau</span></li>\n\n<li class=\"col-md-4 col-sm-6\"><span class=\"list-group-item\"><a href=\"?id=1587472882095\">Soumettre des impacts</a></span></li>\n\n<li class=\"col-md-4 col-sm-6 clr-lft-sm\"><span class=\"list-group-item\"><a href=\"?id=1587473139296\">Voir les cartes d'impact</a></span></li>\n\n<li class=\"col-md-4 col-sm-6\"><span class=\"list-group-item\"><a href=\"?id=1516042926178\">En savoir plus sur RIA</a></span></li>\n\n<li class=\"col-md-4 col-sm-6\"><span class=\"list-group-item\"><a href=\"?id=1587473200729\">Aide pour les sondages sur les RIA</a></span></li>\n\n<li class=\"col-md-4 col-sm-6\"><span class=\"list-group-item\"><a href=\"?id=1587473392817\">Coordonn\u00e9es</a></span></li>\n</ul>\n</div>\n</div>\n\n<h2>Joignez-vous au r\u00e9seau</h2>\n<p>Le syst\u00e8me des Rapports sur les impacts agroclimatiques (RIA) permet la communication entre Agriculture et Agroalimentaire Canada (AAC) et le milieu agricole du Canada. AAC se fie \u00e0 son r\u00e9seau de b\u00e9n\u00e9voles du syst\u00e8me de RIA pour obtenir des donn\u00e9es sur les impacts agroclimatiques partout au pays.</p>\n\n<p>Le r\u00e9seau des RIA fournit des donn\u00e9es pr\u00e9cieuses et fiables qui sont cartographi\u00e9es et utilis\u00e9es dans l'\u00e9valuation et l'\u00e9laboration de politiques et de programmes, dont Agri-relance et la Disposition de report de l'imp\u00f4t pour les \u00e9leveurs, ce qui peut aider l'industrie lors de conditions et ph\u00e9nom\u00e8nes climatiques et m\u00e9t\u00e9orologiques extr\u00eames.</p>\n\n<p>Le r\u00e9seau des RIA est une base de donn\u00e9es grandissante sur les impacts agroclimatiques qui permet de mieux analyser les donn\u00e9es pour relever les tendances et les anomalies.</p>\n\n<p>Le sondage RIA est ouverte au cours de la derni\u00e8re semaine du mois de la saison de croissance (d'avril \u00e0 octobre) et vise \u00e0 recueillir des renseignements relatifs aux r\u00e9percussions des conditions m\u00e9t\u00e9orologiques et climatiques sur les exploitations agricoles partout au Canada au cours du mois pr\u00e9c\u00e9dent. Les r\u00e9sultats du sondage sont convertis en cartes et publi\u00e9s sur le site Web Guetter la s\u00e9cheresse la premi\u00e8re semaine de chaque mois pendant la saison de croissance.</p>\n\n<p>Lorsque le sondage n'est pas ouverte, vous pouvez nous envoyer un rapport pour signaler des impacts de derni\u00e8re heure et des impacts ponctuels ou int\u00e9rimaires.</p>\n\n\n\n<p><a href=\"http://www.agr.gc.ca/ESS-SAC/sub-abon.do?lang=fra&amp;id=1429884452980\" class=\"btn btn-primary active\" role=\"button\">Joignez-vous au r\u00e9seau</a></p>\n\n<nav>\n  <h2 class=\"wb-inv\">Navigation du document - pr\u00e9c\u00e9dente-suivante - bas</h2>\n\n<div class=\"row\">\n<div class=\"col-md-12 mrgn-lft-0 mrgn-rght-0\">\n<ul class=\"pager\">\t\n<li class=\"next\"><a href=\"?id=1587472882095\" rel=\"next\" title=\"Soumettre des impacts\">Suivante</a></li>\t\n</ul>\n</div>\n</div>\n</nav>\n\r\n    "
    }
}