{
    "dcr_id": "1463574557847",
    "title": {
        "en": "Agroclimate Maps",
        "fr": "Cartes agroclimatiques"
    },
    "modified": "2019-05-09",
    "issued": "2016-06-17",
    "templatetype": "content page 1 column",
    "page_type": "1",
    "node_id": "1463687134694",
    "dc_date_created": "2016-06-17",
    "managing_branch": "PAB",
    "parent_node_id": "1463686976184",
    "short_title": "",
    "exturl": "",
    "teamsite_location": {
        "en": "/default/main/AAFC-AAC/Internet-Internet/Group-Ensemble/ProgServ-ProgServ/WORKAREA/ProgServ-ProgServ/templatedata/comm-comm/gene-gene/data/05/agroclimate_maps_1463574557847_en",
        "fr": "/default/main/AAFC-AAC/Internet-Internet/Group-Ensemble/ProgServ-ProgServ/WORKAREA/ProgServ-ProgServ/templatedata/comm-comm/gene-gene/data/05/agroclimate_maps_1463574557847_fr"
    },
    "type_name": "sitemapinit",
    "has_dcr_id": true,
    "label": {
        "en": "Agroclimate Maps",
        "fr": "Cartes agroclimatiques"
    },
    "breadcrumb": {
        "en": "Agroclimate Maps",
        "fr": "Cartes agroclimatiques"
    },
    "layout_name": "content page 1 column",
    "lang": "en",
    "refaire": false,
    "meta": {
        "viewport": {
            "en": "width=device-width,initial-scale=1",
            "fr": "width=device-width, initial-scale=1"
        },
        "issued": {
            "en": "2016-06-17",
            "fr": "2016-06-17"
        },
        "modified": {
            "en": "2019-05-09",
            "fr": "2019-05-09"
        },
        "format": {
            "en": "text/html",
            "fr": "text/html"
        },
        "title": {
            "en": "Agroclimate Maps",
            "fr": "Cartes agroclimatiques"
        },
        "subject": {
            "en": "architectural heritage;soil assessement",
            "fr": "statistiques du commerce;produits avicoles;volailles-march\u00e9"
        },
        "dcterms:subject": {
            "en": "architecture;agriculture;geomatics",
            "fr": "herbier;terre agricole;engrais"
        },
        "description": {
            "en": "DW-GS Drought Watch agroclimate_maps Agroclimate Maps. historic agroclimate conditions. Find out. how the maps are produced.",
            "fr": "DW-GS Guetter la s\u00e9cheresse Cartes agroclimatiques. avril au 30 juin 2015 a \u00e9t\u00e9 r\u00e9alis\u00e9e; aucune erreur n'ayant \u00e9t\u00e9 relev\u00e9e, aucun changement n'a d\u00fb \u00eatre apport\u00e9 aux documents cartographiques.Voir les cartes des conditions agroclimatiques au Canada.conditions agroclimatiques actuelles. ."
        },
        "language": {
            "en": "eng",
            "fr": "fra"
        },
        "keywords": {
            "en": "agroclimatemaps;required.View static",
            "fr": null
        },
        "audience": {
            "en": "gcaudience",
            "fr": "gcaudience"
        },
        "type": {
            "en": "media release",
            "fr": "\u00e9valuation"
        },
        "creator": {
            "en": "Agriculture and Agri-Food Canada;Government of Canada",
            "fr": "Agriculture et Agroalimentaire Canada;Gouvernement du Canada"
        },
        "spatial": {
            "en": "gcregions",
            "fr": "gcregions"
        },
        "service": {
            "en": "AAFC-AAC",
            "fr": "AAFC-AAC"
        },
        "accessRights": {
            "en": "2",
            "fr": "2"
        },
        "legalName": {
            "en": "agriculture_and_agri_food_canada",
            "fr": "agriculture_et_agroalimentaire_canada"
        },
        "areaServed": {
            "en": "Canada",
            "fr": "Canada"
        }
    },
    "h1": {
        "en": "Agroclimate Maps",
        "fr": "Cartes agroclimatiques"
    },
    "js": {
        "en": "",
        "fr": ""
    },
    "body": {
        "en": "\r\n    <!--div class=\"alert alert-info\">\n   <p>Note the addition of a new map product -- Standardized Precipitation Evapotranspiration Index (SPEI) maps are now available under current agroclimate conditions.</p>\n</div-->\n\n\n<p>View static maps of agroclimate conditions in Canada:</p>\n\n<ul>\n<li><a href=\"http://www.agr.gc.ca/DW-GS/current-actuelles.jspx?lang=eng&amp;jsEnabled=true\">current agroclimate conditions</a></li>\n<li><a href=\"http://www.agr.gc.ca/DW-GS/historical-historiques.jspx?lang=eng&amp;jsEnabled=true\">historic agroclimate conditions</a></li>\n</ul>\n\n<p>Explore the maps using an interactive application</p>\n\n<ul>\n<li><a href=\"http://www.agr.gc.ca/atlas/agclimate?lang=en\">agroclimate interactive mapping application</a>\n<p>Note: you can access digital datasets on open data by selecting 'About' in the application.</p></li>\n</ul>\n\n<p>Find out how the maps are produced: <a href=\"?id=1463576686512\">About the agroclimate map production process</a>.</p>\n\n<p>See when the maps are produced: <a href=\"?id=1488997264433\">Agroclimate map production schedule</a>.</p>\n\r\n    ",
        "fr": "\r\n    <!--div class=\"alert alert-info\">\n   <p>Veuillez prendre note de l'ajout d'un nouveau produit de cartes agroclimatiques: les cartes d'indice de pr&eacute;cipitations et d&rsquo;&eacute;vapotranspiration normalis&eacute; (IPEN) sont maintenant disponibles.</p>\n</div-->\n\n<p>Voir les cartes des conditions agroclimatiques au Canada.</p>\n\n<ul>\n<li><a href=\"http://www.agr.gc.ca/DW-GS/current-actuelles.jspx?lang=fra&amp;jsEnabled=true\">conditions agroclimatiques actuelles</a></li>\n<li><a href=\"http://www.agr.gc.ca/DW-GS/historical-historiques.jspx?lang=fra\">conditions agroclimatiques historiques</a></li>\n</ul>\n\n<p>Explorez les cartes \u00e0 l'aide d'une application interactive</p>\n\n<ul>\n<li><a href=\"http://www.agr.gc.ca/atlas/agclimate?lang=fr\">application de cartographie interactive agroclimatique</a>\n<p>Remarque\u00a0: vous pouvez acc\u00e9der aux jeux de donn\u00e9es num\u00e9riques sur des donn\u00e9es ouvertes en s\u00e9lectionnant \u00ab\u00a0\u00c0 propos\u00a0\u00bb dans l'application.</p></li>\n</ul>\n\n<p>Apprenez comment les cartes sont produites\u00a0: <a href=\"?id=1463576686512\">\u00c0 propos du processus des cartes agroclimatiques</a>.</p>\n\n<p>D\u00e9couvrez quand les cartes sont produites\u00a0 <a href=\"?id=1488997264433\">Le calendrier de production de cartes agroclimatiques</a>.</p>\n\r\n    "
    }
}