{
    "dcr_id": "1503000001844",
    "title": {
        "en": "Dairy animal genetics",
        "fr": "G\u00e9n\u00e9tique d'animaux laitiers"
    },
    "modified": "2021-06-21",
    "issued": "2019-09-24",
    "templatetype": "content page 1 column",
    "page_type": "1",
    "node_id": "1502983520156",
    "dc_date_created": "2019-09-24",
    "managing_branch": "DAIRY",
    "parent_node_id": "1502976443897",
    "short_title": "",
    "exturl": "",
    "teamsite_location": {
        "en": "/default/main/AAFC-AAC/CDIC-CCDL/WORKAREA/CDIC-CCDL/templatedata/comm-comm/gene-gene/data/08/dairy_animal_genetics_1503000001844_en",
        "fr": "/default/main/AAFC-AAC/CDIC-CCDL/WORKAREA/CDIC-CCDL/templatedata/comm-comm/gene-gene/data/08/dairy_animal_genetics_1503000001844_fr"
    },
    "type_name": "sitemapinit",
    "has_dcr_id": true,
    "label": {
        "en": "Dairy animal genetics",
        "fr": "G\u00e9n\u00e9tique d'animaux laitiers"
    },
    "breadcrumb": {
        "en": "Dairy animal genetics",
        "fr": "G\u00e9n\u00e9tique d'animaux laitiers"
    },
    "layout_name": "content page 1 column",
    "lang": "en",
    "refaire": false,
    "meta": {
        "viewport": {
            "en": "width=device-width, initial-scale=1",
            "fr": "width=device-width, initial-scale=1"
        },
        "issued": {
            "en": "2019-09-24",
            "fr": "2019-09-24"
        },
        "modified": {
            "en": "2021-06-21",
            "fr": "2021-06-21"
        },
        "format": {
            "en": "gcformat",
            "fr": "gcformat"
        },
        "title": {
            "en": "Dairy animal genetics",
            "fr": "G\u00e9n\u00e9tique d'animaux laitiers"
        },
        "subject": {
            "en": "aafcsubject",
            "fr": "aafcsubject"
        },
        "dcterms.subject": {
            "en": "dairy industry",
            "fr": "industrie laiti\u00e8re"
        },
        "description": {
            "en": "Statistics on dairy animal genetics in Canada.",
            "fr": "Statistiques sur la g\u00e9n\u00e9tique d'animaux laitiers  au Canada.\n"
        },
        "language": {
            "en": "eng",
            "fr": "fra"
        },
        "keywords": {
            "en": null,
            "fr": null
        },
        "audience": {
            "en": "gcaudience",
            "fr": "gcaudience"
        },
        "type": {
            "en": "statistics",
            "fr": "statistiques"
        },
        "creator": {
            "en": "Agriculture and Agri-Food Canada",
            "fr": "Agriculture et Agroalimentaire Canada"
        },
        "spatial": {
            "en": "gcregions",
            "fr": "gcregions"
        }
    },
    "h1": {
        "en": "Dairy animal genetics",
        "fr": "G\u00e9n\u00e9tique d'animaux laitiers"
    },
    "js": {
        "en": "<script>\n  window.dataLayer = window.dataLayer || [];\n  function gtag(){dataLayer.push(arguments);}\n  gtag('js', new Date());\n\n  gtag('config', 'UA-153894949-1');\n</script>",
        "fr": "<script>\n  window.dataLayer = window.dataLayer || [];\n  function gtag(){dataLayer.push(arguments);}\n  gtag('js', new Date());\n\n  gtag('config', 'UA-153894949-1');\n</script>"
    },
    "body": {
        "en": "\r\n    \n\n\n\n<p>Statistics on dairy animal genetics in Canada.</p>\n\n<ul>\n<li><a href=\".../eng/dairy-statistics-and-market-information/dairy-animal-genetics/dairy-animal-registrations/?id=1503081503137\" title=\"Dairy Cattle Registrations\">Dairy Animal Registrations</a></li>\n<li>Milk Recording\n<ul>\n     <li><a href=\".../eng/dairy-statistics-and-market-information/dairy-animal-genetics/enrollments-on-milk-recording/?id=1502475964093\" title=\"Enrollments On Milk Recording\">Enrollments on Milk Recording</a></li>\n     <li><a href=\".../eng/dairy-statistics-and-market-information/dairy-animal-genetics/average-milk-production-by-breed/?id=1502476121954\" title=\"Average Milk Production by Breed\">Average Milk Production by Breed</a></li>\n</ul>\n</li>\n<li><a href=\".../eng/dairy-statistics-and-market-information/dairy-animal-genetics/average-auction-price-for-purebred-cows/?id=1502476803400\" title=\"Purebred Auction Average Prices\">Purebred Auction Average Prices</a></li>\n<li><a href=\".../eng/dairy-statistics-and-market-information/dairy-animal-genetics/artificial-insemination-sire-usage/?id=1502479033500\" title=\"Artificial Insemination Sire Usage\">Artificial Insemination Sire Usage</a></li>\n<li><a href=\".../eng/dairy-statistics-and-market-information/dairy-animal-genetics/culling-and-replacement-rates/?id=1502475693224\" title=\"Culling Rates\">Culling Rates</a></li>\n</ul>\n\n<div class=\"well\">                                            \n<p>If you have any questions or require additional information, please send an e-mail to <a href=\"mailto:aafc.cdic-ccil.aac@agr.gc.ca\" title=\"Email: Animal Industry Division - Market Information Section\"> aafc.cdic-ccil.aac@agr.gc.ca</a></p>                                               \n</div>                                   \n<div class=\"clearfix\"></div>        \n\n\r\n    ",
        "fr": "\r\n    \n\n\n\n<p>Statistiques sur la g\u00e9n\u00e9tique d'animaux laitiers  au Canada.</p>\n\n<ul>\n  <li><a href=\".../fra/statistiques-et-information-sur-les-marches-laitieres/genetique-d-animaux-laitiers/enregistrements-des-animaux-laitiers/?id=1503081503137\" title=\"Enregistrements des bovins laitiers\">Enregistrements des animaux laitiers</a></li>\n  <li>Contr\u00f4le laitier\n<ul>\n  <li> <a href=\".../fra/statistiques-et-information-sur-les-marches-laitieres/genetique-d-animaux-laitiers/inscriptions-aux-programmes-de-controle-laitier/?id=1502475964093\" title=\"inscriptions aux programmes de contr\u00f4le laitier\">Inscriptions aux programmes de contr\u00f4le laitier</a></li>\n  <li><a href=\".../fra/statistiques-et-information-sur-les-marches-laitieres/genetique-d-animaux-laitiers/production-moyenne-de-lait-par-race/?id=1502476121954\" title=\"Production moyenne de lait par race\">Production moyenne de lait par race</a> </li>\n  </ul>\n  </li>\n<li><a href=\".../fra/statistiques-et-information-sur-les-marches-laitieres/genetique-d-animaux-laitiers/prix-moyen-des-bovins-de-race-pure-vendus-aux-encans/?id=1502476803400\" title=\"Prix moyens des animaux de race vendus aux encans\">Prix moyens des animaux de race vendus aux encans</a></li>\n<li><a href=\".../fra/statistiques-et-information-sur-les-marches-laitieres/genetique-d-animaux-laitiers/utilisation-de-taureaux-d-insemination-artificielle/?id=1502479033500\" title=\"Utilisation de taureaux d'ins\u00e9mination artificielle\">Utilisation de taureaux d'ins\u00e9mination artificielle</a></li>\n<li><a href=\".../fra/statistiques-et-information-sur-les-marches-laitieres/genetique-d-animaux-laitiers/taux-de-reforme-et-de-remplacement/?id=1502475693224\" title=\"Taux de r\u00e9forme\">Taux de r\u00e9forme</a></li>\n</ul>\n\n<div class=\"well\">                                            \n<p>Pour toute question ou information additionnelle, veuillez communiquer avec nous par courriel \u00e0 <a title=\"Courriel : Division de l'industrie animale, Section de l'information sur les march\u00e9s\" href=\"mailto:aafc.cdic-ccil.aac@agr.gc.ca\"> aafc.cdic-ccil.aac@agr.gc.ca</a></p>                                   \n</div>                                   \n<div class=\"clearfix\"></div>\n\n\r\n    "
    }
}