{
    "dcr_id": "1503082953507",
    "title": {
        "en": "Acts, Regulations, Codes and Standards",
        "fr": "Lois, r\u00e8glements, codes et normes"
    },
    "modified": "2021-06-25",
    "issued": "2017-12-01",
    "templatetype": "content page 1 column",
    "page_type": "1",
    "node_id": "1502994308086",
    "dc_date_created": "2017-12-01",
    "managing_branch": "DAIRY",
    "parent_node_id": "1425329036816",
    "short_title": "",
    "exturl": "https://dairyinfo.gc.ca/eng/acts-regulations-codes-and-standards/?id=1503082953507",
    "teamsite_location": {
        "en": "/default/main/AAFC-AAC/CDIC-CCDL/WORKAREA/CDIC-CCDL/templatedata/comm-comm/gene-gene/data/08/acts_regulations_standards_1503082953507_en",
        "fr": "/default/main/AAFC-AAC/CDIC-CCDL/WORKAREA/CDIC-CCDL/templatedata/comm-comm/gene-gene/data/08/acts_regulations_standards_1503082953507_fr"
    },
    "type_name": "sitemapinit",
    "has_dcr_id": true,
    "label": {
        "en": "Acts, Regulations, Codes and Standards",
        "fr": "Lois, r\u00e8glements, codes et normes"
    },
    "breadcrumb": {
        "en": "Acts, Regulations, Codes and Standards",
        "fr": "Lois, r\u00e8glements, codes et normes"
    },
    "layout_name": "content page 1 column",
    "lang": "en",
    "refaire": false,
    "meta": {
        "viewport": {
            "en": "width=device-width, initial-scale=1",
            "fr": "width=device-width, initial-scale=1"
        },
        "issued": {
            "en": "2017-12-01",
            "fr": "2017-12-01"
        },
        "modified": {
            "en": "2021-06-25",
            "fr": "2021-06-25"
        },
        "format": {
            "en": "gcformat",
            "fr": "gcformat"
        },
        "title": {
            "en": "Acts, Regulations, Codes and Standards",
            "fr": "Lois, r\u00e8glements, codes et normes"
        },
        "subject": {
            "en": "aafcsubject",
            "fr": "aafcsubject"
        },
        "dcterms.subject": {
            "en": "dairy industry",
            "fr": "industrie laiti\u00e8re"
        },
        "description": {
            "en": "Canada's federal and provincial dairy regulations, as well as other regulations related to the dairy sector. This section also has useful links to related United States dairy information and Codex Standards for milk and milk products.\n",
            "fr": "La r\u00e9glementation f\u00e9d\u00e9rale et provinciale du Canada, ainsi que d'autre r\u00e9glementation pertinente au secteur laitier. Cette section contient aussi des liens utiles pertinents \u00e0 l'information laiti\u00e8re des \u00c9tats-Unis et Normes Codex pour le lait et les produits laiters.\n"
        },
        "language": {
            "en": "eng",
            "fr": "fra"
        },
        "keywords": {
            "en": null,
            "fr": null
        },
        "audience": {
            "en": "gcaudience",
            "fr": "gcaudience"
        },
        "type": {
            "en": "legislation and regulations",
            "fr": "l\u00e9gislation et r\u00e9glements"
        },
        "creator": {
            "en": "Agriculture and Agri-Food Canada",
            "fr": "Agriculture et Agroalimentaire Canada"
        },
        "spatial": {
            "en": "gcregions",
            "fr": "gcregions"
        }
    },
    "h1": {
        "en": "Acts, Regulations, Codes and Standards",
        "fr": "Lois, r\u00e8glements, codes et normes"
    },
    "js": {
        "en": "<script>\n  window.dataLayer = window.dataLayer || [];\n  function gtag(){dataLayer.push(arguments);}\n  gtag('js', new Date());\n\n  gtag('config', 'UA-153894949-1');\n</script>",
        "fr": "<script>\n  window.dataLayer = window.dataLayer || [];\n  function gtag(){dataLayer.push(arguments);}\n  gtag('js', new Date());\n\n  gtag('config', 'UA-153894949-1');\n</script>"
    },
    "body": {
        "en": "\r\n    \n\n\n\n<p>Canada's federal and provincial dairy regulations, as well as other regulations related to the dairy sector. This section also has useful links to related United States dairy information and Codex Standards for milk and milk products.</p>\n\n<div class=\"wb-tabs\">\n<div class=\"tabpanels\">\n<details id=\"details-panel1\">\n<summary>Canada</summary>\n\n<h2>Dairy Regulations and Codes</h2>\n\n<h3>National dairy code</h3>\n<p>National Dairy Code - Part I (Revisions approved September 2015)<br>\n<a href=\".../eng/acts-regulations-and-standards/canadian-dairy-regulations-and-codes-of-practices/national-dairy-code-part-i/?id=1503084167796\" title=\"National Dairy Code - Part I, Seventh Edition (Revisions Approved September, 2015) in XHTML Format\">XHTML</a>, \n<a title=\"Upload portable document version\" href=\"/resources/prod/dairy/pdf/dairy_code_sept_2015_I_e.pdf\"><abbr title=\" document portable\" lang=\"en\" xmlns:ns1=\"\" ns1:ns1:ns1:xml:lang=\"en\">PDF</abbr> (471 KB) </a></p>\n\n<p><span class=\"background-accent\">Automatic Milking System Guidelines</span><br>\n<a href=\"/eng/acts-regulations-codes-and-standards/automatic-milking-system-guidelines/?id=1591199898715\" title=\"Automatic Milking System Guidelines in XHTML Format\">XHTML</a>, \n<a title=\"Upload portable document version\" href=\"/resources/prod/dairy/pdf/ams_guidelines_final-june_2020.pdf\"><abbr title=\" document portable\" lang=\"en\" xmlns:ns1=\"\" ns1:ns1:ns1:xml:lang=\"en\">PDF</abbr> (471 KB) </a></p>\n\n<p><span class=\"background-accent\">National Dairy Code - Part II and III (July, 2005)</span><br>\n<a href=\"/eng/acts-regulations-and-standards/canadian-dairy-regulations-and-codes-of-practices/national-dairy-code-part-ii-and-iii/?id=1503345506402\" title=\"National Dairy Code - Part II and III (July, 2005) in XHTML Format\">XHTML</a>, \n<a title=\"Upload portable document version\" href=\"/resources/prod/dairy/pdf/National_Dairy_Code_Part_II-III_(2005)_e.pdf\"><abbr title=\" document portable\" lang=\"en\" xmlns:ns1=\"\" ns1:ns1:ns1:xml:lang=\"en\">PDF</abbr> (471 KB) </a></p>\n\n<h4>Interpretative Guidelines</h4>\n\n<ul>\n\n<li>Interpretative Guidelines for the Production Sector<br>\n\n<a href=\".../eng/acts-regulations-and-standards/canadian-dairy-regulations-and-codes-of-practices/interpretative-guidelines-for-the-production-sector/?id=1503346062550\" title=\"Interpretive Guidelines for the Production Sector in XHTML format\">XHTML</a>, \n<a title=\"Upload portable document version\" href=\"/resources/prod/dairy/pdf/Production_interpretive_Guidelines_e.pdf\"><abbr title=\" document portable\" lang=\"en\" xmlns:ns1=\"\" ns1:ns1:ns1:xml:lang=\"en\">PDF</abbr> (471 KB) </a>\n\n</li>\n<li>Interpretative Guidelines for the Processing Sector<br>\n<a href=\".../eng/acts-regulations-and-standards/canadian-dairy-regulations-and-codes-of-practices/interpretative-guidelines-for-the-processing-sector/?id=1503346562617\" title=\"Interpretive Guidelines for the Processing Sector in XHTML format\">XHTML</a>, \n<a title=\"Upload portable document version\" href=\"/resources/prod/dairy/pdf/Interpretive_Guidelines_Processing_e.pdf\"><abbr title=\" document portable\" lang=\"en\" xmlns:ns1=\"\" ns1:ns1:ns1:xml:lang=\"en\">PDF</abbr> (471 KB) </a>\n\n</li>\n</ul>\n\n\n<h3>Code of practice - Animal Care</h3>\n<ul>\n<li><a rel=\"external\" href=\"http://www.nfacc.ca/codes-of-practice/dairy-cattle\">Code of Practice for the Care and Handling of Dairy Cattle</a></li></ul>\n\n<h3>National Regulations</h3>\n<ul>\n<li><a rel=\"external\" href=\"https://laws-lois.justice.gc.ca/eng/acts/s-1.1/index.html\" title=\"Link to the Safe Food for Canadians Act on the Government of Canada's Justice Laws Website;\">Safe Food for Canadians Act</a></li>\n\n<li><a rel=\"external\" href=\"http://laws-lois.justice.gc.ca/eng/regulations/SOR-94-466/page-1.html\" title=\"Link to the Dairy Products Marketing Regulations on the Government of Canada's Justice Laws Website;\">Dairy Products Marketing Regulations</a></li>\n\n<li><a rel=\"external\" href=\"http://www.hc-sc.gc.ca/fn-an/legislation/acts-lois/act-loi_reg-eng.php\" title=\"Link to the Food and Drug Regulations on the Health Canada Website\">Food and Drug Regulations;</a></li>\n\n<li><a rel=\"external\" href=\"http://laws-lois.justice.gc.ca/eng/acts/a-6/index.html\" title=\"Link to the Agricultural Products Marketing Act on the Government of Canada Justice Laws Website\">Agricultural Products Marketing Act</a>.</li>\n\n<li><a rel=\"external\" href=\"http://publications.gc.ca/site/eng/9.854645/publication.html\" title=\"Organic Production Systems: General Principals and Management Standards / Permitted Substances List\">Organic Production Systems: General Principals and Management Standards / Permitted Substances List</a></li>\n\n<li><a rel=\"external\" href=\"http://laws-lois.justice.gc.ca/eng/acts/C-15/\" title=\"`Link to the Canadai Dairy Commission Act on the Government of Canada justice Laws Website\">Canadian Dairy Commission Act</a></li>\n</ul>\n\n<h3>Provincial Regulations</h3>\n\n<h4>British Columbia</h4>\n<ul>\n<li><a rel=\"external\" href=\"http://www.bclaws.ca/EPLibraries/bclaws_new/document/ID/freeside/00_96330_01\" title=\"Link to British Columbia Natural Product Marketing Act\">Natural Products Marketing (BC) Act</a></li>\n<li><a rel=\"external\" href=\"https://bcmilk.com/about/consolidated-order/\" title=\"Link to British Columbia Milk Marketing Board Consolidated Order\">British Columbia Milk Marketing Board Consolidated Order</a></li>\n<li><a rel=\"external\" href=\"http://www.bclaws.ca/EPLibraries/bclaws_new/document/ID/freeside/00_96289_01\" title=\"British Columbia Milk Industry Act\">British Columbia Milk Industry Act</a></li>\n</ul>\n\n<h4>Alberta</h4>\n<ul>\n<li><a rel=\"external\" href=\"http://www.qp.alberta.ca/1266.cfm?page=D02.cfm&amp;leg_type=Acts&amp;isbncln=9780779752287&amp;display=html\" title=\"Dairy industry Act\">Dairy Industry Act</a></li>\n<li><a rel=\"external\" href=\"http://www.qp.alberta.ca/1266.cfm?page=1999_139.cfm&amp;leg_type=Regs&amp;isbncln=9780779814145&amp;display=html\" title=\"Dairy industry Regulation\">Dairy Industry Regulations</a></li>\n</ul>\n\n\n<h4>Saskatchewan</h4>\n\n<ul>\n<li><a rel=\"external\" href=\"https://publications.saskatchewan.ca/api/v1/products/9452/formats/14303/download\">The Agri-Food Act</a></li>\n\n<li><a rel=\"external\" href=\"https://publications.saskatchewan.ca/api/v1/products/374/formats/389/download\">The Animal Products Act</a></li>\n\n<li><a rel=\"external\" href=\"http://www.qp.gov.sk.ca/documents/English/Regulations/Regulations/A15-21R12.pdf\" title=\"Link to the Saskatchewan Milk Marketing Plan Regulation on the Government of Saskatchewan Website\">Milk Marketing Plan Regulations</a></li>\n\n<li><a rel=\"external\" href=\"https://publications.saskatchewan.ca/api/v1/products/72386/formats/80739/download\" title=\"Link to the Saskatchewan The Milk Compositional Standards Regulations on the Government of Saskatchewan Website\">The Milk Compositional Standards Regulations</a></li>\n\n<li><a rel=\"external\" href=\"https://publications.saskatchewan.ca/api/v1/products/91912/formats/108856/download\">Provincial Milk Plant Standards</a></li>\n\n<li><a rel=\"external\" href=\"https://publications.saskatchewan.ca/api/v1/products/27894/formats/35000/download\" title=\"Link to the Food Safety Regulation\">The Food Safety Regulations</a></li>\n\n<li><a rel=\"external\" href=\"http://www.saskmilk.ca/about-us/regulations-acts-orders/\">Saskatchewan Milk Marketing Board Orders</a></li>\n\n<li><a rel=\"external\" href=\"file:///C:/Users/potvinr/Downloads/P37-1.pdf\" title=\"Link to the Public Health Act in PDF format\">The Public Health Act, 1994</a></li>\n\n\n</ul>\n\n<h4>Manitoba</h4>\n<ul>\n<li><a rel=\"external\" href=\"http://web2.gov.mb.ca/laws/statutes/ccsm/d010e.php\" title=\"Link to the Manitoba Dairy Act on the Government of Manitoba website\">Manitoba Dairy Act</a></li>\n\n<li><a rel=\"external\" href=\"http://web2.gov.mb.ca/laws/regs/current/_pdf-regs.php?reg=203/87%20R\" title=\"Link to the Manitoba Dairy Regulation on the Government of Manitoba Website\">Manitoba Dairy Regulations</a></li>\n\n<li><a rel=\"external\" href=\"http://web2.gov.mb.ca/laws/statutes/ccsm/f047e.php\" title=\"Link to the Manitoba Farm Products Marketing Act on the Government of Manitoba website\">Farm Products Marketing Act</a></li>\n\n<li><a rel=\"external\" href=\"http://web2.gov.mb.ca/laws/regs/annual/2004/089.pdf\" title=\"Link to the Dairy Farmers of Manitoba Marketing Plan Regulation on the Government of Manitoba's Website\">Dairy Farmers of Manitoba Marketing Plan Regulation</a></li>\n</ul>\n\n<h4>Ontario</h4>\n<ul>\n<li><a rel=\"external\" href=\"https://www.ontario.ca/laws/statute/90m12\" title=\"Ontario Milk Act\">Ontario Milk Act</a></li>\n<li><a rel=\"external\" href=\"https://www.canlii.org/en/on/laws/regu/o-reg-121-98/latest/o-reg-121-98.html\" title=\"Administration and Enforcement Regulations of the Raw Milk and Cream Quality Progra\">Administration and Enforcement Regulations of the Raw Milk and Cream Quality Program (Reg.121/98)</a></li>\n<li> <a rel=\"external\" href=\"https://www.canlii.org/en/on/laws/regu/rro-1990-reg-753/latest/rro-1990-reg-753.html?searchUrlHash=AAAAAQAHcmVnIDc1MwAAAAAB&amp;resultIndex=1\" title=\"Grades, Standards, Designations, Classes, Packing and Marking (\">Grades, Standards, Designations, Classes, Packing and Marking (Reg. 753)</a></li>\n\n\n<li><a rel=\"external\" href=\"https://www.canlii.org/en/on/laws/regu/rro-1990-reg-761/latest/rro-1990-reg-761.html?searchUrlHash=AAAAAQAhbWlsayBhbmQgbWlsayBwcm9kdWN0cyAocmVnLiA3NjEpAAAAAAE&amp;resultIndex=2\" title=\"Milk and Milk Products\">Milk and Milk Products (Reg. 761)</a></li>\n\n\n<li><a href=\"https://www.ontario.ca/laws/statute/90f09\" title=\"Farms Products Marketing Commission Act\">Farms Products Marketing Commission Act</a></li>\n</ul>\n\n\n<h4>Quebec</h4>\n<ul>\n<li><a rel=\"external\" href=\"http://www.canlii.org/en/qc/laws/regu/rrq-c-p-29-r-1/latest/rrq-c-p-29-r-1.html\" title=\"Regulation respecting food\">Regulation respecting food, R.R.Q. 1981, c. P-29, r.1 (Chapter 11: DAIRY PRODUCTS AND DAIRY PRODUCT SUBSTITUTES)</a></li>\n<li><a rel=\"external\" href=\"http://www.canlii.org/en/qc/laws/stat/rsq-c-p-29/latest/rsq-c-p-29.html\" title=\"Food Products Act\">Food products act (R.S.Q., chapter\u00a0P-29)</a></li>\n</ul>\n\n<h4>New Brunswick</h4>\n<ul>\n<li><a rel=\"external\" href=\"http://www.canlii.org/en/nb/laws/regu/nb-reg-85-144/latest/nb-reg-85-144.html\" title=\"&gt;Dairy Products Act \u2013 General Regulations\">Dairy Products Act \u2013 General Regulations</a></li>\n<li><a rel=\"external\" href=\"http://laws.gnb.ca/en/ShowTdm/cs/N-1.2//\" title=\"Dairy Products Act \u2013 Milk Quality Regulations\">Natural Products Act \u2013 Milk Quality Regulations</a></li>\n<li><a rel=\"external\" href=\"http://www.canlii.org/en/nb/laws/regu/nb-reg-84-159/latest/nb-reg-84-159.html\" title=\"Dairy Products Act \u2013 Natural Products Grade Act\">Dairy Products Act \u2013 Natural Products Grade Act</a></li>\n<li><a rel=\"external\" href=\"http://www.canlii.org/en/nb/laws/regu/nb-reg-88-200/latest/nb-reg-88-200.html\" title=\"Health Act (General Regulation) Milk Processing Plants, Milk houses and Tank Truck\">Health Act (General Regulation) Milk Processing Plants, Milk houses and Tank Truck</a></li>\n</ul>\n\n<h4>Nova Scotia</h4>\n<ul>\n<li> <a rel=\"external\" href=\"https://nslegislature.ca/sites/default/files/legc/statutes/dairyind.htm\" title=\"Nova Scotia Dairy Industry Act\">Nova Scotia Dairy Industry Act</a></li>\n<li> <a rel=\"external\" href=\"https://novascotia.ca/just/regulations/regs/dimilkpr.htm\" title=\"Milk Pricing Regulations\">Milk Pricing Regulations</a></li>\n</ul>\n\n<h4>Prince Edward Island</h4>\n<ul>\n<li><a rel=\"external\" href=\"https://www.princeedwardisland.ca/sites/default/files/legislation/n-03-natural_products_marketing_act.pdf\" title=\"Prince Edward Island Natural Products Marketing Act in portable document format\">Natural Products Marketing Act</a></li>\n\n<li><a rel=\"external\" href=\"https://www.princeedwardisland.ca/sites/default/files/legislation/d-02-dairy_producers_act.pdf\" title=\"Prince Edward Island Dairy Dairy Producers Act portable document format\">Prince Edward Island Dairy Producers Act</a></li>\n\n</ul>\n\n<h4>Newfoundland and Labrador</h4>\n<ul>\n\n<li><a rel=\"external\" href=\"https://assembly.nl.ca/legislation/sr/statutes/n02.htm\" title=\"Newfoundland and Labrador Natural Products Marketing Act\">Natural Products Marketing Act</a></li>\n\n<li><a rel=\"external\" href=\"http://www.assembly.nl.ca/legislation/sr/annualstatutes/2013/f21-1.c13.htm\" title=\"Newfoundland and Labrador Food and Drugs Act\">Newfoundland and Labrador Food and Drugs Act</a></li>\n\n<li><a rel=\"external\" href=\"http://www.assembly.nl.ca/legislation/sr/annualregs/2006/Nr060006.htm\" title=\"Newfoundland and Labrador Milk Regulations 2006\">Newfoundland and Labrador Milk Regulations 2006</a></li>\n\n\n\n<li><a rel=\"external\" href=\"http://www.assembly.nl.ca/legislation/sr/regulations/rc961022.htm#36_3\" title=\"Food Premises Regulations for Dairy Plants (section 36)\">Food Premises Regulations for Dairy Plants (section 36)</a></li>\n</ul>\n</details>\n<div class=\"clear\"></div>\n\n\n       <details id=\"details-panel2\">\n            <summary>United States</summary>\n<h2 class=\"hidden\">United States</h2>\n\n<h3>United States Dairy Regulations</h3>\n<ul>\n  <li><a rel=\"external\" href=\"http://www.fda.gov/Food/GuidanceRegulation/GuidanceDocumentsRegulatoryInformation/Milk/ucm2007966.htm\">Pasteurized Milk Ordinance;</a></li>\n  <li> <a rel=\"external\" href=\"http://www.fda.gov/Food/GuidanceRegulation/GuidanceDocumentsRegulatoryInformation/Milk/ucm2007966.htm\">Dried Milk Ordinance; </a></li>\n  <li><a rel=\"external\" href=\"https://www.fda.gov/media/111155/download\" title=\"Procedures Governing the Cooperative State\">Procedures Governing the Cooperative State</a> - Public Health Services FDA Program of the National Conference on Interstate Milk;</li>\n  <li><a rel=\"external\" href=\"https://wayback.archive-it.org/7993/20170406164552/https://www.fda.gov/downloads/Food/GuidanceRegulation/GuidanceDocumentsRegulatoryInformation/Milk/UCM434337.pdf\" title=\"Methods of Making Sanitation Ratings of Milk Shippers\">Methods of Making Sanitation Ratings of Milk Shippers</a></li>\n</ul>\n</details>\n<div class=\"clear\"></div>\n\n\n       <details id=\"details-panel3\">\n            <summary>Codex</summary>\n<h2 class=\"hidden\">Codex</h2>\n\n<h3>CODEX Reports and Official Standards</h3>\n<p>Listing of major reports for the dairy sector and the <abbr title=\"International Dairy Federation\">IDF</abbr> position in Codex.</p> \n<ul>\n    <li>Codex Reports\n        <ul>\n          <li><a href=\".../eng/fil-idf-canada/observers-report/?id=1503594767359\">IDF Observers' Report on the 36<sup>th</sup> Session of the Codex Alimentarius Commission (July 1-5, 2013)</a></li>\n          <li><a href=\".../eng/acts-regulations-codes-and-standards/codex-standards-related-to-milk-and-milk-products/?id=1577127255483\">CODEX Standards related to milk and milk products</a></li>\n          <li><a href=\".../eng/acts-regulations-codes-and-standards/understanding-codex-alimentarius/?id=1577130225690\">Understanding Codex Alimentarius</a></li>\n        </ul>\n              </li>\n              <li><a href=\".../eng/acts-regulations-codes-and-standards/codex-alimentarius/?id=1503346715851\" title=\"Codex Alimentarius Official Standards\">Codex Alimentarius Official Standards</a></li>\n       </ul>\n</details>\n<div class=\"clear\"></div>\n\n\n       <details id=\"details-panel4\">\n            <summary>Farm Standards</summary>\n<h2 class=\"hidden\">Farm Standards</h2>\n\n<h3>Farm Standards</h3>\n<p>This section provides you with valuable links to industry programs and services geared toward milk safety and quality.</p>\n<dl>\n<dt><a rel=\"external\" href=\"http://www.dairyfarmers.ca/proaction\" title=\"Link to the Dairy Farmers of Canada ProAction website\">ProAction</a></dt>\n<dd>Dairy Farmers of Canada and members initiated the development of proAction to show how farmers responsibly produce milk. With proAction, farmers offer proof to customers that they work to ensure milk quality and safety, and to continually improve animal health and welfare as well as environmental stewardship</dd>\n</dl>\n</details>\n</div>\n</div>\n\n<div class=\"well\">                                            \n<p>If you have any questions or require additional information, please send an e-mail to <a href=\"mailto:aafc.cdic-ccil.aac@agr.gc.ca\" title=\"Email: Animal Industry Division - Market Information Section\"> aafc.cdic-ccil.aac@agr.gc.ca</a></p>                                               \n</div>                                   \n<div class=\"clearfix\"></div>        \n\n\r\n    ",
        "fr": "\r\n    \n\n\n\n<p>La r\u00e9glementation f\u00e9d\u00e9rale et provinciale du Canada, ainsi que d'autre r\u00e9glementation pertinente au secteur laitier. Cette section contient aussi des liens utiles pertinents \u00e0 l'information laiti\u00e8re des \u00c9tats-Unis et Normes Codex pour le lait et les produits laiters.</p>\n\n<div class=\"wb-tabs\">\n<div class=\"tabpanels\">\n<details id=\"details-panel1\">\n<summary>Canada</summary>\n\n\n<h2>R\u00e8glements laitiers et codes</h2>\n\n<h3>Code national sur les produits laitiers</h3>\n\n<p><span class=\"background-accent\">Code national sur les produits laitiers - Partie I (r\u00e9vision approuv\u00e9e en septembre 2015)</span><br>\n<a href=\".../fra/lois-reglements-et-normes/reglements-laitiers-canadiens-et-codes-de-pratiques/code-national-sur-les-produits-laitiers-partie-i/?id=1503084167796\" title=\"Code national sur les produits laitiers - Partie I, septi\u00e8me \u00e9dition (r\u00e9vision approuv\u00e9e en septembre 2015) en format XHTML\">XHTML</a>, \n<a title=\"T\u00e9l\u00e9charger la version document portable\" href=\"/resources/prod/dairy/pdf/Code_laitier_sept_2015_I_f.pdf\"><abbr title=\" document portable\" lang=\"fr\" xmlns:ns1=\"\" ns1:ns1:ns1:xml:lang=\"fr\">PDF</abbr> (471 KB) </a></p>\n\n<p><span class=\"background-accent\">Lignes directrices relatives aux syst\u00e8mes de traite automatis\u00e9s</span><br>\n<a href=\"/fra/lois-reglements-codes-et-normes/lignes-directrices-relatives-aux-systemes-de-traite-automatises/?id=1591199898715\" title=\"Lignes directrices relatives aux syst\u00e8mes de traite automatis\u00e9s en format XHTML\">XHTML</a>, \n<a title=\"T\u00e9l\u00e9charger la version document portable\" href=\"/resources/prod/dairy/pdf/sta_lignes_directrices_relatives_aux_systemes_de_traite_automatises.pdf\"><abbr title=\" document portable\" lang=\"fr\" xmlns:ns1=\"\" ns1:ns1:ns1:xml:lang=\"fr\">PDF</abbr> (471 KB) </a></p>\n\n\n<p><span class=\"background-accent\">Code national sur les produits laitiers - Partie II et III (juillet 2005)</span><br>\n<a href=\"/fra/lois-reglements-et-normes/reglements-laitiers-canadiens-et-codes-de-pratiques/code-national-sur-les-produits-laitiers-partie-ii-et-iii/?id=1503345506402\" title=\"Code national sur les produits laitiers - Partie II et III (juillet 2005) en format XHTML\">XHTML</a>, \n<a title=\"T\u00e9l\u00e9charger la version document portable\" href=\"/resources/prod/dairy/pdf/Code_national_sur_les_produits_laitiers_Partie_II-III-juillet_2005.pdf\"><abbr title=\" document portable\" lang=\"fr\" xmlns:ns1=\"\" ns1:ns1:ns1:xml:lang=\"fr\">PDF</abbr> (471 KB) </a></p>\n\n<h4><strong>Directives d'interpr\u00e9tation</strong></h4>\n<ul>\n<li>Directives d'interpr\u00e9tation - secteur de la production<br>\n<a href=\"/fra/lois-reglements-et-normes/reglements-laitiers-canadiens-et-codes-de-pratiques/directives-d-interpretation-pour-le-secteur-de-la-production/?id=1503346062550\" title=\"Directives d'interpretation - secteur de la production en format XHTML\">XHTML</a>, \n<a title=\"T\u00e9l\u00e9charger la version document portable\" href=\"/resources/prod/dairy/pdf/Production_interpretive_Guidelines_f.pdf\"><abbr title=\" document portable\" lang=\"fr\" xmlns:ns1=\"\" ns1:ns1:ns1:xml:lang=\"fr\">PDF</abbr> (471 KB) </a>\n\n</li>\n\n<li>Directives d'interpr\u00e9tation - secteur de la transformation<br>\n<a href=\"/fra/lois-reglements-et-normes/reglements-laitiers-canadiens-et-codes-de-pratiques/directives-d-interpretation-pour-le-secteur-de-la-transformation/?id=1503346562617\" title=\"Directives d'interpr\u00e9tation - secteur de la transformation en format XHTML\">XHTML</a>, \n<a title=\"T\u00e9l\u00e9charger la version document portable\" href=\"/resources/prod/dairy/pdf/Directive_d_interpretation_Transformation_f.pdf\"><abbr title=\" document portable\" lang=\"fr\" xmlns:ns1=\"\" ns1:ns1:ns1:xml:lang=\"fr\">PDF</abbr> (471 KB) </a>\n\n</li>\n</ul>\n\n<h3>Code de pratiques (Soin des animaux)</h3>\n<ul>\n<li><a rel=\"external\" href=\"http://www.nfacc.ca/codes-de-pratiques/bovins-laitiers\">Code de pratiques pour le soin et la manipulation des bovins laitiers</a></li>\n</ul>\n\n<h3>R\u00e8glements nationaux</h3>\n<ul>\n<li><a rel=\"external\" href=\"https://laws-lois.justice.gc.ca/fra/lois/s-1.1/index.html\" title=\"Loi sur la salubrit\u00e9 des aliments au Canada - Lien vers le site Web de la l\u00e9gislation (Justice)\">Loi sur la salubrit\u00e9 des aliments au Canada</a></li>\n\n<li><a rel=\"external\" href=\"http://laws-lois.justice.gc.ca/fra/reglements/DORS-94-466/page-1.html\" title=\"R\u00e8glement sur la commercialisation des produits laitiers - Lien vers le site web de la l\u00e9gislation (Justice);\">R\u00e8glement sur la commercialisation des produits laitiers</a></li>\n\n<li><a rel=\"external\" href=\"http://www.hc-sc.gc.ca/fn-an/legislation/acts-lois/act-loi_reg-fra.php\" title=\"Loi sur les aliments et drogues - Lien vers le site Web de Sant\u00e9 Canada\">Loi sur les aliments et drogues</a></li>\n\n<li><a rel=\"external\" href=\"http://publications.gc.ca/site/fra/9.854646/publication.html\" title=\"Syst\u00e8mes de production biologique; Principes g\u00e9n\u00e9raux et normes de gestion et listes des substances permises\">Syst\u00e8mes de production biologique; Principes g\u00e9n\u00e9raux et normes de gestion et listes des substances permises</a></li>\n\n<li><a rel=\"external\" href=\"http://laws-lois.justice.gc.ca/fra/lois/C-15/\" title=\"Loi sur la Commission canadienne du lait - Lien vers le site Web de la l\u00e9gislation (Justice)\">Loi sur la Commission canadienne du lait</a></li>\n\n</ul>\n\n<h3>R\u00e8glements provinciaux</h3>\n\n<h4>Colombie-Britannique</h4>\n<ul>\n<li><a rel=\"external\" href=\"http://www.bclaws.ca/EPLibraries/bclaws_new/document/ID/freeside/00_96330_01\" title=\"Lien vers le Natural Product Marketing Act de la Colombie-Britanique - Document anglais\"><span lang=\"en\">Natural Products Marketing (BC) Act</span></a>(disponbile en anglais seulement)</li>\n\n<li><a rel=\"external\" href=\"https://bcmilk.com/about/consolidated-order/\" title=\"Lien vers le Milk Marketing Board Consolidated Order de la Colombie-Britanique - Document anglais\"><span lang=\"en\">British Columbia Milk Marketing Board Consolidated Order</span></a>(disponbile en anglais seulement)</li>\n\n<li><a rel=\"external\" href=\"http://www.bclaws.ca/EPLibraries/bclaws_new/document/ID/freeside/00_96289_01\" title=\"British Columbia Milk Industry Act - Document anglais\"><span lang=\"en\">British Columbia Milk Industry Act </span></a>(disponbile en anglais seulement)</li>\n</ul>\n\n<h4>Alberta</h4>\n<ul>\n<li><a rel=\"external\" href=\"http://www.qp.alberta.ca/1266.cfm?page=D02.cfm&amp;leg_type=Acts&amp;isbncln=9780779752287&amp;display=html\" title=\"Dairy industry Act - Document anglais\"><span lang=\"en\">Dairy Industry Act</span></a>(disponbile en anglais seulement)</li>\n<li><a rel=\"external\" href=\"http://www.qp.alberta.ca/1266.cfm?page=1999_139.cfm&amp;leg_type=Regs&amp;isbncln=9780779814145&amp;display=html\" title=\"Dairy industry Regulation - Document anglais\"><span lang=\"en\">Dairy Industry Regulations</span></a>(disponbile en anglais seulement)</li>\n</ul>\n\n\n<h4>Saskatchewan</h4>\n\n<ul>\n<li><a rel=\"external\" href=\"https://publications.saskatchewan.ca/api/v1/products/9452/formats/14303/download\" title=\"lien vers le Agri-Food Act - Document anglais\"><span lang=\"en\">The Agri-Food Act</span></a>(disponbile en anglais seulement)</li>\n\n<li><a rel=\"external\" href=\"https://publications.saskatchewan.ca/api/v1/products/374/formats/389/download\" title=\"lien vers le Animal Products Act - Document anglais\"><span lang=\"en\">The Animal Products Act</span></a>(disponbile en anglais seulement)</li>\n\n<li><a rel=\"external\" href=\"http://www.qp.gov.sk.ca/documents/English/Regulations/Regulations/A15-21R12.pdf\" title=\"Liens vers le Milk Marketing Plan Regulation sur le site du gouvernement de la Saskatchewan - Document anglais\"><span lang=\"en\">Milk Marketing Plan Regulations</span></a>(disponbile en anglais seulement)</li>\n\n<li><a rel=\"external\" href=\"https://publications.saskatchewan.ca/api/v1/products/72386/formats/80739/download\" title=\"Liens vers le Milk Compositional Standards Regulations sur le site du gouvernement de la Saskatchewan - Document anglais\"><span lang=\"en\">The Milk Compositional Standards Regulations</span></a>(disponbile en anglais seulement)</li>\n\n<li><a rel=\"external\" href=\"https://publications.saskatchewan.ca/api/v1/products/91912/formats/108856/download\" title=\"lien vers le Provincial Milk Plan Standard - Document anglais\"><span lang=\"en\">Provincial Milk Plant Standards</span></a>(disponbile en anglais seulement)</li>\n\n<li><a rel=\"external\" href=\"https://publications.saskatchewan.ca/api/v1/products/27894/formats/35000/download\" title=\"Liens vers le Food Safety Regulation - Document anglais\"><span lang=\"en\">The Food Safety Regulations</span></a>(disponbile en anglais seulement)</li>\n\n<li><a rel=\"external\" href=\"http://www.saskmilk.ca/about-us/regulations-acts-orders/\" title=\"lien vers le Saskatchewan Milk Marketing Board Order - Document anglais\"><span lang=\"en\">Saskatchewan Milk Marketing Board Orders</span></a>(disponbile en anglais seulement)</li>\n\n<li><a rel=\"external\" href=\"file:///C:/Users/potvinr/Downloads/P37-1.pdf\" title=\"Liens vers le Public Health Act en format de document portable - document anglais\"><span lang=\"en\">The Public Health Act, 1994</span></a>(disponbile en anglais seulement)</li>\n\n</ul>\n\n\n<h4>Manitoba</h4>\n<ul>\n<li><a rel=\"external\" href=\"http://web2.gov.mb.ca/laws/statutes/ccsm/d010f.php\" title=\"Loi sur les produits laitiers\">Loi sur les produits laitiers</a></li>\n\n<li><a rel=\"external\" href=\"http://web2.gov.mb.ca/laws/regs/current/_pdf-regs.php?reg=203/87%20R\" title=\"R\u00e8glement sur les produits laitiers - Liens vers le site Web du Gouvernement du Manitoba\">R\u00e8glement sur les produits laitiers</a></li>\n\n<li><a rel=\"external\" href=\"http://web2.gov.mb.ca/laws/statutes/ccsm/f047f.php\" title=\"Loi sur la commercialisation des produits agricoles\">Loi sur la commercialisation des produits agricoles</a></li>\n\n<li><a rel=\"external\" href=\"http://web2.gov.mb.ca/laws/regs/annual/2004/089.pdf\" title=\"Programme de commercialisation destin\u00e9 aux Producteurs laitiers du Manitoba - Lien vers le site Web du gouvernement du Manitoba\">Programme de commercialisation destin\u00e9 aux Producteurs laitiers du Manitoba</a></li>\n</ul>\n\n<h4>Ontario</h4>\n<ul>\n<li><a rel=\"external\" href=\"https://www.ontario.ca/fr/lois/loi/90m12\" title=\"Lien vers la loi sur le lait\">Loi sur le lait</a></li>\n\n<li><a rel=\"external\" href=\"https://www.canlii.org/fr/on/legis/regl/regl-de-lont-121-98/derniere/regl-de-lont-121-98.html\" title=\" Liens vers (Reg. 121/98) Application et ex\u00e9cution des r\u00e8glements concernant le programme de contr\u00f4le de la qualit\u00e9 du lait et de la cr\u00e8me crus\">(Reg. 121/98) Application et ex\u00e9cution des r\u00e8glements concernant le programme de contr\u00f4le de la qualit\u00e9 du lait et de la cr\u00e8me crus</a></li>\n\n<li><a rel=\"external\" href=\"https://www.canlii.org/en/on/laws/regu/rro-1990-reg-753/latest/rro-1990-reg-753.html?searchUrlHash=AAAAAQAHcmVnIDc1MwAAAAAB&amp;resultIndex=1\" title=\"Lien vers (Reg. 753) Grades, Standards, Designations, Classes, Packing and Marking - Documen anglais\"><span lang=\"en\">(Reg. 753) Grades, Standards, Designations, Classes, Packing and Marking</span></a> (disponbile en anglais seulement)</li>\n\n<li><a rel=\"external\" href=\"https://www.canlii.org/fr/on/legis/regl/rro-1990-regl-761/derniere/rro-1990-regl-761.html\" title=\"Lien vers le g\u00e8glement 761 Lait et Produits du lait\">(Reg. 761) Lait et produits du lait</a></li>\n\n<li><a href=\"https://www.ontario.ca/fr/lois/loi/90f09\" title=\"Liens vers la loi sur la commercialisation des produits agricoles\">Loi sur la commercialisation des produits agricoles</a></li>\n</ul>\n\n\n<h4>Qu\u00e9bec</h4>\n<ul>\n<li><a rel=\"external\" href=\"http://www2.publicationsduquebec.gouv.qc.ca/dynamicSearch/telecharge.php?type=3&amp;file=/P_29/P29R1.HTM\" title=\"R\u00e8glement sur les aliments\">R\u00e8glement sur les aliments, R.R.Q. 1981, c.   P-29, r.1 (Chapitre 11\u00a0:\u00a0Produits laitiers et succ\u00e9dan\u00e9s de produits laitiers)</a></li>\n\n<li><a rel=\"external\" href=\"http://www.canlii.org/fr/qc/legis/lois/lrq-c-p-29/derniere/lrq-c-p-29.html\" title=\"Loi sur les produits alimentaires\">Loi sur les produits alimentaires (L.R.Q., chapitre P-29)</a></li>\n</ul>\n\n<h4>Nouveau Brunswick</h4>\n<ul>\n<li><a rel=\"external\" href=\"http://www.canlii.org/fr/nb/legis/regl/regl-du-n-b-85-144/derniere/regl-du-n-b-85-144.html\" title=\"Produits laitiers - R\u00e8glement g\u00e9n\u00e9ral\">Produits laitiers - R\u00e8glement g\u00e9n\u00e9ral</a></li>\n\n<li><a rel=\"external\" href=\"http://www.gnb.ca/legis/business/pastsessions/53/53-4/status-f/bills/049-f.asp\" title=\"Qualit\u00e9 du lait - Loi sur les produits laitiers\">R\u00e8glement sur la qualit\u00e9 du lait - Loi sur les produits naturels</a></li>\n\n<li><a rel=\"external\" href=\"http://www.canlii.org/fr/nb/legis/regl/regl-du-n-b-84-159/derniere/regl-du-n-b-84-159.html\" title=\"Produits laitiers - Loi sur le classement des produits naturels&lt;\">Produits laitiers - Loi sur le classement des produits naturels</a></li>\n\n<li><a rel=\"external\" href=\"http://www.canlii.org/fr/nb/legis/regl/regl-du-n-b-88-200/derniere/regl-du-n-b-88-200.html\" title=\"Health Act( General Regulation) Milk Processing Plants, Milk houses  and Tank Truck\">R\u00e8glement g\u00e9n\u00e9ral - Loi sur la sant\u00e9 (Transformation du lait, transport, etc.)</a></li>\n</ul>\n\n<h4>Nouvelle \u00c9cosse</h4>\n<ul>\n<li> <a rel=\"external\" href=\"https://nslegislature.ca/sites/default/files/legc/statutes/dairyind.htm\" title=\"Nova Scotia Dairy Industry Act - Document anglais\"><span lang=\"en\">Nova Scotia Dairy Industry Act</span></a> (disponible en anglais seulement)</li>\n<li> <a rel=\"external\" href=\"https://novascotia.ca/just/regulations/regs/dimilkpr.htm\" title=\"Milk Pricing Regulations - Document anglais\"><span lang=\"en\">Milk Pricing Regulations</span></a> (disponible en anglais seulement)</li>\n</ul>\n\n<h4>\u00cele du Prince Edward</h4>\n<ul>\n<li><a rel=\"external\" href=\"https://www.princeedwardisland.ca/sites/default/files/legislation/n-03-natural_products_marketing_act.pdf\" title=\"Liens vers le Natural Products Marketing Act de l'\u00cele du Prince Edward en format de document portable - Document anglais\"><span lang=\"en\">Natural Products Marketing Act</span></a> (disponible en anglais seulement)</li>\n\n<li><a rel=\"external\" href=\"https://www.princeedwardisland.ca/sites/default/files/legislation/d-02-dairy_producers_act.pdf\" title=\"Liens vers le Dairy Producers Act de l'\u00cele du Prince Edward en format de document portable - Document anglais\"><span lang=\"en\">Prince Edward Island Dairy Producers Act</span></a> (disponible en anglais seulement)</li>\n\n</ul>\n\n<h4>Terre-Neuve et Labrador</h4>\n\n<ul>\n\n<li><a rel=\"external\" href=\"https://assembly.nl.ca/legislation/sr/statutes/n02.htm\" title=\"Liens vers le Natural Products Marketing Act de Terre-Neuve et Labrador - document anglais\"><span lang=\"en\">Natural Products Marketing Act</span></a> (disponible en anglais seulement)</li>\n\n<li><a rel=\"external\" href=\"http://www.assembly.nl.ca/legislation/sr/annualstatutes/2013/f21-1.c13.htm\" title=\"Liens vers le Food and Drugs Act  Terre-Neuve et Labrador - document anglais\"><span lang=\"en\">Newfoundland and Labrador Food and Drugs Act</span></a> (disponible en anglais seulement)</li>\n\n<li><a rel=\"external\" href=\"http://www.assembly.nl.ca/legislation/sr/annualregs/2006/Nr060006.htm\" title=\"Liens vers le Milk Regulations 2006 Terre-Neuve et Labrador - document anglais\"><span lang=\"en\">Newfoundland and Labrador Milk Regulations 2006</span></a> (disponible en anglais seulement)</li>\n\n<li><a rel=\"external\" href=\"http://www.assembly.nl.ca/legislation/sr/regulations/rc961022.htm#36_3\" title=\"Liens vers le Food Premises Regulations for Dairy Plants (section 36) - document anglais\"><span lang=\"en\">Food Premises Regulations for Dairy Plants (section 36)</span></a> (disponible en anglais seulement)</li>\n</ul>\n\n</details>\n<div class=\"clear\"></div>\n\n       <details id=\"details-panel2\">\n            <summary>\u00c9tats-Unis</summary>\n<h2 class=\"hidden\">\u00c9tats-Unis</h2>\n\n<h3>R\u00e8glements laitiers des \u00c9tats-Unis</h3>\n<ul>\n  <li><a href=\"http://www.fda.gov/Food/GuidanceRegulation/GuidanceDocumentsRegulatoryInformation/Milk/ucm2007966.htm\" title=\"Pasteurized Milk Ordinance\"><span lang=\"en\">Pasteurized Milk Ordinance</span></a> (disponible en anglais seulement)</li>\n  <li><a href=\"http://www.fda.gov/Food/GuidanceRegulation/GuidanceDocumentsRegulatoryInformation/Milk/ucm2007966.htm\" title=\"Dried Milk Ordinance\"><span lang=\"en\">Dried Milk Ordinance</span></a> (disponible en anglais seulement)</li>\n  <li><a href=\"https://www.fda.gov/media/111155/download\" title=\"Procedures Governing the Cooperative State\"><span lang=\"en\">Procedures Governing the Cooperative State</span></a> - Public Health Services /  FDA Program of the National Conference on Interstate Milk (disponible en anglais seulement)</li>\n  <li><a href=\"https://wayback.archive-it.org/7993/20170406164552/https://www.fda.gov/downloads/Food/GuidanceRegulation/GuidanceDocumentsRegulatoryInformation/Milk/UCM434337.pdf\" title=\"Methods of Making Sanitation Ratings of Milk Supplies\"><span lang=\"en\">Methods of Making Sanitation Ratings of Milk Supplies</span></a> - 1999 Revision (disponible en anglais seulement);</li>\n</ul>\n</details>\n<div class=\"clear\"></div>\n\n\n       <details id=\"details-panel3\">\n            <summary>Codex</summary>\n<h2 class=\"hidden\">Codex</h2>\n\n<h3>Rapports et normes officielles du Codex</h3>\n<p>\u00c9num\u00e9ration des rapports important pour le secteur laitier et la position de la <abbr title=\"F\u00e9d\u00e9ration international du lait\">FIL</abbr> au Codex.</p>\n    <ul>   \n    <li>Rapports du Codex \n        <ul>\n          <li><a href=\".../fra/fil-idf-canada/observers-report-en-anglais-seulement/?id=1503594767359\">IDF Observers' Report on the 36<sup>th</sup> Session of the CODEX ALIMENTARIUS COMMISSION (1-5 juillet 2013)</a> (Disponible en anglais seulement)</li>\n          <li><a href=\".../fra/lois-reglements-codes-et-normes/codex-standards-related-to-milk-and-milk-products/?id=1577127255483\">CODEX Standards related to milk and milk products</a> (Disponible en anglais seulement)</li>\n          <li><a href=\".../fra/lois-reglements-codes-et-normes/comprendre-le-codex-alimentarius/?id=1577130225690\">Comprendre le Codex Alimentarius</a></li>\n        </ul>\n              </li>\n  <li><a href=\".../fra/lois-reglements-codes-et-normes/codex-alimentarius/?id=1503346715851\" title=\"Normes du Codex alimentarius\">Normes du Codex alimentarius</a></li>\n</ul>\n</details>\n<div class=\"clear\"></div>\n\n\n       <details id=\"details-panel4\">\n            <summary>Normes \u00e0 la ferme</summary>\n<h2 class=\"hidden\">Normes \u00e0 la ferme</h2>\n\n<h3>Normes \u00e0 la ferme</h3>\n<p>Cette section pr\u00e9sente des liens utiles vers diff\u00e9rents programmes et services de l\u2019industrie ax\u00e9s sur la qualit\u00e9 des produits laitiers.</p>\n<dl>\n<dt><a rel=\"external\" href=\"http://www.producteurslaitiers.ca/proaction\" title=\"Lien vers de site du programme ProAction des Producteurs laitier du Canada\">ProAction</a></dt>\n<dd>Les Producteurs laitier du Canada et leurs membres ont pris le leadership de cr\u00e9er l\u2019initiative proAction pour rassurer les clients que les producteurs produisent du lait r\u00e9pondant \u00e0 des normes \u00e9lev\u00e9es, de fa\u00e7on responsable. Les producteurs assurent la qualit\u00e9 et la salubrit\u00e9 du lait, et visent l'am\u00e9lioration continue du bien-\u00eatre et de la sant\u00e9 des animaux, ainsi que de la protection de l\u2019environnement.</dd>\n</dl>\n</details>\n</div>\n</div>\n\n<div class=\"well\">                                            \n<p>Pour toute question ou information additionnelle, veuillez communiquer avec nous par courriel \u00e0 <a title=\"Courriel : Division de l'industrie animale, Section de l'information sur les march\u00e9s\" href=\"mailto:aafc.cdic-ccil.aac@agr.gc.ca\"> aafc.cdic-ccil.aac@agr.gc.ca</a></p>                                   \n</div>                                   \n<div class=\"clearfix\"></div>\n\n\r\n    "
    }
}