{
    "dcr_id": "1503601033900",
    "title": {
        "en": "Help",
        "fr": "Aide"
    },
    "modified": "2021-06-21",
    "issued": "2019-12-02",
    "templatetype": "content page 1 column",
    "page_type": "1",
    "node_id": "1503406648144",
    "dc_date_created": "2019-12-02",
    "managing_branch": "DAIRY",
    "parent_node_id": "1502976354578",
    "short_title": "",
    "exturl": "",
    "teamsite_location": {
        "en": "/default/main/AAFC-AAC/CDIC-CCDL/WORKAREA/CDIC-CCDL/templatedata/comm-comm/gene-gene/data/08/help_1503601033900_en",
        "fr": "/default/main/AAFC-AAC/CDIC-CCDL/WORKAREA/CDIC-CCDL/templatedata/comm-comm/gene-gene/data/08/help_1503601033900_fr"
    },
    "type_name": "sitemapinit",
    "has_dcr_id": true,
    "label": {
        "en": "Help",
        "fr": "Aide"
    },
    "breadcrumb": {
        "en": "Help",
        "fr": "Aide"
    },
    "layout_name": "content page 1 column",
    "lang": "en",
    "refaire": false,
    "meta": {
        "viewport": {
            "en": "width=device-width, initial-scale=1",
            "fr": "width=device-width, initial-scale=1"
        },
        "issued": {
            "en": "2019-12-02",
            "fr": "2019-12-02"
        },
        "modified": {
            "en": "2021-06-21",
            "fr": "2021-06-21"
        },
        "format": {
            "en": "gcformat",
            "fr": "gcformat"
        },
        "title": {
            "en": "Help",
            "fr": "Aide"
        },
        "subject": {
            "en": "aafcsubject",
            "fr": "aafcsubject"
        },
        "dcterms.subject": {
            "en": "dairy industry",
            "fr": "industrie laiti\u00e8re"
        },
        "description": {
            "en": "How to use the CDIC website.\n",
            "fr": "Comment utiliser le site Web du CCIL.\n"
        },
        "language": {
            "en": "eng",
            "fr": "fra"
        },
        "keywords": {
            "en": null,
            "fr": null
        },
        "audience": {
            "en": "gcaudience",
            "fr": "gcaudience"
        },
        "type": {
            "en": "administrative page",
            "fr": "page administrative"
        },
        "creator": {
            "en": "Agriculture and Agri-Food Canada",
            "fr": "Agriculture et Agroalimentaire Canada"
        },
        "spatial": {
            "en": "gcregions",
            "fr": "gcregions"
        }
    },
    "h1": {
        "en": "Help",
        "fr": "Aide"
    },
    "js": {
        "en": "<script>\n  window.dataLayer = window.dataLayer || [];\n  function gtag(){dataLayer.push(arguments);}\n  gtag('js', new Date());\n\n  gtag('config', 'UA-153894949-1');\n</script>",
        "fr": "<script>\n  window.dataLayer = window.dataLayer || [];\n  function gtag(){dataLayer.push(arguments);}\n  gtag('js', new Date());\n\n  gtag('config', 'UA-153894949-1');\n</script>"
    },
    "body": {
        "en": "\r\n    \n\n\n\nHow to use the CDIC website.\n<div class=\"contentBox\">\n<h2>To View or Save A File</h2></div>\n<p>Make sure you have the proper software before proceeding.</p>\n\n<div class=\"contentBox\">\n<h3><strong>PDF</strong> (Portable Document Format)</h3></div>\n<p>To read the Portable Document Format (PDF) version you can use one of the following PDF readers.</p>\n<ul>\n  <li><a title=\"Adobe\" href=\"http://get.adobe.com/reader/\">Adobe</a></li>\n  <li><a title=\"Wordperfect Lightning\" href=\"http://www.corel.com/servlet/Satellite/us/en/Product/1177439659779#tabview=tab0\">Wordperfect Lightning</a></li>\n  <li><a title=\"Foxit\" href=\"http://www.foxitsoftware.com/downloads/index.php\">Foxit</a></li>\n  <li><a title=\"Scientific and technical documentation utility\" href=\"http://www.stdutility.com/download.html\">Scientific and technical documentation utility</a></li>\n  </ul>\n\n<div class=\"contentBox\">\n<h3><strong>XLS</strong> (Microsoft Excel)</h3></div>\n<p>To read a spreadsheet in Microsoft Excel format, XLS is a file extension for spreadsheet documents.</p>\n<ul>\n  <li><a title=\"Microsoft Excel Viewer\" href=\"http://www.microsoft.com/downloads/details.aspx?FamilyId=C8378BF4-996C-4569-B547-75EDBD03AAF0&amp;displaylang=en\">Microsoft Excel Viewer</a></li>\n<li><a title=\"Open Office\" href=\"http://www.openoffice.org/\">Open Office</a></li>\n  </ul>\n<p>Click the name of the file to be viewed or to be saved in the format you wish to use. A popup window will open asking you whether you want to save or open the file. To view the file, click \"Open it.\" To save the file, click \"Save it to disk\".</p>\n\n<div class=\"contentBox\">\n<h3>Fit the Main Page On Screen </h3></div>\n<ul><li>Minimize all open windows and position your mouse in the center of your screen.</li>\n  <li> Right click your mouse button(for left handed, click your left mouse button). A shortcut menu will open.</li>\n  <li> Click \"Properties\" and select the Settings tab.</li>\n  <li> Drag the slider from \"Desktop Area\" to the right until you read \"800 x 600 pixels\".</li>\n  <li> Click  \"Ok\". You may be asked to restart your windows. If so, save any open files if needed and restart your computer.</li>\n</ul>\n<div class=\"contentBox\">\n<h3>Get sharper Images On Screen</h3></div>\n<ul>\n  <li> Minimize all open windows and position your mouse in the center of your screen. </li>\n  <li> Right click your mouse button(for left handed, click your left mouse button). A shortcut menu will open.</li>\n  <li> Click \"Properties\" and select the Settings tab.</li>\n  <li> From the drop-down menu of \"Color Palette\" select \"256 Color\", \"High Color (16 bit)\" or\n    \"High Color (32 bit)\" (High Color 32 bit being the sharpest resolution). </li>\n  <li>Click \"Ok\". You may be asked to restart your windows. If so, save any open files if needed and restart your computer.</li>\n  </ul>\n\n<div class=\"well\">                                            \n<p>If you have any questions or require additional information, please send an e-mail to <a href=\"mailto:aafc.cdic-ccil.aac@agr.gc.ca\" title=\"Email: Animal Industry Division - Market Information Section\"> aafc.cdic-ccil.aac@agr.gc.ca</a></p>                                               \n</div>                                   \n<div class=\"clearfix\"></div>        \n\n\r\n    ",
        "fr": "\r\n    \n\n\n\nComment utiliser le site Web du CCIL.\n<div class=\"contentBox\">\n<h2>Comment ouvrir ou sauvegarder un fichier?</h2></div>\n<p>Pour ouvrir ou sauvegarder les fichiers, veuillez vous procurez les logiciels n\u00e9c\u00e9ssaires.</p>\n\n<div class=\"contentBox\">\n<h3>PDF (format de document portable)</h3></div>\n<p>Pour lire la version en format de document portable (PDF), vous pouvez employer un des lecteurs suivants de pdf.</p>\n<ul>\n  <li><span lang=\"en-ca\"><a title=\"Adobe\" href=\"http://www.adobe.com/products/acrobat/readstep2.html\">Adobe (en anglais seulment)</a></span></li>\n  <li><span lang=\"en-ca\"><a href=\"http://www.corel.com/servlet/Satellite/us/en/Product/1177439659779\">Wordperfect Lightning (en anglais seulment)</a></span></li>\n  <li><span lang=\"en-ca\"><a title=\"Foxit\" href=\"http://www.foxitsoftware.com/downloads/\">Foxit (en anglais seulment)</a></span></li>\n  <li><span lang=\"en-ca\"><a href=\"http://www.stdutility.com/download.html\" title=\"Scientific and Technical Documentation Utility\">Scientific and Technical Documentation Utility (en anglais seulment)</a></span></li>\n  </ul>\n\n<div class=\"contentBox\">\n<h3>XLS (Excel de Microsoft)</h3></div>\n<p>Les feuilles de calcul \u00b4lectroniques sont en format Microsoft Excel (XLS), ce format est une extension de fichier pour les feuilles de calcul.</p>\n<ul>\n  <li><span lang=\"en-ca\"><a href=\"http://www.microsoft.com/downloads/details.aspx?displaylang=fr&amp;FamilyID=c8378bf4-996c-4569-b547-75edbd03aaf0\" title=\"Microsoft Excel Viewer\">Microsoft Excel Viewer</a></span></li>\n  <li><span lang=\"en-ca\"><a title=\"Open Office\" href=\"http://www.openoffice.org/\">Open Office (en anglais seulment)</a></span></li>\n  </ul>\n<p>Cliquez le nom du fichier que vous voulez ouvrir ou sauvegarder. Vous verrez une petite fen\u00eatre appara\u00eetre. Selon la configuration de votre ordinateur, vous devrez peut \u00eatre localiser le fichier exe. <br>\nEnsuite, choisissez l'option voulue.<br>\n<br>\n</p>\n\n<div class=\"contentBox\">\n<h3>Comment faire pour voir toute la page principale sur l'\u00e9cran.</h3></div>\n<ul>\n  <li>R\u00e9duisez toutes les fen\u00eatres ouvertes sur votre \u00e9cran et positioner votre pointeur au milieu de votre \u00e9cran.</li>\n  <li>Cliquez le button droit devotre souris (pour les gauch\u00e9s, cliquez le boutton gauche). Vous verrez un menu s'ouvrir.</li>\n  <li>Cliquez sur \u00ab Properties \u00bb et s\u00e9lectionnez \u00ab Settings \u00bb.</li>\n  <li>Tirer le triangle de lasection \u00ab Desktop Area \u00bb vers la droite juste qu'\u00e0 ce que vousvoyez \u00ab 800 x 600 pixels \u00bb.</li>\n  <li>Cliquez \u00ab Ok \u00bb. Veuillez noter que vous aurez peut \u00eatre besoin de r\u00e9initialiservotre ordinateur. Votre page principale est maintenant sur tout votre \u00e9cran.</li>\n</ul>\n\n<div class=\"contentBox\">\n<h3>Comment changer la r\u00e9solution des images survotre \u00e9cran.</h3></div>\n<ul>\n  <li>R\u00e9duisez toutes les fen\u00eatres  ouvertes sur votre\u00e9cran et positioner votre pointeur au milieu de votre  \u00e9cran.</li>\n  <li>Cliquez le button droit devotre souris (pour les gauch\u00e9s, cliquez le button gauche). Vous verrez un menu s'ouvrir.</li>\n  <li>Cliquez sur \u00ab Properties \u00bb et s\u00e9lectionez \u00ab Settings \u00bb.</li>\n  <li>Dans la section \u00ab Color Palette \u00bb,choisissez \u00ab 256 Color \u00bb, \u00ab High Color(16 bit) \u00bb ou \u00ab High Color (32 bit) \u00bb \u00ab (High Color 32 bit \u00e0la plus grande resolution) \u00bb</li>\n  <li>Cliquez \u00ab Ok \u00bb. Veuillez noter que vous aurez peut \u00eatre de r\u00e9initialiser votre ordinateur.</li>\n</ul>\n\n<div class=\"well\">                                            \n<p>Pour toute question ou information additionnelle, veuillez communiquer avec nous par courriel \u00e0 <a title=\"Courriel : Division de l'industrie animale, Section de l'information sur les march\u00e9s\" href=\"mailto:aafc.cdic-ccil.aac@agr.gc.ca\"> aafc.cdic-ccil.aac@agr.gc.ca</a></p>                                   \n</div>                                   \n<div class=\"clearfix\"></div>\n\n\r\n    "
    }
}