{
    "dcr_id": "1517335776475",
    "title": {
        "en": "AgriCompetitiveness Program: Step 1. What this program offers",
        "fr": "Programme Agri-comp\u00e9titivit\u00e9 : \u00c9tape 1. Ce qu\u2019offre ce programme "
    },
    "modified": "2020-09-16",
    "issued": "2018-02-13",
    "templatetype": "content page 1 column",
    "page_type": "1",
    "node_id": "1517240276734",
    "dc_date_created": "2018-02-13",
    "managing_branch": "PAB",
    "parent_node_id": "1354137773676",
    "short_title": "AgriCompetitiveness Program",
    "exturl": "",
    "teamsite_location": {
        "en": "/default/main/AAFC-AAC/Internet-Internet/Group-Ensemble/ProgServ-ProgServ/WORKAREA/ProgServ-ProgServ/templatedata/comm-comm/gene-gene/data/01/what_this_program_offers_1517335776475_en",
        "fr": "/default/main/AAFC-AAC/Internet-Internet/Group-Ensemble/ProgServ-ProgServ/WORKAREA/ProgServ-ProgServ/templatedata/comm-comm/gene-gene/data/01/what_this_program_offers_1517335776475_fr"
    },
    "type_name": "sitemapinit",
    "has_dcr_id": true,
    "label": {
        "en": "AgriCompetitiveness Program",
        "fr": "Programme Agri-comp\u00e9titivit\u00e9"
    },
    "breadcrumb": {
        "en": "AgriCompetitiveness Program",
        "fr": "Programme Agri-comp\u00e9titivit\u00e9"
    },
    "layout_name": "content page 1 column",
    "lang": "en",
    "refaire": false,
    "meta": {
        "viewport": {
            "en": "width=device-width,initial-scale=1",
            "fr": "width=device-width, initial-scale=1"
        },
        "issued": {
            "en": "2018-02-13",
            "fr": "2018-02-13"
        },
        "modified": {
            "en": "2020-09-16",
            "fr": "2020-09-16"
        },
        "format": {
            "en": "text/html",
            "fr": "text/html"
        },
        "title": {
            "en": "AgriCompetitiveness Program: Step 1. What this program offers",
            "fr": "Programme Agri-comp\u00e9titivit\u00e9 : \u00c9tape 1. Ce qu\u2019offre ce programme "
        },
        "subject": {
            "en": "architectural heritage;technology transfer;soil assessement",
            "fr": "eau-conservation;oeufs-production;pommes de terre-producteurs"
        },
        "dcterms:subject": {
            "en": "architectural heritage;architecture;statistics",
            "fr": "gestion des terres;m\u00e9dicament;technologie agricole"
        },
        "description": {
            "en": "Purpose of this Guide. This guide will:Help you determine if you may be eligible for funding from Agriculture and Agri-Food Canada (AAFC) under the AgriCompetitiveness Program.Provide you with directions and explanations to assist you in completing the project application form.Your completed application form will provide AAFC with the information needed to make decisions about eligibility and funding. AgriCompetitiveness programming will assist industry-led efforts to provide producers with information needed to build capacity and support the sector\u2019s development. For more information and details on cost categories, eligible/ineligible costs and other limitations, refer to section 1.2.7 of Annex A: How to apply.1.4 Eligible activities.",
            "fr": "Formats de rechange. Agriculture et Agroalimentaire Canada. L'honorable Gerry Ritz, C.P., d\u00e9put\u00e9. Le ministre de l'Agriculture et de l'Agroalimentaire. Le\u00e7ons retenues. R\u00e9sultat strat\u00e9gique n\u00b0 3\u00a0: Un secteur innovateur de l'agriculture, de l'agroalimentaire et des produits agro-industriels. Nous avons rouvert le commerce de la viande bovine avec la Chine et la Cor\u00e9e du Sud, qui est le dernier grand march\u00e9 d'Asie \u00e0 rouvrir ses portes apr\u00e8s les fermetures de fronti\u00e8res attribuables \u00e0 la d\u00e9couverte de cas d'enc\u00e9phalopathie spongiforme bovine (ESB) il y a neuf ans.Tout en d\u00e9fendant le syst\u00e8me de gestion de l'offre du Canada et en veillant \u00e0 ce que nos partenaires commerciaux respectent les r\u00e8gles scientifiques, nous cherchons \u00e0 conclure des accords de libre-\u00e9change (ALE) bilat\u00e9raux et multilat\u00e9raux dans le cadre de notre plan ambitieux de libre-\u00e9change."
        },
        "language": {
            "en": "eng",
            "fr": "fra"
        },
        "keywords": {
            "en": null,
            "fr": "ans.Tout"
        },
        "audience": {
            "en": "gcaudience",
            "fr": "gcaudience"
        },
        "type": {
            "en": "presentation",
            "fr": "foire aux questions"
        },
        "creator": {
            "en": "Agriculture and Agri-Food Canada;Government of Canada",
            "fr": "Agriculture et Agroalimentaire Canada;Gouvernement du Canada"
        },
        "spatial": {
            "en": "gcregions",
            "fr": "gcregions"
        },
        "service": {
            "en": "AAFC-AAC",
            "fr": "AAFC-AAC"
        },
        "accessRights": {
            "en": "2",
            "fr": "2"
        },
        "legalName": {
            "en": "agriculture_and_agri_food_canada",
            "fr": "agriculture_et_agroalimentaire_canada"
        },
        "areaServed": {
            "en": "Canada",
            "fr": "Canada"
        }
    },
    "h1": {
        "en": "AgriCompetitiveness Program: Step 1. What this program offers",
        "fr": "Programme Agri-comp\u00e9titivit\u00e9 : \u00c9tape 1. Ce qu\u2019offre ce programme"
    },
    "js": {
        "en": "",
        "fr": ""
    },
    "body": {
        "en": "\r\n    <div class=\"mrgn-tp-md mrgn-bttm-lg brdr-bttm\">\n\n<div class=\"row\">\n<ul class=\"toc lst-spcd col-md-12 list-unstyled\">\n<li class=\"col-md-4 col-sm-6\"><span class=\"list-group-item active\">Step 1. What this program offers</span></li>\n\n<li class=\"col-md-4 col-sm-6\"><span class=\"list-group-item\">Step 2. <a href=\"?id=1517336959326\">Who is eligible</a></span></li>\n\n<li class=\"col-md-4 col-sm-6\"><span class=\"list-group-item\">Step 3. <a href=\"?id=1517338676777\">How to apply</a></span></li>\n\n<li class=\"col-md-4 col-sm-6\"><span class=\"list-group-item\">Step 4. <a href=\"?id=1517339307837\">After you apply</a></span></li>\n\n\n<li class=\"col-md-4 col-sm-6\"><span class=\"list-group-item\"><a href=\"?id=1517327600413\">Applicant guide</a></span></li>\n\n<li class=\"col-md-4 col-sm-6\"><span class=\"list-group-item\"><a href=\"?id=1517340593348\">Contact information</a></span></li>\n</ul>\n</div>\n</div>\n\n<h2 class=\"mrgn-tp-0\">Step 1. What this program offers</h2>\n\n<section class=\"alert alert-info\">\n<h3>Update on the AgriCompetitiveness Program</h3>\n<p>In response to the COVID-19 pandemic, the Government of Canada, as well as many provinces and territories, have established guidance on discretionary travel and public health orders <a href=\"https://www.canada.ca/en/public-health/services/diseases/2019-novel-coronavirus-infection/health-professionals/mass-gatherings-risk-assesment.html\">restricting gatherings/events of different purposes and sizes in order to contain COVID-19 spread</a>.  These measures remain in effect until further notice. </p>\n\n<p>Agriculture and Agri-Food Canada (AAFC) will be considering COVID-19 restrictions during the review of project applications under the AgriCompetitiveness Program.</p>\n\n<p>As you plan your activities for 2021-22 (year 4) and 2022-23 (year 5), AAFC encourages you to:</p>\n\n<ul>\n\t<li>propose activities that are not reliant on travel and in person meetings</li>\n\t<li>plan alternative delivery models in case of continued restrictions or local outbreaks</li>\n\t<li>consider how your organization can adapt to support your clients in the context of the evolving COVID-19 pandemic</li>\n</ul>\n\n<p><a href=\"?id=1517340593348\">Contact  the program</a> if you would like to discuss your plans  during the COVID-19 pandemic.</p>\n</section>\n\n<p>The AgriCompetitiveness Program aims to help the agricultural sector to leverage, coordinate and build on existing capacity, enhance safety, adapt to changing commercial and regulatory environments, seize new opportunities, share best practices, and provide mentorship opportunities. </p>\n\n<p>It will accomplish these goals by supporting industry to build on existing capacity by facilitating the sharing and expansion of skills, knowledge, and best practices, and increase agricultural awareness. It will also provide for activities that allow agri-businesses to transition, adapt, and improve their profitability by nurturing the entrepreneurial capacity of new and established farmers, delivering farm safety initiatives, and cultivating individual and industry leadership.</p>  \n\n<p>In addition, the program will support activities undertaken by important domestic agricultural fairs which have strong international and domestic components, as well as generic agriculture awareness activities which will help strengthen public trust about the origin of the food they eat and how it is produced.</p> \n\n<p>If approved, support is available in the form of non-repayable contributions from Agriculture and Agri-Food Canada (AAFC).</p>\n\n<div class=\"alert alert-info\">\n<p>Applications were accepted on an ongoing basis  from February 13, 2018 to March 31, 2020 for the first three years of the  program.</p>\n\n<p class=\"mrgn-lft-lg\">Starting July 1, 2020, a <strong>call for proposals process</strong> will be undertaken for projects for the 2021-22 (year 4) and 2022-23 (year 5)  funding years. Applications will be accepted from <strong>July 1, 2020</strong> until <strong>November  1, 2020</strong>. The Program will prioritize applications received within these  dates. </p>\n\n<p class=\"mrgn-lft-lg\">Eligible applications received after November 1, 2020 will only be considered if sufficient funding remains. </p>\n\n<p class=\"mrgn-lft-lg\">The program ends March 31, 2023.</p>\n</div>\n \n\n<nav>\n<h2 class=\"wb-inv\">Previous-next document navigation - bottom</h2>\n\n<div class=\"row\">\n<div class=\"col-md-12 mrgn-lft-0 mrgn-rght-0\">\n<ul class=\"pager\">\n<li class=\"next\"><a href=\"?id=1517336959326\" rel=\"next\" title=\"2. Am I Eligible?\">Next</a></li>\n</ul>\n</div>\n</div>\n</nav>\n\n\r\n    ",
        "fr": "\r\n    <div class=\"mrgn-tp-md mrgn-bttm-lg brdr-bttm\">\n\n<div class=\"row\">\n<ul class=\"toc lst-spcd col-md-12 list-unstyled\">\n<li class=\"col-md-4 col-sm-6\"><span class=\"list-group-item active\">\u00c9tape 1. Ce qu'offre ce programme</span></li>\n\n<li class=\"col-md-4 col-sm-6\"><span class=\"list-group-item\">\u00c9tape 2. <a href=\"?id=1517336959326\">Qui est admissible</a></span></li>\n\n<li class=\"col-md-4 col-sm-6\"><span class=\"list-group-item\">\u00c9tape 3. <a href=\"?id=1517338676777\">Comment pr\u00e9senter une demande</a></span></li>\n\n<li class=\"col-md-4 col-sm-6\"><span class=\"list-group-item\">\u00c9tape 4. <a href=\"?id=1517339307837\">Apr\u00e8s avoir pr\u00e9sent\u00e9 votre demande</a></span></li>\n\n<li class=\"col-md-4 col-sm-6\"><span class=\"list-group-item\"><a href=\"?id=1517327600413\">Guide du demandeur</a></span></li>\n\n<li class=\"col-md-4 col-sm-6\"><span class=\"list-group-item\"><a href=\"?id=1517340593348\">Pour nous joindre</a></span></li>\n</ul>\n</div>\n</div>\n\n<h2>\u00c9tape 1. Ce qu'offre ce programme</h2>\n\n<section class=\"alert alert-info\">\n<h3>Mise \u00e0 jour sur le programme Agri-comp\u00e9titivit\u00e9</h3>\n<p>En r\u00e9ponse \u00e0 la pand\u00e9mie de COVID-19, le gouvernement  du Canada, ainsi que plusieurs provinces et territoires, ont \u00e9tabli des  directives sur les voyages discr\u00e9tionnaires et des d\u00e9crets de sant\u00e9 publique <a href=\"https://www.canada.ca/fr/sante-publique/services/maladies/2019-nouveau-coronavirus/professionnels-sante/rassemblement-masse-fonde-risques.html\">limitant  les rassemblements et les \u00e9v\u00e9nements de diff\u00e9rents types et tailles afin de  freiner la propagation de la COVID-19</a>.\u00a0Ces  mesures demeureront en vigueur jusqu\u2019\u00e0 nouvel ordre. Agriculture et  Agroalimentaire Canada (AAC) tiendra compte des restrictions li\u00e9es \u00e0 la  COVID-19 lors de l\u2019examen des demandes de projets dans le cadre du programme  Agri\u2011comp\u00e9titivit\u00e9.</p>\n\n<p>Lorsque vous planifierez vos activit\u00e9s de 2021-2022  (ann\u00e9e 4) et 2022-2023 (ann\u00e9e 5), AAC vous encourage \u00e0\u00a0:</p>\n\n<ul>\n  <li>proposer des activit\u00e9s qui ne d\u00e9pendent pas des  d\u00e9placements ni des rencontres en personne;</li>\n  <li>pr\u00e9voir d\u2019autres mod\u00e8les de prestation en cas de  prolongation des restrictions ou d\u2019\u00e9closion locale;</li>\n  <li>d\u00e9terminer comment votre organisation peut \u00e9voluer  pour appuyer vos clients dans le contexte de la pand\u00e9mie de COVID-19. </li>\n</ul>\n\n<p><a href=\"?id=1517340593348\">Contactez le programme</a> pour discuter de vos  plans durant la pand\u00e9mie de COVID-19 </p>\n</section>\n\n<p>Le programme Agri-comp\u00e9titivit\u00e9 vise \u00e0 aider le secteur agricole \u00e0 coordonner les capacit\u00e9s existantes et \u00e0 en tirer profit, \u00e0 am\u00e9liorer la salubrit\u00e9 des aliments, \u00e0 s\u2019adapter \u00e0 l\u2019\u00e9volution des contextes commercial et r\u00e9glementaire, \u00e0 \u00e9changer des pratiques exemplaires, \u00e0 saisir les nouvelles occasions et \u00e0 offrir des possibilit\u00e9s de mentorat. </p>\n\n<p>Le programme s\u2019appuiera sur les capacit\u00e9s actuelles en facilitant l\u2019\u00e9change et le d\u00e9veloppement des comp\u00e9tences, des connaissances et des pratiques exemplaires, et en am\u00e9liorant la sensibilisation \u00e0 l\u2019agriculture. Il offrira \u00e9galement des activit\u00e9s qui permettront aux entreprises agricoles d\u2019effectuer la transition, de s\u2019adapter et d\u2019am\u00e9liorer leur rentabilit\u00e9 en d\u00e9veloppant la capacit\u00e9 entrepreneuriale des nouveaux agriculteurs et des agriculteurs \u00e9tablis, en mettant en \u0153uvre des initiatives li\u00e9es \u00e0 la s\u00e9curit\u00e9 \u00e0 la ferme et en d\u00e9veloppant le leadership individuel et le leadership de l\u2019industrie.</p>\n\n<p>Le programme appuiera \u00e9galement des activit\u00e9s entreprises par d\u2019importantes foires agricoles qui ont de fortes composantes internationales et nationales, ainsi que des activit\u00e9s g\u00e9n\u00e9riques de sensibilisation \u00e0 l\u2019agriculture qui contribuent \u00e0 renforcer la confiance du public envers l\u2019origine des aliments qu\u2019ils mangent et la fa\u00e7on dont ils sont produits.</p>\n\n<p>Si approuv\u00e9, un appui est disponible sous la forme de contribution financi\u00e8re non remboursable d\u2019Agriculture et Agroalimentaire Canada (AAC). </p>\n\n<div class=\"alert alert-info\">\n<p>Les demandes ont \u00e9t\u00e9 accept\u00e9es de fa\u00e7on continue du 13 f\u00e9vrier 2018 au 31 mars 2020 pour les trois premi\u00e8res ann\u00e9es du programme.</p>\n\n<p class=\"mrgn-lft-lg\">\u00c0 compter du 1<sup>er</sup> juillet 2020, un <b>processus d\u2019appel de propositions</b> sera entrepris pour les projets dans le cas des ann\u00e9es de financement 2021-2022 (ann\u00e9e 4) et 2022-2023 (ann\u00e9e 5). Les demandes seront accept\u00e9es du <b>1<sup>er</sup> juillet 2020</b> au <b>1<sup>er</sup> novembre 2020</b>. Le programme accordera la priorit\u00e9 aux demandes re\u00e7ues durant cette p\u00e9riode.</p>\n\n<p class=\"mrgn-lft-lg\">Les demandes admissibles re\u00e7ues apr\u00e8s le 1<sup>er</sup> novembre 2020 ne seront prises en consid\u00e9ration que s\u2019il reste suffisamment de fonds.</p>\n\n<p class=\"mrgn-lft-lg\">Le programme se termine au 31 mars, 2023.</p>\n</div>\n\n<nav>\n  <h2 class=\"wb-inv\">Navigation du document - pr\u00e9c\u00e9dente-suivante - bas</h2>\n<div class=\"row\">\n<div class=\"col-md-12 mrgn-lft-0 mrgn-rght-0\">\n<ul class=\"pager\">\n<li class=\"next\"><a href=\"?id=1517336959326\" rel=\"next\" title=\"Qui est admissible\">Suivante</a></li>\n</ul>\n</div>\n</div>\n</nav>\n\r\n    "
    }
}