{
    "dcr_id": "1515092171804",
    "title": {
        "en": "AgriMarketing Program:  Step 1. What this program offers",
        "fr": "Programme Agri-marketing :  \u00c9tape 1. Ce qu'offre ce programme"
    },
    "modified": "2020-11-02",
    "issued": "2018-02-13",
    "templatetype": "content page 1 column",
    "page_type": "1",
    "node_id": "1517240241710",
    "dc_date_created": "2018-02-13",
    "managing_branch": "PAB",
    "parent_node_id": "1354137773676",
    "short_title": "AgriMarketing Program",
    "exturl": "",
    "teamsite_location": {
        "en": "/default/main/AAFC-AAC/Internet-Internet/Group-Ensemble/ProgServ-ProgServ/WORKAREA/ProgServ-ProgServ/templatedata/comm-comm/gene-gene/data/01/agrimarketing_niac_1_1515092171804_en",
        "fr": "/default/main/AAFC-AAC/Internet-Internet/Group-Ensemble/ProgServ-ProgServ/WORKAREA/ProgServ-ProgServ/templatedata/comm-comm/gene-gene/data/01/agrimarketing_niac_1_1515092171804_fr"
    },
    "type_name": "sitemapinit",
    "has_dcr_id": true,
    "label": {
        "en": "AgriMarketing Program",
        "fr": "Programme Agri-marketing"
    },
    "breadcrumb": {
        "en": "AgriMarketing Program",
        "fr": "Programme Agri-marketing"
    },
    "layout_name": "content page 1 column",
    "lang": "en",
    "refaire": false,
    "meta": {
        "viewport": {
            "en": "width=device-width,initial-scale=1",
            "fr": "width=device-width, initial-scale=1"
        },
        "issued": {
            "en": "2018-02-13",
            "fr": "2018-02-13"
        },
        "modified": {
            "en": "2020-11-02",
            "fr": "2020-11-02"
        },
        "format": {
            "en": "text/html",
            "fr": "text/html"
        },
        "title": {
            "en": "AgriMarketing Program:  Step 1. What this program offers",
            "fr": "Programme Agri-marketing :  \u00c9tape 1. Ce qu'offre ce programme"
        },
        "subject": {
            "en": "architectural heritage;soil assessement",
            "fr": "syst\u00e8mes de culture;industrie de miel;revenus agricoles"
        },
        "dcterms:subject": {
            "en": "architecture;statistics;food safety",
            "fr": "d\u00e9veloppement \u00e9conomique;consultation;commerce ext\u00e9rieur"
        },
        "description": {
            "en": "Contact AgriMarketing. 1.What this program offers. 2.Who is eligible. Telephone: 1-877-246-4682. TDD/TTY: 613-773-2600. Floor, Room 221. Ottawa, ON K1A\u00a00C5.",
            "fr": "5. Guide du demandeur. 1.Que comprend ce service. Pour \u00eatre admissibles, les demandeurs doivent \u00eatre des entit\u00e9s juridiques habilit\u00e9es \u00e0 conclure des ententes ayant force ex\u00e9cutoire.Employeurs admissibles. , ou moyennant l'autorisation expresse du demandeur.4.0 \u00c9valuation et approbation."
        },
        "language": {
            "en": "eng",
            "fr": "fra"
        },
        "keywords": {
            "en": null,
            "fr": "AgriAssurance;Canada.Projets"
        },
        "audience": {
            "en": "gcaudience",
            "fr": "gcaudience"
        },
        "type": {
            "en": "media release",
            "fr": "\u00e9valuation"
        },
        "creator": {
            "en": "Agriculture and Agri-Food Canada;Government of Canada",
            "fr": "Agriculture et Agroalimentaire Canada;Gouvernement du Canada"
        },
        "spatial": {
            "en": "gcregions",
            "fr": "gcregions"
        },
        "service": {
            "en": "AAFC-AAC",
            "fr": "AAFC-AAC"
        },
        "accessRights": {
            "en": "2",
            "fr": "2"
        },
        "legalName": {
            "en": "agriculture_and_agri_food_canada",
            "fr": "agriculture_et_agroalimentaire_canada"
        },
        "areaServed": {
            "en": "Canada",
            "fr": "Canada"
        }
    },
    "h1": {
        "en": "AgriMarketing Program: Step 1. What this program offers",
        "fr": "Programme Agri-marketing : \u00c9tape 1. Ce qu'offre ce programme"
    },
    "js": {
        "en": "",
        "fr": ""
    },
    "body": {
        "en": "\r\n    <div class=\"mrgn-tp-md mrgn-bttm-lg brdr-bttm\">\n\n<div class=\"row\">\n<ul class=\"toc lst-spcd col-md-12 list-unstyled\">\n<li class=\"col-md-4 col-sm-6\"><span class=\"list-group-item active\">Step 1. What this program offers</span></li>\n\n<li class=\"col-md-4 col-sm-6\"><span class=\"list-group-item\">Step 2. <a href=\"?id=1515092363135\">Who is eligible</a></span></li>\n\n<li class=\"col-md-4 col-sm-6\"><span class=\"list-group-item\">Step 3. <a href=\"?id=1515092640615\">How to apply</a></span></li>\n\n<li class=\"col-md-4 col-sm-6\"><span class=\"list-group-item\">Step 4. <a href=\"?id=1515092708579\">After you apply</a></span></li>\n\n\n<li class=\"col-md-4 col-sm-6\"><span class=\"list-group-item\"><a href=\"?id=1515092838303\">Applicant guide</a></span></li>\n\n<li class=\"col-md-4 col-sm-6\"><span class=\"list-group-item\"><a href=\"?id=1515092903273\">Contact information</a></span></li>\n</ul>\n</div>\n</div>\n\n\n<h2>Step 1. What this program offers</h2>\n\n <p>The AgriMarketing Program  aims to increase and diversify  exports to international markets and seize domestic market opportunities.</p>\n\n<p>It will accomplish these goals by  supporting industry-led promotional activities that highlight Canadian products  and producers and boost Canada's reputation for high quality and safe food.</p>\n\n<p>If  approved, support is available in the form of non-repayable contribution support  from Agriculture and Agri-Food Canada.</p>\n\n \n\n \n<div class=\"alert alert-info\">\n<p>Applications for year 4 (2021-22) and year 5 (2022-23) will be accepted from December 1, 2020 until January 31, 2021, or until funding has been fully committed or until otherwise announced by the program. The program will prioritize applications received within these dates. </p>\n\n<p>Eligible applications received after January 31, 2021 will only be considered if sufficient funding remains, or until otherwise announced by the program.</p>\n<p>The program ends March 31, 2023</p>\n </div>\n\n\n\n\n<nav>\n  <h2 class=\"wb-inv\">Previous-next document navigation - bottom</h2>\n<div class=\"row\">\n<div class=\"col-md-12 mrgn-lft-0 mrgn-rght-0\">\n<ul class=\"pager\">\n<li class=\"next\"><a href=\"?id=1515092363135\" rel=\"next\" title=\"Who is eligible\">Next</a></li>\n</ul>\n</div>\n</div>\n</nav>\n\r\n    ",
        "fr": "\r\n    <div class=\"mrgn-tp-md mrgn-bttm-lg brdr-bttm\">\n\n<div class=\"row\">\n<ul class=\"toc lst-spcd col-md-12 list-unstyled\">\n<li class=\"col-md-4 col-sm-6\"><span class=\"list-group-item active\">\u00c9tape 1. Ce qu'offre ce programme</span></li>\n\n<li class=\"col-md-4 col-sm-6\"><span class=\"list-group-item\">\u00c9tape 2. <a href=\"?id=1515092363135\">Qui est admissible</a></span></li>\n\n<li class=\"col-md-4 col-sm-6\"><span class=\"list-group-item\">\u00c9tape 3. <a href=\"?id=1515092640615\">Comment pr\u00e9senter une demande</a></span></li>\n\n<li class=\"col-md-4 col-sm-6\"><span class=\"list-group-item\">\u00c9tape 4. <a href=\"?id=1515092708579\">Apr\u00e8s avoir pr\u00e9sent\u00e9 votre demande</a></span></li>\n\n<li class=\"col-md-4 col-sm-6\"><span class=\"list-group-item\"><a href=\"?id=1515092838303\">Guide du demandeur</a></span></li>\n\n<li class=\"col-md-4 col-sm-6\"><span class=\"list-group-item\"><a href=\"?id=1515092903273\">Pour nous joindre</a></span></li>\n</ul>\n</div>\n</div>\n\n<h2>\u00c9tape 1. Ce qu'offre ce programme</h2>\n\n \n<p>Le  programme Agri-marketing vise \u00e0  accro\u00eetre et \u00e0 diversifier les exportations \u00e0 l'\u00e9tranger, et \u00e0 saisir des  d\u00e9bouch\u00e9s sur le march\u00e9 national.</p>\n\n<p>Le  programme appuiera  des activit\u00e9s promotionnelles  dirig\u00e9es par l'industrie qui distinguent les produits et producteurs canadiens  et misent sur la r\u00e9putation du Canada comme producteur d'aliments de grande  qualit\u00e9 et sans danger pour la sant\u00e9.</p>\n\n<p>Si approuv\u00e9, un appui est disponible sous la forme de contribution  financi\u00e8re non remboursable d'Agriculture et Agroalimentaire Canada (AAC).</p>\n\n<div class=\"alert alert-info\">\n<p class=\"mrgn-lft-md\">Un processus d\u2019appel de propositions sera lanc\u00e9 pour les projets des ann\u00e9es de financement 2021-2022 (ann\u00e9e\u00a04) et 2022-2023 (ann\u00e9e\u00a05). Les demandes seront accept\u00e9es du 1<sup>er</sup>\u00a0d\u00e9cembre 2020 au 31\u00a0janvier 2021, ou jusqu'\u00e0 ce que l'int\u00e9gralit\u00e9 des fonds ait \u00e9t\u00e9 affect\u00e9e ou qu'une annonce contraire soit publi\u00e9e dans le cadre du programme. Le programme accordera la priorit\u00e9 aux demandes re\u00e7ues pendant cette p\u00e9riode.</p>\n\n<p>Les demandes admissibles re\u00e7ues apr\u00e8s le 31\u00a0janvier 2021 ne seront examin\u00e9es que s\u2019il reste suffisamment de fonds, ou qu'une annonce contraire soit publi\u00e9e dans le cadre du programme.</p>\n<p>Le programme se termine le 31\u00a0mars 2023. </p>\n </div>\n\n<nav>\n  <h2 class=\"wb-inv\">Navigation du document - pr\u00e9c\u00e9dente-suivante - bas</h2>\n<div class=\"row\">\n<div class=\"col-md-12 mrgn-lft-0 mrgn-rght-0\">\n<ul class=\"pager\">\n<li class=\"next\"><a href=\"?id=1515092363135\" rel=\"next\" title=\"Qui est admissible\">Suivante</a></li>\n</ul>\n</div>\n</div>\n</nav>\n\r\n    "
    }
}