{
    "dcr_id": "1515092838303",
    "title": {
        "en": "AgriMarketing Program:  Applicant guide",
        "fr": "Programme Agri-marketing :  Guide du demandeur"
    },
    "modified": "2020-11-02",
    "issued": "2018-02-13",
    "templatetype": "content page 1 column",
    "page_type": "1",
    "node_id": "1517246121939",
    "dc_date_created": "2018-02-13",
    "managing_branch": "PAB",
    "parent_node_id": "1517240241710",
    "short_title": "Applicant guide",
    "exturl": "",
    "teamsite_location": {
        "en": "/default/main/AAFC-AAC/Internet-Internet/Group-Ensemble/ProgServ-ProgServ/WORKAREA/ProgServ-ProgServ/templatedata/comm-comm/gene-gene/data/01/agrimarketing_niac_5_1515092838303_en",
        "fr": "/default/main/AAFC-AAC/Internet-Internet/Group-Ensemble/ProgServ-ProgServ/WORKAREA/ProgServ-ProgServ/templatedata/comm-comm/gene-gene/data/01/agrimarketing_niac_5_1515092838303_fr"
    },
    "type_name": "sitemapinit",
    "has_dcr_id": true,
    "label": {
        "en": "Applicant guide",
        "fr": "Guide du demandeur"
    },
    "breadcrumb": {
        "en": "Applicant guide",
        "fr": "Guide du demandeur"
    },
    "layout_name": "content page 1 column",
    "lang": "en",
    "refaire": false,
    "meta": {
        "viewport": {
            "en": "width=device-width,initial-scale=1",
            "fr": "width=device-width, initial-scale=1"
        },
        "issued": {
            "en": "2018-02-13",
            "fr": "2018-02-13"
        },
        "modified": {
            "en": "2020-11-02",
            "fr": "2020-11-02"
        },
        "format": {
            "en": "text/html",
            "fr": "text/html"
        },
        "title": {
            "en": "AgriMarketing Program:  Applicant guide",
            "fr": "Programme Agri-marketing :  Guide du demandeur"
        },
        "subject": {
            "en": "potato growers;sheep;soil assessement",
            "fr": "revenus agricoles;biocarburants;Gestion des risques de l'entreprise"
        },
        "dcterms:subject": {
            "en": "architectural heritage;architecture;statistics",
            "fr": "consultation;commerce ext\u00e9rieur;viande"
        },
        "description": {
            "en": "Applicant guides. 1.What this program offers. 2.Who is eligible. Value-added agriculture and agri-food processing \u2013 to support the continued growth of the value-added agriculture and agri-food processing sector. (Combined Contribution funding and Collaborative research assistance). The maximum AAFC funding amount for a Project will be less than $5\u00a0million over five-years.If you have multiple approved Projects/Clusters within this program, total AAFC funding cannot exceed $10 million per year.Cost sharing.",
            "fr": "AgriAssurance - Small and Medium-sized Enterprise Component. 3.Comment pr\u00e9senter une demande. 4.Apr\u00e8s avoir pr\u00e9sent\u00e9 votre demande. Pr\u00e9c\u00e9dente. Suivante."
        },
        "language": {
            "en": "eng",
            "fr": "fra"
        },
        "keywords": {
            "en": "type.Note",
            "fr": "Guide du demandeur"
        },
        "audience": {
            "en": "gcaudience",
            "fr": "gcaudience"
        },
        "type": {
            "en": "intellectual property statement",
            "fr": "plan d'activit\u00e9s"
        },
        "creator": {
            "en": "Agriculture and Agri-Food Canada;Government of Canada",
            "fr": "Agriculture et Agroalimentaire Canada;Gouvernement du Canada"
        },
        "spatial": {
            "en": "gcregions",
            "fr": "gcregions"
        },
        "service": {
            "en": "AAFC-AAC",
            "fr": "AAFC-AAC"
        },
        "accessRights": {
            "en": "2",
            "fr": "2"
        },
        "legalName": {
            "en": "agriculture_and_agri_food_canada",
            "fr": "agriculture_et_agroalimentaire_canada"
        },
        "areaServed": {
            "en": "Canada",
            "fr": "Canada"
        }
    },
    "h1": {
        "en": "AgriMarketing Program: Applicant guide",
        "fr": "Programme Agri-marketing : Guide du demandeur"
    },
    "js": {
        "en": "",
        "fr": ""
    },
    "body": {
        "en": "\r\n      <div class=\"mrgn-tp-md mrgn-bttm-lg brdr-bttm\">\n\n<div class=\"row\">\n<ul class=\"toc lst-spcd col-md-12 list-unstyled\">\n<li class=\"col-md-4 col-sm-6\"><span class=\"list-group-item\">Step 1. <a href=\"?id=1515092171804\">What this program offers</a></span></li>\n\n<li class=\"col-md-4 col-sm-6\"><span class=\"list-group-item\">Step 2. <a href=\"?id=1515092363135\">Who is eligible</a></span></li>\n\n<li class=\"col-md-4 col-sm-6 clr-lft-sm\"><span class=\"list-group-item\">Step 3. <a href=\"?id=1515092640615\">How to apply</a></span></li>\n\n<li class=\"col-md-4 col-sm-6\"><span class=\"list-group-item\">Step 4. <a href=\"?id=1515092708579\">After you apply</a></span></li>\n\n<li class=\"col-md-4 col-sm-6\"><span class=\"list-group-item active\">Applicant guide</span></li>\n\n<li class=\"col-md-4 col-sm-6\"><span class=\"list-group-item\"><a href=\"?id=1515092903273\">Contact information</a></span></li>\n</ul>\n</div>\n</div>\n\n<h2>Applicant guide</h2>\n\n\n\n\n<h3>Purpose of this guide</h3>\n\n<p>This guide will: </p>\n<ol>\n<li>help you determine if you may be eligible   for funding from Agriculture and Agri-Food Canada (AAFC) under the   AgriMarketing Program</li>\n<li>provide you with directions and explanations to assist you in completing the project application form</li>\n</ol>\n \n\n<p>Your completed application form will provide AAFC with the information needed to make decisions about eligibility and funding. It is highly recommended that you read this guide and <a href=\"?id=1517247441127\">Annex A: How to complete the application form</a> in its entirety before you complete the form.</p>\n\n \n<!--\n<p>AAFC strongly urges each applicant to:</p>\n<ol>\n<li>carefully read and understand the Applicant Guide;</li>\n<li>carefully read and understand the Annex A: How to Apply</li>\n<li>ensure activities and costs are eligible under the program; and</li>\n<li>fully complete the application, including all required documents attached to the application form and ensure that all relevant project details have been included.</li>\n</ol>\n\n-->\n\n<div class=\"alert alert-info\">\n<h3>Important information regarding challenges with COVID-19</h3>\n<p>In response   to the COVID-19 pandemic, the Government of Canada, as well as many   provinces and territories, have established guidance on discretionary   travel and public health orders <a href=\"https://www.canada.ca/en/public-health/services/diseases/2019-novel-coronavirus-infection/health-professionals/mass-gatherings-risk-assesment.html\">restricting gatherings/events of   different purposes and sizes in order to contain COVID-19 spread</a>. These   measures remain in effect until further notice.</p>\n\n<p>AAFC will be   considering COVID-19 restrictions during the review of project   applications under the AgriMarketing Program.</p>\n\n<p>As you plan your activities for 2021-22 (year 4) and 2022-23 (year 5), AAFC encourages you to:</p>\n\n<ul>\n<li>propose activities that are not reliant on travel and in person meetings</li>\n<li>plan alternative delivery models in case of continued   restrictions or international/local outbreaks</li>\n<li>consider how your organization can adapt to support your clients in the context of the evolving COVID-19 pandemic</li>\n</ul>\n\n<p>Some examples of activities to consider include virtual tours and meeting platforms, market research and/or   engaging in-market staff.  <a href=\"?id=1515092903273\">Contact the program</a> if you would like to discuss your plans during the COVID-19 pandemic.</p>\n\n</div>\n\n<h2>Table of contents </h2>\n\n<ul class=\"list-unstyled\">\n<li><a href=\"#s1\">1.0 Canadian Agricultural Partnership</a>\n <ul class=\"list-unstyled mrgn-lft-lg\">\n<li><a href=\"#s1_1\">1.1 About the AgriMarketing Program</a></li>\n<li><a href=\"#s1_2\">1.2 Eligible applicants</a></li>\n<li><a href=\"#s1_3\">1.3 Funding and cost-sharing</a></li>\n<li><a href=\"#s1_4\">1.4 Eligible activities</a></li>\n<li><a href=\"#s1_5\">1.5 Ineligible activities</a></li>\n<li><a href=\"#s1_6\">1.6 Application deadlines</a></li>\n</ul>\n</li>\n<li><a href=\"#s2\">2.0 Expected results</a></li>\n<li><a href=\"#s3\">3.0 Assessment criteria</a></li>\n<li><a href=\"#s4\">4.0 Reporting on your project</a></li>\n<li><a href=\"#s5\">5.0 Considerations</a>\n <ul class=\"list-unstyled mrgn-lft-lg\">\n  <li><a href=\"#s5_1\">5.1 M-30 Act (Quebec only)</a></li>\n </ul>\n</li>\n<li><a href=\"#s6\">6.0 After you apply</a></li>\n<li><a href=\"#s7\">7.0 Contact information</a></li>\n<li><a href=\"?id=1517247441127\">Annex A: How to complete the application form</a></li>\n</ul>\n\n<h2 id=\"s1\">1.0 Canadian Agricultural Partnership</h2>\n\n<p>The Canadian Agricultural Partnership is a five-year, $3  billion investment by federal, provincial and territorial governments to  strengthen the agriculture, agri-food and agri-based products sector. In  addition, producers will continue to have access to a robust suite of Business  Risk Management (BRM) programs.</p>\n\n<p>The Partnership came into force on April 1, 2018.</p>\n\n<p>The Canadian Agricultural Partnership focuses on six  priority areas:</p>\n\n<ul>\n  <li><b>Science, research, and innovation</b> \u2013  to help industry use science and innovation to improve resiliency and increase productivity</li>\n  <li><b>Markets and trade</b> \u2013 to open new markets and help farmers and food processors improve their competitiveness through skills development, improved export capacity, underpinned by a strong and efficient regulatory system</li>\n  <li><b>Environmental sustainability and climate change</b> \u2013 to help the sector reduce its greenhouse gas emissions, protect the environment and adapt to climate change by enhancing sustainable growth while increasing production</li>\n  <li><b>Value-added agriculture and agri-food processing</b> \u2013 to support the continued growth of the value-added agriculture and agri-food processing sector</li>\n  <li><b>Public trust</b> \u2013 to build a firm foundation for public trust through solid regulations, improving assurance systems and traceability</li>\n  <li><b>Risk Management</b> \u2013 to enable proactive and effective risk management, mitigation and adaptation to create a resilient sector</li>\n</ul>\n<p>The AgriMarketing program is a program under the Canadian  Agricultural Partnership.</p>\n\n<p>For more information, please visit the <a href=\"?id=1461767369849\">Canadian Agricultural  Partnership</a> website.</p>\n\n<h3 id=\"s1_1\">1.1 About the AgriMarketing Program</h3>\n\n<h4>Program objective</h4>\n\n<p>The AgriMarketing Program aims to increase and diversify exports  to international markets and seize domestic market opportunities through  industry-led promotional activities that differentiate Canadian products and  producers, and leverage Canada's reputation for high quality and safe food.</p>\n \n<h3 id=\"s1_2\">1.2 Eligible applicants</h3>\n\n<p>A non-profit corporation that is a legal entity separate from its members and directors formed for purposes other than generating a profit to be distributed to its members, directors or officers. While, a non-profit corporation can earn a profit, the profit must be used to further the goals of the corporation rather than to pay dividends to its membership.</p>\n\n<p>The following non-profit corporation  organization types are  eligible under this program:</p>\n\n<ul>\n  <li>associations in Canada operating on a national  industry-wide basis in the agriculture, agri-food, agri-based products sector,  including fish and seafood</li>\n  <li>associations in Canada operating on a regional  basis in the agriculture, agri-food, agri-based products sector, including fish  and seafood, that represent significant Canadian production within that sector  and can demonstrate their ability to deliver a project from a national  perspective</li>\n</ul>\n \n\n<p><strong>Notes:</strong></p>\n<ul>\n  <li>eligible applicants must be legal  entities capable of entering into legally binding agreements</li>\n  <li>eligible applicants should be  members of the <a href=\"https://marquecanadabrand.agr.gc.ca/intro/index-eng.html\">Canada Brand</a> (For further information on becoming a  Canada Brand member, please visit <a href=\"https://marquecanadabrand.agr.gc.ca/intro/join-joignez-eng.html\">Join Canada Brand</a>) </li>\n</ul>\n\n<h3 id=\"s1_3\">1.3 Funding and cost-sharing</h3>\n\n<h4>Available funding</h4>\n\n<p>The maximum AAFC contribution for a project will normally not exceed $2.5 million  per year up to a maximum of $10 million over five years.</p>\n\n<h4>Cost sharing</h4>\n\n<p>Eligible  project costs will normally be shared between AAFC and you as follows:</p>\n<ul>\n<li>a maximum of 50% AAFC and a minimum of 50% Applicant</li>\n</ul>\n\n<p>A  more favourable cost share of a maximum of 70% AAFC and a minimum of 30%  Applicant may be available for activities in new and emerging markets. The  questionnaire on diversification in the \"attachments\" section of the project  information tab of the application form will assist in assessing if the  applicant is diversifying into new and emerging markets.</p>\n\n<div class=\"well well-sm\">\n  <p>You must clearly indicate all sources of funding for the project, including your contribution and other industry and/or partner sources of funding including:</p>\n\n\n<ul><li>other federal government departments, agencies and crown corporations <sup id=\"fn*-1-rf\"><a class=\"fn-lnk\" href=\"#fn*\">Footnote *</a></sup></li>\n<li>provincial/territorial governments <sup id=\"fn*-2-rf\"><a class=\"fn-lnk\" href=\"#fn*\">Footnote *</a></sup></li>\n<li>municipal government <sup id=\"fn*-3-rf\"><a class=\"fn-lnk\" href=\"#fn*\">Footnote *</a></sup></li>\n<li>Industry and/or Partners such as:\n<ul><li>industry associations and networks</li>\n<li>businesses</li>\n  <li>academic institutions</li>\n </ul>\n </li>\n</ul>\n\n<aside class=\"wb-fnote\" role=\"note\">\n<dl>\n<dt>Footnote *</dt>\n<dd id=\"fn*\"><p>Total government funding (inclusive of federal departments, agencies and crown corporations, provincial/territorial, and municipal governments) cannot exceed 85%.</p>\n\n<p>Your portion of the cost-share must be cash contributions. In-kind contributions are ineligible. In-kind means the fair market value attributed for goods and the fair value attributed for services that are contributed to the project and require no outlay of cash during the term of the \n<a href=\"?id=1550849115702\">contribution agreement</a> by you or a contributor.</p>\n\n<p class=\"fn-rtn\"><a href=\"#fn*-1-rf\"><span class=\"wb-inv\">Return to <span>first</span> footnote </span>*<span class=\"wb-inv\"> referrer</span></a></p>\n</dd>\n</dl>\n</aside>\n\n</div>\n\n\n<h4>What is a cash contribution?</h4>\n\n<p>A cash contribution is an expense requiring a cash outlay, by either your organization or by a participant/contributor (such as a partner or other government), during the term of the Contribution Agreement (CA). Specifically, a cash contribution is an expenditure for an eligible project cost incurred and paid for by your organization, or another project participant. </p>\n\n<div class=\"well well-sm\">\n<p>AAFC will only reimburse cash contributions for eligible project costs that are incurred and paid for by your organization. A cash contribution made by another project participant should be reported as part of your sources of funding, and must be an eligible project cost.</p>\n</div>\n \n\n<h4>Eligible costs</h4>\n\n<p>All costs claimed or contributed  under the program must fall within the program cost categories and respect all  limitations,  including effective dates of the <a href=\"?id=1550849115702\">contribution agreement</a>. For more information and details on cost categories,  eligible/ineligible costs and other limitations, refer  to the <a href=\"?id=1517247441127#a1.3\">Project costs</a> section of Annex A.</p>\n\n<h4>Ineligible costs</h4>\n\n<p>While an expense  may fall within a program cost category, there are limitations to the types of  expenses which may be claimed. For more information and details on cost  categories, eligible/ineligible costs and other limitations, refer to the <a href=\"?id=1517247441127#a1.3\">Project  costs</a> section of Annex A.</p>\n\n<p>For further clarity, ineligible costs include, but are not limited to:</p>\n\n<ul>\n  <li>hospitality, alcohol, entertainment and gifts</li>\n  <li>the refundable portion of the GST, HST, value-added       taxes or other items for which a refund or rebate is eligible</li>\n  <li>cost for activities intended to directly       influence/lobby governments</li>\n  <li>other costs not specifically required for the project</li>\n</ul>\n<h3 id=\"s1_4\">1.4 Eligible activities</h3>\n<p>The program will prioritize projects that:</p>\n<ul>\n<li>contribute to the Government's trade and economic priorities of: diversifying markets, increasing annual agricultural exports, and supporting Canada's economic growth</li>\n<li>focus on new/priority markets that align with AAFC's and the Government's international priorities</li>\n</ul>\n\n\n<div class=\"well well-sm\">\n<p>Following Section 1.3 (funding and cost-sharing) above, a more favourable cost share of 70:30 (AAFC: Applicant) may be available for eligible activities in new and emerging markets. This focus on diversification into new and emerging markets aligns with AAFC and the Government\u2019s international priorities. </p>\n</div>\n\n<p>Eligible  activities include:</p>\n<ul>\n  <li>industry-wide       advertising and promotion, including in-store and food service promotions       and product demonstrations for buyers (businesses and consumers)</li>\n  <li>incoming, outgoing and exploratory missions</li>\n  <li>market research </li>\n  <li>technical training for buyers about Canadian products and product handling</li>\n  <li>trade seminars designed to inform industry representatives of specific attributes of Canadian agriculture, agri-food, fish and seafood products</li>\n  <li>industry-to-industry trade advocacy (note: activities aimed at lobbying Canadian and foreign governments are ineligible)</li>\n  <li>participation in or attendance at trade shows and multilateral industry meetings and conferences. </li>\n</ul>\n\n<div class=\"well well-sm\">\n<p>Please note: Funding under the AgriMarketing Program is not available for attending within the Canada Pavilion  flagship tradeshows. Visit <a href=\"?id=1518440736899\">Canada Pavilion Program</a> for more information about trade  shows. </p>\n<p>Consideration may be given to those who wish to exhibit  within a sector hall. </p>\n</div>\n\n<h3 id=\"s1_5\">1.5 Ineligible activities</h3>\n \n  <p>Ineligible  activities include:</p>\n  <ul>\n    <li>core business of the organization, including, but not limited to:\n    <ul>\n      <li>maintenance and hosting fees of member websites and social media accounts</li>\n      <li>forums  and working groups</li>\n      <li>annual,  member, and board meetings</li>\n    </ul>\n    </li>\n    <li>product  development and commercialization, including product trials</li>\n    <li>basic and applied research, analysis and development of industry-specific policies not related to market access or market development</li>\n    <li>activities intended to directly lobby governments</li>\n    <li>training for consultants or employees</li>\n  </ul>\n  \n\n<h3 id=\"s1_6\">1.6 Application deadlines</h3>\n\n<p>Applications were  accepted on an ongoing basis from February 13, 2018 to March 31, 2020 for the  first three years of the program. </p>\n\n<p>Starting December 1, 2020, a <b>call for proposals process</b> will be  undertaken for projects for the 2021-22 (year 4) and 2022-23 (year 5) funding  years. Applications will be accepted as of <b>December\u00a01, 2020</b> until <b>January 31, 2021</b>.  The Program will prioritize applications received within these dates.</p>\n\n<p>Eligible applications received after  January 31, 2021 will only be considered if sufficient funding remains.  </p>\n\n<p>The program ends March  31, 2023. </p> \n\n<h2 id=\"s2\">2.0 Expected results</h2>\n\n<p>Federally delivered CAP activities will help the  agriculture and agri-food sector grow and become more resilient. Budget 2017  set an ambitious target to grow agri-food exports to $75 billion by 2025.</p>\n\n<p>Canada\u2019s agriculture and agri-food sector is one of the  most respected in the world. Government plays a key role in providing tools to  help the sector adapt to and align with public values.</p>\n\n<p>Today\u2019s globalized marketplace creates both new  opportunities and challenges for the performance and sustainable growth of  Canada\u2019s diverse agriculture and agri-food sector. The sector\u2019s success is dependent  on strong collaboration between industry and governments to remain competitive  and prosper in this complex environment.</p>\n\n<p>The expected outcome  of the AgriMarketing Program is to help industry to identify and seize  opportunities in global markets by supporting industry-led market development  and promotional activities that help to differentiate Canadian products and  producers, and leverage Canada\u2019s reputation for high-quality and safe food.</p>\n\n<p>Performance  indicators, which are used to measure the relevance and effectiveness of both  projects and the program, include:</p>\n\n<ul>\n<li>increased exports</li>\n<li>number of new markets explored</li>\n<li>results of marketing activities (for example, sales and leads)</li>\n<li>results of trade advocacy activities (for example, number of issues resolved)</li>\n</ul>\n \n\n<div class=\"well well-sm\">\n  <p>Applications must demonstrate how the proposed project will address the industry/sector need, as well as provide clearly defined targets and performance measures.</p>\n</div>\n\n<h2 id=\"s3\">3.0 Assessment criteria</h2>\n\n<p>Your  application will initially be assessed against the following criteria:</p>\n<ul>\n<li>the application is complete and the proposed project is eligible</li>\n  <li>the proposed activities, including expected results and outcomes, support the program's objectives and       priorities </li>\n  <li>all sources of funding for the project funded under this stream are identified </li>\n</ul>\n\n\n\n<p>If these  criteria are met, a more thorough review of your application will be done. This  will include:</p>\n\n<ul>\n  <li>reviewing your organization's capacity to deliver the project, taking into consideration your resources and timelines</li>\n  <li>assessing the degree to which the proposed       project can demonstrate a current or potential market opportunity or need</li>\n  <li>ensuring the proposed activities and expenditures       are eligible, reasonable and required to meet the project objectives</li>\n  <li>evaluating the organization's strategy to       diversify into new and emerging markets</li>\n  <li>evaluating the project's impact to stakeholders       and how it benefits the sector</li>\n \n  <li>reviewing your organization's performance on previous projects where you received AAFC funding, including administration of the projects</li>\n \n  <li>evaluating the sector's export potential and market access opportunities for example, recent or anticipated changes in market access, and the project's value for money</li>\n <li>assessing the strategic merit of the project (Does your project link to the AgriMarketing Program Questionnaire provided with the application?)</li>\n  <li>assessing how the activities complement or build upon previously completed AgriMarketing projects </li>\n</ul>\n\n<p>The assessment  process will determine an appropriate amount of funding for approved projects.  This will be based on the:</p>\n\n<ul>\n  <li>scope  and duration of project</li>\n  <li>reasonableness  of proposed eligible expenses</li>\n  <li>importance  of proposed eligible activities for greater impact to the sector</li>\n  <li>reasonableness  of the overall projected cost of eligible expenditures given the projected  outcome(s)</li>\n  <li>other  sources of funding</li>\n  <li>due  diligence in obtaining and reporting on performance reports</li>\n</ul>\n<p>AAFC will  provide a written decision letter outlining the level of assistance awarded and  any other conditions, if applicable.</p>\n\n\n<div class=\"well well-sm\">\n  <p>Each application will be meticulously reviewed for  eligibility, appropriateness, and impact. For an applicant to prove that the  activity cost meets each of the above three elements, it is important that each  activity and corresponding cost is provided in a manner that is required for an  appropriate assessment by AAFC. Please refer to <a href=\"?id=1517247441127\">Annex A</a> for detailed  information on how to complete a project application. </p>\n  <ul>\n    <li>each activity requires an explanation of the benefits and impact to the target market proposed in each activity, and how each will be measured and assessed. </li>\n    <li>please outline the anticipated number of participants, but also be mindful that AAFC is looking for more detail on how this activity will positively impact the audience. </li>\n    <li>each activity must be clearly defined and articulated in each section of the application.</li>\n<li>each cost must clearly outline how the value was  calculated.</li></ul> </div>\n\n<h2 id=\"s4\">4.0 Reporting on your project</h2>\n\n<p>If your project is approved, AAFC will communicate the  level of reporting necessary in writing in advance of the signing of \na <a href=\"?id=1550849115702\">contribution  agreement</a>. The reporting includes progress, performance and financial  reports.</p>\n\n<h3>Progress reports</h3>\n\n<p>You will be required to provide progress reports describing the activities completed and progress made towards deliverables, as described in the Project Work Plan. Progress report frequency is either quarterly, semi-annually or annually, depending on risk level.</p>\n\n<h3>Performance reports</h3>\n\n<p>You will also be required to provide performance reports annually and at the end of the project. The reports will track progress against mutually agreed to performance measures outlined in the Contribution Agreement.</p>\n\n<h3>Financial reports</h3>\n\n<p>Financial reporting is required with each request for  reimbursement of expenditures, in addition to year-end accounting and other  financial reports. When submitting a claim for reimbursement, supporting  invoices representing 10%, 20% or 40%, or another percentage may be required.</p>\n\n<p>Other reports may be required at AAFC's discretion.</p>\n\n<h2 id=\"s5\">5.0 Considerations</h2>\n\n<h3 id=\"s5_1\">5.1 M-30 Act (Quebec organizations only)</h3>\n\n<p>The Province of Quebec\u2019s M-30 legislation may apply to  Qu\u00e9bec based applicants only. It is the <a href=\"http://legisquebec.gouv.qc.ca/en/ShowDoc/cs/M-30\"><cite>Act Respecting the  Minist\u00e8re du Conseil ex\u00e9cutif</cite></a> (R.S.Q., c. M-30).</p>\n\n<p>More information on the Act is available online or by  contacting the <cite>Minist\u00e8re de l\u2019Agriculture, des P\u00eacheries et de  l\u2019Alimentation</cite> (MAPAQ) at <a href=\"mailto:dpci@mapaq.gouv.qc.ca\">dpci@mapaq.gouv.qc.ca</a>.</p>\n\n<p>M-30 applies to various types of Quebec organizations, for  example, organizations located in Qu\u00e9bec and receiving more than half of their  financing from the Government of Quebec may be subject to the Act.</p>\n\n<p>All Quebec based organizations will have to address this  matter and demonstrate their compliance with the Act during the project  assessment process, and prior to entering into a contribution agreement.</p>\n\n<h2 id=\"s6\">6.0 After you apply</h2>\n\n<p>Once an  application has been submitted, an acknowledgment notice will be forwarded to  the applicant.</p>\n\n<p>Note: You  should not consider an application as submitted to the program until you  receive the acknowledgement notice.</p>\n\n<p>Our goal is to:</p>\n\n<ul>\n<li>acknowledge receipt of your application within one business day</li>\n \n  <li>respond to general inquiries made to our phone number or email address before the end of the next business day</li>\n  <li>assess your application and send you an approval or a rejection notification letter within 100 business days of the close of December 1, 2020 \u2013 January 31, 2021 application intake window, or within 100 business days of the application being deemed complete, if received after the December 1, 2020 \u2013 January 31, 2021 intake period</li>\n</ul>\n\n<p>After your application is received, AAFC verifies that all required  forms and declarations have been completed accurately and there is sufficient  detail in the application for a full assessment. </p>\n\n<p>Next, a full review and assessment of your application against the  principles and criteria of the program will be carried out by assessors  including program administrators and other technical reviewers within the department  (and in some cases in other departments).   </p>\n\n<p>At any point after you apply, we may contact you for more information. </p>\n\n<p>Should your application be approved, a program officer will communicate  with you to go over the details of the approval including activities, funding  levels as well as start and end dates. The program officer will then follow up  with you to negotiate the details of the <a href=\"?id=1550849115702\">contribution agreement</a> you will be required to enter into. It should be noted that even if an  approval is granted, AAFC does not have the authority to reimburse recipients  for costs incurred until a Contribution Agreement is signed.</p>\n\n<p>Please note  that even if a project meets all eligibility criteria, the submission of an  application creates no obligation on the part of the Minister or of Agriculture  and Agri-Food Canada officials to provide funding for the proposed project. The  Minister retains discretion to determine, based on other public policy and  public interest considerations, whether an application that meets the criteria  identified in this Guide will ultimately receive funding.</p>\n\n<h2 id=\"s7\">7.0 Contact information</h2>\n\n<p>For more information on the AgriMarketing Program, please contact us by:</p>\n\n<p>Telephone: 1-877-246-4682<br>\nTDD/TTY: 613-773-2600</p>\n\n<p>Email: <a href=\"mailto:aafc.agrimarketingagri-marketing.aac@canada.caa\">aafc.agrimarketingagri-marketing.aac@canada.ca</a></p>\n\n<p>Mail</p>\n<p>Agriculture and Agri-Food Canada<br>\nAgriMarketing Program<br>\n1341 Baseline Road, T7-7-216<br>\nOttawa, ON \u00a0 K1A 0C5</p> \n\n<nav>\n  <h2 class=\"wb-inv\">Previous-next document navigation - bottom</h2>\n\n<div class=\"row\">\n<div class=\"col-md-12 mrgn-lft-0 mrgn-rght-0\">\n<ul class=\"pager\">\n<li class=\"previous\"><a href=\"?id=1515092708579\" title=\"After you apply\">Previous</a></li>\n<li class=\"next\"><a href=\"?id=1515092903273\" title=\"Contact information\">Next</a></li>\n</ul>\n</div>\n</div>\n</nav>\n\r\n    ",
        "fr": "\r\n    \n<div class=\"mrgn-tp-md mrgn-bttm-lg brdr-bttm\">\n\n<div class=\"row\">\n<ul class=\"toc lst-spcd col-md-12 list-unstyled\">\n<li class=\"col-md-4 col-sm-6\"><span class=\"list-group-item\">\u00c9tape 1. <a href=\"?id=1515092171804\">Ce qu'offre ce programme</a></span></li>\n\n<li class=\"col-md-4 col-sm-6\"><span class=\"list-group-item\">\u00c9tape 2. <a href=\"?id=1515092363135\">Qui est admissible</a></span></li>\n\n<li class=\"col-md-4 col-sm-6 clr-lft-sm\"><span class=\"list-group-item\">\u00c9tape 3. <a href=\"?id=1515092640615\">Comment pr\u00e9senter une demande</a></span></li>\n\n<li class=\"col-md-4 col-sm-6\"><span class=\"list-group-item\">\u00c9tape 4. <a href=\"?id=1515092708579\">Apr\u00e8s avoir pr\u00e9sent\u00e9 votre demande</a></span></li>\n\n<li class=\"col-md-4 col-sm-6\"><span class=\"list-group-item active\">Guide du demandeur</span></li>\n\n<li class=\"col-md-4 col-sm-6 clr-lft-sm\"><span class=\"list-group-item\"><a href=\"?id=1515092903273\">Pour nous joindre</a></span></li>\n</ul>\n</div>\n</div>\n<!--\n<p><a href=\"https://www.agr.gc.ca/resources/prod/doc/pdf/1515092838303-fra.pdf\">Programme Agri-marketing&nbsp;: Guide du demandeur (PDF, 184&nbsp;Ko)</a></p> -->\n \n<h2>Guide du demandeur</h2>\n\n<h3>Objet du pr\u00e9sent guide</h3>\n<p>Le pr\u00e9sent guide\u00a0:</p>\n<ol>\n  <li>Vous aidera \u00e0 d\u00e9terminer si  vous \u00eates admissible \u00e0 un financement d\u2019Agriculture et Agroalimentaire Canada (AAC) dans le cadre du programme Agri-marketing; et</li>\n  <li>Vous fournira des instructions et des explications pour vous aider \u00e0 remplir le formulaire de pr\u00e9sentation de projet.</li>\n</ol>\n  \n    \n<p>Votre formulaire de demande  d\u00fbment rempli fournira \u00e0 AAC l\u2019information n\u00e9cessaire pour prendre les  d\u00e9cisions quant \u00e0 votre admissibilit\u00e9 et au financement.   AAC recommande vivement de lire le pr\u00e9sent guide et l'<a href=\"?id=1517247441127\">annexe A : Comment remplir le formulaire de demande</a> au complet avant de remplir le formulaire. </p>\n \n \n\n\n<div class=\"alert alert-info\">\n<h3>Informations importantes concernant les d\u00e9fis pos\u00e9s par COVID-19</h3>\n\n<p>En r\u00e9ponse \u00e0 la pand\u00e9mie de COVID-19, le gouvernement du Canada, ainsi que plusieurs provinces et territoires, ont \u00e9tabli des directives sur les voyages discr\u00e9tionnaires et des d\u00e9crets de sant\u00e9 publique <a href=\"https://www.canada.ca/fr/sante-publique/services/maladies/2019-nouveau-coronavirus/professionnels-sante/rassemblement-masse-fonde-risques.html\">limitant les rassemblements et les \u00e9v\u00e9nements de diff\u00e9rents types et tailles afin de freiner la propagation de la COVID-19</a>. Ces mesures demeureront en vigueur jusqu\u2019\u00e0 nouvel ordre.</p>\n\n<p>AAC tiendra compte des restrictions li\u00e9es \u00e0 la COVID-19 lors de l\u2019examen des demandes de projets dans le cadre du programme \nAgri-marketing.</p>\n\n<p>Lorsque vous planifierez vos activit\u00e9s de 2021-2022 (ann\u00e9e 4) et 2022-2023 (ann\u00e9e 5), AAC vous encourage \u00e0\u00a0:</p>\n\n<ul>\n<li>propose des activit\u00e9s qui ne dependent pas des d\u00e9placements ni des rencontres en personne</li>\n<li>pr\u00e9voir d\u2019autres mod\u00e8les de prestation en cas de prolongation des restrictions ou d\u2019\u00e9closion international/locale</li>\n<li>d\u00e9terminer comment votre organisation peut \u00e9voluer pour appuyer vos clients dans le context de la pand\u00e9mie de COVID-19</li></ul>\n\n<p>Parmi les exemples d'activit\u00e9s \u00e0 envisager figurent les visites virtuelles et les plateformes de rencontre, les \u00e9tudes de march\u00e9 et/ou l'engagement de personnel sur le march\u00e9.</p>\n\n<p><a href=\"?id=1515092903273\">Contactez le  programme</a> pour discuter de vos plans durant la pand\u00e9mie de COVID-19. </p>\n\n</div>\n\n\n\n<nav>\n  <h2>Table des mati\u00e8res</h2>\n<ul class=\"list-unstyled mrgn-lft-lg\">\n<li><a href=\"#a1\">1.0 Partenariat canadien pour l'agriculture</a>\n<ul class=\"list-unstyled mrgn-lft-lg\">\n<li><a href=\"#a1.1\">1.1 \u00c0 propos du programme Agri-marketing</a></li>\n<li><a href=\"#a1.2\">1.2 Demandeurs admissibles</a></li>\n<li><a href=\"#a1.3\">1.3 Financement et partage des co\u00fbts</a></li>\n<li><a href=\"#a1.4\">1.4 Activit\u00e9s admissibles</a></li>\n<li><a href=\"#a1.5\">1.5 Activit\u00e9s non admissibles</a></li>\n<li><a href=\"#a1.6\">1.6 Dates limites de d\u00e9p\u00f4t des demandes</a></li>\n</ul></li>\n<li><a href=\"#a2\">2.0 R\u00e9sultats attendus</a></li>\n<li><a href=\"#a3\">3.0 Crit\u00e8res d'\u00e9valuation</a></li>\n<li><a href=\"#a4\">4.0 Production de rapports concernant votre projet</a></li>\n<li><a href=\"#a5\">5.0 Consid\u00e9rations</a> \n<ul class=\"list-unstyled mrgn-lft-lg\">\n<li><a href=\"#a5.1\">5.1 Loi M-30 (organismes du Qu\u00e9bec seulement)</a></li>\n</ul>\n</li>\n<li><a href=\"#a6\">6.0 Apr\u00e8s avoir pr\u00e9sent\u00e9 votre demande</a></li>\n<li><a href=\"#a7\">7.0 Contactez-nous</a></li>\n<li><a href=\"?id=1517247441127\">Annexe A\u00a0: Comment  remplir le formulaire de demande</a></li>\n</ul>\n</nav>\n\n<div class=\"mrgn-tp-lg mrgn-bttm-lg brdr-bttm\"></div>\n\n<h2 id=\"a1\">1.0 Partenariat canadien pour l'agriculture</h2>\n\n<p>Le Partenariat canadien  pour l\u2019agriculture (PCA) repr\u00e9sente un investissement de trois milliards de  dollars r\u00e9parti sur cinq ans r\u00e9alis\u00e9 par les gouvernements f\u00e9d\u00e9ral, provinciaux  et territoriaux qui vise \u00e0 renforcer le secteur de l\u2019agriculture, de  l\u2019agroalimentaire et des produits agro-industriels. De plus, les producteurs  continueront d\u2019avoir acc\u00e8s \u00e0 une gamme bien \u00e9tablie de programmes de gestion  des risques de l\u2019entreprise (GRE).</p>\n\n<p>Ce partenariat est entr\u00e9 en  vigueur le 1<sup>er</sup>\u00a0avril 2018.</p>\n\n<p>Le Partenariat canadien  pour l\u2019agriculture mettra l\u2019accent sur six domaines prioritaires\u00a0:</p>\n\n<ul>\n<li><b>Science, recherche et innovation</b> \u2013 aider l\u2019industrie \u00e0 utiliser la science et l\u2019innovation pour am\u00e9liorer la r\u00e9silience et accro\u00eetre la productivit\u00e9</li>\n<li><b>March\u00e9s et commerce</b> \u2013 ouvrir de nouveaux march\u00e9s et aider les agriculteurs et les transformateurs alimentaires \u00e0 am\u00e9liorer leur capacit\u00e9 concurrentielle par le perfectionnement des comp\u00e9tences et  l\u2019expansion de la capacit\u00e9 d\u2019exportation, le tout soutenu par un syst\u00e8me de r\u00e9glementation rigoureux et efficace</li>\n  <li><b>Durabilit\u00e9 environnementale et changements climatiques</b> \u2013 aider le secteur \u00e0 r\u00e9duire ses \u00e9missions de gaz \u00e0 effet de serre, \u00e0 prot\u00e9ger l\u2019environnement et \u00e0 s\u2019adapter aux changements climatiques en favorisant une croissance durable tout en augmentant la       production</li>\n  <li><b>Agriculture et transformation agroalimentaire \u00e0 valeur ajout\u00e9e</b> \u2013 appuyer la croissance soutenue du secteur de l\u2019agriculture et de la transformation agroalimentaire \u00e0 valeur ajout\u00e9e</li>\n  <li><b>Confiance du public</b> \u2013 mettre en place une base solide sur laquelle reposera la confiance du public \u00e0 l\u2019aide de syst\u00e8mes d\u2019assurance et de tra\u00e7abilit\u00e9 am\u00e9lior\u00e9s</li>\n  <li><b>Gestion des risques</b> \u2013 favoriser la gestion et \u2019att\u00e9nuation efficaces et proactives des risques, ainsi que l\u2019adaptation \u00e0 ceux-ci, pour assurer la r\u00e9silience du secteur</li>\n</ul>\n<p>Le programme Agri-marketing est un programme encadr\u00e9 par le Partenariat canadien pour l\u2019agriculture.</p>\n\n<p>Pour obtenir de plus amples renseignements, visitez la page <a href=\"?id=1461767369849\">Partenariat canadien pour l'agriculture</a>.</p>\n\n<h3 id=\"a1.1\">1.1 \u00c0 propos du programme Agri-marketing</h3>\n\n<h4>Objectif du programme</h4>\n  \n<p>Le programme Agri-marketing vise \u00e0 accro\u00eetre et \u00e0 diversifier les exportations \u00e0 l'\u00e9tranger, et \u00e0 saisir des d\u00e9bouch\u00e9s sur le march\u00e9 national par l'entremise d'activit\u00e9s promotionnelles dirig\u00e9es par l'industrie qui distinguent les produits et producteurs canadiens et misent sur la r\u00e9putation du Canada comme producteur d'aliments de grande qualit\u00e9 et sans danger pour la sant\u00e9.</p>\n\n<h3 id=\"a1.2\">1.2 Demandeurs admissibles</h3>\n\n  <p>Soci\u00e9t\u00e9 \u00e0 but non lucratif qui est une entit\u00e9 juridique distincte de ses membres et de ses administrateurs, form\u00e9e dans un but autre que celui de g\u00e9n\u00e9rer un profit \u00e0 distribuer \u00e0 ses membres, administrateurs ou dirigeants. Bien qu\u2019une soci\u00e9t\u00e9 \u00e0 but non lucratif puisse r\u00e9aliser des b\u00e9n\u00e9fices, ceux-ci doivent \u00eatre utilis\u00e9s pour promouvoir les objectifs de la soci\u00e9t\u00e9 plut\u00f4t que pour verser des dividendes \u00e0 ses membres.  </p>\n\n<p>Les organismes sans but  lucratif ci-dessous sont admissibles dans le cadre du pr\u00e9sent programme\u00a0:</p>\n \n  <ul>\n<li>associations au Canada qui exercent leurs activit\u00e9s \u00e0 l'\u00e9chelle de l'industrie nationale dans le secteur de l'agriculture, de l'agroalimentaire et des produits agro-industriels, y compris le poisson et les fruits de mer; </li>\n<li>associations au Canada qui exercent leurs activit\u00e9s \u00e0 l'\u00e9chelle r\u00e9gionale dans le domaine de l'agriculture, de l'agroalimentaire et des produits agro-industriels, y compris le poisson et les fruits de mer, et qui repr\u00e9sentent une part importante de la production canadienne au sein de ce secteur et qui sont en mesure de d\u00e9montrer leur capacit\u00e9 de mener \u00e0 bien un projet \u00e0 l'\u00e9chelle nationale.</li>\n  </ul>\n \n<p>Remarques\u00a0:</p>\n<ul>\n\n<li>Les demandeurs admissibles doivent \u00eatre des entit\u00e9s juridiques en mesure de conclure des accords ex\u00e9cutoires. </li>\n<li>Les demandeurs admissibles devraient \u00eatre membres de l\u2019initiative de promotion de la marque Canada (pour de plus amples renseignements sur la fa\u00e7on de devenir membre de la <a href=\"https://marquecanadabrand.agr.gc.ca/intro/index-fra.html\">marque Canada</a>, veuillez consulter <a href=\"https://marquecanadabrand.agr.gc.ca/intro/join-joignez-fra.html\">Joignez la marque Canada</a>). </li>\n</ul>\n\n\n<h3 id=\"a1.3\">1.3 Financement et partage des co\u00fbts</h3>\n\n<h4>Financement disponible</h4>\n\n<p>La contribution maximale vers\u00e9e par AAC \u00e0 un  demandeur n\u2019exc\u00e9dera pas normalement 2,5\u00a0millions de dollars par ann\u00e9e ou  un maximum de dix millions de dollars sur cinq ans.</p>\n\n<h4>Partage des co\u00fbts</h4>\n\n<p>En g\u00e9n\u00e9ral, les  co\u00fbts admissibles du projet seront partag\u00e9s comme suit entre AAC et vous\u00a0:</p>\n<ul>\n  <li>Un maximum de 50\u00a0% pour AAC et un minimum de 50\u00a0% pour le demandeur.</li>\n</ul>\n<p>Un partage des co\u00fbts  plus favorable, soit un maximum de 70\u00a0% pour AAC et un minimum de  30\u00a0% pour le demandeur, peut \u00eatre offert dans le cas d\u2019activit\u00e9s r\u00e9alis\u00e9es  sur les march\u00e9s nouveaux et \u00e9mergents. Le questionnaire sur la diversification pr\u00e9sent\u00e9  \u00e0 la section \u00ab\u00a0Pi\u00e8ces jointes\u00a0\u00bb de l\u2019onglet \u00ab\u00a0Renseignements sur  le projet\u00a0\u00bb du formulaire de demande permettra d\u2019\u00e9valuer si le demandeur  diversifie ses activit\u00e9s sur les march\u00e9s nouveaux et \u00e9mergents.</p>\n\n<div class=\"well well-sm\">\n<p>Vous devez indiquer clairement toutes les sources de financement du projet, y compris votre contribution et d\u2019autres sources de financement provenant de l\u2019industrie ou de partenaires, notamment\u00a0:</p>\n\t\n<ul>\n\t<li>autres minist\u00e8res, organismes et soci\u00e9t\u00e9s d'\u00c9tat; <sup id=\"fn*-1-rf\"><a class=\"fn-lnk\" href=\"#fn*\">Note de bas de page *</a></sup></li>\n\t<li>gouvernements provinciaux ou territoriaux; <sup id=\"fn*-2-rf\"><a class=\"fn-lnk\" href=\"#fn*\">Note de bas de page *</a></sup></li>\n\t<li>administrations municipales; <sup id=\"fn*-3-rf\"><a class=\"fn-lnk\" href=\"#fn*\">Note de bas de page *</a></sup> et</li>\n\t<li>industrie ou partenaires tels que\u00a0:\n\t<ul>\n\t\t<li>des associations ou r\u00e9seaux de l'industrie;</li>\n\t\t<li>des entreprises; et</li>\n\t\t<li>le milieu universitaire.</li>\n\t</ul></li>\n</ul>\t\n\n\n<aside class=\"wb-fnote\" role=\"note\">\n<dl>\n<dt>Footnote *</dt>\n<dd id=\"fn*\"><p>*\u00a0La  portion totale de financement gouvernemental (autres minist\u00e8res et organismes f\u00e9d\u00e9raux,  gouvernements provinciaux et territoriaux et administrations municipales) ne  peut d\u00e9passer 85\u00a0%.</p>\n\n<p>Votre  part du partage des co\u00fbts doit \u00eatre constitu\u00e9e de contributions en  esp\u00e8ces.  Les contributions en nature ne  sont pas admissibles. Une contribution en nature repr\u00e9sente la juste valeur  marchande d'un bien ou la juste valeur d'un service, laquelle est fournie pour  le projet et pour laquelle vous ou un contributeur au projet n'avez pas besoin  de sortir des fonds pendant la dur\u00e9e de l'entente de contribution.</p>\n\n\n<p class=\"fn-rtn\"><a href=\"#fn*-1-rf\"><span class=\"wb-inv\">Retour \u00e0 la premi\u00e8re r\u00e9f\u00e9rence de la note de bas de page </span>*</a></p>\n</dd>\n</dl>\n</aside>\n\n</div>\n\n\n\n<h4>Qu'est-ce qu'une contribution en esp\u00e8ces?</h4>\n\n\n<p>Une contribution en esp\u00e8ces d\u00e9signe une d\u00e9pense n\u00e9cessitant un d\u00e9bours\u00e9 en esp\u00e8ces r\u00e9alis\u00e9 par votre organisme ou un autre participant ou contributeur (tel qu'un partenaire ou un autre ordre de gouvernement) pendant la dur\u00e9e de l'entente de contribution (EC). Plus particuli\u00e8rement, une contribution en esp\u00e8ces est une d\u00e9pense effectu\u00e9e pour couvrir les co\u00fbts de projets admissibles engag\u00e9s et r\u00e9gl\u00e9s par votre organisme ou un autre participant au projet.</p>\n\n<div class=\"well well-sm\">\n<p>AAC ne remboursera que les contributions en esp\u00e8ces destin\u00e9es \u00e0 couvrir les co\u00fbts des projets admissibles engag\u00e9s et r\u00e9gl\u00e9s par votre organisme. Une contribution en esp\u00e8ces effectu\u00e9e par un autre participant au projet doit \u00eatre signal\u00e9e comme un \u00e9l\u00e9ment de vos sources de financement et doit couvrir un co\u00fbt de projet admissible.</p>\n</div>\n\n<h4>Co\u00fbts admissibles</h4>\n\n<p>L'ensemble des  co\u00fbts r\u00e9clam\u00e9s ou des sommes vers\u00e9es dans le cadre du programme doivent  correspondre aux cat\u00e9gories de co\u00fbts du programme et respecter toutes les  restrictions notamment les dates  pertinentes de l\u2019<a href=\"?id=1550849115702\">entente de contribution</a>. Pour obtenir de plus amples  renseignements et des pr\u00e9cisions sur les cat\u00e9gories de co\u00fbts, les co\u00fbts  admissibles ou non\u00a0admissibles et d\u2019autres restrictions, veuillez consultez la section <a href=\"?id=1517247441127#a1.3\">Co\u00fbts du projet</a> de l\u2019annexe A\u00a0:  Comment pr\u00e9senter une demande.</p>\n\n<h4>Co\u00fbts non admissibles</h4>\n\n<p>Bien qu\u2019une d\u00e9pense  puisse entrer dans une cat\u00e9gorie de co\u00fbts du programme, il y a des limites  quant aux types de d\u00e9penses qui peuvent \u00eatre rembours\u00e9es. Pour obtenir plus de  renseignements et des pr\u00e9cisions sur les cat\u00e9gories de co\u00fbts, les co\u00fbts  admissibles et non admissibles et d\u2019autres restrictions, veuillez consulter la  section <a href=\"?id=1517247441127#a1.3\">Co\u00fbts du projet</a> de l\u2019annexe A\u00a0:  Comment pr\u00e9senter une demande. </p>\n\n<p>Par souci de clart\u00e9, les co\u00fbts non admissibles sont notamment\u00a0: </p>\n\n<ul>\n<li>les frais d\u2019accueil ainsi que les co\u00fbts li\u00e9s \u00e0 l\u2019alcool, aux divertissements et aux cadeaux;</li>\n<li>la portion remboursable de la taxe sur les produits et services, de la taxe de vente harmonis\u00e9e, des taxes sur la valeur ajout\u00e9e ou d\u2019autres taxes pour lesquelles un remboursement ou un d\u00e9gr\u00e8vement est possible;</li>\n<li>les co\u00fbts des activit\u00e9s dont le but est d\u2019influencer directement ou de faire pression sur les gouvernements;</li>\n<li>les co\u00fbts qui ne sont pas express\u00e9ment n\u00e9cessaires \u00e0 la r\u00e9alisation du projet.</li>\n</ul>\n\n\n<h3 id=\"a1.4\">1.4 Activit\u00e9s admissibles</h3>\n\n<p>Le programme  favorisera les projets qui\u00a0:</p>\n<ul>\n<li>contribuent \u00e0 la r\u00e9alisation des priorit\u00e9s du gouvernement en mati\u00e8re de commerce et d'\u00e9conomie, soit diversifier les march\u00e9s, augmenter les exportations annuelles de produits agricoles et favoriser la croissance \u00e9conomique du Canada; </li>\n<li>visent davantage des march\u00e9s nouveaux ou prioritaires qui sont en phase avec les priorit\u00e9s internationales d'AAC et du gouvernement.</li>\n</ul>\n  \n <div class=\"well well-sm\">\n  <p>Comme nous l\u2019avons d\u00e9j\u00e0 soulign\u00e9 \u00e0 la section 1.3 (Financement et partage des co\u00fbts), un partage des co\u00fbts plus favorable de 70:30 (AAC:demandeur) peut \u00eatre offert pour les activit\u00e9s admissibles sur les march\u00e9s nouveaux et \u00e9mergents. L\u2019importance accord\u00e9e \u00e0 la diversification sur les march\u00e9s nouveaux et \u00e9mergents cadre avec les priorit\u00e9s internationales d\u2019AAC et du gouvernement.</p>\n  </div>\n \n<p>Les activit\u00e9s  admissibles comprennent\u00a0:</p>\n<ul>\n<li>la promotion et la publicit\u00e9 li\u00e9es \u00e0 tous les produits de l\u2019industrie, notamment les promotions chez les d\u00e9taillants et dans les services de restauration, ainsi que les d\u00e9monstrations de produits \u00e0 l\u2019intention des acheteurs (entreprises et consommateurs);</li>\n<li>les missions au Canada, les missions \u00e0 l\u2019\u00e9tranger  et les missions d\u2019\u00e9tude;</li>\n<li>les \u00e9tudes de march\u00e9, la formation technique des acheteurs portant sur les produits canadiens et la manutention des produits;</li>\n<li>les s\u00e9minaires professionnels visant \u00e0 informer les repr\u00e9sentants du secteur des attributs propres aux produits agricoles, agroalimentaires et aux poissons et fruits de mer du Canada; </li>\n<li>la d\u00e9fense des int\u00e9r\u00eats commerciaux d\u2019une industrie \u00e0 l\u2019autre (les activit\u00e9s de lobbying aupr\u00e8s des gouvernements canadiens et \u00e9trangers ne sont pas admissibles); </li>\n  <li>la participation ou la pr\u00e9sence \u00e0 des salons professionnels ainsi qu\u2019\u00e0 des conf\u00e9rences et \u00e0 des r\u00e9unions multilat\u00e9rales de l\u2019industrie. </li>\n</ul>\n<div class=\"well well-sm\">\n<p>Remarque\u00a0: dans le cadre du programme Agri-marketing, aucun financement n\u2019est offert pour participer aux salons professionnels de renom du pavillon du Canada. Visitez <a href=\"?id=1518440736899\">Programme du pavillon du Canada</a> de plus amples renseignements sur les salons professionnels.  Les personnes qui souhaitent exposer dans un pavillon sectoriel peuvent \u00eatre prises en consid\u00e9ration.</p>\n</div>\n\n<h3 id=\"a1.5\">1.5 Activit\u00e9s non admissibles</h3>\n\n<p>Les activit\u00e9s  suivantes ne sont pas admissibles\u00a0:</p>\n<ul>\n<li>principales activit\u00e9s commerciales de l'organisme, y compris, sans s'y limiter\u00a0:\n<ul>\n<li>frais d'h\u00e9bergement et de maintenance des sites Web et des comptes de m\u00e9dias sociaux des membres</li>\n<li>forums et groupes de travail</li>\n<li>r\u00e9unions annuelles, r\u00e9unions des membres et r\u00e9unions du conseil d'administration</li>\n  </ul>\n  </li>\n<li>d\u00e9veloppement et commercialisation de produits, dont les essais de produits;</li>\n<li>recherche fondamentale et recherche appliqu\u00e9e, analyse et \u00e9laboration de politiques propres au secteur non li\u00e9es \u00e0 l'acc\u00e8s aux march\u00e9s ou au d\u00e9veloppement des march\u00e9s;</li>\n<li>activit\u00e9s de lobbying aupr\u00e8s des gouvernements;</li>\n<li>formation \u00e0 l'intention des consultants ou des employ\u00e9s.</li>\n</ul>\n\n\n<h3 id=\"a1.6\">1.6 Dates limites de d\u00e9p\u00f4t des demandes</h3>\n\n<p>La p\u00e9riode de r\u00e9ception  des demandes se d\u00e9roulait de fa\u00e7on continue du 13\u00a0f\u00e9vrier\u00a02018 au  31\u00a0mars\u00a02020 pour les trois premi\u00e8res ann\u00e9es du programme.</p>\n\n<p>Le 1<sup>er</sup>\u00a0d\u00e9cembre 2020, un <b>processus d\u2019appel de propositions</b> sera lanc\u00e9 pour les projets des ann\u00e9es de financement 2021-2022 (ann\u00e9e 4) et  2022-2023 (ann\u00e9e 5). Les demandes seront accept\u00e9es du <b>1<sup>er</sup>\u00a0d\u00e9cembre\u00a02020</b> au <b>31\u00a0janvier 2021</b>. Le programme accordera la priorit\u00e9 aux  demandes re\u00e7ues pendant cette p\u00e9riode.</p>\n\n<p>Les  demandes admissibles re\u00e7ues apr\u00e8s le 31\u00a0janvier 2021 ne seront examin\u00e9es  que s\u2019il reste suffisamment de fonds.</p>\n\n<p>Le programme se termine le 31\u00a0mars\u00a02023. </p>\n\n\n<h2 id=\"a2\">2.0 R\u00e9sultats attendus</h2>\n\n<p>Les activit\u00e9s du gouvernement f\u00e9d\u00e9ral r\u00e9alis\u00e9es dans le cadre du  Partenariat aideront le secteur agricole et agroalimentaire \u00e0 cro\u00eetre et \u00e0  devenir plus r\u00e9silient. Dans son budget de 2017, le gouvernement a \u00e9tabli un  objectif ambitieux, soit d\u2019augmenter les exportations agroalimentaires \u00e0  75\u00a0milliards de dollars d\u2019ici 2025.</p>\n<p>Le secteur de l\u2019agriculture et de l\u2019agroalimentaire du Canada est l\u2019un  des plus respect\u00e9s au monde. Le gouvernement joue un r\u00f4le de premier plan en  offrant des outils qui aident le secteur \u00e0 s\u2019adapter et \u00e0 le rendre conforme  aux valeurs du public. </p>\n<p>Le march\u00e9 mondialis\u00e9 d\u2019aujourd\u2019hui cr\u00e9e \u00e0 la fois de nouvelles  possibilit\u00e9s et de nouveaux d\u00e9fis pour le rendement et la croissance durable du  secteur diversifi\u00e9 de l\u2019agriculture et de l\u2019agroalimentaire canadien. La  r\u00e9ussite du secteur d\u00e9pend d\u2019une \u00e9troite collaboration entre l\u2019industrie et les  gouvernements pour demeurer concurrentiel et prosp\u00e8re dans cet environnement  complexe. </p>\n<p>Le  programme Agri-marketing vise \u00e0 aider l\u2019industrie \u00e0 d\u00e9finir et \u00e0 saisir les  occasions sur les march\u00e9s internationaux, en soutenant des activit\u00e9s de  promotion et de d\u00e9veloppement des march\u00e9s men\u00e9es par l\u2019industrie qui permettent  de diff\u00e9rencier les produits et les producteurs canadiens, tout en misant sur  la r\u00e9putation du Canada comme producteur d\u2019aliments de grande qualit\u00e9 et sans  danger pour la sant\u00e9.</p>\n\n<p>Les indicateurs  de rendement, qui servent \u00e0 mesurer la pertinence et l'efficacit\u00e9 des projets  et du programme, sont  notamment les suivants\u00a0: </p>\n\n<ul>\n<li>l'accroissement des exportations;</li>\n<li>le nombre de nouveaux march\u00e9s \u00e9tudi\u00e9s;</li>\n<li>les  r\u00e9sultats des activit\u00e9s de commercialisation (par exemple, les ventes et       les d\u00e9bouch\u00e9s); et</li>\n  <li>les r\u00e9sultats des activit\u00e9s de d\u00e9fense des int\u00e9r\u00eats commerciaux (par exemple, le nombre de probl\u00e8mes r\u00e9solus).</li>\n</ul>\n\n<div class=\"alert alert-info\">\n<p>Les demandes doivent d\u00e9montrer comment le projet propos\u00e9 r\u00e9pondra aux besoins de l\u2019industrie/du secteur, ainsi que fournir des cibles et des mesures de rendement clairement d\u00e9finies.</p></div>\n\n\n<h2 id=\"a3\">3.0 Crit\u00e8res d'\u00e9valuation</h2>\n\n<p>Votre demande  sera \u00e9valu\u00e9e en fonction des crit\u00e8res suivants\u00a0:</p>\n<ul>\n<li>le formulaire de demande est d\u00fbment rempli et le projet propos\u00e9 est admissible;</li>\n<li>les activit\u00e9s propos\u00e9es, y compris les r\u00e9sultats et les produits pr\u00e9vus, favorisent l\u2019atteinte des  objectifs du programme;</li>\n<li>toutes les sources de financement pour le projet qui sera financ\u00e9 au titre de ce volet sont indiqu\u00e9es. </li>\n</ul>\n\n<p>Si ces crit\u00e8res  sont remplis, une \u00e9valuation plus approfondie de votre demande aura lieu. Cette  \u00e9valuation portera notamment sur les  points suivants\u00a0: </p>\n\n<ul>\n<li>la capacit\u00e9 de votre organisme de r\u00e9aliser le projet, compte tenu de vos ressources et de vos \u00e9ch\u00e9anciers;</li>\n<li>la mesure dans laquelle le projet propos\u00e9 peut d\u00e9montrer l\u2019existence r\u00e9elle ou potentielle d\u2019un d\u00e9bouch\u00e9 ou d\u2019un besoin;</li>\n<li>les activit\u00e9s et les d\u00e9penses propos\u00e9es sont admissibles, raisonnables et n\u00e9cessaires pour atteindre les objectifs du projet;</li>\n<li>une \u00e9valuation de la strat\u00e9gie de l\u2019organisme pour se diversifier sur les nouveaux march\u00e9s et les march\u00e9s \u00e9mergents;</li>\n<li>une \u00e9valuation des retomb\u00e9es du projet pour les intervenants et de la fa\u00e7on dont elles profitent au secteur;</li>\n \n<li>l\u2019examen du rendement de votre organisme en ce qui concerne les projets ant\u00e9rieurs pour lesquels vous avez re\u00e7u du financement d\u2019AAC, y compris l\u2019administration des projets;</li>\n \n<li>l\u2019\u00e9valuation du potentiel d\u2019exportation et des possibilit\u00e9s d\u2019acc\u00e8s aux march\u00e9s du secteur (p. ex. changements r\u00e9cents ou anticip\u00e9s \u00e0 l\u2019acc\u00e8s aux march\u00e9s) et le rapport qualit\u00e9-prix du projet;</li>\n \n  <li>l\u2019\u00e9valuation du m\u00e9rite strat\u00e9gique du projet (votre projet s\u2019aligne-t-il sur le questionnaire du programme Agri-marketing fourni avec la demande?);</li>\n  <li>l\u2019\u00e9valuation de la mani\u00e8re dont les activit\u00e9s compl\u00e8tent les projets ant\u00e9rieurs du programme Agri-marketing ou en tirent parti.</li>\n</ul>\n\n<p>Le processus  d'\u00e9valuation permettra de d\u00e9terminer la somme appropri\u00e9e du financement des  projets approuv\u00e9s en  fonction des facteurs suivants\u00a0: </p>\n<ul>\n  <li>port\u00e9e et dur\u00e9e du projet;</li>\n  <li>caract\u00e8re raisonnable des d\u00e9penses admissibles;</li>\n  <li>importance et incidence des activit\u00e9s admissibles propos\u00e9es pour le secteur;</li>\n  <li>caract\u00e8re raisonnable de l\u2019ensemble des co\u00fbts projet\u00e9s des d\u00e9penses admissibles compte tenu des r\u00e9sultats escompt\u00e9s;</li>\n  <li>autres sources de financement;</li>\n  <li>preuve de l\u2019exercice d\u2019une diligence raisonnable dans l\u2019obtention et la d\u00e9claration des r\u00e9sultats en mati\u00e8re de rendement.</li>\n</ul>\n<p>AAC fournira une lettre de  d\u00e9cision, qui pr\u00e9cisera le niveau de financement attribu\u00e9 d\u2019autres conditions susceptibles de  s\u2019appliquer.</p>\n\n<div class=\"well well-sm\">\n<p>Chaque demande sera  m\u00e9ticuleusement examin\u00e9e quant \u00e0 l\u2019admissibilit\u00e9, la pertinence et l\u2019incidence.  Pour qu\u2019un demandeur prouve que le co\u00fbt de l\u2019activit\u00e9 satisfait \u00e0 chacun des  trois \u00e9l\u00e9ments ci-dessus, il est important que chaque activit\u00e9 et le co\u00fbt  correspondant soient fournis de la mani\u00e8re requise pour une \u00e9valuation ad\u00e9quate  par AAC. Veuillez consulter \nl\u2019<a href=\"?id=1517247441127\">annexe A</a> pour obtenir des renseignements d\u00e9taill\u00e9s sur  la fa\u00e7on de remplir une demande de projet.</p>\n<ul>\n  <li>Chaque activit\u00e9 n\u00e9cessite une explication       des avantages et de l\u2019incidence sur le march\u00e9 cible propos\u00e9 dans chaque       activit\u00e9 et de la fa\u00e7on dont chacun sera mesur\u00e9 et \u00e9valu\u00e9.</li>\n  <li>Veuillez indiquer le nombre pr\u00e9vu de       participants, mais gardez \u00e9galement \u00e0 l\u2019esprit qu\u2019AAC cherche \u00e0 obtenir de       plus amples renseignements sur la fa\u00e7on dont cette activit\u00e9 aura une       incidence positive sur le public.</li>\n  <li>Chaque activit\u00e9 doit \u00eatre clairement       d\u00e9finie et articul\u00e9e dans chaque section de la demande.</li>\n<li>Chaque co\u00fbt doit \u00eatre clairement indiqu\u00e9 pour  savoir comment la valeur a \u00e9t\u00e9 calcul\u00e9e.</li></ul> </div>\n\n<h2 id=\"a4\">4.0 Production de rapports concernant votre projet</h2>\n\n<p>Si votre projet est  approuv\u00e9, AAC vous communiquera par \u00e9crit le niveau de rapport n\u00e9cessaire avant  la signature d\u2019une \n<a href=\"?id=1550849115702\">entente de contribution</a>. Vous devrez notamment pr\u00e9senter des rapports d\u2019\u00e9tape,  des rapports sur le rendement et des rapports financiers. </p>\n\n<h3>Rapports d\u2019\u00e9tape</h3>\n\n<p>Vous devrez fournir des rapports d\u2019\u00e9tape d\u00e9crivant les  activit\u00e9s termin\u00e9es et les progr\u00e8s r\u00e9alis\u00e9s par rapport aux produits livrables,  conform\u00e9ment au plan de travail du projet (fr\u00e9quence\u00a0: rapports trimestriels,  semestriels ou annuels, selon le niveau de risque). </p>\n\n<h3>Rapports sur le rendement</h3>\n\n<p>Vous devrez \u00e9galement  soumettre des rapports sur le rendement chaque ann\u00e9e et \u00e0 la fin du projet. Ces  rapports permettront de suivre les progr\u00e8s r\u00e9alis\u00e9s par rapport aux mesures de  rendement d\u00e9termin\u00e9es d\u2019un commun accord et d\u00e9crites dans l\u2019entente de  contribution.</p>\n\n<h3>Rapports financiers</h3>\n\n<p>Des rapports financiers sont  exig\u00e9s pour chaque demande de remboursement des d\u00e9penses, en plus des rapports  de comptabilit\u00e9 de fin d'exercice et d'autres rapports financiers. Au moment de pr\u00e9senter une demande  de remboursement, vous pourriez devoir produire des factures justificatives  repr\u00e9sentant 10\u00a0%, 20\u00a0% ou 40\u00a0%, ou un autre pourcentage pourrait \u00eatre exig\u00e9.</p>\n<p>D\u2019autres rapports peuvent  \u00eatre exig\u00e9s \u00e0 la discr\u00e9tion d\u2019AAC.</p>\n\n<h2 id=\"a5\">5.0 Consid\u00e9rations</h2>\n\n<h3 id=\"a5.1\">5.1 Loi M-30 (organismes du Qu\u00e9bec seulement)</h3>\n\n<p>La  loi\u00a0M-30 de la province de Qu\u00e9bec peut s'appliquer uniquement aux  demandeurs du Qu\u00e9bec. Il s'agit de la <a href=\"http://legisquebec.gouv.qc.ca/fr/ShowDoc/cs/M-30\"><cite>Loi sur le minist\u00e8re du  Conseil ex\u00e9cutif</cite></a> (L.R.Q. c.\u00a0M-30).</p>\n\n<p>De plus amples  renseignements concernant la Loi peuvent \u00eatre obtenus en ligne ou en  communiquant avec le minist\u00e8re de l'Agriculture, des P\u00eacheries et de  l'Alimentation (MAPAQ) \u00e0 <a href=\"mailto:dpci@mapaq.gouv.qc.ca\">dpci@mapaq.gouv.qc.ca</a>.</p>\n\n<p>La loi M-30  s'applique \u00e0 divers types d'organisations qu\u00e9b\u00e9cois, par exemple, les  organismes situ\u00e9s au Qu\u00e9bec qui re\u00e7oivent plus de la moiti\u00e9 de leur financement  du gouvernement du Qu\u00e9bec peuvent \u00eatre assujetties \u00e0 la Loi.</p>\n\n<p>Avant de  pouvoir conclure une entente de contribution, tous les organismes \u00e9tablis au  Qu\u00e9bec doivent aborder cette question et d\u00e9montrer leur conformit\u00e9 \u00e0 la Loi au  cours du processus d'\u00e9valuation du projet.</p>\n\n<h2 id=\"a6\">6.0 Apr\u00e8s avoir pr\u00e9sent\u00e9 votre demande</h2>\n\n\n<p>Lorsque vous aurez  envoy\u00e9 votre demande, vous recevrez un accus\u00e9 de r\u00e9ception.</p>\n\n<p>Remarque\u00a0: consid\u00e9rez que votre demande n\u2019a pas \u00e9t\u00e9  envoy\u00e9e au programme tant que vous n\u2019avez pas re\u00e7u cet accus\u00e9 de r\u00e9ception.</p>\n\n<p>Nous avons pour objectif\u00a0:</p>\n\n<ul>\n<li>d\u2019accuser r\u00e9ception de votre demande dans un d\u00e9lai d\u2019un jour ouvrable;</li>\n<li>de r\u00e9pondre aux demandes de renseignements g\u00e9n\u00e9rales que nous recevons par t\u00e9l\u00e9phone ou par courriel avant la fin du jour ouvrable suivant;</li>\n<li>d\u2019\u00e9valuer votre demande et de vous envoyer une lettre d\u2019approbation ou de refus dans les 100 jours ouvrables suivant la cl\u00f4ture de la p\u00e9riode de r\u00e9ception des demandes du 1<sup>er</sup>\u00a0d\u00e9cembre 2020 au 31\u00a0janvier 2021, ou dans les 100 jours ouvrables suivant la date \u00e0 laquelle la demande est jug\u00e9e compl\u00e8te, si elle a \u00e9t\u00e9 re\u00e7ue apr\u00e8s la p\u00e9riode de r\u00e9ception du 1<sup>er</sup>\u00a0d\u00e9cembre 2020 au 31\u00a0janvier 2021. </li>\n</ul>\n<p>Apr\u00e8s avoir re\u00e7u votre demande, Agriculture et  Agroalimentaire Canada v\u00e9rifiera que tous les formulaires et d\u00e9clarations sont  bien remplis et que le dossier est suffisamment d\u00e9taill\u00e9 pour permettre une \u00e9valuation compl\u00e8te. </p>\n<p>Votre demande sera  ensuite soumise \u00e0 une \u00e9valuation compl\u00e8te en fonction des principes et des  crit\u00e8res du programme. Cette \u00e9valuation sera effectu\u00e9e par des \u00e9valuateurs, notamment des administrateurs du programme et d\u2019autres examinateurs techniques  au sein du Minist\u00e8re (et dans certains cas, d\u2019autres Minist\u00e8res).</p>\n\n<p>\u00c0 tout moment  apr\u00e8s la pr\u00e9sentation de votre demande, nous pouvons communiquer avec vous pour  obtenir d\u2019autres renseignements.</p>\n\n<p>Si votre demande  est approuv\u00e9e, un responsable du programme communiquera avec vous pour vous  donner les d\u00e9tails de l\u2019approbation, notamment les activit\u00e9s, les niveaux de  financement ainsi que les dates de d\u00e9but et de fin. Il fera ensuite un suivi  avec vous pour n\u00e9gocier les d\u00e9tails de l\u2019<a href=\"?id=1550849115702\">entente de contribution</a> que vous devrez conclure. Il convient de mentionner  que m\u00eame si une approbation est accord\u00e9e, Agriculture et Agroalimentaire Canada  n\u2019a pas le pouvoir de rembourser les b\u00e9n\u00e9ficiaires s\u2019ils ont engag\u00e9 des co\u00fbts avant la signature d\u2019une entente de contribution.</p>\n\n<p>Veuillez noter  que m\u00eame si un projet satisfait \u00e0 tous les crit\u00e8res d'admissibilit\u00e9, la pr\u00e9sentation d'une demande n'engage en rien le ministre ou les fonctionnaires d'Agriculture  et Agroalimentaire Canada \u00e0 fournir une aide financi\u00e8re pour le projet propos\u00e9. Le ministre conserve le pouvoir discr\u00e9tionnaire de d\u00e9terminer, en fonction de  l'int\u00e9r\u00eat public, si une demande r\u00e9pondant aux crit\u00e8res \u00e9nonc\u00e9s dans le pr\u00e9sent  Guide recevra ou non des fonds.</p>\n\n<h2 id=\"a7\">7.0 Contactez-nous</h2>\n\n<p>Pour en savoir plus sur le  programme Agri-marketing, veuillez communiquer avec nous aux coordonn\u00e9es  suivantes\u00a0:</p>\n\n<p>T\u00e9l\u00e9phone\u00a0:  1-877-246-4682<br>\n Appareil de t\u00e9l\u00e9communication pour personnes sourdes\u00a0: 613-773-2600</p>\n \n<p>Courriel\u00a0: <a href=\"mailto:aafc.agrimarketingagri-marketing.aac@canada.ca\">aafc.agrimarketingagri-marketing.aac@canada.ca</a>\n</p>\n\n<p>Courrier\u00a0: <br>\nAgriculture  et Agroalimentaire Canada<br>\nProgramme  Agri-marketing<br>\nTour\u00a07,  7<sup>e</sup>\u00a0\u00e9tage, salle\u00a0216<br>\n1341, chemin  Baseline<br>\nOttawa ON K1A 0C5</p>\n\n<nav>\n  <h2 class=\"wb-inv\">Navigation du document - pr\u00e9c\u00e9dente-suivante - bas</h2>\n<div class=\"row\">\n<div class=\"col-md-12 mrgn-lft-0 mrgn-rght-0\">\n<ul class=\"pager\">\n<li class=\"previous\"><a href=\"?id=1515092708579\" rel=\"prev\" title=\"Apr\u00e8s avoir pr\u00e9sent\u00e9 votre demande\">Pr\u00e9c\u00e9dente</a></li>\n<li class=\"next\"><a href=\"?id=1515092903273\" rel=\"next\" title=\"Pour nous joindre\">Suivante</a></li>\n</ul>\n</div>\n</div>\n</nav>\n \n\r\n    "
    }
}