{
    "dcr_id": "1545416557049",
    "title": {
        "en": "Agriculture and Agri-Food Canada Science Integrity Policy",
        "fr": "Politique sur l'int\u00e9grit\u00e9 scientifique d'Agriculture et Agroalimentaire Canada"
    },
    "modified": "2021-04-14",
    "issued": "2018-12-21",
    "templatetype": "content page 1 column",
    "page_type": "1",
    "node_id": "1615576558762",
    "dc_date_created": "2018-12-21",
    "managing_branch": "PAB",
    "parent_node_id": "1354137773974",
    "short_title": "",
    "exturl": "",
    "teamsite_location": {
        "en": "/default/main/AAFC-AAC/Internet-Internet/CCB-DGCC/WORKAREA/CCB-DGCC/templatedata/comm-comm/gene-gene/data/aafc_science_integrity_policy_1545416557049_en",
        "fr": "/default/main/AAFC-AAC/Internet-Internet/CCB-DGCC/WORKAREA/CCB-DGCC/templatedata/comm-comm/gene-gene/data/aafc_science_integrity_policy_1545416557049_fr"
    },
    "type_name": "sitemapinit",
    "has_dcr_id": true,
    "label": {
        "en": "Agriculture and Agri-Food Canada Science Integrity Policy",
        "fr": "Politique sur l'int\u00e9grit\u00e9 scientifique d'Agriculture et Agroalimentaire Canada"
    },
    "breadcrumb": {
        "en": "Agriculture and Agri-Food Canada Science Integrity Policy",
        "fr": "Politique sur l'int\u00e9grit\u00e9 scientifique d'Agriculture et Agroalimentaire Canada"
    },
    "layout_name": "content page 1 column",
    "lang": "en",
    "refaire": false,
    "meta": {
        "viewport": {
            "en": "width=device-width,initial-scale=1",
            "fr": "width=device-width, initial-scale=1"
        },
        "issued": {
            "en": "2018-12-21",
            "fr": "2018-12-21"
        },
        "modified": {
            "en": "2021-04-14",
            "fr": "2021-04-14"
        },
        "format": {
            "en": "gcformat",
            "fr": "gcformat"
        },
        "title": {
            "en": "Agriculture and Agri-Food Canada Science Integrity Policy",
            "fr": "Politique sur l'int\u00e9grit\u00e9 scientifique d'Agriculture et Agroalimentaire Canada"
        },
        "subject": {
            "en": "technology transfer;architectural heritage;soil assessement",
            "fr": "pommes de terre-producteurs;cultures des c\u00e9r\u00e9ales;revenus agricoles"
        },
        "dcterms:subject": {
            "en": "statistics;architectural heritage;architecture",
            "fr": "b\u00e2timent;science \u00e9conomique;\u00e9conomie agricole"
        },
        "description": {
            "en": "Alternative Formats. International Standard Serial Number: 2292-1524. Sub-Program 2.1.6: Federal-Provincial-Territorial Cost-shared Environment. Agriculture and Agri-Food Canada provides leadership in the growth and development of a competitive, innovative and sustainable Canadian agriculture and agri-food sector.Responsibilities.",
            "fr": "1.1 Renseignements g\u00e9n\u00e9raux. 1.2 Comment remplir une demande. Indiquez les coordonn\u00e9es de la personne au sein de votre organisme qui sera charg\u00e9e de r\u00e9pondre aux requ\u00eates concernant votre demande.Personne-ressource du projet. Il s\u2019agit des personnes d\u00e9clar\u00e9es de sexe f\u00e9minin \u00e0 leur naissance ou qui s\u2019identifient comme tel.Jeunes."
        },
        "language": {
            "en": "eng",
            "fr": "fra"
        },
        "keywords": {
            "en": null,
            "fr": "Ctrltrl;Agri-comp\u00e9titivit\u00e9.Les;Ctrl"
        },
        "audience": {
            "en": "gcaudience",
            "fr": "gcaudience"
        },
        "type": {
            "en": "sound",
            "fr": "pr\u00e9sentation"
        },
        "creator": {
            "en": "Agriculture and Agri-Food Canada",
            "fr": "Agriculture et Agroalimentaire Canada"
        },
        "spatial": {
            "en": "gcregions",
            "fr": "gcregions"
        },
        "service": {
            "en": "AAFC-AAC",
            "fr": "AAFC-AAC"
        },
        "accessRights": {
            "en": "2",
            "fr": "2"
        },
        "legalName": {
            "en": "agriculture_and_agri_food_canada",
            "fr": "agriculture_et_agroalimentaire_canada"
        },
        "areaServed": {
            "en": "Canada",
            "fr": "Canada"
        }
    },
    "h1": {
        "en": "Agriculture and Agri-Food Canada Science Integrity Policy",
        "fr": "Politique sur l'int\u00e9grit\u00e9 scientifique d'Agriculture et Agroalimentaire Canada"
    },
    "body": {
        "en": "\r\n    <div class=\"row\">\n<div class=\"col-md-4 pull-right\">\n\n\t\n        <section class=\"panel panel-default mrgn-tp-lg\">\n            <header class=\"panel-heading\">\n                <h2 class=\"h5 panel-title  mrgn-tp-sm\">Related links</h2>\n            </header>\n            <div class=\"panel-body\">\n\n<ul class=\"mrgn-lft-0 lst-spcd\">\n\t<li>Guidelines\n<ul>\n<li><a href=\"?id=1611581773925\">Breaches of scientific integrity</a></li>\n<li><a href=\"?id=1611581833362\">Communication and dissemination of research and scientific information</a></li>\n<li><a href=\"?id=1611581877547\">Research and scientific contributions to knowledge communities</a></li>\n</ul>\n</li>\n\t<li><a href=\"?id=1448297869529\"><cite>Values and Ethics Code for Agriculture and Agri-Food Canada</cite></a></li>\n\t<li><a href=\"?id=1614872666173\"><cite>Policy on Science and Technology Publications</cite></a></li>\n\t<li><a href=\"?id=1614874999283\"><cite>Science Ethics Policy Framework</cite></a></li>\n</ul>\t\t\t\t\t\t\t\t\t\n            </div>\n\t</section>\n\t\t\t\n</div>\n\t<div class=\"mrgn-tp-lg col-md-8\">\n\n<nav>\n<h2>Table of contents</h2>\n\n<ul class=\"list-unstyled mrgn-lft-lg\">\n\t<li>1. <a href=\"#h1\">Effective date</a></li>\n\t<li>2. <a href=\"#h2\">Context</a></li>\n\t<li>3. <a href=\"#h3\">Authorities</a></li>\n\t<li>4. <a href=\"#h4\">Objectives and expected results</a></li>\n\t<li>5. <a href=\"#h5\">Application</a></li>\n\t<li>6. <a href=\"#h6\">Scientific integrity principles</a></li>\n\t<li>7. <a href=\"#h7\">Requirements</a></li>\n\t<li>8. <a href=\"#h8\">Responsibilities</a></li>\n\t<li>9. <a href=\"#h9\">Definitions</a></li>\n\t<li>10. <a href=\"#h10\">Enquiries</a></li>\n</ul>\n</nav>\n\n<h2 id=\"h1\">1. Effective date</h2>\n\n<p>1.1. This policy takes effect on January 1, 2019.</p>\n\n<p>1.2  This policy will be regularly reviewed and revised as needed.</p>\n\n<h2 id=\"h2\">2. Context</h2>\n\n<p>2.1. This policy is issued pursuant to the May 15, 2017 and June 1, 2017 Memoranda of Agreement between the Treasury Board and the Professional Institute of the Public Service of Canada (PIPSC) in Respect of Scientific Integrity.</p>\n\n</div></div>\n\n<h2 id=\"h3\">3. Authorities</h2>\n\n<p>3.1. This policy should be read in consultation with the <a href=\"?id=1448297869529\"><cite>Values and Ethics Code for Agriculture and Agri-Food Canada</cite></a>, the <a href=\"https://www.tbs-sct.gc.ca/pol/doc-eng.aspx?id=30682\"><cite>Directive on the Management of Communications</cite></a>, as well as Agriculture and Agri-Food Canada (AAFC)'s <a href=\"?id=1614874999283\"><cite>Science Ethics Policy Framework</cite></a> and its <cite><a href=\"?id=1614872666173\">Policy on Science and Technology Publications</a></cite>.</p>\n\n<p>3.2. Where there is conflict or incompatibility between this Policy, and any legislation, provision of any relevant collective agreement, and/or mandatory policy instrument of the Treasury Board, the provisions of the legislation, the provisions of the Treasury Board mandatory policy instrument, and/or relevant collective agreement take precedence.</p>\n\n<p>3.3. Where there is conflict or incompatibility between this Policy and a voluntary Policy instrument of the Treasury Board (that is guidelines or tools), the provisions of this Policy take precedence.</p>\n\n<p>3.4. AAFC will maintain a record of all instances of conflict or incompatibility between this Policy and legislation, collective agreements, or Treasury Board policy instruments and/or AAFC policy instruments, and submit this record as part of the performance evaluation as per s. 7.9 of this Policy.</p>\n\n<p>3.5. In consultation with the AAFC Consultation President of PIPSC, the Deputy Head has authority to support science integrity by establishing relevant and applicable standards for the design, conduct, management, review and communication of research and science within AAFC.</p>\n\n<h2 id=\"h4\">4. Objectives and expected results</h2>\n\n<p>4.1. The objectives of this Policy are to:</p>\n\n<p>4.1.1. Foster a culture that supports and promotes scientific integrity in the design, conduct, management, review and communication of research, science, and related activities.</p>\n\n<p>4.1.2. Increase public, employee and stakeholder trust in the credibility and reliability of AAFC research and scientific activities.</p>\n\n<p>4.1.3. Set out expectations regarding the design, conduct, management, review and communication of research, science, and related activities.</p>\n\n<p>4.1.4. Enhance employee understanding of the contributions of research and science to evidence-informed decision-making, as well as the role of managers, communication specialists, researchers and scientists in the development of government policy and advice.</p>\n\n<p>4.2. The expected results of this Policy are that:</p>\n\n<p>4.2.1. Employees involved in the design, conduct, management, review, use or communication of research, science, or related activities understand and conduct themselves in a manner consistent with the principles of scientific integrity.</p>\n\n<p>4.2.2. AAFC is recognized by employees, stakeholders, and the public as a reliable and credible source of research and scientific information.</p>\n\n<p>4.2.3. As appropriate and to the extent possible, allegations of breach of the principles of scientific integrity as defined in s. 6 are addressed through a fair, impartial, efficient, confidential and respectful process.</p>\n\n<p>4.2.4. Employees understand and seek to enhance the contributions of research and science to science advice, government policy and evidence-informed decision-making.</p>\n\n<h2 id=\"h5\">5. Application</h2>\n\n<p>5.1. This Policy applies to AAFC employees who design, conduct, communicate, manage, review or make use of AAFC research, science or related activities, as well as non-AAFC employees who make use of AAFC facilities, research, science or related activities (for example, visiting scientists and students, contractors, collaborators).</p>\n\n<p>5.2 Nothing in this policy supersedes any relevant collective agreements. Neither does the policy extend provisions of relevant collective agreements to employees not subject to those agreements.</p>\n\n<h2 id=\"h6\">6. Scientific integrity principles</h2>\n\n<p>6.1. AAFC recognizes that stakeholder trust in the research and scientific information provided by governments depends upon the integrity of the process by which such information is produced, managed and communicated. The same holds true for trust in the decision-making process that makes use of such information.</p>\n\n<p>6.2. Furthermore, AAFC recognizes that scientists and researchers must uphold and conform to standards of excellence accepted by the wider research and scientific community.</p>\n\n<p>6.3. To this end, in designing, conducting, managing, reviewing, using or communicating research, science and related activities, AAFC employees shall:</p>\n\n<p>6.3.1. Ensure that all such activities are carried out in a manner that is consistent with all relevant and applicable standards of scientific excellence, research ethics, and responsible research conduct.</p>\n\n<p>6.3.2. Ensure that the conduct of AAFC research and science and any research or scientific products, as well as any associated communications, are free from political, commercial, client and stakeholder interference.</p>\n\n<p>6.3.3. In the absence of clear and compelling reasons for limiting disclosure, ensure that research and scientific information produced by AAFC are made available to the public in a timely manner and in keeping with the Government of Canada's <a href=\"https://www.tbs-sct.gc.ca/pol/doc-eng.aspx?id=28108\"><cite>Directive on Open Government</cite></a>.</p>\n\n<p>6.3.4. Accurately represent and appropriately acknowledge the contributions of both themselves and others to their research or scientific work.</p>\n\n<p>6.3.5. Avoid conflicts of interest, and ensure that any real, potential or apparent conflict of interest is explicitly recognized, reported and appropriately managed.</p>\n\n<p>6.3.6. Encourage discussion based on differing interpretations of research and scientific evidence as a legitimate and necessary part of the research and scientific processes and, where appropriate, ensure that these differences are made explicit and accurately represented.</p>\n\n<p>6.3.7. Ensure that the significant and meaningful contribution of researchers and scientists to government programs, policies, regulations, and decision-making is acknowledged in official publications or communications, including the names and roles of those who made significant contributions to these products and activities.</p>\n\n<p>6.3.8. Report any breach of these principles (that is, a breach of scientific integrity) to their supervisor, manager, AAFC's Science Integrity Lead, or the chair of the AAFC Science Ethics Committee, as appropriate.</p>\n\n<h2 id=\"h7\">7. Requirements</h2>\n\n<h3>7.1. Implementation</h3>\n\n<p>7.1.1. This Policy will be communicated to all employees by the Deputy Head. </p>\n\n<p>7.1.2. AAFC will continue to develop and implement the additional procedures, policies, guidelines, tools, training and professional development opportunities necessary to support this Policy.</p>\n\n<p>7.1.3. AAFC will ensure that contractors and/or collaborators involved in, or providing services in support of, research, science or related activities are informed of this policy and are expected to respect its provisions and intent.</p>\n\n<h3>7.2. Fostering a culture of science integrity</h3>\n\n<p>AAFC recognizes two complementary approaches to fostering a culture of scientific integrity. One focuses on instilling the virtues that underlie responsible conduct in research, science and related activities (s. 7.2.1). A second focuses on the procedure for bringing allegations of breaches forward, the investigation of these allegations, and the consequences of a finding that a breach has occurred (s. 7.2.2).</p>\n\n<h4>7.2.1. Science virtues</h4>\n\n<p>In accordance with relevant collective agreements and the TBS <a href=\"https://www.tbs-sct.gc.ca/pol/doc-eng.aspx?id=12405\"><cite>Policy on Learning, Training and Development</cite></a>.</p>\n\n<p>7.2.1.1. AAFC recognizes the importance of research networking with national and international peers and active participation in the business and organization of relevant scientific and professional societies, which form an important part of ensuring scientists and researchers understand and are held to the standards of their communities.</p>\n\n<p>7.2.1.2. AAFC recognizes the importance of the virtues underlying scientific excellence, including intellectual curiosity and honesty, constructive skepticism, meticulousness, avoidance of bias, humility in the discovery and use of science evidence, and the limitations of scientific inquiry. To this end, it will ensure that learning policies support training, education and professional development opportunities that allow employees to further their understanding of, and appreciation for, these virtues.</p>\n\n<p>7.2.1.3. AAFC will ensure its learning policies support training, education, and professional development opportunities to inform and educate employees about responsible conduct in research, research ethics, and the annotation, management and archiving of research and scientific data.</p>\n\n<h4>7.2.2. Breaches of scientific integrity</h4>\n\n<p>7.2.2.1. In cases of alleged breaches of scientific integrity, employees at all levels shall seek to resolve the issue in a fair and respectful manner and consider informal processes such as, dialogue or mediation. In such cases, employees are encouraged to discuss and resolve these matters with their immediate supervisor. They can also seek advice and support from other appropriate sources within AAFC, such as, the Science Ethics Committee (SEC) or the Science Integrity Lead.</p>\n\n<p>7.2.2.2. The Deputy Head will appoint a Science Integrity Lead to address allegations of breaches of this Policy.</p>\n\n<p>7.2.2.3. The Science Integrity Lead will promptly and thoroughly review and investigate alleged breaches of this Policy.</p>\n\n<p>7.2.2.4. AAFC will endeavor to protect personal information and otherwise provide safeguards to ensure that employees may bring forward, in good faith, allegations of breach of scientific integrity or participate in an investigation procedure without prejudice or fear of reprisal.</p>\n\n<p>7.2.2.5. When public servants have information that could indicate a serious breach of the <a href=\"?id=1448297869529\"><cite>Values and Ethics Code for Agriculture and Agri-Food Canada</cite></a> they can avail themselves of the procedures laid out in the <a href=\"https://laws-lois.justice.gc.ca/eng/acts/P-31.9/\"><cite>Public Servants Disclosure Protection Act</cite></a>.</p>\n\n<h3>7.3. Openness, transparency and timeliness</h3>\n\n<p>7.3.1. AAFC recognizes and understands the importance of openness and transparency regarding all elements of the research and scientific process as well as the timely release of scientific and research information. It nonetheless also recognizes that there may be legitimate and compelling reasons that may limit the disclosure or availability of research or scientific information to employees, stakeholders or the public.</p>\n\n<p>7.3.2. This policy, as well as any associated policies, directives or guidelines, will be posted on AAFC's public website in permission-less downloadable form, in both HTML and PDF formats.</p>\n\n<p>7.3.3. As the current policy and any associated policies, guidelines or tools are amended and revised, AAFC will maintain an annotated electronic archive of all such changes, with all archive elements available in permission-less downloadable form.</p>\n\n<p>7.3.4. No AAFC employee shall suppress, alter or otherwise impede the timely release of research or scientific information in the absence of clear and compelling reasons for doing so.</p>\n\n<p>7.3.5. AAFC employees shall ensure that research and scientific information (including that produced by contractors, or other partners who participate in, or assist with, the design, conduct, use or management of research, science or related activities) is produced and disseminated in a timely and transparent manner, in the absence of clear and compelling reasons for not doing so.</p>\n\n<h3>7.4. Public communication of research and scientific information</h3>\n\n<p>7.4.1. AAFC recognizes the right to freedom of expression by researchers and scientists on matters of research or science. It also recognizes the important role of researchers and scientists in communicating research and scientific information to the public.</p>\n\n<p>7.4.2 Moreover, AAFC recognizes that as public servants, scientists, researchers and indeed all employees are subject to the <a href=\"?id=1448297869529\"><cite>Values and Ethics Code for Agriculture and Agri-Food Canada</cite></a> as adopted April 2, 2012. It further recognizes the need for caution and prudence in the public communication of classified or sensitive scientific or research information, as well as existing legal constraints on information disclosure. Finally, AAFC recognizes that effective public communication requires certain skills, and that researchers and scientists may have different degrees of comfort with public fora.</p>\n\n<p>7.4.3. Researchers, scientists<sup id=\"fn1-rf\"><a class=\"fn-lnk\" href=\"#fn1\"><span class=\"wb-inv\">endnote </span>1</a></sup>, and subject matter experts shall have the right, and are encouraged, to speak about or otherwise express themselves on their science and their research without approval and/or without being designated as an official spokesperson. However, researchers, scientists and subject matter experts do require approval to speak on matters of policy, or policy implications of their science or their research. In either case, they must respect the information disclosure provisions of the <a href=\"https://laws-lois.justice.gc.ca/eng/acts/A-1/\"><cite>Access to Information Act</cite></a>, and the <a href=\"?id=1448297869529\"><cite>Values and Ethics Code for Agriculture and Agri-Food Canada</cite></a>.</p>\n\n<p>7.4.4. In any public communications, employees must be familiar with and respect any legal restrictions on information disclosure such as, privacy rights, matters before the courts, and cabinet confidences. They must also respect the <a href=\"?id=1448297869529\"><cite>Values and Ethics Code for Agriculture and Agri-Food Canada</cite></a>, and the <cite>Access to Information Act</cite>. Unless explicit approval to do so has been given by supervisors or managers, research, or scientific information that is classified or sensitive shall not be discussed in any public communication.</p>\n\n<p>7.4.5. In the case of planned formal public communication events with sufficiently long lead times (for example, public talks, and lectures), employees should provide the title of the presentation and a brief summary to their manager/supervisor for information purposes only and without prejudice.</p>\n\n<p>7.4.6. In the case of formal public communication events with short lead times (for example, media calls, and interviews) that effectively preclude prior notification, employees should notify their supervisor/manager, as well as Public Affairs Branch, as soon as possible after the event for information purposes only and without prejudice.</p>\n\n<p>7.4.7. Pursuant to s. 7.4.4 and 7.4.5, AAFC will ensure that employees are provided with guidelines consistent with relevant collective agreements and the <cite>Directive on the Management of Communications</cite>, to assist them in determining the types of public communications for which supervisor/manager notification is desirable or required, and the appropriate timing and form of any such notifications.</p>\n\n<p>7.4.8. Researchers and scientists are under no obligation to act as public AAFC subject matter experts or appear in public fora, and may decline any such invitation or request without prejudice, unless explicitly assigned this task by management.</p>\n\n<p>7.4.9. Any public communication that describes work conducted by researchers or scientists must be reviewed and approved by them or their designates before publication or dissemination, as required by the AAFC publication policy and the <cite>Science Ethics Policy Framework</cite>.</p>\n\n<p>7.4.10. Researchers and scientists are encouraged to participate in media training provided by AAFC, but this is not a requirement for them to express themselves about their science or their research.</p>\n\n<p>7.4.11. Where a researcher or scientist is speaking in the role of an official spokesperson, or subject matter expert, they must identify themselves by name and position.</p>\n\n<h3>7.5. Dissemination of research and scientific findings</h3>\n\n<p>7.5.1. AAFC recognizes that communication among researchers and scientists is critical to the development of scientific and scholarly knowledge. Moreover, AAFC acknowledges that its researchers and scientists are part of a global community of scientific and scholarly expertise. The contribution of AAFC's research is critical to maintaining and enhancing the credibility and reputation of AAFC experts, the reputation and credibility of AAFC, and the contribution of AAFC to the knowledge economy.</p>\n\n<p>7.5.2 As with public communications, researchers or scientists disseminating or communicating information through research or scientific media are subject to, and bound by, the <cite>Access to Information Act</cite>, the <cite><a href=\"?id=1448297869529\">Values and Ethics Code for Agriculture and Agri-Food Canada</a></cite> and must abide by Treasury Board of Canada's <cite>Directive on the Management of Communication</cite> where it does not conflict with the relevant collective agreements. To this end, AAFC must have publication approval processes that are compatible with the relevant collective agreements. Approval to publish will not be unreasonably withheld.</p>\n\n<p>7.5.3. AAFC scientists must follow the polices and guidelines in the <cite>Policy on Science and Technical Publications</cite>.</p>\n\n<h3>7.6. Contributions to the scientific community</h3>\n\n<p>7.6.1. AAFC recognizes that the participation of AAFC researchers and scientists in the global scholarly community depends upon domestic and international collaboration and partnerships. Such collaborations and partnerships provide important opportunities for AAFC researchers and scientists to leverage their expertise, knowledge and infrastructure in developing research and scientific knowledge to the benefit of Canadians. To this end, AAFC will:</p>\n\n<p>7.6.1.1. Encourage and facilitate domestic and international research or scientific collaborations and partnerships among AAFC researchers and scientists and the external research and development communities in universities and colleges; provincial, territorial or indigenous governments; industry and business; and civil society.</p>\n\n<p>7.6.1.2. Make a reasonable effort to appropriately resource participation in relevant scientific and professional societies, working committees, conferences, workshops and symposia identified by both researchers and scientists as well as management.</p>\n\n<p>7.6.1.3. Make a reasonable effort to ensure appropriate engagement or participation of researchers and scientists in international science and research-based fora of which Canada is a formal member.</p>\n\n<p>7.6.2. Furthermore, AAFC encourages activities related to collaboration with the extramural research and development communities, including the appointment of AAFC researchers and scientists to adjunct professorships.</p>\n\n<h3>7.7. Role of employees in science advice and evidence-informed decision-making</h3>\n\n<p>7.7.1. AAFC recognizes that researchers and scientists have important roles to play in providing advice that informs federal programs, policy, regulations and law. Research and scientific findings are an important source of evidence that must be appropriately considered in evidence-informed decision-making.</p>\n\n<p>7.7.2 Moreover, researchers and scientists have an important role to play in providing advice not only on the research required to resolve today's issues, but also to identify emerging scientific and technical issues, research directions and opportunities.</p>\n\n<p>7.7.3. To this end and in consultation with PIPSC representatives, AAFC will develop and deploy transparent and systematic mechanisms and procedures for:</p>\n\n<p>7.7.3.1 Gathering, evaluating and incorporating scientific advice into the AAFC policy and regulatory decision-making process.</p>\n\n<p>7.7.3.2 Engaging employees in the design, development, and evaluation of robust and resilient research programs that will be able to meet the research needs of the future.</p>\n\n<p>7.7.3.3. Identifying and prioritizing areas of federal authority for which the current federal science or research capacity is inadequate or where federal investment in research and development is likely to provide substantial benefits to Canadians.</p>\n\n<p>7.7.4. In addition, AAFC will:</p>\n\n<p>7.7.4.1. Support training and professional development opportunities devoted to the roles of science and research in developing evidence to support evidence-informed decision-making. Such opportunities may be made available to all employees who engage in, supervise, manage, support, review, use or report on research and scientific activities; analyze, curate or communicate data or information generated by these activities; and/or seek to use information derived from these activities in decision-making.</p>\n\n<h3>7.8. Responsible conduct of research</h3>\n\n<p>7.8.1. AAFC is committed to ensuring that AAFC research and science conforms to the highest standards of responsible research conduct and shall strive to follow the relevant and applicable research practices honestly, accountably, openly and fairly in the development and dissemination of research and scientific knowledge.</p>\n\n<p>7.8.2. Scientific integrity involves the application of concepts of transparency, openness, high quality work, avoidance of conflict of interest and plagiarism/self-plagiarism, and ensuring high standards of impartiality and research ethics. Employees involved in science or research shall conform to the standards of responsible research. Such standards are contained in AAFC's <cite>Science Ethics Policy Framework</cite> (SEPF). Research involving humans or animals is governed by the Human Research Ethics Committee and must conform with the Tri-council principles and procedures as specified in the <cite><a href=\"http://www.pre.ethics.gc.ca/eng/policy-politique_tcps2-eptc2_2018.html\">Tri-Council Policy Statement: Ethical Conduct for Research Involving Humans</a></cite> and the <cite><a href=\"https://www.ccac.ca/Documents/Standards/Guidelines/Experimental_Animals_Vol1.pdf\">Canadian Council on Animal Care Guide to the Care and Use of Experimental Animals (PDF)</a></cite>, respectively.</p>\n\n<h3>7.9. Monitoring and performance evaluation</h3>\n\n<p>7.9.1. AAFC will regularly review this and associated policies, guidelines or tools to ensure they remain relevant and seek employee and applicable bargaining agent input and feedback on the implementation of this Policy and provide performance indicators as practical.</p>\n\n<p>7.9.2. In consultation with the Office of the Chief Science Advisor (OCSA) and PIPSC representatives, AAFC will design, develop and implement a monitoring plan for this Policy within 12 months of it coming into force, that will provide information on (a) the extent to which the policy has achieved its objectives (that is, policy performance); and (b) future policy and associated instrument (for example, guidelines, directives, etc.) adjustments, modifications or changes likely to improve policy performance. Any such plan must have regard for other government initiatives or circumstances that may affect estimated performance independent of, or in concert with, the Policy.</p>\n\n<p>7.9.2.1. This plan will explicitly identify (a) the performance indicators that will be monitored; (b) how the data on these indicators will be collected, annotated and curated; (c) how performance baselines will be characterized; (d) how changes from baseline will be estimated and evaluated.</p>\n\n<p>7.9.2.2. A copy of all data and information collected as part of the monitoring plan will be forwarded annually to the Office of the Chief Science Advisor (OCSA), the appropriate National Union-Management Consultation Committee and the Governance Committee for Implementation of Government-Wide Scientific Integrity Policy comprised of the Secretary of the Treasury Board, the Chief Science Advisor and the President of PIPSC.</p>\n\n<h2 id=\"h8\">8. Responsibilities</h2>\n\n<h3>Deputy Head</h3>\n\n<p>The Deputy Head (DH) and its delegates are responsible for fostering an environment that encourages excellence and integrity in research, science and related activities, and for promoting a culture of open communication where employees may disclose, in good faith, information concerning breaches of scientific integrity. The DH is also responsible for:</p>\n\n<ul>\n\t<li>ensuring that this Policy is communicated to all employees;</li>\n\t<li>monitoring compliance with this Policy within AAFC and taking corrective action as needed;</li>\n\t<li>performance evaluation of this Policy;</li>\n\t<li>providing an annual confirmation of the compliance and reporting with this Policy as requested by the Governance Committee for Implementation of Government-Wide Scientific Integrity Policy and in 7.9.2.2.</li>\n</ul>\n\t\n<h3>Science Integrity Lead</h3>\n\n<p>The Science Integrity Lead is responsible for:</p>\n\n<ul>\n\t<li>implementing this policy for the department.</li>\n\t<li>promptly and thoroughly investigating alleged breaches of this policy.</li>\n\t<li>recommending any remedial actions resulting from breaches of this policy.</li>\n\t<li>regularly reviewing this policy and reporting on its implementation to the Deputy Head.</li>\n</ul>\n\t\n<h3>Directors General, directors, managers and supervisors</h3>\n\n<p>Directors general, directors, managers and supervisors are responsible for implementation of this Policy. Such responsibilities include:</p>\n\n<ul>\n\t<li>informing employees about this Policy and ensuring that they are aware of their rights and responsibilities and obligations under the Policy;</li>\n\t<li>ensuring compliance with this Policy, providing to employees information about the processes available to them if they wish to make an allegation under this Policy, and addressing all allegations of breach of scientific integrity that are brought to their attention or of which they are aware;</li>\n\t<li>ensuring that employees are aware of professional development and training opportunities that may be available in support of this Policy.</li>\n</ul>\n\n<p>Specific responsibilities will be articulated in procedures and guidelines that will be developed to support this Policy.</p>\n\n<h3>AAFC employees who conduct research, science or related activities</h3>\n\n<p>All AAFC employees involved in the design, conduct, management, review, use or communication of research, science or related activities, and all persons conducting research, science or related activities under the auspices of AAFC will have primary responsibility for:</p>\n\n<ul>\n\t<li>ensuring their behavior and conduct conforms to the principles of scientific integrity;</li>\n\t<li>ensuring that they design, conduct, manage, review, use or communicate research or science in a manner fully consistent with this Policy;</li>\n\t<li>reporting a suspected breach of scientific integrity as soon as possible; and</li>\n\t<li>participating in good faith in any inquiry or investigation conducted pursuant to this Policy.</li>\n</ul>\n\n<h2 id=\"h9\">9. Definitions</h2>\n\n<dl class=\"dl-horizontal\">\n\t<dt>Alteration (of a scientific or research work):</dt>\n\t<dd>any change in the form or content of a research or scientific work that may affect the interpretation of the work and/or its implications.</dd>\n\t\n\t<dt>Breach (of scientific integrity):</dt>\n\t<dd>failure to abide by any of the provisions described in s. 6 or s. 7 of this Policy.</dd>\n\t\n\t<dt>Classified or sensitive research or scientific information:</dt>\n\t<dd>research or scientific information that would normally be considered to be exempt from disclosure under the <cite>Access to Information Act</cite>.</dd>\n\t\n\t<dt>Clear and compelling reasons (for withholding publication of scientific or research information):</dt>\n\t<dd>legitimate reasons include, but are not limited to: (a) disclosure of such information is exempt under the <cite><a href=\"https://laws-lois.justice.gc.ca/eng/acts/A-1/\">Access to Information Act</a></cite> or the <cite>Security of Information Act</cite>; (b) technical or technological constraints limit or prevent making the information available.</dd>\n\t\n\t<dt>Client:</dt>\n\t<dd>any person, institution or organization, whether internal or external to government, who is the recipient and/or user of research or scientific data, products, services or information, and who is involved with establishing the question or topic of the research or scientific work in question.</dd>\n\t\n\t<dt>Collaborator:</dt>\n\t<dd>any person, organization or institution with whom/which an AAFC employee undertakes the design, conduct, management, review or communication of research, science, or related activities and who/which does not receive direct or indirect remuneration.</dd>\n\t\n\t<dt>Communication (of science):</dt>\n\t<dd>science communication involves any exchange of scientific or research information (including research results and interpretations thereof, methods, protocols, data, and products) in any form, between or among researchers or scientists (science and research producers) and the consumers or users of this information, including the public, other scientists or researchers, other government employees, and clients.</dd>\n\t\n\t<dt>Compelling evidence:</dt>\n\t<dd>evidence of sufficient strength to convince the decision-maker that it is likely that the claim for which the evidence is adduced is true.</dd>\n\t\n\t<dt>Deputy Head:</dt>\n\t<dd>as defined in section 11(1) of the <cite>Financial Administration Act</cite>.</dd>\n\t\n\t<dt>Employee:</dt>\n\t<dd>this is in most cases to be interpreted broadly to cover all employees within a department or agency, all of whom have a greater or lesser role to play in the scientific integrity procedures described in this Policy.</dd>\n\t\n\t<dt>Interference:</dt>\n\t<dd>any action that alters or suppresses the work or the impartiality of a scientist or researcher, as understood within the <cite><a href=\"?id=1448297869529\">Values and Ethics Code for Agriculture and Agri-Food Canada</a></cite>. Interference also includes alteration or inappropriate suppression of research methodology and results or dissuasion of reporting of results by any party, including clients.</dd>\n\t\n\t<dt>Related activity:</dt>\n\t<dd>any activity that (a) supports science or research (for example, laboratory operations and management; infrastructure (including information and communication infrastructure); (b) uses research or scientific information as an input (for example, solicitation or preparation of science advice; evaluation of research or scientific evidence); (c) involves the curation, communication or archiving of scientific or research data or information.</dd>\n\t\n\t<dt>Research:</dt>\n\t<dd>any undertaking intended to extend knowledge through a disciplined inquiry or systematic investigation. For the purposes of this policy, research does not include social, economic, public opinion or other analysis conducted for policy development purposes<sup id=\"fn2-rf\"><a class=\"fn-lnk\" href=\"#fn2\"><span class=\"wb-inv\">endnote </span>2</a></sup>.</dd>\n\t\n\t<dt>Researcher:</dt>\n\t<dd>employees primarily involved in the application of comprehensive scientific and professional knowledge to the planning, conduct, evaluation and management of fundamental or applied research, knowledge enhancement, technology development and innovation relevant to defense science, historical research and archival science, mathematics and the natural sciences. (N.B. These definitions follow the RE occupational group definition for the public service<sup id=\"fn3-rf\"><a class=\"fn-lnk\" href=\"#fn3\"><span class=\"wb-inv\">endnote </span>3</a></sup>.</dd>\n\t\n\t<dt>Science:</dt>\n\t<dd>the pursuit and application of knowledge and understanding of the natural world through application of one or more elements of the scientific method. In the context of the current policy, it is understood to include both fundamental and applied natural, physical, biomedical and social science, as well as engineering and mathematics<sup id=\"fn4-rf\"><a class=\"fn-lnk\" href=\"#fn4\"><span class=\"wb-inv\">endnote </span>4</a></sup>.</dd>\n\t\n\t<dt>Scientific integrity:</dt>\n\t<dd>the condition resulting from adherence to concepts of transparency, openness, high quality work, avoidance of conflict of interest and ensuring high standards of impartiality and research ethics.</dd>\n\t\n\t<dt>Scientist:</dt>\n\t<dd>employees primarily involved in the application of comprehensive scientific and professional knowledge to the planning, conduct, evaluation and management of fundamental research, knowledge enhancement, technology development, and innovation relevant to natural sciences (SE) or to one of the applied science programs involving actuarial science, agriculture, biology, chemistry, forestry, meteorology or physical sciences, which include physics, planetary and earth sciences, scientific regulation and patents (SP)<sup id=\"fn5-rf\"><a class=\"fn-lnk\" href=\"#fn5\"><span class=\"wb-inv\">endnote </span>5</a></sup>.</dd>\n\t\n\t<dt>Suppression (of a scientific or research work):</dt>\n\t<dd>the deliberate withholding of a scientific or research work, or any portion thereof, from publication or dissemination, in the absence of clear and compelling reasons for doing so.</dd>\n\t\n\t<dt>Timely manner:</dt>\n\t<dd>within a time frame that is consistent with usual review and approval processes, and consistent with logistical and resource constraints. The AAFC or external collaborators may impose reasonable embargo periods to respect the right of a principal investigator to first publication.</dd>\n</dl>\n\n<h2 id=\"h10\">10. Enquiries</h2>\n\n<p>For further information on this policy, contact <a href=\"mailto:aafc.scienceintegrity-integritescientifique.aac@canada.ca\">aafc.scienceintegrity-integritescientifique.aac@canada.ca</a>.</p>\n\n\n<aside class=\"wb-fnote\" role=\"note\">\n    <h2 id=\"fn\">Endnotes</h2>\n    <dl>\n\t\t\n\t\t<dt>Endnote 1</dt>\n        <dd id=\"fn1\">\n        <p>For the purposes of Article 7.4, the term \"researcher(s)\" and \"scientist(s)\" are understood to mean researchers (RE) and applied scientists (SP) as specified in the occupation group definitions for the public service \u2013 see s. 9 of the Policy. This definition may expand as additional bargaining units sign on to similar scientific integrity agreements.</p>\n        <p class=\"fn-rtn\"><a href=\"#fn1-rf\"><span class=\"wb-inv\">Return to endnote </span>1<span class=\"wb-inv\"> referrer</span></a></p>\n        </dd>\n\t\t\n\t\t\n\t\t<dt>Endnote 2</dt>\n        <dd id=\"fn2\">\n        <p>Adopted from the <a href=\"http://www.pre.ethics.gc.ca/policy-politique/initiatives/docs/Definition_of_Research_-_January_2008_-_EN.pdf\">2008 Tri-Council definition of research (PDF)</a></p>\n        <p class=\"fn-rtn\"><a href=\"#fn2-rf\"><span class=\"wb-inv\">Return to endnote </span>2<span class=\"wb-inv\"> referrer</span></a></p>\n        </dd>\n\t\t\n\t\t<dt>Endnote 3</dt>\n        <dd id=\"fn3\">\n        <p><a href=\"https://www.canada.ca/en/treasury-board-secretariat/services/collective-agreements/occupational-groups/research.html#grp-re\">Research Group Definition</a></p>\n        <p class=\"fn-rtn\"><a href=\"#fn3-rf\"><span class=\"wb-inv\">Return to endnote </span>3<span class=\"wb-inv\"> referrer</span></a></p>\n        </dd>\n\t\t\n\t\t<dt>Endnote 4</dt>\n        <dd id=\"fn4\">\n        <p>Adopted from the <a href=\"https://sciencecouncil.org/about-science/our-definition-of-science/\">Science Council</a></p>\n        <p class=\"fn-rtn\"><a href=\"#fn4-rf\"><span class=\"wb-inv\">Return to endnote </span>4<span class=\"wb-inv\"> referrer</span></a></p>\n        </dd>\n\t\t\n\t\t<dt>Endnote 5</dt>\n        <dd id=\"fn5\">\n        <p><a href=\"https://www.canada.ca/en/treasury-board-secretariat/services/collective-agreements/occupational-groups/applied-science-patent-examination.html#grp-sp\">Applied Science and Patent Examination Group (SP) Definition</a>; <a href=\"https://www.canada.ca/en/treasury-board-secretariat/services/collective-agreements/occupational-groups/research.html#occ-se\">Research Scientist (RE) Group Definition</a></p>\n        <p class=\"fn-rtn\"><a href=\"#fn5-rf\"><span class=\"wb-inv\">Return to endnote </span>5<span class=\"wb-inv\"> referrer</span></a></p>\n        </dd>\n\t\t\n    </dl>\n</aside>\n\r\n    ",
        "fr": "\r\n    <div class=\"row\">\n<div class=\"col-md-4 pull-right\">\n\n\t\n        <section class=\"panel panel-default mrgn-tp-lg\">\n            <header class=\"panel-heading\">\n                <h2 class=\"h5 panel-title  mrgn-tp-sm\">Liens connexes</h2>\n            </header>\n            <div class=\"panel-body\">\n\n<ul class=\"mrgn-lft-0 lst-spcd\">\n\t<li>Lignes directrices\u00a0:\n<ul>\n\t<li><a href=\"?id=1611581833362\">Communication et diffusion de renseignements scientifiques et de recherche</a></li>\t\n\t<li><a href=\"?id=1611581877547\">Contributions scientifiques et de recherche aux communaut\u00e9s du savoir</a></li>\n\t<li><a href=\"?id=1611581773925\">Violations de l\u2019int\u00e9grit\u00e9 scientifique</a></li>\n</ul>\n</li>\n\t<li><a href=\"?id=1448297869529\"><cite>Code de valeurs et d'\u00e9thique d'Agriculture et Agroalimentaire Canada</cite></a></li>\n\t<li><a href=\"?id=1614874999283\"><cite>Cadre strat\u00e9gique d'Agriculture et Agroalimentaire Canada</cite></a></li>\n\t<li><a href=\"?id=1614872666173\"><cite>Politique sur les publications scientifiques et techniques</cite></a></li>\t\n</ul>\t\t\t\t\t\t\t\t\t\n            </div>\n\t</section>\n\t\n\t\t\n</div>\n\t<div class=\"mrgn-tp-lg col-md-8\">\n\n<nav>\n<h2>Table des mati\u00e8res</h2>\n\n<ul class=\"list-unstyled mrgn-lft-lg\">\n\t<li>1. <a href=\"#h1\">Date d'entr\u00e9e en vigueur</a></li>\n\t<li>2. <a href=\"#h2\">Contexte</a></li>\n\t<li>3. <a href=\"#h3\">Pouvoirs</a></li>\n\t<li>4. <a href=\"#h4\">Objectifs et r\u00e9sultats attendus</a></li>\n\t<li>5. <a href=\"#h5\">Champ d'application</a></li>\n\t<li>6. <a href=\"#h6\">Principes d'int\u00e9grit\u00e9 scientifique</a></li>\n\t<li>7. <a href=\"#h7\">Exigences</a></li>\n\t<li>8. <a href=\"#h8\">Responsabilit\u00e9s</a></li>\n\t<li>9. <a href=\"#h9\">D\u00e9finitions</a></li>\n\t<li>10. <a href=\"#h10\">Demandes de renseignements</a></li>\n</ul>\n</nav>\n\n<h2 id=\"h1\">1. Date d'entr\u00e9e en vigueur</h2>\n\n<p>1.1. La pr\u00e9sente politique entre en vigueur le 1<sup>er</sup> janvier 2019.</p>\n\n<p>1.2  La pr\u00e9sente politique sera examin\u00e9e r\u00e9guli\u00e8rement et r\u00e9vis\u00e9e au besoin.</p>\n\n<h2 id=\"h2\">2. Contexte</h2>\n\n<p>2.1. La pr\u00e9sente politique est publi\u00e9e conform\u00e9ment aux protocoles d'entente conclus le 15 mai 2017 et le 1<sup>er</sup> juin 2017 entre le Conseil du Tr\u00e9sor et l'Institut professionnel de la fonction publique du Canada (IPFPC) en mati\u00e8re d'int\u00e9grit\u00e9 scientifique.</p>\n\n</div></div>\n\n<h2 id=\"h3\">3. Pouvoirs</h2>\n\n<p>3.1. La pr\u00e9sente politique devrait \u00eatre lue en consultation avec le <a href=\"?id=1448297869529\"><cite>Code de valeurs et d'\u00e9thique d'Agriculture et Agroalimentaire Canada</cite></a>, la <a href=\"https://www.tbs-sct.gc.ca/pol/doc-fra.aspx?id=30682\"><cite>Directive sur la gestion des communications</cite></a>, le <cite><a href=\"?id=1614874999283\">Cadre strat\u00e9gique d'Agriculture et Agroalimentaire Canada (AAC)</a> sur l'\u00e9thique en sciences</cite> et la <cite><a href=\"?id=1614872666173\">Politique sur les publications scientifiques et techniques</a></cite>.</p>\n\n<p>3.2. En cas de conflit ou d'incompatibilit\u00e9 entre la pr\u00e9sente politique et toute loi, disposition de toute convention collective pertinente ou instrument de politique obligatoire du Conseil du Tr\u00e9sor, les dispositions de la loi, de l'instrument de politique obligatoire du Conseil du Tr\u00e9sor ou de la convention collective pertinente ont pr\u00e9s\u00e9ance.</p>\n\n<p>3.3. En cas de conflit ou d'incompatibilit\u00e9 entre la pr\u00e9sente politique et un instrument de politique volontaire du Conseil du Tr\u00e9sor (c'est-\u00e0-dire, lignes directrices ou outils), les dispositions de la pr\u00e9sente politique ont pr\u00e9s\u00e9ance.</p>\n\n<p>3.4. AAC tiendra un registre de tous les cas de conflit ou d'incompatibilit\u00e9 entre la pr\u00e9sente politique et la loi, les conventions collectives ou les instruments de politique du Conseil du Tr\u00e9sor ou d'AAC, et soumettra ce registre dans le cadre de l'\u00e9valuation du rendement conform\u00e9ment au paragraphe 7.9 de la pr\u00e9sente politique.</p>\n\n<p>3.5. En consultation avec le pr\u00e9sident de la consultation d'AAC de l'IPFPC, l'administrateur g\u00e9n\u00e9ral a le pouvoir de soutenir l'int\u00e9grit\u00e9 scientifique en \u00e9tablissant des normes ad\u00e9quates et applicables relatives \u00e0 la conception, l'ex\u00e9cution, la gestion, l'analyse et la communication de la science et de la recherche au sein d'AAC.</p>\n\n<h2 id=\"h4\">4. Objectifs et r\u00e9sultats attendus</h2>\n\n<p>4.1. Les objectifs de la pr\u00e9sente politique sont les suivants\u00a0:</p>\n\n<p>4.1.1. Favoriser une culture qui soutient et promeut l'int\u00e9grit\u00e9 scientifique dans la conception, l'ex\u00e9cution, la gestion, l'analyse et la communication des activit\u00e9s de recherche, des activit\u00e9s scientifiques et des activit\u00e9s connexes.</p>\n\n<p>4.1.2. Accro\u00eetre la confiance du public, des employ\u00e9s et des intervenants dans la cr\u00e9dibilit\u00e9 et la fiabilit\u00e9 de la recherche et des activit\u00e9s scientifiques d'AAC.</p>\n\n<p>4.1.3. D\u00e9finir les attentes concernant la conception, l'ex\u00e9cution, la gestion, l'analyse et la communication des activit\u00e9s de recherche, des activit\u00e9s scientifiques et des activit\u00e9s connexes.</p>\n\n<p>4.1.4. Faire mieux comprendre aux employ\u00e9s les contributions de la recherche et de la science \u00e0 la prise de d\u00e9cisions \u00e9clair\u00e9es par les donn\u00e9es probantes, ainsi que le r\u00f4le des gestionnaires, des sp\u00e9cialistes de la communication, des chercheurs et des scientifiques dans l'\u00e9laboration des politiques et des conseils du gouvernement.</p>\n\n<p>4.2. Au titre des r\u00e9sultats attendus, la pr\u00e9sente politique vise \u00e0 faire en sorte que\u00a0:</p>\n\n<p>4.2.1. Les employ\u00e9s qui participent \u00e0 la conception, \u00e0 l'ex\u00e9cution, \u00e0 la gestion, \u00e0 l'analyse, \u00e0 l'utilisation ou \u00e0 la communication d'activit\u00e9s de recherche, d'activit\u00e9s scientifiques ou d'activit\u00e9s connexes comprennent les principes de l'int\u00e9grit\u00e9 scientifique et se conduisent conform\u00e9ment \u00e0 ces principes.</p>\n\n<p>4.2.2. AAC est reconnu par les employ\u00e9s, les intervenants et le public comme une source fiable et cr\u00e9dible de recherche et de renseignements scientifiques.</p>\n\n<p>4.2.3. Dans la mesure du possible et si cela est appropri\u00e9, les all\u00e9gations d'atteinte \u00e0 l'int\u00e9grit\u00e9 scientifique, d\u00e9finie dans l'article 6, sont trait\u00e9es dans le cadre d'un processus \u00e9quitable, impartial, efficace, confidentiel et respectueux.</p>\n\n<p>4.2.4. Les employ\u00e9s comprennent la contribution de la recherche et de la science \u00e0 la prise de d\u00e9cisions \u00e9clair\u00e9es par les donn\u00e9es probantes, aux conseils scientifiques et aux politiques gouvernementales, et cherchent \u00e0 l'am\u00e9liorer.</p>\n\n<h2 id=\"h5\">5. Champ d'application</h2>\n\n<p>5.1. La pr\u00e9sente politique s'applique aux employ\u00e9s d'AAC qui con\u00e7oivent, ex\u00e9cutent, communiquent, g\u00e8rent, analysent ou utilisent des activit\u00e9s de recherche, des activit\u00e9s scientifiques ou des activit\u00e9s connexes d'AAC, ainsi qu'aux employ\u00e9s de l'ext\u00e9rieur d'AAC qui utilisent les installations, les activit\u00e9s de recherche, les activit\u00e9s scientifiques ou les activit\u00e9s connexes d'AAC (par exemple, chercheurs invit\u00e9s et \u00e9tudiants, entrepreneurs, collaborateurs).</p>\n\n<p>5.2 Rien dans la pr\u00e9sente politique ne remplace les conventions collectives pertinentes. La politique n'\u00e9tend pas non plus les dispositions des conventions collectives pertinentes aux employ\u00e9s qui ne sont pas assujettis \u00e0 ces conventions.</p>\n\n<h2 id=\"h6\">6. Principes d'int\u00e9grit\u00e9 scientifique</h2>\n\n<p>6.1. AAC reconna\u00eet que la confiance des intervenants dans la recherche et les renseignements scientifiques fournis par les gouvernements d\u00e9pend de l'int\u00e9grit\u00e9 du processus par lequel cette information est produite, g\u00e9r\u00e9e et communiqu\u00e9e. Il en va de m\u00eame pour la confiance dans le processus de prise de d\u00e9cisions qui utilise ces renseignements.</p>\n\n<p>6.2. De plus, AAC reconna\u00eet que les scientifiques et les chercheurs doivent respecter les normes d'excellence accept\u00e9es par l'ensemble de la communaut\u00e9 scientifique et de la recherche, et s'y conformer.</p>\n\n<p>6.3. \u00c0 cette fin, lors de la conception, de l'ex\u00e9cution, de la gestion, de l'analyse, de l'utilisation ou de la communication des activit\u00e9s de recherche, des activit\u00e9s scientifiques et des activit\u00e9s connexes, les employ\u00e9s d'AAC doivent\u00a0:</p>\n\n<p>6.3.1. Veiller \u00e0 ce que toutes ces activit\u00e9s soient men\u00e9es d'une mani\u00e8re conforme aux normes ad\u00e9quates et applicables en mati\u00e8re d'excellence scientifique, d'\u00e9thique de la recherche et de conduite responsable de la recherche.</p>\n\n<p>6.3.2. S'assurer que la conduite de la recherche et de la science d'AAC et de tout produit ou recherche scientifique, ainsi que toute communication associ\u00e9e, sont libres de toute interf\u00e9rence politique, commerciale, des clients et des intervenants.</p>\n\n<p>6.3.3. Veiller, en l'absence de raisons claires et imp\u00e9rieuses de limiter la diffusion d'informations, \u00e0 ce que la recherche et l'information scientifique produites par AAC soient mises \u00e0 la disposition du public en temps opportun et conform\u00e9ment \u00e0 la <a href=\"https://www.tbs-sct.gc.ca/pol/doc-fra.aspx?id=28108\"><cite>Directive sur le gouvernement ouvert</cite></a> du gouvernement du Canada.</p>\n\n<p>6.3.4. Repr\u00e9senter fid\u00e8lement et reconna\u00eetre de fa\u00e7on appropri\u00e9e leurs propres contributions et celles des autres \u00e0 leurs travaux de recherche ou leurs travaux scientifiques.</p>\n\n<p>6.3.5. \u00c9viter les conflits d'int\u00e9r\u00eats et veiller \u00e0 ce que tout conflit d'int\u00e9r\u00eats r\u00e9el, potentiel ou apparent soit explicitement reconnu, signal\u00e9 et g\u00e9r\u00e9 de fa\u00e7on appropri\u00e9e.</p>\n\n<p>6.3.6. Encourager la discussion d\u00e9coulant d'interpr\u00e9tations divergentes des donn\u00e9es scientifiques et de recherche en tant que partie l\u00e9gitime et n\u00e9cessaire de la recherche et des processus scientifiques et, le cas \u00e9ch\u00e9ant, veiller \u00e0 ce que ces diff\u00e9rences soient explicites et repr\u00e9sent\u00e9es avec pr\u00e9cision.</p>\n\n<p>6.3.7. Veiller \u00e0 ce que la contribution importante et significative des chercheurs et des scientifiques aux programmes, aux politiques, aux r\u00e8glements et \u00e0 la prise de d\u00e9cisions du gouvernement soit reconnue dans les publications ou les communications officielles, y compris les noms et les r\u00f4les de ceux qui ont contribu\u00e9 de fa\u00e7on importante \u00e0 ces produits et \u00e0 ces activit\u00e9s.</p>\n\n<p>6.3.8. Signaler toute atteinte \u00e0 ces principes (c'est-\u00e0-dire, atteinte \u00e0 l'int\u00e9grit\u00e9 scientifique) \u00e0 leur superviseur, \u00e0 leur gestionnaire, au responsable de l'int\u00e9grit\u00e9 scientifique d'AAC ou au pr\u00e9sident du Comit\u00e9 d'\u00e9thique en science d'AAC, selon le cas.</p>\n\n<h2 id=\"h7\">7. Exigences</h2>\n\n<h3>7.1. Mise en \u0153uvre</h3>\n\n<p>7.1.1. L'administrateur g\u00e9n\u00e9ral communiquera la pr\u00e9sente politique \u00e0 tous les employ\u00e9s.</p>\n\n<p>7.1.2. AAC continuera d'\u00e9laborer et de mettre en \u0153uvre les r\u00e8gles, les politiques, les lignes directrices, les outils, la formation et les possibilit\u00e9s de perfectionnement professionnel suppl\u00e9mentaires n\u00e9cessaires \u00e0 l'appui de la pr\u00e9sente politique.</p>\n\n<p>7.1.3. AAC veillera \u00e0 ce que les entrepreneurs ou les collaborateurs qui participent \u00e0 des services \u00e0 l'appui d'activit\u00e9s de recherche, d'activit\u00e9s scientifiques ou d'activit\u00e9s connexes, ou en fournissent, soient inform\u00e9s de la pr\u00e9sente politique et respectent ses dispositions et son intention.</p>\n\n<h3>7.2. Favoriser une culture de l'int\u00e9grit\u00e9 scientifique</h3>\n\n<p>AAC reconna\u00eet deux approches compl\u00e9mentaires pour favoriser une culture de l'int\u00e9grit\u00e9 scientifique. La premi\u00e8re vise \u00e0 inculquer les vertus qui sous-tendent la conduite responsable dans les activit\u00e9s de recherche, les activit\u00e9s scientifiques et les activit\u00e9s connexes (paragraphe 7.2.1). La seconde porte sur la proc\u00e9dure \u00e0 suivre pour pr\u00e9senter des all\u00e9gations de violation, l'enqu\u00eate sur ces all\u00e9gations et les cons\u00e9quences d'une constatation de violation (paragraphe 7.2.2).</p>\n\n<h4>7.2.1. Vertus scientifiques</h4>\n\n<p>Conform\u00e9ment aux conventions collectives pertinentes et \u00e0 la <a href=\"https://www.tbs-sct.gc.ca/pol/doc-fra.aspx?id=12405\"><cite>Politique en mati\u00e8re d'apprentissage, de formation et de perfectionnement</cite></a> du SCT\u00a0:</p>\n\n<p>7.2.1.1. AAC reconna\u00eet l'importance du r\u00e9seautage de la recherche avec les pairs nationaux et \u00e9trangers et de la participation active aux affaires et \u00e0 l'organisation des soci\u00e9t\u00e9s scientifiques et professionnelles pertinentes, qui jouent un r\u00f4le important pour s'assurer que les scientifiques et les chercheurs comprennent les normes de leurs communaut\u00e9s et qu'ils sont tenus de les respecter.</p>\n\n<p>7.2.1.2. AAC reconna\u00eet l'importance des vertus qui sous-tendent l'excellence scientifique, y compris la curiosit\u00e9 intellectuelle et l'honn\u00eatet\u00e9, le scepticisme constructif, la m\u00e9ticulosit\u00e9, l'\u00e9vitement des pr\u00e9jug\u00e9s, l'humilit\u00e9 dans la d\u00e9couverte et l'utilisation des preuves scientifiques et les limites de la recherche scientifique. \u00c0 cette fin, AAC veillera \u00e0 ce que ses politiques d'apprentissage appuient les possibilit\u00e9s de formation, d'\u00e9ducation et de perfectionnement professionnel qui permettent aux employ\u00e9s de mieux comprendre et appr\u00e9cier ces vertus.</p>\n\n<p>7.2.1.3. AAC s'assurera que ses politiques d'apprentissage appuient les possibilit\u00e9s de formation, d'\u00e9ducation et de perfectionnement professionnel pour informer et \u00e9duquer les employ\u00e9s sur la conduite responsable en recherche, l'\u00e9thique de la recherche et l'annotation, la gestion et l'archivage de la recherche et des donn\u00e9es scientifiques.</p>\n\n<h4>7.2.2. Violations de l'int\u00e9grit\u00e9 scientifique</h4>\n\n<p>7.2.2.1. En cas de violations pr\u00e9sum\u00e9es de l'int\u00e9grit\u00e9 scientifique, les employ\u00e9s de tous les niveaux doivent r\u00e9gler les probl\u00e8mes d'une mani\u00e8re juste et respectueuse et envisagent des processus informels comme le dialogue ou la m\u00e9diation. Lorsque de telles situations se pr\u00e9sentent, les employ\u00e9s sont invit\u00e9s \u00e0 en parler et \u00e0 les r\u00e9soudre avec leur superviseur imm\u00e9diat. Ils peuvent \u00e9galement demander aide et conseils aux services comp\u00e9tents d'AAC, comme le Comit\u00e9 d'\u00e9thique en science (CES) ou le responsable de l'int\u00e9grit\u00e9 scientifique.</p>\n\n<p>7.2.2.2. L'administrateur g\u00e9n\u00e9ral nommera un responsable de l'int\u00e9grit\u00e9 scientifique pour traiter les all\u00e9gations de violation \u00e0 la pr\u00e9sente politique.</p>\n\n<p>7.2.2.3. Le responsable de l'int\u00e9grit\u00e9 scientifique examinera rapidement et minutieusement les violations pr\u00e9sum\u00e9es \u00e0 la pr\u00e9sente politique, et enqu\u00eatera sur celles-ci.</p>\n\n<p>7.2.2.4. AAC s'efforcera de prot\u00e9ger les renseignements personnels et de fournir d'autres mesures de protection pour s'assurer que les employ\u00e9s peuvent pr\u00e9senter, de bonne foi, des all\u00e9gations d'atteinte \u00e0 l'int\u00e9grit\u00e9 scientifique ou participer \u00e0 une proc\u00e9dure d'enqu\u00eate sans pr\u00e9judice ou crainte de repr\u00e9sailles.</p>\n\n<p>7.2.2.5. Lorsque les fonctionnaires disposent de renseignements qui pourraient indiquer une violation grave du <a href=\"?id=1448297869529\"><cite>Code de valeurs et d'\u00e9thique d'Agriculture et Agroalimentaire Canada</cite></a>, ils peuvent se pr\u00e9valoir des proc\u00e9dures \u00e9nonc\u00e9es dans la <a href=\"https://laws-lois.justice.gc.ca/fra/lois/P-31.9/\"><cite>Loi sur la protection des fonctionnaires divulgateurs d'actes r\u00e9pr\u00e9hensibles</cite></a>.</p>\n\n<h3>7.3. Ouverture, transparence et rapidit\u00e9</h3>\n\n<p>7.3.1. AAC reconna\u00eet et comprend l'importance de l'ouverture et de la transparence concernant tous les \u00e9l\u00e9ments de la recherche et du processus scientifique ainsi que de la diffusion en temps opportun des renseignements scientifiques et des renseignements sur les recherches. Le Minist\u00e8re reconna\u00eet toutefois qu'il peut y avoir des raisons l\u00e9gitimes et imp\u00e9rieuses de limiter la divulgation ou la disponibilit\u00e9 des renseignements scientifiques ou des renseignements sur les recherches aux employ\u00e9s, aux intervenants ou au public.</p>\n\n<p>7.3.2. La pr\u00e9sente politique ainsi que toutes les politiques, directives ou lignes directrices connexes seront affich\u00e9es en \u00e9vidence sur le site Web public d'AAC sous une forme librement t\u00e9l\u00e9chargeable (HTML et PDF).</p>\n\n<p>7.3.3. Au fur et \u00e0 mesure que la politique actuelle et les politiques, les lignes directrices ou les outils connexes seront modifi\u00e9s et r\u00e9vis\u00e9s, AAC conservera des archives \u00e9lectroniques annot\u00e9es de tous ces changements, tous les \u00e9l\u00e9ments d'archives \u00e9tant disponibles sous une forme librement t\u00e9l\u00e9chargeable.</p>\n\n<p>7.3.4. Aucun employ\u00e9 d'AAC ne doit supprimer ou modifier de renseignements scientifiques ou de renseignements sur les recherches en l'absence de raisons claires et imp\u00e9rieuses de le faire ou autrement entraver leur diffusion en temps opportun.</p>\n\n<p>7.3.5. Les employ\u00e9s d'AAC doivent s'assurer que les renseignements scientifiques ou les renseignements sur les recherches (y compris ceux produits par les entrepreneurs ou d'autres partenaires qui participent ou aident \u00e0 la conception, \u00e0 l'ex\u00e9cution, \u00e0 l'utilisation ou \u00e0 la gestion d'activit\u00e9s de recherche, d'activit\u00e9s scientifiques ou d'activit\u00e9s connexes) sont produits et diffus\u00e9s en temps opportun et de fa\u00e7on transparente, en l'absence de raisons claires et convaincantes de ne pas le faire.</p>\n\n<h3>7.4. Communication publique de la recherche et des donn\u00e9es scientifiques</h3>\n\n<p>7.4.1. AAC reconna\u00eet le droit \u00e0 la libert\u00e9 d'expression des chercheurs et des scientifiques en ce qui a trait \u00e0 la recherche ou \u00e0 la science. Il reconna\u00eet \u00e9galement le r\u00f4le important des chercheurs et des scientifiques dans la communication de renseignements scientifiques ou de renseignements sur les recherches au public.</p>\n\n<p>7.4.2 De plus, AAC reconna\u00eet que les fonctionnaires, les scientifiques, les chercheurs et tous les employ\u00e9s sont assujettis au <a href=\"?id=1448297869529\"><cite>Code de valeurs et d'\u00e9thique d'Agriculture et Agroalimentaire Canada</cite></a> adopt\u00e9 le 2 avril 2012. Il reconna\u00eet en outre la n\u00e9cessit\u00e9 de faire preuve de prudence dans la communication publique de renseignements scientifiques ou de recherche classifi\u00e9s ou sensibles, ainsi que les contraintes juridiques existantes en mati\u00e8re de divulgation des renseignements. Enfin, AAC reconna\u00eet qu'une communication publique efficace exige certaines comp\u00e9tences et que les chercheurs et les scientifiques peuvent \u00eatre plus ou moins \u00e0 l'aise avec les tribunes publiques.</p>\n\n<p>7.4.3. Les chercheurs, les scientifiques<sup id=\"fn1-rf\"><a class=\"fn-lnk\" href=\"#fn1\"><span class=\"wb-inv\">note de bas de page </span>1</a></sup> et les experts en la mati\u00e8re ont le droit de parler ou de s'exprimer sur leurs travaux scientifiques et de recherche, et sont encourag\u00e9s \u00e0 le faire, sans approbation et sans \u00eatre d\u00e9sign\u00e9 comme porte-parole officiel. Cependant, les chercheurs, les scientifiques et les experts en la mati\u00e8re ont besoin d'une autorisation pour s'exprimer sur des questions de politique ou sur les r\u00e9percussions de leurs travaux scientifiques ou de recherche sur les politiques.  Dans les deux cas, ils doivent respecter les dispositions sur la divulgation d'information de la  <a href=\"https://laws-lois.justice.gc.ca/fra/lois/A-1/\"><cite>Loi sur l'acc\u00e8s \u00e0 l'information</cite></a> ainsi que le <a href=\"?id=1448297869529\"><cite>Code de valeurs et d'\u00e9thique d'Agriculture et Agroalimentaire Canada</cite></a>.</p>\n\n<p>7.4.4. Dans toute communication publique, les employ\u00e9s doivent conna\u00eetre et respecter les restrictions juridiques en mati\u00e8re de divulgation de renseignements, comme le droit \u00e0 la vie priv\u00e9e, les affaires dont sont saisis les tribunaux et les documents confidentiels du Cabinet. Ils doivent \u00e9galement respecter le <a href=\"?id=1448297869529\"><cite>Code de valeurs et d'\u00e9thique d'Agriculture et Agroalimentaire Canada</cite></a> et la <cite>Loi sur l'acc\u00e8s \u00e0 l'information</cite>. \u00c0 moins qu'un superviseur ou un gestionnaire en ait donn\u00e9 l'approbation explicite, les employ\u00e9s ne peuvent divulguer de renseignements de recherche ou scientifiques classifi\u00e9s ou sensibles dans une communication publique.</p>\n\n<p>7.4.5. Dans le cas d'\u00e9v\u00e9nements de communication publique formelle ayant des d\u00e9lais suffisamment longs (par exemple, conf\u00e9rences et expos\u00e9s publics), les employ\u00e9s devraient fournir le titre et un r\u00e9sum\u00e9 de leur pr\u00e9sentation \u00e0 leur superviseur ou leur gestionnaire \u00e0 titre d'information seulement et sous toutes r\u00e9serves.</p>\n\n<p>7.4.6. Dans le cas d'\u00e9v\u00e9nements de communication publique formelle ayant des d\u00e9lais courts (par exemple, entrevues et entretiens t\u00e9l\u00e9phoniques avec les m\u00e9dias) qui emp\u00eachent effectivement la notification pr\u00e9alable, les employ\u00e9s devraient aviser leur superviseur ou gestionnaire, ainsi que la Direction g\u00e9n\u00e9rale des affaires publiques, aussit\u00f4t que possible apr\u00e8s l'\u00e9v\u00e9nement \u00e0 titre d'information seulement et sous toutes r\u00e9serves.</p>\n\n<p>7.4.7. Conform\u00e9ment aux paragraphes 7.4.4 et 7.4.5, AAC veillera \u00e0 ce que les employ\u00e9s re\u00e7oivent des lignes directrices conformes aux conventions collectives pertinentes et \u00e0 la <cite>Directive sur la gestion des communications</cite>, afin de les aider \u00e0 d\u00e9terminer les types de communications publiques pour lesquelles il est souhaitable ou n\u00e9cessaire d'aviser le superviseur ou le gestionnaire, ainsi que le moment et la forme appropri\u00e9s de ces notifications.</p>\n\n<p>7.4.8. Les chercheurs et les scientifiques ne sont pas tenus d'agir en tant qu'experts en la mati\u00e8re ou d'appara\u00eetre dans des tribunes publiques, et peuvent refuser une telle invitation ou demande sous toutes r\u00e9serves, \u00e0 moins que la direction ne leur ait explicitement confi\u00e9 cette t\u00e2che.</p>\n\n<p>7.4.9. Toute communication publique d\u00e9crivant des travaux men\u00e9s par des chercheurs ou des scientifiques doit \u00eatre examin\u00e9e et approuv\u00e9e par eux ou leurs repr\u00e9sentants d\u00e9sign\u00e9s avant d'\u00eatre publi\u00e9e ou diffus\u00e9e, conform\u00e9ment \u00e0 la politique d'AAC relative aux publications et au Cadre strat\u00e9gique sur l'\u00e9thique en sciences.</p>\n\n<p>7.4.10. Les chercheurs et les scientifiques sont encourag\u00e9s \u00e0 participer \u00e0 la formation sur les m\u00e9dias dispens\u00e9e par AAC, mais ce n'est pas une obligation pour eux de s'exprimer sur leurs travaux scientifiques ou de recherche.</p>\n\n<p>7.4.11. Lorsqu'un chercheur ou un scientifique agit aussi \u00e0 titre de porte-parole officiel ou d'expert en la mati\u00e8re, il doit s'identifier par son nom et son poste.</p>\n\n<h3>7.5. Diffusion de la recherche et des r\u00e9sultats scientifiques</h3>\n\n<p>7.5.1. AAC reconna\u00eet que la communication entre les chercheurs et les scientifiques est essentielle au d\u00e9veloppement des connaissances scientifiques et savantes. De plus, AAC reconna\u00eet que ses chercheurs et ses scientifiques font partie d'une communaut\u00e9 mondiale d'expertise scientifique et savante. La contribution de la recherche d'AAC est essentielle au maintien et \u00e0 l'am\u00e9lioration de la cr\u00e9dibilit\u00e9 et de la r\u00e9putation des experts d'AAC, de la r\u00e9putation et de la cr\u00e9dibilit\u00e9 d'AAC et de la contribution d'AAC \u00e0 l'\u00e9conomie du savoir.</p>\n\n<p>7.5.2 Comme pour les communications publiques, les chercheurs ou les scientifiques qui diffusent ou communiquent des renseignements par l'entremise de m\u00e9dias sp\u00e9cialis\u00e9s dans la recherche ou la science sont assujettis \u00e0 la <cite>Loi sur l'acc\u00e8s \u00e0 l'information</cite> et au <cite><a href=\"?id=1448297869529\">Code de valeurs et d'\u00e9thique d'Agriculture et Agroalimentaire Canada</a></cite> et doivent se conformer \u00e0 la <cite>Directive sur la gestion des communications</cite> du Conseil du Tr\u00e9sor du Canada lorsqu'elle n'entre pas en conflit avec les conventions collectives pertinentes. \u00c0 cette fin, AAC doit disposer de processus d'approbation des publications qui sont compatibles avec les conventions collectives pertinentes. L'autorisation de publier ne sera pas refus\u00e9e sans raison valable.</p>\n\n<p>7.5.3. Les scientifiques d'AAC doivent respecter les politiques et directives \u00e9nonc\u00e9es dans la <cite>Politique sur les publications scientifiques et techniques</cite>.</p>\n\n<h3>7.6. Contributions \u00e0 la communaut\u00e9 scientifique</h3>\n\n<p>7.6.1. AAC reconna\u00eet que la participation des chercheurs et des scientifiques d'AAC \u00e0 la communaut\u00e9 scientifique mondiale d\u00e9pend de la collaboration et des partenariats nationaux et internationaux. Ces collaborations et ces partenariats offrent aux chercheurs et aux scientifiques d'AAC d'importantes occasions de tirer parti de leur expertise, de leurs connaissances et de leur infrastructure pour d\u00e9velopper la recherche et les connaissances scientifiques au profit des Canadiens. \u00c0 cette fin, AAC doit\u00a0:</p>\n\n<p>7.6.1.1. Encourager et faciliter les collaborations et les partenariats de recherche et scientifiques nationaux et internationaux parmi les chercheurs et les scientifiques d'AAC et les communaut\u00e9s externes de recherche et de d\u00e9veloppement dans les universit\u00e9s et les coll\u00e8ges; les gouvernements provinciaux, territoriaux ou autochtones; l'industrie et les entreprises; la soci\u00e9t\u00e9 civile.</p>\n\n<p>7.6.1.2. Faire tous les efforts raisonnables pour permettre une participation appropri\u00e9e des ressources aux soci\u00e9t\u00e9s scientifiques et professionnelles, aux comit\u00e9s de travail, aux conf\u00e9rences, aux ateliers et aux symposiums pertinents identifi\u00e9s par les chercheurs et les scientifiques ainsi que par la direction.</p>\n\n<p>7.6.1.3. Faire tous les efforts raisonnables pour veiller \u00e0 ce que les chercheurs et les scientifiques participent de fa\u00e7on appropri\u00e9e aux tribunes internationales \u00e0 vocation scientifique et de recherche dont le Canada est membre officiel.</p>\n\n<p>7.6.2. De plus, AAC encourage les activit\u00e9s li\u00e9es \u00e0 la collaboration avec les communaut\u00e9s de recherche et de d\u00e9veloppement extra-muros, y compris la nomination de chercheurs et de scientifiques d'AAC \u00e0 des postes de professeurs auxiliaires.</p>\n\n<h3>7.7. R\u00f4le des employ\u00e9s dans les avis scientifiques et prise de d\u00e9cisions \u00e9clair\u00e9es par les donn\u00e9es probantes</h3>\n\n<p>7.7.1. AAC reconna\u00eet que les chercheurs et les scientifiques ont un r\u00f4le important \u00e0 jouer en offrant des conseils qui orientent les programmes, les politiques, les r\u00e8glements et les lois du gouvernement f\u00e9d\u00e9ral. La recherche et les r\u00e9sultats scientifiques sont une source importante de donn\u00e9es probantes qui doivent \u00eatre prises en compte de fa\u00e7on appropri\u00e9e dans la prise de d\u00e9cisions \u00e9clair\u00e9es par des donn\u00e9es probantes.</p>\n\n<p>7.7.2 De plus, les chercheurs et les scientifiques ont un r\u00f4le important \u00e0 jouer en offrant des conseils non seulement sur la recherche n\u00e9cessaire pour r\u00e9soudre les probl\u00e8mes actuels, mais aussi pour cerner les questions scientifiques et techniques \u00e9mergentes, les orientations et les possibilit\u00e9s de recherche.</p>\n\n<p>7.7.3. \u00c0 cette fin, AAC \u00e9laborera et d\u00e9ploiera, en consultation avec les repr\u00e9sentants de l'IPFPC, des m\u00e9canismes et proc\u00e9dures transparents et syst\u00e9matiques pour\u00a0:</p>\n\n<p>7.7.3.1 Recueillir, \u00e9valuer et incorporer les conseils scientifiques dans le processus de prise de d\u00e9cisions en mati\u00e8re de politiques et de r\u00e9glementation d'AAC.</p>\n\n<p>7.7.3.2 Faire participer les employ\u00e9s \u00e0 la conception, \u00e0 l'\u00e9laboration et \u00e0 l'\u00e9valuation de programmes de recherche solides et r\u00e9silients qui seront en mesure de r\u00e9pondre aux besoins futurs de recherche.</p>\n\n<p>7.7.3.3. D\u00e9terminer et classer par ordre de priorit\u00e9 les domaines de comp\u00e9tence f\u00e9d\u00e9rale pour lesquels la capacit\u00e9 scientifique ou de recherche actuelle du gouvernement f\u00e9d\u00e9ral est inad\u00e9quate ou pour lesquels l'investissement f\u00e9d\u00e9ral dans la recherche et le d\u00e9veloppement est susceptible de procurer des avantages substantiels aux Canadiens.</p>\n\n<p>7.7.4. En outre, AAC doit\u00a0:</p>\n\n<p>7.7.4.1. Appuyer les possibilit\u00e9s de formation et de perfectionnement professionnel consacr\u00e9es aux r\u00f4les de la science et de la recherche dans l'\u00e9laboration de donn\u00e9es probantes \u00e0 l'appui de la prise de d\u00e9cisions \u00e9clair\u00e9es par des donn\u00e9es probantes. De telles possibilit\u00e9s peuvent \u00eatre offertes \u00e0 tous les employ\u00e9s qui s'engagent dans des activit\u00e9s de recherche et des activit\u00e9s scientifiques, les supervisent, g\u00e8rent, appuient, analysent, utilisent, ou font rapport sur ces activit\u00e9s, analysent, conservent ou communiquent des donn\u00e9es ou des renseignements g\u00e9n\u00e9r\u00e9s par ces activit\u00e9s, ou cherchent \u00e0 utiliser les renseignements d\u00e9riv\u00e9s de ces activit\u00e9s dans la prise de d\u00e9cisions.</p>\n\n<h3>7.8. Conduite responsable de la recherche</h3>\n\n<p>7.8.1. AAC s'engage \u00e0 s'assurer que la recherche et la science d'AAC sont conformes aux normes les plus \u00e9lev\u00e9es de conduite responsable en recherche et s'efforcera de suivre les pratiques de recherche pertinentes et applicables de fa\u00e7on honn\u00eate, responsable, ouverte et \u00e9quitable dans l'innovation et la diffusion de la recherche et des connaissances scientifiques.</p>\n\n<p>7.8.2. L'int\u00e9grit\u00e9 scientifique sous-entend d'appliquer des concepts de transparence, d'ouverture et de travail de haute qualit\u00e9, d'\u00e9viter les conflits d'int\u00e9r\u00eats, le plagiat et l'autoplagiat, et d'assurer des normes \u00e9lev\u00e9es d'impartialit\u00e9 et d'\u00e9thique de la recherche. Les employ\u00e9s qui participent \u00e0 des activit\u00e9s scientifiques ou des activit\u00e9s de recherche doivent se conformer aux normes de recherche responsable. Ces normes figurent dans le <cite>Cadre strat\u00e9gique d'AAC sur l'\u00e9thique en sciences</cite> (CSES). La recherche visant des humains ou des animaux est r\u00e9gie par le Comit\u00e9 d'\u00e9thique de la recherche sur des \u00eatres humains et doit respecter les principes et proc\u00e9dures des trois Conseils \u00e9nonc\u00e9s, respectivement, dans l'<cite><a href=\"http://www.ger.ethique.gc.ca/fra/policy-politique/initiatives/tcps2-eptc2/Default/\">\u00c9nonc\u00e9 de politique des trois Conseils\u00a0: \u00c9thique de la recherche avec des \u00eatres humains</a></cite> et le <cite><a href=\"https://www.ccac.ca/Documents/Normes/Lignes_directrices/Experimentation_animaux_Vol1.pdf\">Manuel sur le soin et l'utilisation des animaux d'exp\u00e9rimentation du Conseil canadien de protection des animaux (PDF)</a></cite>.</p>\n\n<h3>7.9. Contr\u00f4le et \u00e9valuation du rendement</h3>\n\n<p>7.9.1. AAC examinera r\u00e9guli\u00e8rement la pr\u00e9sente politique et les politiques, lignes directrices ou outils connexes pour s'assurer qu'ils demeurent pertinents et solliciter l'avis et la r\u00e9troaction des employ\u00e9s et des agents n\u00e9gociateurs sur la mise en \u0153uvre de la pr\u00e9sente politique et fournir des indicateurs de rendement dans la mesure du possible.</p>\n\n<p>7.9.2. En consultation avec le Bureau de la conseill\u00e8re scientifique en chef (BCSA) et les repr\u00e9sentants de l'IPFPC, AAC concevra, \u00e9laborera et mettra en \u0153uvre un plan de surveillance de la pr\u00e9sente politique dans les 12 mois suivant son entr\u00e9e en vigueur, qui fournira des renseignements sur a) la mesure dans laquelle la politique a atteint ses objectifs (c'est-\u00e0-dire, le rendement de la politique); b) la politique future et les instruments connexes (par exemple, lignes directrices, directives, etc.), les ajustements, les modifications ou les changements susceptibles d'am\u00e9liorer le rendement de la politique. Tout plan de ce genre doit tenir compte d'autres initiatives ou circonstances gouvernementales susceptibles d'influer sur le rendement pr\u00e9vu, ind\u00e9pendamment de la politique ou de concert avec celle-ci.</p>\n\n<p>7.9.2.1. Ce plan identifiera explicitement (a) les indicateurs de rendement qui feront l'objet d'un suivi; (b) la mani\u00e8re dont les donn\u00e9es sur ces indicateurs seront collect\u00e9es, annot\u00e9es et conserv\u00e9es; (c) la mani\u00e8re dont les niveaux de r\u00e9f\u00e9rence en mati\u00e8re de rendement seront caract\u00e9ris\u00e9s; (d) la mani\u00e8re dont les changements par rapport aux niveaux de r\u00e9f\u00e9rence seront estim\u00e9s et \u00e9valu\u00e9s.</p>\n\n<p>7.9.2.2. Une copie de toutes les donn\u00e9es et de tous les renseignements recueillis dans le cadre du plan de surveillance sera transmise chaque ann\u00e9e au Bureau de la conseill\u00e8re scientifique en chef (BCSA), au comit\u00e9 national de consultation patronale-syndicale appropri\u00e9 et au Comit\u00e9 de gouvernance pour l'application d'une politique pangouvernementale sur l'int\u00e9grit\u00e9 scientifique compos\u00e9 du secr\u00e9taire du Conseil du Tr\u00e9sor, de la conseill\u00e8re scientifique en chef et de la pr\u00e9sidente de l'IPFPC.</p>\n\n<h2 id=\"h8\">8. Responsabilit\u00e9s</h2>\n\n<h3>Administrateur g\u00e9n\u00e9ral</h3>\n\n<p>L'administrateur g\u00e9n\u00e9ral (AG) et ses d\u00e9l\u00e9gu\u00e9s ont la responsabilit\u00e9 de favoriser un environnement qui encourage l'excellence et l'int\u00e9grit\u00e9 dans les activit\u00e9s de recherche, les activit\u00e9s scientifiques et les activit\u00e9s connexes, et de promouvoir une culture de communication ouverte o\u00f9 les employ\u00e9s peuvent divulguer, de bonne foi, des renseignements concernant les manquements \u00e0 l'int\u00e9grit\u00e9 scientifique. L'administrateur g\u00e9n\u00e9ral est \u00e9galement responsable\u00a0:</p>\n\n<ul>\n\t<li>de veiller \u00e0 ce que la pr\u00e9sente politique soit communiqu\u00e9e \u00e0 tous les employ\u00e9s;</li>\n\t<li>de surveiller la conformit\u00e9 \u00e0 la pr\u00e9sente politique au sein d'AAC et de prendre des mesures correctives, au besoin;</li>\n\t<li>d'\u00e9valuer le rendement de la pr\u00e9sente politique;</li>\n\t<li>de fournir une confirmation annuelle de la conformit\u00e9 \u00e0 la pr\u00e9sente politique et des rapports \u00e0 la demande du Comit\u00e9 de gouvernance pour l'application d'une politique pangouvernementale sur l'int\u00e9grit\u00e9 scientifique et selon le paragraphe 7.9.2.2.</li>\n</ul>\n\n<h3>Responsable de l'int\u00e9grit\u00e9 scientifique</h3>\n\n<p>Il incombe au responsable de l'int\u00e9grit\u00e9 scientifique de\u00a0:</p>\n\n<ul>\n\t<li>mettre en \u0153uvre la pr\u00e9sente politique pour le Minist\u00e8re;</li>\n\t<li>enqu\u00eater rapidement et minutieusement sur les violations pr\u00e9sum\u00e9es \u00e0 la pr\u00e9sente politique;</li>\n\t<li>recommander les mesures correctives \u00e0 prendre en cas de violations \u00e0 la pr\u00e9sente politique;</li>\n\t<li>examiner r\u00e9guli\u00e8rement la pr\u00e9sente politique et de rendre compte de sa mise en \u0153uvre \u00e0 l'administrateur g\u00e9n\u00e9ral.</li>\n</ul>\n\n<h3>Directeurs g\u00e9n\u00e9raux, directeurs, gestionnaires et superviseurs</h3>\n\n<p>Les directeurs g\u00e9n\u00e9raux, les directeurs, les gestionnaires et les superviseurs sont responsables de la mise en \u0153uvre de la pr\u00e9sente politique. Ces responsabilit\u00e9s sont les suivantes\u00a0:</p>\n\n<ul>\n\t<li>informer les employ\u00e9s au sujet de la pr\u00e9sente politique et s'assurer qu'ils sont au courant de leurs droits, de leurs responsabilit\u00e9s et de leurs obligations aux termes de la politique;</li>\n\t<li>assurer la conformit\u00e9 \u00e0 la pr\u00e9sente politique, fournir aux employ\u00e9s des renseignements sur les processus \u00e0 leur disposition s'ils souhaitent faire une all\u00e9gation aux termes de la pr\u00e9sente politique, et traiter toutes les all\u00e9gations d'atteinte \u00e0 l'int\u00e9grit\u00e9 scientifique qui sont port\u00e9es \u00e0 leur attention ou dont ils sont au courant;</li>\n\t<li>s'assurer que les employ\u00e9s sont au courant des possibilit\u00e9s de perfectionnement professionnel et de formation qui pourraient \u00eatre offertes \u00e0 l'appui de la pr\u00e9sente politique.</li>\n</ul>\n\n<p>Des responsabilit\u00e9s pr\u00e9cises seront \u00e9nonc\u00e9es dans les proc\u00e9dures et les lignes directrices qui seront \u00e9labor\u00e9es \u00e0 l'appui de la pr\u00e9sente politique.</p>\n\n<h3>Employ\u00e9s d'AAC qui m\u00e8nent des activit\u00e9s de recherche, des activit\u00e9s scientifiques ou des activit\u00e9s connexes</h3>\n\n<p>Tous les employ\u00e9s d'AAC qui participent \u00e0 la conception, \u00e0 l'ex\u00e9cution, \u00e0 la gestion, \u00e0 l'analyse, \u00e0 l'utilisation ou \u00e0 la communication d'activit\u00e9s de recherche, d'activit\u00e9s scientifiques ou d'activit\u00e9s connexes, ainsi que toutes les personnes qui effectuent des activit\u00e9s de recherche, des activit\u00e9s scientifiques ou des activit\u00e9s connexes sous les auspices d'AAC auront la responsabilit\u00e9 premi\u00e8re de\u00a0:</p>\n\n<ul>\n\t<li>veiller \u00e0 ce que leur comportement et leur conduite soient conformes aux principes d'int\u00e9grit\u00e9 scientifique;</li>\n\t<li>veiller \u00e0 concevoir, ex\u00e9cuter, g\u00e9rer, analyser, utiliser ou communiquer les activit\u00e9s de recherche ou les activit\u00e9s scientifiques en pleine conformit\u00e9 \u00e0 la pr\u00e9sente politique;</li>\n\t<li>signaler d\u00e8s que possible toute atteinte pr\u00e9sum\u00e9e \u00e0 l'int\u00e9grit\u00e9 scientifique;</li>\n\t<li>participer de bonne foi \u00e0 toute demande de renseignements ou enqu\u00eate men\u00e9e aux termes de la pr\u00e9sente politique.</li>\n</ul>\n\n<h2 id=\"h9\">9. D\u00e9finitions</h2>\n\n<dl class=\"dl-horizontal\">\n\t<dt>Activit\u00e9 connexe\u00a0:</dt>\n\t<dd>Toute activit\u00e9 qui (a) contribue \u00e0 la science ou \u00e0 la recherche (par exemple, les travaux et la gestion de laboratoire, les infrastructures, dont les infrastructures de l'information et de communication); (b) utilise les renseignements de recherche ou scientifiques comme intrants (par exemple, sollicitation ou pr\u00e9paration d'avis scientifique, \u00e9valuation des preuves de recherche ou scientifiques); (c) exige la conservation, la communication ou l'archivage de donn\u00e9es ou de renseignements scientifiques ou de recherche.</dd>\n\t\n\t<dt>Administrateur g\u00e9n\u00e9ral\u00a0:</dt>\n\t<dd>Tel que d\u00e9fini au paragraphe 11(1) de la <cite>Loi sur la gestion des finances publiques</cite>.</dd>\n\t\n\t<dt>Chercheur\u00a0:</dt>\n\t<dd>Employ\u00e9 qui participe principalement \u00e0 l'application de connaissances scientifiques et professionnelles approfondies \u00e0 la planification, \u00e0 l'ex\u00e9cution, \u00e0 l'\u00e9valuation et \u00e0 la gestion de la recherche fondamentale ou de la recherche appliqu\u00e9e, \u00e0 l'am\u00e9lioration des connaissances, au d\u00e9veloppement technologique et \u00e0 l'innovation dans les domaines des sciences de la d\u00e9fense, de la recherche historique et archivistique, des math\u00e9matiques et des sciences naturelles. [N.B.\u00a0: Ces d\u00e9finitions suivent la d\u00e9finition du groupe professionnel RE pour la fonction publique<sup id=\"fn3-rf\"><a class=\"fn-lnk\" href=\"#fn3\"><span class=\"wb-inv\">note de bas de page </span>3</a></sup>.</dd>\n\t\n\t<dt>Client\u00a0:</dt>\n\t<dd>Toute personne, institution ou organisation, qu'elle soit interne ou externe au gouvernement, qui est le destinataire et/ou l'utilisateur de donn\u00e9es, produits, services ou renseignements scientifiques ou renseignements de recherche, et qui participe \u00e0 l'\u00e9tablissement de la question ou du sujet des travaux de recherche ou des travaux scientifiques en question.</dd>\n\t\n\t<dt>Collaborateur\u00a0:</dt>\n\t<dd>Toute personne, organisation ou institution avec laquelle un employ\u00e9 d'AAC entreprend la conception, l'ex\u00e9cution, la gestion, l'analyse ou la communication d'activit\u00e9s de recherche, d'activit\u00e9s scientifiques ou d'activit\u00e9s connexes et qui ne re\u00e7oit pas de r\u00e9mun\u00e9ration directe ou indirecte \u00e0 cet \u00e9gard.</dd>\n\t\n\t<dt>Communication (de la science)\u00a0:</dt>\n\t<dd>La communication scientifique s'entend de la diffusion de renseignements scientifiques ou de recherche (r\u00e9sultats scientifiques et interpr\u00e9tation de ceux-ci, m\u00e9thodes, protocoles, donn\u00e9es et produits) sous toute forme parmi les chercheurs ou scientifiques (producteurs de science et de recherche) et entre ceux-ci et les consommateurs ou utilisateurs de ces informations (public, autres scientifiques ou chercheurs, autres employ\u00e9s gouvernementaux et clients).</dd>\n\t\n\t<dt>Employ\u00e9\u00a0:</dt>\n\t<dd>Dans la plupart des cas, cette expression doit \u00eatre interpr\u00e9t\u00e9e au sens large pour englober tous les employ\u00e9s d'un minist\u00e8re ou d'un organisme, qui ont tous un r\u00f4le plus ou moins important \u00e0 jouer dans les proc\u00e9dures d'int\u00e9grit\u00e9 scientifique d\u00e9crites dans la pr\u00e9sente politique.</dd>\n\t\n\t<dt>Int\u00e9grit\u00e9 scientifique\u00a0:</dt>\n\t<dd>Condition d\u00e9coulant du fait d'adh\u00e9rer \u00e0 des concepts de transparence, d'ouverture, de travail de haute qualit\u00e9, d'\u00e9viter les conflits d'int\u00e9r\u00eats et d'assurer des normes \u00e9lev\u00e9es d'impartialit\u00e9 et d'\u00e9thique de la recherche.</dd>\n\t\n\t<dt>Interf\u00e9rence\u00a0:</dt>\n\t<dd>Toute action qui modifie ou \u00e9limine le travail ou l'impartialit\u00e9 d'un scientifique ou d'un chercheur, au sens du <cite><a href=\"?id=1448297869529\">Code de valeurs et d'\u00e9thique d'Agriculture et Agroalimentaire Canada</a></cite>. L'interf\u00e9rence comprend \u00e9galement la modification ou la suppression inappropri\u00e9e de la m\u00e9thodologie et des r\u00e9sultats de la recherche ou la dissuasion de la communication des r\u00e9sultats par quelque partie que ce soit, y compris le client.</dd>\n\t\n\t<dt>Modification (de travaux scientifiques ou de travaux de recherche)\u00a0:</dt>\n\t<dd>Tout changement dans la forme ou le contenu de travaux de recherche ou de travaux scientifiques qui peut avoir une incidence sur l'interpr\u00e9tation des travaux et/ou leurs implications.</dd>\n\t\n\t<dt>Preuve convaincante\u00a0:</dt>\n\t<dd>Preuve d'une force suffisante pour convaincre le d\u00e9cideur qu'il est probable que l'all\u00e9gation pour laquelle la preuve est pr\u00e9sent\u00e9e est vraie.</dd>\n\t\n\t<dt>Raisons claires et imp\u00e9rieuses (pour refuser la publication de donn\u00e9es scientifiques ou de donn\u00e9es de recherche)\u00a0:</dt>\n\t<dd>Les raisons l\u00e9gitimes peuvent notamment comprendre\u00a0: (a) la divulgation de tels renseignements est exempt\u00e9e en application de la <cite><a href=\"https://laws-lois.justice.gc.ca/fra/lois/A-1/\">Loi sur l'acc\u00e8s \u00e0 l'information</a></cite> ou de la <cite>Loi sur la protection de l'information</cite>; (b) des contraintes techniques ou technologiques limitent ou emp\u00eachent la mise \u00e0 disposition des renseignements.</dd>\n\t\n\t<dt>Recherche\u00a0:</dt>\n\t<dd>Toute entreprise visant \u00e0 accro\u00eetre les connaissances au moyen d'une \u00e9tude structur\u00e9e ou d'une investigation syst\u00e9matique. Pour les besoins de la pr\u00e9sente politique, la recherche n'englobe pas l'analyse sociale, \u00e9conomique, de l'opinion publique ou toute autre analyse effectu\u00e9e \u00e0 des fins d'\u00e9laboration de politiques<sup id=\"fn2-rf\"><a class=\"fn-lnk\" href=\"#fn2\"><span class=\"wb-inv\">note de bas de page </span>2</a></sup>.</dd>\n\t\n\t<dt>Renseignements sur les recherches ou renseignements scientifiques classifi\u00e9s ou sensibles\u00a0:</dt>\n\t<dd>Renseignements sur les recherches ou renseignements scientifiques qui seraient normalement consid\u00e9r\u00e9s comme \u00e9tant exempt\u00e9s de la divulgation en application de la <cite>Loi sur l'acc\u00e8s \u00e0 l'information</cite>.</dd>\n\t\n\t<dt>Science\u00a0:</dt>\n\t<dd>Qu\u00eate et application du savoir ainsi que la compr\u00e9hension du monde naturel par l'application d'un ou de plusieurs \u00e9l\u00e9ments de la m\u00e9thode scientifique. Dans le contexte de la pr\u00e9sente politique, la science s'entend des sciences naturelles, physiques, biom\u00e9dicales et sociales fondamentales et appliqu\u00e9es ainsi que de l'ing\u00e9nierie et les math\u00e9matiques<sup id=\"fn4-rf\"><a class=\"fn-lnk\" href=\"#fn4\"><span class=\"wb-inv\">note de bas de page </span>4</a></sup>.</dd>\n\t\n\t<dt>Scientifique\u00a0:</dt>\n\t<dd>Employ\u00e9 \u0153uvrant principalement dans l'application de connaissances scientifiques et professionnelles approfondies \u00e0 la planification, \u00e0 l'ex\u00e9cution, \u00e0 l'\u00e9valuation et \u00e0 la gestion de la recherche fondamentale, \u00e0 l'am\u00e9lioration des connaissances, au d\u00e9veloppement technologique et \u00e0 l'innovation dans le domaine des sciences naturelles (SE) ou \u00e0 l'un des programmes de sciences appliqu\u00e9es visant la science actuarielle, l'agriculture, la biologie, la chimie, la foresterie, la m\u00e9t\u00e9orologie ou les sciences physiques, ce qui comprend la physique, les sciences plan\u00e9taires et les sciences de la Terre, la r\u00e9glementation scientifique et les brevets (SP)<sup id=\"fn5-rf\"><a class=\"fn-lnk\" href=\"#fn5\"><span class=\"wb-inv\">note de bas de page </span>5</a></sup>.</dd>\n\t\n\t<dt>Suppression (de travaux scientifiques ou de travaux de recherche)\u00a0:</dt>\n\t<dd>Le fait d'emp\u00eacher d\u00e9lib\u00e9r\u00e9ment  la publication ou la diffusion de travaux scientifiques ou de travaux de recherche, ou d'une partie de ces travaux, en l'absence de raisons claires et imp\u00e9rieuses de le faire.</dd>\n\t\n\t<dt>Temps opportun\u00a0:</dt>\n\t<dd>Dans un d\u00e9lai conforme aux processus habituels d'examen et d'approbation et aux contraintes logistiques et de ressources. AAC ou des collaborateurs externes peuvent imposer des p\u00e9riodes d'embargo raisonnables pour respecter le droit d'un chercheur principal \u00e0 la premi\u00e8re publication.</dd>\n\t\n\t<dt>Violation (de l'int\u00e9grit\u00e9 scientifique)\u00a0:</dt>\n\t<dd>d\u00e9faut de respecter les dispositions pr\u00e9vues aux articles 6 ou 7 de la pr\u00e9sente politique.</dd>\n\t\n</dl>\n\n<h2 id=\"h10\">10. Demandes de renseignements</h2>\n\n<p>Pour de plus amples renseignements sur la pr\u00e9sente politique, envoyez un courriel \u00e0 l'adresse <a href=\"mailto:aafc.scienceintegrity-integritescientifique.aac@canada.ca\">aafc.scienceintegrity-integritescientifique.aac@canada.ca</a>.</p>\n\n\n<aside class=\"wb-fnote\" role=\"note\">\n    <h2 id=\"fn\">Notes de bas de pages</h2>\n    <dl>\n\t\t\n\t\t<dt>Note de bas de page 1</dt>\n        <dd id=\"fn1\">\n        <p>Aux fins du paragraphe 7.4, \u00ab\u00a0chercheur(s)\u00a0\u00bb et \u00ab\u00a0scientifique(s)\u00a0\u00bb s'entendent des chercheurs (RE) et sp\u00e9cialistes en sciences appliqu\u00e9es (SP) d\u00e9sign\u00e9s dans les d\u00e9finitions des groupes professionnels de la fonction publique \u2013 voir l'article 9 de la pr\u00e9sente politique.  Cette d\u00e9finition pourrait s'\u00e9largir si d'autres unit\u00e9s de n\u00e9gociation signent des ententes sur l'int\u00e9grit\u00e9 scientifique similaires.</p>\n        <p class=\"fn-rtn\"><a href=\"#fn1-rf\"><span class=\"wb-inv\">Retour \u00e0 la r\u00e9f\u00e9rence de la note de bas de page </span>1</a></p>\n        </dd>\n\t\t\n\t\t\n\t\t\n\t\t<dt>Note de bas de page 2</dt>\n        <dd id=\"fn2\">\n        <p><a href=\"http://www.pre.ethics.gc.ca/policy-politique/initiatives/docs/Definition_of_Research_-_January_2008_-_FR.pdf\">D\u00e9finition de recherche de 2008 des trois Conseils (PDF)</a></p>\n        <p class=\"fn-rtn\"><a href=\"#fn2-rf\"><span class=\"wb-inv\">Retour \u00e0 la r\u00e9f\u00e9rence de la note de bas de page </span>2</a></p>\n        </dd>\n\t\t\n\t\t<dt>Note de bas de page 3</dt>\n        <dd id=\"fn3\">\n        <p><a href=\"https://www.canada.ca/fr/secretariat-conseil-tresor/services/conventions-collectives/groupes-professionnels/recherche.html\">D\u00e9finition du groupe Recherche</a></p>\n        <p class=\"fn-rtn\"><a href=\"#fn3-rf\"><span class=\"wb-inv\">Retour \u00e0 la r\u00e9f\u00e9rence de la note de bas de page </span>3</a></p>\n        </dd>\n\t\t\n\t\t<dt>nNote de bas de page 4</dt>\n        <dd id=\"fn4\">\n        <p><a href=\"https://sciencecouncil.org/about-science/our-definition-of-science/\">D\u00e9finition du Conseil des sciences (en anglais seulement)</a></p>\n        <p class=\"fn-rtn\"><a href=\"#fn4-rf\"><span class=\"wb-inv\">Retour \u00e0 la r\u00e9f\u00e9rence de la note de bas de page </span>4</a></p>\n        </dd>\n\t\t\n\t\t<dt>Note de bas de page 5</dt>\n        <dd id=\"fn5\">\n        <p><a href=\"https://www.canada.ca/fr/secretariat-conseil-tresor/services/conventions-collectives/groupes-professionnels/sciences-appliquees-examen-brevets.html\">D\u00e9finition de Sciences appliqu\u00e9es et examen des brevets (SP)</a>; <a href=\"https://www.canada.ca/fr/secretariat-conseil-tresor/services/conventions-collectives/groupes-professionnels/recherche.html#occ-se\">D\u00e9finition du groupe Recherche scientifique (RE)</a></p>\n        <p class=\"fn-rtn\"><a href=\"#fn5-rf\"><span class=\"wb-inv\">Retour \u00e0 la r\u00e9f\u00e9rence de la note de bas de page </span>5</a></p>\n        </dd>\n\t\t\n    </dl>\n</aside>\n\r\n    "
    },
    "js": {
        "en": "",
        "fr": ""
    }
}