{
    "dcr_id": "1517338955606",
    "lang": "en",
    "type_name": "intra-intra/news-nouv",
    "approvalsadvisor": "Janet.Dowell@agr.gc.ca",
    "approvalsdirector": "Karim.Bechane@canada.ca",
    "submitername": "Christine LeBlanc",
    "submiteremail": "Christine.LeBlanc@canada.ca",
    "submiterphoneNumber": "506-777-3745",
    "issued": "2018-01-30",
    "translateReqNumber": "null"
}