{
    "dcr_id": "1518815999321",
    "lang": "en",
    "type_name": "intra-intra/news-nouv",
    "approvalsadvisor": "ricky.lee@canada.ca",
    "approvalsdirector": "Anne.lacombe@agr.gc.ca",
    "submitername": "Jennifer",
    "submiteremail": "jennifer.mclaurin@agr.gc.ca",
    "submiterphoneNumber": "613-773-0214",
    "issued": "2018-02-19",
    "translateReqNumber": "null"
}