{
    "dcr_id": "1519140638823",
    "lang": "en",
    "type_name": "intra-intra/news-nouv",
    "approvalsadvisor": "Kathryn.Hunt@canada.ca",
    "approvalsdirector": "kathryn.hunt@canada.ca",
    "submitername": "Kathryn Hunt",
    "submiteremail": "kathryn.hunt@canada.ca",
    "submiterphoneNumber": "613-773-2262",
    "issued": "2018-02-22",
    "translateReqNumber": "null"
}