{
    "dcr_id": "1522182373644",
    "lang": "en",
    "type_name": "intra-intra/news-nouv",
    "approvalsadvisor": "samer.younes@canada.ca",
    "approvalsdirector": "john.wheeler@agr.gc.ca",
    "submitername": "Samer Younes",
    "submiteremail": "samer.younes@canada.ca",
    "submiterphoneNumber": "613-773-0774",
    "issued": "2018-03-29",
    "translateReqNumber": "null"
}