{
    "dcr_id": "1529670696220",
    "lang": "en",
    "type_name": "intra-intra/news-nouv",
    "approvalsadvisor": "emily.dipaolo@canada.ca",
    "approvalsdirector": "emily.dipaolo@canada.ca",
    "submitername": "Justine Walker",
    "submiteremail": "justine.walker2@canada.ca",
    "submiterphoneNumber": "613-773-0443",
    "issued": "2018-06-21",
    "translateReqNumber": "Translation number not provided. Translation provided by Emily DiPaolo."
}