{
    "dcr_id": "1531226477754",
    "lang": "en",
    "type_name": "intra-intra/news-nouv",
    "approvalsadvisor": "ricky.lee@canada.ca",
    "approvalsdirector": "lynden.hillier@agr.gc.ca",
    "submitername": "Carmen Miron",
    "submiteremail": "carmen.miron@agr.gc.ca",
    "submiterphoneNumber": "613-773-1481",
    "issued": "2018-07-12",
    "translateReqNumber": "Had been translated in 2016"
}