{
    "dcr_id": "1538498763981",
    "lang": "en",
    "type_name": "intra-intra/news-nouv",
    "approvalsadvisor": "natalie.ekholm@canada.ca",
    "approvalsdirector": "danielle.mudry@canada.ca",
    "submitername": "Talen McLean",
    "submiteremail": "talen.mclean@canada.ca",
    "submiterphoneNumber": "613-773-2893",
    "issued": "2018-10-04",
    "translateReqNumber": "n/a"
}