{
    "dcr_id": "1543942974911",
    "lang": "en",
    "type_name": "intra-intra/news-nouv",
    "approvalsadvisor": "natalie.ekholm@canada.ca",
    "approvalsdirector": "lyndsay.rajaram@canada.ca",
    "submitername": "Madeline Webber",
    "submiteremail": "madeline.webber@canada.ca",
    "submiterphoneNumber": "613-773-3131",
    "issued": "2018-12-06",
    "translateReqNumber": "181105-28"
}