{
    "dcr_id": "1545053195238",
    "lang": "en",
    "type_name": "intra-intra/news-nouv",
    "approvalsadvisor": "cathy.sleeth@canada.ca",
    "approvalsdirector": "scott.aughey@canada.ca",
    "submitername": "cathy sleeth",
    "submiteremail": "Cathy.sleeth@canada.ca",
    "submiterphoneNumber": "613-773-2675",
    "issued": "2018-12-20",
    "translateReqNumber": "0000"
}