{
    "dcr_id": "1546626309777",
    "lang": "en",
    "type_name": "intra-intra/news-nouv",
    "approvalsadvisor": "cathy.sleeth@canada.ca",
    "approvalsdirector": "scott.aughey@canada.ca",
    "submitername": "cathy sleeth",
    "submiteremail": "cathy.sleeth@canada.ca",
    "submiterphoneNumber": "613-773-2675",
    "issued": "2019-01-10",
    "translateReqNumber": "130103-3"
}