{
    "dcr_id": "1547562270847",
    "lang": "en",
    "type_name": "intra-intra/news-nouv",
    "approvalsadvisor": "irina.andritoiu@canada.ca",
    "approvalsdirector": "nathalie.leblanc@canada.ca",
    "submitername": "Jessica Livermore",
    "submiteremail": "jessica.livermore@canada.ca",
    "submiterphoneNumber": "613-773-1365",
    "issued": "2019-01-17",
    "translateReqNumber": "190110-7"
}