{
    "dcr_id": "1548941535143",
    "lang": "en",
    "type_name": "intra-intra/news-nouv",
    "approvalsadvisor": "natalie.ekholm@canada.ca",
    "approvalsdirector": "Lucille.lacelle@canada.ca",
    "submitername": "Gabrielle Lew",
    "submiteremail": "gabrielle.lew@canada.ca",
    "submiterphoneNumber": "613-773-3484",
    "issued": "2019-02-07",
    "translateReqNumber": "AAFC-190130-6"
}