{
    "dcr_id": "1549382564912",
    "lang": "en",
    "type_name": "intra-intra/news-nouv",
    "approvalsadvisor": "irina.andritoiu@canada.ca",
    "approvalsdirector": "nathalie.leblanc@canada.ca",
    "submitername": "Genevieve Smith",
    "submiteremail": "genevieve.smith@canada.ca",
    "submiterphoneNumber": "613-773-3100",
    "issued": "2019-02-07",
    "translateReqNumber": "190204-15"
}