{
    "dcr_id": "1551795545176",
    "lang": "en",
    "type_name": "intra-intra/news-nouv",
    "approvalsadvisor": "irina.andritoiu@canada.ca",
    "approvalsdirector": "aline.bigras@canada.ca",
    "submitername": "Annie Hui",
    "submiteremail": "annie.hui@canada.ca",
    "submiterphoneNumber": "613-773-0939",
    "issued": "2019-03-07",
    "translateReqNumber": "190115-20"
}