{
    "dcr_id": "1552321993403",
    "lang": "en",
    "type_name": "intra-intra/news-nouv",
    "approvalsadvisor": "natalie.ekholm@canada.ca",
    "approvalsdirector": "paula.wilson@canada.ca",
    "submitername": "Yi Liang",
    "submiteremail": "yi.liang@canada.ca",
    "submiterphoneNumber": "613-773-1777",
    "issued": "2019-03-21",
    "translateReqNumber": "AAFC-190307-32"
}