{
    "dcr_id": "1555356342881",
    "lang": "en",
    "type_name": "intra-intra/news-nouv",
    "approvalsadvisor": "Joy.Moskovic@canada.ca",
    "approvalsdirector": "Ron.gerold@canada.ca",
    "submitername": "Erin Scullion",
    "submiteremail": "erin.scullion@canada.ca",
    "submiterphoneNumber": "613-773-1562",
    "issued": "2019-04-15",
    "translateReqNumber": "AAFC-190412-22"
}