{
    "dcr_id": "1557849141798",
    "lang": "en",
    "type_name": "intra-intra/news-nouv",
    "approvalsadvisor": "Joy.moskovic@canada.ca",
    "approvalsdirector": "Ron.gerold@canada.ca",
    "submitername": "Ron Gerold",
    "submiteremail": "ron.gerold@canada.ca",
    "submiterphoneNumber": "613-773-1694",
    "issued": "2019-05-14",
    "translateReqNumber": "NA"
}