{
    "dcr_id": "1557317257192",
    "lang": "en",
    "type_name": "intra-intra/news-nouv",
    "approvalsadvisor": "stela.susic@canada.ca",
    "approvalsdirector": "ling.lee@canada.ca",
    "submitername": "Seana Collins",
    "submiteremail": "seana.collins@canada.ca",
    "submiterphoneNumber": "902-365-8466",
    "issued": "2019-05-09",
    "translateReqNumber": "AAFC-190502-30"
}