{
    "dcr_id": "1557428568283",
    "lang": "en",
    "type_name": "intra-intra/news-nouv",
    "approvalsadvisor": "nina.hamid@canada.ca",
    "approvalsdirector": "julie.desroches@canada.ca",
    "submitername": "Lesleigh Smith",
    "submiteremail": "lesleigh.smith@canada.ca",
    "submiterphoneNumber": "613-773-2885",
    "issued": "2019-05-15",
    "translateReqNumber": "n/a same article used for several years"
}