{
    "dcr_id": "1558017755133",
    "lang": "en",
    "type_name": "intra-intra/news-nouv",
    "approvalsadvisor": "sonia.forget@canada.ca",
    "approvalsdirector": "Katrin.Nagelslchmitz@canada.ca",
    "submitername": "Douglas Ruby",
    "submiteremail": "douglas.ruby@canada.ca",
    "submiterphoneNumber": "613-773-1343",
    "issued": "2019-05-23",
    "translateReqNumber": "190510-16 "
}