{
    "dcr_id": "1561739506777",
    "lang": "en",
    "type_name": "intra-intra/news-nouv",
    "approvalsadvisor": "justine.walker2@canada.ca",
    "approvalsdirector": "jean-francois.savard@canada.ca",
    "submitername": "Michael Thuemer",
    "submiteremail": "michael.thuemer@canada.ca",
    "submiterphoneNumber": "613-773-2090",
    "issued": "2019-07-04",
    "translateReqNumber": "AAFC-190627-6"
}