{
    "dcr_id": "1562079992080",
    "lang": "en",
    "type_name": "intra-intra/news-nouv",
    "approvalsadvisor": "joy.moskovic@canada.ca",
    "approvalsdirector": "anne.lacombe@canada.ca",
    "submitername": "Jennifer",
    "submiteremail": "jennifer.mclaurin@canada.ca",
    "submiterphoneNumber": "613-316-9115",
    "issued": "2019-07-03",
    "translateReqNumber": "NA"
}