{
    "dcr_id": "1564401803643",
    "lang": "en",
    "type_name": "intra-intra/news-nouv",
    "approvalsadvisor": "Natalie.ekholm@canada.ca",
    "approvalsdirector": "jean-francois.savard@canada.ca",
    "submitername": "Channel Villeneuve",
    "submiteremail": "channel.villeneuve2@canada.ca",
    "submiterphoneNumber": "613-773-2749",
    "issued": "2019-08-01",
    "translateReqNumber": "AAFC-190726-1"
}