{
    "dcr_id": "1566844974704",
    "lang": "en",
    "type_name": "intra-intra/news-nouv",
    "approvalsadvisor": "natalie.ekholm@canada.ca",
    "approvalsdirector": "nina.hamad@canada.ca",
    "submitername": "Amy lin",
    "submiteremail": "amy.lin@canada.ca",
    "submiterphoneNumber": "613-773-2785",
    "issued": "2019-08-26",
    "translateReqNumber": "n/a"
}