{
    "dcr_id": "1571162598192",
    "lang": "en",
    "type_name": "intra-intra/news-nouv",
    "approvalsadvisor": "joy.moskovic@canada.ca",
    "approvalsdirector": "daniel.champoux@canada.ca",
    "submitername": "Kim Skarnulis",
    "submiteremail": "kim.skarnulis@canada.ca",
    "submiterphoneNumber": "613-773-3465",
    "issued": "2019-10-17",
    "translateReqNumber": "AAFC-191011-15"
}