{
    "dcr_id": "1571227869519",
    "lang": "en",
    "type_name": "intra-intra/news-nouv",
    "approvalsadvisor": "emily.dipaolo@canada.ca",
    "approvalsdirector": "frederic.seppey@canada.ca",
    "submitername": "Megan Dybka",
    "submiteremail": "megan.dybka@canada.ca",
    "submiterphoneNumber": "613-773-1941",
    "issued": "2019-10-17",
    "translateReqNumber": "copied from previous years"
}