{
    "dcr_id": "1572982753962",
    "lang": "en",
    "type_name": "intra-intra/news-nouv",
    "approvalsadvisor": "kathryn.hunt@canada.ca",
    "approvalsdirector": "kathryn.hunt@canada.ca",
    "submitername": "Kathryn HUnt",
    "submiteremail": "kathryn.hunt@canada.ca",
    "submiterphoneNumber": "613-773-2262",
    "issued": "2019-11-07",
    "translateReqNumber": "n/a"
}