{
    "dcr_id": "1576771790392",
    "lang": "en",
    "type_name": "intra-intra/news-nouv",
    "approvalsadvisor": "kathryn.hunt@canada.ca",
    "approvalsdirector": "kathryn.hunt@canada.ca",
    "submitername": "kate",
    "submiteremail": "kathryn.hunt@canada.ca",
    "submiterphoneNumber": "613-773-2262",
    "issued": "2019-12-19",
    "translateReqNumber": "n/a"
}