{
    "dcr_id": "1578326696942",
    "lang": "en",
    "type_name": "intra-intra/news-nouv",
    "approvalsadvisor": "stela.susic@canada.ca",
    "approvalsdirector": "Jacint.Boucher@canada.ca",
    "submitername": "Ryan van den Berg",
    "submiteremail": "ryan.vandenberg@canada.ca",
    "submiterphoneNumber": "613-773-0510",
    "issued": "2020-01-06",
    "translateReqNumber": "AAFC-191217-23"
}