{
    "dcr_id": "1580759341118",
    "lang": "en",
    "type_name": "intra-intra/news-nouv",
    "approvalsadvisor": "jessica.martin@canada.ca",
    "approvalsdirector": "sonia.forget@canada.ca",
    "submitername": "Emily Smyth",
    "submiteremail": "emily.smyth@canada.ca",
    "submiterphoneNumber": "613-773-0628",
    "issued": "2020-02-13",
    "translateReqNumber": "N/A"
}