{
    "dcr_id": "1582658703187",
    "lang": "en",
    "type_name": "intra-intra/news-nouv",
    "approvalsadvisor": "julie.emond3@canada.ca",
    "approvalsdirector": "jean-pierre.contant@canada.ca",
    "submitername": "Julie Emond",
    "submiteremail": "julie.emond3@canada.ca",
    "submiterphoneNumber": "613-773-2778",
    "issued": "2020-02-27",
    "translateReqNumber": "200224-34"
}