{
    "dcr_id": "1582051156271",
    "lang": "en",
    "type_name": "intra-intra/news-nouv",
    "approvalsadvisor": "nancy.macdonald@canada.ca",
    "approvalsdirector": "marcos.alverez@canada.ca",
    "submitername": "Kathryn Makela",
    "submiteremail": "kathryn.makela@canada.ca",
    "submiterphoneNumber": "613-759-7182",
    "issued": "2020-02-20",
    "translateReqNumber": "AAFC-200213-50"
}