{
    "dcr_id": "1592926887666",
    "lang": "en",
    "type_name": "intra-intra/news-nouv",
    "approvalsadvisor": "natalie.ekholm@canada.ca",
    "approvalsdirector": "ricky.lee@canada.ca",
    "submitername": "Cindy Le",
    "submiteremail": "cindy.le2@canada.ca",
    "submiterphoneNumber": "613-261-6197",
    "issued": "2020-06-23",
    "translateReqNumber": "AAFC-200623-6 "
}