{
    "dcr_id": "1592309830522",
    "lang": "en",
    "type_name": "intra-intra/news-nouv",
    "approvalsadvisor": "nina.hamad@canada.ca",
    "approvalsdirector": "alec.nicholls@canada.ca",
    "submitername": "Cindy Le",
    "submiteremail": "cindy.le2@canada.ca",
    "submiterphoneNumber": "613-773-2325",
    "issued": "2020-06-16",
    "translateReqNumber": "0"
}