{
    "dcr_id": "1593437696575",
    "lang": "en",
    "type_name": "intra-intra/news-nouv",
    "approvalsadvisor": "shelly.donaldson2@canada.ca",
    "approvalsdirector": "Anne.lacombe@canada.ca",
    "submitername": "jennifer",
    "submiteremail": "jennifer.mclaurin@canada.ca",
    "submiterphoneNumber": "613-878-7730",
    "issued": "2020-06-30",
    "translateReqNumber": "200618-13"
}