{
    "dcr_id": "1598010962678",
    "lang": "en",
    "type_name": "intra-intra/news-nouv",
    "approvalsadvisor": "Amy.Lin@canada.ca",
    "approvalsdirector": "Jodi.downs@canada.ca",
    "submitername": "Gabrielle Lew",
    "submiteremail": "gabrielle.lew@canada.ca",
    "submiterphoneNumber": "613-371-8937",
    "issued": "2020-08-27",
    "translateReqNumber": "AAFC-200805-2 "
}