{
    "dcr_id": "1599568198180",
    "lang": "en",
    "type_name": "intra-intra/news-nouv",
    "approvalsadvisor": "natalie.ekholm@canada.ca",
    "approvalsdirector": "alec.nicholls@canada.ca",
    "submitername": "Lesley Gervais",
    "submiteremail": "lesley.gervais@canada.ca",
    "submiterphoneNumber": "613-773-3489",
    "issued": "2020-09-10",
    "translateReqNumber": "200903-35"
}