{
    "dcr_id": "1601923074507",
    "lang": "en",
    "type_name": "intra-intra/news-nouv",
    "approvalsadvisor": "nina.hamad@canada.ca",
    "approvalsdirector": "karen.durnford-mcintosh@canada.ca",
    "submitername": "Paul Aubin",
    "submiteremail": "paul.aubin@canada.ca",
    "submiterphoneNumber": "613-799-1090",
    "issued": "2020-10-08",
    "translateReqNumber": "AAFC-201002-005"
}