{
    "dcr_id": "1601993270359",
    "lang": "en",
    "type_name": "intra-intra/news-nouv",
    "approvalsadvisor": "janice.hall@canada.ca",
    "approvalsdirector": "jodi.downs@canada.ca",
    "submitername": "Megan Dybka",
    "submiteremail": "megan.dybka@canada.ca",
    "submiterphoneNumber": "613-773-1941",
    "issued": "2020-10-08",
    "translateReqNumber": "AAFC-201005-005"
}