{
    "dcr_id": "1601481523653",
    "lang": "en",
    "type_name": "intra-intra/news-nouv",
    "approvalsadvisor": "julie.plamondon@canada.ca",
    "approvalsdirector": "sonia.forget@canada.ca",
    "submitername": "Tariq Sohail",
    "submiteremail": "tariq.sohail@canada.ca",
    "submiterphoneNumber": "613-234-5678",
    "issued": "2020-10-01",
    "translateReqNumber": "1234"
}