{
    "dcr_id": "1602103427986",
    "lang": "en",
    "type_name": "intra-intra/news-nouv",
    "approvalsadvisor": "kathryn.hunt@canada.ca",
    "approvalsdirector": "kathryn.hunt@canada.ca",
    "submitername": "kate",
    "submiteremail": "kathryn.hunt@canada.ca",
    "submiterphoneNumber": "343-571-7448",
    "issued": "2020-10-08",
    "translateReqNumber": "n/a"
}