{
    "dcr_id": "1602004307106",
    "lang": "en",
    "type_name": "intra-intra/news-nouv",
    "approvalsadvisor": "stela.susic@canada.ca",
    "approvalsdirector": "colette.george@canada.ca",
    "submitername": "Justine Walker",
    "submiteremail": "justine.walker2@canada.ca",
    "submiterphoneNumber": "613-773-0443",
    "issued": "2020-10-06",
    "translateReqNumber": "Template provided by SSC and IRCC."
}