{
    "dcr_id": "1200353199211",
    "urlEn": [
        "https://www.agr.gc.ca/resources/prod/img/pfra-arap/img/yhead_spruce_sawfly1.jpg",
        "https://www.agr.gc.ca/resources/prod/img/pfra-arap/img/yhead_spruce_sawfly2.jpg"
    ],
    "urlFr": [
        "https://www.agr.gc.ca/resources/prod/img/pfra-arap/img/yhead_spruce_sawfly1.jpg",
        "https://www.agr.gc.ca/resources/prod/img/pfra-arap/img/yhead_spruce_sawfly2.jpg"
    ],
    "managing_branch": "PAB"
}