{
    "dcr_id": "1611614688331",
    "urlEn": [
        "http://multimedia.agr.gc.ca/pack/img/gng_cucumber_photo1.jpg",
        "http://multimedia.agr.gc.ca/pack/img/gng_cucumber_photo2.jpg"
    ],
    "urlFr": [
        "http://multimedia.agr.gc.ca/pack/img/gng_cucumber_photo1.jpg",
        "http://multimedia.agr.gc.ca/pack/img/gng_cucumber_photo2.jpg"
    ],
    "managing_branch": "PAB"
}