{
    "dcr_id": "1604058402167",
    "urlEn": [
        "http://multimedia.agr.gc.ca/pack/img/ati_ar_19-20_fig1-eng.jpg",
        "http://multimedia.agr.gc.ca/pack/img/ati_ar_19-20_fig2-eng.jpg",
        "http://multimedia.agr.gc.ca/pack/img/ati_ar_19-20_fig3-eng.jpg",
        "http://multimedia.agr.gc.ca/pack/img/ati_ar_19-20_fig4-eng.jpg"
    ],
    "urlFr": [
        "http://multimedia.agr.gc.ca/pack/img/ati_ar_19-20_fig1-fra.jpg",
        "http://multimedia.agr.gc.ca/pack/img/ati_ar_19-20_fig2-fra.jpg",
        "http://multimedia.agr.gc.ca/pack/img/ati_ar_19-20_fig3-fra.jpg",
        "http://multimedia.agr.gc.ca/pack/img/ati_ar_19-20_fig4-fra.jpg"
    ],
    "managing_branch": "PAB"
}