{
    "dcr_id": "1541025662495",
    "urlEn": [
        "https://www.agr.gc.ca/resources/prod/img/sci/pub/img/tavelure-scab_a.jpg",
        "https://www.agr.gc.ca/resources/prod/img/sci/pub/img/tavelure-scab_b.jpg",
        "https://www.agr.gc.ca/resources/prod/img/sci/pub/img/tavelure-scab_c.jpg",
        "https://www.agr.gc.ca/resources/prod/img/sci/pub/img/tavelure-scab_d.jpg",
        "https://www.agr.gc.ca/resources/prod/img/sci/pub/img/tavelure-scab_e.jpg",
        "https://www.agr.gc.ca/resources/prod/img/sci/pub/img/tavelure-scab_f.jpg",
        "https://www.agr.gc.ca/resources/prod/img/sci/pub/img/tavelure-scab_cycle_eng.jpg",
        "https://www.agr.gc.ca/resources/prod/img/sci/pub/img/tavelure_scab_fig1_eng.jpg",
        "https://www.agr.gc.ca/resources/prod/img/sci/pub/img/tavelure_scab_fig2a_eng.jpg",
        "https://www.agr.gc.ca/resources/prod/img/sci/pub/img/tavelure_scab_fig2b_eng.jpg",
        "https://www.agr.gc.ca/resources/prod/img/sci/pub/img/tavelure_scab_fig3_eng.jpg",
        "https://www.agr.gc.ca/resources/prod/img/sci/pub/img/tavelure-scab_ascospores.jpg",
        "https://www.agr.gc.ca/resources/prod/img/sci/pub/img/tavelure_scab_plan1_en.png",
        "https://www.agr.gc.ca/resources/prod/img/sci/pub/img/tavelure_scab_plan2_en.png",
        "https://www.agr.gc.ca/resources/prod/img/sci/pub/img/tavelure_scab_fig6_eng.jpg",
        "https://www.agr.gc.ca/resources/prod/img/sci/pub/img/tavelure_scab_fig7_eng.jpg",
        "https://www.agr.gc.ca/resources/prod/img/sci/pub/img/tavelure_scab_fig8_eng.jpg",
        "https://www.agr.gc.ca/resources/prod/img/sci/pub/img/tavelure-scab_growth_croissance.jpg",
        "https://www.agr.gc.ca/resources/prod/img/sci/pub/img/tavelure_scab_fig9_en.png",
        "https://www.agr.gc.ca/resources/prod/img/sci/pub/img/tavelure_scab_fig10_en.png"
    ],
    "urlFr": [
        "https://www.agr.gc.ca/resources/prod/img/sci/pub/img/tavelure-scab_a.jpg",
        "https://www.agr.gc.ca/resources/prod/img/sci/pub/img/tavelure-scab_b.jpg",
        "https://www.agr.gc.ca/resources/prod/img/sci/pub/img/tavelure-scab_c.jpg",
        "https://www.agr.gc.ca/resources/prod/img/sci/pub/img/tavelure-scab_d.jpg",
        "https://www.agr.gc.ca/resources/prod/img/sci/pub/img/tavelure-scab_e.jpg",
        "https://www.agr.gc.ca/resources/prod/img/sci/pub/img/tavelure-scab_f.jpg",
        "https://www.agr.gc.ca/resources/prod/img/sci/pub/img/tavelure-scab_cycle_fra.jpg",
        "https://www.agr.gc.ca/resources/prod/img/sci/pub/img/tavelure_scab_fig1_fra.jpg",
        "https://www.agr.gc.ca/resources/prod/img/sci/pub/img/tavelure_scab_fig2a_fr.jpg",
        "https://www.agr.gc.ca/resources/prod/img/sci/pub/img/tavelure_scab_fig2b_fra.jpg",
        "https://www.agr.gc.ca/resources/prod/img/sci/pub/img/tavelure_scab_fig3_fra.jpg",
        "https://www.agr.gc.ca/resources/prod/img/sci/pub/img/tavelure-scab_ascospores.jpg",
        "https://www.agr.gc.ca/resources/prod/img/sci/pub/img/tavelure_scab_plan1_fr.png",
        "https://www.agr.gc.ca/resources/prod/img/sci/pub/img/tavelure_scab_plan2_fr.png",
        "https://www.agr.gc.ca/resources/prod/img/sci/pub/img/tavelure_scab_fig6_fra.jpg",
        "https://www.agr.gc.ca/resources/prod/img/sci/pub/img/tavelure_scab_fig7_fra.jpg",
        "https://www.agr.gc.ca/resources/prod/img/sci/pub/img/tavelure_scab_fig8_fra.jpg",
        "https://www.agr.gc.ca/resources/prod/img/sci/pub/img/tavelure-scab_growth_croissance.jpg",
        "https://www.agr.gc.ca/resources/prod/img/sci/pub/img/tavelure_scab_fig9_fr.png",
        "https://www.agr.gc.ca/resources/prod/img/sci/pub/img/tavelure_scab_fig10_fr.png"
    ],
    "managing_branch": "PAB"
}