{
    "dcr_id": "1462401144426",
    "urlEn": [
        "https://www.agr.gc.ca/resources/prod/img/prog/ind/pesticide_fig1_legend-eng.jpg",
        "https://www.agr.gc.ca/resources/prod/img/prog/ind/pesticide_fig2_legend-eng.jpg",
        "https://www.agr.gc.ca/resources/prod/img/prog/ind/pesticide_fig3-eng.jpg",
        "https://www.agr.gc.ca/resources/prod/img/prog/ind/pesticide_fig4-eng.jpg"
    ],
    "urlFr": [
        "https://www.agr.gc.ca/resources/prod/img/prog/ind/pesticide_fig1_legend-fra.jpg",
        "https://www.agr.gc.ca/resources/prod/img/prog/ind/pesticide_fig2_legend-fra.jpg",
        "https://www.agr.gc.ca/resources/prod/img/prog/ind/pesticide_fig3-fra.jpg",
        "https://www.agr.gc.ca/resources/prod/img/prog/ind/pesticide_fig4-fra.jpg"
    ],
    "managing_branch": "PAB"
}