{
    "dcr_id": "1367418562995",
    "urlEn": [
        "https://www.agr.gc.ca/resources/prod/img/pfra-arap/img/ls-tf_1.jpg",
        "https://www.agr.gc.ca/resources/prod/img/pfra-arap/img/ls-tf_2.jpg"
    ],
    "urlFr": [
        "https://www.agr.gc.ca/resources/prod/img/pfra-arap/img/ls-tf_1.jpg",
        "https://www.agr.gc.ca/resources/prod/img/pfra-arap/img/ls-tf_2.jpg"
    ],
    "managing_branch": "PAB"
}