{
    "dcr_id": "1558554728042",
    "urlEn": [
        "https://www.agr.gc.ca/resources/prod/doc/pdf/yesp_pecj/a6011-eng.pdf"
    ],
    "urlFr": [
        "https://www.agr.gc.ca/resources/prod/doc/pdf/yesp_pecj/a6011-fra.pdf"
    ],
    "managing_branch": "PAB"
}