{
    "dcr_id": "1408459736053",
    "urlEn": [
        "https://www.agr.gc.ca/resources/prod/doc/pol/grow-croiss/brm-gre/agrista/pdf/2018/as2018_direct_dep_direct-eng.pdf"
    ],
    "urlFr": [
        "https://www.agr.gc.ca/resources/prod/doc/pol/grow-croiss/brm-gre/agrista/pdf/2018/as2018_direct_dep_direct-fra.pdf"
    ],
    "managing_branch": "PAB"
}