{
    "dcr_id": "1448297869529",
    "urlEn": [
        "https://www.agr.gc.ca/resources/prod/img/values_and_ethics_flowch-eng_v3.jpg"
    ],
    "urlFr": [
        "https://www.agr.gc.ca/resources/prod/img/values_and_ethics_flowch-fra_v3.jpg"
    ],
    "managing_branch": "PAB"
}