{
    "dcr_id": "1367419008793",
    "urlEn": [
        "https://www.agr.gc.ca/resources/prod/img/pfra-arap/img/ls-tm_1.jpg",
        "https://www.agr.gc.ca/resources/prod/img/pfra-arap/img/ls-tm_2.jpg"
    ],
    "urlFr": [
        "https://www.agr.gc.ca/resources/prod/img/pfra-arap/img/ls-tm_1.jpg",
        "https://www.agr.gc.ca/resources/prod/img/pfra-arap/img/ls-tm_2.jpg"
    ],
    "managing_branch": "PAB"
}