{
    "dcr_id": "1583530434966",
    "urlEn": [
        "https://www.agr.gc.ca/resources/prod/doc/pdf/A9442-eng.pdf",
        "http://www.agr.gc.ca/resources/prod/doc/pdf/AMP_14979_eng.pdf"
    ],
    "urlFr": [
        "https://www.agr.gc.ca/resources/prod/doc/pdf/A9442-fra.pdf",
        "http://www.agr.gc.ca/resources/prod/doc/pdf/AMP_14979_fra.pdf"
    ],
    "managing_branch": "PAB"
}