{
    "dcr_id": "1565908541098",
    "urlEn": [
        "https://www.agr.gc.ca/resources/prod/img/agri-info/2017-10/23201_AgriInfo10_Articles_250x250_6.jpg"
    ],
    "urlFr": [
        "https://www.agr.gc.ca/resources/prod/img/agri-info/2017-10/23201_AgriInfo10_Articles_250x250_6.jpg"
    ],
    "managing_branch": "PAB"
}