{
    "dcr_id": "1526587495323",
    "urlEn": [
        "https://www.agr.gc.ca/resources/prod/doc/pdf/A9422_report-eng.pdf",
        "https://www.agr.gc.ca/resources/prod/doc/pdf/A9421-survey-eng.pdf"
    ],
    "urlFr": [
        "https://www.agr.gc.ca/resources/prod/doc/pdf/A9422_report-fra.pdf",
        "https://www.agr.gc.ca/resources/prod/doc/pdf/A9421-survey-fra.pdf"
    ],
    "managing_branch": "PAB"
}