{
    "dcr_id": "1517584669500",
    "urlEn": [
        "https://www.agr.gc.ca/resources/prod/doc/pdf/A9337-eng.pdf"
    ],
    "urlFr": [
        "https://www.agr.gc.ca/resources/prod/doc/pdf/A9337-fra.pdf"
    ],
    "managing_branch": "PAB"
}