{
    "dcr_id": "1422987718261",
    "urlEn": [
        "https://www.agr.gc.ca/resources/prod/img/eval_beef_dev-eng.jpg"
    ],
    "urlFr": [
        "https://www.agr.gc.ca/resources/prod/img/eval_beef_dev-fra.jpg"
    ],
    "managing_branch": "PAB"
}