{
    "dcr_id": "1579904587739",
    "urlEn": [
        "https://www.agr.gc.ca/resources/prod/doc/pdf/fofs_2020-21_v3-eng.pdf"
    ],
    "urlFr": [
        "https://www.agr.gc.ca/resources/prod/doc/pdf/fofs_2020-21_v3-fra.pdf"
    ],
    "managing_branch": "PAB"
}