{
    "dcr_id": "1577993972314",
    "urlEn": [
        "/resources/prod/dairy/pdf/ap_gen_exportsdairycattle_e.pdf",
        "/resources/prod/dairy/Images/ap_gen_exportdairycattle_e.jpg"
    ],
    "urlFr": [
        "/resources/prod/dairy/pdf/ap_gen_exportsdairycattle_f.pdf",
        "/resources/prod/dairy/Images/ap_gen_exportdairycattle_f.jpg"
    ],
    "managing_branch": "DAIRY"
}