{
    "dcr_id": "1547579278152",
    "urlEn": [
        "https://www.agr.gc.ca/resources/prod/doc/pol/grow-croiss/brm-gre/agrista/pdf/2019/as_ai_2019_add_info-eng.pdf"
    ],
    "urlFr": [
        "https://www.agr.gc.ca/resources/prod/doc/pol/grow-croiss/brm-gre/agrista/pdf/2019/as_ai_2019_add_info-fra.pdf"
    ],
    "managing_branch": "PAB"
}