{
    "dcr_id": "1449759885273",
    "urlEn": [
        "https://www.agr.gc.ca/resources/prod/CMS/Internet/Common-Commun/1449759885273_image1-eng.jpg",
        "https://www.agr.gc.ca/resources/prod/CMS/Internet/Common-Commun/1449759885273_image2-eng.jpg"
    ],
    "urlFr": [
        "https://www.agr.gc.ca/resources/prod/CMS/Internet/Common-Commun/1449759885273_image1-fra.jpg",
        "https://www.agr.gc.ca/resources/prod/CMS/Internet/Common-Commun/1449759885273_image2-fra.jpg"
    ],
    "managing_branch": "PAB"
}