{
    "dcr_id": "1562249496843",
    "urlEn": [
        "https://www.agr.gc.ca/resources/prod/Internet-Internet/MISB-DGSIM/ATS-SEA/images/Global-Analysis.jpg",
        "https://www.agr.gc.ca/resources/prod/Internet-Internet/MISB-DGSIM/ATS-SEA/images/9194/cr_smoked_salmon_canada_us_01-eng.jpg",
        "https://www.agr.gc.ca/resources/prod/Internet-Internet/MISB-DGSIM/ATS-SEA/images/9194/cr_smoked_salmon_canada_us_02-eng.jpg",
        "https://www.agr.gc.ca/resources/prod/Internet-Internet/MISB-DGSIM/ATS-SEA/images/9194/cr_smoked_salmon_canada_us_03-eng.jpg",
        "https://www.agr.gc.ca/resources/prod/Internet-Internet/MISB-DGSIM/ATS-SEA/images/9194/cr_smoked_salmon_canada_us_04-eng.jpg",
        "https://www.agr.gc.ca/resources/prod/Internet-Internet/MISB-DGSIM/ATS-SEA/images/9194/cr_smoked_salmon_canada_us_05a.jpg",
        "https://www.agr.gc.ca/resources/prod/Internet-Internet/MISB-DGSIM/ATS-SEA/images/9194/cr_smoked_salmon_canada_us_05b.jpg",
        "https://www.agr.gc.ca/resources/prod/Internet-Internet/MISB-DGSIM/ATS-SEA/images/9194/cr_smoked_salmon_canada_us_05c.jpg"
    ],
    "urlFr": [
        "https://www.agr.gc.ca/resources/prod/Internet-Internet/MISB-DGSIM/ATS-SEA/images/Global-Analysis.jpg",
        "https://www.agr.gc.ca/resources/prod/Internet-Internet/MISB-DGSIM/ATS-SEA/images/9194/cr_smoked_salmon_canada_us_01-fra.jpg",
        "https://www.agr.gc.ca/resources/prod/Internet-Internet/MISB-DGSIM/ATS-SEA/images/9194/cr_smoked_salmon_canada_us_02-fra.jpg",
        "https://www.agr.gc.ca/resources/prod/Internet-Internet/MISB-DGSIM/ATS-SEA/images/9194/cr_smoked_salmon_canada_us_03-fra.jpg",
        "https://www.agr.gc.ca/resources/prod/Internet-Internet/MISB-DGSIM/ATS-SEA/images/9194/cr_smoked_salmon_canada_us_05a.jpg",
        "https://www.agr.gc.ca/resources/prod/Internet-Internet/MISB-DGSIM/ATS-SEA/images/9194/cr_smoked_salmon_canada_us_05b.jpg",
        "https://www.agr.gc.ca/resources/prod/Internet-Internet/MISB-DGSIM/ATS-SEA/images/9194/cr_smoked_salmon_canada_us_05c.jpg"
    ],
    "managing_branch": "MISB"
}