{
    "dcr_id": "1503003216289",
    "urlEn": [
        "/resources/prod/dairy/Images/shipmentsgraph_e.jpg"
    ],
    "urlFr": [
        "/resources/prod/dairy/Images/shipmentsgraph_f.jpg"
    ],
    "managing_branch": "DAIRY"
}