{
    "dcr_id": "1518636801170",
    "urlEn": [
        "https://www.agr.gc.ca/resources/prod/img/cdm_legend_h_5-eng.jpg"
    ],
    "urlFr": [
        "http://multimedia.agr.gc.ca/pack/img/cdm_legend-fra.png"
    ],
    "managing_branch": "PAB"
}