{
    "dcr_id": "1503002411347",
    "urlEn": [
        "/resources/prod/dairy/Images/plants_e.jpg"
    ],
    "urlFr": [
        "/resources/prod/dairy/Images/plants_f.jpg"
    ],
    "managing_branch": "DAIRY"
}