{
    "dcr_id": "1461851195947",
    "urlEn": [
        "https://www.agr.gc.ca/resources/prod/doc/pol/grow-croiss/brm-gre/agrista/pdf/2016/mb_2016_pub_pri_list_3-eng.pdf"
    ],
    "urlFr": [
        "https://www.agr.gc.ca/resources/prod/doc/pol/grow-croiss/brm-gre/agrista/pdf/2016/mb_2016_pub_pri_list_3-fra.pdf"
    ],
    "managing_branch": "PAB"
}