{
    "dcr_id": "1463490444736",
    "urlEn": [
        "https://www.agr.gc.ca/resources/prod/doc/pol/grow-croiss/brm-gre/agriinvest/pdf/2018/agriinvest_jan2018-eng.pdf",
        "https://www.agr.gc.ca/resources/prod/img/agri-inv/aihb_2016-eng.jpg"
    ],
    "urlFr": [
        "https://www.agr.gc.ca/resources/prod/doc/pol/grow-croiss/brm-gre/agriinvest/pdf/2018/agriinvest_jan2018-fra.pdf",
        "https://www.agr.gc.ca/resources/prod/img/agri-inv/aihb_2016-fra.jpg"
    ],
    "managing_branch": "PAB"
}