{
    "dcr_id": "1578077918740",
    "urlEn": [
        "/resources/prod/dairy/pdf/ap_gen_exportshorses_e.pdf"
    ],
    "urlFr": [
        "/resources/prod/dairy/pdf/ap_gen_exportshorses_f.pdf"
    ],
    "managing_branch": "DAIRY"
}