{
    "dcr_id": "1591883799138",
    "urlEn": [
        "http://multimedia.agr.gc.ca/pack/pdf/A9448E.pdf",
        "http://multimedia.agr.gc.ca/pack/pdf/SFRP_scheduleA-eng.pdf"
    ],
    "urlFr": [
        "http://multimedia.agr.gc.ca/pack/pdf/A9448F.pdf",
        "http://multimedia.agr.gc.ca/pack/pdf/SFRP_scheduleA-fra.pdf"
    ],
    "managing_branch": "PAB"
}