{
    "dcr_id": "1458223489697",
    "urlEn": [
        "https://www.agr.gc.ca/resources/prod/Internet-Internet/MISB-DGSIM/ATS-SEA/images/vid-afr-gcc2-eng.png"
    ],
    "urlFr": [
        "https://www.agr.gc.ca/resources/prod/Internet-Internet/MISB-DGSIM/ATS-SEA/images/vid-afr-gcc-fra.png"
    ],
    "managing_branch": "MISB"
}