{
    "dcr_id": "1558555557202",
    "urlEn": [
        "https://www.agr.gc.ca/resources/prod/doc/pdf/yesp_pecj/a6009-eng.pdf"
    ],
    "urlFr": [
        "https://www.agr.gc.ca/resources/prod/doc/pdf/yesp_pecj/a6009-fra.pdf"
    ],
    "managing_branch": "PAB"
}