{
    "dcr_id": "1563905156018",
    "urlEn": [
        "https://www.agr.gc.ca/resources/prod/img/cb/images/alien_insects_fig-1.jpg",
        "https://www.agr.gc.ca/resources/prod/img/cb/images/alien_insects_fig-2.jpg",
        "https://www.agr.gc.ca/resources/prod/img/cb/images/alien_insects_fig-3.jpg"
    ],
    "urlFr": [
        "https://www.agr.gc.ca/resources/prod/img/cb/images/alien_insects_fig-1.jpg",
        "https://www.agr.gc.ca/resources/prod/img/cb/images/alien_insects_fig-2.jpg",
        "https://www.agr.gc.ca/resources/prod/img/cb/images/alien_insects_fig-3.jpg"
    ],
    "managing_branch": "PAB"
}