{
    "dcr_id": "1573743742212",
    "urlEn": [
        "https://www.agr.gc.ca/resources/prod/img/cb/images/windrow_turner.jpg",
        "https://www.agr.gc.ca/resources/prod/img/cb/images/manure.jpg",
        "https://www.agr.gc.ca/resources/prod/img/cb/images/compost.jpg"
    ],
    "urlFr": [
        "https://www.agr.gc.ca/resources/prod/img/cb/images/windrow_turner.jpg",
        "https://www.agr.gc.ca/resources/prod/img/cb/images/manure.jpg",
        "https://www.agr.gc.ca/resources/prod/img/cb/images/compost.jpg"
    ],
    "managing_branch": "PAB"
}