{
    "dcr_id": "1542985176213",
    "urlEn": [
        "https://www.agr.gc.ca/resources/prod/img/psrr/1510839111270_regional.jpg"
    ],
    "urlFr": [
        "https://www.agr.gc.ca/resources/prod/img/psrr/1510839111270_regional.jpg"
    ],
    "managing_branch": "PAB"
}