{
    "dcr_id": "1580153003115",
    "urlEn": [
        "https://www.agr.gc.ca/resources/prod/img/topic_animal_industry.jpg"
    ],
    "urlFr": [
        "https://www.agr.gc.ca/resources/prod/img/topic_animal_industry.jpg"
    ],
    "managing_branch": "PAB"
}