{
    "dcr_id": "1520458805687",
    "urlEn": [
        "https://www.agr.gc.ca/resources/prod/doc/pdf/dp-pm_2018-19-eng.pdf",
        "https://www.agr.gc.ca/resources/prod/img/minister-ministre_macaulay_dp2016.jpg",
        "https://www.agr.gc.ca/resources/prod/img/dp-pd_2018-19_fig1-eng.jpg",
        "https://www.agr.gc.ca/resources/prod/img/dp-pd_2018-19_fig2-eng.jpg",
        "https://www.agr.gc.ca/resources/prod/img/dp-pd_2018-19_fig3.jpg",
        "https://www.agr.gc.ca/resources/prod/img/dp-pd_2018-19_fig4-eng.jpg",
        "https://www.agr.gc.ca/resources/prod/img/dp-pd_2018-19_fig5-en.jpg",
        "https://www.agr.gc.ca/resources/prod/img/dp-pd_2018-19_fig6.jpg",
        "https://www.agr.gc.ca/resources/prod/img/dp-pd_2018-19_fig7.jpg",
        "https://www.agr.gc.ca/resources/prod/img/dp-pd_2018-19_fig8.jpg",
        "https://www.agr.gc.ca/resources/prod/img/dp-pd_2018-19_fig9-eng.jpg",
        "https://www.agr.gc.ca/resources/prod/img/dp-pd_2018-19_fig10e-eng.jpg",
        "https://www.agr.gc.ca/resources/prod/img/dp-pd_2018-19_fig11a-eng.jpg",
        "https://www.agr.gc.ca/resources/prod/img/dp-pd_2018-19_fig11b-eng.jpg"
    ],
    "urlFr": [
        "https://www.agr.gc.ca/resources/prod/doc/pdf/dp-pm_2018-19-fra.pdf",
        "https://www.agr.gc.ca/resources/prod/img/minister-ministre_macaulay_dp2016.jpg",
        "https://www.agr.gc.ca/resources/prod/img/dp-pd_2018-19_fig1-fra.jpg",
        "https://www.agr.gc.ca/resources/prod/img/dp-pd_2018-19_fig2-fra.jpg",
        "https://www.agr.gc.ca/resources/prod/img/dp-pd_2018-19_fig3.jpg",
        "https://www.agr.gc.ca/resources/prod/img/dp-pd_2018-19_fig4-fra.jpg",
        "https://www.agr.gc.ca/resources/prod/img/dp-pd_2018-19_fig5-fra.jpg",
        "https://www.agr.gc.ca/resources/prod/img/dp-pd_2018-19_fig6.jpg",
        "https://www.agr.gc.ca/resources/prod/img/dp-pd_2018-19_fig7.jpg",
        "https://www.agr.gc.ca/resources/prod/img/dp-pd_2018-19_fig8.jpg",
        "https://www.agr.gc.ca/resources/prod/img/dp-pd_2018-19_fig9-fra.jpg",
        "https://www.agr.gc.ca/resources/prod/img/dp-pd_2018-19_fig10-fra.jpg",
        "https://www.agr.gc.ca/resources/prod/img/dp-pd_2018-19_fig11a-fra.jpg",
        "https://www.agr.gc.ca/resources/prod/img/dp-pd_2018-19_fig11b-fra.jpg"
    ],
    "managing_branch": "PAB"
}