{
    "dcr_id": "1517860269287",
    "urlEn": [
        "https://www.agr.gc.ca/resources/prod/doc/pdf/signature_form_signature_du_demandeur_v1-eng.pdf"
    ],
    "urlFr": [
        "https://www.agr.gc.ca/resources/prod/doc/pdf/signature_form_signature_du_demandeur_v1-fra.pdf"
    ],
    "managing_branch": "PAB"
}