{
    "dcr_id": "1579809835725",
    "urlEn": [
        "https://www.agr.gc.ca/resources/prod/doc/pol/grow-croiss/brm-gre/agrista/pdf/2020/as_ai_2020_statement_a-eng.pdf"
    ],
    "urlFr": [
        "https://www.agr.gc.ca/resources/prod/doc/pol/grow-croiss/brm-gre/agrista/pdf/2020/as_ai_2020_statement_a-fra.pdf"
    ],
    "managing_branch": "PAB"
}