{
    "dcr_id": "1531245079298",
    "urlEn": [
        "https://www.agr.gc.ca/resources/prod/doc/pdf/ARI_CallForApplic_workplan_key_activities_v2-eng.pdf"
    ],
    "urlFr": [
        "https://www.agr.gc.ca/resources/prod/doc/pdf/ARI_CallForApplic_workplan_key_activities_v2-fra.pdf"
    ],
    "managing_branch": "PAB"
}