{
    "dcr_id": "1509719116307",
    "urlEn": [
        "https://www.agr.gc.ca/resources/prod/doc/prog/pdf/2017_LTD_final-eng.pdf",
        "https://www.agr.gc.ca/resources/prod/img/prog/2017_LTD_final-eng.jpg"
    ],
    "urlFr": [
        "https://www.agr.gc.ca/resources/prod/doc/prog/pdf/2017_LTD_final-fra.pdf",
        "https://www.agr.gc.ca/resources/prod/img/prog/2017_LTD_final-fra.jpg"
    ],
    "managing_branch": "PAB"
}