{
    "dcr_id": "1562078487604",
    "urlEn": [
        "https://www.agr.gc.ca/resources/prod/Internet-Internet/MISB-DGSIM/ATS-SEA/images/Global-Analysis.jpg",
        "https://www.agr.gc.ca/resources/prod/Internet-Internet/MISB-DGSIM/ATS-SEA/images/9172/cp_mexico-eng.jpg"
    ],
    "urlFr": [
        "https://www.agr.gc.ca/resources/prod/Internet-Internet/MISB-DGSIM/ATS-SEA/images/Global-Analysis.jpg",
        "https://www.agr.gc.ca/resources/prod/Internet-Internet/MISB-DGSIM/ATS-SEA/images/9172/cp_mexico-fra.jpg"
    ],
    "managing_branch": "MISB"
}