{
    "dcr_id": "1548274714494",
    "urlEn": [
        "https://www.agr.gc.ca/resources/prod/doc/pol/grow-croiss/brm-gre/agrista/pdf/2019/as_ai_2019_statement_a-eng.pdf"
    ],
    "urlFr": [
        "https://www.agr.gc.ca/resources/prod/doc/pol/grow-croiss/brm-gre/agrista/pdf/2019/as_ai_2019_statement_a-fra.pdf"
    ],
    "managing_branch": "PAB"
}