{
    "dcr_id": "1541691446137",
    "urlEn": [
        "https://www.agr.gc.ca/resources/prod/doc/science/pdf/co461_release_sheet-eng.pdf",
        "/resources/prev/doc/science/co461_2016-eng.json",
        "https://www.agr.gc.ca/resources/prod/img/science/images/corn_co461.jpg"
    ],
    "urlFr": [
        "https://www.agr.gc.ca/resources/prod/doc/science/pdf/co461_release_sheet-fra.pdf",
        "/resources/prev/doc/science/co461_2016-fra.json",
        "https://www.agr.gc.ca/resources/prod/img/science/images/corn_co461.jpg"
    ],
    "managing_branch": "PAB"
}