{
    "dcr_id": "1606435592491",
    "urlEn": [
        "https://multimedia.agr.gc.ca/pack/img/oae_ampa_fig1-eng.jpg",
        "https://multimedia.agr.gc.ca/pack/img/oae_ampa_fig2-eng.jpg",
        "https://multimedia.agr.gc.ca/pack/img/oae_ampa_fig3-eng.jpg"
    ],
    "urlFr": [
        "https://multimedia.agr.gc.ca/pack/img/oae_ampa_fig1-fra.jpg",
        "https://multimedia.agr.gc.ca/pack/img/oae_ampa_fig2-fra.jpg",
        "https://multimedia.agr.gc.ca/pack/img/oae_ampa_fig3-fra.jpg"
    ],
    "managing_branch": "PAB"
}