{
    "dcr_id": "1456780921335",
    "urlEn": [
        "https://www.agr.gc.ca/resources/prod/doc/pol/grow-croiss/brm-gre/agrista/pdf/2015/nb_2015_pub_pri_list-eng.pdf"
    ],
    "urlFr": [
        "https://www.agr.gc.ca/resources/prod/doc/pol/grow-croiss/brm-gre/agrista/pdf/2015/nb_2015_pub_pri_list-fra.pdf"
    ],
    "managing_branch": "PAB"
}