{
    "dcr_id": "1565908815198",
    "urlEn": [
        "https://www.agr.gc.ca/resources/prod/img/agri-info/2017-10/23201_AgriInfo10_Articles_250x250_8.jpg"
    ],
    "urlFr": [
        "https://www.agr.gc.ca/resources/prod/img/agri-info/2017-10/23201_AgriInfo10_Articles_250x250_8.jpg"
    ],
    "managing_branch": "PAB"
}