{
    "dcr_id": "1232732638116",
    "urlEn": [
        "http://www.agr.gc.ca/resources/prod/img/cef-fec/images/1232732638116_image1.jpg",
        "http://www.agr.gc.ca/resources/prev/img/cef-fec/images/1232732638116_image2.jpg",
        "http://www.agr.gc.ca/resources/prev/img/cef-fec/images/1232732638116_image36.jpg",
        "http://www.agr.gc.ca/resources/prev/img/cef-fec/images/1232732638116_image3.jpg",
        "http://www.agr.gc.ca/resources/prev/img/cef-fec/images/1232732638116_image4.jpg",
        "http://www.agr.gc.ca/resources/prev/img/cef-fec/images/1232732638116_image7.jpg",
        "http://www.agr.gc.ca/resources/prev/img/cef-fec/images/1232732638116_image8.jpg",
        "http://www.agr.gc.ca/resources/prev/img/cef-fec/images/1232732638116_image9.jpg",
        "http://www.agr.gc.ca/resources/prev/img/cef-fec/images/1232732638116_image10.jpg",
        "http://www.agr.gc.ca/resources/prev/img/cef-fec/images/1232732638116_image34.jpg",
        "http://www.agr.gc.ca/resources/prev/img/cef-fec/images/1232732638116_image35.jpg",
        "http://www.agr.gc.ca/resources/prev/img/cef-fec/images/1232732638116_image11.jpg",
        "http://www.agr.gc.ca/resources/prev/img/cef-fec/images/1232732638116_image12.jpg",
        "http://www.agr.gc.ca/resources/prev/img/cef-fec/images/1232732638116_image13.jpg",
        "http://www.agr.gc.ca/resources/prev/img/cef-fec/images/1232732638116_image14.jpg",
        "http://www.agr.gc.ca/resources/prev/img/cef-fec/images/1232732638116_image15.jpg",
        "http://www.agr.gc.ca/resources/prev/img/cef-fec/images/1232732638116_image16.jpg",
        "http://www.agr.gc.ca/resources/prev/img/cef-fec/images/1232732638116_image17.jpg",
        "http://www.agr.gc.ca/resources/prev/img/cef-fec/images/1232732638116_image18.jpg",
        "http://www.agr.gc.ca/resources/prev/img/cef-fec/images/1232732638116_image19.jpg",
        "http://www.agr.gc.ca/resources/prev/img/cef-fec/images/1232732638116_image20.jpg",
        "http://www.agr.gc.ca/resources/prev/img/cef-fec/images/1232732638116_image21.jpg",
        "http://www.agr.gc.ca/resources/prev/img/cef-fec/images/1232732638116_image22.jpg",
        "http://www.agr.gc.ca/resources/prev/img/cef-fec/images/1232732638116_image23.jpg",
        "http://www.agr.gc.ca/resources/prev/img/cef-fec/images/1232732638116_image24.jpg",
        "http://www.agr.gc.ca/resources/prev/img/cef-fec/images/1232732638116_image26.jpg",
        "http://www.agr.gc.ca/resources/prev/img/cef-fec/images/1232732638116_image27.jpg",
        "http://www.agr.gc.ca/resources/prev/img/cef-fec/images/1232732638116_image29.jpg",
        "http://www.agr.gc.ca/resources/prev/img/cef-fec/images/1232732638116_image30.jpg",
        "http://www.agr.gc.ca/resources/prev/img/cef-fec/images/1232732638116_image31.jpg",
        "http://www.agr.gc.ca/resources/prev/img/cef-fec/images/1232732638116_image32.jpg",
        "http://www.agr.gc.ca/resources/prev/img/cef-fec/images/1232732638116_image33.jpg",
        "http://www.agr.gc.ca/resources/prev/img/cef-fec/images/image1_s.jpg",
        "http://www.agr.gc.ca/resources/prev/img/cef-fec/images/image2_s.jpg",
        "http://www.agr.gc.ca/resources/prev/img/cef-fec/images/image36_s.jpg",
        "http://www.agr.gc.ca/resources/prev/img/cef-fec/images/image3_s.jpg",
        "http://www.agr.gc.ca/resources/prev/img/cef-fec/images/image4_s.jpg",
        "http://www.agr.gc.ca/resources/prev/img/cef-fec/images/image7_s.jpg",
        "http://www.agr.gc.ca/resources/prev/img/cef-fec/images/image8_s.jpg",
        "http://www.agr.gc.ca/resources/prev/img/cef-fec/images/image9_s.jpg",
        "http://www.agr.gc.ca/resources/prev/img/cef-fec/images/image10_s.jpg",
        "http://www.agr.gc.ca/resources/prev/img/cef-fec/images/image34_s.jpg",
        "http://www.agr.gc.ca/resources/prev/img/cef-fec/images/image35_ss.jpg",
        "http://www.agr.gc.ca/resources/prev/img/cef-fec/images/image11_s.jpg",
        "http://www.agr.gc.ca/resources/prev/img/cef-fec/images/image12_s.jpg",
        "http://www.agr.gc.ca/resources/prev/img/cef-fec/images/image13_s.jpg",
        "http://www.agr.gc.ca/resources/prev/img/cef-fec/images/image14_s.jpg",
        "http://www.agr.gc.ca/resources/prev/img/cef-fec/images/image15_s.jpg",
        "http://www.agr.gc.ca/resources/prev/img/cef-fec/images/image16_s.jpg",
        "http://www.agr.gc.ca/resources/prev/img/cef-fec/images/image17_s.jpg",
        "http://www.agr.gc.ca/resources/prev/img/cef-fec/images/image18_s.jpg",
        "http://www.agr.gc.ca/resources/prev/img/cef-fec/images/image19_s.jpg",
        "http://www.agr.gc.ca/resources/prev/img/cef-fec/images/image20_s.jpg",
        "http://www.agr.gc.ca/resources/prev/img/cef-fec/images/image21_s.jpg",
        "http://www.agr.gc.ca/resources/prev/img/cef-fec/images/image22_s.jpg",
        "http://www.agr.gc.ca/resources/prev/img/cef-fec/images/image23_s.jpg",
        "http://www.agr.gc.ca/resources/prev/img/cef-fec/images/image24_s.jpg",
        "http://www.agr.gc.ca/resources/prev/img/cef-fec/images/image26_s.jpg",
        "http://www.agr.gc.ca/resources/prev/img/cef-fec/images/image27_s.jpg",
        "http://www.agr.gc.ca/resources/prev/img/cef-fec/images/image29_s.jpg",
        "http://www.agr.gc.ca/resources/prev/img/cef-fec/images/image30_s.jpg",
        "http://www.agr.gc.ca/resources/prev/img/cef-fec/images/image31_s.jpg",
        "http://www.agr.gc.ca/resources/prev/img/cef-fec/images/image32_s.jpg",
        "http://www.agr.gc.ca/resources/prev/img/cef-fec/images/image33_s.jpg"
    ],
    "urlFr": [
        "http://www.agr.gc.ca/resources/prev/img/cef-fec/images/1232732638116_image1.jpg",
        "http://www.agr.gc.ca/resources/prev/img/cef-fec/images/1232732638116_image2.jpg",
        "http://www.agr.gc.ca/resources/prev/img/cef-fec/images/1232732638116_image36.jpg",
        "http://www.agr.gc.ca/resources/prev/img/cef-fec/images/1232732638116_image3.jpg",
        "http://www.agr.gc.ca/resources/prev/img/cef-fec/images/1232732638116_image4.jpg",
        "http://www.agr.gc.ca/resources/prev/img/cef-fec/images/1232732638116_image7.jpg",
        "http://www.agr.gc.ca/resources/prev/img/cef-fec/images/1232732638116_image8.jpg",
        "http://www.agr.gc.ca/resources/prev/img/cef-fec/images/1232732638116_image9.jpg",
        "http://www.agr.gc.ca/resources/prev/img/cef-fec/images/1232732638116_image10.jpg",
        "http://www.agr.gc.ca/resources/prev/img/cef-fec/images/1232732638116_image34.jpg",
        "http://www.agr.gc.ca/resources/prev/img/cef-fec/images/1232732638116_image35.jpg",
        "http://www.agr.gc.ca/resources/prev/img/cef-fec/images/1232732638116_image11.jpg",
        "http://www.agr.gc.ca/resources/prev/img/cef-fec/images/1232732638116_image12.jpg",
        "http://www.agr.gc.ca/resources/prev/img/cef-fec/images/1232732638116_image13.jpg",
        "http://www.agr.gc.ca/resources/prev/img/cef-fec/images/1232732638116_image14.jpg",
        "http://www.agr.gc.ca/resources/prev/img/cef-fec/images/1232732638116_image15.jpg",
        "http://www.agr.gc.ca/resources/prev/img/cef-fec/images/1232732638116_image16.jpg",
        "http://www.agr.gc.ca/resources/prev/img/cef-fec/images/1232732638116_image17.jpg",
        "http://www.agr.gc.ca/resources/prev/img/cef-fec/images/1232732638116_image18.jpg",
        "http://www.agr.gc.ca/resources/prev/img/cef-fec/images/1232732638116_image19.jpg",
        "http://www.agr.gc.ca/resources/prev/img/cef-fec/images/1232732638116_image20.jpg",
        "http://www.agr.gc.ca/resources/prev/img/cef-fec/images/1232732638116_image21.jpg",
        "http://www.agr.gc.ca/resources/prev/img/cef-fec/images/1232732638116_image22.jpg",
        "http://www.agr.gc.ca/resources/prev/img/cef-fec/images/1232732638116_image23.jpg",
        "http://www.agr.gc.ca/resources/prev/img/cef-fec/images/1232732638116_image24.jpg",
        "http://www.agr.gc.ca/resources/prev/img/cef-fec/images/1232732638116_image26.jpg",
        "http://www.agr.gc.ca/resources/prev/img/cef-fec/images/1232732638116_image27.jpg",
        "http://www.agr.gc.ca/resources/prev/img/cef-fec/images/1232732638116_image29.jpg",
        "http://www.agr.gc.ca/resources/prev/img/cef-fec/images/1232732638116_image30.jpg",
        "http://www.agr.gc.ca/resources/prev/img/cef-fec/images/1232732638116_image31.jpg",
        "http://www.agr.gc.ca/resources/prev/img/cef-fec/images/1232732638116_image32.jpg",
        "http://www.agr.gc.ca/resources/prev/img/cef-fec/images/1232732638116_image33.jpg",
        "http://www.agr.gc.ca/resources/prev/img/cef-fec/images/image1_s.jpg",
        "http://www.agr.gc.ca/resources/prev/img/cef-fec/images/image2_s.jpg",
        "http://www.agr.gc.ca/resources/prev/img/cef-fec/images/image36_s.jpg",
        "http://www.agr.gc.ca/resources/prev/img/cef-fec/images/image3_s.jpg",
        "http://www.agr.gc.ca/resources/prev/img/cef-fec/images/image4_s.jpg",
        "http://www.agr.gc.ca/resources/prev/img/cef-fec/images/image7_s.jpg",
        "http://www.agr.gc.ca/resources/prev/img/cef-fec/images/image8_s.jpg",
        "http://www.agr.gc.ca/resources/prev/img/cef-fec/images/image9_s.jpg",
        "http://www.agr.gc.ca/resources/prev/img/cef-fec/images/image10_s.jpg",
        "http://www.agr.gc.ca/resources/prev/img/cef-fec/images/image34_s.jpg",
        "http://www.agr.gc.ca/resources/prev/img/cef-fec/images/image35_ss.jpg",
        "http://www.agr.gc.ca/resources/prev/img/cef-fec/images/image11_s.jpg",
        "http://www.agr.gc.ca/resources/prev/img/cef-fec/images/image12_s.jpg",
        "http://www.agr.gc.ca/resources/prev/img/cef-fec/images/image13_s.jpg",
        "http://www.agr.gc.ca/resources/prev/img/cef-fec/images/image14_s.jpg",
        "http://www.agr.gc.ca/resources/prev/img/cef-fec/images/image15_s.jpg",
        "http://www.agr.gc.ca/resources/prev/img/cef-fec/images/image16_s.jpg",
        "http://www.agr.gc.ca/resources/prev/img/cef-fec/images/image17_s.jpg",
        "http://www.agr.gc.ca/resources/prev/img/cef-fec/images/image18_s.jpg",
        "http://www.agr.gc.ca/resources/prev/img/cef-fec/images/image19_s.jpg",
        "http://www.agr.gc.ca/resources/prev/img/cef-fec/images/image20_s.jpg",
        "http://www.agr.gc.ca/resources/prev/img/cef-fec/images/image21_s.jpg",
        "http://www.agr.gc.ca/resources/prev/img/cef-fec/images/image22_s.jpg",
        "http://www.agr.gc.ca/resources/prev/img/cef-fec/images/image23_s.jpg",
        "http://www.agr.gc.ca/resources/prev/img/cef-fec/images/image24_s.jpg",
        "http://www.agr.gc.ca/resources/prev/img/cef-fec/images/image26_s.jpg",
        "http://www.agr.gc.ca/resources/prev/img/cef-fec/images/image27_s.jpg",
        "http://www.agr.gc.ca/resources/prev/img/cef-fec/images/image29_s.jpg",
        "http://www.agr.gc.ca/resources/prev/img/cef-fec/images/image30_s.jpg",
        "http://www.agr.gc.ca/resources/prev/img/cef-fec/images/image31_s.jpg",
        "http://www.agr.gc.ca/resources/prev/img/cef-fec/images/image32_s.jpg",
        "http://www.agr.gc.ca/resources/prev/img/cef-fec/images/image33_s.jpg"
    ],
    "managing_branch": "PAB"
}