{
    "dcr_id": "1609252451699",
    "urlEn": [
        "http://multimedia.agr.gc.ca/pack/pdf/greenhouse_vegetable_report_2019-eng.pdf",
        "http://multimedia.agr.gc.ca/pack/img/greenhouse2019_pic1_3-eng.jpg",
        "http://multimedia.agr.gc.ca/pack/img/greenhouse2019_pic1_5-eng.jpg",
        "http://multimedia.agr.gc.ca/pack/img/greenhouse2019_pic1_7-eng.jpg"
    ],
    "urlFr": [
        "http://multimedia.agr.gc.ca/pack/pdf/greenhouse_vegetable_report_2019a-fra.pdf",
        "http://multimedia.agr.gc.ca/pack/img/greenhouse2019a_pic1_3-fra.jpg",
        "http://multimedia.agr.gc.ca/pack/img/greenhouse2019a_pic1_5-fra.jpg",
        "http://multimedia.agr.gc.ca/pack/img/greenhouse2019a_pic1_7-fra.jpg"
    ],
    "managing_branch": "PAB"
}