{
    "dcr_id": "1517425974397",
    "urlEn": [
        "https://www.agr.gc.ca/resources/prod/doc/pdf/a9356-eng.pdf"
    ],
    "urlFr": [
        "https://www.agr.gc.ca/resources/prod/doc/pdf/a9356-fra.pdf"
    ],
    "managing_branch": "PAB"
}