{
    "dcr_id": "1382649715175",
    "urlEn": [
        "https://www.agr.gc.ca/resources/prod/Internet-Internet/MISB-DGSIM/SDAD-DDAS/AG-GA/images/apa_chap2_eng.jpg"
    ],
    "urlFr": [
        "https://www.agr.gc.ca/resources/prod/Internet-Internet/MISB-DGSIM/SDAD-DDAS/AG-GA/images/apa_chap2_fra.jpg"
    ],
    "managing_branch": "MISB"
}