{
    "dcr_id": "1296666632793",
    "urlEn": [
        "https://multimedia.agr.gc.ca/pack/pdf/agriStability_program_appeal_submission_form_2020.pdf"
    ],
    "urlFr": [
        "https://multimedia.agr.gc.ca/pack/pdf/agristability_program_appeal_submission_form_2020-fra.pdf"
    ],
    "managing_branch": "PAB"
}