{
    "dcr_id": "1604606834113",
    "urlEn": [
        "http://multimedia.agr.gc.ca/pack/img/gng_technology_youth_farm_fig1.jpg",
        "http://multimedia.agr.gc.ca/pack/img/gng_technology_youth_farm_fig22.jpg",
        "http://multimedia.agr.gc.ca/pack/img/gng_technology_youth_farm_fig3.jpg",
        "http://multimedia.agr.gc.ca/pack/img/gng_technology_youth_farm_fig4.jpg"
    ],
    "urlFr": [
        "http://multimedia.agr.gc.ca/pack/img/gng_technology_youth_farm_fig1.jpg",
        "http://multimedia.agr.gc.ca/pack/img/gng_technology_youth_farm_fig2.jpg",
        "http://multimedia.agr.gc.ca/pack/img/gng_technology_youth_farm_fig3.jpg",
        "http://multimedia.agr.gc.ca/pack/img/gng_technology_youth_farm_fig4.jpg"
    ],
    "managing_branch": "PAB"
}