{
    "dcr_id": "1398873208356",
    "urlEn": [
        "https://www.agr.gc.ca/resources/prod/doc/pol/grow-croiss/brm-gre/agriinvest/pdf/2013/ai_gf2_con_guide_1-eng.pdf"
    ],
    "urlFr": [
        "https://www.agr.gc.ca/resources/prod/doc/pol/grow-croiss/brm-gre/agriinvest/pdf/2013/ai_gf2_con_guide_1-fra.pdf"
    ],
    "managing_branch": "PAB"
}