{
    "dcr_id": "1578075222866",
    "urlEn": [
        "/resources/prod/dairy/pdf/ap_gen_exportsbeefcattle_e.pdf",
        "/resources/prod/dairy/Images/ap_gen_exportbeefcattle_e.jpg"
    ],
    "urlFr": [
        "/resources/prod/dairy/pdf/ap_gen_exportsbeefcattle_f.pdf",
        "/resources/prod/dairy/Images/ap_gen_exportbeefcattle_f.jpg"
    ],
    "managing_branch": "DAIRY"
}