{
    "dcr_id": "1597863791042",
    "urlEn": [
        "https://multimedia.agr.gc.ca/pack/pdf/fpc_20190614-en.pdf",
        "https://multimedia.agr.gc.ca/pack/img/fpc-small.jpg"
    ],
    "urlFr": [
        "https://multimedia.agr.gc.ca/pack/pdf/20190613-fr.pdf",
        "https://multimedia.agr.gc.ca/pack/img/20190613-fr.jpg"
    ],
    "managing_branch": "PAB"
}