{
    "dcr_id": "1611259080682",
    "urlEn": [
        "http://multimedia.agr.gc.ca/pack/img/gng_west_foodbank_img1.jpg",
        "http://multimedia.agr.gc.ca/pack/img/gng_west_foodbank_img2.jpg"
    ],
    "urlFr": [
        "http://multimedia.agr.gc.ca/pack/img/gng_west_foodbank_img1.jpg",
        "http://multimedia.agr.gc.ca/pack/img/gng_west_foodbank_img2.jpg"
    ],
    "managing_branch": "PAB"
}