{
    "dcr_id": "1517327640597",
    "urlEn": [
        "http://multimedia.agr.gc.ca/pack/pdf/agridivers_paf-fdp_05-2020-eng.pdf"
    ],
    "urlFr": [
        "https://www.agr.gc.ca/resources/prod/doc/pdf/agridiversity_annex_a_2018-fra.pdf",
        "http://multimedia.agr.gc.ca/pack/pdf/agridivers_paf-fdp_05-2020-fra.pdf"
    ],
    "managing_branch": "PAB"
}