{
    "dcr_id": "1503612344518",
    "urlEn": [
        "https://www.agr.gc.ca/resources/prod/img/eval_brm_fig1-eng.jpg",
        "https://www.agr.gc.ca/resources/prod/img/eval_brm_fig2-eng.jpg",
        "https://www.agr.gc.ca/resources/prod/img/eval_brm_fig3-eng.jpg",
        "https://www.agr.gc.ca/resources/prod/img/eval_brm_fig4-eng.jpg",
        "https://www.agr.gc.ca/resources/prod/img/eval_brm_fig5-eng.jpg",
        "https://www.agr.gc.ca/resources/prod/img/eval_brm_fig6-eng.jpg",
        "https://www.agr.gc.ca/resources/prod/img/eval_brm_fig7-eng.jpg",
        "https://www.agr.gc.ca/resources/prod/img/eval_brm_fig8-eng.jpg",
        "https://www.agr.gc.ca/resources/prod/img/eval_brm_fig9-eng.jpg",
        "https://www.agr.gc.ca/resources/prod/img/eval_brm_fig10-eng.jpg",
        "https://www.agr.gc.ca/resources/prod/img/eval_brm_fig11-eng.jpg",
        "https://www.agr.gc.ca/resources/prod/img/eval_brm_fig12-eng.jpg",
        "https://www.agr.gc.ca/resources/prod/img/eval_brm_fig13-eng.jpg",
        "https://www.agr.gc.ca/resources/prod/img/eval_brm_fig14-eng.jpg",
        "https://www.agr.gc.ca/resources/prod/img/eval_brm_fig15-eng.jpg",
        "https://www.agr.gc.ca/resources/prod/img/eval_brm_fig16-eng.jpg",
        "https://www.agr.gc.ca/resources/prod/img/eval_brm_fig17-eng.jpg",
        "https://www.agr.gc.ca/resources/prod/img/eval_brm_fig18-eng.jpg",
        "https://www.agr.gc.ca/resources/prod/img/eval_brm_fig19-eng.jpg",
        "https://www.agr.gc.ca/resources/prod/img/eval_brm_fig20-eng.jpg",
        "https://www.agr.gc.ca/resources/prod/img/eval_brm_fig-21-eng.jpg",
        "https://www.agr.gc.ca/resources/prod/img/eval_brm_fig22-eng.jpg",
        "https://www.agr.gc.ca/resources/prod/img/eval_brm_fig23-eng.jpg",
        "https://www.agr.gc.ca/resources/prod/img/eval_brm_fig24-eng.jpg",
        "https://www.agr.gc.ca/resources/prod/img/eval_brm_fig25-eng.jpg",
        "https://www.agr.gc.ca/resources/prod/img/eval_brm_fig26-eng.jpg",
        "https://www.agr.gc.ca/resources/prod/img/eval_brm_fig27-eng.jpg",
        "https://www.agr.gc.ca/resources/prod/img/eval_brm_fig28-eng.jpg",
        "https://www.agr.gc.ca/resources/prod/img/eval_brm_fig29-eng.jpg",
        "https://www.agr.gc.ca/resources/prod/img/eval_brm_fig30-eng.jpg",
        "https://www.agr.gc.ca/resources/prod/img/eval_brm_fig31-eng.jpg",
        "https://www.agr.gc.ca/resources/prod/img/eval_brm_fig32-eng.jpg",
        "https://www.agr.gc.ca/resources/prod/img/eval_brm_fig33-eng.jpg",
        "https://www.agr.gc.ca/resources/prod/img/eval_brm_fig34-eng.jpg",
        "https://www.agr.gc.ca/resources/prod/img/eval_brm_fig35-eng.jpg",
        "https://www.agr.gc.ca/resources/prod/img/eval_brm_ann-a-eng.jpg"
    ],
    "urlFr": [
        "https://www.agr.gc.ca/resources/prod/img/eval_brm_fig1-fra.jpg",
        "https://www.agr.gc.ca/resources/prod/img/eval_brm_fig2-fra.jpg",
        "https://www.agr.gc.ca/resources/prod/img/eval_brm_fig3-fra.jpg",
        "https://www.agr.gc.ca/resources/prod/img/eval_brm_fig4-fra.jpg",
        "https://www.agr.gc.ca/resources/prod/img/eval_brm_fig5-fra.jpg",
        "https://www.agr.gc.ca/resources/prod/img/eval_brm_fig6-fra.jpg",
        "https://www.agr.gc.ca/resources/prod/img/eval_brm_fig7-fra.jpg",
        "https://www.agr.gc.ca/resources/prod/img/eval_brm_fig8-fra.jpg",
        "https://www.agr.gc.ca/resources/prod/img/eval_brm_fig9-fra.jpg",
        "https://www.agr.gc.ca/resources/prod/img/eval_brm_fig10-fra.jpg",
        "https://www.agr.gc.ca/resources/prod/img/eval_brm_fig11-fra.jpg",
        "https://www.agr.gc.ca/resources/prod/img/eval_brm_fig12-fra.jpg",
        "https://www.agr.gc.ca/resources/prod/img/eval_brm_fig13-fra.jpg",
        "https://www.agr.gc.ca/resources/prod/img/eval_brm_fig14-fra.jpg",
        "https://www.agr.gc.ca/resources/prod/img/eval_brm_fig15-fra.jpg",
        "https://www.agr.gc.ca/resources/prod/img/eval_brm_fig16-fra.jpg",
        "https://www.agr.gc.ca/resources/prod/img/eval_brm_fig17-fra.jpg",
        "https://www.agr.gc.ca/resources/prod/img/eval_brm_fig18-fra.jpg",
        "https://www.agr.gc.ca/resources/prod/img/eval_brm_fig19-fra.jpg",
        "https://www.agr.gc.ca/resources/prod/img/eval_brm_fig20-fra.jpg",
        "https://www.agr.gc.ca/resources/prod/img/eval_brm_fig21-fra.jpg",
        "https://www.agr.gc.ca/resources/prod/img/eval_brm_fig22-fra.jpg",
        "https://www.agr.gc.ca/resources/prod/img/eval_brm_fig23-fra.jpg",
        "https://www.agr.gc.ca/resources/prod/img/eval_brm_fig24-fra.jpg",
        "https://www.agr.gc.ca/resources/prod/img/eval_brm_fig25-fra.jpg",
        "https://www.agr.gc.ca/resources/prod/img/eval_brm_fig26-fra.jpg",
        "https://www.agr.gc.ca/resources/prod/img/eval_brm_fig27-fra.jpg",
        "https://www.agr.gc.ca/resources/prod/img/eval_brm_fig28-fra.jpg",
        "https://www.agr.gc.ca/resources/prod/img/eval_brm_fig29-fra.jpg",
        "https://www.agr.gc.ca/resources/prod/img/eval_brm_fig30-fra.jpg",
        "https://www.agr.gc.ca/resources/prod/img/eval_brm_fig31-fra.jpg",
        "https://www.agr.gc.ca/resources/prod/img/eval_brm_fig32-fra.jpg",
        "https://www.agr.gc.ca/resources/prod/img/eval_brm_fig33-fra.jpg",
        "https://www.agr.gc.ca/resources/prod/img/eval_brm_fig34-fra.jpg",
        "https://www.agr.gc.ca/resources/prod/img/eval_brm_fig35-fra.jpg",
        "https://www.agr.gc.ca/resources/prod/img/eval_brm_ann-a-fra.jpg"
    ],
    "managing_branch": "PAB"
}