{
    "dcr_id": "1464291484565",
    "urlEn": [
        "https://www.agr.gc.ca/resources/prod/img/fdms-smmea_fig1-eng.jpg",
        "https://www.agr.gc.ca/resources/prod/img/fdms-smmea_fig2-eng.jpg",
        "https://www.agr.gc.ca/resources/prod/img/fdms-smmea_fig3-eng.jpg",
        "https://www.agr.gc.ca/resources/prod/img/fdms-smmea_fig4-eng.jpg",
        "https://www.agr.gc.ca/resources/prod/img/fdms-smmea_fig5-eng.jpg",
        "https://www.agr.gc.ca/resources/prod/img/fdms-smmea_fig6-eng.jpg"
    ],
    "urlFr": [
        "https://www.agr.gc.ca/resources/prod/img/fdms-smmea_fig1-fra.jpg",
        "https://www.agr.gc.ca/resources/prod/img/fdms-smmea_fig2-fra.jpg",
        "https://www.agr.gc.ca/resources/prod/img/fdms-smmea_fig3-fra.jpg",
        "https://www.agr.gc.ca/resources/prod/img/fdms-smmea_fig4-fra.jpg",
        "https://www.agr.gc.ca/resources/prod/img/fdms-smmea_fig5-fra.jpg",
        "https://www.agr.gc.ca/resources/prod/img/fdms-smmea_fig6-fra.jpg"
    ],
    "managing_branch": "PAB"
}