{
    "dcr_id": "1565107738567",
    "urlEn": [
        "https://www.agr.gc.ca/resources/prod/img/agri-info/2019-04/agriinfo_4-1.jpg"
    ],
    "urlFr": [
        "https://www.agr.gc.ca/resources/prod/img/agri-info/2019-04/agriinfo_4-1.jpg"
    ],
    "managing_branch": "PAB"
}