{
    "dcr_id": "1595255415719",
    "urlEn": [
        "https://www.agr.gc.ca/resources/prod/Internet-Internet/MISB-DGSIM/ATS-SEA/images/Global-Analysis.jpg",
        "https://www.agr.gc.ca/resources/prod/Internet-Internet/MISB-DGSIM/ATS-SEA/images/10688/organic_trends_corn_soya_wheat_us_canada_01-eng.jpg",
        "https://www.agr.gc.ca/resources/prod/Internet-Internet/MISB-DGSIM/ATS-SEA/images/10688/organic_trends_corn_soya_wheat_us_canada_02-eng.jpg",
        "https://www.agr.gc.ca/resources/prod/Internet-Internet/MISB-DGSIM/ATS-SEA/images/10688/organic_trends_corn_soya_wheat_us_canada_03-eng.jpg",
        "https://www.agr.gc.ca/resources/prod/Internet-Internet/MISB-DGSIM/ATS-SEA/images/10688/organic_trends_corn_soya_wheat_us_canada_04a.jpg",
        "https://www.agr.gc.ca/resources/prod/Internet-Internet/MISB-DGSIM/ATS-SEA/images/10688/organic_trends_corn_soya_wheat_us_canada_04b.jpg",
        "https://www.agr.gc.ca/resources/prod/Internet-Internet/MISB-DGSIM/ATS-SEA/images/10688/organic_trends_corn_soya_wheat_us_canada_04c.jpg",
        "https://www.agr.gc.ca/resources/prod/Internet-Internet/MISB-DGSIM/ATS-SEA/images/10688/organic_trends_corn_soya_wheat_us_canada_04d.jpg",
        "https://www.agr.gc.ca/resources/prod/Internet-Internet/MISB-DGSIM/ATS-SEA/images/10688/organic_trends_corn_soya_wheat_us_canada_04e.jpg",
        "https://www.agr.gc.ca/resources/prod/Internet-Internet/MISB-DGSIM/ATS-SEA/images/10688/organic_trends_corn_soya_wheat_us_canada_04f.jpg"
    ],
    "urlFr": [
        "https://www.agr.gc.ca/resources/prod/Internet-Internet/MISB-DGSIM/ATS-SEA/images/Global-Analysis.jpg",
        "https://www.agr.gc.ca/resources/prod/Internet-Internet/MISB-DGSIM/ATS-SEA/images/10688/organic_trends_corn_soya_wheat_us_canada_01-fra.jpg",
        "https://www.agr.gc.ca/resources/prod/Internet-Internet/MISB-DGSIM/ATS-SEA/images/10688/organic_trends_corn_soya_wheat_us_canada_02-fra.jpg",
        "https://www.agr.gc.ca/resources/prod/Internet-Internet/MISB-DGSIM/ATS-SEA/images/10688/organic_trends_corn_soya_wheat_us_canada_03-fra.jpg",
        "https://www.agr.gc.ca/resources/prod/Internet-Internet/MISB-DGSIM/ATS-SEA/images/10688/organic_trends_corn_soya_wheat_us_canada_04a.jpg",
        "https://www.agr.gc.ca/resources/prod/Internet-Internet/MISB-DGSIM/ATS-SEA/images/10688/organic_trends_corn_soya_wheat_us_canada_04b.jpg",
        "https://www.agr.gc.ca/resources/prod/Internet-Internet/MISB-DGSIM/ATS-SEA/images/10688/organic_trends_corn_soya_wheat_us_canada_04c.jpg",
        "https://www.agr.gc.ca/resources/prod/Internet-Internet/MISB-DGSIM/ATS-SEA/images/10688/organic_trends_corn_soya_wheat_us_canada_04d.jpg",
        "https://www.agr.gc.ca/resources/prod/Internet-Internet/MISB-DGSIM/ATS-SEA/images/10688/organic_trends_corn_soya_wheat_us_canada_04e.jpg",
        "https://www.agr.gc.ca/resources/prod/Internet-Internet/MISB-DGSIM/ATS-SEA/images/10688/organic_trends_corn_soya_wheat_us_canada_04f.jpg"
    ],
    "managing_branch": "MISB"
}