{
    "dcr_id": "1501890793620",
    "urlEn": [
        "https://www.agr.gc.ca/resources/prod/doc/pdf/VegRep_2016-eng.pdf",
        "https://www.agr.gc.ca/resources/prod/img/veg2016_fig1.4-eng.jpg",
        "https://www.agr.gc.ca/resources/prod/img/veg2016_fig1.7-eng.jpg",
        "https://www.agr.gc.ca/resources/prod/img/veg2016_fig1.9-eng.jpg",
        "https://www.agr.gc.ca/resources/prod/img/veg2016_fig1.11-eng.jpg",
        "https://www.agr.gc.ca/resources/prod/img/veg2016_fig1.14-eng.jpg",
        "https://www.agr.gc.ca/resources/prod/img/veg2016_fig1.17-eng.jpg",
        "https://www.agr.gc.ca/resources/prod/img/veg2016_fig2.1-eng.jpg",
        "https://www.agr.gc.ca/resources/prod/img/veg2016_fig2.2-eng.jpg",
        "https://www.agr.gc.ca/resources/prod/img/veg2016_fig2.4-eng.jpg"
    ],
    "urlFr": [
        "https://www.agr.gc.ca/resources/prod/doc/pdf/VegRep_2016-fr.pdf",
        "https://www.agr.gc.ca/resources/prod/img/veg2016_fig1.4-fra.jpg",
        "https://www.agr.gc.ca/resources/prod/img/veg2016_fig1.7-fra.jpg",
        "https://www.agr.gc.ca/resources/prod/img/veg2016_fig1.9-fra.jpg",
        "https://www.agr.gc.ca/resources/prod/img/veg2016_fig1.11-fra.jpg",
        "https://www.agr.gc.ca/resources/prod/img/veg2016_fig1.14-fra.jpg",
        "https://www.agr.gc.ca/resources/prod/img/veg2016_fig1.17-fra.jpg",
        "https://www.agr.gc.ca/resources/prod/img/veg2016_fig2.1-fra.jpg",
        "https://www.agr.gc.ca/resources/prod/img/veg2016_fig2.2-fra.jpg",
        "https://www.agr.gc.ca/resources/prod/img/veg2016_fig2.4-fra.jpg"
    ],
    "managing_branch": "PAB"
}