{
    "dcr_id": "1560870906675",
    "urlEn": [
        "https://www.agr.gc.ca/resources/prod/img/cb/images/1560870906675_agroclimate_fig1-eng.jpg",
        "https://www.agr.gc.ca/resources/prod/img/cb/images/1560870906675_agroclimate_fig2.jpg",
        "https://www.agr.gc.ca/resources/prod/img/cb/images/1560870906675_agroclimate_fig3.jpg"
    ],
    "urlFr": [
        "https://www.agr.gc.ca/resources/prod/img/cb/images/1560870906675_agroclimate_fig1-fra.jpg",
        "https://www.agr.gc.ca/resources/prod/img/cb/images/1560870906675_agroclimate_fig2.jpg",
        "https://www.agr.gc.ca/resources/prod/img/cb/images/1560870906675_agroclimate_fig3.jpg"
    ],
    "managing_branch": "PAB"
}