{
    "dcr_id": "1517602488706",
    "urlEn": [
        "http://www.agr.gc.ca/resources/prev/doc/pdf/a9356-eng.pdf"
    ],
    "urlFr": [
        "http://www.agr.gc.ca/resources/prev/doc/pdf/a9356-fra.pdf"
    ],
    "managing_branch": "PAB"
}