{
    "dcr_id": "1553020651320",
    "urlEn": [
        "https://www.agr.gc.ca/resources/prod/img/science/images/13822/pm_fig1_01.jpg",
        "https://www.agr.gc.ca/resources/prod/img/science/images/13822/pm_fig2_01_eng.jpg",
        "https://www.agr.gc.ca/resources/prod/img/science/images/13822/pm_fig3_01_eng.jpg",
        "https://www.agr.gc.ca/resources/prod/img/science/images/13822/pm_fig4_01.jpg",
        "https://www.agr.gc.ca/resources/prod/img/science/images/13822/pm_fig5_01.jpg",
        "https://www.agr.gc.ca/resources/prod/img/science/images/13822/pm_fig5_02.jpg",
        "https://www.agr.gc.ca/resources/prod/img/science/images/13822/pm_fig6_01_eng.jpg",
        "https://www.agr.gc.ca/resources/prod/img/science/images/13822/pm_fig7_01.jpg"
    ],
    "urlFr": [
        "https://www.agr.gc.ca/resources/prod/img/science/images/13822/pm_fig1_01.jpg",
        "https://www.agr.gc.ca/resources/prod/img/science/images/13822/pm_fig2_01_fra.jpg",
        "https://www.agr.gc.ca/resources/prod/img/science/images/13822/pm_fig3_01_fra.jpg",
        "https://www.agr.gc.ca/resources/prod/img/science/images/13822/pm_fig4_01.jpg",
        "https://www.agr.gc.ca/resources/prod/img/science/images/13822/pm_fig5_01.jpg",
        "https://www.agr.gc.ca/resources/prod/img/science/images/13822/pm_fig5_02.jpg",
        "https://www.agr.gc.ca/resources/prod/img/science/images/13822/pm_fig6_01_fra.jpg",
        "https://www.agr.gc.ca/resources/prod/img/science/images/13822/pm_fig7_01.jpg"
    ],
    "managing_branch": "PAB"
}