{
    "dcr_id": "1598970992097",
    "urlEn": [
        "https://multimedia.agr.gc.ca/pack/img/fsds_climate.gif",
        "https://multimedia.agr.gc.ca/pack/img/fsds_greengovt.gif",
        "https://multimedia.agr.gc.ca/pack/img/fsds_sustainfood.gif"
    ],
    "urlFr": [
        "https://multimedia.agr.gc.ca/pack/img/fsds_climate.gif",
        "https://multimedia.agr.gc.ca/pack/img/fsds_greengovt.gif",
        "https://multimedia.agr.gc.ca/pack/img/fsds_sustainfood.gif"
    ],
    "managing_branch": "PAB"
}