{
    "dcr_id": "1616184361854",
    "urlEn": [
        "http://multimedia.agr.gc.ca/pack/img/banner_goyer_profile_header-en.jpg",
        "http://multimedia.agr.gc.ca/pack/img/avatar_claudia_goyer.jpg",
        "http://multimedia.agr.gc.ca/pack/img/savard_blue_green.jpg",
        "http://multimedia.agr.gc.ca/pack/img/cloutier_blue_green.jpg",
        "https://www.agr.gc.ca/resources/prev/img/science/images/agawareness/profile_feature_home_button.jpg"
    ],
    "urlFr": [
        "http://multimedia.agr.gc.ca/pack/img/banner_goyer_profile_header-fr.jpg",
        "http://multimedia.agr.gc.ca/pack/img/avatar_claudia_goyer.jpg",
        "http://multimedia.agr.gc.ca/pack/img/savard_blue_green.jpg",
        "http://multimedia.agr.gc.ca/pack/img/cloutier_blue_green.jpg",
        "https://www.agr.gc.ca/resources/prev/img/science/images/agawareness/profile_feature_home_button.jpg"
    ],
    "managing_branch": "PAB"
}