{
    "dcr_id": "1592826828541",
    "urlEn": [
        "https://www.agr.gc.ca/resources/prod/Internet-Internet/MISB-DGSIM/ATS-SEA/images/Global-Analysis.jpg",
        "https://www.agr.gc.ca/resources/prod/Internet-Internet/MISB-DGSIM/ATS-SEA/images/10548/foodservice_thailand_01-eng.jpg",
        "https://www.agr.gc.ca/resources/prod/Internet-Internet/MISB-DGSIM/ATS-SEA/images/10548/foodservice_thailand_02-eng.jpg"
    ],
    "urlFr": [
        "https://www.agr.gc.ca/resources/prod/Internet-Internet/MISB-DGSIM/ATS-SEA/images/Global-Analysis.jpg",
        "https://www.agr.gc.ca/resources/prod/Internet-Internet/MISB-DGSIM/ATS-SEA/images/10548/foodservice_thailand_01-fra.jpg",
        "https://www.agr.gc.ca/resources/prod/Internet-Internet/MISB-DGSIM/ATS-SEA/images/10548/foodservice_thailand_02-fra.jpg"
    ],
    "managing_branch": "MISB"
}