{
    "dcr_id": "1609799994674",
    "urlEn": [
        "https://multimedia.agr.gc.ca/pack/pdf/dp-pm_2021-22-eng.pdf",
        "https://multimedia.agr.gc.ca/pack/img/dp-pm_2021-22_marie_claude_bibeau.jpg",
        "https://multimedia.agr.gc.ca/pack/img/dp-pm_2021-22_img1.jpg",
        "https://multimedia.agr.gc.ca/pack/img/dp-pm_2021-22_img2.jpg",
        "https://multimedia.agr.gc.ca/pack/img/dp-pm_2021-22_img3.jpg",
        "https://multimedia.agr.gc.ca/pack/img/dp-pm_2021-22_img4.jpg",
        "https://multimedia.agr.gc.ca/pack/img/dp-pm_2021-22_img5-eng.jpg",
        "https://multimedia.agr.gc.ca/pack/img/dp-pm_2021-22_img6.jpg",
        "https://multimedia.agr.gc.ca/pack/img/dp-pm_2021-22_img7.jpg",
        "https://multimedia.agr.gc.ca/pack/img/dp-pm_2021-22_img8.jpg",
        "https://multimedia.agr.gc.ca/pack/img/dp-pm_2021-22_img9.jpg",
        "https://multimedia.agr.gc.ca/pack/img/dp-pm_2021-22_img10.jpg",
        "https://multimedia.agr.gc.ca/pack/img/dp-pm_2021-22_fig1-eng.jpg"
    ],
    "urlFr": [
        "https://multimedia.agr.gc.ca/pack/pdf/dp-pm_2021-22-fra.pdf",
        "https://multimedia.agr.gc.ca/pack/img/dp-pm_2021-22_marie_claude_bibeau.jpg",
        "https://multimedia.agr.gc.ca/pack/img/dp-pm_2021-22_img1.jpg",
        "https://multimedia.agr.gc.ca/pack/img/dp-pm_2021-22_img2.jpg",
        "https://multimedia.agr.gc.ca/pack/img/dp-pm_2021-22_img3.jpg",
        "https://multimedia.agr.gc.ca/pack/img/dp-pm_2021-22_img4.jpg",
        "https://multimedia.agr.gc.ca/pack/img/dp-pm_2021-22_img5-eng.jpg",
        "https://multimedia.agr.gc.ca/pack/img/dp-pm_2021-22_img6.jpg",
        "https://multimedia.agr.gc.ca/pack/img/dp-pm_2021-22_img7.jpg",
        "https://multimedia.agr.gc.ca/pack/img/dp-pm_2021-22_img8.jpg",
        "https://multimedia.agr.gc.ca/pack/img/dp-pm_2021-22_img9.jpg",
        "https://multimedia.agr.gc.ca/pack/img/dp-pm_2021-22_img10.jpg",
        "https://multimedia.agr.gc.ca/pack/img/dp-pm_2021-22_fig1-fra.jpg"
    ],
    "managing_branch": "PAB"
}