{
    "dcr_id": "1597858160271",
    "urlEn": [
        "https://multimedia.agr.gc.ca/pack/img/fpc.jpg"
    ],
    "urlFr": [
        "https://multimedia.agr.gc.ca/pack/img/fpc.jpg"
    ],
    "managing_branch": "PAB"
}