{
    "dcr_id": "1538481990458",
    "urlEn": [
        "https://www.agr.gc.ca/resources/prod/img/prog/1522073268316-image-eng.jpg"
    ],
    "urlFr": [
        "https://www.agr.gc.ca/resources/prod/img/prog/1522073268316-image-fra.jpg"
    ],
    "managing_branch": "PAB"
}