{
    "dcr_id": "1588862952557",
    "urlEn": [
        "https://www.ccohs.ca/images/products/infographics/download/hierarchy-covid.png"
    ],
    "urlFr": [
        "https://www.cchst.ca/images/products/infographics/download/hierarchy-covid.png"
    ],
    "managing_branch": "PAB"
}