{
    "dcr_id": "1510758382075",
    "urlEn": [
        "https://www.agr.gc.ca/resources/prod/doc/pdf/psrr/continuous_improvement_cards_cartes_amelioration_continue-eng.pdf",
        "https://www.agr.gc.ca/resources/prod/img/psrr/continuous_improvement1.jpg",
        "https://www.agr.gc.ca/resources/prod/img/psrr/define_1.jpg",
        "https://www.agr.gc.ca/resources/prod/img/psrr/measure_1.jpg",
        "https://www.agr.gc.ca/resources/prod/img/psrr/analyze_1.jpg",
        "https://www.agr.gc.ca/resources/prod/img/psrr/improve_1.jpg",
        "https://www.agr.gc.ca/resources/prod/img/psrr/control_1.jpg"
    ],
    "urlFr": [
        "https://www.agr.gc.ca/resources/prod/doc/pdf/psrr/continuous_improvement_cards_cartes_amelioration_continue-eng.pdf",
        "https://www.agr.gc.ca/resources/prod/img/psrr/amelioration_continue1.jpg",
        "https://www.agr.gc.ca/resources/prod/img/psrr/definir.jpg",
        "https://www.agr.gc.ca/resources/prod/img/psrr/mesurer.jpg",
        "https://www.agr.gc.ca/resources/prod/img/psrr/analyser.jpg",
        "https://www.agr.gc.ca/resources/prod/img/psrr/ameliorer.jpg",
        "https://www.agr.gc.ca/resources/prod/img/psrr/controler.jpg"
    ],
    "managing_branch": "PAB"
}