{
    "dcr_id": "1581621659357",
    "urlEn": [
        "https://www.agr.gc.ca/resources/prod/doc/pdf/third_qrtly_fin_report_2019-20-eng.pdf"
    ],
    "urlFr": [
        "https://www.agr.gc.ca/resources/prod/doc/pdf/tr_qrtly_fin_report_2019-20-fra.pdf"
    ],
    "managing_branch": "PAB"
}