{
    "dcr_id": "1613154709300",
    "urlEn": [
        "https://www.agr.gc.ca/resources/prod/Internet-Internet/MISB-DGSIM/ATS-SEA/images/lightfoot_and_wolfville.jpg"
    ],
    "urlFr": [
        "https://www.agr.gc.ca/resources/prod/Internet-Internet/MISB-DGSIM/ATS-SEA/images/lightfoot_and_wolfville.jpg"
    ],
    "managing_branch": "MISB"
}