{
    "dcr_id": "1601410134587",
    "urlEn": [
        "http://multimedia.agr.gc.ca/pack/img/podcast_sm.jpg"
    ],
    "urlFr": [
        "http://multimedia.agr.gc.ca/pack/img/podcast_sm.jpg"
    ],
    "managing_branch": "PAB"
}