{
    "dcr_id": "1624292833351",
    "urlEn": [
        "http://multimedia.agr.gc.ca/pack/img/food_waste_reduction_page_article-en.jpg"
    ],
    "urlFr": [
        "http://multimedia.agr.gc.ca/pack/img/food_waste_reduction_page_article-fr.jpg"
    ],
    "managing_branch": "PAB"
}