{
    "dcr_id": "1187631191985",
    "urlEn": [
        "https://www.agr.gc.ca/resources/prod/doc/terr/pdf/Riparian_eng.pdf",
        "https://www.agr.gc.ca/resources/prod/img/terr/images/RiparianAreaManagement1.JPG",
        "https://www.agr.gc.ca/resources/prod/img/terr/images/RiparianAreaManagement2.JPG",
        "https://www.agr.gc.ca/resources/prod/img/terr/images/RiparianAreaManagement3.JPG"
    ],
    "urlFr": [
        "https://www.agr.gc.ca/resources/prod/doc/terr/pdf/Riveraines_fra.pdf",
        "https://www.agr.gc.ca/resources/prod/img/terr/images/RiparianAreaManagement1.JPG",
        "https://www.agr.gc.ca/resources/prod/img/terr/images/RiparianAreaManagement2.JPG",
        "https://www.agr.gc.ca/resources/prod/img/terr/images/RiparianAreaManagement3.JPG"
    ],
    "managing_branch": "PAB"
}