{
    "dcr_id": "1517354758047",
    "urlEn": [
        "https://www.agr.gc.ca/resources/prod/img/science/prc-crpt/ar2018-08.jpg"
    ],
    "urlFr": [
        "https://www.agr.gc.ca/resources/prod/img/science/prc-crpt/ar2018-08.jpg"
    ],
    "managing_branch": "PAB"
}