{
    "dcr_id": "1572991740531",
    "urlEn": [
        "https://www.agr.gc.ca/resources/prod/doc/pdf/aafc_fin_stat_2019-eng.pdf"
    ],
    "urlFr": [
        "https://www.agr.gc.ca/resources/prod/doc/pdf/aafc_fin_stat_2019v2-fra.pdf"
    ],
    "managing_branch": "PAB"
}