{
    "dcr_id": "1557330057050",
    "urlEn": [
        "https://www.agr.gc.ca/resources/prod/Internet-Internet/MISB-DGSIM/ATS-SEA/images/Global-Analysis.jpg",
        "https://www.agr.gc.ca/resources/prod/Internet-Internet/MISB-DGSIM/ATS-SEA/images/8955/sta_fish_seafood_germany_01a.jpg",
        "https://www.agr.gc.ca/resources/prod/Internet-Internet/MISB-DGSIM/ATS-SEA/images/8955/sta_fish_seafood_germany_01b.jpg",
        "https://www.agr.gc.ca/resources/prod/Internet-Internet/MISB-DGSIM/ATS-SEA/images/8955/sta_fish_seafood_germany_01c.jpg"
    ],
    "urlFr": [
        "https://www.agr.gc.ca/resources/prod/Internet-Internet/MISB-DGSIM/ATS-SEA/images/Global-Analysis.jpg",
        "https://www.agr.gc.ca/resources/prod/Internet-Internet/MISB-DGSIM/ATS-SEA/images/8955/sta_fish_seafood_germany_01a.jpg",
        "https://www.agr.gc.ca/resources/prod/Internet-Internet/MISB-DGSIM/ATS-SEA/images/8955/sta_fish_seafood_germany_01b.jpg",
        "https://www.agr.gc.ca/resources/prod/Internet-Internet/MISB-DGSIM/ATS-SEA/images/8955/sta_fish_seafood_germany_01c.jpg"
    ],
    "managing_branch": "MISB"
}