{
    "dcr_id": "1576694596902",
    "urlEn": [
        "https://www.agr.gc.ca/resources/prod/doc/prog/pdf/agririsk_acb_proj_summ_form-en.pdf"
    ],
    "urlFr": [
        "https://www.agr.gc.ca/resources/prod/doc/prog/pdf/agririsk_acb_proj_summ_form-fr.pdf"
    ],
    "managing_branch": "PAB"
}