{
    "dcr_id": "1580134069967",
    "urlEn": [
        "https://www.agr.gc.ca/resources/prod/img/science/images/agawareness/profileheader_charlesforney-eng.jpg",
        "https://www.agr.gc.ca/resources/prod/img/science/images/agawareness/avatars-charlesforney.png",
        "https://www.agr.gc.ca/resources/prod/img/science/images/agawareness/profile_feature_helentai.jpg",
        "https://www.agr.gc.ca/resources/prod/img/science/images/agawareness/profile_feature_josetorres.jpg",
        "https://www.agr.gc.ca/resources/prod/img/science/images/agawareness/profile_feature_home_button.jpg"
    ],
    "urlFr": [
        "https://www.agr.gc.ca/resources/prod/img/science/images/agawareness/profileheader_charlesforney-fra.jpg",
        "https://www.agr.gc.ca/resources/prod/img/science/images/agawareness/avatars_charlesforney_lesswhite.png",
        "https://www.agr.gc.ca/resources/prod/img/science/images/agawareness/profile_feature_helentai.jpg",
        "https://www.agr.gc.ca/resources/prod/img/science/images/agawareness/profile_feature_josetorres.jpg",
        "https://www.agr.gc.ca/resources/prod/img/science/images/agawareness/profile_feature_home_button.jpg"
    ],
    "managing_branch": "PAB"
}