{
    "dcr_id": "1461692880383",
    "urlEn": [
        "https://www.agr.gc.ca/resources/prod/doc/pdf/A6175-E.pdf"
    ],
    "urlFr": [
        "https://www.agr.gc.ca/resources/prod/doc/pdf/A6175-F.pdf"
    ],
    "managing_branch": "PAB"
}