{
    "dcr_id": "1370370434529",
    "urlEn": [
        "https://www.agr.gc.ca/resources/prod/img/water-eau/pdgt_fig3-eng.jpg",
        "https://www.agr.gc.ca/resources/prod/img/water-eau/pdgt_photo2.jpg",
        "https://www.agr.gc.ca/resources/prod/img/water-eau/pdgt_photo3.jpg",
        "https://www.agr.gc.ca/resources/prod/img/water-eau/pdgt_photo4.jpg"
    ],
    "urlFr": [
        "https://www.agr.gc.ca/resources/prod/img/water-eau/pdgt_fig3-fra.jpg",
        "https://www.agr.gc.ca/resources/prod/img/water-eau/pdgt_photo2.jpg",
        "https://www.agr.gc.ca/resources/prod/img/water-eau/pdgt_photo3.jpg",
        "https://www.agr.gc.ca/resources/prod/img/water-eau/pdgt_photo4.jpg"
    ],
    "managing_branch": "PAB"
}