{
    "dcr_id": "1578424318215",
    "urlEn": [
        "https://www.agr.gc.ca/resources/prod/img/agri-info/2020-01/living_laboratories.jpg"
    ],
    "urlFr": [
        "https://www.agr.gc.ca/resources/prod/img/agri-info/2020-01/living_laboratories.jpg"
    ],
    "managing_branch": "PAB"
}