{
    "dcr_id": "1481118863319",
    "urlEn": [
        "https://www.agr.gc.ca/resources/prod/doc/pol/grow-croiss/brm-gre/agrista/pdf/2017/as_ai_2017_stat_b-eng.pdf"
    ],
    "urlFr": [
        "https://www.agr.gc.ca/resources/prod/doc/pol/grow-croiss/brm-gre/agrista/pdf/2017/2017_corp_form_statement_b_may2018-fra.pdf"
    ],
    "managing_branch": "PAB"
}