{
    "dcr_id": "1517354142794",
    "urlEn": [
        "https://www.agr.gc.ca/resources/prod/img/science/prc-crpt/ar2018-04.jpg"
    ],
    "urlFr": [
        "https://www.agr.gc.ca/resources/prod/img/science/prc-crpt/ar2018-04.jpg"
    ],
    "managing_branch": "PAB"
}