{
    "dcr_id": "1557418559640",
    "urlEn": [
        "https://www.agr.gc.ca/resources/prod/img/agri-info/2019-04/agriinfo_4-2.jpg"
    ],
    "urlFr": [
        "https://www.agr.gc.ca/resources/prod/img/agri-info/2019-04/agriinfo_4-2.jpg"
    ],
    "managing_branch": "PAB"
}