{
    "dcr_id": "1580488832794",
    "urlEn": [
        "https://www.agr.gc.ca/resources/prod/img/cb/images/quinoa_fig1.jpg",
        "https://www.agr.gc.ca/resources/prod/img/cb/images/quinoa_fig2.jpg",
        "https://www.agr.gc.ca/resources/prod/img/cb/images/quinoa_fig3.jpg"
    ],
    "urlFr": [
        "https://www.agr.gc.ca/resources/prod/img/cb/images/quinoa_fig1.jpg",
        "https://www.agr.gc.ca/resources/prod/img/cb/images/quinoa_fig2.jpg",
        "https://www.agr.gc.ca/resources/prod/img/cb/images/quinoa_fig3.jpg"
    ],
    "managing_branch": "PAB"
}