{
    "dcr_id": "1557422473177",
    "urlEn": [
        "https://www.agr.gc.ca/resources/prod/img/agri-info/2019-04/agriinfo_4-5.jpg"
    ],
    "urlFr": [
        "https://www.agr.gc.ca/resources/prod/img/agri-info/2019-04/agriinfo_4-5.jpg"
    ],
    "managing_branch": "PAB"
}