{
    "dcr_id": "1189697135106",
    "title": {
        "en": "Polishing Methods: Distillation and Reverse Osmosis ",
        "fr": "Opérations de polissage : Distillation et osmose inverse "
    },
    "modified": "2020-01-31",
    "issued": "2009-01-26",
    "templatetype": "content page 1 column",
    "page_type": "0",
    "node_id": "1406207811914",
    "dc_date_created": "2009-01-26",
    "managing_branch": "PAB",
    "parent_node_id": "",
    "label": {
        "en": "Polishing Methods: Distillation and Reverse Osmosis ",
        "fr": "Opérations de polissage : Distillation et osmose inverse "
    },
    "exturl": "",
    "teamsite_location": {
        "en": "/default/main/AAFC-AAC/Internet-Internet/Common-Commun/WORKAREA/Common-Commun/templatedata/comm-comm/gene-gene/data/09/land_water_polishing_1189697135106_en",
        "fr": "/default/main/AAFC-AAC/Internet-Internet/Common-Commun/WORKAREA/Common-Commun/templatedata/comm-comm/gene-gene/data/09/land_water_polishing_1189697135106_fr"
    },
    "type_name": "comm-comm/gene-gene",
    "has_dcr_id": true,
    "breadcrumb": {
        "en": "Polishing Methods: Distillation and Reverse Osmosis ",
        "fr": "Opérations de polissage : Distillation et osmose inverse "
    },
    "layout_name": "content page 1 column",
    "lang": "en"
}