{
    "dcr_id": "1190147859043",
    "title": {
        "en": "Archived content - Peppers - Post-Harvest Handling and Storage",
        "fr": "Contenu archivé - Piments : manipulation et entreposage après la récolte"
    },
    "modified": "2007-10-04",
    "issued": "2009-01-28",
    "templatetype": "content page 2 columns",
    "page_type": "0",
    "node_id": "1354137773675",
    "dc_date_created": "2009-01-28",
    "managing_branch": "PAB",
    "parent_node_id": "",
    "label": {
        "en": "Archived content - Peppers - Post-Harvest Handling and Storage",
        "fr": "Contenu archivé - Piments : manipulation et entreposage après la récolte"
    },
    "exturl": "",
    "teamsite_location": {
        "en": "/default/main/AAFC-AAC/Internet-Internet/Group-Ensemble/ProgServ-ProgServ/WORKAREA/ProgServ-ProgServ/templatedata/comm-comm/gene-gene/data/09/csidc-crdi_pub_pepper-piment_1190147859043_en",
        "fr": "/default/main/AAFC-AAC/Internet-Internet/Group-Ensemble/ProgServ-ProgServ/WORKAREA/ProgServ-ProgServ/templatedata/comm-comm/gene-gene/data/09/csidc-crdi_pub_pepper-piment_1190147859043_fr"
    },
    "type_name": "comm-comm/gene-gene",
    "has_dcr_id": true,
    "breadcrumb": {
        "en": "Archived content - Peppers - Post-Harvest Handling and Storage",
        "fr": "Contenu archivé - Piments : manipulation et entreposage après la récolte"
    },
    "layout_name": "content page 2 columns",
    "lang": "en"
}