{
    "dcr_id": "1197406160572",
    "title": {
        "en": "About the Accelerated Release Program",
        "fr": "À propos du Programme de mise en circulation accélérée"
    },
    "modified": "2020-01-31",
    "issued": "2009-05-04",
    "templatetype": "content page 1 column",
    "page_type": "0",
    "node_id": "1366840625411",
    "dc_date_created": "2009-05-04",
    "managing_branch": "PAB",
    "parent_node_id": "",
    "label": {
        "en": "About the Accelerated Release Program",
        "fr": "À propos du Programme de mise en circulation accélérée"
    },
    "exturl": "",
    "teamsite_location": {
        "en": "/default/main/AAFC-AAC/Internet-Internet/Common-Commun/WORKAREA/Common-Commun/templatedata/comm-comm/gene-gene/data/12/accelerated_release_program_1197406160572_en",
        "fr": "/default/main/AAFC-AAC/Internet-Internet/Common-Commun/WORKAREA/Common-Commun/templatedata/comm-comm/gene-gene/data/12/accelerated_release_program_1197406160572_fr"
    },
    "type_name": "comm-comm/gene-gene",
    "has_dcr_id": true,
    "breadcrumb": {
        "en": "About the Accelerated Release Program",
        "fr": "À propos du Programme de mise en circulation accélérée"
    },
    "layout_name": "content page 1 column",
    "lang": "en"
}