{
    "dcr_id": "1198883715612",
    "title": {
        "en": "Iron Chlorosis of Trees and Shrubs",
        "fr": "Chlorose ferrique des arbres et arbustes"
    },
    "modified": "2020-01-24",
    "issued": "2009-02-24",
    "templatetype": "content page 1 column",
    "page_type": "0",
    "node_id": "1354137773743",
    "dc_date_created": "2009-02-24",
    "managing_branch": "PAB",
    "parent_node_id": "",
    "label": {
        "en": "Iron Chlorosis of Trees and Shrubs",
        "fr": "Chlorose ferrique des arbres et arbustes"
    },
    "exturl": "",
    "teamsite_location": {
        "en": "/default/main/AAFC-AAC/Internet-Internet/Common-Commun/WORKAREA/Common-Commun/templatedata/comm-comm/gene-gene/data/12/pfra_org_iron_chlorosis_1198883715612_en",
        "fr": "/default/main/AAFC-AAC/Internet-Internet/Common-Commun/WORKAREA/Common-Commun/templatedata/comm-comm/gene-gene/data/12/pfra_org_iron_chlorosis_1198883715612_fr"
    },
    "type_name": "comm-comm/gene-gene",
    "has_dcr_id": true,
    "breadcrumb": {
        "en": "Iron Chlorosis of Trees and Shrubs",
        "fr": "Chlorose ferrique des arbres et arbustes"
    },
    "layout_name": "content page 1 column",
    "lang": "en"
}