{
    "dcr_id": "1198183048120",
    "title": {
        "en": "Cooley Spruce Gall Adelgid",
        "fr": "Puceron de l'épinette de Sitka"
    },
    "modified": "2020-01-24",
    "issued": "2009-05-04",
    "templatetype": "content page 1 column",
    "page_type": "0",
    "node_id": "1354137773743",
    "dc_date_created": "2009-05-04",
    "managing_branch": "PAB",
    "parent_node_id": "",
    "label": {
        "en": "Cooley Spruce Gall Adelgid",
        "fr": "Puceron de l'épinette de Sitka"
    },
    "exturl": "",
    "teamsite_location": {
        "en": "/default/main/AAFC-AAC/Internet-Internet/Common-Commun/WORKAREA/Common-Commun/templatedata/comm-comm/gene-gene/data/12/pfra_org_cooley_1198183048120_en",
        "fr": "/default/main/AAFC-AAC/Internet-Internet/Common-Commun/WORKAREA/Common-Commun/templatedata/comm-comm/gene-gene/data/12/pfra_org_cooley_1198183048120_fr"
    },
    "type_name": "comm-comm/gene-gene",
    "has_dcr_id": true,
    "breadcrumb": {
        "en": "Cooley Spruce Gall Adelgid",
        "fr": "Puceron de l'épinette de Sitka"
    },
    "layout_name": "content page 1 column",
    "lang": "en"
}