{
    "dcr_id": "1198181051536",
    "title": {
        "en": "Cankerworm (Spring and Fall) ",
        "fr": "Arpenteuse (printemps et automne)"
    },
    "modified": "2014-06-10",
    "issued": "2009-05-04",
    "templatetype": "content page 1 column",
    "page_type": "0",
    "node_id": "1354137773743",
    "dc_date_created": "2009-05-04",
    "managing_branch": "PAB",
    "parent_node_id": "",
    "label": {
        "en": "Cankerworm (Spring and Fall) ",
        "fr": "Arpenteuse (printemps et automne)"
    },
    "exturl": "",
    "teamsite_location": {
        "en": "/default/main/AAFC-AAC/Internet-Internet/Common-Commun/WORKAREA/Common-Commun/templatedata/comm-comm/gene-gene/data/12/pfra_org_cankerworm_1198181051536_en",
        "fr": "/default/main/AAFC-AAC/Internet-Internet/Common-Commun/WORKAREA/Common-Commun/templatedata/comm-comm/gene-gene/data/12/pfra_org_cankerworm_1198181051536_fr"
    },
    "type_name": "comm-comm/gene-gene",
    "has_dcr_id": true,
    "breadcrumb": {
        "en": "Cankerworm (Spring and Fall) ",
        "fr": "Arpenteuse (printemps et automne)"
    },
    "layout_name": "content page 1 column",
    "lang": "en"
}