{
    "dcr_id": "1203472982269",
    "title": {
        "en": "6. Financial Offer",
        "fr": "6. Exigences relatives à l'offre financière"
    },
    "modified": "2020-01-31",
    "issued": "2009-02-24",
    "templatetype": "content page 1 column",
    "page_type": "0",
    "node_id": "1366840550824",
    "dc_date_created": "2009-02-24",
    "managing_branch": "PAB",
    "parent_node_id": "",
    "label": {
        "en": "6. Financial Offer",
        "fr": "6. Exigences relatives à l'offre financière"
    },
    "exturl": "",
    "teamsite_location": {
        "en": "/default/main/AAFC-AAC/Internet-Internet/Common-Commun/WORKAREA/Common-Commun/templatedata/comm-comm/gene-gene/data/02/variety_request_fin_offer_1203472982269_en",
        "fr": "/default/main/AAFC-AAC/Internet-Internet/Common-Commun/WORKAREA/Common-Commun/templatedata/comm-comm/gene-gene/data/02/variety_request_fin_offer_1203472982269_fr"
    },
    "type_name": "comm-comm/gene-gene",
    "has_dcr_id": true,
    "breadcrumb": {
        "en": "6. Financial Offer",
        "fr": "6. Exigences relatives à l'offre financière"
    },
    "layout_name": "content page 1 column",
    "lang": "en"
}