{
    "dcr_id": "1238524974996",
    "title": {
        "en": "What is Hydroponics?",
        "fr": "Qu'est-ce que la culture hydroponique?"
    },
    "modified": "2017-03-29",
    "issued": "2009-04-08",
    "templatetype": "content page 1 column",
    "page_type": "0",
    "node_id": "1378999410478",
    "dc_date_created": "2009-04-08",
    "managing_branch": "PAB",
    "parent_node_id": "",
    "label": {
        "en": "What is Hydroponics?",
        "fr": "Qu'est-ce que la culture hydroponique?"
    },
    "exturl": "",
    "teamsite_location": {
        "en": "/default/main/AAFC-AAC/Internet-Internet/Common-Commun/WORKAREA/Common-Commun/templatedata/comm-comm/gene-gene/data/03/st_cr_science_explained_1238524974996_en",
        "fr": "/default/main/AAFC-AAC/Internet-Internet/Common-Commun/WORKAREA/Common-Commun/templatedata/comm-comm/gene-gene/data/03/st_cr_science_explained_1238524974996_fr"
    },
    "type_name": "comm-comm/gene-gene",
    "has_dcr_id": true,
    "breadcrumb": {
        "en": "What is Hydroponics?",
        "fr": "Qu'est-ce que la culture hydroponique?"
    },
    "layout_name": "content page 1 column",
    "lang": "en"
}