{
    "dcr_id": "1247678986193",
    "title": {
        "en": "Archived content - An Integrated Approach to Manage Ascochyta Blight in Chickpea",
        "fr": "Contenu archivé - Approche intégrée pour la lutte contre l'ascochytose du pois chiche"
    },
    "modified": "2013-08-09",
    "issued": "2009-07-17",
    "templatetype": "content page 2 columns",
    "page_type": "0",
    "node_id": "1534850060420",
    "dc_date_created": "2009-07-17",
    "managing_branch": "PAB",
    "parent_node_id": "",
    "label": {
        "en": "Archived content - An Integrated Approach to Manage Ascochyta Blight in Chickpea",
        "fr": "Contenu archivé - Approche intégrée pour la lutte contre l'ascochytose du pois chiche"
    },
    "exturl": "",
    "teamsite_location": {
        "en": "/default/main/AAFC-AAC/Internet-Internet/Group-Ensemble/ProgServ-ProgServ/WORKAREA/ProgServ-ProgServ/templatedata/comm-comm/gene-gene/data/07/pmc-cla_fs_ascochyta_1247678986193_en",
        "fr": "/default/main/AAFC-AAC/Internet-Internet/Group-Ensemble/ProgServ-ProgServ/WORKAREA/ProgServ-ProgServ/templatedata/comm-comm/gene-gene/data/07/pmc-cla_fs_ascochyta_1247678986193_fr"
    },
    "type_name": "comm-comm/gene-gene",
    "has_dcr_id": true,
    "breadcrumb": {
        "en": "Archived content - An Integrated Approach to Manage Ascochyta Blight in Chickpea",
        "fr": "Contenu archivé - Approche intégrée pour la lutte contre l'ascochytose du pois chiche"
    },
    "layout_name": "content page 2 columns",
    "lang": "en"
}