{
    "dcr_id": "1346109837809",
    "title": {
        "en": "Care of seedlings and cuttings",
        "fr": "Soin des semis et boutures"
    },
    "modified": "2014-12-23",
    "issued": "2012-10-30",
    "templatetype": "content page 1 column",
    "page_type": "0",
    "node_id": "1354137773741",
    "dc_date_created": "2012-10-30",
    "managing_branch": "PAB",
    "parent_node_id": "",
    "label": {
        "en": "Care of seedlings and cuttings",
        "fr": "Soin des semis et boutures"
    },
    "exturl": "",
    "teamsite_location": {
        "en": "/default/main/AAFC-AAC/Internet-Internet/Common-Commun/WORKAREA/Common-Commun/templatedata/comm-comm/gene-gene/data/08/agrofor_seedlings_1346109837809_en",
        "fr": "/default/main/AAFC-AAC/Internet-Internet/Common-Commun/WORKAREA/Common-Commun/templatedata/comm-comm/gene-gene/data/08/agrofor_seedlings_1346109837809_fr"
    },
    "type_name": "comm-comm/gene-gene",
    "has_dcr_id": true,
    "breadcrumb": {
        "en": "Care of seedlings and cuttings",
        "fr": "Soin des semis et boutures"
    },
    "layout_name": "content page 1 column",
    "lang": "en"
}