{
    "dcr_id": "1362055182397",
    "title": {
        "en": "List of Acts",
        "fr": "Liste des lois"
    },
    "modified": "2016-07-11",
    "issued": "2013-03-01",
    "templatetype": "content page 1 column",
    "page_type": "0",
    "node_id": "1354137773675",
    "dc_date_created": "2013-03-01",
    "managing_branch": "PAB",
    "parent_node_id": "",
    "label": {
        "en": "List of Acts",
        "fr": "Liste des lois"
    },
    "exturl": "",
    "teamsite_location": {
        "en": "/default/main/AAFC-AAC/Internet-Internet/Common-Commun/WORKAREA/Common-Commun/templatedata/comm-comm/gene-gene/data/02/listacts-listeloi_1362055182397_en",
        "fr": "/default/main/AAFC-AAC/Internet-Internet/Common-Commun/WORKAREA/Common-Commun/templatedata/comm-comm/gene-gene/data/02/listacts-listeloi_1362055182397_fr"
    },
    "type_name": "comm-comm/gene-gene",
    "has_dcr_id": true,
    "breadcrumb": {
        "en": "List of Acts",
        "fr": "Liste des lois"
    },
    "layout_name": "content page 1 column",
    "lang": "en"
}