{
    "dcr_id": "1375206764774",
    "title": {
        "en": "Canada's Fruit and Vegetable Preserving and Specialty Food Industry",
        "fr": "Industrie canadienne de la mise en conserve de fruits et de légumes et de la fabrication de spécialités alimentaires"
    },
    "modified": "2016-03-07",
    "issued": "2013-08-23",
    "templatetype": "content page 1 column",
    "page_type": "0",
    "node_id": "1354137773675",
    "dc_date_created": "2013-08-23",
    "managing_branch": "PAB",
    "parent_node_id": "",
    "label": {
        "en": "Canada's Fruit and Vegetable Preserving and Specialty Food Industry",
        "fr": "Industrie canadienne de la mise en conserve de fruits et de légumes et de la fabrication de spécialités alimentaires"
    },
    "exturl": "",
    "teamsite_location": {
        "en": "/default/main/AAFC-AAC/Internet-Internet/Common-Commun/WORKAREA/Common-Commun/templatedata/comm-comm/gene-gene/data/07/fruit_veg_legume_preserve_1375206764774_en",
        "fr": "/default/main/AAFC-AAC/Internet-Internet/Common-Commun/WORKAREA/Common-Commun/templatedata/comm-comm/gene-gene/data/07/fruit_veg_legume_preserve_1375206764774_fr"
    },
    "type_name": "comm-comm/gene-gene",
    "has_dcr_id": true,
    "breadcrumb": {
        "en": "Canada's Fruit and Vegetable Preserving and Specialty Food Industry",
        "fr": "Industrie canadienne de la mise en conserve de fruits et de légumes et de la fabrication de spécialités alimentaires"
    },
    "layout_name": "content page 1 column",
    "lang": "en"
}