{
    "dcr_id": "1382649715180",
    "title": {
        "en": "Secretary's manual (page 8 of 9)",
        "fr": "Guide à l'intention du secrétariat (page 8 de 9)"
    },
    "modified": "2020-03-10",
    "issued": "2011-01-30",
    "templatetype": "content page 1 column",
    "page_type": "0",
    "node_id": "1382649681825",
    "dc_date_created": "2011-01-30",
    "managing_branch": "MISB",
    "parent_node_id": "",
    "label": {
        "en": "Secretary's manual (page 8 of 9)",
        "fr": "Guide à l'intention du secrétariat (page 8 de 9)"
    },
    "exturl": "",
    "teamsite_location": {
        "en": "/default/main/AAFC-AAC/Internet-Internet/MISB-DGSIM/SDAD-DDAS/AG-GA/WORKAREA/AG-GA/templatedata/comm-comm/gene-gene/data/apasm_page8_breed_codes_1382649715180_en",
        "fr": "/default/main/AAFC-AAC/Internet-Internet/MISB-DGSIM/SDAD-DDAS/AG-GA/WORKAREA/AG-GA/templatedata/comm-comm/gene-gene/data/apasm_page8_breed_codes_1382649715180_fr"
    },
    "type_name": "comm-comm/gene-gene",
    "has_dcr_id": true,
    "breadcrumb": {
        "en": "Secretary's manual (page 8 of 9)",
        "fr": "Guide à l'intention du secrétariat (page 8 de 9)"
    },
    "layout_name": "content page 1 column",
    "lang": "en"
}