{
    "dcr_id": "1382472182633",
    "title": {
        "en": "Plants and Bacteria Working Together",
        "fr": "Des végétaux et des bactéries qui collaborent"
    },
    "modified": "2013-10-22",
    "issued": "2013-10-22",
    "templatetype": "content page 1 column",
    "page_type": "0",
    "node_id": "1378999410478",
    "dc_date_created": "2013-10-22",
    "managing_branch": "PAB",
    "parent_node_id": "",
    "label": {
        "en": "Plants and Bacteria Working Together",
        "fr": "Des végétaux et des bactéries qui collaborent"
    },
    "exturl": "",
    "teamsite_location": {
        "en": "/default/main/AAFC-AAC/Internet-Internet/CCB-DGCC/WORKAREA/CCB-DGCC/templatedata/comm-comm/gene-gene/data/featurearticle_plantsbacteria_1382472182633_en",
        "fr": "/default/main/AAFC-AAC/Internet-Internet/CCB-DGCC/WORKAREA/CCB-DGCC/templatedata/comm-comm/gene-gene/data/featurearticle_plantsbacteria_1382472182633_fr"
    },
    "type_name": "comm-comm/gene-gene",
    "has_dcr_id": true,
    "breadcrumb": {
        "en": "Plants and Bacteria Working Together",
        "fr": "Des végétaux et des bactéries qui collaborent"
    },
    "layout_name": "content page 1 column",
    "lang": "en"
}