{
    "dcr_id": "1384971854400",
    "title": {
        "en": "Condemnation conditions list",
        "fr": "Liste des conditions de condamnation"
    },
    "modified": "2018-10-26",
    "issued": "2011-01-30",
    "templatetype": "content page 1 column",
    "page_type": "0",
    "node_id": "1384971799959",
    "dc_date_created": "2011-01-30",
    "managing_branch": "MISB",
    "parent_node_id": "",
    "label": {
        "en": "Condemnation conditions list",
        "fr": "Liste des conditions de condamnation"
    },
    "exturl": "",
    "teamsite_location": {
        "en": "/default/main/AAFC-AAC/Internet-Internet/MISB-DGSIM/SDAD-DDAS/PE-VO/WORKAREA/PE-VO/templatedata/comm-comm/gene-gene/data/condemnations_conditions_list_1384971854400_en",
        "fr": "/default/main/AAFC-AAC/Internet-Internet/MISB-DGSIM/SDAD-DDAS/PE-VO/WORKAREA/PE-VO/templatedata/comm-comm/gene-gene/data/condemnations_conditions_list_1384971854400_fr"
    },
    "type_name": "comm-comm/gene-gene",
    "has_dcr_id": true,
    "breadcrumb": {
        "en": "Condemnation conditions list",
        "fr": "Liste des conditions de condamnation"
    },
    "layout_name": "content page 1 column",
    "lang": "en"
}