{
    "dcr_id": "1384971854416",
    "title": {
        "en": "Number of farms by industry type",
        "fr": "Nombre de fermes selon le genre"
    },
    "modified": "2018-10-26",
    "issued": "2011-01-30",
    "templatetype": "content page 1 column",
    "page_type": "0",
    "node_id": "1384971799963",
    "dc_date_created": "2011-01-30",
    "managing_branch": "MISB",
    "parent_node_id": "",
    "label": {
        "en": "Number of farms by industry type",
        "fr": "Nombre de fermes selon le genre"
    },
    "exturl": "",
    "teamsite_location": {
        "en": "/default/main/AAFC-AAC/Internet-Internet/MISB-DGSIM/SDAD-DDAS/PE-VO/WORKAREA/PE-VO/templatedata/comm-comm/gene-gene/data/number_farms_by_industry_1384971854416_en",
        "fr": "/default/main/AAFC-AAC/Internet-Internet/MISB-DGSIM/SDAD-DDAS/PE-VO/WORKAREA/PE-VO/templatedata/comm-comm/gene-gene/data/number_farms_by_industry_1384971854416_fr"
    },
    "type_name": "comm-comm/gene-gene",
    "has_dcr_id": true,
    "breadcrumb": {
        "en": "Number of farms by industry type",
        "fr": "Nombre de fermes selon le genre"
    },
    "layout_name": "content page 1 column",
    "lang": "en"
}