{
    "dcr_id": "1390504108775",
    "title": {
        "en": "Accelerated Release 2018 (AR2018) Cash Bid Package Request Form",
        "fr": "Formulaire de demande de trousse de sélections de la série « Accelerated Release 2018 » (AR2018)"
    },
    "modified": "2020-01-08",
    "issued": "2014-02-11",
    "templatetype": "content page 1 column",
    "page_type": "0",
    "node_id": "1517351778666",
    "dc_date_created": "2014-02-11",
    "managing_branch": "PAB",
    "parent_node_id": "",
    "label": {
        "en": "Accelerated Release 2018 (AR2018) Cash Bid Package Request Form",
        "fr": "Formulaire de demande de trousse de sélections de la série « Accelerated Release 2018 » (AR2018)"
    },
    "exturl": "",
    "teamsite_location": {
        "en": "/default/main/AAFC-AAC/Internet-Internet/Common-Commun/WORKAREA/Common-Commun/templatedata/comm-comm/gene-gene/data/01/accelerated_release_2012_ar2012_1390504108775_en",
        "fr": "/default/main/AAFC-AAC/Internet-Internet/Common-Commun/WORKAREA/Common-Commun/templatedata/comm-comm/gene-gene/data/01/accelerated_release_2012_ar2012_1390504108775_fr"
    },
    "type_name": "comm-comm/gene-gene",
    "has_dcr_id": true,
    "breadcrumb": {
        "en": "Accelerated Release 2018 (AR2018) Cash Bid Package Request Form",
        "fr": "Formulaire de demande de trousse de sélections de la série « Accelerated Release 2018 » (AR2018)"
    },
    "layout_name": "content page 1 column",
    "lang": "en"
}