{
    "dcr_id": "1410356386866",
    "title": {
        "en": "Agriculture and Agri-Food Canada’s Policy on Providing Guidance on Regulatory Requirements",
        "fr": "Politique sur la prestation de lignes directrices sur les exigences réglementaires d’Agriculture et Agroalimentaire Canada"
    },
    "modified": "2019-09-25",
    "issued": "2014-09-15",
    "templatetype": "content page 1 column",
    "page_type": "0",
    "node_id": "1354137773675",
    "dc_date_created": "2014-09-15",
    "managing_branch": "PAB",
    "parent_node_id": "",
    "label": {
        "en": "Agriculture and Agri-Food Canada’s Policy on Providing Guidance on Regulatory Requirements",
        "fr": "Politique sur la prestation de lignes directrices sur les exigences réglementaires d’Agriculture et Agroalimentaire Canada"
    },
    "exturl": "",
    "teamsite_location": {
        "en": "/default/main/AAFC-AAC/Internet-Internet/Common-Commun/WORKAREA/Common-Commun/templatedata/comm-comm/gene-gene/data/09/interpretation_policy_1410356386866_en",
        "fr": "/default/main/AAFC-AAC/Internet-Internet/Common-Commun/WORKAREA/Common-Commun/templatedata/comm-comm/gene-gene/data/09/interpretation_policy_1410356386866_fr"
    },
    "type_name": "comm-comm/gene-gene",
    "has_dcr_id": true,
    "breadcrumb": {
        "en": "Agriculture and Agri-Food Canada’s Policy on Providing Guidance on Regulatory Requirements",
        "fr": "Politique sur la prestation de lignes directrices sur les exigences réglementaires d’Agriculture et Agroalimentaire Canada"
    },
    "layout_name": "content page 1 column",
    "lang": "en"
}