{
    "dcr_id": "1416429257717",
    "title": {
        "en": "Wood Chip vs. Barley Straw Livestock Bedding: Agriculture and Agri-Food Canada Researchers Share Findings from Thirteen-year Study",
        "fr": "Copeaux de bois ou paille d’orge pour la litière de bétail : des chercheurs d’Agriculture et Agroalimentaire Canada présentent les conclusions d’une étude réalisée pendant treize ans"
    },
    "modified": "2014-12-09",
    "issued": "2014-11-19",
    "templatetype": "content page 1 column",
    "page_type": "0",
    "node_id": "1378999410478",
    "dc_date_created": "2014-11-19",
    "managing_branch": "PAB",
    "parent_node_id": "",
    "label": {
        "en": "Wood Chip vs. Barley Straw Livestock Bedding: Agriculture and Agri-Food Canada Researchers Share Findings from Thirteen-year Study",
        "fr": "Copeaux de bois ou paille d’orge pour la litière de bétail : des chercheurs d’Agriculture et Agroalimentaire Canada présentent les conclusions d’une étude réalisée pendant treize ans"
    },
    "exturl": "",
    "teamsite_location": {
        "en": "/default/main/AAFC-AAC/Internet-Internet/CCB-DGCC/WORKAREA/CCB-DGCC/templatedata/comm-comm/gene-gene/data/wood_chip_vs_barley_1416429257717_en",
        "fr": "/default/main/AAFC-AAC/Internet-Internet/CCB-DGCC/WORKAREA/CCB-DGCC/templatedata/comm-comm/gene-gene/data/wood_chip_vs_barley_1416429257717_fr"
    },
    "type_name": "comm-comm/gene-gene",
    "has_dcr_id": true,
    "breadcrumb": {
        "en": "Wood Chip vs. Barley Straw Livestock Bedding: Agriculture and Agri-Food Canada Researchers Share Findings from Thirteen-year Study",
        "fr": "Copeaux de bois ou paille d’orge pour la litière de bétail : des chercheurs d’Agriculture et Agroalimentaire Canada présentent les conclusions d’une étude réalisée pendant treize ans"
    },
    "layout_name": "content page 1 column",
    "lang": "en"
}