{
    "dcr_id": "1416932161986",
    "title": {
        "en": "Email subscription service",
        "fr": "Service d'abonnement par courriel"
    },
    "modified": "2020-04-30",
    "issued": "2014-11-26",
    "templatetype": "content page 1 column",
    "page_type": "0",
    "node_id": "1354137774096",
    "dc_date_created": "2014-11-26",
    "managing_branch": "PAB",
    "parent_node_id": "",
    "label": {
        "en": "Email subscription service",
        "fr": "Service d'abonnement par courriel"
    },
    "exturl": "",
    "teamsite_location": {
        "en": "/default/main/AAFC-AAC/Internet-Internet/CCB-DGCC/WORKAREA/CCB-DGCC/templatedata/comm-comm/gene-gene/data/ess_intro_1416932161986_en",
        "fr": "/default/main/AAFC-AAC/Internet-Internet/CCB-DGCC/WORKAREA/CCB-DGCC/templatedata/comm-comm/gene-gene/data/ess_intro_1416932161986_fr"
    },
    "type_name": "comm-comm/gene-gene",
    "has_dcr_id": true,
    "breadcrumb": {
        "en": "Email subscription service",
        "fr": "Service d'abonnement par courriel"
    },
    "layout_name": "content page 1 column",
    "lang": "en"
}