{
    "dcr_id": "1420815581730",
    "title": {
        "en": "Sweet Twist on Silage Making Pays Off",
        "fr": "Une nouvelle méthode de fabrication des ensilages donne de bons résultats"
    },
    "modified": "2015-07-30",
    "issued": "2015-01-09",
    "templatetype": "content page 1 column",
    "page_type": "0",
    "node_id": "1378999410478",
    "dc_date_created": "2015-01-09",
    "managing_branch": "PAB",
    "parent_node_id": "",
    "label": {
        "en": "Sweet Twist on Silage Making Pays Off",
        "fr": "Une nouvelle méthode de fabrication des ensilages donne de bons résultats"
    },
    "exturl": "",
    "teamsite_location": {
        "en": "/default/main/AAFC-AAC/Internet-Internet/CCB-DGCC/WORKAREA/CCB-DGCC/templatedata/comm-comm/gene-gene/data/featurearticle_silage_1420815581730_en",
        "fr": "/default/main/AAFC-AAC/Internet-Internet/CCB-DGCC/WORKAREA/CCB-DGCC/templatedata/comm-comm/gene-gene/data/featurearticle_silage_1420815581730_fr"
    },
    "type_name": "comm-comm/gene-gene",
    "has_dcr_id": true,
    "breadcrumb": {
        "en": "Sweet Twist on Silage Making Pays Off",
        "fr": "Une nouvelle méthode de fabrication des ensilages donne de bons résultats"
    },
    "layout_name": "content page 1 column",
    "lang": "en"
}