{
    "dcr_id": "1424352654347",
    "title": {
        "en": "Over Wintering Strategies: New vineyard management practices (Video)",
        "fr": "Stratégies d'hivernage – Nouvelles pratiques de gestion des vignobles (Vidéo)"
    },
    "modified": "2015-08-13",
    "issued": "2015-02-24",
    "templatetype": "content page 1 column",
    "page_type": "0",
    "node_id": "1378999410478",
    "dc_date_created": "2015-02-24",
    "managing_branch": "PAB",
    "parent_node_id": "",
    "label": {
        "en": "Over Wintering Strategies: New vineyard management practices (Video)",
        "fr": "Stratégies d'hivernage – Nouvelles pratiques de gestion des vignobles (Vidéo)"
    },
    "exturl": "",
    "teamsite_location": {
        "en": "/default/main/AAFC-AAC/Internet-Internet/Common-Commun/WORKAREA/Common-Commun/templatedata/comm-comm/gene-gene/data/02/sci_vid_over_wintering_1424352654347_en",
        "fr": "/default/main/AAFC-AAC/Internet-Internet/Common-Commun/WORKAREA/Common-Commun/templatedata/comm-comm/gene-gene/data/02/sci_vid_over_wintering_1424352654347_fr"
    },
    "type_name": "comm-comm/gene-gene",
    "has_dcr_id": true,
    "breadcrumb": {
        "en": "Over Wintering Strategies: New vineyard management practices (Video)",
        "fr": "Stratégies d'hivernage – Nouvelles pratiques de gestion des vignobles (Vidéo)"
    },
    "layout_name": "content page 1 column",
    "lang": "en"
}