{
    "dcr_id": "1432247397611",
    "title": {
        "en": "Agriculture and Agri-Food Canada Explores Ways to Improve Preserving Bovine Eggs",
        "fr": "Agriculture et Agroalimentaire Canada cherche à améliorer la conservation des ovules de bovins"
    },
    "modified": "2018-10-01",
    "issued": "2015-05-22",
    "templatetype": "content page 1 column",
    "page_type": "0",
    "node_id": "1378999410478",
    "dc_date_created": "2015-05-22",
    "managing_branch": "PAB",
    "parent_node_id": "",
    "label": {
        "en": "Agriculture and Agri-Food Canada Explores Ways to Improve Preserving Bovine Eggs",
        "fr": "Agriculture et Agroalimentaire Canada cherche à améliorer la conservation des ovules de bovins"
    },
    "exturl": "",
    "teamsite_location": {
        "en": "/default/main/AAFC-AAC/Internet-Internet/CCB-DGCC/WORKAREA/CCB-DGCC/templatedata/comm-comm/gene-gene/data/feature_article_bovine_eggs_1432247397611_en",
        "fr": "/default/main/AAFC-AAC/Internet-Internet/CCB-DGCC/WORKAREA/CCB-DGCC/templatedata/comm-comm/gene-gene/data/feature_article_bovine_eggs_1432247397611_fr"
    },
    "type_name": "comm-comm/gene-gene",
    "has_dcr_id": true,
    "breadcrumb": {
        "en": "Agriculture and Agri-Food Canada Explores Ways to Improve Preserving Bovine Eggs",
        "fr": "Agriculture et Agroalimentaire Canada cherche à améliorer la conservation des ovules de bovins"
    },
    "layout_name": "content page 1 column",
    "lang": "en"
}