{
    "dcr_id": "1450194591679",
    "title": {
        "en": "Cranberries may boost broiler chicken immunity",
        "fr": "Les canneberges peuvent renforcer le système immunitaire des poulets à griller "
    },
    "modified": "2015-12-17",
    "issued": "2015-12-17",
    "templatetype": "content page 1 column",
    "page_type": "0",
    "node_id": "1378999410478",
    "dc_date_created": "2015-12-17",
    "managing_branch": "PAB",
    "parent_node_id": "",
    "label": {
        "en": "Cranberries may boost broiler chicken immunity",
        "fr": "Les canneberges peuvent renforcer le système immunitaire des poulets à griller "
    },
    "exturl": "",
    "teamsite_location": {
        "en": "/default/main/AAFC-AAC/Internet-Internet/CCB-DGCC/WORKAREA/CCB-DGCC/templatedata/comm-comm/gene-gene/data/cranberries_for_chicken_1450194591679_en",
        "fr": "/default/main/AAFC-AAC/Internet-Internet/CCB-DGCC/WORKAREA/CCB-DGCC/templatedata/comm-comm/gene-gene/data/cranberries_for_chicken_1450194591679_fr"
    },
    "type_name": "comm-comm/gene-gene",
    "has_dcr_id": true,
    "breadcrumb": {
        "en": "Cranberries may boost broiler chicken immunity",
        "fr": "Les canneberges peuvent renforcer le système immunitaire des poulets à griller "
    },
    "layout_name": "content page 1 column",
    "lang": "en"
}