{
    "dcr_id": "1463490444736",
    "title": {
        "en": "AgriInvest Program Handbook",
        "fr": "Agri-investissement – Manuel du programme"
    },
    "modified": "2019-10-22",
    "issued": "2019-10-22",
    "templatetype": "content page 1 column",
    "page_type": "0",
    "node_id": "1571322247714",
    "dc_date_created": "2019-10-22",
    "managing_branch": "PAB",
    "parent_node_id": "",
    "label": {
        "en": "AgriInvest Program Handbook",
        "fr": "Agri-investissement – Manuel du programme"
    },
    "exturl": "",
    "teamsite_location": {
        "en": "/default/main/AAFC-AAC/Internet-Internet/Group-Ensemble/ProgServ-ProgServ/WORKAREA/ProgServ-ProgServ/templatedata/comm-comm/gene-gene/data/09/ai_gf2_2016_handbook_1463490444736_en",
        "fr": "/default/main/AAFC-AAC/Internet-Internet/Group-Ensemble/ProgServ-ProgServ/WORKAREA/ProgServ-ProgServ/templatedata/comm-comm/gene-gene/data/09/ai_gf2_2016_handbook_1463490444736_fr"
    },
    "type_name": "comm-comm/gene-gene",
    "has_dcr_id": true,
    "breadcrumb": {
        "en": "AgriInvest Program Handbook",
        "fr": "Agri-investissement – Manuel du programme"
    },
    "layout_name": "content page 1 column",
    "lang": "en"
}