{
    "dcr_id": "1464896890921",
    "title": {
        "en": "AgriInvest - Estate Administration Form",
        "fr": "Agri-investissement - Formulaire d'administration de la succession"
    },
    "modified": "2021-01-07",
    "issued": "2019-10-22",
    "templatetype": "content page 1 column",
    "page_type": "0",
    "node_id": "1571322247714",
    "dc_date_created": "2019-10-22",
    "managing_branch": "PAB",
    "parent_node_id": "",
    "label": {
        "en": "AgriInvest - Estate Administration Form",
        "fr": "Agri-investissement - Formulaire d'administration de la succession"
    },
    "exturl": "",
    "teamsite_location": {
        "en": "/default/main/AAFC-AAC/Internet-Internet/Group-Ensemble/ProgServ-ProgServ/WORKAREA/ProgServ-ProgServ/templatedata/comm-comm/gene-gene/data/09/ai_estate_admin-form_1464896890921_en",
        "fr": "/default/main/AAFC-AAC/Internet-Internet/Group-Ensemble/ProgServ-ProgServ/WORKAREA/ProgServ-ProgServ/templatedata/comm-comm/gene-gene/data/09/ai_estate_admin-form_1464896890921_fr"
    },
    "type_name": "comm-comm/gene-gene",
    "has_dcr_id": true,
    "breadcrumb": {
        "en": "AgriInvest - Estate Administration Form",
        "fr": "Agri-investissement - Formulaire d'administration de la succession"
    },
    "layout_name": "content page 1 column",
    "lang": "en"
}