{
    "dcr_id": "1465412051099",
    "title": {
        "en": "Researchers Have High Hopes for Sorghum Sudan Grass",
        "fr": "Des chercheurs fondent beaucoup d’espoir dans le sorghum sudanense "
    },
    "modified": "2016-06-09",
    "issued": "2016-06-09",
    "templatetype": "content page 1 column",
    "page_type": "0",
    "node_id": "1378999410478",
    "dc_date_created": "2016-06-09",
    "managing_branch": "PAB",
    "parent_node_id": "",
    "label": {
        "en": "Researchers Have High Hopes for Sorghum Sudan Grass",
        "fr": "Des chercheurs fondent beaucoup d’espoir dans le sorghum sudanense "
    },
    "exturl": "",
    "teamsite_location": {
        "en": "/default/main/AAFC-AAC/Internet-Internet/Common-Commun/WORKAREA/Common-Commun/templatedata/comm-comm/gene-gene/data/06/sorghum_sudan_grass_1465412051099_en",
        "fr": "/default/main/AAFC-AAC/Internet-Internet/Common-Commun/WORKAREA/Common-Commun/templatedata/comm-comm/gene-gene/data/06/sorghum_sudan_grass_1465412051099_fr"
    },
    "type_name": "comm-comm/gene-gene",
    "has_dcr_id": true,
    "breadcrumb": {
        "en": "Researchers Have High Hopes for Sorghum Sudan Grass",
        "fr": "Des chercheurs fondent beaucoup d’espoir dans le sorghum sudanense "
    },
    "layout_name": "content page 1 column",
    "lang": "en"
}