{
    "dcr_id": "1478291103879",
    "title": {
        "en": "2016 List of Prescribed Regions",
        "fr": "Liste finale des régions admissibles au report d’impôt pour 2016"
    },
    "modified": "2018-04-11",
    "issued": "2016-11-22",
    "templatetype": "content page 1 column",
    "page_type": "0",
    "node_id": "1463687168420",
    "dc_date_created": "2016-11-22",
    "managing_branch": "PAB",
    "parent_node_id": "",
    "label": {
        "en": "2016 List of Prescribed Regions",
        "fr": "Liste finale des régions admissibles au report d’impôt pour 2016"
    },
    "exturl": "",
    "teamsite_location": {
        "en": "/default/main/AAFC-AAC/Internet-Internet/Group-Ensemble/ProgServ-ProgServ/WORKAREA/ProgServ-ProgServ/templatedata/comm-comm/gene-gene/data/11/2016_livestock_tax_deferral_1478291103879_en",
        "fr": "/default/main/AAFC-AAC/Internet-Internet/Group-Ensemble/ProgServ-ProgServ/WORKAREA/ProgServ-ProgServ/templatedata/comm-comm/gene-gene/data/11/2016_livestock_tax_deferral_1478291103879_fr"
    },
    "type_name": "comm-comm/gene-gene",
    "has_dcr_id": true,
    "breadcrumb": {
        "en": "2016 List of Prescribed Regions",
        "fr": "Liste finale des régions admissibles au report d’impôt pour 2016"
    },
    "layout_name": "content page 1 column",
    "lang": "en"
}