{
    "dcr_id": "1482335313264",
    "title": {
        "en": "Opportunities and Benefits of CETA for Canadian Non-Alcoholic Beverage Exporters",
        "fr": "Débouchés et avantages de l'AECG pour les exportateurs canadiens de boissons non alcoolisées"
    },
    "modified": "2020-05-06",
    "issued": "2016-12-21",
    "templatetype": "content page 1 column",
    "page_type": "0",
    "node_id": "1437689442005",
    "dc_date_created": "2016-12-21",
    "managing_branch": "MISB",
    "parent_node_id": "",
    "label": {
        "en": "Opportunities and Benefits of CETA for Canadian Non-Alcoholic Beverage Exporters",
        "fr": "Débouchés et avantages de l'AECG pour les exportateurs canadiens de boissons non alcoolisées"
    },
    "exturl": "",
    "teamsite_location": {
        "en": "/default/main/AAFC-AAC/Internet-Internet/MISB-DGSIM/ATS-SEA/ATS-SEA-s2/WORKAREA/ATS-SEA-s2/templatedata/comm-comm/gene-gene/data/eur_ceta_opportunities_nonalcoholic_1482335313264_en",
        "fr": "/default/main/AAFC-AAC/Internet-Internet/MISB-DGSIM/ATS-SEA/ATS-SEA-s2/WORKAREA/ATS-SEA-s2/templatedata/comm-comm/gene-gene/data/eur_ceta_opportunities_nonalcoholic_1482335313264_fr"
    },
    "type_name": "comm-comm/gene-gene",
    "has_dcr_id": true,
    "breadcrumb": {
        "en": "Opportunities and Benefits of CETA for Canadian Non-Alcoholic Beverage Exporters",
        "fr": "Débouchés et avantages de l'AECG pour les exportateurs canadiens de boissons non alcoolisées"
    },
    "layout_name": "content page 1 column",
    "lang": "en"
}