{
    "dcr_id": "1489415415276",
    "title": {
        "en": "Successful Cash Bids for AR2015 Potato Selections Offered for Exclusive Testing in 2017",
        "fr": "Soumissions en argent retenues pour les sélections de pommes de terre AR2015 offertes pour des essais exclusifs en 2017"
    },
    "modified": "2020-01-31",
    "issued": "2017-03-15",
    "templatetype": "content page 1 column",
    "page_type": "0",
    "node_id": "1366840625411",
    "dc_date_created": "2017-03-15",
    "managing_branch": "PAB",
    "parent_node_id": "",
    "label": {
        "en": "Successful Cash Bids for AR2015 Potato Selections Offered for Exclusive Testing in 2017",
        "fr": "Soumissions en argent retenues pour les sélections de pommes de terre AR2015 offertes pour des essais exclusifs en 2017"
    },
    "exturl": "",
    "teamsite_location": {
        "en": "/default/main/AAFC-AAC/Internet-Internet/Common-Commun/WORKAREA/Common-Commun/templatedata/comm-comm/gene-gene/data/03/ar2017_successful_bids_1489415415276_en",
        "fr": "/default/main/AAFC-AAC/Internet-Internet/Common-Commun/WORKAREA/Common-Commun/templatedata/comm-comm/gene-gene/data/03/ar2017_successful_bids_1489415415276_fr"
    },
    "type_name": "comm-comm/gene-gene",
    "has_dcr_id": true,
    "breadcrumb": {
        "en": "Successful Cash Bids for AR2015 Potato Selections Offered for Exclusive Testing in 2017",
        "fr": "Soumissions en argent retenues pour les sélections de pommes de terre AR2015 offertes pour des essais exclusifs en 2017"
    },
    "layout_name": "content page 1 column",
    "lang": "en"
}