{
    "dcr_id": "1494336435624",
    "title": {
        "en": "Dairy Processing Investment Fund: Step 2. Who is eligible",
        "fr": "Fonds d'investissement dans la transformation des produits laitiers : Étape 2. Qui est admissible"
    },
    "modified": "2020-02-18",
    "issued": "2017-08-01",
    "templatetype": "content page 1 column",
    "page_type": "0",
    "node_id": "1494340590832",
    "dc_date_created": "2017-08-01",
    "managing_branch": "PAB",
    "parent_node_id": "",
    "label": {
        "en": "Dairy Processing Investment Fund: Step 2. Who is eligible",
        "fr": "Fonds d'investissement dans la transformation des produits laitiers : Étape 2. Qui est admissible"
    },
    "exturl": "",
    "teamsite_location": {
        "en": "/default/main/AAFC-AAC/Internet-Internet/Group-Ensemble/ProgServ-ProgServ/WORKAREA/ProgServ-ProgServ/templatedata/comm-comm/gene-gene/data/05/dpif-fpil_2_eligible_1494336435624_en",
        "fr": "/default/main/AAFC-AAC/Internet-Internet/Group-Ensemble/ProgServ-ProgServ/WORKAREA/ProgServ-ProgServ/templatedata/comm-comm/gene-gene/data/05/dpif-fpil_2_eligible_1494336435624_fr"
    },
    "type_name": "comm-comm/gene-gene",
    "has_dcr_id": true,
    "breadcrumb": {
        "en": "Dairy Processing Investment Fund: Step 2. Who is eligible",
        "fr": "Fonds d'investissement dans la transformation des produits laitiers : Étape 2. Qui est admissible"
    },
    "layout_name": "content page 1 column",
    "lang": "en"
}