{
    "dcr_id": "1497275598856",
    "title": {
        "en": "Coordinated Agriculture Policy Research Initiative – 3. How to apply",
        "fr": "Initiative Coordonnée de Recherche sur les Politiques Agricoles – 3. Comment présenter une demande"
    },
    "modified": "2019-12-06",
    "issued": "2017-06-14",
    "templatetype": "content page 1 column",
    "page_type": "0",
    "node_id": "1497275692629",
    "dc_date_created": "2017-06-14",
    "managing_branch": "PAB",
    "parent_node_id": "",
    "label": {
        "en": "Coordinated Agriculture Policy Research Initiative – 3. How to apply",
        "fr": "Initiative Coordonnée de Recherche sur les Politiques Agricoles – 3. Comment présenter une demande"
    },
    "exturl": "",
    "teamsite_location": {
        "en": "/default/main/AAFC-AAC/Internet-Internet/Group-Ensemble/ProgServ-ProgServ/WORKAREA/ProgServ-ProgServ/templatedata/comm-comm/gene-gene/data/06/capri_3_apply_1497275598856_en",
        "fr": "/default/main/AAFC-AAC/Internet-Internet/Group-Ensemble/ProgServ-ProgServ/WORKAREA/ProgServ-ProgServ/templatedata/comm-comm/gene-gene/data/06/capri_3_apply_1497275598856_fr"
    },
    "type_name": "comm-comm/gene-gene",
    "has_dcr_id": true,
    "breadcrumb": {
        "en": "Coordinated Agriculture Policy Research Initiative – 3. How to apply",
        "fr": "Initiative Coordonnée de Recherche sur les Politiques Agricoles – 3. Comment présenter une demande"
    },
    "layout_name": "content page 1 column",
    "lang": "en"
}