{
    "dcr_id": "1514562589187",
    "title": {
        "en": "Lunchtime is over for the Colorado potato beetle",
        "fr": "Doryphore de la pomme de terre : Agriculture et Agroalimentaire Canada sonne la fin de la récréation"
    },
    "modified": "2018-01-02",
    "issued": "2018-01-02",
    "templatetype": "content page 1 column",
    "page_type": "0",
    "node_id": "1378999410478",
    "dc_date_created": "2018-01-02",
    "managing_branch": "PAB",
    "parent_node_id": "",
    "label": {
        "en": "Lunchtime is over for the Colorado potato beetle",
        "fr": "Doryphore de la pomme de terre : Agriculture et Agroalimentaire Canada sonne la fin de la récréation"
    },
    "exturl": "",
    "teamsite_location": {
        "en": "/default/main/AAFC-AAC/Internet-Internet/CCB-DGCC/WORKAREA/CCB-DGCC/templatedata/comm-comm/gene-gene/data/colorado_potato_beetle_1514562589187_en",
        "fr": "/default/main/AAFC-AAC/Internet-Internet/CCB-DGCC/WORKAREA/CCB-DGCC/templatedata/comm-comm/gene-gene/data/colorado_potato_beetle_1514562589187_fr"
    },
    "type_name": "comm-comm/gene-gene",
    "has_dcr_id": true,
    "breadcrumb": {
        "en": "Lunchtime is over for the Colorado potato beetle",
        "fr": "Doryphore de la pomme de terre : Agriculture et Agroalimentaire Canada sonne la fin de la récréation"
    },
    "layout_name": "content page 1 column",
    "lang": "en"
}