{
    "dcr_id": "1516217271862",
    "title": {
        "en": "2018 AgriStability and AgriInvest Additional Information and Adjustment Request",
        "fr": "2018 Renseignements supplémentaires et de demande de redressement d'Agri-stabilité et d'Agri-investissement"
    },
    "modified": "2019-10-22",
    "issued": "2019-10-22",
    "templatetype": "content page 1 column",
    "page_type": "0",
    "node_id": "1571322247714",
    "dc_date_created": "2019-10-22",
    "managing_branch": "PAB",
    "parent_node_id": "",
    "label": {
        "en": "2018 AgriStability and AgriInvest Additional Information and Adjustment Request",
        "fr": "2018 Renseignements supplémentaires et de demande de redressement d'Agri-stabilité et d'Agri-investissement"
    },
    "exturl": "",
    "teamsite_location": {
        "en": "/default/main/AAFC-AAC/Internet-Internet/Group-Ensemble/ProgServ-ProgServ/WORKAREA/ProgServ-ProgServ/templatedata/comm-comm/gene-gene/data/09/ai_as_2018_add_1516217271862_en",
        "fr": "/default/main/AAFC-AAC/Internet-Internet/Group-Ensemble/ProgServ-ProgServ/WORKAREA/ProgServ-ProgServ/templatedata/comm-comm/gene-gene/data/09/ai_as_2018_add_1516217271862_fr"
    },
    "type_name": "comm-comm/gene-gene",
    "has_dcr_id": true,
    "breadcrumb": {
        "en": "2018 AgriStability and AgriInvest Additional Information and Adjustment Request",
        "fr": "2018 Renseignements supplémentaires et de demande de redressement d'Agri-stabilité et d'Agri-investissement"
    },
    "layout_name": "content page 1 column",
    "lang": "en"
}