{
    "dcr_id": "1517941181674",
    "title": {
        "en": "AgriInnovate Program – Consent for Use, Disclosure and Copyright",
        "fr": "Programme Agri-innover – Consentement à l'utilisation et à la divulgation de renseignements"
    },
    "modified": "2018-02-13",
    "issued": "2018-02-13",
    "templatetype": "content page 1 column",
    "page_type": "0",
    "node_id": "1518191760907",
    "dc_date_created": "2018-02-13",
    "managing_branch": "PAB",
    "parent_node_id": "",
    "label": {
        "en": "AgriInnovate Program – Consent for Use, Disclosure and Copyright",
        "fr": "Programme Agri-innover – Consentement à l'utilisation et à la divulgation de renseignements"
    },
    "exturl": "",
    "teamsite_location": {
        "en": "/default/main/AAFC-AAC/Internet-Internet/Group-Ensemble/ProgServ-ProgServ/WORKAREA/ProgServ-ProgServ/templatedata/comm-comm/gene-gene/data/02/agriinovate_10_consent_form_1517941181674_en",
        "fr": "/default/main/AAFC-AAC/Internet-Internet/Group-Ensemble/ProgServ-ProgServ/WORKAREA/ProgServ-ProgServ/templatedata/comm-comm/gene-gene/data/02/agriinovate_10_consent_form_1517941181674_fr"
    },
    "type_name": "comm-comm/gene-gene",
    "has_dcr_id": true,
    "breadcrumb": {
        "en": "AgriInnovate Program – Consent for Use, Disclosure and Copyright",
        "fr": "Programme Agri-innover – Consentement à l'utilisation et à la divulgation de renseignements"
    },
    "layout_name": "content page 1 column",
    "lang": "en"
}