{
    "dcr_id": "1517354758047",
    "title": {
        "en": "Potato Selection AR2018-08 (F12062v)",
        "fr": "Sélections de pommes de terre AR2018-08 (F12062v)"
    },
    "modified": "2020-03-11",
    "issued": "2018-02-02",
    "templatetype": "content page 1 column",
    "page_type": "0",
    "node_id": "1517351778666",
    "dc_date_created": "2018-02-02",
    "managing_branch": "PAB",
    "parent_node_id": "",
    "label": {
        "en": "Potato Selection AR2018-08 (F12062v)",
        "fr": "Sélections de pommes de terre AR2018-08 (F12062v)"
    },
    "exturl": "",
    "teamsite_location": {
        "en": "/default/main/AAFC-AAC/Internet-Internet/Common-Commun/WORKAREA/Common-Commun/templatedata/comm-comm/gene-gene/data/01/ar2018-08_1517354758047_en",
        "fr": "/default/main/AAFC-AAC/Internet-Internet/Common-Commun/WORKAREA/Common-Commun/templatedata/comm-comm/gene-gene/data/01/ar2018-08_1517354758047_fr"
    },
    "type_name": "comm-comm/gene-gene",
    "has_dcr_id": true,
    "breadcrumb": {
        "en": "Potato Selection AR2018-08 (F12062v)",
        "fr": "Sélections de pommes de terre AR2018-08 (F12062v)"
    },
    "layout_name": "content page 1 column",
    "lang": "en"
}