{
    "dcr_id": "1521039173322",
    "title": {
        "en": "New cattle feed supplement has methane falling and optimism rising!",
        "fr": "Un nouveau supplément alimentaire pour bovins réduit le méthane et stimule l’optimisme!"
    },
    "modified": "2018-03-19",
    "issued": "2018-03-19",
    "templatetype": "content page 1 column",
    "page_type": "0",
    "node_id": "1378999410478",
    "dc_date_created": "2018-03-19",
    "managing_branch": "PAB",
    "parent_node_id": "",
    "label": {
        "en": "New cattle feed supplement has methane falling and optimism rising!",
        "fr": "Un nouveau supplément alimentaire pour bovins réduit le méthane et stimule l’optimisme!"
    },
    "exturl": "",
    "teamsite_location": {
        "en": "/default/main/AAFC-AAC/Internet-Internet/CCB-DGCC/WORKAREA/CCB-DGCC/templatedata/comm-comm/gene-gene/data/feature_article_cattle_feed_1521039173322_en",
        "fr": "/default/main/AAFC-AAC/Internet-Internet/CCB-DGCC/WORKAREA/CCB-DGCC/templatedata/comm-comm/gene-gene/data/feature_article_cattle_feed_1521039173322_fr"
    },
    "type_name": "comm-comm/gene-gene",
    "has_dcr_id": true,
    "breadcrumb": {
        "en": "New cattle feed supplement has methane falling and optimism rising!",
        "fr": "Un nouveau supplément alimentaire pour bovins réduit le méthane et stimule l’optimisme!"
    },
    "layout_name": "content page 1 column",
    "lang": "en"
}