{
    "dcr_id": "1521481844954",
    "title": {
        "en": "Twenty-Ninth meeting of the Seafood Value Chain Roundtable: Record of decision",
        "fr": "Vingt-neuvième réunion de la Table ronde sur la chaîne de valeur des produits de la mer : Compte rendu des décisions"
    },
    "modified": "2018-03-21",
    "issued": "2018-03-21",
    "templatetype": "<NULL>",
    "page_type": "0",
    "node_id": "1384804152012",
    "dc_date_created": "2018-03-21",
    "managing_branch": "PAB",
    "parent_node_id": "",
    "label": {
        "en": "Twenty-Ninth meeting of the Seafood Value Chain Roundtable: Record of decision",
        "fr": "Vingt-neuvième réunion de la Table ronde sur la chaîne de valeur des produits de la mer : Compte rendu des décisions"
    },
    "exturl": "",
    "teamsite_location": {
        "en": "/default/main/AAFC-AAC/Internet-Internet/CCB-DGCC/WORKAREA/CCB-DGCC/templatedata/comm-comm/gene-gene/data/twenty-ninth_seafood_value_chain_1521481844954_en",
        "fr": "/default/main/AAFC-AAC/Internet-Internet/CCB-DGCC/WORKAREA/CCB-DGCC/templatedata/comm-comm/gene-gene/data/twenty-ninth_seafood_value_chain_1521481844954_fr"
    },
    "type_name": "comm-comm/gene-gene",
    "has_dcr_id": true,
    "breadcrumb": {
        "en": "Twenty-Ninth meeting of the Seafood Value Chain Roundtable: Record of decision",
        "fr": "Vingt-neuvième réunion de la Table ronde sur la chaîne de valeur des produits de la mer : Compte rendu des décisions"
    },
    "layout_name": "<NULL>",
    "lang": "en"
}