{
    "dcr_id": "1524749184235",
    "title": {
        "en": "Genomic Tools for Pest Resistant Wheat",
        "fr": "Outils génomiques pour un blé résistant à la maladie"
    },
    "modified": "2018-04-26",
    "issued": "2018-04-26",
    "templatetype": "content page 1 column",
    "page_type": "0",
    "node_id": "1378999410478",
    "dc_date_created": "2018-04-26",
    "managing_branch": "PAB",
    "parent_node_id": "",
    "label": {
        "en": "Genomic Tools for Pest Resistant Wheat",
        "fr": "Outils génomiques pour un blé résistant à la maladie"
    },
    "exturl": "",
    "teamsite_location": {
        "en": "/default/main/AAFC-AAC/Internet-Internet/CCB-DGCC/WORKAREA/CCB-DGCC/templatedata/comm-comm/gene-gene/data/genomic_tools_pest_resistant_1524749184235_en",
        "fr": "/default/main/AAFC-AAC/Internet-Internet/CCB-DGCC/WORKAREA/CCB-DGCC/templatedata/comm-comm/gene-gene/data/genomic_tools_pest_resistant_1524749184235_fr"
    },
    "type_name": "comm-comm/gene-gene",
    "has_dcr_id": true,
    "breadcrumb": {
        "en": "Genomic Tools for Pest Resistant Wheat",
        "fr": "Outils génomiques pour un blé résistant à la maladie"
    },
    "layout_name": "content page 1 column",
    "lang": "en"
}