{
    "dcr_id": "1524094438028",
    "title": {
        "en": "AgriStability: Canadian Agricultural Partnership - Program Guidelines",
        "fr": "Agri-stabilité : Partenariat canadien pour l’agriculture - Lignes directrices du programme"
    },
    "modified": "2020-07-13",
    "issued": "2020-07-13",
    "templatetype": "content page 1 column",
    "page_type": "0",
    "node_id": "1594037384895",
    "dc_date_created": "2020-07-13",
    "managing_branch": "PAB",
    "parent_node_id": "",
    "label": {
        "en": "AgriStability: Canadian Agricultural Partnership - Program Guidelines",
        "fr": "Agri-stabilité : Partenariat canadien pour l’agriculture - Lignes directrices du programme"
    },
    "exturl": "",
    "teamsite_location": {
        "en": "/default/main/AAFC-AAC/Internet-Internet/Group-Ensemble/ProgServ-ProgServ/WORKAREA/ProgServ-ProgServ/templatedata/comm-comm/gene-gene/data/06/cap_as_pguidelines_1524094438028_en",
        "fr": "/default/main/AAFC-AAC/Internet-Internet/Group-Ensemble/ProgServ-ProgServ/WORKAREA/ProgServ-ProgServ/templatedata/comm-comm/gene-gene/data/06/cap_as_pguidelines_1524094438028_fr"
    },
    "type_name": "comm-comm/gene-gene",
    "has_dcr_id": true,
    "breadcrumb": {
        "en": "AgriStability: Canadian Agricultural Partnership - Program Guidelines",
        "fr": "Agri-stabilité : Partenariat canadien pour l’agriculture - Lignes directrices du programme"
    },
    "layout_name": "content page 1 column",
    "lang": "en"
}