{
    "dcr_id": "1525274546272",
    "title": {
        "en": "AgriStability - New Brunswick - 2018 Program Price List",
        "fr": "Agri-stabilité  – Nouveau-Brunswick - Liste de prix du Programme 2018"
    },
    "modified": "2020-07-13",
    "issued": "2020-07-13",
    "templatetype": "content page 1 column",
    "page_type": "0",
    "node_id": "1594037414103",
    "dc_date_created": "2020-07-13",
    "managing_branch": "PAB",
    "parent_node_id": "",
    "label": {
        "en": "AgriStability - New Brunswick - 2018 Program Price List",
        "fr": "Agri-stabilité  – Nouveau-Brunswick - Liste de prix du Programme 2018"
    },
    "exturl": "",
    "teamsite_location": {
        "en": "/default/main/AAFC-AAC/Internet-Internet/Group-Ensemble/ProgServ-ProgServ/WORKAREA/ProgServ-ProgServ/templatedata/comm-comm/gene-gene/data/06/as_2018_pricelist_nb_1525274546272_en",
        "fr": "/default/main/AAFC-AAC/Internet-Internet/Group-Ensemble/ProgServ-ProgServ/WORKAREA/ProgServ-ProgServ/templatedata/comm-comm/gene-gene/data/06/as_2018_pricelist_nb_1525274546272_fr"
    },
    "type_name": "comm-comm/gene-gene",
    "has_dcr_id": true,
    "breadcrumb": {
        "en": "AgriStability - New Brunswick - 2018 Program Price List",
        "fr": "Agri-stabilité  – Nouveau-Brunswick - Liste de prix du Programme 2018"
    },
    "layout_name": "content page 1 column",
    "lang": "en"
}