{
    "dcr_id": "1530013156290",
    "title": {
        "en": "Submit your feedback - Programs and Services",
        "fr": "Commentaires sur les programmes et les services"
    },
    "modified": "2020-04-20",
    "issued": "2019-03-01",
    "templatetype": "content page 1 column",
    "page_type": "0",
    "node_id": "1354137773676",
    "dc_date_created": "2019-03-01",
    "managing_branch": "PAB",
    "parent_node_id": "",
    "label": {
        "en": "Submit your feedback - Programs and Services",
        "fr": "Commentaires sur les programmes et les services"
    },
    "exturl": "",
    "teamsite_location": {
        "en": "/default/main/AAFC-AAC/Internet-Internet/CCB-DGCC/WORKAREA/CCB-DGCC/templatedata/comm-comm/gene-gene/data/submit_your_feedback_proserv_1530013156290_en",
        "fr": "/default/main/AAFC-AAC/Internet-Internet/CCB-DGCC/WORKAREA/CCB-DGCC/templatedata/comm-comm/gene-gene/data/submit_your_feedback_proserv_1530013156290_fr"
    },
    "type_name": "comm-comm/gene-gene",
    "has_dcr_id": true,
    "breadcrumb": {
        "en": "Submit your feedback - Programs and Services",
        "fr": "Commentaires sur les programmes et les services"
    },
    "layout_name": "content page 1 column",
    "lang": "en"
}