{
    "dcr_id": "1530836356857",
    "title": {
        "en": "Evaluation of AgriInnovation Stream C: Enabling Commercialization and   Adoption – Summary</h1>",
        "fr": "Évaluation   du programme Agri-innovation, volet&nbsp;C&nbsp;– Facilitation de la   commercialisation et de l&rsquo;adoption : Sommaire"
    },
    "modified": "2018-07-27",
    "issued": "2018-07-27",
    "templatetype": "content page 1 column",
    "page_type": "0",
    "node_id": "1566306181000",
    "dc_date_created": "2018-07-27",
    "managing_branch": "PAB",
    "parent_node_id": "",
    "label": {
        "en": "Evaluation of AgriInnovation Stream C: Enabling Commercialization and   Adoption – Summary</h1>",
        "fr": "Évaluation   du programme Agri-innovation, volet&nbsp;C&nbsp;– Facilitation de la   commercialisation et de l&rsquo;adoption : Sommaire"
    },
    "exturl": "",
    "teamsite_location": {
        "en": "/default/main/AAFC-AAC/Internet-Internet/Common-Commun/WORKAREA/Common-Commun/templatedata/comm-comm/gene-gene/data/07/eval_agriinovat_stream-c_summ_1530836356857_en",
        "fr": "/default/main/AAFC-AAC/Internet-Internet/Common-Commun/WORKAREA/Common-Commun/templatedata/comm-comm/gene-gene/data/07/eval_agriinovat_stream-c_summ_1530836356857_fr"
    },
    "type_name": "comm-comm/gene-gene",
    "has_dcr_id": true,
    "breadcrumb": {
        "en": "Evaluation of AgriInnovation Stream C: Enabling Commercialization and   Adoption – Summary</h1>",
        "fr": "Évaluation   du programme Agri-innovation, volet&nbsp;C&nbsp;– Facilitation de la   commercialisation et de l&rsquo;adoption : Sommaire"
    },
    "layout_name": "content page 1 column",
    "lang": "en"
}