{
    "dcr_id": "1532532321494",
    "title": {
        "en": "AgriStability New Participant Identification Number Request Form",
        "fr": "Formulaire de demande numéro d'identification du participant pour les nouveaux participants d'Agri-stabilité"
    },
    "modified": "2020-07-13",
    "issued": "2020-07-13",
    "templatetype": "content page 1 column",
    "page_type": "0",
    "node_id": "1594037384895",
    "dc_date_created": "2020-07-13",
    "managing_branch": "PAB",
    "parent_node_id": "",
    "label": {
        "en": "AgriStability New Participant Identification Number Request Form",
        "fr": "Formulaire de demande numéro d'identification du participant pour les nouveaux participants d'Agri-stabilité"
    },
    "exturl": "",
    "teamsite_location": {
        "en": "/default/main/AAFC-AAC/Internet-Internet/Group-Ensemble/ProgServ-ProgServ/WORKAREA/ProgServ-ProgServ/templatedata/comm-comm/gene-gene/data/06/as_pin_request_form_1532532321494_en",
        "fr": "/default/main/AAFC-AAC/Internet-Internet/Group-Ensemble/ProgServ-ProgServ/WORKAREA/ProgServ-ProgServ/templatedata/comm-comm/gene-gene/data/06/as_pin_request_form_1532532321494_fr"
    },
    "type_name": "comm-comm/gene-gene",
    "has_dcr_id": true,
    "breadcrumb": {
        "en": "AgriStability New Participant Identification Number Request Form",
        "fr": "Formulaire de demande numéro d'identification du participant pour les nouveaux participants d'Agri-stabilité"
    },
    "layout_name": "content page 1 column",
    "lang": "en"
}