{
    "dcr_id": "1533042552188",
    "title": {
        "en": "California-Canada agricultural trade",
        "fr": "Commerce agricole Californie-Canada"
    },
    "modified": "2020-11-23",
    "issued": "2018-08-03",
    "templatetype": "content page 1 column",
    "page_type": "0",
    "node_id": "1453480440103",
    "dc_date_created": "2018-08-03",
    "managing_branch": "MISB",
    "parent_node_id": "",
    "label": {
        "en": "California-Canada agricultural trade",
        "fr": "Commerce agricole Californie-Canada"
    },
    "exturl": "",
    "teamsite_location": {
        "en": "/default/main/AAFC-AAC/Internet-Internet/MISB-DGSIM/ATS-SEA/ATS-SEA-s2/WORKAREA/ATS-SEA-s2/templatedata/comm-comm/gene-gene/data/amr_california-canada_1533042552188_en",
        "fr": "/default/main/AAFC-AAC/Internet-Internet/MISB-DGSIM/ATS-SEA/ATS-SEA-s2/WORKAREA/ATS-SEA-s2/templatedata/comm-comm/gene-gene/data/amr_california-canada_1533042552188_fr"
    },
    "type_name": "comm-comm/gene-gene",
    "has_dcr_id": true,
    "breadcrumb": {
        "en": "California-Canada agricultural trade",
        "fr": "Commerce agricole Californie-Canada"
    },
    "layout_name": "content page 1 column",
    "lang": "en"
}