{
    "dcr_id": "1534549112696",
    "title": {
        "en": "Project statuses of minor use pesticides on small-acreage crops",
        "fr": "État des projets de pesticides à usage limité pour des cultures sur surfaces réduites"
    },
    "modified": "2021-01-06",
    "issued": "2018-08-27",
    "templatetype": "content page 1 column",
    "page_type": "0",
    "node_id": "1535050365039",
    "dc_date_created": "2018-08-27",
    "managing_branch": "PAB",
    "parent_node_id": "",
    "label": {
        "en": "Project statuses of minor use pesticides on small-acreage crops",
        "fr": "État des projets de pesticides à usage limité pour des cultures sur surfaces réduites"
    },
    "exturl": "",
    "teamsite_location": {
        "en": "/default/main/AAFC-AAC/Internet-Internet/Group-Ensemble/ProgServ-ProgServ/WORKAREA/ProgServ-ProgServ/templatedata/comm-comm/gene-gene/data/08/mup_all_project_status_1534549112696_en",
        "fr": "/default/main/AAFC-AAC/Internet-Internet/Group-Ensemble/ProgServ-ProgServ/WORKAREA/ProgServ-ProgServ/templatedata/comm-comm/gene-gene/data/08/mup_all_project_status_1534549112696_fr"
    },
    "type_name": "comm-comm/gene-gene",
    "has_dcr_id": true,
    "breadcrumb": {
        "en": "Project statuses of minor use pesticides on small-acreage crops",
        "fr": "État des projets de pesticides à usage limité pour des cultures sur surfaces réduites"
    },
    "layout_name": "content page 1 column",
    "lang": "en"
}