{
    "dcr_id": "1534445926066",
    "title": {
        "en": "Science strategies in agriculture",
        "fr": "Strategies scientifiques en  agriculture"
    },
    "modified": "2018-08-23",
    "issued": "2018-08-23",
    "templatetype": "content page 1 column",
    "page_type": "0",
    "node_id": "1378999410478",
    "dc_date_created": "2018-08-23",
    "managing_branch": "PAB",
    "parent_node_id": "",
    "label": {
        "en": "Science strategies in agriculture",
        "fr": "Strategies scientifiques en  agriculture"
    },
    "exturl": "",
    "teamsite_location": {
        "en": "/default/main/AAFC-AAC/Internet-Internet/CCB-DGCC/WORKAREA/CCB-DGCC/templatedata/comm-comm/gene-gene/data/nine_sci_strategies_1534445926066_en",
        "fr": "/default/main/AAFC-AAC/Internet-Internet/CCB-DGCC/WORKAREA/CCB-DGCC/templatedata/comm-comm/gene-gene/data/nine_sci_strategies_1534445926066_fr"
    },
    "type_name": "comm-comm/gene-gene",
    "has_dcr_id": true,
    "breadcrumb": {
        "en": "Science strategies in agriculture",
        "fr": "Strategies scientifiques en  agriculture"
    },
    "layout_name": "content page 1 column",
    "lang": "en"
}