{
    "dcr_id": "1534780343564",
    "title": {
        "en": "Meet Your Farmer",
        "fr": "Meet Your Farmer"
    },
    "modified": "2018-09-26",
    "issued": "2018-08-21",
    "templatetype": "content page 1 column",
    "page_type": "0",
    "node_id": "1354137774089",
    "dc_date_created": "2018-08-21",
    "managing_branch": "PAB",
    "parent_node_id": "",
    "label": {
        "en": "Meet Your Farmer",
        "fr": "Meet Your Farmer"
    },
    "exturl": "",
    "teamsite_location": {
        "en": "/default/main/AAFC-AAC/Internet-Internet/CCB-DGCC/WORKAREA/CCB-DGCC/templatedata/comm-comm/gene-gene/data/meet_your_farmer_1534780343564_en",
        "fr": "/default/main/AAFC-AAC/Internet-Internet/CCB-DGCC/WORKAREA/CCB-DGCC/templatedata/comm-comm/gene-gene/data/meet_your_farmer_1534780343564_fr"
    },
    "type_name": "comm-comm/gene-gene",
    "has_dcr_id": true,
    "breadcrumb": {
        "en": "Meet Your Farmer",
        "fr": "Meet Your Farmer"
    },
    "layout_name": "content page 1 column",
    "lang": "en"
}