{
    "dcr_id": "1534270656152",
    "title": {
        "en": "Audit of Memoranda of Understanding and Service Agreements",
        "fr": "Audit des protocoles d'entente et des ententes de service "
    },
    "modified": "2018-08-28",
    "issued": "2018-08-28",
    "templatetype": "content page 1 column",
    "page_type": "0",
    "node_id": "1566306181000",
    "dc_date_created": "2018-08-28",
    "managing_branch": "PAB",
    "parent_node_id": "",
    "label": {
        "en": "Audit of Memoranda of Understanding and Service Agreements",
        "fr": "Audit des protocoles d'entente et des ententes de service "
    },
    "exturl": "",
    "teamsite_location": {
        "en": "/default/main/AAFC-AAC/Internet-Internet/Common-Commun/WORKAREA/Common-Commun/templatedata/comm-comm/gene-gene/data/08/audit_memoranda_understanding_service_1534270656152_en",
        "fr": "/default/main/AAFC-AAC/Internet-Internet/Common-Commun/WORKAREA/Common-Commun/templatedata/comm-comm/gene-gene/data/08/audit_memoranda_understanding_service_1534270656152_fr"
    },
    "type_name": "comm-comm/gene-gene",
    "has_dcr_id": true,
    "breadcrumb": {
        "en": "Audit of Memoranda of Understanding and Service Agreements",
        "fr": "Audit des protocoles d'entente et des ententes de service "
    },
    "layout_name": "content page 1 column",
    "lang": "en"
}