{
    "dcr_id": "1535411095238",
    "title": {
        "en": "Reduced-Risk Strategy for Fusarium Head Blight in Wheat",
        "fr": "Stratégie de réduction des risques pour la lutte contre la fusariose de l’épi dans les cultures de blé"
    },
    "modified": "2019-09-09",
    "issued": "2018-10-12",
    "templatetype": "content page 1 column",
    "page_type": "0",
    "node_id": "1535393199176",
    "dc_date_created": "2018-10-12",
    "managing_branch": "PAB",
    "parent_node_id": "",
    "label": {
        "en": "Reduced-Risk Strategy for Fusarium Head Blight in Wheat",
        "fr": "Stratégie de réduction des risques pour la lutte contre la fusariose de l’épi dans les cultures de blé"
    },
    "exturl": "",
    "teamsite_location": {
        "en": "/default/main/AAFC-AAC/Internet-Internet/Group-Ensemble/ProgServ-ProgServ/WORKAREA/ProgServ-ProgServ/templatedata/comm-comm/gene-gene/data/08/s_fusarium_head_blight_1535411095238_en",
        "fr": "/default/main/AAFC-AAC/Internet-Internet/Group-Ensemble/ProgServ-ProgServ/WORKAREA/ProgServ-ProgServ/templatedata/comm-comm/gene-gene/data/08/s_fusarium_head_blight_1535411095238_fr"
    },
    "type_name": "comm-comm/gene-gene",
    "has_dcr_id": true,
    "breadcrumb": {
        "en": "Reduced-Risk Strategy for Fusarium Head Blight in Wheat",
        "fr": "Stratégie de réduction des risques pour la lutte contre la fusariose de l’épi dans les cultures de blé"
    },
    "layout_name": "content page 1 column",
    "lang": "en"
}