{
    "dcr_id": "1535563395750",
    "title": {
        "en": "Crop Profile for Winter Wheat in Canada, 2016 (84 pages) - Synopsis",
        "fr": "Profil de la culture du blé d’automne au Canada, 2016 (87 pages) – Résumé"
    },
    "modified": "2019-05-23",
    "issued": "2018-10-12",
    "templatetype": "content page 1 column",
    "page_type": "0",
    "node_id": "1535122352575",
    "dc_date_created": "2018-10-12",
    "managing_branch": "PAB",
    "parent_node_id": "",
    "label": {
        "en": "Crop Profile for Winter Wheat in Canada, 2016 (84 pages) - Synopsis",
        "fr": "Profil de la culture du blé d’automne au Canada, 2016 (87 pages) – Résumé"
    },
    "exturl": "",
    "teamsite_location": {
        "en": "/default/main/AAFC-AAC/Internet-Internet/Group-Ensemble/ProgServ-ProgServ/WORKAREA/ProgServ-ProgServ/templatedata/comm-comm/gene-gene/data/08/cp_wheat-winter_1535563395750_en",
        "fr": "/default/main/AAFC-AAC/Internet-Internet/Group-Ensemble/ProgServ-ProgServ/WORKAREA/ProgServ-ProgServ/templatedata/comm-comm/gene-gene/data/08/cp_wheat-winter_1535563395750_fr"
    },
    "type_name": "comm-comm/gene-gene",
    "has_dcr_id": true,
    "breadcrumb": {
        "en": "Crop Profile for Winter Wheat in Canada, 2016 (84 pages) - Synopsis",
        "fr": "Profil de la culture du blé d’automne au Canada, 2016 (87 pages) – Résumé"
    },
    "layout_name": "content page 1 column",
    "lang": "en"
}