{
    "dcr_id": "1535495787108",
    "title": {
        "en": "Crop Profile for Apple in Canada, 2016 (94 pages) - Synopsis",
        "fr": "Profil de la culture de la pomme au Canada, 2016 (pages 98) – Résumé"
    },
    "modified": "2019-02-08",
    "issued": "2018-10-12",
    "templatetype": "content page 1 column",
    "page_type": "0",
    "node_id": "1535122352575",
    "dc_date_created": "2018-10-12",
    "managing_branch": "PAB",
    "parent_node_id": "",
    "label": {
        "en": "Crop Profile for Apple in Canada, 2016 (94 pages) - Synopsis",
        "fr": "Profil de la culture de la pomme au Canada, 2016 (pages 98) – Résumé"
    },
    "exturl": "",
    "teamsite_location": {
        "en": "/default/main/AAFC-AAC/Internet-Internet/Group-Ensemble/ProgServ-ProgServ/WORKAREA/ProgServ-ProgServ/templatedata/comm-comm/gene-gene/data/08/cp_apple_1535495787108_en",
        "fr": "/default/main/AAFC-AAC/Internet-Internet/Group-Ensemble/ProgServ-ProgServ/WORKAREA/ProgServ-ProgServ/templatedata/comm-comm/gene-gene/data/08/cp_apple_1535495787108_fr"
    },
    "type_name": "comm-comm/gene-gene",
    "has_dcr_id": true,
    "breadcrumb": {
        "en": "Crop Profile for Apple in Canada, 2016 (94 pages) - Synopsis",
        "fr": "Profil de la culture de la pomme au Canada, 2016 (pages 98) – Résumé"
    },
    "layout_name": "content page 1 column",
    "lang": "en"
}