{
    "dcr_id": "1535667355586",
    "title": {
        "en": "Evaluation of Naturalis L for the management of cherry fruit fly in cherry",
        "fr": "Évaluation de Naturalis-L pour la lutte contre la trypète des cerises"
    },
    "modified": "2019-10-04",
    "issued": "2018-10-12",
    "templatetype": "content page 1 column",
    "page_type": "0",
    "node_id": "1535122427752",
    "dc_date_created": "2018-10-12",
    "managing_branch": "PAB",
    "parent_node_id": "",
    "label": {
        "en": "Evaluation of Naturalis L for the management of cherry fruit fly in cherry",
        "fr": "Évaluation de Naturalis-L pour la lutte contre la trypète des cerises"
    },
    "exturl": "",
    "teamsite_location": {
        "en": "/default/main/AAFC-AAC/Internet-Internet/Group-Ensemble/ProgServ-ProgServ/WORKAREA/ProgServ-ProgServ/templatedata/comm-comm/gene-gene/data/08/bpr11-040_1535667355586_en",
        "fr": "/default/main/AAFC-AAC/Internet-Internet/Group-Ensemble/ProgServ-ProgServ/WORKAREA/ProgServ-ProgServ/templatedata/comm-comm/gene-gene/data/08/bpr11-040_1535667355586_fr"
    },
    "type_name": "comm-comm/gene-gene",
    "has_dcr_id": true,
    "breadcrumb": {
        "en": "Evaluation of Naturalis L for the management of cherry fruit fly in cherry",
        "fr": "Évaluation de Naturalis-L pour la lutte contre la trypète des cerises"
    },
    "layout_name": "content page 1 column",
    "lang": "en"
}