{
    "dcr_id": "1535481688265",
    "title": {
        "en": "National consortium wants Canada to have a bigger bite of apple market",
        "fr": "Un consortium national veut que le Canada croque une plus grande part du marché de la pomme"
    },
    "modified": "2018-08-29",
    "issued": "2018-08-29",
    "templatetype": "content page 1 column",
    "page_type": "0",
    "node_id": "1378999410478",
    "dc_date_created": "2018-08-29",
    "managing_branch": "PAB",
    "parent_node_id": "",
    "label": {
        "en": "National consortium wants Canada to have a bigger bite of apple market",
        "fr": "Un consortium national veut que le Canada croque une plus grande part du marché de la pomme"
    },
    "exturl": "",
    "teamsite_location": {
        "en": "/default/main/AAFC-AAC/Internet-Internet/CCB-DGCC/WORKAREA/CCB-DGCC/templatedata/comm-comm/gene-gene/data/feature_article_apple_market_1535481688265_en",
        "fr": "/default/main/AAFC-AAC/Internet-Internet/CCB-DGCC/WORKAREA/CCB-DGCC/templatedata/comm-comm/gene-gene/data/feature_article_apple_market_1535481688265_fr"
    },
    "type_name": "comm-comm/gene-gene",
    "has_dcr_id": true,
    "breadcrumb": {
        "en": "National consortium wants Canada to have a bigger bite of apple market",
        "fr": "Un consortium national veut que le Canada croque une plus grande part du marché de la pomme"
    },
    "layout_name": "content page 1 column",
    "lang": "en"
}