{
    "dcr_id": "1536947947924",
    "title": {
        "en": "On-Farm Remediation of Pesticide Wastes using Biobeds",
        "fr": "Assainissement à la ferme des déchets de pesticides à l'aide de biobeds"
    },
    "modified": "2018-10-12",
    "issued": "2018-10-12",
    "templatetype": "content page 1 column",
    "page_type": "0",
    "node_id": "1535122427752",
    "dc_date_created": "2018-10-12",
    "managing_branch": "PAB",
    "parent_node_id": "",
    "label": {
        "en": "On-Farm Remediation of Pesticide Wastes using Biobeds",
        "fr": "Assainissement à la ferme des déchets de pesticides à l'aide de biobeds"
    },
    "exturl": "",
    "teamsite_location": {
        "en": "/default/main/AAFC-AAC/Internet-Internet/Group-Ensemble/ProgServ-ProgServ/WORKAREA/ProgServ-ProgServ/templatedata/comm-comm/gene-gene/data/09/mur07-050_1536947947924_en",
        "fr": "/default/main/AAFC-AAC/Internet-Internet/Group-Ensemble/ProgServ-ProgServ/WORKAREA/ProgServ-ProgServ/templatedata/comm-comm/gene-gene/data/09/mur07-050_1536947947924_fr"
    },
    "type_name": "comm-comm/gene-gene",
    "has_dcr_id": true,
    "breadcrumb": {
        "en": "On-Farm Remediation of Pesticide Wastes using Biobeds",
        "fr": "Assainissement à la ferme des déchets de pesticides à l'aide de biobeds"
    },
    "layout_name": "content page 1 column",
    "lang": "en"
}