{
    "dcr_id": "1537286270568",
    "title": {
        "en": "Operational implementation of weed biocontrol to reduce risks from herbicides",
        "fr": "Mise en application de méthodes de lutte biologique contre les mauvaises herbes pour réduire les risques associés aux herbicides"
    },
    "modified": "2018-10-12",
    "issued": "2018-10-12",
    "templatetype": "content page 1 column",
    "page_type": "0",
    "node_id": "1535122427752",
    "dc_date_created": "2018-10-12",
    "managing_branch": "PAB",
    "parent_node_id": "",
    "label": {
        "en": "Operational implementation of weed biocontrol to reduce risks from herbicides",
        "fr": "Mise en application de méthodes de lutte biologique contre les mauvaises herbes pour réduire les risques associés aux herbicides"
    },
    "exturl": "",
    "teamsite_location": {
        "en": "/default/main/AAFC-AAC/Internet-Internet/Group-Ensemble/ProgServ-ProgServ/WORKAREA/ProgServ-ProgServ/templatedata/comm-comm/gene-gene/data/09/prr03-070_1537286270568_en",
        "fr": "/default/main/AAFC-AAC/Internet-Internet/Group-Ensemble/ProgServ-ProgServ/WORKAREA/ProgServ-ProgServ/templatedata/comm-comm/gene-gene/data/09/prr03-070_1537286270568_fr"
    },
    "type_name": "comm-comm/gene-gene",
    "has_dcr_id": true,
    "breadcrumb": {
        "en": "Operational implementation of weed biocontrol to reduce risks from herbicides",
        "fr": "Mise en application de méthodes de lutte biologique contre les mauvaises herbes pour réduire les risques associés aux herbicides"
    },
    "layout_name": "content page 1 column",
    "lang": "en"
}