{
    "dcr_id": "1537377297991",
    "title": {
        "en": "Sustainable management of the soybean aphid with biological control agents and reduced risk - and bio-pesticides",
        "fr": "Lutte durable contre le puceron du soja à l'aide d'agents de lutte biologique ainsi que de pesticides à risque réduit et de biopesticides"
    },
    "modified": "2018-10-12",
    "issued": "2018-10-12",
    "templatetype": "content page 1 column",
    "page_type": "0",
    "node_id": "1535122427752",
    "dc_date_created": "2018-10-12",
    "managing_branch": "PAB",
    "parent_node_id": "",
    "label": {
        "en": "Sustainable management of the soybean aphid with biological control agents and reduced risk - and bio-pesticides",
        "fr": "Lutte durable contre le puceron du soja à l'aide d'agents de lutte biologique ainsi que de pesticides à risque réduit et de biopesticides"
    },
    "exturl": "",
    "teamsite_location": {
        "en": "/default/main/AAFC-AAC/Internet-Internet/Group-Ensemble/ProgServ-ProgServ/WORKAREA/ProgServ-ProgServ/templatedata/comm-comm/gene-gene/data/09/prr07-490_1537377297991_en",
        "fr": "/default/main/AAFC-AAC/Internet-Internet/Group-Ensemble/ProgServ-ProgServ/WORKAREA/ProgServ-ProgServ/templatedata/comm-comm/gene-gene/data/09/prr07-490_1537377297991_fr"
    },
    "type_name": "comm-comm/gene-gene",
    "has_dcr_id": true,
    "breadcrumb": {
        "en": "Sustainable management of the soybean aphid with biological control agents and reduced risk - and bio-pesticides",
        "fr": "Lutte durable contre le puceron du soja à l'aide d'agents de lutte biologique ainsi que de pesticides à risque réduit et de biopesticides"
    },
    "layout_name": "content page 1 column",
    "lang": "en"
}