{
    "dcr_id": "1537395251495",
    "title": {
        "en": "Physical barriers applied to soil surface in the field and in the greenhouse to prevent oviposition by cabbage maggot ",
        "fr": "Obstacles physiques a la couche arable du champ ou serre afin de prevenir la pondaison par la mouche du chou"
    },
    "modified": "2018-10-12",
    "issued": "2018-10-12",
    "templatetype": "content page 1 column",
    "page_type": "0",
    "node_id": "1535122427752",
    "dc_date_created": "2018-10-12",
    "managing_branch": "PAB",
    "parent_node_id": "",
    "label": {
        "en": "Physical barriers applied to soil surface in the field and in the greenhouse to prevent oviposition by cabbage maggot ",
        "fr": "Obstacles physiques a la couche arable du champ ou serre afin de prevenir la pondaison par la mouche du chou"
    },
    "exturl": "",
    "teamsite_location": {
        "en": "/default/main/AAFC-AAC/Internet-Internet/Group-Ensemble/ProgServ-ProgServ/WORKAREA/ProgServ-ProgServ/templatedata/comm-comm/gene-gene/data/09/prr10-170_1537395251495_en",
        "fr": "/default/main/AAFC-AAC/Internet-Internet/Group-Ensemble/ProgServ-ProgServ/WORKAREA/ProgServ-ProgServ/templatedata/comm-comm/gene-gene/data/09/prr10-170_1537395251495_fr"
    },
    "type_name": "comm-comm/gene-gene",
    "has_dcr_id": true,
    "breadcrumb": {
        "en": "Physical barriers applied to soil surface in the field and in the greenhouse to prevent oviposition by cabbage maggot ",
        "fr": "Obstacles physiques a la couche arable du champ ou serre afin de prevenir la pondaison par la mouche du chou"
    },
    "layout_name": "content page 1 column",
    "lang": "en"
}