{
    "dcr_id": "1537373451014",
    "title": {
        "en": "Developing mating disruption for the integrated management of grape berry moth",
        "fr": "Mise au point de techniques de confusion sexuelle pour la lutte intégrée contre la tordeuse de la vigne"
    },
    "modified": "2018-10-12",
    "issued": "2018-10-12",
    "templatetype": "content page 1 column",
    "page_type": "0",
    "node_id": "1535122427752",
    "dc_date_created": "2018-10-12",
    "managing_branch": "PAB",
    "parent_node_id": "",
    "label": {
        "en": "Developing mating disruption for the integrated management of grape berry moth",
        "fr": "Mise au point de techniques de confusion sexuelle pour la lutte intégrée contre la tordeuse de la vigne"
    },
    "exturl": "",
    "teamsite_location": {
        "en": "/default/main/AAFC-AAC/Internet-Internet/Group-Ensemble/ProgServ-ProgServ/WORKAREA/ProgServ-ProgServ/templatedata/comm-comm/gene-gene/data/09/prr07-230_1537373451014_en",
        "fr": "/default/main/AAFC-AAC/Internet-Internet/Group-Ensemble/ProgServ-ProgServ/WORKAREA/ProgServ-ProgServ/templatedata/comm-comm/gene-gene/data/09/prr07-230_1537373451014_fr"
    },
    "type_name": "comm-comm/gene-gene",
    "has_dcr_id": true,
    "breadcrumb": {
        "en": "Developing mating disruption for the integrated management of grape berry moth",
        "fr": "Mise au point de techniques de confusion sexuelle pour la lutte intégrée contre la tordeuse de la vigne"
    },
    "layout_name": "content page 1 column",
    "lang": "en"
}