{
    "dcr_id": "1537385537931",
    "title": {
        "en": "Could Western winter wheat be Canada's new premium quality product? Developments are underway to make this a reality",
        "fr": "Le blé d’hiver de l’Ouest pourrait-il devenir le nouveau produit de qualité supérieure du Canada? Des progrès sont en cours pour concrétiser cette avancée"
    },
    "modified": "2020-02-24",
    "issued": "2018-09-21",
    "templatetype": "content page 1 column",
    "page_type": "0",
    "node_id": "1378999410478",
    "dc_date_created": "2018-09-21",
    "managing_branch": "PAB",
    "parent_node_id": "",
    "label": {
        "en": "Could Western winter wheat be Canada's new premium quality product? Developments are underway to make this a reality",
        "fr": "Le blé d’hiver de l’Ouest pourrait-il devenir le nouveau produit de qualité supérieure du Canada? Des progrès sont en cours pour concrétiser cette avancée"
    },
    "exturl": "",
    "teamsite_location": {
        "en": "/default/main/AAFC-AAC/Internet-Internet/CCB-DGCC/WORKAREA/CCB-DGCC/templatedata/comm-comm/gene-gene/data/feature_article_winter_wheat_1537385537931_en",
        "fr": "/default/main/AAFC-AAC/Internet-Internet/CCB-DGCC/WORKAREA/CCB-DGCC/templatedata/comm-comm/gene-gene/data/feature_article_winter_wheat_1537385537931_fr"
    },
    "type_name": "comm-comm/gene-gene",
    "has_dcr_id": true,
    "breadcrumb": {
        "en": "Could Western winter wheat be Canada's new premium quality product? Developments are underway to make this a reality",
        "fr": "Le blé d’hiver de l’Ouest pourrait-il devenir le nouveau produit de qualité supérieure du Canada? Des progrès sont en cours pour concrétiser cette avancée"
    },
    "layout_name": "content page 1 column",
    "lang": "en"
}