{
    "dcr_id": "1537806252088",
    "title": {
        "en": "Screening trial for solutions to Verticillium wilt in potatoes",
        "fr": "Essai en vue de trouver des solutions à la flétrissure verticillienne de la pomme de terre"
    },
    "modified": "2018-10-12",
    "issued": "2018-10-12",
    "templatetype": "content page 1 column",
    "page_type": "0",
    "node_id": "1535122427752",
    "dc_date_created": "2018-10-12",
    "managing_branch": "PAB",
    "parent_node_id": "",
    "label": {
        "en": "Screening trial for solutions to Verticillium wilt in potatoes",
        "fr": "Essai en vue de trouver des solutions à la flétrissure verticillienne de la pomme de terre"
    },
    "exturl": "",
    "teamsite_location": {
        "en": "/default/main/AAFC-AAC/Internet-Internet/Group-Ensemble/ProgServ-ProgServ/WORKAREA/ProgServ-ProgServ/templatedata/comm-comm/gene-gene/data/09/scr07-003_1537806252088_en",
        "fr": "/default/main/AAFC-AAC/Internet-Internet/Group-Ensemble/ProgServ-ProgServ/WORKAREA/ProgServ-ProgServ/templatedata/comm-comm/gene-gene/data/09/scr07-003_1537806252088_fr"
    },
    "type_name": "comm-comm/gene-gene",
    "has_dcr_id": true,
    "breadcrumb": {
        "en": "Screening trial for solutions to Verticillium wilt in potatoes",
        "fr": "Essai en vue de trouver des solutions à la flétrissure verticillienne de la pomme de terre"
    },
    "layout_name": "content page 1 column",
    "lang": "en"
}