{
    "dcr_id": "1537379394286",
    "title": {
        "en": "Carrot trimmer implementation for white mold management in Ontario",
        "fr": "Mise en place d'une facheuse de carottes pour lutter contre la moisissure blanche en Ontario"
    },
    "modified": "2018-10-12",
    "issued": "2018-10-12",
    "templatetype": "content page 1 column",
    "page_type": "0",
    "node_id": "1535122427752",
    "dc_date_created": "2018-10-12",
    "managing_branch": "PAB",
    "parent_node_id": "",
    "label": {
        "en": "Carrot trimmer implementation for white mold management in Ontario",
        "fr": "Mise en place d'une facheuse de carottes pour lutter contre la moisissure blanche en Ontario"
    },
    "exturl": "",
    "teamsite_location": {
        "en": "/default/main/AAFC-AAC/Internet-Internet/Group-Ensemble/ProgServ-ProgServ/WORKAREA/ProgServ-ProgServ/templatedata/comm-comm/gene-gene/data/09/prr09-010_1537379394286_en",
        "fr": "/default/main/AAFC-AAC/Internet-Internet/Group-Ensemble/ProgServ-ProgServ/WORKAREA/ProgServ-ProgServ/templatedata/comm-comm/gene-gene/data/09/prr09-010_1537379394286_fr"
    },
    "type_name": "comm-comm/gene-gene",
    "has_dcr_id": true,
    "breadcrumb": {
        "en": "Carrot trimmer implementation for white mold management in Ontario",
        "fr": "Mise en place d'une facheuse de carottes pour lutter contre la moisissure blanche en Ontario"
    },
    "layout_name": "content page 1 column",
    "lang": "en"
}