{
    "dcr_id": "1537393921309",
    "title": {
        "en": "Development of rutabaga cultivars resistant to cabbage maggot",
        "fr": "Sélection de cultivars de rutabaga résistants à la mouche du chou "
    },
    "modified": "2018-10-12",
    "issued": "2018-10-12",
    "templatetype": "content page 1 column",
    "page_type": "0",
    "node_id": "1535122427752",
    "dc_date_created": "2018-10-12",
    "managing_branch": "PAB",
    "parent_node_id": "",
    "label": {
        "en": "Development of rutabaga cultivars resistant to cabbage maggot",
        "fr": "Sélection de cultivars de rutabaga résistants à la mouche du chou "
    },
    "exturl": "",
    "teamsite_location": {
        "en": "/default/main/AAFC-AAC/Internet-Internet/Group-Ensemble/ProgServ-ProgServ/WORKAREA/ProgServ-ProgServ/templatedata/comm-comm/gene-gene/data/09/prr10-140_1537393921309_en",
        "fr": "/default/main/AAFC-AAC/Internet-Internet/Group-Ensemble/ProgServ-ProgServ/WORKAREA/ProgServ-ProgServ/templatedata/comm-comm/gene-gene/data/09/prr10-140_1537393921309_fr"
    },
    "type_name": "comm-comm/gene-gene",
    "has_dcr_id": true,
    "breadcrumb": {
        "en": "Development of rutabaga cultivars resistant to cabbage maggot",
        "fr": "Sélection de cultivars de rutabaga résistants à la mouche du chou "
    },
    "layout_name": "content page 1 column",
    "lang": "en"
}