{
    "dcr_id": "1537306314688",
    "title": {
        "en": "Detection and tracking of airborne rust spores as an information tool for pesticide-reduction strategies",
        "fr": "Découverte et suivi des spores de rouille aérogènes comme outil d'information dans les stratégies de réduction d'utilisation des pesticides"
    },
    "modified": "2018-10-12",
    "issued": "2018-10-12",
    "templatetype": "content page 1 column",
    "page_type": "0",
    "node_id": "1535122427752",
    "dc_date_created": "2018-10-12",
    "managing_branch": "PAB",
    "parent_node_id": "",
    "label": {
        "en": "Detection and tracking of airborne rust spores as an information tool for pesticide-reduction strategies",
        "fr": "Découverte et suivi des spores de rouille aérogènes comme outil d'information dans les stratégies de réduction d'utilisation des pesticides"
    },
    "exturl": "",
    "teamsite_location": {
        "en": "/default/main/AAFC-AAC/Internet-Internet/Group-Ensemble/ProgServ-ProgServ/WORKAREA/ProgServ-ProgServ/templatedata/comm-comm/gene-gene/data/09/prr06-520_1537306314688_en",
        "fr": "/default/main/AAFC-AAC/Internet-Internet/Group-Ensemble/ProgServ-ProgServ/WORKAREA/ProgServ-ProgServ/templatedata/comm-comm/gene-gene/data/09/prr06-520_1537306314688_fr"
    },
    "type_name": "comm-comm/gene-gene",
    "has_dcr_id": true,
    "breadcrumb": {
        "en": "Detection and tracking of airborne rust spores as an information tool for pesticide-reduction strategies",
        "fr": "Découverte et suivi des spores de rouille aérogènes comme outil d'information dans les stratégies de réduction d'utilisation des pesticides"
    },
    "layout_name": "content page 1 column",
    "lang": "en"
}