{
    "dcr_id": "1537808179650",
    "title": {
        "en": "Screening trials on raspberries to identify reduced risk solutions for insect contamination in mechanically harvested fruit",
        "fr": "Essais sur le tri de framboises afin de trouver des solutions à faible risque contre la contamination par les insectes des fruits récoltés mécaniquement"
    },
    "modified": "2018-10-12",
    "issued": "2018-10-12",
    "templatetype": "content page 1 column",
    "page_type": "0",
    "node_id": "1535122427752",
    "dc_date_created": "2018-10-12",
    "managing_branch": "PAB",
    "parent_node_id": "",
    "label": {
        "en": "Screening trials on raspberries to identify reduced risk solutions for insect contamination in mechanically harvested fruit",
        "fr": "Essais sur le tri de framboises afin de trouver des solutions à faible risque contre la contamination par les insectes des fruits récoltés mécaniquement"
    },
    "exturl": "",
    "teamsite_location": {
        "en": "/default/main/AAFC-AAC/Internet-Internet/Group-Ensemble/ProgServ-ProgServ/WORKAREA/ProgServ-ProgServ/templatedata/comm-comm/gene-gene/data/09/scr07-010_1537808179650_en",
        "fr": "/default/main/AAFC-AAC/Internet-Internet/Group-Ensemble/ProgServ-ProgServ/WORKAREA/ProgServ-ProgServ/templatedata/comm-comm/gene-gene/data/09/scr07-010_1537808179650_fr"
    },
    "type_name": "comm-comm/gene-gene",
    "has_dcr_id": true,
    "breadcrumb": {
        "en": "Screening trials on raspberries to identify reduced risk solutions for insect contamination in mechanically harvested fruit",
        "fr": "Essais sur le tri de framboises afin de trouver des solutions à faible risque contre la contamination par les insectes des fruits récoltés mécaniquement"
    },
    "layout_name": "content page 1 column",
    "lang": "en"
}