{
    "dcr_id": "1539612389668",
    "title": {
        "en": "Agriculture and Agri-Food Canada Consolidated Financial Statements (Unaudited) for the year ended March 31, 2018",
        "fr": "Agriculture et Agroalimentaire Canada États financiers consolidés (non audités) pour l’exercice terminé le 31 mars 2018"
    },
    "modified": "2018-11-20",
    "issued": "2018-11-20",
    "templatetype": "content page 1 column",
    "page_type": "0",
    "node_id": "1598368547845",
    "dc_date_created": "2018-11-20",
    "managing_branch": "PAB",
    "parent_node_id": "",
    "label": {
        "en": "Agriculture and Agri-Food Canada Consolidated Financial Statements (Unaudited) for the year ended March 31, 2018",
        "fr": "Agriculture et Agroalimentaire Canada États financiers consolidés (non audités) pour l’exercice terminé le 31 mars 2018"
    },
    "exturl": "",
    "teamsite_location": {
        "en": "/default/main/AAFC-AAC/Internet-Internet/CCB-DGCC/WORKAREA/CCB-DGCC/templatedata/comm-comm/gene-gene/data/aafc-fin-statement_2018_1539612389668_en",
        "fr": "/default/main/AAFC-AAC/Internet-Internet/CCB-DGCC/WORKAREA/CCB-DGCC/templatedata/comm-comm/gene-gene/data/aafc-fin-statement_2018_1539612389668_fr"
    },
    "type_name": "comm-comm/gene-gene",
    "has_dcr_id": true,
    "breadcrumb": {
        "en": "Agriculture and Agri-Food Canada Consolidated Financial Statements (Unaudited) for the year ended March 31, 2018",
        "fr": "Agriculture et Agroalimentaire Canada États financiers consolidés (non audités) pour l’exercice terminé le 31 mars 2018"
    },
    "layout_name": "content page 1 column",
    "lang": "en"
}