{
    "dcr_id": "1540302179474",
    "title": {
        "en": "Canada-United States-Mexico Agreement and Canada's Agriculture Sector",
        "fr": "L'Accord Canada-États-Unis-Mexique et le secteur agricole du Canada"
    },
    "modified": "2018-10-29",
    "issued": "2018-10-29",
    "templatetype": "content page 1 column",
    "page_type": "0",
    "node_id": "1354137774029",
    "dc_date_created": "2018-10-29",
    "managing_branch": "PAB",
    "parent_node_id": "",
    "label": {
        "en": "Canada-United States-Mexico Agreement and Canada's Agriculture Sector",
        "fr": "L'Accord Canada-États-Unis-Mexique et le secteur agricole du Canada"
    },
    "exturl": "",
    "teamsite_location": {
        "en": "/default/main/AAFC-AAC/Internet-Internet/CCB-DGCC/WORKAREA/CCB-DGCC/templatedata/comm-comm/gene-gene/data/usmca_1540302179474_en",
        "fr": "/default/main/AAFC-AAC/Internet-Internet/CCB-DGCC/WORKAREA/CCB-DGCC/templatedata/comm-comm/gene-gene/data/usmca_1540302179474_fr"
    },
    "type_name": "comm-comm/gene-gene",
    "has_dcr_id": true,
    "breadcrumb": {
        "en": "Canada-United States-Mexico Agreement and Canada's Agriculture Sector",
        "fr": "L'Accord Canada-États-Unis-Mexique et le secteur agricole du Canada"
    },
    "layout_name": "content page 1 column",
    "lang": "en"
}