{
    "dcr_id": "1541447773735",
    "title": {
        "en": "Biopesticide Priorities ",
        "fr": "Priorités en matière de biopesticides"
    },
    "modified": "2018-12-12",
    "issued": "2018-11-07",
    "templatetype": "content page 1 column",
    "page_type": "0",
    "node_id": "1354137773675",
    "dc_date_created": "2018-11-07",
    "managing_branch": "PAB",
    "parent_node_id": "",
    "label": {
        "en": "Biopesticide Priorities ",
        "fr": "Priorités en matière de biopesticides"
    },
    "exturl": "",
    "teamsite_location": {
        "en": "/default/main/AAFC-AAC/Internet-Internet/Group-Ensemble/ProgServ-ProgServ/WORKAREA/ProgServ-ProgServ/templatedata/comm-comm/gene-gene/data/11/biopesticide_priority_products_1541447773735_en",
        "fr": "/default/main/AAFC-AAC/Internet-Internet/Group-Ensemble/ProgServ-ProgServ/WORKAREA/ProgServ-ProgServ/templatedata/comm-comm/gene-gene/data/11/biopesticide_priority_products_1541447773735_fr"
    },
    "type_name": "comm-comm/gene-gene",
    "has_dcr_id": true,
    "breadcrumb": {
        "en": "Biopesticide Priorities ",
        "fr": "Priorités en matière de biopesticides"
    },
    "layout_name": "content page 1 column",
    "lang": "en"
}