{
    "dcr_id": "1542981797606",
    "title": {
        "en": "Adapting the Government of Canada Workplace Charitable Campaign",
        "fr": "Adaptation de la Campagne de charité en milieu de travail du gouvernement du Canada"
    },
    "modified": "2018-11-30",
    "issued": "2018-11-30",
    "templatetype": "content page 1 column",
    "page_type": "0",
    "node_id": "1510840254905",
    "dc_date_created": "2018-11-30",
    "managing_branch": "PAB",
    "parent_node_id": "",
    "label": {
        "en": "Adapting the Government of Canada Workplace Charitable Campaign",
        "fr": "Adaptation de la Campagne de charité en milieu de travail du gouvernement du Canada"
    },
    "exturl": "",
    "teamsite_location": {
        "en": "/default/main/AAFC-AAC/Internet-Internet/Common-Commun/WORKAREA/Common-Commun/templatedata/comm-comm/gene-gene/data/11/adapting_gcwcc_1542981797606_en",
        "fr": "/default/main/AAFC-AAC/Internet-Internet/Common-Commun/WORKAREA/Common-Commun/templatedata/comm-comm/gene-gene/data/11/adapting_gcwcc_1542981797606_fr"
    },
    "type_name": "comm-comm/gene-gene",
    "has_dcr_id": true,
    "breadcrumb": {
        "en": "Adapting the Government of Canada Workplace Charitable Campaign",
        "fr": "Adaptation de la Campagne de charité en milieu de travail du gouvernement du Canada"
    },
    "layout_name": "content page 1 column",
    "lang": "en"
}