{
    "dcr_id": "1542985176213",
    "title": {
        "en": "Regional science promotion",
        "fr": "Promotion régionale des sciences"
    },
    "modified": "2018-11-30",
    "issued": "2018-11-30",
    "templatetype": "content page 1 column",
    "page_type": "0",
    "node_id": "1510840254905",
    "dc_date_created": "2018-11-30",
    "managing_branch": "PAB",
    "parent_node_id": "",
    "label": {
        "en": "Regional science promotion",
        "fr": "Promotion régionale des sciences"
    },
    "exturl": "",
    "teamsite_location": {
        "en": "/default/main/AAFC-AAC/Internet-Internet/Common-Commun/WORKAREA/Common-Commun/templatedata/comm-comm/gene-gene/data/11/regional_science_promotion_1542985176213_en",
        "fr": "/default/main/AAFC-AAC/Internet-Internet/Common-Commun/WORKAREA/Common-Commun/templatedata/comm-comm/gene-gene/data/11/regional_science_promotion_1542985176213_fr"
    },
    "type_name": "comm-comm/gene-gene",
    "has_dcr_id": true,
    "breadcrumb": {
        "en": "Regional science promotion",
        "fr": "Promotion régionale des sciences"
    },
    "layout_name": "content page 1 column",
    "lang": "en"
}