{
    "dcr_id": "1546606846704",
    "title": {
        "en": "Central Experimental Farm Advisory Council, November 8, 2018",
        "fr": "Conseil consultatif de la Ferme expérimentale centrale, 8 novembre 2018"
    },
    "modified": "2019-09-17",
    "issued": "2019-01-04",
    "templatetype": "content page 1 column",
    "page_type": "0",
    "node_id": "1365611301770",
    "dc_date_created": "2019-01-04",
    "managing_branch": "PAB",
    "parent_node_id": "",
    "label": {
        "en": "Central Experimental Farm Advisory Council, November 8, 2018",
        "fr": "Conseil consultatif de la Ferme expérimentale centrale, 8 novembre 2018"
    },
    "exturl": "",
    "teamsite_location": {
        "en": "/default/main/AAFC-AAC/Internet-Internet/Common-Commun/WORKAREA/Common-Commun/templatedata/comm-comm/gene-gene/data/01/cef_nov2018_1546606846704_en",
        "fr": "/default/main/AAFC-AAC/Internet-Internet/Common-Commun/WORKAREA/Common-Commun/templatedata/comm-comm/gene-gene/data/01/cef_nov2018_1546606846704_fr"
    },
    "type_name": "comm-comm/gene-gene",
    "has_dcr_id": true,
    "breadcrumb": {
        "en": "Central Experimental Farm Advisory Council, November 8, 2018",
        "fr": "Conseil consultatif de la Ferme expérimentale centrale, 8 novembre 2018"
    },
    "layout_name": "content page 1 column",
    "lang": "en"
}