{
    "dcr_id": "1547559013315",
    "title": {
        "en": "2015 Corn Inbred Lines Release CO456",
        "fr": "Lignées de maïs autofécondées mises en circulation en 2015 - CO456"
    },
    "modified": "2019-01-24",
    "issued": "2019-01-24",
    "templatetype": "content page 1 column",
    "page_type": "0",
    "node_id": "1547567752049",
    "dc_date_created": "2019-01-24",
    "managing_branch": "PAB",
    "parent_node_id": "",
    "label": {
        "en": "2015 Corn Inbred Lines Release CO456",
        "fr": "Lignées de maïs autofécondées mises en circulation en 2015 - CO456"
    },
    "exturl": "",
    "teamsite_location": {
        "en": "/default/main/AAFC-AAC/Internet-Internet/Common-Commun/WORKAREA/Common-Commun/templatedata/comm-comm/gene-gene/data/01/co456_corn_inbred_lines_1547559013315_en",
        "fr": "/default/main/AAFC-AAC/Internet-Internet/Common-Commun/WORKAREA/Common-Commun/templatedata/comm-comm/gene-gene/data/01/co456_corn_inbred_lines_1547559013315_fr"
    },
    "type_name": "comm-comm/gene-gene",
    "has_dcr_id": true,
    "breadcrumb": {
        "en": "2015 Corn Inbred Lines Release CO456",
        "fr": "Lignées de maïs autofécondées mises en circulation en 2015 - CO456"
    },
    "layout_name": "content page 1 column",
    "lang": "en"
}