{
    "dcr_id": "1548171129718",
    "title": {
        "en": "Sixteenth meeting of the Grains Roundtable: Record of decision",
        "fr": "Seizième réunion de la Table ronde sur l’industrie des grains : Compte rendu des décisions"
    },
    "modified": "2019-01-24",
    "issued": "2019-01-24",
    "templatetype": "content page 1 column",
    "page_type": "0",
    "node_id": "1384804049696",
    "dc_date_created": "2019-01-24",
    "managing_branch": "PAB",
    "parent_node_id": "",
    "label": {
        "en": "Sixteenth meeting of the Grains Roundtable: Record of decision",
        "fr": "Seizième réunion de la Table ronde sur l’industrie des grains : Compte rendu des décisions"
    },
    "exturl": "",
    "teamsite_location": {
        "en": "/default/main/AAFC-AAC/Internet-Internet/CCB-DGCC/WORKAREA/CCB-DGCC/templatedata/comm-comm/gene-gene/data/16th_meeting_grains_roundtable_1548171129718_en",
        "fr": "/default/main/AAFC-AAC/Internet-Internet/CCB-DGCC/WORKAREA/CCB-DGCC/templatedata/comm-comm/gene-gene/data/16th_meeting_grains_roundtable_1548171129718_fr"
    },
    "type_name": "comm-comm/gene-gene",
    "has_dcr_id": true,
    "breadcrumb": {
        "en": "Sixteenth meeting of the Grains Roundtable: Record of decision",
        "fr": "Seizième réunion de la Table ronde sur l’industrie des grains : Compte rendu des décisions"
    },
    "layout_name": "content page 1 column",
    "lang": "en"
}