{
    "dcr_id": "1549291839575",
    "title": {
        "en": "2019 News releases",
        "fr": "Communiqués 2019"
    },
    "modified": "2020-02-03",
    "issued": "2019-02-11",
    "templatetype": "content page 1 column",
    "page_type": "0",
    "node_id": "1389378720406",
    "dc_date_created": "2019-02-11",
    "managing_branch": "PAB",
    "parent_node_id": "",
    "label": {
        "en": "2019 News releases",
        "fr": "Communiqués 2019"
    },
    "exturl": "",
    "teamsite_location": {
        "en": "/default/main/AAFC-AAC/Internet-Internet/CCB-DGCC/WORKAREA/CCB-DGCC/templatedata/comm-comm/gene-gene/data/news_releases_2019_1549291839575_en",
        "fr": "/default/main/AAFC-AAC/Internet-Internet/CCB-DGCC/WORKAREA/CCB-DGCC/templatedata/comm-comm/gene-gene/data/news_releases_2019_1549291839575_fr"
    },
    "type_name": "comm-comm/gene-gene",
    "has_dcr_id": true,
    "breadcrumb": {
        "en": "2019 News releases",
        "fr": "Communiqués 2019"
    },
    "layout_name": "content page 1 column",
    "lang": "en"
}