{
    "dcr_id": "1550849115702",
    "title": {
        "en": "Non-repayable Contribution Agreement",
        "fr": "Entente de contribution non remboursable"
    },
    "modified": "2019-03-12",
    "issued": "2019-03-12",
    "templatetype": "content page 1 column",
    "page_type": "0",
    "node_id": "1550851019409",
    "dc_date_created": "2019-03-12",
    "managing_branch": "PAB",
    "parent_node_id": "",
    "label": {
        "en": "Non-repayable Contribution Agreement",
        "fr": "Entente de contribution non remboursable"
    },
    "exturl": "",
    "teamsite_location": {
        "en": "/default/main/AAFC-AAC/Internet-Internet/CCB-DGCC/WORKAREA/CCB-DGCC/templatedata/comm-comm/gene-gene/data/nonrepayable_contribution_agreement_1550849115702_en",
        "fr": "/default/main/AAFC-AAC/Internet-Internet/CCB-DGCC/WORKAREA/CCB-DGCC/templatedata/comm-comm/gene-gene/data/nonrepayable_contribution_agreement_1550849115702_fr"
    },
    "type_name": "comm-comm/gene-gene",
    "has_dcr_id": true,
    "breadcrumb": {
        "en": "Non-repayable Contribution Agreement",
        "fr": "Entente de contribution non remboursable"
    },
    "layout_name": "content page 1 column",
    "lang": "en"
}