{
    "dcr_id": "1553628520877",
    "title": {
        "en": "Regulatory  Stock Review Plan for Agriculture And Agri-Food Canada",
        "fr": "Plan d'examen des règlements d&rsquo;Agriculture et  Agroalimentaire Canada"
    },
    "modified": "2020-12-01",
    "issued": "2019-04-03",
    "templatetype": "content page 1 column",
    "page_type": "0",
    "node_id": "1354137773675",
    "dc_date_created": "2019-04-03",
    "managing_branch": "PAB",
    "parent_node_id": "",
    "label": {
        "en": "Regulatory  Stock Review Plan for Agriculture And Agri-Food Canada",
        "fr": "Plan d'examen des règlements d&rsquo;Agriculture et  Agroalimentaire Canada"
    },
    "exturl": "",
    "teamsite_location": {
        "en": "/default/main/AAFC-AAC/Internet-Internet/Common-Commun/WORKAREA/Common-Commun/templatedata/comm-comm/gene-gene/data/03/reg_stock_rev_plan_1553628520877_en",
        "fr": "/default/main/AAFC-AAC/Internet-Internet/Common-Commun/WORKAREA/Common-Commun/templatedata/comm-comm/gene-gene/data/03/reg_stock_rev_plan_1553628520877_fr"
    },
    "type_name": "comm-comm/gene-gene",
    "has_dcr_id": true,
    "breadcrumb": {
        "en": "Regulatory  Stock Review Plan for Agriculture And Agri-Food Canada",
        "fr": "Plan d'examen des règlements d&rsquo;Agriculture et  Agroalimentaire Canada"
    },
    "layout_name": "content page 1 column",
    "lang": "en"
}