{
    "dcr_id": "1555445184958",
    "title": {
        "en": "2019 \"A\" Priorities for Entomology",
        "fr": "Entomologie - Priorités « A » pour 2019"
    },
    "modified": "2019-04-23",
    "issued": "2019-04-23",
    "templatetype": "content page 1 column",
    "page_type": "0",
    "node_id": "1535050365039",
    "dc_date_created": "2019-04-23",
    "managing_branch": "PAB",
    "parent_node_id": "",
    "label": {
        "en": "2019 \"A\" Priorities for Entomology",
        "fr": "Entomologie - Priorités « A » pour 2019"
    },
    "exturl": "",
    "teamsite_location": {
        "en": "/default/main/AAFC-AAC/Internet-Internet/Group-Ensemble/ProgServ-ProgServ/WORKAREA/ProgServ-ProgServ/templatedata/comm-comm/gene-gene/data/04/2019_entomol_a_priorities_1555445184958_en",
        "fr": "/default/main/AAFC-AAC/Internet-Internet/Group-Ensemble/ProgServ-ProgServ/WORKAREA/ProgServ-ProgServ/templatedata/comm-comm/gene-gene/data/04/2019_entomol_a_priorities_1555445184958_fr"
    },
    "type_name": "comm-comm/gene-gene",
    "has_dcr_id": true,
    "breadcrumb": {
        "en": "2019 \"A\" Priorities for Entomology",
        "fr": "Entomologie - Priorités « A » pour 2019"
    },
    "layout_name": "content page 1 column",
    "lang": "en"
}