{
    "dcr_id": "1559138279823",
    "title": {
        "en": "Market Overview – India",
        "fr": "Aperçu du marché – Inde"
    },
    "modified": "2019-06-28",
    "issued": "2019-06-26",
    "templatetype": "content page 1 column",
    "page_type": "0",
    "node_id": "1549652534579",
    "dc_date_created": "2019-06-26",
    "managing_branch": "MISB",
    "parent_node_id": "",
    "label": {
        "en": "Market Overview – India",
        "fr": "Aperçu du marché – Inde"
    },
    "exturl": "",
    "teamsite_location": {
        "en": "/default/main/AAFC-AAC/Internet-Internet/MISB-DGSIM/ATS-SEA/ATS-SEA-s2/WORKAREA/ATS-SEA-s2/templatedata/comm-comm/gene-gene/data/mo_india_1559138279823_en",
        "fr": "/default/main/AAFC-AAC/Internet-Internet/MISB-DGSIM/ATS-SEA/ATS-SEA-s2/WORKAREA/ATS-SEA-s2/templatedata/comm-comm/gene-gene/data/mo_india_1559138279823_fr"
    },
    "type_name": "comm-comm/gene-gene",
    "has_dcr_id": true,
    "breadcrumb": {
        "en": "Market Overview – India",
        "fr": "Aperçu du marché – Inde"
    },
    "layout_name": "content page 1 column",
    "lang": "en"
}