{
    "dcr_id": "1561471328463",
    "title": {
        "en": "AgriRisk Initiatives Program - Research and Development Stream: Project Summary Form",
        "fr": "Programme des initiatives Agri-risques – Volet Recherche et développement : Formulaire de résumé de projet"
    },
    "modified": "2019-08-30",
    "issued": "2019-08-30",
    "templatetype": "content page 1 column",
    "page_type": "0",
    "node_id": "1521126928137",
    "dc_date_created": "2019-08-30",
    "managing_branch": "PAB",
    "parent_node_id": "",
    "label": {
        "en": "AgriRisk Initiatives Program - Research and Development Stream: Project Summary Form",
        "fr": "Programme des initiatives Agri-risques – Volet Recherche et développement : Formulaire de résumé de projet"
    },
    "exturl": "",
    "teamsite_location": {
        "en": "/default/main/AAFC-AAC/Internet-Internet/Group-Ensemble/ProgServ-ProgServ/WORKAREA/ProgServ-ProgServ/templatedata/comm-comm/gene-gene/data/06/agririsk_project_summary_form_1561471328463_en",
        "fr": "/default/main/AAFC-AAC/Internet-Internet/Group-Ensemble/ProgServ-ProgServ/WORKAREA/ProgServ-ProgServ/templatedata/comm-comm/gene-gene/data/06/agririsk_project_summary_form_1561471328463_fr"
    },
    "type_name": "comm-comm/gene-gene",
    "has_dcr_id": true,
    "breadcrumb": {
        "en": "AgriRisk Initiatives Program - Research and Development Stream: Project Summary Form",
        "fr": "Programme des initiatives Agri-risques – Volet Recherche et développement : Formulaire de résumé de projet"
    },
    "layout_name": "content page 1 column",
    "lang": "en"
}