{
    "dcr_id": "1565801693749",
    "title": {
        "en": "Transportation Modernization Act will help grain sector thrive",
        "fr": "La Loi sur la modernisation des transports aidera le secteur des grains à prospérer"
    },
    "modified": "2020-05-25",
    "issued": "2019-09-03",
    "templatetype": "content page 1 column",
    "page_type": "0",
    "node_id": "1567779011461",
    "dc_date_created": "2019-09-03",
    "managing_branch": "PAB",
    "parent_node_id": "",
    "label": {
        "en": "Transportation Modernization Act will help grain sector thrive",
        "fr": "La Loi sur la modernisation des transports aidera le secteur des grains à prospérer"
    },
    "exturl": "",
    "teamsite_location": {
        "en": "/default/main/AAFC-AAC/Internet-Internet/CCB-DGCC/WORKAREA/CCB-DGCC/templatedata/comm-comm/gene-gene/data/agri-info_newsletter_2018_06-5_1565801693749_en",
        "fr": "/default/main/AAFC-AAC/Internet-Internet/CCB-DGCC/WORKAREA/CCB-DGCC/templatedata/comm-comm/gene-gene/data/agri-info_newsletter_2018_06-5_1565801693749_fr"
    },
    "type_name": "comm-comm/gene-gene",
    "has_dcr_id": true,
    "breadcrumb": {
        "en": "Transportation Modernization Act will help grain sector thrive",
        "fr": "La Loi sur la modernisation des transports aidera le secteur des grains à prospérer"
    },
    "layout_name": "content page 1 column",
    "lang": "en"
}