{
    "dcr_id": "1565721613022",
    "title": {
        "en": "Optimizing the value of an ancestral Indigenous crop system",
        "fr": "Valorisation d’un système de culture ancestrale autochtone"
    },
    "modified": "2020-05-25",
    "issued": "2019-09-03",
    "templatetype": "content page 1 column",
    "page_type": "0",
    "node_id": "1567779011461",
    "dc_date_created": "2019-09-03",
    "managing_branch": "PAB",
    "parent_node_id": "",
    "label": {
        "en": "Optimizing the value of an ancestral Indigenous crop system",
        "fr": "Valorisation d’un système de culture ancestrale autochtone"
    },
    "exturl": "",
    "teamsite_location": {
        "en": "/default/main/AAFC-AAC/Internet-Internet/CCB-DGCC/WORKAREA/CCB-DGCC/templatedata/comm-comm/gene-gene/data/agri-info_newsletter_2019_01-8_1565721613022_en",
        "fr": "/default/main/AAFC-AAC/Internet-Internet/CCB-DGCC/WORKAREA/CCB-DGCC/templatedata/comm-comm/gene-gene/data/agri-info_newsletter_2019_01-8_1565721613022_fr"
    },
    "type_name": "comm-comm/gene-gene",
    "has_dcr_id": true,
    "breadcrumb": {
        "en": "Optimizing the value of an ancestral Indigenous crop system",
        "fr": "Valorisation d’un système de culture ancestrale autochtone"
    },
    "layout_name": "content page 1 column",
    "lang": "en"
}