{
    "dcr_id": "1565908668483",
    "title": {
        "en": "Taking action against a serious global health threat",
        "fr": "Prendre des mesures contre une grave menace pour la santé mondiale"
    },
    "modified": "2020-05-25",
    "issued": "2019-09-03",
    "templatetype": "content page 1 column",
    "page_type": "0",
    "node_id": "1567779011461",
    "dc_date_created": "2019-09-03",
    "managing_branch": "PAB",
    "parent_node_id": "",
    "label": {
        "en": "Taking action against a serious global health threat",
        "fr": "Prendre des mesures contre une grave menace pour la santé mondiale"
    },
    "exturl": "",
    "teamsite_location": {
        "en": "/default/main/AAFC-AAC/Internet-Internet/CCB-DGCC/WORKAREA/CCB-DGCC/templatedata/comm-comm/gene-gene/data/agri-info_newsletter_2017_11-7_1565908668483_en",
        "fr": "/default/main/AAFC-AAC/Internet-Internet/CCB-DGCC/WORKAREA/CCB-DGCC/templatedata/comm-comm/gene-gene/data/agri-info_newsletter_2017_11-7_1565908668483_fr"
    },
    "type_name": "comm-comm/gene-gene",
    "has_dcr_id": true,
    "breadcrumb": {
        "en": "Taking action against a serious global health threat",
        "fr": "Prendre des mesures contre une grave menace pour la santé mondiale"
    },
    "layout_name": "content page 1 column",
    "lang": "en"
}