{
    "dcr_id": "1565808664842",
    "title": {
        "en": "Advancing Canada's trade and market access agenda",
        "fr": "Promouvoir le programme de commerce et d’accès aux marchés du Canada"
    },
    "modified": "2020-05-25",
    "issued": "2019-09-03",
    "templatetype": "content page 1 column",
    "page_type": "0",
    "node_id": "1567779011461",
    "dc_date_created": "2019-09-03",
    "managing_branch": "PAB",
    "parent_node_id": "",
    "label": {
        "en": "Advancing Canada's trade and market access agenda",
        "fr": "Promouvoir le programme de commerce et d’accès aux marchés du Canada"
    },
    "exturl": "",
    "teamsite_location": {
        "en": "/default/main/AAFC-AAC/Internet-Internet/CCB-DGCC/WORKAREA/CCB-DGCC/templatedata/comm-comm/gene-gene/data/agri-info_newsletter_2018_03-8_1565808664842_en",
        "fr": "/default/main/AAFC-AAC/Internet-Internet/CCB-DGCC/WORKAREA/CCB-DGCC/templatedata/comm-comm/gene-gene/data/agri-info_newsletter_2018_03-8_1565808664842_fr"
    },
    "type_name": "comm-comm/gene-gene",
    "has_dcr_id": true,
    "breadcrumb": {
        "en": "Advancing Canada's trade and market access agenda",
        "fr": "Promouvoir le programme de commerce et d’accès aux marchés du Canada"
    },
    "layout_name": "content page 1 column",
    "lang": "en"
}