{
    "dcr_id": "1566407907174",
    "title": {
        "en": "Highlights from the 2016 Census of Agriculture",
        "fr": "Grandes lignes du Recensement de l'agriculture de 2016"
    },
    "modified": "2020-05-25",
    "issued": "2019-09-03",
    "templatetype": "content page 1 column",
    "page_type": "0",
    "node_id": "1567779011461",
    "dc_date_created": "2019-09-03",
    "managing_branch": "PAB",
    "parent_node_id": "",
    "label": {
        "en": "Highlights from the 2016 Census of Agriculture",
        "fr": "Grandes lignes du Recensement de l'agriculture de 2016"
    },
    "exturl": "",
    "teamsite_location": {
        "en": "/default/main/AAFC-AAC/Internet-Internet/CCB-DGCC/WORKAREA/CCB-DGCC/templatedata/comm-comm/gene-gene/data/agri-info_newsletter_2017_07-10_1566407907174_en",
        "fr": "/default/main/AAFC-AAC/Internet-Internet/CCB-DGCC/WORKAREA/CCB-DGCC/templatedata/comm-comm/gene-gene/data/agri-info_newsletter_2017_07-10_1566407907174_fr"
    },
    "type_name": "comm-comm/gene-gene",
    "has_dcr_id": true,
    "breadcrumb": {
        "en": "Highlights from the 2016 Census of Agriculture",
        "fr": "Grandes lignes du Recensement de l'agriculture de 2016"
    },
    "layout_name": "content page 1 column",
    "lang": "en"
}