{
    "dcr_id": "1573853207096",
    "title": {
        "en": "Price Pooling Program: Frequently asked questions",
        "fr": "Programme de mise en commun des prix : Foire aux questions "
    },
    "modified": "2019-12-09",
    "issued": "2019-12-09",
    "templatetype": "content page 1 column",
    "page_type": "0",
    "node_id": "1574440259412",
    "dc_date_created": "2019-12-09",
    "managing_branch": "PAB",
    "parent_node_id": "",
    "label": {
        "en": "Price Pooling Program: Frequently asked questions",
        "fr": "Programme de mise en commun des prix : Foire aux questions "
    },
    "exturl": "",
    "teamsite_location": {
        "en": "/default/main/AAFC-AAC/Internet-Internet/Group-Ensemble/ProgServ-ProgServ/WORKAREA/ProgServ-ProgServ/templatedata/comm-comm/gene-gene/data/11/ppp_step5_faq_1573853207096_en",
        "fr": "/default/main/AAFC-AAC/Internet-Internet/Group-Ensemble/ProgServ-ProgServ/WORKAREA/ProgServ-ProgServ/templatedata/comm-comm/gene-gene/data/11/ppp_step5_faq_1573853207096_fr"
    },
    "type_name": "comm-comm/gene-gene",
    "has_dcr_id": true,
    "breadcrumb": {
        "en": "Price Pooling Program: Frequently asked questions",
        "fr": "Programme de mise en commun des prix : Foire aux questions "
    },
    "layout_name": "content page 1 column",
    "lang": "en"
}