{
    "dcr_id": "1576587460080",
    "title": {
        "en": "Canadian seed sector profile",
        "fr": "Profil du secteur canadien des semences"
    },
    "modified": "2020-01-07",
    "issued": "2020-01-07",
    "templatetype": "content page 1 column",
    "page_type": "0",
    "node_id": "1579021792558",
    "dc_date_created": "2020-01-07",
    "managing_branch": "MISB",
    "parent_node_id": "",
    "label": {
        "en": "Canadian seed sector profile",
        "fr": "Profil du secteur canadien des semences"
    },
    "exturl": "",
    "teamsite_location": {
        "en": "/default/main/AAFC-AAC/Internet-Internet/MISB-DGSIM/VCR-TCV/WORKAREA/VCR-TCV/templatedata/comm-comm/gene-gene/data/vcr_seeds_canadian_2019_1576587460080_en",
        "fr": "/default/main/AAFC-AAC/Internet-Internet/MISB-DGSIM/VCR-TCV/WORKAREA/VCR-TCV/templatedata/comm-comm/gene-gene/data/vcr_seeds_canadian_2019_1576587460080_fr"
    },
    "type_name": "comm-comm/gene-gene",
    "has_dcr_id": true,
    "breadcrumb": {
        "en": "Canadian seed sector profile",
        "fr": "Profil du secteur canadien des semences"
    },
    "layout_name": "content page 1 column",
    "lang": "en"
}