{
    "dcr_id": "1579809835725",
    "title": {
        "en": "AgriStability - 2020 Statement A – Corporation/Co-operative and Special Individual",
        "fr": "Agri-stabilité -  État A 2020 – Société, coopérative et particulier de catégorie spéciale"
    },
    "modified": "2020-07-13",
    "issued": "2020-07-13",
    "templatetype": "content page 1 column",
    "page_type": "0",
    "node_id": "1594037384895",
    "dc_date_created": "2020-07-13",
    "managing_branch": "PAB",
    "parent_node_id": "",
    "label": {
        "en": "AgriStability - 2020 Statement A – Corporation/Co-operative and Special Individual",
        "fr": "Agri-stabilité -  État A 2020 – Société, coopérative et particulier de catégorie spéciale"
    },
    "exturl": "",
    "teamsite_location": {
        "en": "/default/main/AAFC-AAC/Internet-Internet/Group-Ensemble/ProgServ-ProgServ/WORKAREA/ProgServ-ProgServ/templatedata/comm-comm/gene-gene/data/06/as_2020_statement_a_1579809835725_en",
        "fr": "/default/main/AAFC-AAC/Internet-Internet/Group-Ensemble/ProgServ-ProgServ/WORKAREA/ProgServ-ProgServ/templatedata/comm-comm/gene-gene/data/06/as_2020_statement_a_1579809835725_fr"
    },
    "type_name": "comm-comm/gene-gene",
    "has_dcr_id": true,
    "breadcrumb": {
        "en": "AgriStability - 2020 Statement A – Corporation/Co-operative and Special Individual",
        "fr": "Agri-stabilité -  État A 2020 – Société, coopérative et particulier de catégorie spéciale"
    },
    "layout_name": "content page 1 column",
    "lang": "en"
}