{
    "dcr_id": "1582043548187",
    "title": {
        "en": "2020-21 Departmental Plan - Raison d’être, mandate and role: who we are and what we do",
        "fr": "Plan ministériel de 2020-­2021 - Raison d’être, mandat et rôle : composition et responsabilités"
    },
    "modified": "2020-03-10",
    "issued": "2020-03-10",
    "templatetype": "content page 1 column",
    "page_type": "0",
    "node_id": "1581965639726",
    "dc_date_created": "2020-03-10",
    "managing_branch": "PAB",
    "parent_node_id": "",
    "label": {
        "en": "2020-21 Departmental Plan - Raison d’être, mandate and role: who we are and what we do",
        "fr": "Plan ministériel de 2020-­2021 - Raison d’être, mandat et rôle : composition et responsabilités"
    },
    "exturl": "",
    "teamsite_location": {
        "en": "/default/main/AAFC-AAC/Internet-Internet/Common-Commun/WORKAREA/Common-Commun/templatedata/comm-comm/gene-gene/data/02/dp-pm_2020-21_raisin_1582043548187_en",
        "fr": "/default/main/AAFC-AAC/Internet-Internet/Common-Commun/WORKAREA/Common-Commun/templatedata/comm-comm/gene-gene/data/02/dp-pm_2020-21_raisin_1582043548187_fr"
    },
    "type_name": "comm-comm/gene-gene",
    "has_dcr_id": true,
    "breadcrumb": {
        "en": "2020-21 Departmental Plan - Raison d’être, mandate and role: who we are and what we do",
        "fr": "Plan ministériel de 2020-­2021 - Raison d’être, mandat et rôle : composition et responsabilités"
    },
    "layout_name": "content page 1 column",
    "lang": "en"
}