{
    "dcr_id": "1587473392817",
    "title": {
        "en": "Agroclimate Impact Reporter: Contact information",
        "fr": "Rapports sur les impacts agroclimatiques : Coordonnées"
    },
    "modified": "2020-06-29",
    "issued": "2020-04-22",
    "templatetype": "content page 1 column",
    "page_type": "0",
    "node_id": "1463687311552",
    "dc_date_created": "2020-04-22",
    "managing_branch": "PAB",
    "parent_node_id": "",
    "label": {
        "en": "Agroclimate Impact Reporter: Contact information",
        "fr": "Rapports sur les impacts agroclimatiques : Coordonnées"
    },
    "exturl": "",
    "teamsite_location": {
        "en": "/default/main/AAFC-AAC/Internet-Internet/Group-Ensemble/ProgServ-ProgServ/WORKAREA/ProgServ-ProgServ/templatedata/comm-comm/gene-gene/data/04/air_survey_assistance_1587473392817_en",
        "fr": "/default/main/AAFC-AAC/Internet-Internet/Group-Ensemble/ProgServ-ProgServ/WORKAREA/ProgServ-ProgServ/templatedata/comm-comm/gene-gene/data/04/air_survey_assistance_1587473392817_fr"
    },
    "type_name": "comm-comm/gene-gene",
    "has_dcr_id": true,
    "breadcrumb": {
        "en": "Agroclimate Impact Reporter: Contact information",
        "fr": "Rapports sur les impacts agroclimatiques : Coordonnées"
    },
    "layout_name": "content page 1 column",
    "lang": "en"
}