{
    "dcr_id": "1590782492871",
    "title": {
        "en": "AgriStability:  Step 3. How to apply",
        "fr": "Agri-stabilité  : Étape 3. Comment présenter une demande"
    },
    "modified": "2020-12-03",
    "issued": "2020-07-13",
    "templatetype": "content page 1 column",
    "page_type": "0",
    "node_id": "1594037318839",
    "dc_date_created": "2020-07-13",
    "managing_branch": "PAB",
    "parent_node_id": "",
    "label": {
        "en": "AgriStability:  Step 3. How to apply",
        "fr": "Agri-stabilité  : Étape 3. Comment présenter une demande"
    },
    "exturl": "",
    "teamsite_location": {
        "en": "/default/main/AAFC-AAC/Internet-Internet/Group-Ensemble/ProgServ-ProgServ/WORKAREA/ProgServ-ProgServ/templatedata/comm-comm/gene-gene/data/05/as_step3_how_1590782492871_en",
        "fr": "/default/main/AAFC-AAC/Internet-Internet/Group-Ensemble/ProgServ-ProgServ/WORKAREA/ProgServ-ProgServ/templatedata/comm-comm/gene-gene/data/05/as_step3_how_1590782492871_fr"
    },
    "type_name": "comm-comm/gene-gene",
    "has_dcr_id": true,
    "breadcrumb": {
        "en": "AgriStability:  Step 3. How to apply",
        "fr": "Agri-stabilité  : Étape 3. Comment présenter une demande"
    },
    "layout_name": "content page 1 column",
    "lang": "en"
}