{
    "dcr_id": "1590783300936",
    "title": {
        "en": "AgriStability:  Step 4. After you apply",
        "fr": "Agri-stabilité  :  Étape 4. Après avoir présenté votre demande"
    },
    "modified": "2020-07-13",
    "issued": "2020-07-13",
    "templatetype": "content page 1 column",
    "page_type": "0",
    "node_id": "1594037318839",
    "dc_date_created": "2020-07-13",
    "managing_branch": "PAB",
    "parent_node_id": "",
    "label": {
        "en": "AgriStability:  Step 4. After you apply",
        "fr": "Agri-stabilité  :  Étape 4. Après avoir présenté votre demande"
    },
    "exturl": "",
    "teamsite_location": {
        "en": "/default/main/AAFC-AAC/Internet-Internet/Group-Ensemble/ProgServ-ProgServ/WORKAREA/ProgServ-ProgServ/templatedata/comm-comm/gene-gene/data/05/as_step4_after_1590783300936_en",
        "fr": "/default/main/AAFC-AAC/Internet-Internet/Group-Ensemble/ProgServ-ProgServ/WORKAREA/ProgServ-ProgServ/templatedata/comm-comm/gene-gene/data/05/as_step4_after_1590783300936_fr"
    },
    "type_name": "comm-comm/gene-gene",
    "has_dcr_id": true,
    "breadcrumb": {
        "en": "AgriStability:  Step 4. After you apply",
        "fr": "Agri-stabilité  :  Étape 4. Après avoir présenté votre demande"
    },
    "layout_name": "content page 1 column",
    "lang": "en"
}