{
    "dcr_id": "1592829025428",
    "title": {
        "en": "Sector Trend Analysis – Meat trends in Japan",
        "fr": "Analyse sectorielle – Tendances relatives à la viande au Japon"
    },
    "modified": "2020-06-24",
    "issued": "2020-06-24",
    "templatetype": "content page 1 column",
    "page_type": "0",
    "node_id": "1549652534579",
    "dc_date_created": "2020-06-24",
    "managing_branch": "MISB",
    "parent_node_id": "",
    "label": {
        "en": "Sector Trend Analysis – Meat trends in Japan",
        "fr": "Analyse sectorielle – Tendances relatives à la viande au Japon"
    },
    "exturl": "",
    "teamsite_location": {
        "en": "/default/main/AAFC-AAC/Internet-Internet/MISB-DGSIM/ATS-SEA/ATS-SEA-s1/WORKAREA/ATS-SEA-s1/templatedata/comm-comm/gene-gene/data/sta_meat_trends_japan_1592829025428_en",
        "fr": "/default/main/AAFC-AAC/Internet-Internet/MISB-DGSIM/ATS-SEA/ATS-SEA-s1/WORKAREA/ATS-SEA-s1/templatedata/comm-comm/gene-gene/data/sta_meat_trends_japan_1592829025428_fr"
    },
    "type_name": "comm-comm/gene-gene",
    "has_dcr_id": true,
    "breadcrumb": {
        "en": "Sector Trend Analysis – Meat trends in Japan",
        "fr": "Analyse sectorielle – Tendances relatives à la viande au Japon"
    },
    "layout_name": "content page 1 column",
    "lang": "en"
}