{
    "dcr_id": "1593781402816",
    "title": {
        "en": "Lingonberries: Good for Your Heart, Good for Your Kidneys and Good for Agriculture",
        "fr": "L'airelle rouge&nbsp;: bonne pour le cœur, les reins… et l'agriculture"
    },
    "modified": "2020-07-17",
    "issued": "2020-07-17",
    "templatetype": "content page 1 column",
    "page_type": "0",
    "node_id": "1378999410478",
    "dc_date_created": "2020-07-17",
    "managing_branch": "PAB",
    "parent_node_id": "",
    "label": {
        "en": "Lingonberries: Good for Your Heart, Good for Your Kidneys and Good for Agriculture",
        "fr": "L'airelle rouge&nbsp;: bonne pour le cœur, les reins… et l'agriculture"
    },
    "exturl": "",
    "teamsite_location": {
        "en": "/default/main/AAFC-AAC/Internet-Internet/CCB-DGCC/WORKAREA/CCB-DGCC/templatedata/comm-comm/gene-gene/data/feature_article_lingonberries_1593781402816_en",
        "fr": "/default/main/AAFC-AAC/Internet-Internet/CCB-DGCC/WORKAREA/CCB-DGCC/templatedata/comm-comm/gene-gene/data/feature_article_lingonberries_1593781402816_fr"
    },
    "type_name": "comm-comm/gene-gene",
    "has_dcr_id": true,
    "breadcrumb": {
        "en": "Lingonberries: Good for Your Heart, Good for Your Kidneys and Good for Agriculture",
        "fr": "L'airelle rouge&nbsp;: bonne pour le cœur, les reins… et l'agriculture"
    },
    "layout_name": "content page 1 column",
    "lang": "en"
}