{
    "dcr_id": "1597864096885",
    "title": {
        "en": "Food Policy Consultations - What we heard report (Food Policy for Canada)",
        "fr": "Consultation sur une politique alimentaire pour le Canada - Rapport sur ce que nous avons entendu (Une politique alimentaire pour le Canada)"
    },
    "modified": "2020-11-17",
    "issued": "2020-11-17",
    "templatetype": "content page 1 column",
    "page_type": "0",
    "node_id": "1354137773675",
    "dc_date_created": "2020-11-17",
    "managing_branch": "PAB",
    "parent_node_id": "",
    "label": {
        "en": "Food Policy Consultations - What we heard report (Food Policy for Canada)",
        "fr": "Consultation sur une politique alimentaire pour le Canada - Rapport sur ce que nous avons entendu (Une politique alimentaire pour le Canada)"
    },
    "exturl": "",
    "teamsite_location": {
        "en": "/default/main/AAFC-AAC/Internet-Internet/CCB-DGCC/WORKAREA/CCB-DGCC/templatedata/comm-comm/gene-gene/data/whatwe_heard_reports_fpc_1597864096885_en",
        "fr": "/default/main/AAFC-AAC/Internet-Internet/CCB-DGCC/WORKAREA/CCB-DGCC/templatedata/comm-comm/gene-gene/data/whatwe_heard_reports_fpc_1597864096885_fr"
    },
    "type_name": "comm-comm/gene-gene",
    "has_dcr_id": true,
    "breadcrumb": {
        "en": "Food Policy Consultations - What we heard report (Food Policy for Canada)",
        "fr": "Consultation sur une politique alimentaire pour le Canada - Rapport sur ce que nous avons entendu (Une politique alimentaire pour le Canada)"
    },
    "layout_name": "content page 1 column",
    "lang": "en"
}