{
    "dcr_id": "1598305927317",
    "title": {
        "en": "Minister's briefing book: May 19, 2020",
        "fr": "Cahier de breffage de la ministre  : Le 19 mai 2020"
    },
    "modified": "2020-09-17",
    "issued": "2020-09-17",
    "templatetype": "content page 1 column",
    "page_type": "0",
    "node_id": "1598874857822",
    "dc_date_created": "2020-09-17",
    "managing_branch": "PAB",
    "parent_node_id": "",
    "label": {
        "en": "Minister's briefing book: May 19, 2020",
        "fr": "Cahier de breffage de la ministre  : Le 19 mai 2020"
    },
    "exturl": "",
    "teamsite_location": {
        "en": "/default/main/AAFC-AAC/Internet-Internet/Common-Commun/WORKAREA/Common-Commun/templatedata/comm-comm/gene-gene/data/08/qp_cards_19may2020_1598305927317_en",
        "fr": "/default/main/AAFC-AAC/Internet-Internet/Common-Commun/WORKAREA/Common-Commun/templatedata/comm-comm/gene-gene/data/08/qp_cards_19may2020_1598305927317_fr"
    },
    "type_name": "comm-comm/gene-gene",
    "has_dcr_id": true,
    "breadcrumb": {
        "en": "Minister's briefing book: May 19, 2020",
        "fr": "Cahier de breffage de la ministre  : Le 19 mai 2020"
    },
    "layout_name": "content page 1 column",
    "lang": "en"
}