{
    "dcr_id": "1600726693897",
    "title": {
        "en": "Minister's briefing notes: Standing Committee on Agriculture and Agri-Food, June 10, 2020 ",
        "fr": "Notes de la ministre pour comparution ministérielle : Comité permanent de l’agriculture et de l’agroalimentaire,  le 10 juin 2020"
    },
    "modified": "2020-10-16",
    "issued": "2020-10-16",
    "templatetype": "content page 1 column",
    "page_type": "0",
    "node_id": "1600973153410",
    "dc_date_created": "2020-10-16",
    "managing_branch": "PAB",
    "parent_node_id": "",
    "label": {
        "en": "Minister's briefing notes: Standing Committee on Agriculture and Agri-Food, June 10, 2020 ",
        "fr": "Notes de la ministre pour comparution ministérielle : Comité permanent de l’agriculture et de l’agroalimentaire,  le 10 juin 2020"
    },
    "exturl": "",
    "teamsite_location": {
        "en": "/default/main/AAFC-AAC/Internet-Internet/Common-Commun/WORKAREA/Common-Commun/templatedata/comm-comm/gene-gene/data/09/min_briefing-book_10jun2020_1600726693897_en",
        "fr": "/default/main/AAFC-AAC/Internet-Internet/Common-Commun/WORKAREA/Common-Commun/templatedata/comm-comm/gene-gene/data/09/min_briefing-book_10jun2020_1600726693897_fr"
    },
    "type_name": "comm-comm/gene-gene",
    "has_dcr_id": true,
    "breadcrumb": {
        "en": "Minister's briefing notes: Standing Committee on Agriculture and Agri-Food, June 10, 2020 ",
        "fr": "Notes de la ministre pour comparution ministérielle : Comité permanent de l’agriculture et de l’agroalimentaire,  le 10 juin 2020"
    },
    "layout_name": "content page 1 column",
    "lang": "en"
}