{
    "dcr_id": "1601675728780",
    "title": {
        "en": "AgriStability:  Cash Reference Margin Pilot",
        "fr": "Agri-stabilité : Projet pilote de marge de référence basée sur la comptabilité de caisse "
    },
    "modified": "2020-10-08",
    "issued": "2020-10-08",
    "templatetype": "content page 1 column",
    "page_type": "0",
    "node_id": "1594037318839",
    "dc_date_created": "2020-10-08",
    "managing_branch": "PAB",
    "parent_node_id": "",
    "label": {
        "en": "AgriStability:  Cash Reference Margin Pilot",
        "fr": "Agri-stabilité : Projet pilote de marge de référence basée sur la comptabilité de caisse "
    },
    "exturl": "",
    "teamsite_location": {
        "en": "/default/main/AAFC-AAC/Internet-Internet/Group-Ensemble/ProgServ-ProgServ/WORKAREA/ProgServ-ProgServ/templatedata/comm-comm/gene-gene/data/10/as_cash_ref-margin_pilot_1601675728780_en",
        "fr": "/default/main/AAFC-AAC/Internet-Internet/Group-Ensemble/ProgServ-ProgServ/WORKAREA/ProgServ-ProgServ/templatedata/comm-comm/gene-gene/data/10/as_cash_ref-margin_pilot_1601675728780_fr"
    },
    "type_name": "comm-comm/gene-gene",
    "has_dcr_id": true,
    "breadcrumb": {
        "en": "AgriStability:  Cash Reference Margin Pilot",
        "fr": "Agri-stabilité : Projet pilote de marge de référence basée sur la comptabilité de caisse "
    },
    "layout_name": "content page 1 column",
    "lang": "en"
}