{
    "dcr_id": "1601393197851",
    "title": {
        "en": "Minister's briefing book: June 2, 2020",
        "fr": "Cahier de breffage de la ministre : Le 2 juin 2020"
    },
    "modified": "2020-09-29",
    "issued": "2020-09-29",
    "templatetype": "content page 1 column",
    "page_type": "0",
    "node_id": "1598874857822",
    "dc_date_created": "2020-09-29",
    "managing_branch": "PAB",
    "parent_node_id": "",
    "label": {
        "en": "Minister's briefing book: June 2, 2020",
        "fr": "Cahier de breffage de la ministre : Le 2 juin 2020"
    },
    "exturl": "",
    "teamsite_location": {
        "en": "/default/main/AAFC-AAC/Internet-Internet/Common-Commun/WORKAREA/Common-Commun/templatedata/comm-comm/gene-gene/data/09/brief_book_covid_2jun2020_1601393197851_en",
        "fr": "/default/main/AAFC-AAC/Internet-Internet/Common-Commun/WORKAREA/Common-Commun/templatedata/comm-comm/gene-gene/data/09/brief_book_covid_2jun2020_1601393197851_fr"
    },
    "type_name": "comm-comm/gene-gene",
    "has_dcr_id": true,
    "breadcrumb": {
        "en": "Minister's briefing book: June 2, 2020",
        "fr": "Cahier de breffage de la ministre : Le 2 juin 2020"
    },
    "layout_name": "content page 1 column",
    "lang": "en"
}