{
    "dcr_id": "1601391356040",
    "title": {
        "en": "The First Sixteen Podcast - EP 002",
        "fr": "Les premiers seize pour cent - EP 002"
    },
    "modified": "2020-09-30",
    "issued": "2020-09-30",
    "templatetype": "content page 1 column",
    "page_type": "0",
    "node_id": "1567779011461",
    "dc_date_created": "2020-09-30",
    "managing_branch": "PAB",
    "parent_node_id": "",
    "label": {
        "en": "The First Sixteen Podcast - EP 002",
        "fr": "Les premiers seize pour cent - EP 002"
    },
    "exturl": "",
    "teamsite_location": {
        "en": "/default/main/AAFC-AAC/Internet-Internet/CCB-DGCC/WORKAREA/CCB-DGCC/templatedata/comm-comm/gene-gene/data/first_sixteen_podcast_ep-002_1601391356040_en",
        "fr": "/default/main/AAFC-AAC/Internet-Internet/CCB-DGCC/WORKAREA/CCB-DGCC/templatedata/comm-comm/gene-gene/data/first_sixteen_podcast_ep-002_1601391356040_fr"
    },
    "type_name": "comm-comm/gene-gene",
    "has_dcr_id": true,
    "breadcrumb": {
        "en": "The First Sixteen Podcast - EP 002",
        "fr": "Les premiers seize pour cent - EP 002"
    },
    "layout_name": "content page 1 column",
    "lang": "en"
}