{
    "dcr_id": "1604924587827",
    "title": {
        "en": "Direct Dairy Payment Program - Privacy impact assessments",
        "fr": "Programme de paiements directs pour les producteurs laitiers - Évaluation des facteurs relatifs à la vie privée"
    },
    "modified": "2020-11-09",
    "issued": "2020-11-09",
    "templatetype": "content page 1 column",
    "page_type": "0",
    "node_id": "1604932657208",
    "dc_date_created": "2020-11-09",
    "managing_branch": "PAB",
    "parent_node_id": "",
    "label": {
        "en": "Direct Dairy Payment Program - Privacy impact assessments",
        "fr": "Programme de paiements directs pour les producteurs laitiers - Évaluation des facteurs relatifs à la vie privée"
    },
    "exturl": "",
    "teamsite_location": {
        "en": "/default/main/AAFC-AAC/Internet-Internet/Common-Commun/WORKAREA/Common-Commun/templatedata/comm-comm/gene-gene/data/11/direct_dairy_payment_program_1604924587827_en",
        "fr": "/default/main/AAFC-AAC/Internet-Internet/Common-Commun/WORKAREA/Common-Commun/templatedata/comm-comm/gene-gene/data/11/direct_dairy_payment_program_1604924587827_fr"
    },
    "type_name": "comm-comm/gene-gene",
    "has_dcr_id": true,
    "breadcrumb": {
        "en": "Direct Dairy Payment Program - Privacy impact assessments",
        "fr": "Programme de paiements directs pour les producteurs laitiers - Évaluation des facteurs relatifs à la vie privée"
    },
    "layout_name": "content page 1 column",
    "lang": "en"
}