{
    "dcr_id": "1604497954253",
    "title": {
        "en": "Annual Report to Parliament on the Administration of the Privacy Act - April 1, 2019 – March 31, 2020",
        "fr": "Rapport annuel au Parlement sur l’application de la Loi sur la protection des renseignements personnels - 1 avril 2019 – 31 mars 2020"
    },
    "modified": "2020-11-12",
    "issued": "2020-11-09",
    "templatetype": "content page 1 column",
    "page_type": "0",
    "node_id": "1457037595167",
    "dc_date_created": "2020-11-09",
    "managing_branch": "PAB",
    "parent_node_id": "",
    "label": {
        "en": "Annual Report to Parliament on the Administration of the Privacy Act - April 1, 2019 – March 31, 2020",
        "fr": "Rapport annuel au Parlement sur l’application de la Loi sur la protection des renseignements personnels - 1 avril 2019 – 31 mars 2020"
    },
    "exturl": "",
    "teamsite_location": {
        "en": "/default/main/AAFC-AAC/Internet-Internet/Common-Commun/WORKAREA/Common-Commun/templatedata/comm-comm/gene-gene/data/11/2019_20_privacy_report_1604497954253_en",
        "fr": "/default/main/AAFC-AAC/Internet-Internet/Common-Commun/WORKAREA/Common-Commun/templatedata/comm-comm/gene-gene/data/11/2019_20_privacy_report_1604497954253_fr"
    },
    "type_name": "comm-comm/gene-gene",
    "has_dcr_id": true,
    "breadcrumb": {
        "en": "Annual Report to Parliament on the Administration of the Privacy Act - April 1, 2019 – March 31, 2020",
        "fr": "Rapport annuel au Parlement sur l’application de la Loi sur la protection des renseignements personnels - 1 avril 2019 – 31 mars 2020"
    },
    "layout_name": "content page 1 column",
    "lang": "en"
}