{
    "dcr_id": "1604964493511",
    "title": {
        "en": "2021 AgriStability Interim Application Schedule 1 — Additional Information",
        "fr": "Demande de paiement provisoire au titre d'Agri-stabilité 2021 Annexe 1 — Renseignements supplémentaires"
    },
    "modified": "2020-11-17",
    "issued": "2020-11-17",
    "templatetype": "content page 1 column",
    "page_type": "0",
    "node_id": "1594037384895",
    "dc_date_created": "2020-11-17",
    "managing_branch": "PAB",
    "parent_node_id": "",
    "label": {
        "en": "2021 AgriStability Interim Application Schedule 1 — Additional Information",
        "fr": "Demande de paiement provisoire au titre d'Agri-stabilité 2021 Annexe 1 — Renseignements supplémentaires"
    },
    "exturl": "",
    "teamsite_location": {
        "en": "/default/main/AAFC-AAC/Internet-Internet/Group-Ensemble/ProgServ-ProgServ/WORKAREA/ProgServ-ProgServ/templatedata/comm-comm/gene-gene/data/11/as_2021_interim-app_schedule1_1604964493511_en",
        "fr": "/default/main/AAFC-AAC/Internet-Internet/Group-Ensemble/ProgServ-ProgServ/WORKAREA/ProgServ-ProgServ/templatedata/comm-comm/gene-gene/data/11/as_2021_interim-app_schedule1_1604964493511_fr"
    },
    "type_name": "comm-comm/gene-gene",
    "has_dcr_id": true,
    "breadcrumb": {
        "en": "2021 AgriStability Interim Application Schedule 1 — Additional Information",
        "fr": "Demande de paiement provisoire au titre d'Agri-stabilité 2021 Annexe 1 — Renseignements supplémentaires"
    },
    "layout_name": "content page 1 column",
    "lang": "en"
}