{
    "dcr_id": "1608734729857",
    "title": {
        "en": "Competitive Trade Analysis – Agri-food and Seafood Trends in South Korea",
        "fr": "Analyse de la concurrence – Tendances du marché des produits agroalimentaires et des produits de la mer en Corée du Sud"
    },
    "modified": "2021-01-07",
    "issued": "2021-01-06",
    "templatetype": "content page 1 column",
    "page_type": "0",
    "node_id": "1549652534579",
    "dc_date_created": "2021-01-06",
    "managing_branch": "MISB",
    "parent_node_id": "",
    "label": {
        "en": "Competitive Trade Analysis – Agri-food and Seafood Trends in South Korea",
        "fr": "Analyse de la concurrence – Tendances du marché des produits agroalimentaires et des produits de la mer en Corée du Sud"
    },
    "exturl": "",
    "teamsite_location": {
        "en": "/default/main/AAFC-AAC/Internet-Internet/MISB-DGSIM/ATS-SEA/ATS-SEA-s1/WORKAREA/ATS-SEA-s1/templatedata/comm-comm/gene-gene/data/cta_agri_seafood_skorea_1608734729857_en",
        "fr": "/default/main/AAFC-AAC/Internet-Internet/MISB-DGSIM/ATS-SEA/ATS-SEA-s1/WORKAREA/ATS-SEA-s1/templatedata/comm-comm/gene-gene/data/cta_agri_seafood_skorea_1608734729857_fr"
    },
    "type_name": "comm-comm/gene-gene",
    "has_dcr_id": true,
    "breadcrumb": {
        "en": "Competitive Trade Analysis – Agri-food and Seafood Trends in South Korea",
        "fr": "Analyse de la concurrence – Tendances du marché des produits agroalimentaires et des produits de la mer en Corée du Sud"
    },
    "layout_name": "content page 1 column",
    "lang": "en"
}