{
    "dcr_id": "1609345933671",
    "title": {
        "en": "New tool takes the guesswork out of crop yields",
        "fr": "Nouvel outil de prévision du rendement des cultures"
    },
    "modified": "2021-01-07",
    "issued": "2021-01-07",
    "templatetype": "content page 1 column",
    "page_type": "0",
    "node_id": "1378999410478",
    "dc_date_created": "2021-01-07",
    "managing_branch": "PAB",
    "parent_node_id": "",
    "label": {
        "en": "New tool takes the guesswork out of crop yields",
        "fr": "Nouvel outil de prévision du rendement des cultures"
    },
    "exturl": "",
    "teamsite_location": {
        "en": "/default/main/AAFC-AAC/Internet-Internet/CCB-DGCC/WORKAREA/CCB-DGCC/templatedata/comm-comm/gene-gene/data/new_tool_takes_guesswork_1609345933671_en",
        "fr": "/default/main/AAFC-AAC/Internet-Internet/CCB-DGCC/WORKAREA/CCB-DGCC/templatedata/comm-comm/gene-gene/data/new_tool_takes_guesswork_1609345933671_fr"
    },
    "type_name": "comm-comm/gene-gene",
    "has_dcr_id": true,
    "breadcrumb": {
        "en": "New tool takes the guesswork out of crop yields",
        "fr": "Nouvel outil de prévision du rendement des cultures"
    },
    "layout_name": "content page 1 column",
    "lang": "en"
}