{
    "has_dcr_id": true,
    "node_id": "1354137773842",
    "parent_node_id": "1579021708622",
    "dcr_id": "1361290558432",
    "landingPageUrl": {
        "en": "1361290558432",
        "fr": "1361290558432"
    },
    "parent_dcr_id": "1361290241756",
    "breadcrumb": {
        "en": "Fish and Seafood",
        "fr": "Fish and Seafood"
    },
    "node_title": {
        "en": "Fish and Seafood",
        "fr": "Fish and Seafood"
    },
    "title": {
        "en": "Fish and Seafood",
        "fr": "Fish and Seafood"
    },
    "type": "Help",
    "meta": {
        "issued": {
            "en": "2013-02-21",
            "fr": "2013-02-21"
        },
        "modified": {
            "en": "2020-08-18",
            "fr": "2020-08-18"
        },
        "format": {
            "en": "gcformat",
            "fr": "gcformat"
        },
        "title": {
            "en": "Canadian fish and seafood industry market intelligence",
            "fr": "Information sur l\u2019industrie canadienne du poisson et des fruits de mer"
        },
        "subject": {
            "en": "businesses;government information;aquaculture",
            "fr": "entreprise;horticulture;organisme de r\u00e9glementation"
        },
        "description": {
            "en": "Market development, data, statistics for the Canadian fish and seafood industry",
            "fr": "D\u00e9veloppement du march\u00e9, donn\u00e9es et statistiques sur l'industrie canadienne du poisson et des fruits de mer"
        },
        "language": {
            "en": "eng",
            "fr": "fra"
        },
        "keywords": {
            "en": "Canadian IndustryOffers atlases;priority issues;Canadian and international markets reports;Domestic Market OpportunitiesOverview;Value chain roundtablesLearn",
            "fr": "cha\u00eenes de valeurRenseignez-;d\u00e9veloppement des march\u00e9s d'exportation;\u00e9trangerVue d'ensemble des march\u00e9s canadiens et internationaux;Tables rondes;fruits de mer"
        },
        "audience": {
            "en": "gcaudience",
            "fr": "gcaudience"
        },
        "type": {
            "en": "abstract",
            "fr": "r\u00e9sum\u00e9"
        },
        "creator": {
            "en": "Agriculture and Agri-Food Canada;Government of Canada",
            "fr": "Agriculture et Agroalimentaire Canada;Gouvernement du Canada"
        },
        "spatial": {
            "en": "gcregions",
            "fr": "gcregions"
        },
        "service": {
            "en": "AAFC-AAC",
            "fr": "AAFC-AAC"
        },
        "accessRights": {
            "en": "2",
            "fr": "2"
        },
        "legalName": {
            "en": "agriculture_and_agri_food_canada",
            "fr": "agriculture_et_agroalimentaire_canada"
        },
        "areaServed": {
            "en": "Canada",
            "fr": "Canada"
        }
    }
}