{
    "has_dcr_id": true,
    "node_id": "1354137773980",
    "parent_node_id": "1354137773974",
    "dcr_id": "1181591790641",
    "landingPageUrl": {
        "en": "1181591790641",
        "fr": "1181591790641"
    },
    "parent_dcr_id": "1360882179814",
    "breadcrumb": {
        "en": "Research centres and collections",
        "fr": "Research centres and collections"
    },
    "node_title": {
        "en": "Research centres and collections",
        "fr": "Research centres and collections"
    },
    "title": {
        "en": "Research centres and collections",
        "fr": "Research centres and collections"
    },
    "type": "Help",
    "meta": {
        "issued": {
            "en": "2009-06-18",
            "fr": "2009-06-18"
        },
        "modified": {
            "en": "2020-11-25",
            "fr": "2020-11-25"
        },
        "format": {
            "en": "text/html",
            "fr": "text/html"
        },
        "title": {
            "en": "Agriculture and agri-food research centres and collections",
            "fr": "Centres de recherche et collections sur l'agriculture et l'agroalimentaire"
        },
        "subject": {
            "en": "research institutes;research and development;research",
            "fr": "recherche scientifique;recherche et d\u00e9veloppement;recherche"
        },
        "description": {
            "en": "Agriculture and agri-food research centres and collections. Scientists at our research centres work on projects to benefit Canadian farmers, industry and Canadians. We also maintain biological collections and resources.\n",
            "fr": "Centres de recherche et collections sur l'agriculture et l'agroalimentaire. Nos scientifiques travaillent dans nos centres de recherche sur des projets qui profitent aux agriculteurs canadiens, \u00e0 l\u2019industrie et aux Canadiens. Nous d\u00e9tenons par ailleurs des collections de r\u00e9f\u00e9rence biologique et des ressources.\n"
        },
        "language": {
            "en": "eng",
            "fr": "fra"
        },
        "keywords": {
            "en": null,
            "fr": null
        },
        "audience": {
            "en": "gcaudience",
            "fr": "gcaudience"
        },
        "type": {
            "en": "resource list",
            "fr": "liste de r\u00e9f\u00e9rence"
        },
        "creator": {
            "en": "Research Centres;Agriculture and Agri-Food Canada ;Government of Canada",
            "fr": "Centres de recherches;Agriculture et Agroalimentaire Canada;Gouvernement du Canada"
        },
        "spatial": {
            "en": "gcregions",
            "fr": "gcregions"
        },
        "service": {
            "en": "AAFC-AAC",
            "fr": "AAFC-AAC"
        },
        "accessRights": {
            "en": "2",
            "fr": "2"
        },
        "legalName": {
            "en": "agriculture_and_agri_food_canada",
            "fr": "agriculture_et_agroalimentaire_canada"
        },
        "areaServed": {
            "en": "Canada",
            "fr": "Canada"
        }
    }
}