{
    "has_dcr_id": true,
    "node_id": "1366736867887",
    "parent_node_id": "1354137773980",
    "dcr_id": "1358881571505",
    "landingPageUrl": {
        "en": "1358881571505",
        "fr": "1358881571505"
    },
    "parent_dcr_id": "1181591790641",
    "breadcrumb": {
        "en": "Research Centres - British Columbia",
        "fr": "Research Centres - British Columbia"
    },
    "node_title": {
        "en": "Research Centres - British Columbia",
        "fr": "Research Centres - British Columbia"
    },
    "title": {
        "en": "Research Centres - British Columbia",
        "fr": "Research Centres - British Columbia"
    },
    "type": "Help",
    "meta": {
        "issued": {
            "en": "2013-01-22",
            "fr": "2013-01-22"
        },
        "modified": {
            "en": "2016-05-26",
            "fr": "2016-05-26"
        },
        "format": {
            "en": "text/html",
            "fr": "text/html"
        },
        "title": {
            "en": "Research Centres - British Columbia",
            "fr": "Centres de recherche - Colombie-Britannique"
        },
        "subject": {
            "en": "scientific research;agriculture",
            "fr": "recherche scientifique;agriculture"
        },
        "description": {
            "en": "Pacific Agri-Food Research Centre (Agassiz British Columbia) Pacific Agri-Food Research Centre (Summerland British Columbia)",
            "fr": "Centre de recherches agroalimentaires du Pacifique (Agassiz Colombie-Britannique) Centre de recherches agroalimentaires du Pacifique (Summerland Colombie-Britannique)"
        },
        "language": {
            "en": "eng",
            "fr": "fra"
        },
        "keywords": {
            "en": " Pacific Agri-Food Research Centre;British Columbia",
            "fr": " Summerland Colombie-Britannique; Agassiz Colombie-Britannique;Centre de recherches agroalimentaires du Pacifique"
        },
        "audience": {
            "en": "gcaudience",
            "fr": "gcaudience"
        },
        "type": {
            "en": "resource list",
            "fr": "liste de r\u00e9f\u00e9rence"
        },
        "creator": {
            "en": "Agriculture and Agri-Food Canada;Government of Canada",
            "fr": "Agriculture et Agroalimentaire Canada;Gouvernement du Canada"
        },
        "spatial": {
            "en": "gcregions",
            "fr": "gcregions"
        },
        "service": {
            "en": "AAFC-AAC",
            "fr": "AAFC-AAC"
        },
        "accessRights": {
            "en": "2",
            "fr": "2"
        },
        "legalName": {
            "en": "agriculture_and_agri_food_canada",
            "fr": "agriculture_et_agroalimentaire_canada"
        },
        "areaServed": {
            "en": "Canada",
            "fr": "Canada"
        }
    }
}