{
    "has_dcr_id": true,
    "node_id": "1368480094434",
    "parent_node_id": "1579021815766",
    "dcr_id": "1368482338314",
    "landingPageUrl": {
        "en": "1368482338314",
        "fr": "1368482338314"
    },
    "parent_dcr_id": "1184692853496",
    "breadcrumb": {
        "en": "Horticulture Sector Reports",
        "fr": "Horticulture Sector Reports"
    },
    "node_title": {
        "en": "Horticulture Sector Reports",
        "fr": "Horticulture Sector Reports"
    },
    "title": {
        "en": "Horticulture Sector Reports",
        "fr": "Horticulture Sector Reports"
    },
    "type": "Help",
    "meta": {
        "issued": {
            "en": "2013-09-09",
            "fr": "2013-09-09"
        },
        "modified": {
            "en": "2021-01-26",
            "fr": "2021-01-26"
        },
        "format": {
            "en": "gcformat",
            "fr": "gcformat"
        },
        "title": {
            "en": "Horticulture sector reports",
            "fr": "Rapports sur l'industrie horticole"
        },
        "subject": {
            "en": "horticulture",
            "fr": "apiculture;horticulture"
        },
        "description": {
            "en": "2009-2010 Performance overview Learn how Canadian horticulture sector crops such as field grown vegetables potatoes greenhouse vegetables fruits ornamental products (floriculture nursery Christmas trees sod) honey and maple products ginseng herbs and spices and more performed in a crop year.",
            "fr": "Survol des r\u00e9sultats - Campagne agricole de 2008 Survol des r\u00e9sultats - Campagne agricole de 2007 Profils de sous-secteurs et fiches d'information Fruits Fruits canadiens Aper\u00e7u statistique de l'industrie fruiti\u00e8re du Canada pour 2012 Aper\u00e7u statistique de l'industrie fruiti\u00e8re du Canada pour 2011 Aper\u00e7u de l'industrie fruiti\u00e8re du Canada 2009 Aper\u00e7u de l'industrie canadienne de la pomme 2010 Bleuets canadiens Aper\u00e7u statistique de l'industrie canadienne du bleuet 2010 Canneberge canadienne L\u00e9gumes L\u00e9gumes canadiens Nouveau!!"
        },
        "language": {
            "en": "eng",
            "fr": "fra"
        },
        "keywords": {
            "en": "Statistical Overview of the Canadian Vegetable Industry;international markets;Statistical Overview of the Canadian Maple Industry;Statistical Overview of the Canadian Honey Industry;Statistical Overview of Canadian Horticulture",
            "fr": "Aper\u00e7u statistique de l'industrie du miel du Canada;Campagne agricole;Survol des r\u00e9sultats;fruiti\u00e8re du Canada;Aper\u00e7u statistique de l'industrie"
        },
        "audience": {
            "en": "gcaudience",
            "fr": "gcaudience"
        },
        "type": {
            "en": "publication",
            "fr": "liste de r\u00e9f\u00e9rence"
        },
        "creator": {
            "en": "Agriculture and Agri-Food Canada;Government of Canada",
            "fr": "Agriculture et Agroalimentaire Canada;Gouvernement du Canada"
        },
        "spatial": {
            "en": "gcregions",
            "fr": "gcregions"
        },
        "service": {
            "en": "AAFC-AAC",
            "fr": "AAFC-AAC"
        },
        "accessRights": {
            "en": "2",
            "fr": "2"
        },
        "legalName": {
            "en": "agriculture_and_agri_food_canada",
            "fr": "agriculture_et_agroalimentaire_canada"
        },
        "areaServed": {
            "en": "Canada",
            "fr": "Canada"
        }
    }
}