{
    "has_dcr_id": false,
    "node_id": "1368483750924",
    "parent_node_id": "1368480271586",
    "dcr_id": "1605708289229",
    "landingPageUrl": {
        "en": "1605708289229",
        "fr": "1605708289229"
    },
    "parent_dcr_id": "1184695160057",
    "breadcrumb": {
        "en": "Potato Reports",
        "fr": "Potato Reports"
    },
    "node_title": {
        "en": "Potato Reports",
        "fr": "Potato Reports"
    },
    "title": {
        "en": "Potato Reports",
        "fr": "Potato Reports"
    },
    "type": "Help"
}