{
    "has_dcr_id": true,
    "node_id": "1382649681824",
    "parent_node_id": "1382649681823",
    "dcr_id": "1382649715170",
    "landingPageUrl": {
        "en": "1382649715170",
        "fr": "1382649715170"
    },
    "parent_dcr_id": "1382649715169",
    "breadcrumb": {
        "en": "Animal Pedigree Act",
        "fr": "Animal Pedigree Act"
    },
    "node_title": {
        "en": "Animal Pedigree Act",
        "fr": "Animal Pedigree Act"
    },
    "title": {
        "en": "Animal Pedigree Act",
        "fr": "Animal Pedigree Act"
    },
    "type": "Help",
    "meta": {
        "issued": {
            "en": "2013-02-07",
            "fr": "2013-02-07"
        },
        "modified": {
            "en": "2020-03-10",
            "fr": "2020-03-10"
        },
        "format": {
            "en": "gcformat",
            "fr": "gcformat"
        },
        "title": {
            "en": "Animal Pedigree Act",
            "fr": "Loi sur la g\u00e9n\u00e9alogie des animaux"
        },
        "subject": {
            "en": "dairy cattle;court decisions;cattle;businesses;best practices;agreements;agriculture;regulations;policy;legislation;law;government services;government publications;government information;agricultural policy;government policy;genetics;food policy;food inspection;food;federal government;farms;environment;domestic markets;disclosure of wrongdoing;agri-food industry;accountability",
            "fr": "gouvernement des f\u00e9d\u00e9ral;contrat du gouvernement f\u00e9d\u00e9ral;commerce;bovin;apiculture;animal;aliment g\u00e9n\u00e9tiquement modifi\u00e9;\u00e9valuation;sant\u00e9 animale;agriculture;r\u00e8glements;programme f\u00e9d\u00e9ral;politique gouvernementale;politique agricole;politique alimentaire;politique;march\u00e9;information gouvernementale;industrie agro-alimentaire;g\u00e9n\u00e9tique;accord;inspection"
        },
        "description": {
            "en": "The Act aims to support breed improvement and to protect persons who raise and purchase animals. It carries out these goals by helping to create animal pedigree associations that register and identify animals.",
            "fr": "La loi vise \u00e0 soutenir l\u2019am\u00e9lioration des races et \u00e0 prot\u00e9ger les personnes qui \u00e9l\u00e8vent et ach\u00e8tent des animaux. Elle r\u00e9alise ces objectifs en aidant \u00e0 cr\u00e9er des associations de g\u00e9n\u00e9alogie des animaux qui enregistrent et identifient ceux-ci."
        },
        "language": {
            "en": "eng",
            "fr": "fra"
        },
        "keywords": {
            "en": "Breed Associations;Animal Pedigree Act",
            "fr": "Loi sur la g\u00e9n\u00e9alogie des animaux;associations de race"
        },
        "audience": {
            "en": "gcaudience",
            "fr": "gcaudience"
        },
        "type": {
            "en": "terminology",
            "fr": "l\u00e9gislation et r\u00e9glements"
        },
        "creator": {
            "en": "Agriculture and Agri-Food Canada;Government of Canada",
            "fr": "Agriculture et Agroalimentaire Canada;Gouvernement du Canada"
        },
        "spatial": {
            "en": "gcregions",
            "fr": "gcregions"
        },
        "service": {
            "en": "AAFC-AAC",
            "fr": "AAFC-AAC"
        },
        "accessRights": {
            "en": "2",
            "fr": "2"
        },
        "legalName": {
            "en": "agriculture_and_agri_food_canada",
            "fr": "agriculture_et_agroalimentaire_canada"
        },
        "areaServed": {
            "en": "Canada",
            "fr": "Canada"
        }
    }
}