{
    "has_dcr_id": true,
    "node_id": "1382649681825",
    "parent_node_id": "1382649681823",
    "dcr_id": "1382649715173",
    "landingPageUrl": {
        "en": "1382649715173",
        "fr": "1382649715173"
    },
    "parent_dcr_id": "1382649715169",
    "breadcrumb": {
        "en": "Secretary's Manual",
        "fr": "Secretary's Manual"
    },
    "node_title": {
        "en": "Secretary's Manual",
        "fr": "Secretary's Manual"
    },
    "title": {
        "en": "Secretary's Manual",
        "fr": "Secretary's Manual"
    },
    "type": "Help",
    "meta": {
        "issued": {
            "en": "2003-02-24",
            "fr": "2003-02-24"
        },
        "modified": {
            "en": "2020-03-17",
            "fr": "2020-03-17"
        },
        "format": {
            "en": "gcformat",
            "fr": "gcformat"
        },
        "title": {
            "en": "Secretary's manual  (page 1 of 9)",
            "fr": "Guide \u00e0 l'intention du secr\u00e9tariat (page 1 de 9)"
        },
        "subject": {
            "en": "cattle;businesses;beef cattle;animals;agriculture;agricultural policy;agri-food products;regulations;provincial governments;policy;markets;legislation;agri-food industry;law;government publications;government policy;genetics;food policy;federal programs;federal contracts;federal government;environment;dairy cattle;agreements;government information",
            "fr": "histoire;g\u00e9n\u00e9tique;gouvernement provincial;gouvernement des f\u00e9d\u00e9ral;entreprise;droit;bovin;\u00e9conomie agricole;animal;sant\u00e9 animale;r\u00e8glements;publication gouvernementale;produit agro-alimentaire;politique agricole;politique alimentaire;march\u00e9;l\u00e9gislation;information gouvernementale;industrie agro-alimentaire;alimentation;agriculture"
        },
        "description": {
            "en": "Secretary's manual. Previous-next document navigation - bottom. Breeds under the Animal Pedigree Act. Optional Structures for Breed Associations. Recognition of Foreign Registries. Amending By-laws. Recommended process.",
            "fr": "Guide \u00e0 l'intention du secr\u00e9tariat. Races sous la Loi sur la g\u00e9n\u00e9alogie des animaux. Processus recommand\u00e9. \u00c9chantillon de formule de modifications."
        },
        "language": {
            "en": "eng",
            "fr": "fra"
        },
        "keywords": {
            "en": "Affidavit;registry;by-laws",
            "fr": "\u00e9tablies.Le;\u00e9conomique.Toutefois;destin\u00e9\u00e0"
        },
        "audience": {
            "en": "gcaudience",
            "fr": "gcaudience"
        },
        "type": {
            "en": "presentation",
            "fr": "pr\u00e9sentation"
        },
        "creator": {
            "en": "Market and Industry Services Branch;Agriculture and Agri-Food Canada;Government of Canada",
            "fr": "Direction g\u00e9n\u00e9rale des services \u00e0 l'industrie et aux march\u00e9s;Agriculture et Agroalimentaire Canada;Gouvernement du Canada"
        },
        "spatial": {
            "en": "gcregions",
            "fr": "gcregions"
        },
        "service": {
            "en": "AAFC-AAC",
            "fr": "AAFC-AAC"
        },
        "accessRights": {
            "en": "2",
            "fr": "2"
        },
        "legalName": {
            "en": "agriculture_and_agri_food_canada",
            "fr": "agriculture_et_agroalimentaire_canada"
        },
        "areaServed": {
            "en": "Canada",
            "fr": "Canada"
        }
    }
}