{
    "has_dcr_id": true,
    "node_id": "1383760666533",
    "parent_node_id": "1579021863599",
    "dcr_id": "1384285632268",
    "landingPageUrl": {
        "en": "1384285632268",
        "fr": "1384285632268"
    },
    "parent_dcr_id": "1383918945146",
    "breadcrumb": {
        "en": "Technical Trade Issues in Agriculture",
        "fr": "Technical Trade Issues in Agriculture"
    },
    "node_title": {
        "en": "Technical Trade Issues in Agriculture",
        "fr": "Technical Trade Issues in Agriculture"
    },
    "title": {
        "en": "Technical Trade Issues in Agriculture",
        "fr": "Technical Trade Issues in Agriculture"
    },
    "type": "Help",
    "meta": {
        "issued": {
            "en": "2003-03-20",
            "fr": "2003-03-20"
        },
        "modified": {
            "en": "2017-07-07",
            "fr": "2017-07-07"
        },
        "format": {
            "en": "gcformat",
            "fr": "gcformat"
        },
        "title": {
            "en": "Technical Trade Issues in Agriculture",
            "fr": "Obstacles techniques au commerce agricole"
        },
        "subject": {
            "en": "sustainable development;businesses;policy",
            "fr": "commerce ext\u00e9rieur;entreprise;d\u00e9veloppement durable"
        },
        "description": {
            "en": "AAFC is a major contributor to the development of policy positions regarding several technical issues being reviewed by a number of international organizations and committees such as the World Wine Trade Group Codex Alimentarius Commission and the Organization for International Epizootics as well as the World Trade Organization committees on Technical Barriers to Trade Sanitary and Phytosanitary Measures Trade and the Environment and Trade-Related Intellectual Property Rights (TRIPs).",
            "fr": "AAC collabore beaucoup \u00e0 l'\u00e9laboration de positions de principe sur plusieurs questions techniques qui sont examin\u00e9es par des organismes et des comit\u00e9s internationaux tels que le Groupe mondial du commerce du vin la Commission du Codex Alimentarius et l'Office international des \u00e9pizooties de m\u00eame que les comit\u00e9s de l'Organisation mondiale du commerce sur les obstacles techniques au commerce les mesures sanitaires et phytosanitaires le commerce et l'environnement et les aspects des droits de propri\u00e9t\u00e9 intellectuelle qui touchent au commerce (ADPIC)."
        },
        "language": {
            "en": "eng",
            "fr": "fra"
        },
        "keywords": {
            "en": "Genetic Resources;technical trade barrier;more attention;Biological Diversity;food safety",
            "fr": "\u00e9laboration de nouvelles disciplines;secteur agroalimentaire canadien;diversit\u00e9 biologique;qualit\u00e9 des aliments;obstacles techniques"
        },
        "audience": {
            "en": "gcaudience",
            "fr": "gcaudience"
        },
        "type": {
            "en": "fact sheet",
            "fr": "fiche de renseignements"
        },
        "creator": {
            "en": "Agriculture and Food Trade Commissioner Service;Agriculture and Agri-Food Canada;Government of Canada",
            "fr": "Service des d\u00e9l\u00e9gu\u00e9s commerciaux du secteur agroalimentaire;Agriculture et Agroalimentaire Canada;Gouvernement du Canada"
        },
        "spatial": {
            "en": "gcregions",
            "fr": "gcregions"
        },
        "service": {
            "en": "AAFC-AAC",
            "fr": "AAFC-AAC"
        },
        "accessRights": {
            "en": "2",
            "fr": "2"
        },
        "legalName": {
            "en": "agriculture_and_agri_food_canada",
            "fr": "agriculture_et_agroalimentaire_canada"
        },
        "areaServed": {
            "en": "Canada",
            "fr": "Canada"
        }
    }
}