{
    "has_dcr_id": true,
    "node_id": "1384803392547",
    "parent_node_id": "1579021708622",
    "dcr_id": "1385758087741",
    "landingPageUrl": {
        "en": "1385758087741",
        "fr": "1385758087741"
    },
    "parent_dcr_id": "1361290241756",
    "breadcrumb": {
        "en": "Value Chain Roundtables",
        "fr": "Value Chain Roundtables"
    },
    "node_title": {
        "en": "Value Chain Roundtables",
        "fr": "Value Chain Roundtables"
    },
    "title": {
        "en": "Value Chain Roundtables",
        "fr": "Value Chain Roundtables"
    },
    "type": "Help",
    "meta": {
        "issued": {
            "en": "2011-01-14",
            "fr": "2011-01-14"
        },
        "modified": {
            "en": "2021-02-01",
            "fr": "2021-02-01"
        },
        "format": {
            "en": "gcformat",
            "fr": "gcformat"
        },
        "title": {
            "en": "Engagement with the crops industry",
            "fr": "Collaboration avec le secteur des cultures"
        },
        "subject": {
            "en": "beekeeping",
            "fr": "apiculture"
        },
        "description": {
            "en": "Bringing together key industry leaders from across the value chain \u2013 input suppliers producers processors food service industries retailers traders and associations \u2013 with federal and provincial government policy makers VCRTs have become central vehicles for: identifying sector strengths and weakness capitalizing on domestic and international market opportunities sharing information and building trust across commodity sectors identifying research policy regulatory and technical requirements creating shared visions and cooperative long-term strategies responding to crises.",
            "fr": "Description Les tables rondes sur la cha\u00eene de valeur l'ensemble de la cha\u00eene de valeur (fournisseurs d'intrants producteurs transformateurs transformateurs secondairesintervenants de l'industrie de la restauration d\u00e9taillants n\u00e9gociants et associations et des responsables de l'\u00e9laboration des politiques des gouvernements f\u00e9d\u00e9ral et provinciaux Il y a actuellement 11 tables rondes nationales: boeuf transformation des aliments grains horticulture produits biologiques porc l\u00e9gumineuses produits de la mer semences ovins et cultures sp\u00e9ciales."
        },
        "language": {
            "en": "eng",
            "fr": "fra"
        },
        "keywords": {
            "en": "Value Chain Approach;value chain;Value Chain Roundtables;All Chairs Forum;federal and provincial government policy makers",
            "fr": "Liens rapides;\u00e9chelle internationale;cha\u00eene de valeur;\u00e9laboration des politiques des gouvernements;tables rondes"
        },
        "audience": {
            "en": "gcaudience",
            "fr": "gcaudience"
        },
        "type": {
            "en": "resource list",
            "fr": "liste de r\u00e9f\u00e9rence"
        },
        "creator": {
            "en": "International Policy and Coordination Division;Multilateral Relations;Market and Industry Services Branch;Agriculture and Agri-Food Canada;Government of Canada",
            "fr": "Division de la coordination et des politiques internationales;Relations multilat\u00e9rales;Direction g\u00e9n\u00e9rale des services \u00e0 l'industrie et aux march\u00e9s;Agriculture et agroalimentaire Canada;Gouvernement du Canada"
        },
        "spatial": {
            "en": "gcregions",
            "fr": "gcregions"
        },
        "service": {
            "en": "AAFC-AAC",
            "fr": "AAFC-AAC"
        },
        "accessRights": {
            "en": "2",
            "fr": "2"
        },
        "legalName": {
            "en": "agriculture_and_agri_food_canada",
            "fr": "agriculture_et_agroalimentaire_canada"
        },
        "areaServed": {
            "en": "Canada",
            "fr": "Canada"
        }
    }
}