{
    "has_dcr_id": true,
    "node_id": "1384804049696",
    "parent_node_id": "1384803392547",
    "dcr_id": "1385582114523",
    "landingPageUrl": {
        "en": "1385582114523",
        "fr": "1385582114523"
    },
    "parent_dcr_id": "1385758087741",
    "breadcrumb": {
        "en": "Grains",
        "fr": "Grains"
    },
    "node_title": {
        "en": "Grains",
        "fr": "Grains"
    },
    "title": {
        "en": "Grains",
        "fr": "Grains"
    },
    "type": "Help",
    "meta": {
        "issued": {
            "en": "2011-03-07",
            "fr": "2011-03-07"
        },
        "modified": {
            "en": "2019-10-03",
            "fr": "2019-10-03"
        },
        "format": {
            "en": "gcformat",
            "fr": "gcformat"
        },
        "title": {
            "en": "Grains Roundtable",
            "fr": "Table ronde sur l'industrie des grains"
        },
        "subject": {
            "en": "regulatory agencies;grains",
            "fr": "organisme de r\u00e9glementation;grain"
        },
        "description": {
            "en": "Its wheat exports are forecast to total 17700000 tonnes while canola is expected to total 8400000 tonnes and barley exports are forecast at 1900000 tonnes.",
            "fr": "Grains13848040496961 Dans cette section Objectifs Membres Bulletins Personnes-ressources Liens Un bref historique L'industrie canadienne des grains comprend principalement la culture du bl\u00e9 du canola des l\u00e9gumineuses \u00e0 grains de l'orge du ma\u00efs de l'avoine et du soja."
        },
        "language": {
            "en": "eng",
            "fr": "fra"
        },
        "keywords": {
            "en": "section Objectives Members Bulletins Contacts Links A Brief History Canada's grains industry;barley exports;tonnes of wheat;tonnes of barley;inaugural meeting",
            "fr": "r\u00e8glements internationaux;Table ronde;culture du bl\u00e9 du canola des l\u00e9gumineuses;Objectifs Membres Bulletins Personnes-ressources Liens Un bref historique;secteur des c\u00e9r\u00e9ales"
        },
        "audience": {
            "en": "gcaudience",
            "fr": "gcaudience"
        },
        "type": {
            "en": "publication",
            "fr": "fiche de renseignements"
        },
        "creator": {
            "en": "International Policy and Coordination Division;Multilateral Relations;Market and Industry Services Branch;Agriculture and Agri-Food Canada;Government of Canada",
            "fr": "Division de la coordination et des politiques internationales;Relations multilat\u00e9rales;Direction g\u00e9n\u00e9rale des services \u00e0 l'industrie et aux march\u00e9s;Agriculture et agroalimentaire Canada;Gouvernement du Canada"
        },
        "spatial": {
            "en": "gcregions",
            "fr": "gcregions"
        },
        "service": {
            "en": "AAFC-AAC",
            "fr": "AAFC-AAC"
        },
        "accessRights": {
            "en": "2",
            "fr": "2"
        },
        "legalName": {
            "en": "agriculture_and_agri_food_canada",
            "fr": "agriculture_et_agroalimentaire_canada"
        },
        "areaServed": {
            "en": "Canada",
            "fr": "Canada"
        }
    }
}