{
    "has_dcr_id": true,
    "node_id": "1384804207391",
    "parent_node_id": "1384803392547",
    "dcr_id": "1385758986961",
    "landingPageUrl": {
        "en": "1385758986961",
        "fr": "1385758986961"
    },
    "parent_dcr_id": "1385758087741",
    "breadcrumb": {
        "en": "Sheep",
        "fr": "Sheep"
    },
    "node_title": {
        "en": "Sheep",
        "fr": "Sheep"
    },
    "title": {
        "en": "Sheep",
        "fr": "Sheep"
    },
    "type": "Help",
    "meta": {
        "issued": {
            "en": "2011-05-12",
            "fr": "2011-05-12"
        },
        "modified": {
            "en": "2019-04-12",
            "fr": "2019-04-12"
        },
        "format": {
            "en": "gcformat",
            "fr": "gcformat"
        },
        "title": {
            "en": "Sheep",
            "fr": "Ovine"
        },
        "subject": {
            "en": "sheep",
            "fr": "industrie agro-alimentaire"
        },
        "description": {
            "en": "The Sheep Value Chain Roundtable (ShVCRT) was launched in 2011 to develop a shared understanding of the key market challenges and opportunities facing the industry; and to enhance co\u2011operation and interaction among all stakeholders in the sheep value chain. Jointly, industry and government participants will work to develop and implement action plans designed to improve the industry's competitive position.",
            "fr": "La Table ronde sur la cha\u00eene de valeur de l'industrie ovine (TRCVIO) a \u00e9t\u00e9 cr\u00e9\u00e9e en 2011 afin de d\u00e9velopper un point de vue commun des principales difficult\u00e9s et d\u00e9bouch\u00e9s du march\u00e9 auxquels est confront\u00e9e l'industrie, de m\u00eame que pour accro\u00eetre la coop\u00e9ration et les interactions entre tous les intervenants faisant partie de la cha\u00eene de valeur de l'industrie ovine. Les participants de l'industrie et du gouvernement collaboreront donc pour d\u00e9velopper et mettre en \u0153uvre des plans d'action visant \u00e0 am\u00e9liorer la position concurrentielle de l'industrie."
        },
        "language": {
            "en": "eng",
            "fr": "fra"
        },
        "keywords": {
            "en": " sheep; sectors; roundtables;value chain",
            "fr": " ovine; agneau; secteurs; tables rondes;cha\u00eenes de valeur"
        },
        "audience": {
            "en": "gcaudience",
            "fr": "gcaudience"
        },
        "type": {
            "en": "program-service description",
            "fr": "description du programme ou du service"
        },
        "creator": {
            "en": "Agriculture and Food Trade Commissioner Service;Branding Strategy;International Markets Bureau;Market and Industry Services Branch;Agriculture and Agri-Food Canada;Government of Canada",
            "fr": "Service des d\u00e9l\u00e9gu\u00e9s commerciaux du secteur agroalimentaire;Strat\u00e9gie de promotion de l'image de marque;Bureau des march\u00e9s internationaux;Direction g\u00e9n\u00e9rale des services \u00e0 l'industrie et aux march\u00e9s;Agriculture et Agroalimentaire Canada;Gouvernement du Canada"
        },
        "spatial": {
            "en": "gcregions",
            "fr": "gcregions"
        },
        "service": {
            "en": "AAFC-AAC",
            "fr": "AAFC-AAC"
        },
        "accessRights": {
            "en": "2",
            "fr": "2"
        },
        "legalName": {
            "en": "agriculture_and_agri_food_canada",
            "fr": "agriculture_et_agroalimentaire_canada"
        },
        "areaServed": {
            "en": "Canada",
            "fr": "Canada"
        }
    }
}