{
    "has_dcr_id": true,
    "node_id": "1409144411097",
    "parent_node_id": "1384803392547",
    "dcr_id": "1409832956249",
    "landingPageUrl": {
        "en": "1409832956249",
        "fr": "1409832956249"
    },
    "parent_dcr_id": "1385758087741",
    "breadcrumb": {
        "en": "Bee Health",
        "fr": "Bee Health"
    },
    "node_title": {
        "en": "Bee Health",
        "fr": "Bee Health"
    },
    "title": {
        "en": "Bee Health",
        "fr": "Bee Health"
    },
    "type": "Help",
    "meta": {
        "issued": {
            "en": "2014-09-05",
            "fr": "2014-09-05"
        },
        "modified": {
            "en": "2019-06-28",
            "fr": "2019-06-28"
        },
        "format": {
            "en": "gcformat",
            "fr": "gcformat"
        },
        "title": {
            "en": "Bee Health Roundtable",
            "fr": "Table ronde sur la sant\u00e9 des abeilles"
        },
        "subject": {
            "en": "beekeeping",
            "fr": "apiculture"
        },
        "description": {
            "en": "In addition to honey production, honey bees play a vital pollination role in the yield and quality of Canadian crop production. In recent years, higher than average bee mortalities across the country have resulted in widespread attention being paid to bee health issues.",
            "fr": "En plus de produire du miel, les abeilles domestiques jouent un r\u00f4le essentiel de pollinisation qui d\u00e9termine le rendement et la qualit\u00e9 des r\u00e9coltes canadiennes. Au cours des derni\u00e8res ann\u00e9es, le taux de mortalit\u00e9 plus \u00e9lev\u00e9 des abeilles domestiques au Canada a stimul\u00e9 l'int\u00e9r\u00eat \u00e0 l'\u00e9gard des questions liees \u00e0 la sant\u00e9 des abeilles."
        },
        "language": {
            "en": "eng",
            "fr": "fra"
        },
        "keywords": {
            "en": "Bee Health Forum",
            "fr": "Forum sur la sant\u00e9 des abeilles"
        },
        "audience": {
            "en": "gcaudience",
            "fr": "gcaudience"
        },
        "type": {
            "en": "resource list",
            "fr": "liste de r\u00e9f\u00e9rence"
        },
        "creator": {
            "en": "Agriculture and Agri-Food Canada;Government of Canada",
            "fr": "Agriculture et Agroalimentaire Canada;Gouvernement du Canada"
        },
        "spatial": {
            "en": "gcregions",
            "fr": "gcregions"
        },
        "service": {
            "en": "AAFC-AAC",
            "fr": "AAFC-AAC"
        },
        "accessRights": {
            "en": "2",
            "fr": "2"
        },
        "legalName": {
            "en": "agriculture_and_agri_food_canada",
            "fr": "agriculture_et_agroalimentaire_canada"
        },
        "areaServed": {
            "en": "Canada",
            "fr": "Canada"
        }
    }
}