{
    "has_dcr_id": true,
    "node_id": "1415863600009",
    "parent_node_id": "1354137773862",
    "dcr_id": "1415860000017",
    "landingPageUrl": {
        "en": "1415860000017",
        "fr": "1415860000017"
    },
    "parent_dcr_id": "1415860000001",
    "breadcrumb": {
        "en": "Inventory",
        "fr": "Inventory"
    },
    "node_title": {
        "en": "Inventory",
        "fr": "Inventory"
    },
    "title": {
        "en": "Inventory",
        "fr": "Inventory"
    },
    "type": "Help",
    "meta": {
        "issued": {
            "en": "2003-02-24",
            "fr": "2003-02-24"
        },
        "modified": {
            "en": "2020-12-03",
            "fr": "2020-12-03"
        },
        "format": {
            "en": "gcformat",
            "fr": "gcformat"
        },
        "title": {
            "en": "Red meat and livestock inventory reports",
            "fr": "Rapports d'inventaire pour le march\u00e9 des viandes rouges"
        },
        "subject": {
            "en": "architectural heritage;architecture;statistics",
            "fr": "aliment;g\u00e9omatique;\u00e9conomie"
        },
        "description": {
            "en": "Red Meat Market Information - Inventory Reports",
            "fr": "Information sur le march\u00e9 des viandes rouges - Rapports des inventaires"
        },
        "language": {
            "en": "eng",
            "fr": "fra"
        },
        "keywords": {
            "en": "alternative livestock;calves;cattle;goats;lambs;sheep;hogs;Inventory;farm type;registered animals;livestock population;deer;Market Information;Red Meat",
            "fr": "b\u00e9tail alternatif;veaus;bovins;ch&egrave;vres;moutons;agneaux;porcs;inventaires;populations;animaux enregistr\u00e9s;cerdiv\u00e9s;viandes rouges;Information sur le march\u00e9"
        },
        "audience": {
            "en": "gcaudience",
            "fr": "gcaudience"
        },
        "type": {
            "en": "article",
            "fr": "description de l'organisation"
        },
        "creator": {
            "en": "Agriculture and Agri-Food Canada;Government of Canada;Agriculture and Agri-Food Canada;Market and Industry Services Branch",
            "fr": "Agriculture et Agroalimentaire Canada;Gouvernement du Canada;Agriculture et Agroalimentaire Canada;Direction g\u00e9n\u00e9rale des services &agrave; l'industrie et aux march\u00e9s"
        },
        "spatial": {
            "en": "gcregions",
            "fr": "gcregions"
        },
        "service": {
            "en": "AAFC-AAC",
            "fr": "AAFC-AAC"
        },
        "accessRights": {
            "en": "2",
            "fr": "2"
        },
        "legalName": {
            "en": "agriculture_and_agri_food_canada",
            "fr": "agriculture_et_agroalimentaire_canada"
        },
        "areaServed": {
            "en": "Canada",
            "fr": "Canada"
        }
    }
}