{
    "has_dcr_id": true,
    "node_id": "1453480440103",
    "parent_node_id": "1410080965335",
    "dcr_id": "1453911839961",
    "landingPageUrl": {
        "en": "1453911839961",
        "fr": "1453911839961"
    },
    "parent_dcr_id": "1410083148447",
    "breadcrumb": {
        "en": "Bilateral Trade with Canada - US and Mexico",
        "fr": "Bilateral Trade with Canada - US and Mexico"
    },
    "node_title": {
        "en": "Bilateral Trade with Canada - US and Mexico",
        "fr": "Bilateral Trade with Canada - US and Mexico"
    },
    "title": {
        "en": "Bilateral Trade with Canada - US and Mexico",
        "fr": "Bilateral Trade with Canada - US and Mexico"
    },
    "type": "Help",
    "meta": {
        "issued": {
            "en": "2016-01-29",
            "fr": "2016-01-29"
        },
        "modified": {
            "en": "2021-01-26",
            "fr": "2021-01-26"
        },
        "format": {
            "en": "gcformat",
            "fr": "gcformat"
        },
        "title": {
            "en": "Canada-United States bilateral trade",
            "fr": "\u00c9changes bilat\u00e9raux Canada - \u00c9tats-Unis"
        },
        "subject": {
            "en": "market development;market analysis;trade agreements",
            "fr": "d\u00e9veloppement des march\u00e9s;analyse de march\u00e9;accord de libre-\u00e9change"
        },
        "description": {
            "en": "The United States (US) and Canada enjoy the largest bilateral trading relationship in the world. Bilateral trade creates jobs and economic opportunities in both the United States and Canada. It builds on our respective efficiencies and creates a more competitive and integrated agri-food sector. View this video for the most recent highlights of this great trading relationship.",
            "fr": "Les \u00c9tats-Unis et le Canada entretiennent la plus vaste relation commerciale bilat\u00e9rale du monde. Le commerce bilat\u00e9ral cr\u00e9e des emplois et des d\u00e9bouch\u00e9s \u00e9conomiques tant aux \u00c9tats-Unis qu'au Canada. Il met \u00e0 profit nos efficacit\u00e9s respectives et cr\u00e9e un secteur agroalimentaire plus comp\u00e9titif et int\u00e9gr\u00e9. Regardez cette vid\u00e9o qui vous pr\u00e9sente les points saillants de cette grande relation commerciale."
        },
        "language": {
            "en": "eng",
            "fr": "fra"
        },
        "keywords": {
            "en": " Trans-Pacific Partnership (TPP); North American Free-Trade Agreement (NAFTA); Market Access;Bilateral Trade",
            "fr": " Partenariat transpacifique; Accord de libre-\u00e9change nord-am\u00e9ricain (ALENA); Acc\u00e8s aux march\u00e9s;\u00c9changes bilat\u00e9raux"
        },
        "audience": {
            "en": "gcaudience",
            "fr": "gcaudience"
        },
        "type": {
            "en": "multimedia",
            "fr": "multim\u00e9dia"
        },
        "creator": {
            "en": "Agriculture and Agri-Food Canada;Government of Canada",
            "fr": "Agriculture et Agroalimentaire Canada;Gouvernement du Canada"
        },
        "spatial": {
            "en": "gcregions",
            "fr": "gcregions"
        },
        "service": {
            "en": "AAFC-AAC",
            "fr": "AAFC-AAC"
        },
        "accessRights": {
            "en": "2",
            "fr": "2"
        },
        "legalName": {
            "en": "agriculture_and_agri_food_canada",
            "fr": "agriculture_et_agroalimentaire_canada"
        },
        "areaServed": {
            "en": "Canada",
            "fr": "Canada"
        }
    }
}