{
    "has_dcr_id": true,
    "node_id": "1463687249668",
    "parent_node_id": "1463686976184",
    "dcr_id": "1463575241811",
    "landingPageUrl": {
        "en": "1463575241811",
        "fr": "1463575241811"
    },
    "parent_dcr_id": "1461263317515",
    "breadcrumb": {
        "en": "Managing Agroclimate Risk",
        "fr": "Managing Agroclimate Risk"
    },
    "node_title": {
        "en": "Managing Agroclimate Risk",
        "fr": "Managing Agroclimate Risk"
    },
    "title": {
        "en": "Managing Agroclimate Risk",
        "fr": "Managing Agroclimate Risk"
    },
    "type": "Help",
    "meta": {
        "issued": {
            "en": "2016-06-17",
            "fr": "2016-06-17"
        },
        "modified": {
            "en": "2020-07-29",
            "fr": "2020-07-29"
        },
        "format": {
            "en": "text/html",
            "fr": "text/html"
        },
        "title": {
            "en": "Managing Agroclimate Risk",
            "fr": "Gestion du risque agroclimatique"
        },
        "subject": {
            "en": "community development;rural communities;sustainable development",
            "fr": "foresterie;accord;engrais"
        },
        "description": {
            "en": "DW-GSDrought Watchmanaging_argroclimate_riskManaging Agroclimate Risk. The information here on farm management practices will help you to prepare and mitigate risk to your crops, livestock and land during drought conditions.Crops. Livestock. Securing Livestock Water During Drought. Using Cereals for Feed During a Drought. Farm Water Conservation During Times of Drought. Farmers Urged to Choose Water Carefully.",
            "fr": "DW-GSGuetter la s\u00e9cheresseGestion du risque agroclimatique. Freiner l\u2019\u00e9rosion \u00e9olienne par la culture en bandes. Mesures d\u2019urgence pour l\u2019approvisionnement en eau en p\u00e9riode de s\u00e9cheresse."
        },
        "language": {
            "en": "eng",
            "fr": "fra"
        },
        "keywords": {
            "en": null,
            "fr": "d\u00e9rosion;bleu-vert;ann\u00e9es.Presque"
        },
        "audience": {
            "en": "gcaudience",
            "fr": "gcaudience"
        },
        "type": {
            "en": "presentation",
            "fr": "d\u00e9cision"
        },
        "creator": {
            "en": "Agriculture and Agri-Food Canada;Government of Canada",
            "fr": "Agriculture et Agroalimentaire Canada;Gouvernement du Canada"
        },
        "spatial": {
            "en": "gcregions",
            "fr": "gcregions"
        },
        "service": {
            "en": "AAFC-AAC",
            "fr": "AAFC-AAC"
        },
        "accessRights": {
            "en": "2",
            "fr": "2"
        },
        "legalName": {
            "en": "agriculture_and_agri_food_canada",
            "fr": "agriculture_et_agroalimentaire_canada"
        },
        "areaServed": {
            "en": "Canada",
            "fr": "Canada"
        }
    }
}