{
    "has_dcr_id": true,
    "node_id": "1463687276657",
    "parent_node_id": "1463686976184",
    "dcr_id": "1463575565688",
    "landingPageUrl": {
        "en": "1463575565688",
        "fr": "1463575565688"
    },
    "parent_dcr_id": "1461263317515",
    "breadcrumb": {
        "en": "Related Links",
        "fr": "Related Links"
    },
    "node_title": {
        "en": "Related Links",
        "fr": "Related Links"
    },
    "title": {
        "en": "Related Links",
        "fr": "Related Links"
    },
    "type": "Help",
    "meta": {
        "issued": {
            "en": "2016-06-17",
            "fr": "2016-06-17"
        },
        "modified": {
            "en": "2019-08-01",
            "fr": "2019-08-01"
        },
        "format": {
            "en": "text/html",
            "fr": "text/html"
        },
        "title": {
            "en": "Related Links",
            "fr": "Liens connexes"
        },
        "subject": {
            "en": "climate change;drought;research",
            "fr": "s\u00e9cheresse;engrais;environnement"
        },
        "description": {
            "en": "DW-GS Drought Watch related_links Related Links. BC Waterbucket: Sustainable Approaches to Water Resources. Alberta Hay Listing Service. North American Drought Monitor. National Oceanic and Atmospheric Administration (NOAA): The National Oceanographic Data Center.",
            "fr": "DW-GS Guetter la s\u00e9cheresse Liens connexes. ZoneVerte. R\u00e9seau de recherche sur la s\u00e9cheresse (DRI) (en anglais seulement). Couverture nivale actuelle (en anglais seulement). Glaciers et calottes glaci\u00e8res (en anglais seulement). M\u00e9t\u00e9o M\u00e9dia\u00a0: Bulletin de ski. Nouvelle-\u00c9cosse \u2013 Programmes et gestion des risques (en anglais seulement). \u00cele-du-Prince-\u00c9douard, minist\u00e8re de l'Agriculture et des For\u00eats \u2013 Rapports sur le march\u00e9 (en anglais seulement). \u00cele-du-Prince-\u00c9douard, minist\u00e8re de l'Agriculture et des For\u00eats \u2013 Renseignements m\u00e9t\u00e9orologiques (en anglais seulement). \u00c0 l'\u00e9chelle internationale."
        },
        "language": {
            "en": "eng",
            "fr": "fra"
        },
        "keywords": {
            "en": "AgWeather;AgroClimatic;Agri-Network",
            "fr": "Atmospheric;Agri-R\u00e9seau;Ag-Programme"
        },
        "audience": {
            "en": "gcaudience",
            "fr": "gcaudience"
        },
        "type": {
            "en": "notice",
            "fr": "d\u00e9cision"
        },
        "creator": {
            "en": "Agriculture and Agri-Food Canada;Government of Canada",
            "fr": "Agriculture et Agroalimentaire Canada;Gouvernement du Canada"
        },
        "spatial": {
            "en": "gcregions",
            "fr": "gcregions"
        },
        "service": {
            "en": "AAFC-AAC",
            "fr": "AAFC-AAC"
        },
        "accessRights": {
            "en": "2",
            "fr": "2"
        },
        "legalName": {
            "en": "agriculture_and_agri_food_canada",
            "fr": "agriculture_et_agroalimentaire_canada"
        },
        "areaServed": {
            "en": "Canada",
            "fr": "Canada"
        }
    }
}