{
    "has_dcr_id": true,
    "node_id": "1463687205957",
    "parent_node_id": "1463686976184",
    "dcr_id": "1463575104513",
    "landingPageUrl": {
        "en": "1463575104513",
        "fr": "1463575104513"
    },
    "parent_dcr_id": "1461263317515",
    "breadcrumb": {
        "en": "Canadian Drought Monitor",
        "fr": "Canadian Drought Monitor"
    },
    "node_title": {
        "en": "Canadian Drought Monitor",
        "fr": "Canadian Drought Monitor"
    },
    "title": {
        "en": "Canadian Drought Monitor",
        "fr": "Canadian Drought Monitor"
    },
    "type": "Help",
    "meta": {
        "issued": {
            "en": "2016-06-17",
            "fr": "2016-06-17"
        },
        "modified": {
            "en": "2021-02-09",
            "fr": "2021-02-09"
        },
        "format": {
            "en": "text/html",
            "fr": "text/html"
        },
        "title": {
            "en": "Canadian Drought Monitor",
            "fr": "Outil de surveillance des s\u00e9cheresses au Canada"
        },
        "subject": {
            "en": "architecture;climate change;taxes",
            "fr": "\u00e9conomie;commerce ext\u00e9rieur;\u00e9conomie agricole"
        },
        "description": {
            "en": "DW-GS Drought Watch canadian_drought_monitor Canadian Drought Monitor. showing the extent and intensity of drought across Canada;Learn. Orange \u2013 D2 \u2013 severe drought.",
            "fr": "DW-GS Guetter la s\u00e9cheresse L'Outil de surveillance de s\u00e9cheresses au Canada. l\u2019Application de surveillance des s\u00e9cheresses au Canada. liens\u00a0de l\u2019Outil de surveillance des s\u00e9cheresses au Canada."
        },
        "language": {
            "en": "eng",
            "fr": "fra"
        },
        "keywords": {
            "en": "DW-GS Drought Watch;spatial extent and intensity of drought;Drought Monitor",
            "fr": "DW-GS Guetter;Servicio Meteorol\u00f3gico Nacional"
        },
        "audience": {
            "en": "gcaudience",
            "fr": "gcaudience"
        },
        "type": {
            "en": "presentation",
            "fr": "\u00e9valuation"
        },
        "creator": {
            "en": "Agriculture and Agri-Food Canada;Government of Canada",
            "fr": "Agriculture et Agroalimentaire Canada;Gouvernement du Canada"
        },
        "spatial": {
            "en": "gcregions",
            "fr": "gcregions"
        },
        "service": {
            "en": "AAFC-AAC",
            "fr": "AAFC-AAC"
        },
        "accessRights": {
            "en": "2",
            "fr": "2"
        },
        "legalName": {
            "en": "agriculture_and_agri_food_canada",
            "fr": "agriculture_et_agroalimentaire_canada"
        },
        "areaServed": {
            "en": "Canada",
            "fr": "Canada"
        }
    }
}