{
    "has_dcr_id": true,
    "node_id": "1493045794735",
    "parent_node_id": "1384803392547",
    "dcr_id": "1492806638190",
    "landingPageUrl": {
        "en": "1492806638190",
        "fr": "1492806638190"
    },
    "parent_dcr_id": "1385758087741",
    "breadcrumb": {
        "en": "Poultry",
        "fr": "Poultry"
    },
    "node_title": {
        "en": "Poultry",
        "fr": "Poultry"
    },
    "title": {
        "en": "Poultry",
        "fr": "Poultry"
    },
    "type": "Help",
    "meta": {
        "issued": {
            "en": "2017-04-25",
            "fr": "2017-04-25"
        },
        "modified": {
            "en": "2019-10-03",
            "fr": "2019-10-03"
        },
        "format": {
            "en": "gcformat",
            "fr": "gcformat"
        },
        "title": {
            "en": "Poultry Sustainability Value Chain Roundtable",
            "fr": "Table ronde sur la p\u00e9rennit\u00e9 du secteur de la volaille"
        },
        "subject": {
            "en": "architecture;horticulture;cooperatives",
            "fr": "ressources p\u00e9dagogiques;engrais;m\u00e9dicament"
        },
        "description": {
            "en": "2014. PDF. Version. (8.9. MB. www.blundellseafoods.com. Sales: $10\u201350. Tel. : (604) 276-2515.",
            "fr": "Formats de rechange. Remarque\u00a0:Une partie du contenu d\u00e9passe la largeur habituelle.Num\u00e9ro international normalis\u00e9 du livre\u00a0: 2292-1532. Services internes. Section IV : Renseignements suppl\u00e9mentaires. Des consultations approfondies ont \u00e9t\u00e9 mises sur pied, conform\u00e9ment \u00e0 l\u2019engagement du gouvernement envers l\u2019ouverture et la transparence \u00e0 l\u2019\u00e9gard des Canadiens.Le Canada compte sur les meilleurs agriculteurs et sur les meilleures entreprises de transformation d\u2019aliments au monde, ainsi que sur une fonction publique d\u00e9vou\u00e9e. En tant que ministre de l\u2019Agriculture et de l\u2019Agroalimentaire du Canada, je suis fier d\u2019\u00eatre au service de ce secteur dynamique, et je m\u2019engage \u00e0 obtenir des r\u00e9sultats favorables \u00e0 la fois pour le secteur et pour tous les Canadiens.Je me r\u00e9jouis de travailler avec les partenaires du portefeuille de l\u2019agriculture et les intervenants pour aider les agriculteurs et les transformateurs alimentaires du Canada \u00e0 \u00eatre toujours plus concurrentiels et innovateurs, contribuant ainsi \u00e0 la croissance \u00e9conomique, \u00e0 la cr\u00e9ation d\u2019emplois et \u00e0 la prosp\u00e9rit\u00e9 du Canada."
        },
        "language": {
            "en": "eng",
            "fr": "fra"
        },
        "keywords": {
            "en": "Meeting.Labour;Leader.Updates",
            "fr": "connexes.Atteinte"
        },
        "audience": {
            "en": "gcaudience",
            "fr": "gcaudience"
        },
        "type": {
            "en": "contact information",
            "fr": "avis"
        },
        "creator": {
            "en": "Agriculture and Agri-Food Canada;Government of Canada",
            "fr": "Agriculture et Agroalimentaire Canada;Gouvernement du Canada"
        },
        "spatial": {
            "en": "gcregions",
            "fr": "gcregions"
        },
        "service": {
            "en": "AAFC-AAC",
            "fr": "AAFC-AAC"
        },
        "accessRights": {
            "en": "2",
            "fr": "2"
        },
        "legalName": {
            "en": "agriculture_and_agri_food_canada",
            "fr": "agriculture_et_agroalimentaire_canada"
        },
        "areaServed": {
            "en": "Canada",
            "fr": "Canada"
        }
    }
}