{
    "has_dcr_id": true,
    "parent_node_id": "1354137773676",
    "node_id": "1495547953328",
    "dcr_id": "1447972607822",
    "landingPageUrl": {
        "en": "1447972607822",
        "fr": "1251744184867"
    },
    "parent_page": {
        "en": "1362151577626",
        "fr": "1362151577626"
    },
    "title": {
        "en": "Agricultural Business Management",
        "fr": "Programmes et services qui ne sont plus offerts"
    },
    "breadcrumb": {
        "en": "Agricultural Business Management",
        "fr": "Programmes et services qui ne sont plus offerts"
    },
    "temptype": "our_dept",
    "meta": {
        "issued": {
            "en": "2015-11-25",
            "fr": "2015-11-25"
        },
        "modified": {
            "en": "2020-11-23",
            "fr": "2020-11-23"
        },
        "format": {
            "en": "text/html",
            "fr": "text/html"
        },
        "title": {
            "en": "Reliable tools for steady hands",
            "fr": "Des outils fiables qui peuvent vous aider"
        },
        "subject": {
            "en": "marketing;business development;agricultural assistance",
            "fr": "marketing;d\u00e9veloppement des march\u00e9s;aide \u00e0 l'agriculture"
        },
        "description": {
            "en": "Find resources and support in managing your farming operations to stay competitive and prepared for unforeseen situations.",
            "fr": "Trouvez des ressources et du soutien pour g\u00e9rer votre exploitation agricole afin de demeurer concurrentiel et d'\u00eatre pr\u00e9par\u00e9 en cas de situations impr\u00e9vues."
        },
        "language": {
            "en": "eng",
            "fr": "fra"
        },
        "keywords": {
            "en": " Animals; Plants; Biosecurity plans; Put preventive measures in place; Protect your sales;Get financial support",
            "fr": " Animaux; V\u00e9g\u00e9taux; Plans de bios\u00fbret\u00e9; Mettre en place des mesures de pr\u00e9vention; Prot\u00e9gez vos ventes;Obtenir un soutien financier"
        },
        "audience": {
            "en": "gcaudience",
            "fr": "gcaudience"
        },
        "type": {
            "en": "resource list",
            "fr": "liste de r\u00e9f\u00e9rence"
        },
        "creator": {
            "en": "Agriculture and Agri-Food Canada;Government of Canada",
            "fr": "Agriculture et Agroalimentaire Canada;Gouvernement du Canada"
        },
        "spatial": {
            "en": "gcregions",
            "fr": "gcregions"
        },
        "service": {
            "en": "AAFC-AAC",
            "fr": "AAFC-AAC"
        },
        "accessRights": {
            "en": "2",
            "fr": "2"
        },
        "legalName": {
            "en": "agriculture_and_agri_food_canada",
            "fr": "agriculture_et_agroalimentaire_canada"
        },
        "areaServed": {
            "en": "Canada",
            "fr": "Canada"
        }
    }
}