{
    "has_dcr_id": true,
    "parent_node_id": "1354137773676",
    "node_id": "1517240041847",
    "dcr_id": "1511185929317",
    "landingPageUrl": {
        "en": "1511185929317",
        "fr": "1515092171804"
    },
    "parent_page": {
        "en": "1362151577626",
        "fr": "1362151577626"
    },
    "title": {
        "en": "AgriScience Program - Clusters - 1. What this program offers",
        "fr": "Programme Agri-marketing : Volet Associations nationales de l\u2019industrie"
    },
    "breadcrumb": {
        "en": "AgriScience Program - Clusters - 1. What this program offers",
        "fr": "Programme Agri-marketing : Volet Associations nationales de l\u2019industrie"
    },
    "temptype": "our_dept",
    "meta": {
        "issued": {
            "en": "2017-11-24",
            "fr": "2017-11-24"
        },
        "modified": {
            "en": "2018-02-13",
            "fr": "2018-02-13"
        },
        "format": {
            "en": "text/html",
            "fr": "text/html"
        },
        "title": {
            "en": "AgriScience Program \u2013 Clusters: Step 1. What this program offers",
            "fr": "Programme Agri-science \u2013 grappes : \u00c9tape 1. Que comprend ce programme"
        },
        "subject": {
            "en": "architectural heritage;architecture;statistics",
            "fr": "engrais;commerce ext\u00e9rieur;\u00e9conomie agricole"
        },
        "description": {
            "en": "Alternative Formats. Agriculture and Agri-Food Canada. The Honourable Gerry Ritz, P.C., M.P.Minister of Agriculture and Agri-Food. Program 2.3: Trade and Market Development. Sub-program 2.3.1: Trade Negotiations and Market Access. Growing Forward. agricultural policy framework laid the groundwork for a new approach and vision to advance the Canadian agriculture and agri-food industry.",
            "fr": "Programme objectif carri\u00e8re. 1. Que comprend ce service. 1. Que comprend ce service. Le programme Objectif carri\u00e8re offre du financement aux organismes souhaitant cr\u00e9er des stages en agriculture qui procurent aux nouveaux dipl\u00f4m\u00e9s des exp\u00e9riences de travail li\u00e9es \u00e0 leur choix de carri\u00e8re.Chaque ann\u00e9e, les employeurs doivent pr\u00e9senter une demande entre le 1. er. Suivante."
        },
        "language": {
            "en": "eng",
            "fr": "fra"
        },
        "keywords": {
            "en": null,
            "fr": "habilit\u00e9es \u00e0 conclure;lemplacement o\u00f9 vous lavez sauvegard\u00e9.Autres"
        },
        "audience": {
            "en": "gcaudience",
            "fr": "gcaudience"
        },
        "type": {
            "en": "notice",
            "fr": "plan d'activit\u00e9s"
        },
        "creator": {
            "en": "Agriculture and Agri-Food Canada;Government of Canada",
            "fr": "Agriculture et Agroalimentaire Canada;Gouvernement du Canada"
        },
        "spatial": {
            "en": "gcregions",
            "fr": "gcregions"
        },
        "service": {
            "en": "AAFC-AAC",
            "fr": "AAFC-AAC"
        },
        "accessRights": {
            "en": "2",
            "fr": "2"
        },
        "legalName": {
            "en": "agriculture_and_agri_food_canada",
            "fr": "agriculture_et_agroalimentaire_canada"
        },
        "areaServed": {
            "en": "Canada",
            "fr": "Canada"
        }
    }
}