{
    "has_dcr_id": true,
    "node_id": "1537188727278",
    "parent_node_id": "1354137774061",
    "dcr_id": "1515504619391",
    "landingPageUrl": {
        "en": "1515504619391",
        "fr": "1515504619391"
    },
    "parent_dcr_id": "1210885869244",
    "breadcrumb": {
        "en": "Recruitment opportunities",
        "fr": "Recruitment opportunities"
    },
    "node_title": {
        "en": "Recruitment opportunities",
        "fr": "Recruitment opportunities"
    },
    "title": {
        "en": "Recruitment opportunities",
        "fr": "Recruitment opportunities"
    },
    "type": "Help",
    "meta": {
        "issued": {
            "en": "2018-01-12",
            "fr": "2018-01-12"
        },
        "modified": {
            "en": "2018-10-02",
            "fr": "2018-10-02"
        },
        "format": {
            "en": "gcformat",
            "fr": "gcformat"
        },
        "title": {
            "en": "Recruitment opportunities",
            "fr": "Possibilit\u00e9s de recrutement"
        },
        "subject": {
            "en": "architecture;employment;rural communities",
            "fr": "pesticide;entreprise;d\u00e9veloppement \u00e9conomique"
        },
        "description": {
            "en": "2014-15 - Report on Plans and Priorities 2014-15 - Report on Plans and Priorities. (See Definitions section). This readjusting of the financial figures allows for a more up-to-date portrait of planned spending by program.Changes to the presentation of the Report on Plans and Priorities. The reader will also find a link to the.",
            "fr": "Le Programme de perfectionnement pour le groupe \u00c9conomique et services de sciences sociales (PPEC) s\u2019inscrit dans le Programme de perfectionnement professionnel et d\u2019apprentissage (PPPA) d\u2019Agriculture et Agroalimentaire Canada. D\u00e9termination et analyse des tendances. \u00c9laboration de strat\u00e9gies, de recommandations et de solutions \u00e0 l\u2019\u00e9gard des probl\u00e8mes complexes. et de. dipl\u00f4m\u00e9s. .\u00c9conomique et services de sciences sociales."
        },
        "language": {
            "en": "eng",
            "fr": "fra"
        },
        "keywords": {
            "en": "aerial;Enlist;Cards.Create",
            "fr": "sociologie ou en statistique.Une;apprentissage et de perfectionnement"
        },
        "audience": {
            "en": "gcaudience",
            "fr": "gcaudience"
        },
        "type": {
            "en": "presentation",
            "fr": "page administrative"
        },
        "creator": {
            "en": "Agriculture and Agri-Food Canada;Government of Canada",
            "fr": "Agriculture et Agroalimentaire Canada;Gouvernement du Canada"
        },
        "spatial": {
            "en": "gcregions",
            "fr": "gcregions"
        },
        "service": {
            "en": "AAFC-AAC",
            "fr": "AAFC-AAC"
        },
        "accessRights": {
            "en": "2",
            "fr": "2"
        },
        "legalName": {
            "en": "agriculture_and_agri_food_canada",
            "fr": "agriculture_et_agroalimentaire_canada"
        },
        "areaServed": {
            "en": "Canada",
            "fr": "Canada"
        }
    }
}