{
    "has_dcr_id": true,
    "node_id": "1566301549359",
    "parent_node_id": "1565713292962",
    "dcr_id": "1563475954611",
    "landingPageUrl": {
        "en": "1563475954611",
        "fr": "1563475954611"
    },
    "title": {
        "en": "How to Apply",
        "fr": "Comment pr\u00e9senter une demande"
    },
    "breadcrumb": {
        "en": "How to Apply",
        "fr": "Comment pr\u00e9senter une demande"
    },
    "type": "our_dept",
    "meta": {
        "issued": {
            "en": "2019-08-15",
            "fr": "2019-08-15"
        },
        "modified": {
            "en": "2021-01-04",
            "fr": "2021-01-04"
        },
        "format": {
            "en": "text/html",
            "fr": "text/html"
        },
        "title": {
            "en": "Local Food Infrastructure Fund: Step 3. How to apply",
            "fr": "Fonds des infrastructures alimentaires locales: \u00c9tape 3. Comment pr\u00e9senter une demande"
        },
        "subject": {
            "en": "programs;nutrition;food;federal programs;community development",
            "fr": "programme f\u00e9d\u00e9ral;programme;d\u00e9veloppement communautaire;alimentation"
        },
        "description": {
            "en": "The Local Food Infrastructure Fund, Infrastructure and Equipment Improvement Projects aims to enable small community-based organizations to improve their infrastructure and purchase equipment that is directly related to the accessibility of healthy, nutritious, and ideally, local foods within their community.",
            "fr": "Le Fonds des infrastructures alimentaires locales, Le volet des Projets d\u2019am\u00e9lioration des infrastructures et \u00e9quipements a pour objectif de permettre aux petits organismes communautaires d\u2019am\u00e9liorer leur infrastructure et d\u2019acheter de l\u2019\u00e9quipement li\u00e9 directement \u00e0 l\u2019accessibilit\u00e9 \u00e0 des aliments sains, nutritifs et id\u00e9alement locaux au sein de leur collectivit\u00e9."
        },
        "language": {
            "en": "eng",
            "fr": "fra"
        },
        "keywords": {
            "en": " Food availability; Food accessibility; Fresh food; Nutritious food; Healthy food; Local food; Food equipment; Food infrastructure; Food security; Food services; Community initiative; Food initiative; Food program;Food policy",
            "fr": " disponibilit\u00e9 alimentaire; acc\u00e8s alimentaire; aliments frais; aliments nutritifs; aliments sant\u00e9; aliments locaux; \u00e9quipement alimentaire; infrastructure alimentaire; s\u00e9curit\u00e9 alimentaire; service alimentaire; initiative communautaire; initiative alimentaire; programme alimentaire;Politique alimentaire"
        },
        "audience": {
            "en": "gcaudience",
            "fr": "gcaudience"
        },
        "type": {
            "en": "program-service description",
            "fr": "description du programme ou du service"
        },
        "creator": {
            "en": "Agriculture and Agri-Food Canada;Government of Canada",
            "fr": "Agriculture et Agroalimentaire Canada;Gouvernement du Canada"
        },
        "spatial": {
            "en": "gcregions",
            "fr": "gcregions"
        },
        "service": {
            "en": "AAFC-AAC",
            "fr": "AAFC-AAC"
        },
        "accessRights": {
            "en": "2",
            "fr": "2"
        },
        "legalName": {
            "en": "agriculture_and_agri_food_canada",
            "fr": "agriculture_et_agroalimentaire_canada"
        },
        "areaServed": {
            "en": "Canada",
            "fr": "Canada"
        }
    }
}