{
    "has_dcr_id": true,
    "parent_node_id": "1354137773676",
    "node_id": "1571321713170",
    "dcr_id": "1291828779399",
    "landingPageUrl": {
        "en": "1291828779399",
        "fr": "1515010952950"
    },
    "parent_page": {
        "en": "1362151577626",
        "fr": "1362151577626"
    },
    "title": {
        "en": "AgriInvest - Step 1. What this program offers",
        "fr": "Programme Agri-assurance : Volet Associations nationales de l\u2019industrie"
    },
    "breadcrumb": {
        "en": "AgriInvest - Step 1. What this program offers",
        "fr": "Programme Agri-assurance : Volet Associations nationales de l\u2019industrie"
    },
    "temptype": "our_dept",
    "meta": {
        "issued": {
            "en": "2019-10-22",
            "fr": "2019-10-22"
        },
        "modified": {
            "en": "2020-12-21",
            "fr": "2020-12-21"
        },
        "format": {
            "en": "text/html",
            "fr": "text/html"
        },
        "title": {
            "en": "AgriInvest - Step 1. What this program offers",
            "fr": "Agri-investissement - \u00c9tape 1. Ce qu'offre ce programme"
        },
        "subject": {
            "en": "agricultural assistance;architectural heritage;architecture",
            "fr": "commerce ext\u00e9rieur;finances;viande"
        },
        "description": {
            "en": "What this program offers. Step 1. What this program offers. For more information, visit. How is my AgriInvest Deposit Calculated?Your AgriInvest account grows as you make deposits, receive matching government contributions and earn interest. La Financi\u00e8re agricole. .Previous-next document navigation - bottom.",
            "fr": "Agri-investissement - \u00c9tape 1. Ce qu'offre ce programme. Agri-investissement est l\u2019un des programmes de gestion des risques de l\u2019entreprise aux termes du Partenariat canadien pour l\u2019agriculture (PCA), un investissement de 3 milliards de dollars sur cinq ans par les gouvernements f\u00e9d\u00e9ral, provinciaux et territoriaux qui vise \u00e0 renforcer le secteur de l\u2019agriculture et de l\u2019agroalimentaire.Agri-investissement est un compte d'\u00e9pargne producteur-gouvernement autog\u00e9r\u00e9 qui vous aide \u00e0 g\u00e9rer de petites baisses de revenu et \u00e0 faire des investissements dans le but d'att\u00e9nuer les risques et d'am\u00e9liorer le revenu du march\u00e9.Chaque ann\u00e9e, vous pouvez d\u00e9poser la totalit\u00e9 de vos ventes nettes ajust\u00e9es dans votre compte Agri-investissement et recevoir une contribution de contrepartie du gouvernement jusqu'\u00e0 concurrence de 1\u00a0% de ce montant. .Pour obtenir des renseignements d\u00e9taill\u00e9s sur le programme, consultez les."
        },
        "language": {
            "en": "eng",
            "fr": "fra"
        },
        "keywords": {
            "en": null,
            "fr": "Suis-je;\u00e9pargne producteur-gouvernement autog\u00e9r\u00e9"
        },
        "audience": {
            "en": "gcaudience",
            "fr": "gcaudience"
        },
        "type": {
            "en": "business plan",
            "fr": "accord"
        },
        "creator": {
            "en": "Agriculture and Agri-Food Canada;Government of Canada",
            "fr": "Agriculture et Agroalimentaire Canada;Gouvernement du Canada"
        },
        "spatial": {
            "en": "gcregions",
            "fr": "gcregions"
        },
        "service": {
            "en": "AAFC-AAC",
            "fr": "AAFC-AAC"
        },
        "accessRights": {
            "en": "2",
            "fr": "2"
        },
        "legalName": {
            "en": "agriculture_and_agri_food_canada",
            "fr": "agriculture_et_agroalimentaire_canada"
        },
        "areaServed": {
            "en": "Canada",
            "fr": "Canada"
        }
    }
}