{
    "has_dcr_id": true,
    "node_id": "1571322247714",
    "parent_node_id": "1571321713170",
    "dcr_id": "1549485586652",
    "landingPageUrl": {
        "en": "1549485586652",
        "fr": "1549485586652"
    },
    "title": {
        "en": "AgriInvest - Resources",
        "fr": "Agri-investissement - Ressources"
    },
    "breadcrumb": {
        "en": "AgriInvest - Resources",
        "fr": "Agri-investissement - Ressources"
    },
    "type": "our_dept",
    "meta": {
        "issued": {
            "en": "2019-10-22",
            "fr": "2019-10-22"
        },
        "modified": {
            "en": "2020-12-21",
            "fr": "2020-12-21"
        },
        "format": {
            "en": "text/html",
            "fr": "text/html"
        },
        "title": {
            "en": "AgriInvest - Resources",
            "fr": "Agri-investissement - Ressources"
        },
        "subject": {
            "en": "architecture;government information;statistics",
            "fr": "m\u00e9dicament;engrais;finances"
        },
        "description": {
            "en": "Resources. Step 1. What this program offers. 2018 T1163 Statement A - AgriStability and AgriInvest Programs Information and Statement of Farming Activities for Individuals. 2017 AgriInvest Program \u2013 Corporation/Co-operative and Special Individual Harmonized Form and Guide \u2013 Commodity List and Program Payment List.",
            "fr": "Ressources. \u00c9tape 1. Ce qu'offre ce programme. Programmes d'Agri-investissement en 2019 \u2013 Guide et formulaire harmonis\u00e9s pour les soci\u00e9t\u00e9s, les coop\u00e9ratives et les particuliers de cat\u00e9gorie sp\u00e9ciale \u2013 Liste des codes de r\u00e9gion, liste de codes des unit\u00e9s de mesure, liste des codes de d\u00e9penses, liste concernant la capacit\u00e9. \u00c9tat A 2019 \u2013 Soci\u00e9t\u00e9, coop\u00e9rative et particulier de cat\u00e9gorie sp\u00e9ciale. Formulaire d'administration de la succession. Formulaires de l\u2019Agence du revenu du Canada."
        },
        "language": {
            "en": "eng",
            "fr": "fra"
        },
        "keywords": {
            "en": "Year.Maximum;Program.Fund",
            "fr": "commerciales.Chaque;Refonte"
        },
        "audience": {
            "en": "gcaudience",
            "fr": "gcaudience"
        },
        "type": {
            "en": "sound",
            "fr": "fiche de renseignements"
        },
        "creator": {
            "en": "Agriculture and Agri-Food Canada;Government of Canada",
            "fr": "Agriculture et Agroalimentaire Canada;Gouvernement du Canada"
        },
        "spatial": {
            "en": "gcregions",
            "fr": "gcregions"
        },
        "service": {
            "en": "AAFC-AAC",
            "fr": "AAFC-AAC"
        },
        "accessRights": {
            "en": "2",
            "fr": "2"
        },
        "legalName": {
            "en": "agriculture_and_agri_food_canada",
            "fr": "agriculture_et_agroalimentaire_canada"
        },
        "areaServed": {
            "en": "Canada",
            "fr": "Canada"
        }
    }
}