{
    "has_dcr_id": true,
    "node_id": "1597936506751",
    "parent_node_id": "1354137774029",
    "dcr_id": "1597858160271",
    "landingPageUrl": {
        "en": "1597858160271",
        "fr": "1597858160271"
    },
    "parent_dcr_id": "1360678134288",
    "breadcrumb": {
        "en": "Food Policy",
        "fr": "Food Policy"
    },
    "node_title": {
        "en": "Food Policy",
        "fr": "Food Policy"
    },
    "title": {
        "en": "Food Policy",
        "fr": "Food Policy"
    },
    "type": "Help",
    "meta": {
        "issued": {
            "en": "2020-11-17",
            "fr": "2020-11-17"
        },
        "modified": {
            "en": "2020-11-24",
            "fr": "2020-11-24"
        },
        "format": {
            "en": "gcformat",
            "fr": "gcformat"
        },
        "title": {
            "en": "Food Policy",
            "fr": "Politique alimentaire"
        },
        "subject": {
            "en": "statistics;architectural heritage;architecture",
            "fr": "gestion des terres;foresterie;coop\u00e9rative"
        },
        "description": {
            "en": "Binder 3: Who we are and what we do Ministerial Transition Books - Binder 3. Who we are and what we do. and the. Canadian Dairy Commission Act. . The. Plant Breeders Rights Act. governs the intellectual property rights associated with plant breeds and breeding.Authorities for administrative monetary penalties.",
            "fr": "Cahier 3 : Qui nous sommes et ce que nous faisons Cahiers de transition de la ministre : Cahier 3. Qui nous sommes et ce que nous faisons. Les lois sur la commercialisation qui rel\u00e8vent du mandat du ministre sont La Loi sur la commercialisation des produits agricoles, la Loi sur les offices des produits agricoles et la Loi sur la Commission canadienne du lait. et la. Loi sur la sant\u00e9 des animaux."
        },
        "language": {
            "en": "eng",
            "fr": "fra"
        },
        "keywords": {
            "en": "again.May;Program.January",
            "fr": "entendre.Mars;entendre.La;accost\u00e9s"
        },
        "audience": {
            "en": "gcaudience",
            "fr": "gcaudience"
        },
        "type": {
            "en": "program-service description",
            "fr": "page administrative"
        },
        "creator": {
            "en": "Agriculture and Agri-Food Canada",
            "fr": "Agriculture et Agroalimentaire Canada"
        },
        "spatial": {
            "en": "gcregions",
            "fr": "gcregions"
        },
        "service": {
            "en": "AAFC-AAC",
            "fr": "AAFC-AAC"
        },
        "accessRights": {
            "en": "2",
            "fr": "2"
        },
        "legalName": {
            "en": "agriculture_and_agri_food_canada",
            "fr": "agriculture_et_agroalimentaire_canada"
        },
        "areaServed": {
            "en": "Canada",
            "fr": "Canada"
        }
    },
    "body": {
        "en": "tart --&gt;\r\n    <!-- D&eacute;but du contenu -->\r\n    <h1>Food Policy</h1><div class=\"row\">\n<div class=\"col-md-6\">\n     \n        <p>Learn more about the first-ever Food Policy for Canada, a roadmap for a healthier and more sustainable food system for Canada.</p>\n\n <!-- START Social Buttons -->\n<div class=\"pull-left\">\n<section class=\"followus mrgn-tp-0\"> \n   <h2>Follow:</h2> \n   <ul> \n    <li><a href=\"https://www.facebook.com/CanadianAgriculture/\" class=\"facebook gl-follow\" rel=\"external\"> <span class=\"wb-inv\">Facebook</span></a></li> \n    <li><a href=\"https://twitter.com/AAFC_Canada\" class=\"twitter gl-follow\" rel=\"external\"> <span class=\"wb-inv\">Twitter</span></a></li> \n   </ul> \n  </section>\n</div>\n<!-- END Social Buttons -->\n</div>\n<div class=\"col-md-6 mrgn-tp-sm hidden-sm hidden-xs\">\n<img src=\"https://multimedia.agr.gc.ca/pack/img/fpc.jpg\" class=\"img-responsive\" alt=\"\">\n</div>\n</div>\n\n<div class=\"row\">\n    <div class=\"col-md-4 pull-right\">\n  <section class=\"panel panel-default\">\n   <header class=\"panel-heading\">\n    <h2 class=\"panel-title\">News</h2>\n   </header>\n   <div class=\"panel-body\">\n  <ul class=\"list-unstyled\">\n<!-- <li><a href=\"?id=1597863853544#details\">Canadian Food Policy Advisory Council members</a> [2020]</li> -->\n\n<li class=\"mrgn-tp-md\"><a href=\"https://www.canada.ca/en/agriculture-agri-food/news/2020/11/government-of-canada-launches-food-waste-reduction-challenge.html\">Government of Canada launches Food Waste Reduction Challenge</a> [November 19, 2020]</li>\n\n<li class=\"mrgn-tp-md\"><a href=\"https://www.canada.ca/en/agriculture-agri-food/news/2020/06/government-of-canada-launches-second-call-for-proposals-under-the-local-food-infrastructure-fund.html\">Government of Canada launches second call for proposals under the Local Food Infrastructure Fund</a> [June 9, 2020]</li>\n\n<li class=\"mrgn-tp-md\"><a href=\"https://www.canada.ca/en/agriculture-agri-food/news/2019/08/everyone-at-the-table-minister-bibeau-highlights-investments-to-improve-access-to-local-food-as-part-of-the-food-policy-for-canada.html\">\"Everyone at the Table!\" Minister Bibeau highlights investments to improve access to local food as part of the Food Policy for Canada</a> [August 12, 2019]</li>\n</ul>\n   </div>\n  </section> \n</div>\n\n<div class=\"col-md-8 col-xs-12 pull-left\">\n\n<h2>Services and information</h2>\n\t\n<div class=\"clearfix\"></div>\n\t\n<div class=\"wb-eqht row wb-init wb-eqht-inited\">\n\n<div class=\"col-md-6\">\n<h3 class=\"h5\"><a href=\"?id=1597861079592\">Everyone at the table! Investing in The Food Policy for Canada</a></h3>\n<p>Working together to improve food systems in Canada for everyone</p>\n</div>\n\n<div class=\"col-md-6\">\n<h3 class=\"h5\"><a href=\"?id=1597863791042\">The Food Policy for Canada</a></h3>\n<p>A roadmap to a healthier and more sustainable food system for Canada</p>\n</div>\n\n<div class=\"clearfix\"></div>\n\n<div class=\"col-md-6\">\n<h3 class=\"h5\"><a href=\"?id=1597863853544\">The Canadian Food Policy Advisory Council</a></h3>\n<p>Learn about the role of the Advisory Council <!-- and its members --></p>\n</div>\n\n<div class=\"col-md-6\">\n<h3 class=\"h5\"><a href=\"?id=1597863906829\">Learn more about food policy in Canada</a></h3>\n<p>Federal food related initiatives and food policy proposals for Canada</p>\n</div>\n\t\n<div class=\"clearfix\"></div>\t\n\n\n<!--\n<div class=\"col-md-6\">\n<h3 class=\"h5\"><a href=\"?id=1597863976286\">Outcomes of The Food Policy for Canada</a></h3>\n<p>Outcome, status, and purpose of initiatives</p>\n</div>\n-->\n\n<div class=\"col-md-6\">\n<h3 class=\"h5\"><a href=\"?id=1597864030202\">Consulting with Canadians for The Food Policy for Canada</a></h3>\n<p>Consultations related to The Food Policy for Canada</p>\n</div>\n</div>\n</div>\n</div>\n\r\n    <!-- Fin du contenu -->\r\n  \r\n  <div class=\"pagedetails\" id=\"pgft\">\r\n    <div class=\"row\">\r\n\t  <div class=\"col-sm-6 col-md-5 col-lg-4\">\r\n\t    <details class=\"brdr-0\">\r\n\t\t<summary class=\"btn btn-default text-center\" onclick=\"getAntiSpamSeq('/eng/mail-handler/?anti-spam-sequence=true')\">Report a problem on this page</summary>\r\n\t\t<div class=\"clearfix\"></div>\r\n\t\t<div class=\"well row\">\r\n\t\t<div>\r\n\t\t  <div class=\"gc-rprt-prblm\">\r\n\t\t    <div class=\"gc-rprt-prblm-frm gc-rprt-prblm-tggl\">\r\n\t\t\t  \r\n\t\t\t<form id=\"report_a_problem_form\" action=\"/eng/mail-handler/#report_a_problem_form\" method=\"post\">\t\t\t\t   \t\t\t\r\n\r\n\t            \t <input type=\"hidden\" name=\"lang\" value=\"eng\">\r\n\t            \t <input type=\"hidden\" name=\"pageId\" value=\"1597858160271\">\r\n\t            \t <input type=\"hidden\" name=\"pageUrl\" value=\"http://agr.gc.ca/eng/about-our-department/key-departmental-initiatives/food-policy/?id=1597858160271\">\r\n\t\t\t\t\t <div id=\"report_a_problem_form_error\"></div>\r\n\t\t             <fieldset>\t\t\t\t\t    \r\n\t\t                <legend><span class=\"field-name\">Please select all that apply:</span></legend>\t\t                                 \r\n\t\t\t\t\t\t<div class=\"checkbox\">\r\n\t\t\t\t\t\t\t<label for=\"problem1\"><input name=\"problem1\" id=\"problem1\" type=\"checkbox\" value=\"Yes\">A link, button or video is not working</label>\r\n\t\t\t\t\t\t\t<input name=\"problem1\" type=\"hidden\" value=\"No\">\r\n\t\t\t\t\t\t</div>\r\n\t\t\t\t\t\t<div class=\"checkbox\">\r\n\t\t\t\t\t\t\t<label for=\"problem2\"><input name=\"problem2\" id=\"problem2\" type=\"checkbox\" value=\"Yes\">It has a spelling mistake</label>\r\n\t\t\t\t\t\t\t<input name=\"problem2\" type=\"hidden\" value=\"No\">\r\n\t\t\t\t\t\t</div>\r\n\t\t\t\t\t\t<div class=\"checkbox\">\r\n\t\t\t\t\t\t\t<label for=\"problem3\"><input name=\"problem3\" id=\"problem3\" type=\"checkbox\" value=\"Yes\">Information is missing</label>\r\n\t\t\t\t\t\t\t<input name=\"problem3\" type=\"hidden\" value=\"No\">\r\n\t\t\t\t\t   </div>\r\n\t\t\t\t\t\t<div class=\"checkbox\">\r\n\t\t\t\t\t\t\t<label for=\"problem4\"><input name=\"problem4\" id=\"problem4\" type=\"checkbox\" value=\"Yes\">Information is outdated or wrong</label>\r\n\t\t\t\t\t\t\t<input name=\"problem4\" type=\"hidden\" value=\"No\">\r\n\t\t\t\t\t\t</div>\r\n\t\t\t\t\t\t<div class=\"checkbox\">\r\n\t\t\t\t\t\t\t<label for=\"problem5\"><input name=\"problem5\" id=\"problem5\" type=\"checkbox\" value=\"Yes\">Login error when trying to access an account (e.g. My Service Canada Account)</label>\r\n\t\t\t\t\t\t\t<input name=\"problem5\" type=\"hidden\" value=\"No\">\r\n\t\t\t\t\t\t</div>\r\n\t\t\t\t\t\t\t<ul>\r\n\t\t\t\t\t\t\t<li class=\"checkbox\">\r\n\t\t\t\t\t\t\t\t<label for=\"problem6a\"><input name=\"problem6\" id=\"problem6a\" type=\"checkbox\" value=\"Yes\">GC Key access</label>\r\n\t\t\t\t\t\t\t\t<input name=\"problem6\" type=\"hidden\" value=\"No\">\r\n\t\t\t\t\t\t\t </li>\r\n\t\t\t\t\t\t\t<li class=\"checkbox\">\r\n\t\t\t\t\t\t\t\t<label for=\"problem7\"><input name=\"problem7\" id=\"problem7\" type=\"checkbox\" value=\"Yes\">SecureKey Concierge (Banking Credential) access </label>\r\n\t\t\t\t\t\t\t\t<input name=\"problem7\" type=\"hidden\" value=\"No\">\r\n\t\t\t\t\t\t\t </li>\r\n\t\t\t\t\t\t\t<li class=\"checkbox\">\r\n\t\t\t\t\t\t\t\t<label for=\"problem8\"><input name=\"problem8\" id=\"problem8\" type=\"checkbox\" value=\"Yes\">Personal Access Code (PAC) problems or EI Access Code (AC) problems</label>\r\n\t\t\t\t\t\t\t\t<input name=\"problem8\" type=\"hidden\" value=\"No\">\r\n\t\t\t\t\t\t\t </li>\t\r\n\t\t\t\t\t\t\t<li class=\"checkbox\">\r\n\t\t\t\t\t\t\t\t<label for=\"problem9\"><input name=\"problem9\" id=\"problem9\" type=\"checkbox\" value=\"Yes\">Social Insurance Number (SIN) validation problems</label>\r\n\t\t\t\t\t\t\t\t<input name=\"problem9\" type=\"hidden\" value=\"No\">\r\n\t\t\t\t\t\t\t </li>\t\t\t\t\t\t\t\t\r\n\t\t\t\t\t\t\t<li class=\"checkbox\">\r\n\t\t\t\t\t\t\t\t<label for=\"problem10\"><input name=\"problem10\" id=\"problem10\" type=\"checkbox\" value=\"Yes\">Other login error not in this list</label>\r\n\t\t\t\t\t\t\t\t<input name=\"problem10\" type=\"hidden\" value=\"No\">\r\n\t\t\t\t\t\t\t </li>\t\t \r\n\t\t\t\t\t\t\t </ul>\r\n\t\t\t\t\t\t<div class=\"checkbox\">\r\n\t\t\t\t\t\t\t<label for=\"problem11\"><input name=\"problem11\" id=\"problem11\" type=\"checkbox\" value=\"Yes\">I can't find what I'm looking for</label>\r\n\t\t\t\t\t\t\t<input name=\"problem11\" type=\"hidden\" value=\"No\">\r\n\t\t\t\t\t\t</div>\r\n\t\t\t\t\t\t<div class=\"checkbox\">\r\n\t\t\t\t\t\t\t<label for=\"problem12\"><input name=\"problem12\" id=\"problem12\" type=\"checkbox\" value=\"Yes\">Other issue not in this list</label>\r\n\t\t\t\t\t\t\t<input name=\"problem12\" type=\"hidden\" value=\"No\">\r\n\t\t\t\t\t\t</div>\t\t\t\t\t\t \t\t\t\t\t\t\t\t\t\t\t\t \r\n\t\t             </fieldset>\r\n\t\t\t\t\t <div>\r\n\t\t\t\t\t   <label for=\"aafc_ranstr\"><span id=\"fbch\"><br>Enter these characters <strong class=\"required\">(required)</strong>: </span><span id=\"ranstr\">U5S</span></label>\r\n\t\t\t           <input name=\"anti-spam-sequence\" id=\"aafc_ranstr\" size=\"4\" maxlength=\"3\" type=\"text\">\r\n\t\t\t\t\t </div>\t\r\n\r\n\t\t\t\t\t <br><input type=\"submit\" class=\"btn btn-primary\" value=\"Submit\">\r\n\t\t\t\t  </form>\r\n\t\t\t\t</div>\r\n\t\t\t</div>\t\t\t\r\n\t\t  </div>\r\n\t\t</div>\r\n\t\t</details>\r\n\t  </div>\r\n\t  <div class=\"wb-share col-sm-4 col-md-3 col-sm-offset-2 col-md-offset-4 col-lg-offset-5\" data-wb-share='{\"lnkClass\": \"btn btn-default btn-block\"}'></div>\r\n\t</div>\r\n\t<dl id=\"wb-dtmd\">\r\n\t  <dt>Date modified: </dt>\r\n\t  <dd><time property=\"dateModified\">2020-11-24</time></dd></dl></div>",
        "fr": "tStart --&gt;\r\n    <!-- D&eacute;but du contenu -->\r\n    <h1>Politique alimentaire</h1><div class=\"row\">\n<div class=\"col-md-6\">\n     \n        <p>D\u00e9couvrez la toute premi\u00e8re Politique alimentaire pour le Canada, une feuille de route pour un syst\u00e8me alimentaire plus sain et plus durable pour le Canada.</p>\n\n <!-- START Social Buttons -->\n<div class=\"pull-left\">\n<section class=\"followus mrgn-tp-0\"> \n   <h2>Suivez :</h2> \n   <ul> \n    <li><a href=\"https://www.facebook.com/AgricultureCanadienne\" class=\"facebook gl-follow\" rel=\"external\"> <span class=\"wb-inv\">Facebook</span></a></li> \n    <li><a href=\"https://twitter.com/AAC_Canada\" class=\"twitter gl-follow\" rel=\"external\"> <span class=\"wb-inv\">Twitter</span></a></li> \n   </ul> \n  </section>\n</div>\n<!-- END Social Buttons -->\n</div>\n<div class=\"col-md-6 mrgn-tp-sm hidden-sm hidden-xs\">\n<img src=\"https://multimedia.agr.gc.ca/pack/img/fpc.jpg\" class=\"img-responsive\" alt=\"\">\n</div>\n</div>\n\n<div class=\"row\">\n    <div class=\"col-md-4 pull-right\">\n  <section class=\"panel panel-default\">\n   <header class=\"panel-heading\">\n    <h2 class=\"panel-title\">Nouveaut\u00e9s</h2>\n   </header>\n   <div class=\"panel-body\">\n  <ul class=\"list-unstyled\">\n<!-- <li><a href=\"?id=1597863853544#details\">Canadian Food Policy Advisory Council members</a> [2020]</li> -->\n\n<li class=\"mrgn-tp-md\"><a href=\"https://www.canada.ca/fr/agriculture-agroalimentaire/nouvelles/2020/11/le-gouvernement-du-canada-lance-le-defi-de-reduction-du-gaspillage-alimentaire.html\">Le gouvernement du Canada lance le D\u00e9fi de r\u00e9duction du gaspillage alimentaire</a> [19 novembre 2020]</li>\n\n<li class=\"mrgn-tp-md\"><a href=\"https://www.canada.ca/fr/agriculture-agroalimentaire/nouvelles/2020/06/le-gouvernement-du-canada-lance-le-deuxieme-appel-de-propositions-dans-le-cadre-du-fonds-des-infrastructures-alimentaires-locales.html\">Le gouvernement du Canada lance le deuxi\u00e8me appel de propositions dans le cadre du Fonds des infrastructures alimentaires locales</a> [9 juin 2020]</li>\n\n\n<li class=\"mrgn-tp-md\"><a href=\"https://www.canada.ca/fr/agriculture-agroalimentaire/nouvelles/2019/08/tout-le-monde-a-table-la-ministre-bibeau-met-en-lumiere-des-investissements-visant-a-ameliorer-lacces-aux-aliments-locaux-dans-le-cadre-de-la-polit.html\">\u00ab Tout le monde \u00e0 table! \u00bb La ministre Bibeau met en lumi\u00e8re des investissements visant \u00e0 am\u00e9liorer l\u2019acc\u00e8s aux aliments locaux dans le cadre de la Politique alimentaire pour le Canada</a> [12 ao\u00fbt 2019]</li>\n   </ul>\n   </div>\n  </section> \n</div>\n\n<div class=\"col-md-8 col-xs-12 pull-left\">\n\n<h2>Services et renseignements</h2>\n\t\n<div class=\"clearfix\"></div>\n\t\n<div class=\"wb-eqht row wb-init wb-eqht-inited\">\n\n<div class=\"col-md-6\">\n<h3 class=\"h5\"><a href=\"?id=1597861079592\">Tout le monde \u00e0 table! Investir dans la Politique alimentaire pour le Canada</a></h3>\n<p>Travailler ensemble pour am\u00e9liorer les syst\u00e8mes alimentaires du Canada</p>\n</div>\n\n<div class=\"col-md-6\">\n<h3 class=\"h5\"><a href=\"?id=1597863791042\">Politique alimentaire pour le Canada</a></h3>\n<p>Une feuille de route pour un syst\u00e8me alimentaire plus sain et plus durable pour le Canada</p>\n</div>\n\n<div class=\"clearfix\"></div>\n\n<div class=\"col-md-6\">\n<h3 class=\"h5\"><a href=\"?id=1597863853544\">Conseil consultatif de la politique alimentaire du Canada</a></h3>\n<p>D\u00e9couvrez le r\u00f4le du Conseil consultatif</p>\n</div>\n\n<div class=\"col-md-6\">\n<h3 class=\"h5\"><a href=\"?id=1597863906829\">Apprendre plus sur le syst\u00e8me alimentaire canadien</a></h3>\n<p>Les initiatives du gouvernement du Canada en lien avec la Politique alimentaire</p>\n</div>\n\t\n<div class=\"clearfix\"></div>\t\n\n\n<!--\n<div class=\"col-md-6\">\n<h3 class=\"h5\"><a href=\"?id=1597863976286\">Outcomes of The Food Policy for Canada</a></h3>\n<p>Outcome, status, and purpose of initiatives</p>\n</div>\n-->\n\n<div class=\"col-md-6\">\n<h3 class=\"h5\"><a href=\"?id=1597864030202\">Consultation des Canadiens au sujet de la Politique alimentaire pour le Canada</a></h3>\n<p>La consultation sur la Politique alimentaire pour le Canada</p>\n</div>\n</div>\n</div>\n</div>\n\r\n    <!-- Fin du contenu -->\r\n\t\r\n\t<div class=\"pagedetails\" id=\"pgft\">\r\n\t\t<div class=\"row\">\r\n\t\t  <div class=\"col-sm-6 col-md-5 col-lg-4\">\r\n\t\t    <details class=\"brdr-0\">\r\n\t\t\t<summary class=\"btn btn-default text-center\" onclick=\"getAntiSpamSeq('/fra/mail-handler/?anti-spam-sequence=true')\">Signaler un probl\u00e8me sur cette page</summary>\r\n\t\t\t<div class=\"well row\">\r\n\t\t\t  <div class=\"gc-rprt-prblm\">\r\n\t\t\t    <div class=\"gc-rprt-prblm-frm gc-rprt-prblm-tggl\">\r\n\t\t\t\t   <form id=\"report_a_problem_form\" action=\"/fra/mail-handler/\" method=\"post\">\r\n\t            \t <input type=\"hidden\" name=\"lang\" value=\"fra\">\r\n\t            \t <input type=\"hidden\" name=\"pageId\" value=\"1597858160271\">\r\n\t            \t <input type=\"hidden\" name=\"pageUrl\" value=\"http://agr.gc.ca/fra/a-propos-de-notre-ministere/initiatives-ministerielles-importantes/politique-alimentaire/?id=1597858160271\">\r\n\t\t\t\t\t <div id=\"report_a_problem_form_error\"></div>\r\n\t\t             <fieldset>\t\t\t\t\t    \r\n\t\t                <legend><span class=\"field-name\">Veuillez cocher toutes les r\u00e9ponses pertinentes\u00a0:</span></legend>\r\n\t\t                 <div class=\"checkbox\">\r\n\t\t                    <label for=\"problem1\"><input name=\"problem1\" id=\"problem1\" type=\"checkbox\" value=\"Yes\">Un lien, un bouton ou une vid\u00e9o ne fonctionne pas</label>\r\n\t\t                    <input name=\"problem1\" type=\"hidden\" value=\"No\">\r\n\t\t                </div>\r\n\t\t                <div class=\"checkbox\">\r\n\t\t                    <label for=\"problem2\"><input name=\"problem2\" id=\"problem2\" type=\"checkbox\" value=\"Yes\">Il y a une erreur d'orthographe ou de grammaire</label>\r\n\t\t                    <input name=\"problem2\" type=\"hidden\" value=\"No\">\r\n\t\t                </div>\r\n\t\t   \t\t\t\t <div class=\"checkbox\">\r\n\t\t                    <label for=\"problem3\"><input name=\"problem3\" id=\"problem3\" type=\"checkbox\" value=\"Yes\">Les renseignements sont incomplets</label>\r\n\t\t                    <input name=\"problem3\" type=\"hidden\" value=\"No\">\r\n\t\t                </div>\r\n\t\t             \t\t<div class=\"checkbox\">\r\n\t\t                    <label for=\"problem4\"><input name=\"problem4\" id=\"problem4\" type=\"checkbox\" value=\"Yes\">L'information n'est plus \u00e0 jour ou est erron\u00e9e</label>\r\n\t\t                    <input name=\"problem4\" type=\"hidden\" value=\"No\">\r\n\t\t                </div>\t\t\t\t\t\t\r\n\t\t\t\t\t\t<div class=\"checkbox\">\r\n\t\t\t\t\t\t\t<label for=\"problem5\"><input name=\"problem5\" id=\"problem5\" type=\"checkbox\" value=\"Yes\">Message d'erreur \u00e0 l'ouverture de la session lorsque je tente d'acc\u00e9der \u00e0 un compte (ex. Mon dossier Service Canada)</label>\r\n\t\t\t\t\t\t\t<input name=\"problem5\" type=\"hidden\" value=\"No\">\r\n\t\t\t\t\t\t</div>\r\n\t\t\t\t\t\t\t<ul>\r\n\t\t\t\t\t\t\t<li class=\"checkbox\">\r\n\t\t\t\t\t\t\t\t<label for=\"problem6a\"><input name=\"problem6\" id=\"problem6a\" type=\"checkbox\" value=\"Yes\">Acc\u00e8s Cl\u00e9GC</label>\r\n\t\t\t\t\t\t\t\t<input name=\"problem6\" type=\"hidden\" value=\"No\">\r\n\t\t\t\t\t\t\t </li>\r\n\t\t\t\t\t\t\t<li class=\"checkbox\">\r\n\t\t\t\t\t\t\t\t<label for=\"problem7\"><input name=\"problem7\" id=\"problem7\" type=\"checkbox\" value=\"Yes\">Acc\u00e8s SecureKey Service de Concierge (justificatifs d'identit\u00e9 bancaires)</label>\r\n\t\t\t\t\t\t\t\t<input name=\"problem7\" type=\"hidden\" value=\"No\">\r\n\t\t\t\t\t\t\t </li>\r\n\t\t\t\t\t\t\t<li class=\"checkbox\">\r\n\t\t\t\t\t\t\t\t<label for=\"problem8\"><input name=\"problem8\" id=\"problem8\" type=\"checkbox\" value=\"Yes\">Probl\u00e8me avec le Code d'acc\u00e8s personnel (CAP) ou avec le Code d'acc\u00e8s (CA) de l'assurance emploi</label>\r\n\t\t\t\t\t\t\t\t<input name=\"problem8\" type=\"hidden\" value=\"No\">\r\n\t\t\t\t\t\t\t </li>\t\r\n\t\t\t\t\t\t\t<li class=\"checkbox\">\r\n\t\t\t\t\t\t\t\t<label for=\"problem9\"><input name=\"problem9\" id=\"problem9\" type=\"checkbox\" value=\"Yes\">Probl\u00e8me li\u00e9 \u00e0 la validation du num\u00e9ro d'assurance sociale (NAS)</label>\r\n\t\t\t\t\t\t\t\t<input name=\"problem9\" type=\"hidden\" value=\"No\">\r\n\t\t\t\t\t\t\t </li>\t\t\t\t\t\t\t\t\r\n\t\t\t\t\t\t\t<li class=\"checkbox\">\r\n\t\t\t\t\t\t\t\t<label for=\"problem10\"><input name=\"problem10\" id=\"problem10\" type=\"checkbox\" value=\"Yes\">Autre erreur lors de l'ouverture de session qui ne figure pas sur cette liste</label>\r\n\t\t\t\t\t\t\t\t<input name=\"problem10\" type=\"hidden\" value=\"No\">\r\n\t\t\t\t\t\t\t </li>\t\t \r\n\t\t\t\t\t\t\t </ul>\r\n\t\t\t\t\t\t<div class=\"checkbox\">\r\n\t\t\t\t\t\t\t<label for=\"problem11\"><input name=\"problem11\" id=\"problem11\" type=\"checkbox\" value=\"Yes\">Je n'arrive pas \u00e0 trouver ce que je cherche</label>\r\n\t\t\t\t\t\t\t<input name=\"problem11\" type=\"hidden\" value=\"No\">\r\n\t\t\t\t\t\t</div>\r\n\t\t\t\t\t\t<div class=\"checkbox\">\r\n\t\t\t\t\t\t\t<label for=\"problem12\"><input name=\"problem12\" id=\"problem12\" type=\"checkbox\" value=\"Yes\">Autre probl\u00e8me qui ne figure pas sur cette liste</label>\r\n\t\t\t\t\t\t\t<input name=\"problem12\" type=\"hidden\" value=\"No\">\r\n\t\t\t\t\t\t</div>\t\t\t\t\t\t\t\t\t\t\t\t\t\t\t\t\t\t\t\r\n\t\t             </fieldset>\r\n\t\t\t\t\t <div>\r\n\t\t\t\t        <label for=\"aafc_ranstr\"><span id=\"fbch\">Veuillez inscrire les caract\u00e8res suivants  <strong class=\"required\">(obligatoire)</strong>\u00a0: </span><span id=\"ranstr\">XXX</span></label>\r\n\t\t\t            <input name=\"anti-spam-sequence\" id=\"aafc_ranstr\" size=\"4\" maxlength=\"3\" type=\"text\">\r\n\t\t\t\t\t </div>\r\n\t\t\t\t\t <input type=\"submit\" class=\"btn btn-primary\" value=\"Soumettre\">\r\n\t\t\t\t  </form>\r\n\t\t\t\t</div>\r\n\t\t\t  </div>\r\n\t\t\t</div>\r\n\t\t</details>\r\n\t    </div>\r\n\t  <div class=\"wb-share col-sm-4 col-md-3 col-sm-offset-2 col-md-offset-4 col-lg-offset-5\" data-wb-share='{\"lnkClass\": \"btn btn-default btn-block\"}'></div>\r\n\t  </div>\r\n\t  <dl id=\"wb-dtmd\">\r\n\t    <dt>Date de modification\u00a0: </dt>\r\n\t      <dd><time property=\"dateModified\">2020-11-24</time></dd></dl></div>"
    }
}